  <Placemark>
	<Style><LineStyle><color>ff0000ff</color></LineStyle><PolyStyle><fill>0</fill></PolyStyle></Style>
	<ExtendedData><SchemaData schemaUrl="#Westminster_Parliamentary_Constituencies__December_2019__Boundaries_UK_BUC">
		<SimpleData name="pcon19cd">E14000818</SimpleData>
		<SimpleData name="pcon19nm">Mid Worcestershire</SimpleData>
		<SimpleData name="bng_e">393275</SimpleData>
		<SimpleData name="bng_n">253990</SimpleData>
		<SimpleData name="long">-2.09977007</SimpleData>
		<SimpleData name="lat">52.18412018</SimpleData>
		<SimpleData name="objectid">289</SimpleData>
		<SimpleData name="st_lengthshape">201102.159255214</SimpleData>
		<SimpleData name="st_areashape">439470158.8353</SimpleData>
	</SchemaData></ExtendedData>
      <Polygon><outerBoundaryIs><LinearRing><coordinates>-2.13716881365242,52.3499796766848 -2.14885868348592,52.3463082528745 -2.15606802558046,52.3310516163945 -2.16764058743564,52.324458406701 -2.16679884520556,52.3183885232204 -2.17461874492778,52.3166546708542 -2.17088025950861,52.3316414417445 -2.19046415007379,52.3289358869164 -2.1930478845746,52.3388775290753 -2.20502236947295,52.3456330325689 -2.21047746441572,52.3551826126877 -2.2254131712786,52.3604626896159 -2.24568386647501,52.361036233594 -2.24951375440456,52.3456721751835 -2.27177602792604,52.3326320535131 -2.26036842404838,52.3283065336474 -2.26641521822817,52.3236054648157 -2.26528725064501,52.3195057514389 -2.27487815493273,52.3091727855302 -2.27038902767413,52.2828452139296 -2.27507146974601,52.2722643973485 -2.26716589488918,52.2682845555972 -2.25189368814719,52.2667556767951 -2.23183435817177,52.2499057703844 -2.2357926525402,52.2411503237844 -2.2326788394581,52.236906723051 -2.24170905337346,52.2322368544694 -2.24327173178734,52.2218541571442 -2.23553214882282,52.2221135845652 -2.23347935650543,52.2267954242335 -2.22842703011548,52.2248068039019 -2.22157623348556,52.2314054157501 -2.20915663220578,52.2248290918127 -2.19424732407968,52.2234916736339 -2.1574079791378,52.2131432362344 -2.1711524336967,52.1845601192022 -2.18287486018668,52.1829025268288 -2.18726053242753,52.1719756469775 -2.20337225892984,52.1673168228361 -2.18957557156556,52.1460197257326 -2.16669139799385,52.1456005570881 -2.16492166656419,52.1428294584192 -2.17173950938334,52.1404363081369 -2.17283898819308,52.1350115199893 -2.1921490683802,52.1302092691228 -2.19638174358746,52.1250381099557 -2.183929974972,52.1199677808646 -2.18581495703785,52.1177333539873 -2.17333437538558,52.1093040072502 -2.15184574964215,52.1074575611694 -2.14342784607421,52.1118852915468 -2.14395027731863,52.1229727356029 -2.13828818904467,52.1251067582127 -2.1351864889615,52.1229903876509 -2.1381373359608,52.1165874760896 -2.11705142391872,52.1175841669899 -2.11328548666828,52.1155451531855 -2.10615398182485,52.1256833782064 -2.09331355570956,52.1239969473679 -2.08838724651833,52.130135083391 -2.0766938745143,52.1322488269858 -2.06213098748011,52.1289875849046 -2.06518709026223,52.1270592649834 -2.05687087945766,52.1258300492744 -2.06621089829135,52.1230191996852 -2.07115706985617,52.1016067027074 -2.06565633975628,52.0929813685703 -2.05526640993739,52.0963511001814 -2.03494453968344,52.0973469771597 -2.04248846442956,52.0700240331619 -2.03133229175061,52.0781732509876 -2.02012011148312,52.0812802638424 -2.01668196478816,52.0920787642147 -2.00344943237279,52.0811839938634 -1.99234139611785,52.0820612518048 -1.98980489732777,52.0701572751778 -1.9639826832785,52.0698304605383 -1.96254910675859,52.0744800657573 -1.93777091026427,52.0697378642532 -1.92849580398139,52.0639633043992 -1.94147886672919,52.0522193775671 -1.91344602070409,52.0444612406154 -1.86226882816264,52.0174853383901 -1.86154357558555,52.0126276661012 -1.83905030714283,52.0067831284916 -1.8353091289734,52.0091624211653 -1.83565953282706,52.0225025859992 -1.8250228816679,52.0309334135568 -1.83056034585543,52.0321390322638 -1.82975128600407,52.0390716050811 -1.8345888140813,52.0437330167182 -1.86344917989937,52.053417723062 -1.86287745945827,52.0634319528479 -1.86498840401184,52.0662781575546 -1.87168224491349,52.0654261165811 -1.87440607681162,52.0699909115952 -1.86873408704989,52.0739174041368 -1.85323823831402,52.0724130752065 -1.84661960637666,52.0794210956629 -1.83175334172358,52.0727693542685 -1.81894341276327,52.0854041151211 -1.81273665650818,52.0787440014706 -1.80228873762243,52.0969414695018 -1.79013499514956,52.1005915342611 -1.78941728675708,52.1063748337746 -1.76764874769465,52.1125925601067 -1.75765894979807,52.1160761690547 -1.76969956411978,52.1153144659452 -1.78062748195398,52.1201433525387 -1.79100431323698,52.1201935592893 -1.79576585300938,52.1243474994393 -1.78578851391374,52.1321984463571 -1.80843385608566,52.1398755712958 -1.82321733193223,52.1363823220937 -1.8278448522805,52.1412448952124 -1.82334774779545,52.1459250780329 -1.83146961492221,52.1456743480676 -1.8396721464105,52.152713685185 -1.85190379418204,52.147969877182 -1.84690834174665,52.147185907136 -1.84581026559189,52.1426541740871 -1.85418798079449,52.138520914398 -1.86696223269006,52.1446396440473 -1.86387745466432,52.1470383775963 -1.86692724441238,52.153007967663 -1.88977183547481,52.1562131340578 -1.89422974637425,52.1482514762684 -1.88511820710407,52.1468531416659 -1.90347301013314,52.133450944486 -1.90510005157564,52.1427368614791 -1.9168779550102,52.1467158088793 -1.92188699893781,52.1530062956869 -1.94007674363837,52.1530420201328 -1.9443024167711,52.1553331527715 -1.95206025433396,52.1491051753817 -1.95120696858396,52.1420381767194 -1.95628246676717,52.1368742138939 -1.97491744097455,52.1253761487415 -1.98384307168759,52.1317754966478 -1.99332135246461,52.1332328465515 -1.98337473796689,52.1511078602931 -1.9985645045275,52.1576883400302 -2.00021219261772,52.1668496935611 -2.0065556101948,52.1643600156881 -2.01270514704738,52.1655202027232 -2.01579024939129,52.1699952650677 -2.02627547178016,52.1700842301898 -2.01844467495466,52.1881682092826 -2.00175329948379,52.1914143988122 -1.9944065956213,52.2059033621444 -2.00293938289933,52.2062432614688 -2.00370493745192,52.2109857919928 -2.01694039281353,52.2181403276797 -2.02275729803728,52.2179432964915 -2.02769297232772,52.2231721626025 -2.03602027977331,52.2239331753407 -2.03886975797776,52.2192336886788 -2.04563706802719,52.2241366427951 -2.05663682581719,52.2262959232975 -2.06066790196427,52.234493386921 -2.06880662624615,52.2384626945392 -2.06825045629785,52.242566305619 -2.08373025213956,52.2454567404014 -2.1022655159982,52.2418054469287 -2.10785376795618,52.2489065780996 -2.10382644302857,52.2541956546554 -2.11027306731372,52.2638919848605 -2.13464474277266,52.266460605865 -2.12545921360583,52.2706986895213 -2.11674336374426,52.2703641001705 -2.10828395273666,52.2819201855184 -2.1005491104699,52.2820393053939 -2.09963688915851,52.2844270053301 -2.06847924236587,52.2803849913637 -2.05554329590623,52.2847053831026 -2.07674135293919,52.2890787259377 -2.09168999868822,52.2885608696368 -2.08488044456823,52.296952922956 -2.090401531555,52.3049221988597 -2.08516367736649,52.3134990097277 -2.12405512062693,52.3145029140462 -2.11574741606984,52.322097322792 -2.11847530020161,52.3320881994208 -2.11328311687734,52.3371619384153 -2.11697858754864,52.3420264343952 -2.12468117204014,52.3402636828395 -2.12309423784433,52.3427637111042 -2.13147114145511,52.347079656597 -2.12772660258453,52.3522378314788 -2.13301686064433,52.3480128791817 -2.13716881365242,52.3499796766848</coordinates></LinearRing></outerBoundaryIs></Polygon>
  </Placemark>
