  <Placemark>
	<Style><LineStyle><color>ff0000ff</color></LineStyle><PolyStyle><fill>0</fill></PolyStyle></Style>
	<ExtendedData><SchemaData schemaUrl="#Westminster_Parliamentary_Constituencies__December_2019__Boundaries_UK_BUC">
		<SimpleData name="pcon19cd">E14000916</SimpleData>
		<SimpleData name="pcon19nm">Sefton Central</SimpleData>
		<SimpleData name="bng_e">331662</SimpleData>
		<SimpleData name="bng_n">404014</SimpleData>
		<SimpleData name="long">-3.03237009</SimpleData>
		<SimpleData name="lat">53.52833176</SimpleData>
		<SimpleData name="objectid">387</SimpleData>
		<SimpleData name="st_lengthshape">66034.7298717987</SimpleData>
		<SimpleData name="st_areashape">83441154.5075396</SimpleData>
	</SchemaData></ExtendedData>
      <Polygon><outerBoundaryIs><LinearRing><coordinates>-3.03334247358098,53.5851199576743 -3.04859433530265,53.5866689618089 -3.0477075880281,53.5892303973158 -3.05177549393872,53.5894517890417 -3.05528296109472,53.5874263416622 -3.08182174022716,53.5873557291546 -3.10423854228946,53.554459810211 -3.10189925042513,53.5371402882266 -3.08574739254574,53.5254036381008 -3.06831679467828,53.5199000243537 -3.06275875510167,53.5299501494209 -3.06373684924024,53.5054686771475 -3.05623653252405,53.4920490486636 -3.04742643058339,53.4762735613813 -3.03382272717419,53.4817341272957 -3.03802202900028,53.4855442154716 -3.02319190919443,53.4934050565887 -3.01369198664102,53.4947596906047 -3.008810235206,53.4853187035713 -2.99703514846251,53.4944836504719 -2.98772545738308,53.4896728818212 -2.98021352344877,53.4973185533772 -2.95149857859208,53.490825100714 -2.96017895473626,53.4680014859638 -2.95630659000364,53.4729934783111 -2.92261510760143,53.4749832157279 -2.91684330786844,53.4792613894897 -2.91955921218475,53.4820728835894 -2.91280067843075,53.4832033001547 -2.9052431994499,53.4919798778506 -2.89944071471532,53.4917908480488 -2.89774445719558,53.5014000088214 -2.88799424321123,53.5038287420372 -2.89238902131384,53.5111461367126 -2.88171626852993,53.5205438932213 -2.92300940751067,53.5252200425158 -2.93605433428584,53.5384174001151 -2.95501277264072,53.5460751164999 -2.97155849453071,53.5480075088339 -2.97761401698476,53.5459230779441 -2.96296435439051,53.5237058596021 -2.96414278382269,53.5186060594161 -2.97294331797047,53.5154462240894 -3.02509074377716,53.5390061924743 -3.03193218503803,53.5372628452007 -3.03910496629237,53.538472644856 -3.04058820502976,53.5417325868067 -3.04449431028943,53.5406530757763 -3.04669858190109,53.5429583288114 -3.03880921847238,53.5519052621344 -3.04045161416449,53.5651968966945 -3.02261999765623,53.5695979068693 -3.02070918258232,53.5836752117772 -3.03334247358098,53.5851199576743</coordinates></LinearRing></outerBoundaryIs></Polygon>
  </Placemark>
