  <Placemark>
	<Style><LineStyle><color>ff0000ff</color></LineStyle><PolyStyle><fill>0</fill></PolyStyle></Style>
	<ExtendedData><SchemaData schemaUrl="#Westminster_Parliamentary_Constituencies__December_2019__Boundaries_UK_BUC">
		<SimpleData name="pcon19cd">E14000691</SimpleData>
		<SimpleData name="pcon19nm">Enfield North</SimpleData>
		<SimpleData name="bng_e">533311</SimpleData>
		<SimpleData name="bng_n">198224</SimpleData>
		<SimpleData name="long">-0.07373</SimpleData>
		<SimpleData name="lat">51.66698074</SimpleData>
		<SimpleData name="objectid">162</SimpleData>
		<SimpleData name="st_lengthshape">32696.5077582393</SimpleData>
		<SimpleData name="st_areashape">37635909.4421735</SimpleData>
	</SchemaData></ExtendedData>
      <Polygon><outerBoundaryIs><LinearRing><coordinates>-0.011918675972722,51.6808778155788 -0.049180308214264,51.6842720081554 -0.062016734213675,51.683008060528 -0.083910018580596,51.6899650053464 -0.104848460285835,51.6918507315161 -0.149370129747762,51.6855183598555 -0.163493271974568,51.6881150796651 -0.163503792160564,51.6859229098349 -0.147331234779322,51.6810628720963 -0.152445882614462,51.666914849145 -0.127224594165472,51.6667714703544 -0.124927311038292,51.6616747697793 -0.121108466017893,51.6616065019528 -0.126234072635977,51.6592973328719 -0.127807425295708,51.6500574745037 -0.123182824266953,51.6458291479637 -0.10921445356917,51.6478018194811 -0.10850163245597,51.6435019018672 -0.09577997136397,51.6488741743945 -0.097264903165011,51.6538377923799 -0.079592784498697,51.6523370266771 -0.074934249185969,51.6482942248607 -0.060935378553819,51.6424236189584 -0.060414964268295,51.6449626184164 -0.053845386825524,51.6443627888745 -0.050323461782731,51.6513222152531 -0.040091016299256,51.6519059250777 -0.024989479847333,51.6475327549004 -0.020222422237151,51.6503164828985 -0.011837262569654,51.6488475109075 -0.008922103472904,51.6604466090955 -0.011918675972722,51.6808778155788</coordinates></LinearRing></outerBoundaryIs></Polygon>
  </Placemark>
