  <Placemark>
	<Style><LineStyle><color>ff0000ff</color></LineStyle><PolyStyle><fill>0</fill></PolyStyle></Style>
	<ExtendedData><SchemaData schemaUrl="#Westminster_Parliamentary_Constituencies__December_2019__Boundaries_UK_BUC">
		<SimpleData name="pcon19cd">S14000006</SimpleData>
		<SimpleData name="pcon19nm">Ayr, Carrick and Cumnock</SimpleData>
		<SimpleData name="bng_e">238952</SimpleData>
		<SimpleData name="bng_n">603944</SimpleData>
		<SimpleData name="long">-4.53851986</SimpleData>
		<SimpleData name="lat">55.30316925</SimpleData>
		<SimpleData name="objectid">557</SimpleData>
		<SimpleData name="st_lengthshape">269778.829859005</SimpleData>
		<SimpleData name="st_areashape">1628522500.41957</SimpleData>
	</SchemaData></ExtendedData>
      <MultiGeometry><Polygon><outerBoundaryIs><LinearRing><coordinates>-4.41972352413268,55.5010788651294 -4.43603062475893,55.5055451732846 -4.44161358316659,55.5028155843963 -4.43462602561078,55.498543416271 -4.44112534579373,55.4971016610901 -4.44045401570743,55.4938254129403 -4.45646480826224,55.484312664783 -4.47078943285791,55.48630999253 -4.4737221455835,55.4800155661728 -4.49563032862641,55.4799328974133 -4.51170211627199,55.4730380593959 -4.51949538505816,55.4736337167474 -4.522108859741,55.4652494860605 -4.54052230965646,55.4600263718829 -4.53671128213694,55.4580777077108 -4.54324483423468,55.4538864504109 -4.54069232200856,55.4492663864579 -4.59517388726024,55.455511171067 -4.58449003551109,55.4681352440859 -4.58652152428091,55.4759311572486 -4.60498876220914,55.4795327651946 -4.60701795411101,55.4764693218924 -4.62708761480531,55.4809579853591 -4.62857143676468,55.4772506692867 -4.63209220284085,55.4757341891796 -4.63351524369274,55.4735289778619 -4.64201306210038,55.4714599136473 -4.64405728159981,55.4705789765947 -4.62160789336692,55.4595703500211 -4.64572217537601,55.4695819745323 -4.64599341363357,55.4656085504713 -4.64503405581333,55.4575655511873 -4.64660117227272,55.4567029276061 -4.64738699683311,55.4451832354815 -4.64793625092238,55.4371282985199 -4.65347850495682,55.4413695592063 -4.69190101726918,55.435900349709 -4.69222898972204,55.4343419868676 -4.70547844707598,55.4339644555627 -4.71300701954913,55.4328902942265 -4.75352716426274,55.4162330023607 -4.75492156611629,55.4148722410594 -4.75916103559801,55.4073878309935 -4.7685875776596,55.4015302245933 -4.76956197059489,55.4005785377087 -4.77124158223814,55.3874529832224 -4.77158816314407,55.3796088043904 -4.77229759353789,55.3791976175411 -4.77294694755492,55.374120080937 -4.77147788985956,55.3722353518813 -4.77376919469034,55.3676891675189 -4.77476671575389,55.3598849611285 -4.8110345778123,55.3424398448853 -4.81191754771576,55.3390331768074 -4.82874482250929,55.3339116816151 -4.83899304041967,55.3289739507122 -4.84408141462582,55.326521533446 -4.84546283712419,55.3255428721439 -4.84385073690521,55.3182540868782 -4.84048642890783,55.3153494255647 -4.84164247581679,55.3082651788213 -4.83947825952735,55.2984702427864 -4.83854352097226,55.2979284458844 -4.83792686464718,55.2914456784313 -4.83609346942892,55.2831408701306 -4.83827186486223,55.280215937854 -4.83860527135304,55.2780520487638 -4.84080783813546,55.2768103060638 -4.85038269453343,55.2639463394033 -4.85166875229083,55.259468479496 -4.86128925460238,55.2492824012239 -4.86402737266942,55.2455991752511 -4.85529741564423,55.2440921345204 -4.86497268352111,55.245376715845 -4.86023094958828,55.2271292264314 -4.86377236664808,55.2251173239864 -4.86653005350437,55.2216836524026 -4.87255098586345,55.2201288254205 -4.91075620240281,55.1983967685812 -4.94150463410268,55.1641439923569 -4.99180475002678,55.143451155909 -5.00637327036884,55.0932813297669 -5.02441949826187,55.0768375970832 -5.05244664164283,55.0512675469436 -5.06026896426652,55.0255457249972 -5.03975494587206,54.9977926101465 -5.01545739549759,55.0057586747919 -4.97323098591546,55.0115366408482 -4.98106140767273,55.0178671997044 -4.97805991916295,55.0221212128308 -4.96055909410365,55.021501236012 -4.94320424636483,55.0435614689491 -4.9307812623851,55.0513815555002 -4.93339940480572,55.0643718329796 -4.92304621411262,55.066207755631 -4.91292420759807,55.06638754669 -4.90884539276096,55.0619902543061 -4.90103767372004,55.0642668702247 -4.89472980392473,55.060861582701 -4.89621153653434,55.0536210603482 -4.88816725686106,55.0522750301086 -4.88259254348193,55.0471571638623 -4.88455106496172,55.0389030437684 -4.87327630700766,55.038302317236 -4.84105567914894,55.0447450273886 -4.83060463204213,55.0346414838173 -4.82606958796508,55.0406980899555 -4.80235306843274,55.0443930946589 -4.79182468985203,55.0379828890507 -4.79408075256548,55.0330676465589 -4.78916717634442,55.0310544502752 -4.77599226806953,55.0418377134006 -4.76107366428514,55.0379746949122 -4.74145670420096,55.0473090072885 -4.73517518070804,55.0415218376653 -4.72459159233217,55.0453056742243 -4.7151715117466,55.0375112576539 -4.69285665324979,55.0444752262121 -4.68075000054197,55.0442796309982 -4.67726957817567,55.049013666927 -4.64673983137913,55.05638233758 -4.64581472099334,55.0487705788381 -4.63374957273836,55.0513650911463 -4.62522339992459,55.0684492004767 -4.63053988654678,55.0716469457266 -4.62951418684471,55.0767839693074 -4.64662949951816,55.0780668978438 -4.64981157898302,55.0851935696739 -4.6620321354549,55.0897496744482 -4.65631960162276,55.0945938707725 -4.66358796034553,55.1141889111532 -4.65831649945949,55.1199359488222 -4.65030609284424,55.1211848777746 -4.6456017695494,55.1278403987264 -4.6266964594754,55.1343802437632 -4.62317057252503,55.1407844797156 -4.60998120539004,55.1418678473163 -4.6009081822064,55.1383314849458 -4.58748747946869,55.1437185173308 -4.58400081131103,55.141976743965 -4.57545238511426,55.1530030314165 -4.56496668501854,55.1580153709514 -4.53212032807942,55.1583250530198 -4.51357183633133,55.1517113440437 -4.47862063533446,55.1529260475076 -4.46372186113479,55.1620504839378 -4.46187823679402,55.1702224464376 -4.45601573460765,55.1712890013992 -4.44861014353513,55.1675549467897 -4.44268933313084,55.1684377289606 -4.44745422877143,55.1594524625786 -4.43921263284962,55.1379066483835 -4.43849070479793,55.1404774424921 -4.43545132815961,55.1383405165711 -4.42064595962024,55.1437410133819 -4.40779335181017,55.1550740496497 -4.4128517384413,55.1681377019132 -4.40926689648219,55.1792284853541 -4.40229118362412,55.1867150654829 -4.39730596603196,55.1864464695739 -4.39471929528339,55.1991844406291 -4.39186927592769,55.2025751092962 -4.37738315993509,55.2014562128817 -4.38155486467721,55.2072891017631 -4.35534303287881,55.2526612281189 -4.36015140899039,55.2579883315266 -4.35407056905358,55.2645370599369 -4.34626601768891,55.2621795872572 -4.34493914552254,55.2707799718805 -4.33599817708147,55.2745467961348 -4.33913983331945,55.27710221275 -4.33179793978815,55.2763528173654 -4.31292006192217,55.2915156733642 -4.31050934438825,55.3009855479968 -4.30126610499178,55.3104495077299 -4.28578452257129,55.307589898323 -4.26945505110359,55.3110852531976 -4.25814344462604,55.3079468211515 -4.25766913428519,55.3052861500781 -4.24866955007349,55.3067096555023 -4.23951471892834,55.3214350521687 -4.22908439094657,55.3219359698973 -4.226759134396,55.31813599985 -4.21608701394245,55.3157577609464 -4.20285831675555,55.3182342284887 -4.17820739942744,55.3027613003229 -4.17163488437388,55.2943487685398 -4.14261782355304,55.2836264815977 -4.13059796309464,55.2960245331114 -4.1163820938453,55.2995793699692 -4.11245988205003,55.3053950214078 -4.12249423801027,55.3137370437608 -4.11913597354679,55.3222709383324 -4.08572969418157,55.3512609302494 -4.09899298646581,55.3579229113113 -4.10748649282394,55.3690426414216 -4.0971790132593,55.3854875130921 -4.09904768498402,55.3954577123607 -4.090844638762,55.4120662097356 -4.07050817032001,55.4149988577493 -4.05121230132325,55.4235835050048 -4.03252283114676,55.4242954372849 -4.00272124135275,55.4365155252903 -4.00503200397888,55.4429619790804 -4.01645173766575,55.4465570803466 -4.02349469820125,55.4431972993621 -4.02557428473178,55.43564943902 -4.06039015037811,55.4385370960835 -4.07863987726472,55.4270883753979 -4.10137384400011,55.4252429344117 -4.10488517806942,55.4290705200363 -4.1146719838547,55.4298769073593 -4.11311583069875,55.432402348422 -4.1265572115293,55.4430083278815 -4.13485008363639,55.4432179694504 -4.13983784727132,55.4474430812363 -4.15501103059935,55.450597400962 -4.16620242167111,55.4474832705658 -4.18677776277212,55.4571464065931 -4.20149079487262,55.4576986357748 -4.20812314377457,55.4665623406671 -4.22228706160051,55.464990015573 -4.23927563534113,55.4536576609959 -4.27851757654583,55.4626183363449 -4.27626790931829,55.4578373544222 -4.28415397858973,55.4537850792305 -4.30510273258531,55.4713429312539 -4.32943401022768,55.4817666082821 -4.34526220256621,55.4822418022855 -4.35520863673246,55.4769751956988 -4.36420932644483,55.4820658872778 -4.38561306407685,55.4797485270989 -4.39656995633384,55.4847088657745 -4.38503245308391,55.4950225458938 -4.38695391852982,55.4982063772724 -4.40647946922866,55.4970572694157 -4.4138877716856,55.4922689461889 -4.41271129906588,55.4965894086407 -4.42444877750732,55.4955672918712 -4.41972352413268,55.5010788651294</coordinates></LinearRing></outerBoundaryIs></Polygon><Polygon><outerBoundaryIs><LinearRing><coordinates>-5.10675937322861,55.2517760138991 -5.10889071923506,55.2531635032329 -5.11475567689338,55.2562449162677 -5.1202942444573,55.2558056574138 -5.1220294198454,55.2532944269758 -5.11984908800423,55.2481284585906 -5.11814752439619,55.2475682505708 -5.10675937322861,55.2517760138991</coordinates></LinearRing></outerBoundaryIs></Polygon></MultiGeometry>
  </Placemark>
