  <Placemark>
	<Style><LineStyle><color>ff0000ff</color></LineStyle><PolyStyle><fill>0</fill></PolyStyle></Style>
	<ExtendedData><SchemaData schemaUrl="#Westminster_Parliamentary_Constituencies__December_2019__Boundaries_UK_BUC">
		<SimpleData name="pcon19cd">E14001047</SimpleData>
		<SimpleData name="pcon19nm">Woking</SimpleData>
		<SimpleData name="bng_e">496149</SimpleData>
		<SimpleData name="bng_n">155762</SimpleData>
		<SimpleData name="long">-0.62243998</SimpleData>
		<SimpleData name="lat">51.29288101</SimpleData>
		<SimpleData name="objectid">518</SimpleData>
		<SimpleData name="st_lengthshape">63191.2929720657</SimpleData>
		<SimpleData name="st_areashape">98897552.0075267</SimpleData>
	</SchemaData></ExtendedData>
      <Polygon><outerBoundaryIs><LinearRing><coordinates>-0.462343997790484,51.3299602984635 -0.46365364983465,51.3406157494153 -0.47676917282771,51.3432634788662 -0.48135477698127,51.3495899777647 -0.515625226017991,51.3388579994845 -0.520774106253814,51.3448664655374 -0.548549357282802,51.3480208970891 -0.57281556126288,51.3422986545809 -0.576897905019913,51.3362640384203 -0.589801217052858,51.3398659908185 -0.60814613897054,51.339695032513 -0.615246712248096,51.335942124426 -0.613460213136962,51.3321576076537 -0.625920142929749,51.3348367423125 -0.62350625912094,51.3199060197418 -0.633015155550602,51.3143997276 -0.646791891855231,51.311902363558 -0.67136139494148,51.3173651275811 -0.687495803758243,51.3138115864281 -0.699907133620313,51.2978324654424 -0.697723737693249,51.2887727723754 -0.712137682357287,51.2794867493076 -0.702106509517259,51.2700232229256 -0.705686165695402,51.2425385211072 -0.699849742431712,51.2362332350525 -0.650603996957908,51.2434373957629 -0.653964693679801,51.2512060672901 -0.649430366710826,51.2508345714166 -0.648412794599843,51.2555888977572 -0.654593353760228,51.2593354480284 -0.642603211856171,51.2679180135416 -0.633187626174634,51.26852238841 -0.633119290250369,51.2770214035742 -0.624312862039248,51.2771286473462 -0.618602944921065,51.2830396590312 -0.611650484585673,51.2821551686087 -0.60100772563749,51.2861694705942 -0.563729842379468,51.2705887635365 -0.554974573788514,51.2708794968237 -0.547709745729172,51.2656745341484 -0.537445766202498,51.2684144314704 -0.53767077040699,51.2731564022158 -0.534188063331163,51.2738457730751 -0.549190828578912,51.2846604719572 -0.540223452263802,51.3009722557656 -0.529804504372652,51.2975584031837 -0.525341761522126,51.3027656547236 -0.510814321908593,51.3060852200811 -0.513633287845891,51.3094654332226 -0.51029827103137,51.3131208357125 -0.500847942727971,51.3065641762707 -0.487450399315876,51.316444823903 -0.475466591165513,51.3163606090918 -0.478447544231234,51.3225538132706 -0.489365114185056,51.3260078176704 -0.48895888826278,51.3298982046708 -0.483735879542652,51.3314942976663 -0.4739787180109,51.3269991286001 -0.462343997790484,51.3299602984635</coordinates></LinearRing></outerBoundaryIs></Polygon>
  </Placemark>
