  <Placemark>
	<Style><LineStyle><color>ff0000ff</color></LineStyle><PolyStyle><fill>0</fill></PolyStyle></Style>
	<ExtendedData><SchemaData schemaUrl="#Westminster_Parliamentary_Constituencies__December_2019__Boundaries_UK_BUC">
		<SimpleData name="pcon19cd">W07000074</SimpleData>
		<SimpleData name="pcon19nm">Ogmore</SimpleData>
		<SimpleData name="bng_e">291741</SimpleData>
		<SimpleData name="bng_n">187410</SimpleData>
		<SimpleData name="long">-3.56361008</SimpleData>
		<SimpleData name="lat">51.57513046</SimpleData>
		<SimpleData name="objectid">644</SimpleData>
		<SimpleData name="st_lengthshape">74374.9343568412</SimpleData>
		<SimpleData name="st_areashape">203651724.386909</SimpleData>
	</SchemaData></ExtendedData>
      <Polygon><outerBoundaryIs><LinearRing><coordinates>-3.56331023234254,51.6454847534439 -3.56547221466112,51.6423285533489 -3.58025025790674,51.644575191084 -3.59541946492268,51.6412837989775 -3.59571966592766,51.6377287721602 -3.66181306698016,51.6454531611529 -3.68071022656698,51.6219121163934 -3.67798985938298,51.6184628908498 -3.68270969283439,51.6092195028275 -3.6778141554296,51.6072321705367 -3.67673865238845,51.6013243375491 -3.69112130973368,51.6035190028337 -3.69442004466421,51.5942668566575 -3.67707130796969,51.5757325690775 -3.65533989368082,51.5648834309479 -3.65800438332934,51.5601113377065 -3.65069841020259,51.5549636396367 -3.65645669169506,51.5392735427071 -3.67078808074501,51.5388976878468 -3.66813619966251,51.5257929401215 -3.65362876885428,51.5179994510482 -3.60753021750845,51.5322867159662 -3.58917908754686,51.5333253819559 -3.57485543986454,51.529874000229 -3.57077731559709,51.5329124679496 -3.54663063222868,51.5321977472221 -3.54476328935572,51.53581058085 -3.5299349798928,51.5346941244488 -3.52577719866817,51.5264750103426 -3.52917550694056,51.5263614322835 -3.53018604247858,51.5188797394901 -3.51691086719827,51.5136649204859 -3.51099353836655,51.5144940680721 -3.51331919820554,51.510089090724 -3.50826723449924,51.5080536391369 -3.49778767846144,51.5126034495052 -3.47461161289374,51.5153807912122 -3.44323037522267,51.5101471921143 -3.43764232191384,51.5065928032066 -3.40967415029052,51.5062391384431 -3.41537638382835,51.5161509691911 -3.39870414421683,51.5185478490862 -3.3981773259691,51.5234170895319 -3.39062922140163,51.5266586284682 -3.39707350010283,51.5372631788659 -3.39185677277866,51.5418942682615 -3.39307258165711,51.5498820776332 -3.41321616630937,51.5578470560062 -3.43573584515344,51.5533960885404 -3.43995247976109,51.556197782922 -3.43852415906012,51.560622476178 -3.45335970082564,51.5653974205556 -3.46041260741331,51.5831566189684 -3.45781031516432,51.5928191586332 -3.44555351317385,51.6003786119471 -3.44962771984556,51.6015864610924 -3.46412853345132,51.6020049521334 -3.46904969526576,51.6059495090428 -3.47214974201903,51.6033445343124 -3.48624688098384,51.6100875323252 -3.49643015308631,51.6105241240201 -3.510021383099,51.6181407421207 -3.52303949073029,51.6341351754915 -3.53738101884404,51.6440035424141 -3.56331023234254,51.6454847534439</coordinates></LinearRing></outerBoundaryIs></Polygon>
  </Placemark>
