  <Placemark>
	<Style><LineStyle><color>ff0000ff</color></LineStyle><PolyStyle><fill>0</fill></PolyStyle></Style>
	<ExtendedData><SchemaData schemaUrl="#Westminster_Parliamentary_Constituencies__December_2019__Boundaries_UK_BUC">
		<SimpleData name="pcon19cd">E14000632</SimpleData>
		<SimpleData name="pcon19nm">Chesterfield</SimpleData>
		<SimpleData name="bng_e">440100</SimpleData>
		<SimpleData name="bng_n">372487</SimpleData>
		<SimpleData name="long">-1.40050006</SimpleData>
		<SimpleData name="lat">53.24790955</SimpleData>
		<SimpleData name="objectid">103</SimpleData>
		<SimpleData name="st_lengthshape">40525.6525011225</SimpleData>
		<SimpleData name="st_areashape">47333348.7644405</SimpleData>
	</SchemaData></ExtendedData>
      <Polygon><outerBoundaryIs><LinearRing><coordinates>-1.33126290167698,53.2572322959948 -1.34220778276151,53.2633003879431 -1.34591570274898,53.2608053167541 -1.35254408034116,53.2625859659021 -1.34978484515957,53.2686674262181 -1.35547826595068,53.2695116065679 -1.36878139618833,53.264706091456 -1.38820346996751,53.2669469530064 -1.3857913076416,53.2686973377136 -1.39198597347982,53.2710128347058 -1.41106747688547,53.2669886529178 -1.42320219748575,53.2744169448425 -1.42323601795824,53.2827147557848 -1.4390361717586,53.2802102803155 -1.45803245045805,53.2833415620887 -1.46076091356905,53.2780865308186 -1.46580461496598,53.2780758535053 -1.46419979529124,53.2679993833188 -1.480600717919,53.2633454892212 -1.47068359418514,53.2572722606977 -1.47879358896041,53.252293935026 -1.47393859704769,53.2491391352242 -1.4817114765805,53.2464810022208 -1.47753923753548,53.2397139467472 -1.47149330369968,53.2388676264929 -1.47187496757161,53.2334148316633 -1.48397459433818,53.2324825271421 -1.48195840167797,53.226246374831 -1.47584314941891,53.22508360681 -1.47991608468985,53.2225863410627 -1.46759896952913,53.2195163754974 -1.46167596587756,53.2216489641016 -1.44120467684798,53.220630976652 -1.44000083841075,53.213593307286 -1.42811046552173,53.2154382316269 -1.42084291802479,53.212442201971 -1.4116884526504,53.2155588723022 -1.40140469524987,53.2137513517885 -1.3955851941196,53.222718018386 -1.40079809619346,53.2342824012743 -1.3936181344557,53.2340098715905 -1.38034092228456,53.2437965707079 -1.37504017308095,53.2408751832412 -1.35086226604643,53.2463887668922 -1.34706432345177,53.2395396727593 -1.33197004482838,53.2415906448266 -1.33212265670125,53.2366959921905 -1.32635459367634,53.2360990193301 -1.31920220965358,53.2395822679761 -1.32385205541296,53.2526288756967 -1.33126290167698,53.2572322959948</coordinates></LinearRing></outerBoundaryIs></Polygon>
  </Placemark>
