  <Placemark>
	<Style><LineStyle><color>ff0000ff</color></LineStyle><PolyStyle><fill>0</fill></PolyStyle></Style>
	<ExtendedData><SchemaData schemaUrl="#Westminster_Parliamentary_Constituencies__December_2019__Boundaries_UK_BUC">
		<SimpleData name="pcon19cd">E14000961</SimpleData>
		<SimpleData name="pcon19nm">St Austell and Newquay</SimpleData>
		<SimpleData name="bng_e">195453</SimpleData>
		<SimpleData name="bng_n">57855</SimpleData>
		<SimpleData name="long">-4.87869978</SimpleData>
		<SimpleData name="lat">50.38491058</SimpleData>
		<SimpleData name="objectid">432</SimpleData>
		<SimpleData name="st_lengthshape">151905.311326922</SimpleData>
		<SimpleData name="st_areashape">397033921.723124</SimpleData>
	</SchemaData></ExtendedData>
      <Polygon><outerBoundaryIs><LinearRing><coordinates>-4.79821043930952,50.4293807653069 -4.80307609404333,50.43141166073 -4.80159251309356,50.4378403891442 -4.80920580607189,50.4428451284826 -4.81223986921687,50.4321501942571 -4.82030427022384,50.4306415863842 -4.83698915187243,50.4177590699118 -4.84645287609497,50.4447054683722 -4.8410213950211,50.4566112402585 -4.8365156366642,50.4582189493537 -4.83682190602742,50.4641609351106 -4.84462687052131,50.4753708425648 -4.86508491549941,50.4789930434339 -4.90841294526049,50.4774841935796 -4.94978842428796,50.4711673094995 -4.97450550540385,50.4704964402981 -5.0367187008826,50.4800100574236 -5.03860715264597,50.4731505791218 -5.03186440119644,50.4676169054044 -5.04094583741799,50.464653112471 -5.042867229886,50.4576697179861 -5.04378825275585,50.4422290622208 -5.05477689103968,50.4257268903811 -5.07753458894287,50.4158423715681 -5.08117731615361,50.4174955561803 -5.08286685776813,50.4169160152608 -5.09982722272456,50.42551791518 -5.10017013510637,50.4238870699223 -5.0994831138877,50.421603806621 -5.10109568967912,50.4194847437161 -5.10243484541206,50.4131138986882 -5.12522988837991,50.4121919908524 -5.12809054621332,50.4057140192565 -5.13576401919219,50.4089962327482 -5.13610319191194,50.4088878104991 -5.13899306449097,50.4045199644471 -5.13274391612271,50.3981089584984 -5.09930614786011,50.3931400398731 -5.09606073403448,50.3969993217984 -5.0815568029041,50.3993602339415 -5.07405055567586,50.3972839060348 -5.07059282629136,50.3997438940639 -5.06246585548135,50.3933374882968 -5.0315305149651,50.3957019258452 -5.01423011562539,50.3925148572447 -5.00049586473618,50.3958279663226 -4.99081160611363,50.3933113619926 -4.98408530376954,50.3889666781791 -4.98984136732412,50.3834177732786 -4.99783786063935,50.3829221713875 -5.00087897374204,50.3781903632527 -4.99478044609957,50.3609078314433 -5.00653224005953,50.3526541210669 -5.00540445840494,50.3473974091791 -4.99346298474059,50.3407995614729 -4.97754845728041,50.3408431222636 -4.97302873161092,50.3358150382095 -4.97136181699526,50.3453634580545 -4.9424287026266,50.3445692848786 -4.95246761617495,50.3594004776575 -4.94531194701478,50.3594290278617 -4.94495828022156,50.3570775737479 -4.92687540927207,50.3608644003451 -4.92218056629762,50.3542556027777 -4.92518471043672,50.3381426448951 -4.92245954554659,50.3300854732139 -4.90696676417303,50.3288988592386 -4.89988576388057,50.3213071629344 -4.89912471388686,50.310903029877 -4.90566889068552,50.3071396178366 -4.9025591417497,50.2999696550169 -4.91270027728583,50.3005641020821 -4.90341903162382,50.2911685873432 -4.90498295607635,50.2876374624044 -4.90026883928954,50.2856646592077 -4.87312080829154,50.2920620638796 -4.86877535681594,50.2850226446979 -4.86806263499898,50.2781668206463 -4.88191311418861,50.2706780518864 -4.87424194944718,50.2609730548793 -4.87745223607973,50.254543695591 -4.86438280454338,50.244653312686 -4.86696819137972,50.2409166465022 -4.86315131922617,50.2355256592271 -4.86245624775839,50.2360275718515 -4.85238950208323,50.2350036864054 -4.8441970294882,50.2353038125438 -4.84200896550583,50.233946918147 -4.83266045678146,50.2330021160495 -4.81892073428986,50.2315929592603 -4.81586590989641,50.2297865623975 -4.81309656945763,50.2288927908593 -4.81206694003963,50.2275398243318 -4.80945051303905,50.2259922518039 -4.80521188588127,50.2234848272117 -4.79850280458658,50.2195151080508 -4.79835162776805,50.2262605477677 -4.79826333204283,50.2301995998714 -4.78402189136762,50.2361215328347 -4.78096229591406,50.2374804010498 -4.78127155698518,50.2380263437824 -4.78725583654683,50.2413351921177 -4.78510788098525,50.2447975345261 -4.78554633144658,50.2455712742712 -4.76698708423713,50.2566398883176 -4.78568369137301,50.2617567133246 -4.7870179658562,50.2695000004271 -4.78124321981332,50.2901344669442 -4.76413446815713,50.3004206355072 -4.76308456308932,50.300245828479 -4.76293556168676,50.3003313131157 -4.76011765325074,50.2997517857162 -4.75264137918986,50.2985064700535 -4.75887437036571,50.3082565579347 -4.76301269527384,50.3100920175865 -4.76609182176111,50.319422618925 -4.76691588624591,50.3208290505342 -4.75684792499123,50.3310700200857 -4.75648383877358,50.331172945833 -4.75623377019432,50.3312249997496 -4.6894612144636,50.3480497900957 -4.68816130651371,50.3402224047441 -4.68242459992516,50.3380112626441 -4.68491866564187,50.3206846099194 -4.68482549730037,50.3201229768255 -4.6725498155824,50.3138763831305 -4.66761504459016,50.3230787738413 -4.63674274433348,50.3340212117618 -4.63108190923905,50.3390157652738 -4.63043628903651,50.3447801736444 -4.63723414059921,50.3473687077664 -4.63727129461898,50.3705872701271 -4.64276535255801,50.3766206572533 -4.65405671885502,50.3796268463456 -4.66201911712284,50.3900348763807 -4.6848721375492,50.3747436389244 -4.69184410118766,50.3830334779395 -4.70228492703992,50.3879473026449 -4.70160211733124,50.377717589258 -4.71453873295607,50.36467879009 -4.75040904098813,50.3676288895585 -4.75339066682494,50.3743840647278 -4.76810995549615,50.3864833940325 -4.76529002667873,50.3963636576816 -4.77648034211476,50.4017102214011 -4.78472288051457,50.4120161388766 -4.80382801039363,50.4243079951672 -4.79821043930952,50.4293807653069</coordinates></LinearRing></outerBoundaryIs></Polygon>
  </Placemark>
