  <Placemark>
	<Style><LineStyle><color>ff0000ff</color></LineStyle><PolyStyle><fill>0</fill></PolyStyle></Style>
	<ExtendedData><SchemaData schemaUrl="#Westminster_Parliamentary_Constituencies__December_2019__Boundaries_UK_BUC">
		<SimpleData name="pcon19cd">E14000841</SimpleData>
		<SimpleData name="pcon19nm">North East Bedfordshire</SimpleData>
		<SimpleData name="bng_e">509132</SimpleData>
		<SimpleData name="bng_n">258803</SimpleData>
		<SimpleData name="long">-0.40399</SimpleData>
		<SimpleData name="lat">52.2166481</SimpleData>
		<SimpleData name="objectid">312</SimpleData>
		<SimpleData name="st_lengthshape">175722.14354834</SimpleData>
		<SimpleData name="st_areashape">539983667.012462</SimpleData>
	</SchemaData></ExtendedData>
      <Polygon><outerBoundaryIs><LinearRing><coordinates>-0.216624324385539,52.1587355439061 -0.228862940566612,52.1662427906673 -0.254399134155224,52.1721847777994 -0.26069408798734,52.1764014218502 -0.249785149179338,52.1843710271715 -0.244001867319279,52.1826845754175 -0.240723002820836,52.1901931437342 -0.264911990138627,52.2057211534675 -0.261845188172905,52.2098669211304 -0.288726904032848,52.2073764413514 -0.296284378534113,52.2104870952342 -0.299513767510345,52.2203297856485 -0.285693744441477,52.2374014689055 -0.29320898808327,52.2405161819444 -0.313688007655852,52.2389988174309 -0.319996605501729,52.2427078809809 -0.334493652011644,52.2429205812415 -0.34346885979841,52.2418744209852 -0.341010840873401,52.2306474937778 -0.359038102644697,52.2347352825456 -0.374375681124288,52.2329982884739 -0.382341197020937,52.2711256565426 -0.372175068758848,52.2734998531163 -0.375009968281875,52.2804693783712 -0.392625856363725,52.2824296482164 -0.398979469350676,52.2787288881547 -0.406907339620158,52.2874758595882 -0.410158813316834,52.2844968126785 -0.421767439464139,52.2849474985045 -0.42264235286022,52.289375665233 -0.435761112192004,52.2966568800962 -0.436088655177378,52.3144708459939 -0.44418351855703,52.3142316300993 -0.465365756545097,52.3229532812371 -0.476261345982474,52.3180638528938 -0.487476616907049,52.3210743797495 -0.52002840087517,52.3167995248973 -0.514051195755829,52.3146970761678 -0.541969414284237,52.2899424469085 -0.534003064855698,52.281190771285 -0.531190184929433,52.2704024303694 -0.539324957851375,52.2660949041614 -0.541777855611851,52.2561404639741 -0.554738089361645,52.2581798178147 -0.565693055132987,52.2534682264436 -0.588111036843781,52.2707783583702 -0.586335338989988,52.2728313341511 -0.603337324956545,52.2788024382021 -0.624818730510681,52.2756488204301 -0.631412540233443,52.2700475944602 -0.639908260903836,52.272442010704 -0.653655470981071,52.2682893071709 -0.63733162156624,52.2273176317195 -0.66146038898971,52.208126189804 -0.668135637658982,52.1950341117758 -0.657448076334108,52.1897753452686 -0.6431603115272,52.1888448619359 -0.639510057352226,52.1834349069605 -0.627446652788111,52.1815454683205 -0.608210862083636,52.1752282604379 -0.592305417821259,52.178009477575 -0.581848126553187,52.1710632417965 -0.576068215585622,52.1530841694137 -0.56584063209511,52.1479865794417 -0.548545737104277,52.147008422441 -0.543700424331222,52.1402924801772 -0.524995579774186,52.1424087001524 -0.516602214787196,52.121729439299 -0.505495637237874,52.1182489605742 -0.501202608113382,52.1208280220898 -0.49998846551092,52.1373369848798 -0.491161909550484,52.140516999537 -0.497409801189194,52.1424112301853 -0.488168552377816,52.1443746826806 -0.49275332900864,52.1485756439821 -0.486720521905676,52.1513576516945 -0.487461410482133,52.1568023718967 -0.484782739126348,52.1588432325966 -0.477641712515618,52.1565079686851 -0.471070025220887,52.1578920941848 -0.469006944801975,52.1613126032059 -0.462782624120795,52.1609871489197 -0.465779939091743,52.1647691697849 -0.45593379671735,52.1675611123184 -0.428946270958479,52.1598982858115 -0.423388578743891,52.1544571598948 -0.4160285090678,52.1554438373858 -0.403401444849752,52.1503300239147 -0.40759849896114,52.1483052253618 -0.402965105256168,52.1455712348562 -0.41423024329452,52.1400568839693 -0.408873262215334,52.1293828657467 -0.448471141204893,52.1143151555894 -0.419224599280725,52.0851528286685 -0.397016891133653,52.0710031744821 -0.384902381057375,52.075574502543 -0.389148882923144,52.0808801249641 -0.376908470454649,52.0877399586312 -0.381187525495222,52.0935650539646 -0.37458753078344,52.0971886556898 -0.371399523465257,52.0945685929115 -0.367019504252118,52.0966219340356 -0.356108892660156,52.1077285732615 -0.352906841206604,52.1058945357134 -0.359722779167321,52.0992126357121 -0.354432129001625,52.0954704044539 -0.34705531511291,52.0955514605214 -0.339794561261667,52.089437668109 -0.274136903057369,52.0922972144907 -0.274706187623788,52.0651119704436 -0.280502860553056,52.0580302290437 -0.276821735604603,52.0558894186913 -0.300533582009616,52.0268071468709 -0.288787571099974,52.0268142541111 -0.298239069498406,52.0189664632376 -0.298200932891878,52.0133594681459 -0.276878659095987,52.0149656081693 -0.276721484388583,52.0118476066732 -0.269839057375902,52.014199727441 -0.269757706826036,52.0081406148166 -0.282415833818799,52.0015640162212 -0.283375312475573,51.9966603015254 -0.272281412865576,51.9881356301887 -0.27390055373757,51.9812095346546 -0.260255094968933,51.9797048196061 -0.257448532425214,51.9853858856385 -0.247889109786431,51.9851729767287 -0.244078670645728,51.9990232893037 -0.236867969738207,51.9979471688386 -0.213645002881359,52.0088613793075 -0.201256006066088,52.0098246885529 -0.219493434451981,52.0367412591483 -0.194982619305265,52.0624150813563 -0.172619414626835,52.0602099377647 -0.164166052138528,52.0770354725904 -0.157280871266133,52.0805472004283 -0.148588339211066,52.0934627182799 -0.144445035225132,52.1382037573564 -0.149607040820683,52.1387550910753 -0.154352348807397,52.1444079263781 -0.171534734092178,52.1395025909765 -0.206204269295573,52.1444489718428 -0.234804043652189,52.144726758307 -0.216624324385539,52.1587355439061</coordinates></LinearRing></outerBoundaryIs></Polygon>
  </Placemark>
