  <Placemark>
	<Style><LineStyle><color>ff0000ff</color></LineStyle><PolyStyle><fill>0</fill></PolyStyle></Style>
	<ExtendedData><SchemaData schemaUrl="#Westminster_Parliamentary_Constituencies__December_2019__Boundaries_UK_BUC">
		<SimpleData name="pcon19cd">E14000597</SimpleData>
		<SimpleData name="pcon19nm">Brighton, Kemptown</SimpleData>
		<SimpleData name="bng_e">534575</SimpleData>
		<SimpleData name="bng_n">104474</SimpleData>
		<SimpleData name="long">-0.09068</SimpleData>
		<SimpleData name="lat">50.82416153</SimpleData>
		<SimpleData name="objectid">68</SimpleData>
		<SimpleData name="st_lengthshape">40303.650489674</SimpleData>
		<SimpleData name="st_areashape">39877021.5237566</SimpleData>
	</SchemaData></ExtendedData>
      <Polygon><outerBoundaryIs><LinearRing><coordinates>0.029162073933468,50.7829218921942 0.029947902892315,50.7947816551494 0.020880083346992,50.7975696948404 0.022492400496934,50.7999070068487 0.009437279358898,50.8022839372233 0.014018777078766,50.8106588110937 0.00320760153152,50.8115158981374 -0.002880245189718,50.8200446144588 -0.016586079716729,50.8162744496735 -0.02042837615218,50.8218303556257 -0.030229168484917,50.8173492120796 -0.045968393113643,50.8218246617317 -0.039103766833103,50.8286328508325 -0.03684254950848,50.8412388952519 -0.045585649821553,50.8449677733489 -0.073441854838679,50.8412445322818 -0.070778872004243,50.8458187633889 -0.083236154129929,50.8631728646175 -0.107828442449605,50.8559916667128 -0.124194796970699,50.8378273126005 -0.103591228389339,50.8354644725196 -0.117861923922857,50.82715978503 -0.122661379196832,50.8289638122736 -0.12719279757481,50.8259086541089 -0.134417948395092,50.8285686612352 -0.136896614420005,50.818382730623 -0.108215970382838,50.8125880101411 -0.108783908613687,50.8103928481843 -0.091878800187645,50.8076730436503 -0.092384282519158,50.8107610121948 -0.040799631947773,50.7994383285308 -0.038564200397724,50.7990773687868 -0.014957723492678,50.7934519669136 0.029162073933468,50.7829218921942</coordinates></LinearRing></outerBoundaryIs></Polygon>
  </Placemark>
