  <Placemark>
	<Style><LineStyle><color>ff0000ff</color></LineStyle><PolyStyle><fill>0</fill></PolyStyle></Style>
	<ExtendedData><SchemaData schemaUrl="#Westminster_Parliamentary_Constituencies__December_2019__Boundaries_UK_BUC">
		<SimpleData name="pcon19cd">E14000962</SimpleData>
		<SimpleData name="pcon19nm">St Helens North</SimpleData>
		<SimpleData name="bng_e">351263</SimpleData>
		<SimpleData name="bng_n">398699</SimpleData>
		<SimpleData name="long">-2.73588991</SimpleData>
		<SimpleData name="lat">53.48274994</SimpleData>
		<SimpleData name="objectid">433</SimpleData>
		<SimpleData name="st_lengthshape">55683.3083492586</SimpleData>
		<SimpleData name="st_areashape">83520452.9517013</SimpleData>
	</SchemaData></ExtendedData>
      <Polygon><outerBoundaryIs><LinearRing><coordinates>-2.7305209236796,53.5206001458893 -2.75983151753041,53.5125371405826 -2.76887248377879,53.513571464193 -2.78247648838422,53.5314301969823 -2.7945915111589,53.5213018053591 -2.81674018181041,53.5121744985571 -2.82259023598101,53.5051204992056 -2.81991566527694,53.496526719064 -2.82496446472738,53.4852092192654 -2.81675161586718,53.4778517301431 -2.81871177202822,53.4668910846076 -2.80440775663566,53.4672364387449 -2.79131741872679,53.471209640701 -2.75538726519093,53.4557472674939 -2.75349850132453,53.4590427858865 -2.74746723476038,53.4559183921586 -2.73964011054134,53.4576201777093 -2.74094592285953,53.4618537660437 -2.73619041186787,53.4595695287513 -2.72203990762213,53.4616746921679 -2.71243961664024,53.4597108420892 -2.70933611972978,53.4573113567793 -2.71665922689116,53.4467294286713 -2.70248645048344,53.4445349389318 -2.70482629090193,53.4391764823795 -2.69356468421563,53.4355741786933 -2.68216821804619,53.4392343554552 -2.67676504019262,53.4528568376809 -2.63386589830464,53.4424289558691 -2.62746241529418,53.4344126024006 -2.61142278863851,53.4422747301003 -2.59623052707265,53.442666292997 -2.59868492292473,53.4504137677632 -2.58529604429635,53.4398072160608 -2.57674283317084,53.4460572083879 -2.58331871525356,53.4488719048072 -2.58314933724313,53.4533282774952 -2.5962649693205,53.4565290720178 -2.5992977106138,53.4611015311155 -2.61535915029557,53.4636014203614 -2.61454855861117,53.4703612405522 -2.60786342802793,53.4708277466429 -2.61213826687326,53.4811380905399 -2.64554001378709,53.4802523216723 -2.65673145028308,53.4925225291359 -2.66311419817652,53.4928676041949 -2.66629583199251,53.4997574798791 -2.6988930124327,53.5020315601885 -2.70642585635162,53.5057876322866 -2.71000708569485,53.5146418502824 -2.71563892797116,53.5106613566929 -2.72377815067444,53.5103660833021 -2.7305209236796,53.5206001458893</coordinates></LinearRing></outerBoundaryIs></Polygon>
  </Placemark>
