  <Placemark>
	<Style><LineStyle><color>ff0000ff</color></LineStyle><PolyStyle><fill>0</fill></PolyStyle></Style>
	<ExtendedData><SchemaData schemaUrl="#Westminster_Parliamentary_Constituencies__December_2019__Boundaries_UK_BUC">
		<SimpleData name="pcon19cd">S14000055</SimpleData>
		<SimpleData name="pcon19nm">Ross, Skye and Lochaber</SimpleData>
		<SimpleData name="bng_e">211302</SimpleData>
		<SimpleData name="bng_n">834601</SimpleData>
		<SimpleData name="long">-5.13901997</SimpleData>
		<SimpleData name="lat">57.36264038</SimpleData>
		<SimpleData name="objectid">606</SimpleData>
		<SimpleData name="st_lengthshape">2397851.43527837</SimpleData>
		<SimpleData name="st_areashape">12547831007.1693</SimpleData>
	</SchemaData></ExtendedData>
      <MultiGeometry><Polygon><outerBoundaryIs><LinearRing><coordinates>-4.36298576799081,57.5005657757287 -4.35695844003803,57.5020225777537 -4.35372853005166,57.5021747484331 -4.38297075413158,57.5116029775523 -4.33841970320346,57.5083754282892 -4.23440770128392,57.5007763660284 -4.19344835888262,57.5375320589243 -4.18823824640462,57.545628347283 -4.17444652674376,57.5662064950818 -4.14053911008302,57.5774575629982 -4.13635633544736,57.5771687522239 -4.13294079650673,57.5783184004318 -4.09133065104656,57.5741315080127 -4.0933056257335,57.5755909929574 -4.10553957179389,57.5817523133982 -4.1106293168326,57.5883866063815 -4.11294373095724,57.5900952075811 -4.10203481522265,57.6074590464825 -4.09395648359667,57.6125930983449 -4.04718452691106,57.6422802272782 -4.04140030562718,57.6488175345568 -4.02447845245801,57.6580611019612 -4.02085423183681,57.6589641146086 -4.01310839479469,57.6638682394657 -3.99606023685315,57.6746556568988 -3.99417560379484,57.6764299106661 -4.01399784341942,57.6799075255745 -4.03634204495015,57.6838230390227 -4.03835859557472,57.6830459346947 -4.04429546606932,57.6777898781045 -4.05601023608584,57.6762408549347 -4.08569245179194,57.664786489033 -4.12781438384495,57.6591140867053 -4.16530305894586,57.6569356730558 -4.16568933813379,57.6758686939516 -4.24637521305869,57.6659331782763 -4.34487424233644,57.6210531841174 -4.35980409747763,57.6123706271207 -4.36218839300945,57.6131450452139 -4.37424172483013,57.607636235499 -4.38857347789432,57.6010823318077 -4.39217405947671,57.5943266251347 -4.39328927327383,57.5989249270873 -4.39475119074881,57.5982560348376 -4.39968907524236,57.5926420274792 -4.40341726591246,57.5935541233882 -4.4019457402758,57.5949636101961 -4.40679274352689,57.592744923741 -4.40788649069707,57.5930897697372 -4.41557612057268,57.6058320208008 -4.41296301528613,57.6069019429266 -4.41051661829281,57.607903502239 -4.47429492002617,57.6577274991696 -4.57925526319177,57.6788823208227 -4.65060410944076,57.7062186325128 -4.6709041951066,57.7433769998678 -4.65914960999707,57.7548437963257 -4.64009459842953,57.7541202908322 -4.62154897001686,57.8044837795844 -4.7146771320002,57.8035038488132 -4.75233485167318,57.8146730051819 -4.75939161776044,57.8130385360446 -4.77480944304399,57.81646721586 -4.82972020439665,57.8084679935114 -4.89079794515361,57.8222770259752 -4.89327506898117,57.8269116793278 -4.88821678743018,57.8324281733855 -4.92419774029363,57.8426931448719 -4.94569036298857,57.8533520077942 -4.94955158612035,57.8586733312599 -4.92285497894084,57.8682606267288 -4.86348296578824,57.9144257423873 -4.86083179368673,57.9437659735521 -4.88546141754536,57.9480480380524 -4.91338998202008,57.9445794839932 -4.91559017378487,57.9507568947394 -4.92692892415201,57.9583820520117 -4.91964593606789,57.9621714344833 -4.92207602754459,57.9666808346279 -4.90856992098157,57.9724907886878 -4.90900720625466,57.9774639767514 -4.94014198474279,57.994234098592 -5.02875209929771,58.0118866848129 -5.06311717510738,58.030966039712 -5.06643720297548,58.0441029506477 -5.05687998225225,58.0435321594403 -5.04348651214494,58.0472685122658 -5.03297977908866,58.061786824239 -5.06152828148571,58.0633212329873 -5.11295463173912,58.0825570852732 -5.13601453059893,58.0775619260535 -5.13468180695812,58.0831185112483 -5.12938668952606,58.0830664077215 -5.12993739936376,58.0802514160826 -5.12026423560364,58.0829829823385 -5.14701652806247,58.0958112955481 -5.15146793878763,58.0940906011852 -5.15600104783998,58.1001312417228 -5.17360295826103,58.104111202408 -5.17734059528493,58.1079510887252 -5.20079724921245,58.1078192756629 -5.23738142019389,58.1152083584379 -5.24669706017823,58.1211774614423 -5.26219087019774,58.1212326667419 -5.26252211758748,58.1212758656092 -5.26216379298662,58.1210776688301 -5.30290096963662,58.1197364071331 -5.27887067815576,58.1146230938801 -5.27930076094968,58.1142014528764 -5.27896107104926,58.1142207930082 -5.28425030817509,58.1093482595868 -5.28579454790694,58.1078337771225 -5.27447641325821,58.1108802790257 -5.26669962072651,58.1018043290166 -5.27358130032427,58.0986320369435 -5.27665807414783,58.0954364249596 -5.2812531495554,58.0950944011665 -5.2818570072984,58.0947400664499 -5.27440504528691,58.0919710510652 -5.2797512521786,58.0915634411395 -5.27501950250633,58.0844231543097 -5.28795732939274,58.0830363279484 -5.28802668865469,58.08275503703 -5.27919604078851,58.0737275026984 -5.28224618718706,58.0737839674383 -5.29285139279062,58.073769970908 -5.3005563602167,58.0642290497707 -5.32389874662035,58.0679084739323 -5.3390809268155,58.0800770270859 -5.34219541956158,58.0770047052971 -5.34946373130468,58.0775281359114 -5.35035430573263,58.0787994982664 -5.35173740934101,58.0786142853447 -5.35254866897485,58.0753697554969 -5.35272345433048,58.0741165349244 -5.35290019455457,58.0739637097706 -5.35696769853154,58.0576869380361 -5.37253831493781,58.0772980031308 -5.37437477206487,58.0771170505937 -5.37935481099903,58.0802567318361 -5.38055514554764,58.0873854659606 -5.38117549614314,58.0876515641203 -5.38969891096623,58.0881387880046 -5.39949744048924,58.0950001119759 -5.42003960745881,58.103232402091 -5.42114204563184,58.1032973322529 -5.42319645460751,58.1044968742185 -5.42736922077623,58.1061680113063 -5.43778407764668,58.1014788022961 -5.43772711339095,58.0966481730012 -5.44614230436865,58.0976064048734 -5.44648485030995,58.0800155874311 -5.45785697960525,58.0769829226179 -5.45204908764529,58.0707399978918 -5.45095215409278,58.07058198399 -5.44705897457585,58.0653741025665 -5.44399074116085,58.0620738948002 -5.44070316234523,58.0611029900297 -5.42600621122468,58.0587303592788 -5.4162078008253,58.0538645199824 -5.4125445622839,58.0527813561887 -5.41550710689696,58.044942899253 -5.42011180911801,58.0331361779134 -5.41995681501905,58.0329312075428 -5.41838733656784,58.0327681858382 -5.41010581468717,58.0342724024234 -5.39147373659118,58.0299693802748 -5.38882809869451,58.0296939209418 -5.38259784403121,58.0290450038056 -5.37034272188574,58.030855481418 -5.36055235231289,58.0267462030916 -5.35702882799157,58.0263784074549 -5.34729440513753,58.013537003315 -5.35526166616561,58.0066537816227 -5.33066294145872,58.0066613780853 -5.30763141114443,57.9885279473494 -5.31103376004796,57.9790105049307 -5.24614521027918,57.9708700444767 -5.23034677924186,57.9610323751052 -5.22809223370223,57.9607736133928 -5.22604253748487,57.9583508298438 -5.22549297552302,57.9580084125513 -5.19223374023285,57.9574555888699 -5.19238817289299,57.949480490811 -5.19210691145873,57.9480484161766 -5.19241982881557,57.9478456348231 -5.19247365638154,57.9450656891665 -5.19137366165566,57.9449815624678 -5.18458664284044,57.949320280664 -5.17391483342257,57.9561395965299 -5.17633703494252,57.9495268797822 -5.17945572219502,57.9410092159253 -5.18558030217513,57.9387749238973 -5.1909135427565,57.9358808834197 -5.19294740088511,57.9360865992038 -5.19791339239058,57.9342226677894 -5.19849217404877,57.9292791503976 -5.21194283688737,57.9291511762574 -5.22358673329429,57.9248971407181 -5.16653987854759,57.9016074270283 -5.17630230810455,57.9030893172508 -5.1655573847989,57.8926916935775 -5.1523387975596,57.8959517601068 -5.13831587015671,57.8887649333315 -5.13282484816315,57.8799730978567 -5.11902043119586,57.8783809325646 -5.10049619357687,57.8701017858819 -5.09655923285181,57.8609416229404 -5.08123903524799,57.8512309196833 -5.08455103934429,57.8465738056882 -5.07210206941033,57.8341461742185 -5.07127920259862,57.8271771616945 -5.07608017371253,57.8309673869311 -5.0757967899078,57.8288615565448 -5.08609222659825,57.8299382545005 -5.12711499491138,57.874901993867 -5.15122132879943,57.8756076832549 -5.15634553366919,57.880751645348 -5.16646094176189,57.882288113462 -5.16671459950174,57.8855533812819 -5.18770982766679,57.8902495071615 -5.21743086175143,57.9093227814409 -5.24237137138359,57.9127546892923 -5.23965704347857,57.9176385530279 -5.29727713967134,57.9103780634232 -5.29843035092983,57.910516209507 -5.29869582707901,57.9104715207332 -5.30915329241942,57.9118001825763 -5.33040826276094,57.9143423061366 -5.33265685548963,57.9161773470194 -5.35508078041255,57.9268939273659 -5.35179324967754,57.9317848894502 -5.36020619851361,57.9386411481956 -5.3607240068463,57.9389855925732 -5.37147953960146,57.9301641718222 -5.37204756392413,57.9297363195212 -5.37942150655777,57.9300627457571 -5.40433327212046,57.9311623383927 -5.40043799384871,57.923991909241 -5.39485690090212,57.9207620052421 -5.39392734362642,57.9125758340676 -5.3933963618978,57.9122580558543 -5.3841092780546,57.9090679671158 -5.34008642562669,57.9064611122115 -5.31742447070677,57.8915388410108 -5.31105114630956,57.8787799301638 -5.2474584311833,57.8670947206032 -5.24163722985782,57.8633248118554 -5.24174003899386,57.8566933595006 -5.22858476419606,57.8513934719491 -5.23155073416954,57.8470754616594 -5.2381036959796,57.8454116841567 -5.26243742006737,57.8532978261382 -5.29251142404251,57.856135403422 -5.32544322667675,57.8658310542638 -5.34737235463951,57.8852420169268 -5.34948714050788,57.885951927692 -5.37607083713103,57.8944179626238 -5.40959991951477,57.9050871611493 -5.41298977270708,57.9051832971624 -5.42135509444857,57.90882412937 -5.42229492848895,57.9091228247751 -5.44007853487506,57.8869239967549 -5.43106029041927,57.8830011302761 -5.44183716788594,57.8754794452093 -5.44095068436775,57.8740406502355 -5.44473036624971,57.8734594657664 -5.44814201265065,57.8710771452496 -5.44673279203971,57.8700093250519 -5.45034186096093,57.8695407988819 -5.45518017024261,57.8661611976089 -5.45591561878739,57.8634804757368 -5.4564210135202,57.863436287039 -5.45610286973712,57.8615795921552 -5.45486253115771,57.8564617344484 -5.45532875022947,57.8563504743108 -5.45449185357167,57.8509191853814 -5.48806562877791,57.8561224999801 -5.53165560420923,57.8672988188456 -5.53624169148898,57.8679363950551 -5.53629393303434,57.8684867706983 -5.54056159825192,57.8695795677172 -5.54320144367404,57.879614806677 -5.54989004204899,57.8834601148235 -5.55322137570916,57.890573171517 -5.54834662687292,57.8991565182111 -5.56037518173773,57.9025711137595 -5.55184786955266,57.9128124748651 -5.5586061680226,57.9133208212805 -5.56046985086963,57.9164014358362 -5.56421131038093,57.9179327461848 -5.56674388883762,57.9172365071832 -5.57771886271737,57.9102970705477 -5.58141806764045,57.9195585893977 -5.59124450746101,57.9178686026012 -5.59157412453714,57.920872314853 -5.61840166829277,57.9243381589136 -5.64555779749761,57.9031403789653 -5.64693461689037,57.9012547881569 -5.64527464364366,57.8962667716618 -5.65433169283722,57.8911207516175 -5.65586663103125,57.8890171230681 -5.65298320066059,57.8876507922824 -5.64687994987078,57.8852079977249 -5.64725104279523,57.8849340734274 -5.64321525336899,57.88302093654 -5.65553056473115,57.8788211065912 -5.65583757961528,57.8785943799508 -5.65544078512412,57.8779284999261 -5.64525132086443,57.8707181510351 -5.6471673376202,57.8659837767683 -5.63957167822293,57.8627374076297 -5.6426033729352,57.8563713182667 -5.64241021295645,57.8560467432841 -5.6393531561917,57.8555986493424 -5.63265163380945,57.8564824675584 -5.63188596691298,57.8545037748062 -5.6288898513081,57.8540643276222 -5.62665830357517,57.854657120682 -5.61114063214994,57.8514593260688 -5.60499920037979,57.8505572953402 -5.5819204391607,57.8360737618931 -5.58277331849231,57.8342253770178 -5.58423809605359,57.8146543416678 -5.59740328177712,57.8024906093755 -5.59768636543896,57.8018760344977 -5.58048821250539,57.7988485939077 -5.57913937742814,57.79048403139 -5.57937771262727,57.790431577455 -5.5828615734094,57.7899708476463 -5.60467548668209,57.7869608493443 -5.60808564436185,57.7963087033261 -5.62214695192983,57.789810812416 -5.59629382355495,57.7732066332854 -5.60351783026858,57.7651030832404 -5.62290712634536,57.7678165340593 -5.66883062704811,57.8000500579445 -5.66452274852877,57.8131465577544 -5.66659718250225,57.8144930508681 -5.66262014000196,57.8189278528525 -5.66138478724181,57.8226806637126 -5.66703314792496,57.8316650789244 -5.66749531628398,57.832256683764 -5.68502767464936,57.8345431109301 -5.67982415098143,57.8425691050575 -5.68813514971194,57.8433926735751 -5.6916937470919,57.8437191971734 -5.69257594633968,57.84383249124 -5.69192686085651,57.845355149017 -5.69259680252029,57.8500557635436 -5.68946629503269,57.8511261208711 -5.68881193273438,57.8526605454764 -5.6913595434276,57.8547819686477 -5.68537893550149,57.8607085273581 -5.6837155709694,57.8646066683119 -5.68789477958537,57.8655618308634 -5.71088211283448,57.8670263827304 -5.72930793433857,57.8681972092582 -5.73113473087603,57.8669379142586 -5.73997200988014,57.8660166440132 -5.76051125506073,57.8701736591321 -5.76109310653463,57.870210438607 -5.77899302853068,57.8587939351697 -5.79483994427513,57.8602368754589 -5.80894304590384,57.8601143605635 -5.81478686411557,57.85442302465 -5.81451201556951,57.8532021526998 -5.80924945154375,57.8414543069157 -5.81125455652336,57.838725349289 -5.80106890427406,57.7933765056615 -5.80824696074375,57.7669473532625 -5.80537309367129,57.7626641841732 -5.81278450273002,57.7502217692338 -5.81287398657739,57.7498917845027 -5.79945545836065,57.745226935809 -5.78517507872797,57.744095326136 -5.76258679491692,57.7323965267053 -5.75982897330723,57.7314360013039 -5.69683479141632,57.7301524598965 -5.69635146807567,57.7301424873647 -5.6858462059612,57.717650627617 -5.69350959255672,57.7117238707038 -5.67505216492544,57.713260018536 -5.6716593579833,57.7014180969299 -5.67449559070831,57.7010150057947 -5.67508720620283,57.7009294703561 -5.68782809479388,57.699087096999 -5.68031370009003,57.6920018324127 -5.68262463496124,57.6901033325019 -5.68199161140207,57.6890100883764 -5.6833025910427,57.6895463263371 -5.68390516309135,57.6890512395446 -5.68978817774223,57.6907490582064 -5.68847158489601,57.6916603391111 -5.68913721893489,57.6919325354659 -5.69077572652371,57.6912443571051 -5.69251782238491,57.6933148425593 -5.69310026485188,57.6935529794464 -5.69899752109977,57.6959637940869 -5.70273780172304,57.6953561883012 -5.70691268196631,57.6991985837978 -5.70743446328694,57.6994117887867 -5.7308546734235,57.6985372490385 -5.72675118745519,57.705345539448 -5.72693640600251,57.706002585717 -5.73789826042108,57.7083149434656 -5.76603275534337,57.7023382382688 -5.77344682703008,57.6974599913552 -5.78853183738655,57.6975527823695 -5.78919358138661,57.6974119535616 -5.78680208891046,57.6837115650702 -5.81878649045359,57.6392702216465 -5.80008023089101,57.6405913383515 -5.78716284601542,57.6356569934481 -5.78404708264447,57.6357892671357 -5.76333547740536,57.6265480420072 -5.75562156206414,57.6235971275755 -5.73312219781661,57.6064452897516 -5.72764162800814,57.5854168025376 -5.68575030601652,57.5769419508444 -5.68539266719368,57.5761615198403 -5.68145036650541,57.5675563641216 -5.68182818203592,57.5676154097506 -5.68849206727499,57.5663796893143 -5.69557433702834,57.5697627613203 -5.70145211514446,57.5706804197925 -5.70382063659022,57.5639868075519 -5.70283193469997,57.5636683921767 -5.69299534705547,57.5630248931945 -5.68977189044708,57.559461093042 -5.67914912738467,57.5560372326384 -5.67029215723499,57.5531813219927 -5.66853556375394,57.5456748246378 -5.65120808100197,57.5522756546939 -5.63616690296149,57.5500312164946 -5.63431798762924,57.5555282703991 -5.61441939743924,57.5520220299027 -5.59005980089605,57.5564963085532 -5.55977531549057,57.5506737044351 -5.54949309536819,57.553823039836 -5.53377268749503,57.5522276755161 -5.52512377655394,57.5494447341974 -5.52377939562695,57.5438583940822 -5.53492152426815,57.5312256097246 -5.56203603095268,57.5386444108216 -5.56592735957456,57.5375814758017 -5.5596674551802,57.5333893630074 -5.5625385711472,57.5319822606682 -5.57116082382501,57.5367411108683 -5.57733771766629,57.5363187574295 -5.5740243290755,57.5293737141466 -5.58066404635071,57.5347005366756 -5.59271698721445,57.5315752475084 -5.60617636597424,57.5359331459197 -5.61654376012221,57.5286374547554 -5.62314012324843,57.5322867768335 -5.62681518126008,57.5297447975564 -5.61909879850618,57.5250804934126 -5.62160726580687,57.5211427435686 -5.63269592456986,57.522590180168 -5.62917174252385,57.533187592625 -5.63695016353061,57.5372696794677 -5.64503992247477,57.5360875890426 -5.64523169788587,57.5415165721164 -5.65621208916974,57.5422280049803 -5.65582362172263,57.545606086404 -5.65819558632452,57.5426456041591 -5.65648726718122,57.5421611392824 -5.65456999601289,57.5328508402607 -5.65016451646955,57.5262632222154 -5.65247356188511,57.5226644858978 -5.6519649970423,57.5201924371476 -5.64666120932661,57.513686741015 -5.65001273202922,57.5106988144405 -5.64964506349146,57.5089102096095 -5.65866263876247,57.5155948602691 -5.66354413416281,57.515781749826 -5.67300589411706,57.5262207456932 -5.67353992735159,57.5266162181149 -5.67440921030745,57.5267418496661 -5.68616998642694,57.5264902316733 -5.69238988498933,57.5293389383036 -5.69725080852731,57.5300405329476 -5.69809678123886,57.5319520201061 -5.69909563492656,57.5324093109354 -5.70418806749009,57.544446227514 -5.70355617278412,57.5442823740508 -5.70871522133139,57.5559261263184 -5.70933896806207,57.5560155134834 -5.71642875984692,57.5520970280991 -5.70932772132619,57.5428603864028 -5.70659834810142,57.5397097533547 -5.72724479463964,57.5476236377597 -5.7416632238402,57.5431823273348 -5.74181627974815,57.5441875975317 -5.74272260385945,57.5439735197554 -5.74874581485235,57.5500250517834 -5.7428869989302,57.5512183390778 -5.74330642650876,57.5539716607745 -5.76826838354575,57.5594350554426 -5.78099408888302,57.5671323514823 -5.78152133129511,57.5670009240969 -5.78159479977062,57.5674955815147 -5.79076606516586,57.5730398369481 -5.79230333906065,57.5739689187957 -5.79860088271056,57.5753076552981 -5.7988086191606,57.5778997603724 -5.80711454584155,57.5829168951537 -5.81219980199814,57.5850702790114 -5.82025160175086,57.5772521961555 -5.82251690526739,57.577502409694 -5.82395371406081,57.5767264456735 -5.82559915772789,57.5778427882907 -5.83509306080084,57.578890699443 -5.83650165544669,57.5783112068206 -5.83885640214369,57.5715849130318 -5.83977216474148,57.5689684149808 -5.83750053040993,57.5617137877897 -5.84217527636581,57.5621005895098 -5.86910125351263,57.4849821367016 -5.86880134275337,57.4819857226982 -5.87208762615709,57.4764098122766 -5.87287763940488,57.4741414570942 -5.87008562452268,57.4694866350109 -5.8627153232695,57.4616817143118 -5.86171158867945,57.4555177365383 -5.85487373585288,57.4441027198167 -5.85244171684125,57.4423107612743 -5.83565879752824,57.4411247580449 -5.82847574511198,57.4410009284311 -5.82795164778181,57.4405793381512 -5.80614465888709,57.4390334461986 -5.82537175621926,57.4191448567205 -5.81971282899515,57.4109964805344 -5.81894229044271,57.4110135007167 -5.80747801988254,57.3989095864194 -5.81166646460446,57.3995735546957 -5.81166417032874,57.3994234644171 -5.80701308839469,57.3927320649938 -5.80600671352018,57.3912838619396 -5.8080227196277,57.3927014947875 -5.8206431355798,57.4015727381556 -5.81960134949032,57.3923503660658 -5.81916814099429,57.3885137958319 -5.82225772546868,57.3891563760834 -5.82253063625602,57.3868782065643 -5.82416052051869,57.3895520751892 -5.83126561444058,57.3910292903895 -5.83062056405726,57.3891203460578 -5.82737563781098,57.3842318606338 -5.8287360760362,57.383542196569 -5.82619510032776,57.3760178829833 -5.82426551187091,57.3744809664212 -5.8240782874921,57.3697471640716 -5.82195608574101,57.3634581930897 -5.81338067514724,57.3622755675423 -5.81330233825223,57.3624817807607 -5.81528674148591,57.3698871515169 -5.8094316942883,57.3726681141583 -5.80807458854984,57.3762382848287 -5.7883446535093,57.3463587888702 -5.7371600652902,57.3537952996964 -5.73024728261698,57.3548253793383 -5.68872099028724,57.3784835311184 -5.66213411902116,57.3865948158765 -5.63312761832574,57.3954338068936 -5.62308112560935,57.4004244344607 -5.60768763407716,57.4210602080551 -5.61496416707957,57.3994999167803 -5.612444394991,57.3984721762515 -5.61101020255665,57.3978871629032 -5.60809391878181,57.3981059541742 -5.60714210440622,57.3963091714311 -5.59405950076296,57.3909702110415 -5.60301787630387,57.3885214745475 -5.60273050142426,57.3879786937417 -5.61038925769958,57.3840579877519 -5.63187265935438,57.3806275653198 -5.63394238620031,57.3800609555788 -5.63570695135065,57.3666278767914 -5.59788668983762,57.3650101331054 -5.61283449087935,57.3593210750404 -5.61298037746694,57.3591060065162 -5.60159350947495,57.3552444737347 -5.59378484817436,57.3557091604974 -5.58262269195145,57.3589876501391 -5.55251023222172,57.3581571006646 -5.55202689004095,57.3581856839713 -5.55042719019808,57.359081433979 -5.5150986564025,57.3837083442189 -5.49917509908742,57.3877465712593 -5.49866040442104,57.3880341084448 -5.50338719221991,57.3912811728605 -5.5039633878675,57.3913870299272 -5.50363430627884,57.3914509063558 -5.50620641009903,57.3932174649819 -5.49289089641983,57.401848787077 -5.46707987893737,57.4185644452279 -5.44216567048799,57.4226930077049 -5.43539974464952,57.4153581694477 -5.44652080625962,57.4031282373599 -5.45744129483825,57.3911100212806 -5.46793233575336,57.3859153456097 -5.47256871404241,57.382791796808 -5.47849440395149,57.3806831518332 -5.50283031354173,57.3686187188635 -5.5068310320758,57.3653672267614 -5.52505005075305,57.3575924776452 -5.53453608127011,57.3528820124276 -5.57729590429866,57.3537947667228 -5.58222257826878,57.3434942384549 -5.61280010801294,57.3394309832942 -5.61755378805082,57.338367491319 -5.61753453538676,57.3388011137425 -5.650421904053,57.3344202647152 -5.65696072100963,57.3347059035979 -5.66168339075663,57.3349119911975 -5.65725030526161,57.3376152499929 -5.64382101447967,57.3458462627886 -5.65792925648382,57.3444334599283 -5.66137144658531,57.3440804904408 -5.66370472676296,57.3404016022994 -5.68583269126805,57.3414077807745 -5.68418111749075,57.3335542487943 -5.68327328153882,57.3337014706359 -5.68135344977016,57.3282486796906 -5.66863429997515,57.3272505095923 -5.68091065546181,57.3269907875353 -5.68055019211563,57.3259667143242 -5.69205104068227,57.3267540579767 -5.69718468337471,57.326644636854 -5.7033173202228,57.3181957935683 -5.71110807887865,57.3184937614461 -5.7162550949537,57.3154186941404 -5.71706874104748,57.3146580429883 -5.72465508549235,57.303601419682 -5.72043931700219,57.3024366921046 -5.72797228214366,57.2987646519485 -5.72942522243327,57.2966457230352 -5.71812936225612,57.2835201111788 -5.73345603943855,57.2832677338099 -5.69791729323254,57.2815615607823 -5.69221139423055,57.2821427862429 -5.67442337640693,57.2804338015203 -5.67325965476168,57.2803778235637 -5.65212144088335,57.286004800678 -5.64790580464169,57.2871263730337 -5.6387063215164,57.283010509239 -5.63216903337655,57.2819207166376 -5.62046732483652,57.274845556514 -5.61899372173437,57.2741855951713 -5.60010152139647,57.2811447337767 -5.59257444607441,57.2708511519019 -5.55822979783469,57.2835780841003 -5.55540220488034,57.2770015847925 -5.55249396444046,57.2774950621575 -5.53509016100755,57.2821597541778 -5.52833666028644,57.2798885364997 -5.52646218372725,57.2805988657508 -5.52437862413284,57.2785571434488 -5.52089929275977,57.277386595766 -5.5194279252064,57.2789496699696 -5.51733417909214,57.289414233175 -5.51644059895711,57.2821227254472 -5.51030986183065,57.2886327890619 -5.51342588690023,57.2896086725639 -5.49903941379977,57.2923687853166 -5.48917788949348,57.2994374939021 -5.48862308155492,57.2971871924591 -5.48892173848058,57.2996210566837 -5.49065251120068,57.3054170384674 -5.48430163231157,57.3099216672104 -5.47421187029008,57.3131875127601 -5.46042402651824,57.3106535439688 -5.48653105485777,57.3060739518085 -5.48643572461794,57.2970506098687 -5.49760690078331,57.289302897095 -5.51167461252726,57.285237274135 -5.51498210268235,57.2787757009704 -5.46912484851082,57.24720348051 -5.45619052405299,57.2399393207523 -5.43449218996356,57.2346537095869 -5.41929481357842,57.2324633654734 -5.41724949967231,57.2304496802651 -5.41555193445468,57.2300356061839 -5.40979467316908,57.2309650246696 -5.40565685959529,57.2326856564528 -5.40504141468375,57.2317321306367 -5.40393159261579,57.2319112090704 -5.39054343094386,57.2330641073649 -5.40449108811042,57.2313757351844 -5.40468908538858,57.2311862335007 -5.40355555178381,57.2294298196141 -5.40890573454449,57.2254002142764 -5.41080096539798,57.225335544734 -5.41189984950606,57.2242833988894 -5.42300029087417,57.2136512496252 -5.43459866377105,57.217883825283 -5.43905826957059,57.2163096341028 -5.44384457013174,57.221256440312 -5.4493369978562,57.2232592830913 -5.47674138686627,57.2332455192111 -5.48801049578657,57.2410991806238 -5.50625822031034,57.2529143719721 -5.50893026404563,57.2556667753709 -5.53129423056721,57.2712231344271 -5.58391714212678,57.2556894983626 -5.58964977246716,57.2571333001084 -5.59158214574468,57.2569414949231 -5.59424549549618,57.2582904914714 -5.59741752588632,57.2590890591938 -5.6002819568705,57.2584278552252 -5.60861343266555,57.25417180554 -5.62967662583436,57.2516374983207 -5.63684256522345,57.2499807077887 -5.64738171843061,57.2381460592736 -5.6564121844253,57.227998964999 -5.65579340637791,57.2278449803957 -5.6461480892567,57.2256667157042 -5.62130479753744,57.2200515575816 -5.62218154713867,57.2183855764716 -5.63171883186277,57.2002534135097 -5.64323203836458,57.1961201135003 -5.67446213203254,57.1848987123824 -5.67597696283671,57.184299480925 -5.69301401502188,57.1690737796929 -5.69177800973517,57.167204887978 -5.68806206466637,57.1676282797507 -5.69061917771954,57.1654524947293 -5.68298626243093,57.1539053814288 -5.68191170244913,57.1534738024373 -5.67921023888448,57.1481900555104 -5.6791148529433,57.1480456547258 -5.65962601153943,57.1426594969804 -5.63810411114607,57.1440269989434 -5.6108929761699,57.1457505771158 -5.58918907421683,57.1404132063046 -5.58360806261709,57.1391308358936 -5.58349320185426,57.1390116056145 -5.5615388920055,57.1336057914587 -5.5589505069298,57.1274983508459 -5.55097687972996,57.1166459029669 -5.55267599691684,57.1126842993467 -5.52731839306904,57.1018610582419 -5.51100837057703,57.1016256826658 -5.49092791944389,57.1053713345898 -5.48737034826627,57.1012545502618 -5.48681266016035,57.1006091032782 -5.48004784843454,57.10508993658 -5.45602973000113,57.1075892864475 -5.45544945360536,57.1099606191242 -5.43851079462324,57.1109889664361 -5.42669720223366,57.1151874285745 -5.39181296897316,57.1089321845588 -5.42109397967115,57.1097985720456 -5.43172024066962,57.1058129846387 -5.45109928083818,57.1059139040286 -5.49637139643748,57.0974882274906 -5.50539328211359,57.0981359414851 -5.50953747407861,57.0974254207461 -5.51999415125587,57.0814331927172 -5.56721002159876,57.0960063064519 -5.59200955691363,57.1191973203746 -5.59531909886095,57.1196222154481 -5.634213927344,57.1232656854687 -5.64085661072091,57.1254586240106 -5.65202377881937,57.1268870651738 -5.67890748386723,57.1197533456224 -5.72010363200215,57.1184470052707 -5.72201347727664,57.1181963361877 -5.72552438257166,57.1011725967002 -5.78815949268539,57.0702247645776 -5.78919836804493,57.0655662344765 -5.79635486955349,57.0653791097647 -5.78460976417072,57.0485763387267 -5.77964757709377,57.0484351050576 -5.7813334520713,57.0443976131323 -5.76204473551196,57.0514428153585 -5.75223162106424,57.0347452621217 -5.74994075300128,57.0308447853284 -5.74688008269433,57.0299256503217 -5.73253914792924,57.0340384388911 -5.73257567801072,57.0358904592013 -5.71034150687677,57.0403994367665 -5.7076295441757,57.0411761669171 -5.70149941386618,57.0395587305451 -5.68401439015979,57.0372677389421 -5.68124082876585,57.0342103328018 -5.66398587894644,57.029651072182 -5.68048305783087,57.0258253502451 -5.68272506247613,57.0234468460436 -5.67900343462929,57.0110420785735 -5.67110859130816,57.0031815598231 -5.6615930282179,56.9947163170838 -5.63823514700372,56.9912503729966 -5.63868972242734,56.9880151369428 -5.63378492176066,56.9866807265594 -5.62958665446213,56.9865031557795 -5.62723095906055,56.9848971887107 -5.6224195075541,56.9835875119818 -5.61955237219916,56.9828069441901 -5.61580359438666,56.9828538993925 -5.60057264666522,56.986277104063 -5.59095871871591,56.9916062595695 -5.57344097277217,56.9922746608184 -5.55182942575802,56.9988960820336 -5.54583392128603,56.9975200124016 -5.53529221909247,57.0009966297983 -5.53562103996259,56.9970002194638 -5.52402412512165,56.9943971783236 -5.5892946254905,56.9803218126465 -5.60351809958839,56.9844660621551 -5.62259289688294,56.9758052063396 -5.62344728569962,56.9757810250773 -5.63561815605185,56.9697966940172 -5.65933809998519,56.9766976080649 -5.66062040178519,56.9761893123698 -5.67188953038858,56.977688234391 -5.68307987664739,56.9835977382566 -5.69497264562569,56.9870514791189 -5.69755917123196,56.9865737756162 -5.70578905342462,56.9901910839596 -5.70865762995507,56.9910234773458 -5.72450509282868,57.0142063569898 -5.727441523708,57.018305009531 -5.82171130287797,57.0088324630702 -5.82282075016466,57.0050308949603 -5.8276080813428,57.0047624967584 -5.82623813693801,57.0083756869975 -5.83045128717384,57.0079504069884 -5.83384540142738,57.0007952585983 -5.83140512364307,56.9943736855122 -5.8377481337057,56.9925645240403 -5.84722634892555,56.972560300594 -5.82793352148811,56.9739586147137 -5.81716010857435,56.960672821864 -5.84477207251637,56.9668858965443 -5.85075120567782,56.9590181056141 -5.85159375609635,56.9577850113004 -5.85464657440223,56.9538903833338 -5.85268603452752,56.9525720323484 -5.85475937993554,56.9490627692688 -5.85875606499818,56.9484791771694 -5.86006863944385,56.9467504877751 -5.85871882357201,56.9456309719405 -5.85740037373536,56.9446206644323 -5.85285855554557,56.940769577631 -5.86651878835287,56.9344846860005 -5.86711200189042,56.9338213090101 -5.85596148889367,56.9268911156658 -5.87192774689391,56.9284199429397 -5.87477240346531,56.9252525401989 -5.87732089503865,56.9244214663564 -5.8834171224839,56.9199004404436 -5.87248062756399,56.9097245703312 -5.85057065032345,56.9132701820276 -5.84316484928341,56.9076446925907 -5.85271092759233,56.9004372602199 -5.85113128140939,56.8996942646057 -5.85375005604524,56.89965249448 -5.86163551373417,56.8936959449902 -5.86184661427728,56.8991562988855 -5.86394461883651,56.8994893634534 -5.87914998585751,56.8992444707512 -5.88191499767689,56.9023404612184 -5.89400926056209,56.9042575317872 -5.89979638886997,56.8950715628143 -5.9239129142815,56.8919145029031 -5.9231131671774,56.8889984509191 -5.91848918430639,56.8860964388137 -5.92142634822513,56.8836921760755 -5.91296304772927,56.8813447995167 -5.90842069130368,56.8831977721194 -5.90552266705091,56.8792804138502 -5.89736282178987,56.877015620736 -5.8948400292272,56.8773150635698 -5.88889918140199,56.8746656360252 -5.88717441454627,56.8741866350281 -5.86378606689736,56.8842206386152 -5.83029392614439,56.8874024199321 -5.82758053035089,56.8883433460786 -5.82634852364265,56.8877766225723 -5.80521261294723,56.8897790822488 -5.80496506148347,56.8899927952374 -5.80489771528778,56.8898088879719 -5.79921627461047,56.8903465135645 -5.79799977584945,56.8910412637888 -5.79638191874478,56.8906146243739 -5.78149494532232,56.8920217131568 -5.77766874159793,56.8934171512215 -5.7518274423328,56.8948202370486 -5.73772160301161,56.896148173052 -5.72985982743092,56.8923549260749 -5.73660337983104,56.8900228173439 -5.74013496916276,56.888422696412 -5.73927560898833,56.888241788463 -5.72274214569568,56.8889311897423 -5.73107967104023,56.8874638432151 -5.72444017668952,56.8872621345702 -5.72559616780534,56.8854294205942 -5.72584300432452,56.8854129992478 -5.7235257052188,56.8849248053272 -5.74940016149753,56.8826345899843 -5.75047234647215,56.8822340360855 -5.78884431760642,56.859724706844 -5.76173184097255,56.858917728666 -5.75022282545388,56.8543635900675 -5.73501688232102,56.8522539858882 -5.73636047142272,56.8536880450035 -5.72988191027439,56.8532301839953 -5.72799219295898,56.8512787036707 -5.72622525014697,56.8510333178632 -5.72011341329741,56.8558863556904 -5.71500774523164,56.8599392805389 -5.71563666604506,56.8624757624642 -5.69665156118294,56.8745017027157 -5.69033130688139,56.8795124938083 -5.68907644839071,56.8792971305378 -5.68868512021204,56.8795448150185 -5.67812841725484,56.8797351273642 -5.67756161943889,56.8773202045585 -5.66599908037032,56.8753338001051 -5.67648275842872,56.8727226175272 -5.67600180479377,56.8706726270892 -5.68908695947426,56.8695816359144 -5.69258671284833,56.868709173059 -5.69376179857518,56.8680507709283 -5.70598890240214,56.8563072617052 -5.70868923193102,56.8537125946158 -5.7102298300052,56.8486692248906 -5.71881640654034,56.8439780405695 -5.71918017722792,56.8436282666507 -5.72044333712457,56.8437438991719 -5.73143331948391,56.8431946359989 -5.73510679764913,56.845085232693 -5.74104751727693,56.8456281399245 -5.74204994266524,56.8441171517836 -5.74899055368857,56.8463535645297 -5.75933760377702,56.8472977381529 -5.78158261955686,56.838838560632 -5.78593187381161,56.8366779373876 -5.80841201600063,56.8375127150036 -5.80986607677484,56.836401989088 -5.81670437584808,56.8280279231747 -5.82734985549037,56.833833692975 -5.8327457698193,56.8341359140559 -5.83468430274367,56.8338851048582 -5.83420962939151,56.8337321651547 -5.83582138689924,56.8337022466575 -5.85794311562461,56.8301423745071 -5.86279078412342,56.8206556532012 -5.86500350679776,56.8106617083413 -5.8402957079885,56.805135901279 -5.83479674932433,56.8041364192784 -5.83435821864896,56.8038070235473 -5.746761924178,56.7841582237414 -5.78007330470004,56.7826784248653 -5.79530727162382,56.7909475516361 -5.80079740899335,56.7872653619959 -5.80385031751343,56.7839857483644 -5.81364192183274,56.7853053450286 -5.82283769180198,56.7856967209145 -5.8310377109536,56.7698908252571 -5.85197247896275,56.7794864769012 -5.85272371797393,56.7793885420824 -5.85505012554633,56.7675960782055 -5.85815356807407,56.7778655781314 -5.86024864214954,56.7784072844014 -5.8623251322722,56.7781364191883 -5.86502293249744,56.7796415418674 -5.8869306255796,56.7853017342584 -5.88903469805032,56.7704695231506 -5.88456264915676,56.767252651394 -5.88959360646296,56.7665279349482 -5.88684815303987,56.7656918447348 -5.87096965850471,56.7622224330491 -5.8684832262424,56.7605732905723 -5.86911106631331,56.7605835596666 -5.86185457959808,56.7584925481385 -5.85284249268084,56.7622456620268 -5.8524384564821,56.7525780926129 -5.84755276858339,56.7505484108857 -5.84457363979298,56.751217628004 -5.83413137114519,56.7449705585134 -5.84655028772377,56.7501318944245 -5.85203427415442,56.7471191673103 -5.84051213344231,56.7402599055394 -5.87022788609556,56.7416768708034 -5.86969355586077,56.7554778283552 -5.88639204705262,56.7633335910399 -5.88905206089478,56.761753753067 -5.90177409916014,56.7530154403494 -5.90372163476092,56.7530378339815 -5.90945384839454,56.7496305032811 -5.92837131958482,56.7613857368514 -5.96592586210343,56.7846907372701 -5.96619589778892,56.7844097699524 -5.96875328309094,56.774637385287 -5.97585925845861,56.7743521627001 -5.97747709817774,56.7726677395401 -5.97691423708032,56.7710499067138 -5.98018608683821,56.7698468904075 -5.98094926040475,56.7690521203548 -5.98205256200885,56.7691605413076 -5.98239137232767,56.7690359468065 -5.98684962529385,56.7696318259099 -6.00097910736265,56.7710188251358 -6.00640720325435,56.7697357364804 -6.01382268882739,56.7722557116905 -6.00566190501729,56.7631355691178 -6.01488491786065,56.7693226794195 -6.01738923015255,56.7638949585753 -6.03394870306528,56.7652798276047 -6.03754071592278,56.7636188625215 -6.04494267876333,56.7661979762362 -6.04977188369754,56.7666009585612 -6.05119967166875,56.7652911714827 -6.0522818609475,56.7623953451725 -6.05382083852653,56.7628863597335 -6.059630353182,56.7575551013399 -6.09099737216968,56.7618851257453 -6.09489470996119,56.7612319791409 -6.09677071755756,56.7626811205847 -6.11796875459171,56.7656011666973 -6.16779695506834,56.7514966735164 -6.18607388043825,56.7551729847363 -6.18559463200098,56.745487631815 -6.18146949528218,56.744177934397 -6.18549350943419,56.7434430600239 -6.18542202781982,56.7419975872518 -6.18298621562343,56.7412339042874 -6.18396952002062,56.7369429163257 -6.1851772382289,56.7370461536377 -6.18510025032012,56.7354884880695 -6.20155028916935,56.7383200355396 -6.21122584576219,56.725706681238 -6.22657349812877,56.7270901667377 -6.22050886051627,56.7227362229347 -6.22508377583551,56.7214283093944 -6.21920484023318,56.7054421850286 -6.21638070948735,56.7021793101206 -6.19650773768427,56.6922229482201 -6.18586273733026,56.6877785096861 -6.17967247308481,56.6871257911788 -6.15920271037287,56.6868640771718 -6.14798204119599,56.6837789944449 -6.14222561867598,56.6831701208459 -6.11730469067504,56.6953954813151 -6.11650948617821,56.6942911065431 -6.10990245418166,56.6974704403993 -6.11208443804904,56.6912485131934 -6.1078032131849,56.690330689129 -6.10535408160027,56.6912501164578 -6.1004420139466,56.6887521235228 -6.0965145143362,56.6879096745605 -6.08399556558291,56.6931399289878 -6.07562978455318,56.6902749902157 -6.0739969682752,56.6904624411076 -6.06921433950999,56.6932873421759 -6.05381028323099,56.6927780003534 -6.0515204999395,56.6930404315933 -6.03020307712303,56.6803074270417 -5.98741790922119,56.6848744524317 -5.97426837129614,56.6725042008837 -5.97241382416611,56.6817810114158 -5.9590216614332,56.68524094912 -5.94571178735206,56.6886412531735 -5.93961128646479,56.6845975515487 -5.9397194583516,56.6850502317929 -5.93460085451111,56.6860113855249 -5.92719490851536,56.6827667242665 -5.92597184341903,56.675753248966 -5.92322135099289,56.6762872435656 -5.92059922841018,56.677237961391 -5.919648820442,56.676980719555 -5.90410900286338,56.6799957279906 -5.89523712723193,56.6734355287696 -5.86087887308417,56.6809002320786 -5.83758503516701,56.6753898634628 -5.82883296881021,56.6786139444841 -5.79627042722325,56.6965537736201 -5.78465276908293,56.7051776529453 -5.77955020427002,56.7057557388476 -5.77920492067692,56.7059456952645 -5.77767413010945,56.7167947932957 -5.76992706526334,56.708366796873 -5.76225366178891,56.71011444044 -5.75544710271381,56.7073530210303 -5.73280317454944,56.7115186260072 -5.71803990671795,56.7098568469898 -5.68321475343555,56.6930144459685 -5.68542717626251,56.6892401518662 -5.66791600242579,56.6872629034752 -5.66395934699817,56.6800924738429 -5.63231089129028,56.6840643419646 -5.61601628581773,56.6890884834223 -5.59872395022159,56.6899871332182 -5.59427554094375,56.6869970746519 -5.57031947758703,56.6888250275286 -5.57129167158079,56.6870257751727 -5.54459599440639,56.6877816907158 -5.54666074698055,56.6841176599348 -5.60157104539799,56.6818835282958 -5.60902282635689,56.6774823427314 -5.65956985655827,56.676567148957 -5.68733174346931,56.6846999921628 -5.70419272531475,56.682186620449 -5.72106375112112,56.6967878613289 -5.74681710189959,56.7019443530255 -5.74707209527465,56.701779193843 -5.74675908610932,56.7016898534185 -5.7484944728128,56.70085788599 -5.75636611478609,56.6957581528187 -5.76257060253378,56.6941073986573 -5.78963836638292,56.6811153800253 -5.79182214031495,56.6793071210395 -5.79500604023415,56.6785372555526 -5.80553121012078,56.6734802814409 -5.81912618850332,56.6669450891658 -5.83271233503935,56.6638229839956 -5.83977671368727,56.6605807449089 -5.84474870293726,56.6610553716671 -5.87958203424466,56.6530372033072 -5.86605458835042,56.6397308931708 -5.86258395552275,56.638085078938 -5.85857622388377,56.6369449573055 -5.84964097782205,56.6380492490684 -5.84119362218142,56.6345783565784 -5.83096705901798,56.62908526132 -5.82740773093863,56.6280713105358 -5.83068584926224,56.621150212674 -5.87629362012573,56.6410086087122 -5.87737406306435,56.6411721754358 -5.89154456350243,56.6394003552775 -5.90626038662011,56.6578081711878 -5.90932661127773,56.6574036923653 -5.92357476926534,56.6523173454455 -5.93736306537451,56.6521061664517 -5.94146514345603,56.6533988301462 -6.00725786528304,56.6451290538946 -6.00187494790104,56.6226466493434 -6.00111230932343,56.6198701340783 -5.97832857844809,56.6103504457189 -5.96542664718453,56.5910915852446 -5.96345802891396,56.5901122514939 -5.96064033823839,56.5839414658875 -5.95964007998591,56.5824468318491 -5.95882998732411,56.5819871174699 -5.94765868928591,56.5784176930421 -5.93974631748919,56.5711526171925 -5.92441093264784,56.5624394483727 -5.90857161494248,56.5558526338397 -5.90598567475088,56.5519625856737 -5.90459501247666,56.5511714761049 -5.8853965596742,56.5508837435012 -5.87258361949106,56.5481729323454 -5.87689947583386,56.5469996290751 -5.87651249339411,56.5467760586212 -5.86088951916345,56.5443292738089 -5.85033645441925,56.543748665501 -5.83551587922289,56.5403504952934 -5.78631697269033,56.5326184693675 -5.78442744336983,56.532536554833 -5.76777059143288,56.5473680037577 -5.76364060936171,56.5544012216055 -5.74815401692923,56.564839514907 -5.74047342928674,56.562219903161 -5.74813241448828,56.5548576552192 -5.7580160888391,56.5453917509341 -5.75820025958194,56.5419106019915 -5.76332554729685,56.5402951783326 -5.77139653405996,56.5325448204327 -5.7646764688318,56.5267824544199 -5.75475393903729,56.5188528938363 -5.7512747674289,56.5212187626193 -5.75003446311089,56.5233796188351 -5.7474410809007,56.5238252596869 -5.74563293796907,56.5250544416791 -5.69556203476994,56.5122625462073 -5.68403030298882,56.4973225929541 -5.68152083560431,56.4980739291739 -5.63800105607158,56.5124260332672 -5.62340170916044,56.5193295656505 -5.60130545012816,56.5245074334993 -5.59887903397858,56.5253056365387 -5.58717175339587,56.5343629668528 -5.58104059455783,56.5351654583622 -5.57951731923409,56.5360100718599 -5.55958884461372,56.5470547344983 -5.55962019046528,56.5482511258144 -5.54865757231171,56.5531089751704 -5.54778293343688,56.5535932666468 -5.49289681721624,56.6056320857953 -5.49276406515301,56.6064534646994 -5.50062852103622,56.6086082010525 -5.51963711273908,56.6125982987533 -5.51942921466567,56.6137562552397 -5.52850417916626,56.6162396520576 -5.51923401342664,56.6148434290787 -5.51892322114797,56.6165742748205 -5.49893468623502,56.6154530314741 -5.4887023332892,56.6102392602798 -5.48832257254473,56.6101819373296 -5.48395370160014,56.617433760327 -5.47027111038948,56.6152813837678 -5.4341619613464,56.6427621326048 -5.43214642503007,56.642997722967 -5.42189884412765,56.6460110645127 -5.41689008851788,56.6447798470284 -5.39878246454933,56.6468923979039 -5.35519261760551,56.6751938369771 -5.36082920298557,56.6826424632092 -5.35004363603976,56.6865835344537 -5.32103985966304,56.6971729383463 -5.319123863032,56.6984484659115 -5.30811334101596,56.7078462135999 -5.30476918863162,56.7080010922774 -5.29833910895242,56.712278051276 -5.30642196733993,56.7139905269775 -5.29798214483083,56.7125154473056 -5.29791627260231,56.712188447518 -5.28836213333679,56.7101633215894 -5.28412853204667,56.700629181124 -5.27405854444023,56.7124117605534 -5.26944393443049,56.7135865876382 -5.24265126717042,56.7204029051416 -5.2565086248177,56.7319986254424 -5.23074093368274,56.7510089780126 -5.23077288465951,56.7514315713581 -5.24025559321576,56.7667544454375 -5.21925356950353,56.7656568982617 -5.19549971398026,56.7797491972893 -5.12432005510086,56.82520468435 -5.12357015604305,56.8268604036704 -5.12380521513552,56.8340653104273 -5.12704152743507,56.8349064280941 -5.15041041610051,56.836496855174 -5.17981905808682,56.8466007717168 -5.25362730902361,56.84290409178 -5.26067390563191,56.8460326163971 -5.32131838794183,56.8505495975935 -5.32959300418636,56.8540281063778 -5.32910357853822,56.8577492994765 -5.24484857044757,56.852146540604 -5.23732252003052,56.85457139319 -5.19205301949795,56.8546919165194 -5.17475875388925,56.8521185639657 -5.14914631992608,56.8386267916576 -5.12725740186901,56.8424675088442 -5.11595682623281,56.8391545753267 -5.11113935248589,56.8391133191748 -5.10207184982679,56.8265936201988 -5.09828700660808,56.8347485518194 -5.08445717945149,56.8326199638147 -5.10890844714964,56.822829209661 -5.11223665098123,56.8202503266323 -5.11171611842054,56.8194904012675 -5.14248330512179,56.7967934426686 -5.1726992971788,56.7733241077249 -5.17250546621434,56.7699730293669 -5.20869009315633,56.7400005710949 -5.2288305320261,56.7296296975569 -5.22909542183426,56.7294232076063 -5.24008559494208,56.7135852238313 -5.23921418533339,56.7110574956518 -5.24602445947984,56.7050209031304 -5.24740520501486,56.7030291749235 -5.24377761125224,56.7028491057974 -5.24081919670402,56.7035181362316 -5.23734837876909,56.7025297020619 -5.22290657853217,56.7018110035058 -5.2190294939766,56.7024412769748 -5.1951517009439,56.7004249860468 -5.18554522973267,56.699943794756 -5.18572592695968,56.6910454813907 -5.17833417317207,56.6890367889973 -5.16795289629727,56.6926105073136 -5.16262901072795,56.6848717884104 -5.15635185504479,56.68828606499 -5.14556482640031,56.6867429434504 -5.10555812500124,56.698277338462 -5.0474695988307,56.7055735449277 -5.01288139917847,56.7140197516221 -4.99641828883403,56.712632831599 -4.97378479419284,56.7164643769231 -4.96945528873502,56.71455672283 -5.05109889334199,56.7048869097683 -5.05612437448601,56.7010693236053 -5.10634530703651,56.691869717297 -5.11632273775872,56.6808857322115 -5.12949539223123,56.6797187309931 -5.13456862282076,56.6824654222372 -5.13277704685722,56.6797875277506 -5.14684749432788,56.6771082366193 -5.1687552745364,56.6858108177752 -5.18615879764979,56.6887800008608 -5.1983937071941,56.686041983751 -5.22394477809345,56.6860079054217 -5.25253519920815,56.6655170393631 -5.2543633761821,56.6705617010537 -5.26568573180302,56.6702506984912 -5.26932269803418,56.6701505795257 -5.27171908971171,56.6691290048764 -5.27598130519097,56.6699670033288 -5.2773805370442,56.669928381033 -5.31739093003566,56.6534102333027 -5.32641640002619,56.6471191047483 -5.3259664498916,56.6471225075924 -5.31652844788047,56.6499145382588 -5.31648017930597,56.6471938648721 -5.3008669164587,56.6473096968097 -5.29918579224368,56.6444677299463 -5.29771915703779,56.6435139558337 -5.29804389638158,56.6425370711439 -5.29591963704241,56.6389449133791 -5.32505824768441,56.620657978633 -5.31491460110332,56.6088653753336 -5.29848549740914,56.601701802078 -5.29737228780261,56.598000654878 -5.28820240676885,56.5966524714781 -5.27467107392391,56.6007224389102 -5.24966849309154,56.5921600903175 -5.22998412443488,56.5946194791082 -5.21647348671738,56.6021568460668 -5.21075561770174,56.6097657891477 -5.2165905429342,56.6233549468261 -5.21382126757591,56.6319169071214 -5.1790855112267,56.6266523590553 -5.15297786933351,56.6266699890114 -5.15306958878823,56.6128245812238 -5.11884279074418,56.6165644909486 -5.09184031261032,56.6085423012053 -5.07995069119585,56.6094541030412 -5.08785456905042,56.601054833961 -5.08674464539547,56.5962418735748 -5.09439521200089,56.5946538892901 -5.100673250234,56.588254623407 -5.1089023235711,56.5874871850086 -5.10495111775419,56.5773566705387 -5.09591191880385,56.5764585990251 -5.09543244569332,56.5738817731073 -5.10022382845199,56.5699510203713 -5.09967437712572,56.5552858401344 -5.1144627428092,56.5479719172017 -5.1075463375085,56.538945026015 -5.0975251653569,56.5357337910252 -5.07865707411316,56.5598823251183 -5.07217462154906,56.5592949887346 -5.06971567293166,56.5630996236889 -5.06577425240074,56.5633389388276 -5.07105597335147,56.5606358994861 -5.06740834694784,56.5571457364563 -5.096048168793,56.5285209246397 -5.06174275822188,56.5271074515432 -5.05188478736873,56.5361771121833 -5.04057412522445,56.5386567972118 -5.0227219114909,56.5361443412494 -5.00533929017944,56.5422919374217 -4.99431972743847,56.542131172186 -4.98822634938406,56.5462553900882 -4.98931736932657,56.5537929914944 -4.98512731886112,56.5564869191887 -4.97114177724799,56.5545661030388 -4.9708875777166,56.5592102596028 -4.95153225198149,56.5636803731348 -4.94747228655341,56.5757268172258 -4.92955022447405,56.5756069235417 -4.90933155860747,56.5694396478844 -4.9021787031755,56.5718135602389 -4.87852158366549,56.5660497992042 -4.86672814710129,56.5716569583975 -4.83860961388441,56.5738395705017 -4.83002484211776,56.5692178906806 -4.81813676139282,56.574098979253 -4.80110032843195,56.5735989230857 -4.78215660480641,56.5826977736227 -4.77944290317935,56.5877692106449 -4.7544945878454,56.584674830843 -4.72618819596148,56.5878065831983 -4.71287789171772,56.5967636470215 -4.70355474721681,56.5983940541898 -4.70222864359271,56.6055554473939 -4.68657486679811,56.6006280329288 -4.66305378209397,56.6113708718829 -4.62642362625922,56.6155969800891 -4.63679633826411,56.6250253142601 -4.6183259089393,56.6377813871268 -4.63120174998295,56.6475807458457 -4.62981108716155,56.6550156261762 -4.63339583473538,56.6565799403859 -4.66413678044439,56.6397974019448 -4.69631018926888,56.6434584781761 -4.71542038933688,56.6423282562788 -4.72043295812877,56.6564280356942 -4.71753628104795,56.6765875166999 -4.69464541265263,56.675206868429 -4.67643068862663,56.6774648991519 -4.65756889912309,56.6747415429039 -4.61718380240035,56.6905661300796 -4.59201593937216,56.6931823981347 -4.59120763020784,56.7044692733312 -4.60591668794602,56.7079593370345 -4.57599538060952,56.7347889896742 -4.5898717604623,56.7598813106697 -4.54679323820306,56.7723671430973 -4.54965288924394,56.7819473986229 -4.53829471484357,56.7872120043418 -4.52852774051352,56.8013179598623 -4.5203665595532,56.8052848032507 -4.56951996809766,56.8457032053209 -4.55743972012515,56.8533657055415 -4.55993899188761,56.8599334262948 -4.55276509025444,56.8666050076439 -4.55216505491554,56.8742921294372 -4.55696595860068,56.8789840039061 -4.56416690730383,56.876993946811 -4.57821449717351,56.8811306947765 -4.56561887850827,56.9027252959702 -4.57014358014116,56.9092915842149 -4.58414330982161,56.9066076162106 -4.58478408357972,56.9113583497477 -4.59211306911242,56.9068388401117 -4.61644713292341,56.9010101001189 -4.60189330522122,56.9522087037935 -4.63266292205073,57.0262452745712 -4.62737371192201,57.0431044477308 -4.68818767930581,57.0593805386462 -4.76744809522935,57.0949828868566 -4.78656373868966,57.110822016505 -4.80616468310183,57.1170712594822 -4.81701299985214,57.1172097981914 -4.83268738755237,57.1318153671124 -4.86310033147092,57.1297230727009 -4.96385335202521,57.0979972066246 -5.04173293495209,57.1085662083232 -5.08936531814777,57.1221340729946 -5.06785763914419,57.1658979070961 -5.09540831431577,57.1776155843828 -4.96329792398889,57.2116050119567 -4.92388490842894,57.2166002590738 -4.84110384758825,57.2162406156084 -4.79964169665968,57.227462935556 -4.75827247007489,57.2653574553488 -4.76287163244614,57.3110653342391 -4.72990061147321,57.3370798502036 -4.65852601063224,57.3677310320774 -4.60100935847329,57.375487282785 -4.55841800760891,57.4022414533428 -4.55114661722786,57.402366574952 -4.55203576439101,57.4132086565293 -4.5272827341477,57.4245319490289 -4.50761284369798,57.4414194730517 -4.50274725954332,57.4533789194744 -4.50699054388805,57.4618089335724 -4.50226506889483,57.4564212673286 -4.49292444763965,57.4543033230429 -4.48065028269392,57.4594565301729 -4.46800040572862,57.4565894831512 -4.46374959642563,57.4621468652681 -4.47412551161283,57.4681044168989 -4.47478379208097,57.4735953203038 -4.46285518353942,57.475017743866 -4.46142456221308,57.4807759269352 -4.45480657914805,57.477002434005 -4.44900596141828,57.4784630745086 -4.4570089444847,57.4824454308571 -4.45451991883084,57.4852560704612 -4.43614309130719,57.4836777911454 -4.43328256701411,57.4905101095126 -4.41325469692178,57.5014307640475 -4.39117984685978,57.50212732228 -4.38789047078794,57.504157575392 -4.38279240655151,57.4984770908923 -4.37928409517202,57.5011438485991 -4.37333066046741,57.4974784611202 -4.37672868041722,57.5010429440889 -4.37205814376543,57.4989581543601 -4.37146298255353,57.5030345542217 -4.36409143530215,57.5002984930063 -4.35998787638984,57.4996924968078 -4.36298576799081,57.5005657757287</coordinates></LinearRing></outerBoundaryIs></Polygon><Polygon><outerBoundaryIs><LinearRing><coordinates>-5.87103454805436,56.6616074802755 -5.88219808064445,56.6700443545754 -5.89599574079892,56.6612504575442 -5.88960876338289,56.6510154701959 -5.87103454805436,56.6616074802755</coordinates></LinearRing></outerBoundaryIs></Polygon><Polygon><outerBoundaryIs><LinearRing><coordinates>-5.927855945294,56.6693725541807 -5.92810389934573,56.6694888785767 -5.93061236289835,56.6659606440789 -5.93175107513313,56.6665964868774 -5.94079572967879,56.6591010503037 -5.94054371904309,56.6684068248677 -5.9480012444885,56.6583057597002 -5.93177522266118,56.6579205204858 -5.91763843348571,56.6584226002904 -5.9054462951395,56.6588543141021 -5.90947264215648,56.660744869885 -5.92141774029573,56.6628924940825 -5.927855945294,56.6693725541807</coordinates></LinearRing></outerBoundaryIs></Polygon><Polygon><outerBoundaryIs><LinearRing><coordinates>-5.87445195729315,56.8100777366066 -5.87668971491953,56.8106448409317 -5.87724096966244,56.8096584734363 -5.87642871449393,56.8082791871429 -5.88693041764807,56.7920049941262 -5.88399463138477,56.7915052867935 -5.87994114034076,56.7924837579803 -5.87334067393491,56.7896911524635 -5.86996034973696,56.7891153288037 -5.86878894337468,56.7909513212749 -5.85626161671781,56.7867806817673 -5.85130853781703,56.7859360929266 -5.83083236642836,56.7950105441747 -5.80921609376018,56.7935198521137 -5.83458809181556,56.7999655195284 -5.83671733922855,56.799280297803 -5.84274184135879,56.8020353649318 -5.86017068788355,56.8064571370583 -5.86261753481762,56.805641906575 -5.87445195729315,56.8100777366066</coordinates></LinearRing></outerBoundaryIs></Polygon><Polygon><outerBoundaryIs><LinearRing><coordinates>-6.26572873685317,56.8479728548026 -6.26563419003909,56.8476155384536 -6.26242753487225,56.8399971442188 -6.26468583592699,56.8392962022085 -6.26776889096222,56.8383391627013 -6.26883259383602,56.8380089406822 -6.26867601087014,56.8373774902262 -6.26984282621998,56.8376953050563 -6.27382152588017,56.8364599529358 -6.27383030591692,56.8361036653366 -6.27485554609463,56.8361388646164 -6.27744316259984,56.8353352871681 -6.27631966545132,56.8340060539278 -6.27032339391408,56.828012915141 -6.26356589736216,56.8294557361531 -6.24782117256242,56.8328156246218 -6.23580519321932,56.8229633399056 -6.22869391606685,56.834936559009 -6.21991351441364,56.8306882067917 -6.22186651660234,56.8399027334163 -6.22301582701321,56.8453229765459 -6.25498022256079,56.8402336709815 -6.26572873685317,56.8479728548026</coordinates></LinearRing></outerBoundaryIs></Polygon><Polygon><outerBoundaryIs><LinearRing><coordinates>-5.88831623791168,56.9261319554374 -5.9002450271161,56.9197488125307 -5.88615055081714,56.9199412068251 -5.88831623791168,56.9261319554374</coordinates></LinearRing></outerBoundaryIs></Polygon><Polygon><outerBoundaryIs><LinearRing><coordinates>-6.11171762530301,56.9245064261412 -6.1381196401083,56.9443709781067 -6.162278363345,56.9363060502806 -6.1615297285279,56.931909274601 -6.15925420739468,56.9305767483919 -6.16101345167082,56.9288764925057 -6.15984659138606,56.9220198971671 -6.15800986062972,56.9199148961802 -6.15926650379925,56.9186101757725 -6.15865344263267,56.9150058634722 -6.17786928478276,56.9153083787617 -6.18637253331872,56.9151205596726 -6.20191877618342,56.9093081095793 -6.20807340046603,56.9049360311962 -6.20907413263293,56.8969432842446 -6.20752687580291,56.8877272879701 -6.17062722792918,56.8743775303746 -6.16283256499078,56.8720003467602 -6.14879212155541,56.8716834924635 -6.13908597466121,56.8719844014955 -6.12677468602354,56.8893513793025 -6.11659019058364,56.8879552880967 -6.1164079771806,56.8881877197447 -6.11171762530301,56.9245064261412</coordinates></LinearRing></outerBoundaryIs></Polygon><Polygon><outerBoundaryIs><LinearRing><coordinates>-6.67266040512857,56.9694865866106 -6.67818106933818,56.9757384256317 -6.68240117689921,56.9698051879133 -6.67641791222594,56.9647851692502 -6.67266040512857,56.9694865866106</coordinates></LinearRing></outerBoundaryIs></Polygon><Polygon><outerBoundaryIs><LinearRing><coordinates>-6.30543841610311,57.0520794007142 -6.31795036946238,57.056311551113 -6.32511260378743,57.0567511751852 -6.32843755935504,57.0598570615435 -6.32996686007434,57.0603739549712 -6.3512433154689,57.0489598630012 -6.37018503530332,57.0533536375528 -6.39778887952175,57.0426992130785 -6.40963293434918,57.0293351279351 -6.43954645195777,57.0163233100034 -6.44610440195279,57.0104051945179 -6.45339550292291,57.0102938355429 -6.46005318884237,57.0073940550762 -6.37583271587431,56.9731810759914 -6.37127774817597,56.9565490578653 -6.36955725532484,56.9522260366952 -6.3621658984477,56.9500321394014 -6.34713254164956,56.9461249431937 -6.34551118636261,56.9483803737542 -6.33924339726825,56.9432237968186 -6.31114123002018,56.9348677053187 -6.28893550448986,56.9480643552323 -6.28608323736357,56.951946072316 -6.280872524625,56.9528529268275 -6.27787461279887,56.9546329463176 -6.25962928054332,56.965461050887 -6.24969293119061,56.9720609895882 -6.24911731826884,56.9737165586542 -6.24887806154536,56.992491420987 -6.23863520699823,57.003840505237 -6.23830173172798,57.0047981021179 -6.27963824424934,57.0117546265695 -6.27346504521549,57.0133630531794 -6.27335368611315,57.0162253003693 -6.24753803126672,57.0201209957022 -6.26020786781287,57.0367614586559 -6.27228418863388,57.0408541358759 -6.2825689385621,57.0400623771981 -6.29181480070319,57.0439811428891 -6.29240453264969,57.0476683084317 -6.29537866320501,57.0486750659536 -6.30101223559932,57.0483912025472 -6.30543841610311,57.0520794007142</coordinates></LinearRing></outerBoundaryIs></Polygon><Polygon><outerBoundaryIs><LinearRing><coordinates>-6.4972467115224,57.055448707756 -6.51079006600078,57.0526890398592 -6.51299632624916,57.0492543762234 -6.51119054157244,57.0441245553732 -6.50347574949992,57.0476919285672 -6.49979131791192,57.0467444143333 -6.4897209947982,57.0490592530705 -6.46539927667887,57.0442910685311 -6.47731571424207,57.0485085608229 -6.4972467115224,57.055448707756</coordinates></LinearRing></outerBoundaryIs></Polygon><Polygon><outerBoundaryIs><LinearRing><coordinates>-6.5089355966454,57.0714517614526 -6.51062606418479,57.0712335518035 -6.52913824712062,57.0672408456961 -6.53204896951491,57.06846339338 -6.55898554660559,57.0649744850802 -6.56009144439103,57.0626841332985 -6.58733579014104,57.0609003110754 -6.58718278863716,57.0613154220411 -6.59572747678979,57.0602052214979 -6.60792353972988,57.0476387745252 -6.60517124770635,57.0460908488216 -6.58377686986185,57.044898548294 -6.58156047912732,57.0455464390102 -6.57104494389266,57.0454458576706 -6.54969194031447,57.0581204396578 -6.49791496864259,57.0559080328826 -6.48854675209725,57.056003849541 -6.48843400939013,57.056492049527 -6.49046977580635,57.0590701152354 -6.48683719276441,57.0634054420516 -6.48608184893672,57.0666749084795 -6.5089355966454,57.0714517614526</coordinates></LinearRing></outerBoundaryIs></Polygon><Polygon><outerBoundaryIs><LinearRing><coordinates>-5.78159427873114,57.1459464080593 -5.78937719495791,57.1505087717701 -5.79359356438428,57.1435488715758 -5.78159427873114,57.1459464080593</coordinates></LinearRing></outerBoundaryIs></Polygon><Polygon><outerBoundaryIs><LinearRing><coordinates>-6.18341845396289,57.1627772019179 -6.20568240123182,57.1659975417284 -6.21708659363245,57.1606484604063 -6.21743723054274,57.1588350718765 -6.22026118428919,57.1591589806579 -6.22137812075896,57.1586348806782 -6.21465997634645,57.1528358686091 -6.22718055839754,57.1579984648763 -6.25595589434447,57.1495461965529 -6.22987176979334,57.1295557414025 -6.22933020510225,57.1294788524253 -6.20401559446426,57.1360314876736 -6.20894659374858,57.1478847040152 -6.21024018074036,57.1507857602026 -6.1823652660368,57.1525875088625 -6.18341845396289,57.1627772019179</coordinates></LinearRing></outerBoundaryIs></Polygon><Polygon><outerBoundaryIs><LinearRing><coordinates>-5.84755893571806,57.2742567454499 -5.85586648862406,57.2824986318827 -5.8699639616942,57.2776994875863 -5.86448076948004,57.2684769413429 -5.84755893571806,57.2742567454499</coordinates></LinearRing></outerBoundaryIs></Polygon><Polygon><outerBoundaryIs><LinearRing><coordinates>-5.88335272719778,57.3097271728027 -5.89300225922231,57.3152831217456 -5.89340900853878,57.3149627621648 -5.89106282408793,57.30557276518 -5.88335272719778,57.3097271728027</coordinates></LinearRing></outerBoundaryIs></Polygon><Polygon><outerBoundaryIs><LinearRing><coordinates>-5.98696715751875,57.3238610569501 -5.98831372281716,57.3239853730947 -5.99916720038257,57.3249868179453 -6.0039751852137,57.3241608999802 -6.00647044570089,57.3233887385058 -6.00698174449482,57.3201809149546 -6.01543444045892,57.3206141546253 -6.0162347670833,57.3203663830116 -6.02241979648604,57.305807926409 -6.01678676385211,57.2983918784371 -6.00730578659446,57.2886175621336 -6.00482885684643,57.2872598551247 -5.99677525122762,57.2859230554267 -5.98942452760989,57.2788127082728 -5.98303978147204,57.2753098363016 -5.98035766377243,57.273838041837 -5.92898563017212,57.2809461361578 -5.92608447970824,57.30777426735 -5.93057948139392,57.3098647509737 -5.9513578101673,57.3177041629166 -5.95246115149446,57.3172731934333 -5.96164641656039,57.321520561596 -5.96438260957073,57.3217737403017 -5.97268742191053,57.3205868981933 -5.97624325447952,57.3228704668447 -5.9847223046155,57.3236537759066 -5.98523152172761,57.323458109015 -5.98696715751875,57.3238610569501</coordinates></LinearRing></outerBoundaryIs></Polygon><Polygon><outerBoundaryIs><LinearRing><coordinates>-5.84964572122164,57.3501131460045 -5.85069263154859,57.3503844455224 -5.85015255145466,57.3508282589983 -5.85476569349482,57.3573357711337 -5.85209443436294,57.3509077892251 -5.85115643579037,57.350604029921 -5.85171725912529,57.3499999778986 -5.84550008648575,57.3350290486286 -5.84059316965893,57.3359613364524 -5.83864434498964,57.3348734739261 -5.82161837266174,57.3344854845425 -5.83529640348884,57.3513183555494 -5.84123953744663,57.3382478920629 -5.84964572122164,57.3501131460045</coordinates></LinearRing></outerBoundaryIs></Polygon><Polygon><outerBoundaryIs><LinearRing><coordinates>-6.49229278154976,57.3451233145354 -6.51318372358866,57.3312830606757 -6.49983966132239,57.3328592590898 -6.49957644350191,57.3307111202359 -6.49246379346377,57.3304115626164 -6.49229278154976,57.3451233145354</coordinates></LinearRing></outerBoundaryIs></Polygon><Polygon><outerBoundaryIs><LinearRing><coordinates>-6.60237251268589,57.4509868096796 -6.604584890069,57.4535565956443 -6.6103878000212,57.4522809395877 -6.61070615616123,57.4521129754917 -6.60875664349432,57.4512480982433 -6.60225443550604,57.4490515546556 -6.60237251268589,57.4509868096796</coordinates></LinearRing></outerBoundaryIs></Polygon><Polygon><outerBoundaryIs><LinearRing><coordinates>-6.0253411168844,57.4964652129771 -6.02732193074702,57.4949280101167 -6.02699256165294,57.4925863002414 -6.03018890783665,57.4927028253701 -6.03410120249759,57.4896657954347 -6.02522273090857,57.4754855233025 -6.0253411168844,57.4964652129771</coordinates></LinearRing></outerBoundaryIs></Polygon><Polygon><outerBoundaryIs><LinearRing><coordinates>-5.97839008970612,57.494585102878 -5.99737027698159,57.5065269888045 -5.99569111346903,57.5024323183087 -5.99298759007435,57.4997160034883 -5.99419426826045,57.4987874837635 -5.99206966324921,57.4936126890816 -5.99397542828587,57.49321473727 -5.99334508605585,57.4929832812842 -5.99897444422146,57.4895676340421 -6.00943102097799,57.4899860369868 -6.01128423263672,57.4895987376023 -6.01809827967891,57.4820679586357 -6.01997728625925,57.4799639180776 -6.02180967974953,57.4779647625526 -6.02074904112281,57.4788034631224 -6.01920154469374,57.4729317198438 -6.02944420157887,57.4694354271542 -6.01131469200115,57.4650950999096 -6.01782988426125,57.4546097797723 -6.02656898138981,57.4553465735137 -6.02801251311572,57.4566135474636 -6.03941092812621,57.4588553245628 -6.04216474974919,57.4583445591546 -6.04513744629291,57.4599810965631 -6.054162248844,57.4617546045476 -6.0553795338901,57.4614679772224 -6.08486117788683,57.4213214108928 -6.08296959044917,57.4140310353665 -6.08038129039991,57.4060821751425 -6.0807684152475,57.4055434300712 -6.07665814921334,57.3896828502073 -6.07626480645749,57.388968747593 -6.07643359349715,57.3888158891581 -6.07527037314827,57.3843242294375 -6.07423255774872,57.3803157374518 -6.0825956480705,57.3624916509407 -6.08109143125682,57.3589910164638 -6.08763135463578,57.3508048993744 -6.08267951769625,57.349713274493 -6.0773778959019,57.3502757438833 -6.07409705658929,57.347820662423 -6.06600247120247,57.3460349155198 -6.06700043388068,57.3336733474342 -6.05026875104807,57.3283824778847 -6.02113609625182,57.3333388728825 -5.99276980767691,57.3581882361707 -5.99297362381273,57.3668661262602 -5.99306764095455,57.3708663989897 -5.99343726801211,57.3711261529763 -5.99404040746095,57.3715499968055 -6.00156175508964,57.371378524281 -6.01537864006179,57.386536633784 -6.01865339083961,57.3888351591913 -6.03234615260128,57.4294448492211 -6.03110322763701,57.4307072850636 -6.02500944255356,57.4419356570691 -6.01826610377815,57.4437402544866 -6.0030495096142,57.4591756092292 -5.98302815846494,57.4794627721454 -5.97839008970612,57.494585102878</coordinates></LinearRing></outerBoundaryIs></Polygon><Polygon><outerBoundaryIs><LinearRing><coordinates>-5.99549925853898,57.509302116392 -6.00302055393564,57.5157459172097 -6.00912316839512,57.5145496026249 -6.01302076785247,57.5137853486229 -6.0104700615644,57.5127389976871 -6.00886194715041,57.5121736107237 -5.9925884148485,57.5064499465146 -5.99549925853898,57.509302116392</coordinates></LinearRing></outerBoundaryIs></Polygon><Polygon><outerBoundaryIs><LinearRing><coordinates>-6.64723865252759,57.524796530475 -6.65040618115989,57.5118122045211 -6.63848683322216,57.5115997693425 -6.64723865252759,57.524796530475</coordinates></LinearRing></outerBoundaryIs></Polygon><Polygon><outerBoundaryIs><LinearRing><coordinates>-5.9644762701208,57.577856889669 -5.97003382400258,57.5827548049939 -5.97055677322026,57.5823570980135 -5.96919702847936,57.5790603573245 -5.96457083527389,57.5773619215809 -5.96546089495816,57.5727025907331 -5.96641394335958,57.572310670681 -5.96623193375672,57.5718691557985 -5.96685221261243,57.5721304378401 -5.96870439669694,57.571368711352 -5.97528415143775,57.5756815663156 -5.97883657304659,57.5771772942045 -5.97504638768212,57.5711330209191 -5.97922769887166,57.5736758707999 -5.98239421988392,57.5753286258332 -5.98396528557804,57.5739771084813 -5.98379516602826,57.5703355036265 -5.98786502278982,57.5706218277983 -5.98948348306669,57.5692291128147 -5.98843139517062,57.5667581268707 -5.97635198942763,57.5496873220715 -5.98065383230791,57.5484800213171 -5.97990213880177,57.5467123598711 -5.99194392928137,57.5427025036906 -5.99581115260253,57.544224390956 -6.00111133363178,57.5427356370142 -6.00097635166444,57.5426054119624 -5.99864279365035,57.5419552332765 -5.99905111466293,57.5407479131144 -5.99391202889454,57.5357885385157 -5.99264415453358,57.5362265661011 -5.98879866015119,57.5394796905005 -5.98366567861069,57.5393278062819 -5.98044299190948,57.5404406781718 -5.98251264101587,57.5389106606329 -5.98627185064846,57.5345692324515 -5.98963874989379,57.533641385366 -5.99788918669671,57.5275383823274 -5.99033734740541,57.5225042003962 -5.98442948109878,57.5211534397517 -5.98840411028754,57.5212151694484 -5.97851406624505,57.5146188301953 -5.97816767368202,57.5148299650244 -5.97165430947716,57.5292155067403 -5.97360119873219,57.530828750468 -5.9676061126854,57.5381508166624 -5.96464063406754,57.5446936705313 -5.96586483172764,57.550067117263 -5.96156192556587,57.5514840035141 -5.95857481439699,57.5580700247823 -5.95839061760198,57.5627058736663 -5.95494793140587,57.566063514668 -5.95405769258708,57.5680250431028 -5.95384845015192,57.5684860542889 -5.9541748146112,57.5687739054453 -5.95688814153596,57.5688941872892 -5.95727946174397,57.5715119066026 -5.9644762701208,57.577856889669</coordinates></LinearRing></outerBoundaryIs></Polygon><Polygon><outerBoundaryIs><LinearRing><coordinates>-6.35265915271003,57.7081143102655 -6.35044391658229,57.7031549683388 -6.34771061732942,57.7021647215073 -6.34960854167276,57.7012843992434 -6.34235050832141,57.685023581288 -6.35357211281855,57.6712058002933 -6.36170396139229,57.667995863904 -6.38279566329646,57.6596651798181 -6.40914518049236,57.6603009207285 -6.40626840967841,57.6505200167435 -6.42770448904871,57.6421503004449 -6.39423759506935,57.6127239755971 -6.39450767518206,57.5926509202294 -6.39275584278358,57.5913349417848 -6.39457793054617,57.5874347984056 -6.39460986779001,57.5850641771858 -6.39369761589425,57.5850254809793 -6.3735330120992,57.5873342528497 -6.37075178556641,57.5897836898131 -6.36512147612826,57.5882963093001 -6.35942756478489,57.5889471978966 -6.36319623123479,57.5847449221154 -6.37406927167296,57.572141314438 -6.37460211212639,57.5720204359212 -6.38258478379391,57.5631091983912 -6.39450798726361,57.5694708116599 -6.39459258599956,57.5693303797109 -6.39535044991938,57.5539511527736 -6.39512083153077,57.553421948867 -6.38980905840559,57.5492627973736 -6.38361491733301,57.5470513572666 -6.38548068283871,57.5458727504373 -6.36705976871399,57.5314359744947 -6.37618382394433,57.5301390816773 -6.36518711317252,57.5152026415546 -6.33189587002641,57.4975505215472 -6.33198560598719,57.4970798693923 -6.32960909753799,57.4958007277896 -6.3283635016116,57.4961180212528 -6.32902979902534,57.4954889039155 -6.30460416659311,57.482333671041 -6.3080995050984,57.4828095483195 -6.31152089499719,57.4818586324966 -6.31476974175262,57.4837173707524 -6.32384274403237,57.4849515646738 -6.32511814316305,57.4839051040698 -6.32060651301588,57.4741830404513 -6.31946650384006,57.4727898614283 -6.31964153949896,57.4721028969238 -6.31178994357521,57.4551680521435 -6.32625068109267,57.4589606896587 -6.33527872997067,57.4900136837196 -6.33989446483517,57.4856065961387 -6.34499363138695,57.4807365320627 -6.34948322018082,57.4952574302543 -6.3505157546624,57.4969474783703 -6.36763754632265,57.5040244724788 -6.37090176805108,57.5037132027392 -6.37483117408589,57.5002508784739 -6.39961046371473,57.5287025507494 -6.39981355517789,57.5088418223625 -6.43561423324118,57.4917497643785 -6.43507938813608,57.4861056210402 -6.43241790865486,57.4704807078718 -6.43873088391227,57.4789009921933 -6.44176632437777,57.4811805704423 -6.45263013270683,57.480659919254 -6.42709927969963,57.518255487254 -6.45870478741247,57.5017174905338 -6.46175177980029,57.4995572101341 -6.46156538546609,57.5002195320741 -6.46567123445463,57.4980691710175 -6.46083440419431,57.5039428342033 -6.49022655475128,57.5242997941842 -6.49606909365823,57.5255302345919 -6.5043194340484,57.5340497482609 -6.52650339560387,57.5407198075308 -6.53534586683716,57.5458351607641 -6.54041333482568,57.5477585692766 -6.55283179142033,57.5446099866039 -6.56303455239105,57.5481983771926 -6.56551361012289,57.5482273486948 -6.58268555783397,57.5883566127698 -6.63477581512604,57.6085301090535 -6.63537446735462,57.6037652034512 -6.63474522505674,57.5828688754216 -6.63986446628243,57.5679954811617 -6.64071266586367,57.5612317845719 -6.64296871582569,57.558970833779 -6.64310992860896,57.5585602005767 -6.64353862591434,57.55839963623 -6.65506460385734,57.5468434393063 -6.65502027896684,57.5458578338137 -6.65210500970987,57.5441943867396 -6.64980318015139,57.5428808038567 -6.64851923826413,57.5443266947811 -6.64587014342662,57.5473095447874 -6.64850502213828,57.5485442927495 -6.64540707017714,57.5478309071784 -6.64165165085489,57.5520584604533 -6.62873698518648,57.5450550571442 -6.6157702565776,57.5380193114905 -6.61440102392814,57.5373212413197 -6.60493769683127,57.5360376774431 -6.58641962556488,57.5224811112464 -6.58630561136841,57.5220164186782 -6.56058056859643,57.5080271597157 -6.56522030543025,57.4987346609352 -6.56391913909723,57.496415652955 -6.56671202753044,57.4957460893769 -6.56792086416382,57.4933239135799 -6.57090418996113,57.4949446688447 -6.57454578530778,57.4948408169403 -6.59847854563658,57.5099146912522 -6.61854677084451,57.5015659840843 -6.63738131508691,57.5030278770779 -6.63744120052901,57.5024651551099 -6.61338445224143,57.4674039022081 -6.61450998666631,57.4665490657772 -6.61620503597263,57.4612559084421 -6.62047359329454,57.4620189228377 -6.62395362251099,57.4593747491483 -6.61312055249984,57.4550007007347 -6.60391220073472,57.4606585117902 -6.59956434176812,57.456250456664 -6.59644086720169,57.4542035384478 -6.59571625164173,57.452348024725 -6.573863247084,57.4301677861674 -6.58186870849358,57.4319334862065 -6.58493661977668,57.4214533761174 -6.59690193733602,57.4416799752178 -6.60178318735683,57.445576549052 -6.61021072529791,57.4472773153459 -6.61090628095261,57.4461870359032 -6.61217204068623,57.439546267443 -6.61572956047695,57.4386247448902 -6.61995858904031,57.43199155017 -6.63967635451538,57.4427343125488 -6.65773676239419,57.4594259077783 -6.66698502046609,57.4606856332265 -6.6667396381876,57.4677395570601 -6.67227574158554,57.4728495751457 -6.67315712203857,57.4736629616619 -6.67723721575579,57.4753466425824 -6.68040492725885,57.4803499837668 -6.69096485574185,57.4900875804451 -6.69306405838646,57.4900196360636 -6.70429936660918,57.4975987742432 -6.70475841819725,57.5027975866885 -6.71665493537474,57.5137482654703 -6.74812450682815,57.5000910603606 -6.74953499594573,57.4836479030087 -6.74295194204038,57.4646007723963 -6.71997616699092,57.4497364225087 -6.72424041883223,57.4503253191271 -6.74152516873422,57.4521660028862 -6.74222549885277,57.4528072680657 -6.78011182290353,57.4580260605579 -6.78241563744712,57.4491011754999 -6.7784503078628,57.4453197860683 -6.78443263415939,57.4412841329374 -6.78576345600168,57.4361248657207 -6.78376657129447,57.4280570516014 -6.78965218555406,57.4210411248485 -6.78163440443659,57.4238636799797 -6.78088995655978,57.426016552726 -6.77041532079714,57.4278116277632 -6.76722869579338,57.42893265035 -6.74312246477266,57.4176193849265 -6.72913583471307,57.3953068375617 -6.73892549245053,57.3893247877781 -6.73468298207835,57.3853841796442 -6.71947763393039,57.3716780590085 -6.71401898721436,57.3704803537638 -6.70180178045548,57.3710914834119 -6.70043899277908,57.3675398877016 -6.68712961605248,57.3647493948644 -6.68672805841223,57.3644875506215 -6.68096403576746,57.363220812386 -6.65765099519895,57.3580937611923 -6.65654116137984,57.35784953946 -6.65624559359978,57.3579059056211 -6.65601610750857,57.3577339953153 -6.6246450645599,57.3508250777871 -6.58908359727847,57.3359228711672 -6.58383990956658,57.3366117190421 -6.58311484858047,57.3334194274626 -6.5821255068729,57.3330044115174 -6.56355529151456,57.3386188324207 -6.56535883089794,57.3481747308556 -6.56785160553813,57.3589074552911 -6.56744115366974,57.3592005110748 -6.5689799867119,57.3673437008186 -6.57297990686793,57.3884914343712 -6.56040553148102,57.3902058368048 -6.55215661565891,57.3854580428201 -6.54218958756869,57.3972552666111 -6.54210155123053,57.3956924188521 -6.54122797807016,57.3965812665199 -6.54147122189407,57.3907923245091 -6.53406855994426,57.3931978254753 -6.5384048046986,57.4134661401945 -6.51655475134278,57.3932087351723 -6.52063722663314,57.3811982638466 -6.5193083179621,57.3808476176135 -6.52336985186051,57.3731545178661 -6.52463496770442,57.3694292827523 -6.52418206092564,57.3697081487626 -6.49407311553553,57.3985558288484 -6.4920658385014,57.4042508491822 -6.49098559280345,57.4015111013569 -6.4887108687584,57.4036880454589 -6.48781687023916,57.396326220532 -6.48262913407908,57.3956294780467 -6.48708765420919,57.3903186545388 -6.48589825110149,57.3805148491046 -6.46780687041938,57.3779718672202 -6.47552922285119,57.370708011744 -6.48030387671115,57.366215187666 -6.47917856319115,57.365539543998 -6.4545232248361,57.3598859577663 -6.45780120799719,57.3391975615232 -6.45568788985726,57.3399042682173 -6.44639082885348,57.3473018013632 -6.43919523107273,57.3454173840372 -6.38359904412675,57.3639744564105 -6.40368407794853,57.3546893781729 -6.40516922776604,57.3514058603893 -6.40367569911571,57.3446122838143 -6.3973045376925,57.3431407141985 -6.40268462094731,57.3401026304285 -6.40263887494281,57.3398944404 -6.38983738466677,57.3385786070381 -6.37257634460192,57.3296205308717 -6.35530229698164,57.3237184608227 -6.3423443389946,57.3060531797213 -6.34095053299002,57.3055528718198 -6.31813957745106,57.3014626605051 -6.30620704837495,57.2993210139571 -6.31790819186256,57.2994914553065 -6.32965149536511,57.2996614168837 -6.33080839828578,57.2980752329291 -6.33955229715744,57.2998038543061 -6.34777307615715,57.2999215255674 -6.35084603017922,57.3020354075983 -6.35559954658918,57.3029742620682 -6.36346580512572,57.3107129997354 -6.38636159895427,57.3264424686798 -6.40667505532268,57.3314881240896 -6.41024818934574,57.3337489564391 -6.41814145260539,57.3361617084281 -6.42211223573207,57.3346914166297 -6.43062301891629,57.3399525688061 -6.42685420927871,57.3230652161082 -6.43875461634091,57.3265834975859 -6.43960605025361,57.32628201015 -6.44765754498576,57.3205725422502 -6.45276758679006,57.3216202461433 -6.45830916832438,57.3196566822268 -6.45880378529533,57.3185519661467 -6.47617107221982,57.3133245624411 -6.48278322202102,57.3109793429642 -6.48209859658432,57.2967510125892 -6.47931139835744,57.2947652854655 -6.48193742837859,57.2933990796549 -6.48184633957385,57.2915042240434 -6.45856740645248,57.2862651957381 -6.45149133298759,57.2624275313687 -6.42807252632653,57.2495361791305 -6.42788319360809,57.2471043236033 -6.40500685124954,57.2322392688547 -6.39669626746689,57.2329751156754 -6.38442189952746,57.2354161081665 -6.37302010274192,57.2350683219281 -6.36014277856527,57.2362048361146 -6.35422126609167,57.240114160168 -6.34315886455546,57.2529577657741 -6.34637833272581,57.2407196550692 -6.3468949805428,57.2344832734572 -6.34842078871917,57.232951827614 -6.34921194387694,57.2299421232154 -6.35161132974242,57.2297490424187 -6.35295947920246,57.2283955324595 -6.3728566283489,57.2280373300311 -6.38065539111492,57.2273829807841 -6.38549327417849,57.2203471645609 -6.38544483332095,57.215654198728 -6.35930046777704,57.1949210650846 -6.35125910426937,57.1885381371439 -6.34345297804931,57.1860974810904 -6.33531524110441,57.1866601652598 -6.31819237359928,57.1926500849326 -6.31045577161952,57.196610406423 -6.3061286716399,57.1988248549769 -6.2937512584877,57.205156901319 -6.28483384285549,57.2013566372592 -6.28525070782751,57.1978534498826 -6.28445628118527,57.19774520235 -6.28576979768926,57.1934904718628 -6.28660748178656,57.1864479610504 -6.29611411662818,57.1794473507515 -6.30205745586291,57.1744024578356 -6.30335174613227,57.1741153995147 -6.31509712535548,57.1654585235446 -6.31514703083799,57.1650486677879 -6.31589276784913,57.1648719158834 -6.32231166304374,57.1601385714827 -6.30199425236345,57.163334120109 -6.2096755620213,57.1778060167269 -6.17425249784365,57.1741680109228 -6.16812859183525,57.1985518611634 -6.1660420334798,57.1977620287849 -6.1649615474352,57.1986751246451 -6.15792595442747,57.1946891700655 -6.15533474830152,57.1937078858848 -6.15043201811173,57.1955780698161 -6.14722869827801,57.19063745755 -6.13523498051541,57.1860925093816 -6.13065037881943,57.1844428767254 -6.12338835547965,57.1946856810865 -6.11903414315128,57.1896977704533 -6.11032457886538,57.1863291680887 -6.11171124796813,57.1813055791099 -6.10194943574191,57.170111530429 -6.11271031255426,57.1370785629432 -6.11227638629353,57.1368115394672 -6.10554251957376,57.1344353936187 -6.09993496559208,57.135372245404 -6.09824098561093,57.1318581734334 -6.08377712309365,57.1267505200699 -6.04940003603125,57.1672088403688 -6.04994839372051,57.1805859025714 -6.030238168738,57.1833639878151 -6.02956894177464,57.1838798688794 -6.03322035733348,57.2058378181408 -6.03454965086571,57.213823950677 -6.03742139983699,57.2158290600334 -6.03554244271469,57.2197853389256 -6.0368836296879,57.2278346536665 -6.01126460738449,57.2065422266339 -6.00293279964167,57.1996108519419 -6.00202053994306,57.1970961262128 -5.99398722356778,57.1853940742723 -5.99558617676895,57.1793486288227 -5.99167680393846,57.1685566249435 -5.97181526035897,57.1711904140018 -5.93539849592601,57.1760104445813 -5.90171050924511,57.1712418339442 -5.89758993356427,57.1796682501398 -5.87797776260014,57.1760921111125 -5.86666012287648,57.1799647509371 -5.86268461701587,57.1818288544951 -5.86166143620894,57.1816746103209 -5.83802448089545,57.1897551044483 -5.84765232965899,57.1835232217076 -5.84726389114821,57.1824874439004 -5.85843561738794,57.1765401338428 -5.86641699324449,57.1713692612096 -5.87391092546643,57.1704845650124 -5.90009895725148,57.1656138946546 -5.91337093203043,57.1658180999062 -5.91519992116951,57.1656014824423 -5.94002335970638,57.1464992986316 -5.96836094236684,57.1410765238558 -5.96855252629739,57.1407810582948 -5.97249530855171,57.1346993050131 -5.97179343729653,57.1345295214863 -5.97451304623778,57.1315861093431 -5.97532071505405,57.1303397875869 -5.99775586565346,57.1241107876466 -6.00504479252194,57.1147671298735 -6.00264392157815,57.1138839743459 -5.99450891822793,57.114207245715 -5.98973602747542,57.1091342992138 -5.98498752133745,57.1073863585322 -5.99165102282935,57.1058889123463 -5.99289408206956,57.104897200496 -5.9948609969467,57.1051673867926 -5.99999962203829,57.104012118192 -6.00059863484661,57.1029929311373 -5.99985480928629,57.1012157277329 -6.00726526076691,57.0884216061526 -5.99947476624932,57.073921916284 -6.01044471498877,57.0718055519776 -6.01136175003864,57.0722512510199 -6.01502257513299,57.0717364809346 -6.01509657897463,57.0703210323613 -6.01896626191226,57.0711818019987 -6.02491725938574,57.0703445299098 -6.02587196844289,57.0695323918047 -6.03241894514892,57.0628581851771 -6.03219666727409,57.0588230540346 -6.03763753102508,57.057536267543 -6.03817373445825,57.0569893507355 -6.03707014501098,57.0545081568901 -6.02720481550649,57.0363900795802 -6.02508693413246,57.0364728565989 -6.02389463265831,57.0322400393732 -6.01765648921087,57.0312851695338 -6.02307418750863,57.0287983838445 -6.02175088585612,57.026365584577 -6.01754627156506,57.0186334164714 -6.01417785151791,57.0211790451393 -6.0107576794227,57.0251223840928 -6.00973039646399,57.0245394746658 -6.00939488236371,57.0247929531585 -6.00182247821664,57.0201507847655 -5.98359667299085,57.0275869374445 -5.97268473247579,57.0320363677398 -5.96233419707176,57.0282632496617 -5.96048381188762,57.0275885488056 -5.96024508333219,57.0277076107626 -5.95509346415586,57.0347009582711 -5.93692304918601,57.0393332439711 -5.91852472196691,57.0484964157674 -5.91428372233831,57.0530486617509 -5.9043391761989,57.0578040254622 -5.9014373697493,57.0570002587588 -5.89961056691941,57.0579331414414 -5.90213853609583,57.0635742155987 -5.89378430295641,57.0612053397747 -5.89330441994928,57.0627768892832 -5.89638861165993,57.0681062476896 -5.89004145014963,57.075418231237 -5.88852710674163,57.0812823444548 -5.87061962554921,57.0865076886987 -5.85327289056481,57.1115604458783 -5.82789794075046,57.1076086452268 -5.82280188736229,57.1105190597338 -5.81262662041417,57.1191427228298 -5.80429685445006,57.1210819767396 -5.80592569891309,57.1370348117276 -5.78730904516112,57.1384280638053 -5.80579388346772,57.1457439045076 -5.79572620731614,57.1601203294874 -5.80231902110868,57.1684207745851 -5.80258112115696,57.168737242445 -5.80847276650599,57.1761646124759 -5.80080794286894,57.1735646065353 -5.80051779647511,57.1743543956423 -5.78737871284857,57.1690072030938 -5.78105978482864,57.166861886879 -5.70254496361659,57.1913712978118 -5.68057983427352,57.2025787515874 -5.66905431586453,57.2090660130976 -5.66850247987648,57.2170385820647 -5.66723037931513,57.235407958112 -5.64892890233371,57.2537844270134 -5.64757826275575,57.2551397878107 -5.64913983582422,57.2559159716269 -5.66708876862915,57.2648337441843 -5.70863745993768,57.262234516203 -5.72961474925858,57.2607611729425 -5.72959989275451,57.2609177864938 -5.73200449051709,57.2607665157172 -5.72949586534781,57.2620144165831 -5.72933377095185,57.2637230708102 -5.71154085934112,57.2712567413604 -5.75345843530521,57.2747009104146 -5.80797163289884,57.2583521153888 -5.81141750846707,57.2568736204895 -5.81211248740167,57.2571087247897 -5.86366114870782,57.2416117133364 -5.85172973360864,57.2540647583896 -5.88579217449952,57.2379709176892 -5.91423453931287,57.241325225069 -5.90468877737242,57.2528828206115 -5.92204147925024,57.2627484710561 -5.93663316581968,57.2588864135569 -5.98225808969175,57.2680819219154 -5.99387071095089,57.2704189922979 -5.99746550056787,57.2727380507699 -5.99786432036769,57.2727430559311 -5.99836004671293,57.2733150745777 -6.02064670377333,57.2876829833422 -6.02544798146406,57.2861476242537 -6.04252509918204,57.27868505183 -6.04890616676116,57.2786416920435 -6.05279751915325,57.2773958609117 -6.06913731150028,57.2686845032958 -6.07380772298781,57.2693423127345 -6.07446162131622,57.2704562939572 -6.08304566439757,57.2677048532028 -6.07556127450376,57.2723294969444 -6.07780706485723,57.2761544469699 -6.0461242444668,57.2905034087662 -6.04164424372751,57.293267129461 -6.04315725888741,57.2952738975327 -6.04958697306673,57.2995619742576 -6.0489029025584,57.302892355148 -6.05703119658811,57.3136642773759 -6.06174268206723,57.3136666167303 -6.07998916986921,57.3126147065376 -6.08444454519036,57.3136754222126 -6.11743743774484,57.3136809158846 -6.12269018585683,57.3117979724972 -6.15344317854425,57.2991580975591 -6.14777395982802,57.302761433212 -6.16842207571652,57.2953873337446 -6.13191382460302,57.3162539116162 -6.1268926629181,57.3167841490788 -6.10892377838123,57.3196880601894 -6.10709167211452,57.3188730509548 -6.10413710713453,57.3191844561813 -6.10646551610278,57.3317316828757 -6.10685130092015,57.332021552465 -6.10656010696109,57.3322412057278 -6.10711559508187,57.3352330842968 -6.09866447719804,57.3381957755526 -6.09611019996485,57.3401215921478 -6.1041397776674,57.3457022170753 -6.10426565739338,57.3384196444509 -6.11694440537581,57.3417447498075 -6.14621154915302,57.3710333523515 -6.13111977287665,57.3825010465337 -6.12420745653352,57.3877504791724 -6.1381430091052,57.4044509104557 -6.13974420434929,57.4054829315222 -6.17290185865581,57.4025274715722 -6.17324786670344,57.4024577767367 -6.17569522701683,57.4022780616776 -6.18242079321208,57.4075769985204 -6.18397084346742,57.4022412878253 -6.18766482010801,57.4030331276866 -6.20213608527564,57.3904871260543 -6.19866625456498,57.4075501334424 -6.19992012111373,57.4091250638791 -6.19846560844695,57.4085363815532 -6.19773265073077,57.4121387110919 -6.18725609878883,57.4124411219475 -6.18483935436821,57.4147464616165 -6.17960529754341,57.4126614101256 -6.17340817392666,57.4128394985119 -6.17165647706355,57.4139316752411 -6.1671563380302,57.4189369865619 -6.16127559905999,57.4204023355652 -6.14573220532755,57.4300851332851 -6.13701645574843,57.4698043807458 -6.13809588641456,57.4765425832224 -6.14848057655384,57.4999694647011 -6.13876785540322,57.5465098001797 -6.1468116793158,57.5618337069014 -6.14880208056691,57.5656233585537 -6.13723707107607,57.5877360507696 -6.15059408602877,57.5865193323023 -6.1651185542543,57.603206173762 -6.16635214107975,57.6038615622933 -6.16745727479303,57.605891447452 -6.19130907537024,57.6332517973539 -6.19409939358006,57.6335126563494 -6.19559314839512,57.6328937077841 -6.19741883449289,57.6338228954002 -6.22053239348186,57.6359805585796 -6.22408647631203,57.6355062610174 -6.22756682355468,57.6366363469369 -6.23535225974927,57.6373616606701 -6.2510695413295,57.6734747128252 -6.30320888652261,57.6915908936895 -6.30053070345393,57.6932521928377 -6.2958473490055,57.698223774203 -6.29250617568054,57.69822862874 -6.29166840674481,57.6987480673329 -6.29690029471835,57.7075621943234 -6.30311020798591,57.7058572627444 -6.30357437702793,57.7060023958046 -6.33073137869139,57.6996047904431 -6.35265915271003,57.7081143102655</coordinates></LinearRing></outerBoundaryIs></Polygon><Polygon><outerBoundaryIs><LinearRing><coordinates>-5.82026949753743,57.7367263932093 -5.82241789228351,57.7305702445903 -5.80117619633529,57.7265173573991 -5.79001630115145,57.7365243171235 -5.81379341541814,57.7333390641084 -5.82026949753743,57.7367263932093</coordinates></LinearRing></outerBoundaryIs></Polygon><Polygon><outerBoundaryIs><LinearRing><coordinates>-6.29822185811071,57.7290523039638 -6.30577969274032,57.7253911645589 -6.29513674236182,57.7226319426882 -6.29333331058574,57.7222202059191 -6.29822185811071,57.7290523039638</coordinates></LinearRing></outerBoundaryIs></Polygon><Polygon><outerBoundaryIs><LinearRing><coordinates>-5.60186778196801,57.8301685325994 -5.60831722370784,57.8337463427865 -5.63343427815357,57.8423212764677 -5.6337789571531,57.8478608821768 -5.63945012933259,57.8331990944163 -5.60326969076386,57.8213492200445 -5.60186778196801,57.8301685325994</coordinates></LinearRing></outerBoundaryIs></Polygon><Polygon><outerBoundaryIs><LinearRing><coordinates>-5.47107902831201,57.8989015227923 -5.47906679580871,57.8851519101039 -5.47888510570529,57.8846647480811 -5.45917554577116,57.8784482717578 -5.47107902831201,57.8989015227923</coordinates></LinearRing></outerBoundaryIs></Polygon><Polygon><outerBoundaryIs><LinearRing><coordinates>-5.21281238663412,57.9374929337146 -5.21251280611442,57.9387273425555 -5.21647419231686,57.9398341905833 -5.21135144141497,57.9435119290504 -5.21023442251041,57.9481126989729 -5.21640057855112,57.9485187687039 -5.22808160965027,57.9492871682248 -5.23937401214184,57.9477879754111 -5.23457646022492,57.9424752082283 -5.21422208639605,57.9373075470957 -5.21281238663412,57.9374929337146</coordinates></LinearRing></outerBoundaryIs></Polygon><Polygon><outerBoundaryIs><LinearRing><coordinates>-5.44076928149266,57.9636658163273 -5.44668655444889,57.9670199955102 -5.45304152104918,57.9624517680803 -5.44076928149266,57.9636658163273</coordinates></LinearRing></outerBoundaryIs></Polygon><Polygon><outerBoundaryIs><LinearRing><coordinates>-5.51046919864521,57.9558016612632 -5.4976323281026,57.9575935960259 -5.50103570300883,57.9606134330198 -5.50647242166036,57.960502187435 -5.50432736920274,57.9635335591385 -5.50937339535787,57.9680088824924 -5.51026921374892,57.9676295088296 -5.51834756763116,57.9615445128537 -5.5256661419416,57.9610405193629 -5.51697571448842,57.9564362379667 -5.51951109385663,57.9546311529759 -5.51046919864521,57.9558016612632</coordinates></LinearRing></outerBoundaryIs></Polygon><Polygon><outerBoundaryIs><LinearRing><coordinates>-5.33888405826559,57.9851847158456 -5.34968441462401,57.9930080923047 -5.3462074909322,57.9797022736441 -5.33888405826559,57.9851847158456</coordinates></LinearRing></outerBoundaryIs></Polygon><Polygon><outerBoundaryIs><LinearRing><coordinates>-5.43507483785916,58.0090358028484 -5.44527284457352,58.0121789402925 -5.4455301165689,58.0156483628537 -5.44599253094177,58.0159068888157 -5.4545040909351,58.0133120101319 -5.45824304382615,58.0121195785569 -5.457862977069,58.011826323469 -5.45082558845617,58.0104318731458 -5.45159804351615,58.0069915011897 -5.44756988751902,58.0038819694681 -5.43507483785916,58.0090358028484</coordinates></LinearRing></outerBoundaryIs></Polygon><Polygon><outerBoundaryIs><LinearRing><coordinates>-5.3831221940963,58.006752167855 -5.3831362293687,58.0068963830791 -5.38671992206474,58.0074179582852 -5.4034871482017,58.0098567315196 -5.40136736073004,58.0115560494411 -5.39746951608632,58.0172439410758 -5.40924684384726,58.0238370857643 -5.42172399117208,58.0054030470102 -5.41451504751671,58.0058934926723 -5.41350758606653,58.0036507189241 -5.3971739658383,58.000165114597 -5.38650680935098,58.0051659206113 -5.3831221940963,58.006752167855</coordinates></LinearRing></outerBoundaryIs></Polygon><Polygon><outerBoundaryIs><LinearRing><coordinates>-5.4289399774273,58.0413204145287 -5.42395847894566,58.0471339983983 -5.43441105976554,58.0477215356119 -5.43526983916449,58.0491983887427 -5.44201393521965,58.050227479157 -5.44479622619725,58.047995274409 -5.44898073091008,58.0398061012376 -5.43227252884258,58.0382767054804 -5.4289399774273,58.0413204145287</coordinates></LinearRing></outerBoundaryIs></Polygon></MultiGeometry>
  </Placemark>
