  <Placemark>
	<Style><LineStyle><color>ff0000ff</color></LineStyle><PolyStyle><fill>0</fill></PolyStyle></Style>
	<ExtendedData><SchemaData schemaUrl="#Westminster_Parliamentary_Constituencies__December_2019__Boundaries_UK_BUC">
		<SimpleData name="pcon19cd">E14001044</SimpleData>
		<SimpleData name="pcon19nm">Wirral West</SimpleData>
		<SimpleData name="bng_e">324734</SimpleData>
		<SimpleData name="bng_n">386748</SimpleData>
		<SimpleData name="long">-3.13271999</SimpleData>
		<SimpleData name="lat">53.37221909</SimpleData>
		<SimpleData name="objectid">515</SimpleData>
		<SimpleData name="st_lengthshape">31880.3934461884</SimpleData>
		<SimpleData name="st_areashape">46229416.4062256</SimpleData>
	</SchemaData></ExtendedData>
      <Polygon><outerBoundaryIs><LinearRing><coordinates>-3.08827299813797,53.3971966845087 -3.11207827520264,53.3929033043738 -3.11141723644025,53.3861071857793 -3.1246100330062,53.3856169375009 -3.1351430836749,53.3957662085204 -3.13171667925779,53.3975596577002 -3.13994838226666,53.4056301059945 -3.13864105821944,53.4099618544183 -3.14022778587126,53.4115769578304 -3.17762493980129,53.3997077236718 -3.20407457615058,53.3832491360842 -3.13667106722275,53.335374531897 -3.12043232481744,53.3419734545544 -3.09042743675604,53.3326447869386 -3.09261391612801,53.335934633483 -3.08683689996686,53.3374868438838 -3.07265065103051,53.3337229314024 -3.06350506921658,53.3597208176554 -3.08531052729247,53.3858432096771 -3.08827299813797,53.3971966845087</coordinates></LinearRing></outerBoundaryIs></Polygon>
  </Placemark>
