  <Placemark>
	<Style><LineStyle><color>ff0000ff</color></LineStyle><PolyStyle><fill>0</fill></PolyStyle></Style>
	<ExtendedData><SchemaData schemaUrl="#Westminster_Parliamentary_Constituencies__December_2019__Boundaries_UK_BUC">
		<SimpleData name="pcon19cd">E14000902</SimpleData>
		<SimpleData name="pcon19nm">Rossendale and Darwen</SimpleData>
		<SimpleData name="bng_e">372446</SimpleData>
		<SimpleData name="bng_n">420955</SimpleData>
		<SimpleData name="long">-2.41865993</SimpleData>
		<SimpleData name="lat">53.68432999</SimpleData>
		<SimpleData name="objectid">373</SimpleData>
		<SimpleData name="st_lengthshape">111530.170564763</SimpleData>
		<SimpleData name="st_areashape">217546393.220131</SimpleData>
	</SchemaData></ExtendedData>
      <Polygon><outerBoundaryIs><LinearRing><coordinates>-2.17329358668748,53.7230116839111 -2.18900107196496,53.7317268785352 -2.20329654912414,53.7323883216305 -2.21823276533922,53.7384037326036 -2.23265360476655,53.7376351679459 -2.25168527111605,53.7550432167795 -2.25745301447083,53.7498575666207 -2.26679682192135,53.7480970487269 -2.2628465740292,53.7461545021507 -2.26859737309129,53.7422805683425 -2.2852668111761,53.743708066818 -2.29527150262072,53.7519904931156 -2.30298430283637,53.7483958949525 -2.31054382457119,53.7369456164238 -2.30538884573047,53.7074512568846 -2.31268829621206,53.706501285362 -2.30980266075371,53.6976843367338 -2.31572628301008,53.6952799198114 -2.30659687608676,53.6927752796397 -2.30610896741897,53.6837884466372 -2.30669805433309,53.6817304338727 -2.31177572065029,53.6843535880588 -2.31726319198578,53.679977278107 -2.32035451401493,53.6907097603831 -2.33298352916504,53.6992696754522 -2.40459022363978,53.7065049025984 -2.41401451690475,53.7050050236918 -2.42007306096566,53.7084199850827 -2.4183456510714,53.71142448127 -2.43386860052447,53.7191816990193 -2.43355266447963,53.727623516393 -2.4385861398816,53.7322834781039 -2.46219426634252,53.7157160294734 -2.46894744153614,53.7218322671874 -2.48964575020704,53.7256565024872 -2.4930987480024,53.7287962289597 -2.50626380761521,53.717943136568 -2.50285688632513,53.7137168694631 -2.53946770263322,53.7146676529108 -2.54326067158572,53.7098958282085 -2.5397927263795,53.7021915934265 -2.53193140592088,53.6964429364532 -2.5153754062193,53.6916687936559 -2.51917056957782,53.6762870390998 -2.52554937701011,53.6746764158621 -2.53234403392868,53.6649022653213 -2.52227000447068,53.6481781029761 -2.52457325583045,53.6412866001381 -2.52006160283167,53.630481682948 -2.51132292934796,53.6269949667172 -2.47299283803697,53.6166318735833 -2.46601942868202,53.6216990218224 -2.4537808878436,53.6219744220234 -2.45828927754248,53.6246312139176 -2.44839160193691,53.6318620930187 -2.45027035776665,53.6414320693689 -2.43872438284017,53.6460454486624 -2.42614374089195,53.635010270829 -2.42635445640224,53.6265155880795 -2.42169643500597,53.623835573874 -2.40120935798549,53.6245990605314 -2.39784578147011,53.6322081798918 -2.37913211552921,53.6308703643459 -2.37032788904823,53.6315343309452 -2.36849721505728,53.6380187539523 -2.37249439971645,53.6422936922027 -2.3670549673892,53.6450618232364 -2.36274651451584,53.6554014742395 -2.37123619444388,53.667080654493 -2.3555698327065,53.6645072937127 -2.35333854602095,53.6584829019405 -2.31675729058951,53.654987224144 -2.30010433019791,53.6670265448045 -2.29387254279445,53.6582318291806 -2.29763963334935,53.6517062503043 -2.295272776757,53.6403952353397 -2.28351189881627,53.6269943182828 -2.28284354490019,53.6202474093628 -2.27255052543859,53.6185123344406 -2.2717870687905,53.6145142332618 -2.25791657070209,53.616465742154 -2.25676901587734,53.6203979547478 -2.26299780495795,53.6250115539524 -2.26986609200328,53.646136610395 -2.24587750356036,53.663521730583 -2.22582386832174,53.6707678518548 -2.21772889962318,53.6689807388165 -2.20038908311383,53.6528901602396 -2.18958425633275,53.6480253610105 -2.18240718357035,53.6482576152006 -2.18046782729018,53.6405496147463 -2.18539583912308,53.6382240927871 -2.1613528322883,53.6413741752366 -2.1639387340251,53.6547655964438 -2.14632807589576,53.6822315294492 -2.14519082059208,53.6921988491607 -2.16258292564966,53.6992212453444 -2.16253216470248,53.7072520837315 -2.17329358668748,53.7230116839111</coordinates></LinearRing></outerBoundaryIs></Polygon>
  </Placemark>
