  <Placemark>
	<Style><LineStyle><color>ff0000ff</color></LineStyle><PolyStyle><fill>0</fill></PolyStyle></Style>
	<ExtendedData><SchemaData schemaUrl="#Westminster_Parliamentary_Constituencies__December_2019__Boundaries_UK_BUC">
		<SimpleData name="pcon19cd">E14000706</SimpleData>
		<SimpleData name="pcon19nm">Fylde</SimpleData>
		<SimpleData name="bng_e">340574</SimpleData>
		<SimpleData name="bng_n">433972</SimpleData>
		<SimpleData name="long">-2.9036901</SimpleData>
		<SimpleData name="lat">53.79864883</SimpleData>
		<SimpleData name="objectid">177</SimpleData>
		<SimpleData name="st_lengthshape">80570.0646582397</SimpleData>
		<SimpleData name="st_areashape">173742741.422139</SimpleData>
	</SchemaData></ExtendedData>
      <Polygon><outerBoundaryIs><LinearRing><coordinates>-2.74978423836039,53.7885024884393 -2.7778111903735,53.7846991266628 -2.78207137007542,53.7900022310932 -2.81525962890121,53.8081830899927 -2.82199588736482,53.81795560356 -2.84086959807591,53.8312779439078 -2.8694227846563,53.8309131143337 -2.85758673975096,53.8426065827248 -2.86699767292454,53.845701731266 -2.87161558902848,53.8431524535267 -2.89014618483959,53.8460389829644 -2.88801698457885,53.8542447482279 -2.87556086386656,53.8579333643396 -2.88636877565676,53.8634409972997 -2.89617677683061,53.8606015991906 -2.90201177295305,53.8645271013011 -2.91126411738029,53.8641372441496 -2.91372971939976,53.8594958545213 -2.92464495506943,53.8560417618599 -2.93648147585126,53.8573053885081 -2.93718814316481,53.8525271513264 -2.94411124219628,53.8507156607182 -2.95456770767527,53.8559746502249 -2.95641758860718,53.8612944110172 -2.97498056171594,53.8631538900734 -2.98192393707347,53.8581762246674 -2.96556995199783,53.847311003301 -2.97078146816741,53.8404594366197 -2.96177766016056,53.8283465309923 -2.98604167248756,53.8284390243505 -2.99311756948152,53.8310286687919 -3.01065293005663,53.8261939007195 -2.99450953084273,53.8176721578489 -2.98335722276106,53.7938034453417 -2.99932035820582,53.7943358212161 -3.00388680512874,53.7913422868504 -3.00612176257234,53.7879915147728 -2.99647825993957,53.7745040254686 -3.02880130418184,53.7731167798034 -3.03282276979925,53.7808616734318 -3.05710493231166,53.7765390796846 -3.03874247266197,53.7471903744071 -2.97640691476651,53.7340474100667 -2.94499805185899,53.7361522348614 -2.95297566456835,53.7329298286156 -2.93380536789249,53.731680311776 -2.91098007131313,53.7325939425627 -2.89910614945607,53.7330675456842 -2.85686181182712,53.738201074023 -2.85871618152537,53.7506384192234 -2.85554551862048,53.7383858597419 -2.79381896968612,53.7518302153191 -2.81029727421126,53.7473646279974 -2.82169589274275,53.7442737400321 -2.76408867176014,53.7556727623429 -2.75881897597538,53.7650630235671 -2.76566394048269,53.7752364975712 -2.74930593394633,53.7746205975742 -2.74978423836039,53.7885024884393</coordinates></LinearRing></outerBoundaryIs></Polygon>
  </Placemark>
