  <Placemark>
	<Style><LineStyle><color>ff0000ff</color></LineStyle><PolyStyle><fill>0</fill></PolyStyle></Style>
	<ExtendedData><SchemaData schemaUrl="#Westminster_Parliamentary_Constituencies__December_2019__Boundaries_UK_BUC">
		<SimpleData name="pcon19cd">S14000015</SimpleData>
		<SimpleData name="pcon19nm">Dundee East</SimpleData>
		<SimpleData name="bng_e">347896</SimpleData>
		<SimpleData name="bng_n">736729</SimpleData>
		<SimpleData name="long">-2.8484199</SimpleData>
		<SimpleData name="lat">56.51969147</SimpleData>
		<SimpleData name="objectid">566</SimpleData>
		<SimpleData name="st_lengthshape">68168.9658183376</SimpleData>
		<SimpleData name="st_areashape">151905588.147155</SimpleData>
	</SchemaData></ExtendedData>
      <Polygon><outerBoundaryIs><LinearRing><coordinates>-2.68289617774114,56.5085174160182 -2.68685947860799,56.5123691586348 -2.71074315470681,56.5196089986873 -2.70690190653418,56.5253232533647 -2.71829933734426,56.5303689165671 -2.71653152819388,56.5354937697195 -2.72413816898153,56.5393578263657 -2.76183210043427,56.5445965990701 -2.76792671501044,56.5503377611503 -2.7886044917765,56.5517877014553 -2.80033127303126,56.5608954500816 -2.81349921802925,56.5624325105822 -2.80447433493246,56.5647552306862 -2.8077559393913,56.568321387247 -2.81822514775367,56.5652548687368 -2.83513408721026,56.5737592745533 -2.85043154313394,56.5537366749569 -2.84879649329565,56.549297968052 -2.86443552721232,56.5519259807266 -2.87978542377454,56.550201139742 -2.89079398778068,56.5452819569769 -2.93554018310607,56.5524443448043 -2.93914470185052,56.5456717859436 -2.94394062957381,56.5532999428103 -2.93019678407964,56.5726694074862 -2.95922570619776,56.578763022159 -2.98137660847996,56.5561761048895 -2.97135081434354,56.5443945961957 -2.95745994184714,56.5457476166067 -2.96050357814944,56.5289440927888 -2.98558468966043,56.5221594090628 -2.98648746210156,56.5139234430944 -2.9724986780573,56.4906302610826 -2.97538948931576,56.48303464226 -2.95764264539694,56.4808161777727 -2.95762809826308,56.4693538870182 -2.97149456570943,56.4643897959967 -2.96260165067271,56.4589824169814 -2.94332685325699,56.4641421222375 -2.92013514524955,56.4664389443382 -2.91525832394406,56.4675139951733 -2.91245248181715,56.4671987163594 -2.90862472953336,56.4675770615952 -2.8899194319631,56.4683664851695 -2.87124780974015,56.4625607579983 -2.87017009031172,56.4624392510043 -2.83865636984908,56.4740704408801 -2.79496137124577,56.4804914943607 -2.73424923174319,56.4642428298056 -2.71603751949074,56.4953618087589 -2.68289617774114,56.5085174160182</coordinates></LinearRing></outerBoundaryIs></Polygon>
  </Placemark>
