[
  {
    "id": 81,
    "name": "Office of the Advocate General for Scotland",
    "url": "http://www.oag.gov.uk",
    "imageUrl": "/api/Departments/81/Logo"
  },
  {
    "id": 111,
    "name": "Other",
    "url": null,
    "imageUrl": "/api/Departments/111/Logo"
  },
  {
    "id": 3,
    "name": "Attorney General's Office",
    "url": "https://www.gov.uk/government/organisations/attorney-generals-office",
    "imageUrl": "/api/Departments/3/Logo"
  },
  {
    "id": 114,
    "name": "Department for Business, Energy and Industrial Strategy",
    "url": null,
    "imageUrl": "/api/Departments/114/Logo"
  },
  {
    "id": 5,
    "name": "Cabinet Office",
    "url": "https://www.gov.uk/government/organisations/cabinet-office",
    "imageUrl": "/api/Departments/5/Logo"
  },
  {
    "id": 64,
    "name": "Ministry of Defence",
    "url": "https://www.gov.uk/government/organisations/ministry-of-defence",
    "imageUrl": "/api/Departments/64/Logo"
  },
  {
    "id": 116,
    "name": "Department for Digital, Culture, Media and Sport",
    "url": "https://www.gov.uk/government/organisations/department-for-culture-media-sport",
    "imageUrl": "/api/Departments/116/Logo"
  },
  {
    "id": 99,
    "name": "Department for Education",
    "url": "http://www.education.gov.uk/",
    "imageUrl": "/api/Departments/99/Logo"
  },
  {
    "id": 18,
    "name": "Department for Environment, Food and Rural Affairs",
    "url": "https://www.gov.uk/government/organisations/department-for-environment-food-rural-affairs",
    "imageUrl": "/api/Departments/18/Logo"
  },
  {
    "id": 1002,
    "name": "Foreign, Commonwealth and Development Office",
    "url": "https://www.gov.uk/government/organisations/foreign-commonwealth-development-office",
    "imageUrl": "/api/Departments/1002/Logo"
  },
  {
    "id": 118,
    "name": "Department of Health and Social Care",
    "url": null,
    "imageUrl": "/api/Departments/118/Logo"
  },
  {
    "id": 48,
    "name": "HM Household",
    "url": null,
    "imageUrl": "/api/Departments/48/Logo"
  },
  {
    "id": 51,
    "name": "Home Office",
    "url": "https://www.gov.uk/government/organisations/home-office",
    "imageUrl": "/api/Departments/51/Logo"
  },
  {
    "id": 117,
    "name": "Ministry of Housing, Communities and Local Government",
    "url": null,
    "imageUrl": "/api/Departments/117/Logo"
  },
  {
    "id": 112,
    "name": "Department for International Trade",
    "url": null,
    "imageUrl": "/api/Departments/112/Logo"
  },
  {
    "id": 67,
    "name": "Ministry of Justice",
    "url": "https://www.gov.uk/government/organisations/ministry-of-justice",
    "imageUrl": "/api/Departments/67/Logo"
  },
  {
    "id": 55,
    "name": "Office of the Leader of the House of Commons",
    "url": "https://www.gov.uk/government/organisations/the-office-of-the-leader-of-the-house-of-commons",
    "imageUrl": "/api/Departments/55/Logo"
  },
  {
    "id": 52,
    "name": "Office of the Leader of the House of Lords",
    "url": "http://www.cabinetoffice.gov.uk/content/office-leader-house-lords",
    "imageUrl": "/api/Departments/52/Logo"
  },
  {
    "id": 80,
    "name": "Northern Ireland Office",
    "url": "https://www.gov.uk/government/organisations/northern-ireland-office",
    "imageUrl": "/api/Departments/80/Logo"
  },
  {
    "id": 90,
    "name": "Scotland Office",
    "url": "https://www.gov.uk/government/organisations/scotland-office",
    "imageUrl": "/api/Departments/90/Logo"
  },
  {
    "id": 23,
    "name": "Department for Transport",
    "url": "https://www.gov.uk/government/organisations/department-for-transport",
    "imageUrl": "/api/Departments/23/Logo"
  },
  {
    "id": 50,
    "name": "HM Treasury",
    "url": "https://www.gov.uk/government/organisations/hm-treasury",
    "imageUrl": "/api/Departments/50/Logo"
  },
  {
    "id": 119,
    "name": "UK Export Finance",
    "url": "https://www.gov.uk/government/organisations/uk-export-finance",
    "imageUrl": "/api/Departments/119/Logo"
  },
  {
    "id": 95,
    "name": "Wales Office",
    "url": "https://www.gov.uk/government/organisations/wales-office",
    "imageUrl": "/api/Departments/95/Logo"
  },
  {
    "id": 24,
    "name": "Department for Work and Pensions",
    "url": "https://www.gov.uk/government/organisations/department-for-work-pensions",
    "imageUrl": "/api/Departments/24/Logo"
  }
]