  <Placemark>
	<Style><LineStyle><color>ff0000ff</color></LineStyle><PolyStyle><fill>0</fill></PolyStyle></Style>
	<ExtendedData><SchemaData schemaUrl="#Wards__December_2019__Boundaries_EW_BFE">
		<SimpleData name="objectid">7672</SimpleData>
		<SimpleData name="wd19cd">W05000561</SimpleData>
		<SimpleData name="wd19nm">Cadoxton</SimpleData>
		<SimpleData name="wd19nmw">Llangatwg</SimpleData>
		<SimpleData name="bng_e">275992</SimpleData>
		<SimpleData name="bng_n">200269</SimpleData>
		<SimpleData name="long">-3.79532</SimpleData>
		<SimpleData name="lat">51.687439</SimpleData>
		<SimpleData name="st_areashape">4194064.6232281</SimpleData>
		<SimpleData name="st_lengthshape">13237.5524897743</SimpleData>
	</SchemaData></ExtendedData>
      <Polygon><outerBoundaryIs><LinearRing><coordinates>-3.78818910480868,51.6726829901514 -3.78812985990791,51.6727198514516 -3.78810455414714,51.6727374078846 -3.78809327808927,51.6727447708656 -3.78805800372262,51.6727695813152 -3.78799607498717,51.6728109786801 -3.7879522190489,51.6728359190146 -3.78790832917226,51.6728599615276 -3.78783593852706,51.6728961238452 -3.7876724599065,51.6729660383491 -3.78761836807702,51.6729884378008 -3.7875101135696,51.673031440166 -3.78743894479185,51.6730622809137 -3.78736810299734,51.6730984193561 -3.78725762533332,51.673157636897 -3.78717818932224,51.6731966038549 -3.78713698103244,51.6732161100216 -3.78706589138136,51.6732459602047 -3.78695463536114,51.6732854118213 -3.78690057820726,51.6733087096543 -3.78688919435814,51.673313377399 -3.78684519750163,51.6733347243974 -3.78680982851219,51.673354141499 -3.78677580726776,51.6733744363839 -3.78673496958153,51.6734003194588 -3.78670403193059,51.6734232650214 -3.78659168177254,51.673507681558 -3.78652125029807,51.673557298025 -3.78648032416998,51.6735839916664 -3.78643650356701,51.6736098301562 -3.78638985629175,51.6736366109055 -3.78623628178269,51.673703764931 -3.78609247968118,51.673761690493 -3.78604411986389,51.6737813052012 -3.78599579679422,51.6738018185545 -3.78592881902417,51.6738271102566 -3.78575448434827,51.6738819052286 -3.78568736503675,51.673903602958 -3.78559594198817,51.6739319643145 -3.78557163971435,51.6739386270521 -3.78552728702308,51.6739509885621 -3.78545847670033,51.673969115912 -3.78525512468949,51.674019856665 -3.78505473938701,51.6740733386209 -3.78501894686125,51.6740819745681 -3.78498308223164,51.6740888131539 -3.78495429906391,51.6740937455126 -3.78491689893052,51.6740979106734 -3.78487791394042,51.6741012007162 -3.78487079858885,51.6741022082197 -3.78473394974491,51.6741186737524 -3.78472823007184,51.6741187607857 -3.78463498812309,51.6741372603267 -3.78442071620371,51.6741710833 -3.78431141462426,51.6741844308543 -3.7841584734854,51.6741948464023 -3.78388147782872,51.6742134386431 -3.78383115928375,51.6742195976481 -3.78381386522369,51.6742225571895 -3.78376651296723,51.6742313669734 -3.78373788428316,51.6742371954919 -3.7836746674721,51.6742489439484 -3.78351556341791,51.6742846225061 -3.78347679108565,51.6742933027341 -3.78316814576707,51.6743501307733 -3.78307206767483,51.6743722668047 -3.7828656347835,51.6744204395735 -3.78269528502587,51.674464379064 -3.78237749549392,51.674546515962 -3.78209354212818,51.67464611664 -3.78190901798855,51.6746965629811 -3.78154647536209,51.6747839612352 -3.78116385759289,51.6748733706214 -3.7812686837592,51.6750012318725 -3.78168608992205,51.6753942198459 -3.78219605091517,51.6757479521443 -3.78272004909859,51.6760520257154 -3.78438453518271,51.6768557575431 -3.78505509797045,51.6774318590135 -3.78504406615698,51.6774455115314 -3.78421470241835,51.6776505922507 -3.78385190851549,51.6777684759821 -3.78367108538389,51.677840533712 -3.78349057573429,51.677920586761 -3.7832311357684,51.6780557764726 -3.78322465507548,51.6780729555664 -3.7833757059612,51.6781993018359 -3.78317256973924,51.6783318384852 -3.78303918375685,51.6784336491905 -3.78292018623391,51.6785344319126 -3.78280933769755,51.678657475889 -3.78266250240439,51.6788602640799 -3.7823771701214,51.6793294500158 -3.78238800601963,51.6793472644275 -3.78245001253858,51.6793804831628 -3.78338360519222,51.6797638217803 -3.78351000165587,51.6798149396334 -3.78336249169443,51.6798881986093 -3.78317061109623,51.6799765154512 -3.78316254517382,51.6799928194169 -3.78313414363137,51.6800409858853 -3.78339991115166,51.6801789835734 -3.78421805283263,51.6806071277707 -3.78421593333266,51.6806260381426 -3.78393316592384,51.6808659539386 -3.78376839228831,51.6809430728173 -3.7835489001462,51.6811361786081 -3.78331279978073,51.681313355929 -3.78319426937978,51.6813897704906 -3.78318341433078,51.6814079143804 -3.78320157550245,51.6816486501955 -3.78324349284019,51.6817199299266 -3.78329342996876,51.6817767047901 -3.78335635776013,51.6818332813119 -3.78342920655534,51.6818843144155 -3.78355045501856,51.6819499830851 -3.78357100104074,51.6819568627496 -3.78406104355046,51.6820231278743 -3.78407536091552,51.6820202134576 -3.78411096071772,51.6820034908289 -3.78424107321432,51.6819304952137 -3.78467660456444,51.6816019557381 -3.78489092678435,51.6815320852417 -3.78505281373452,51.6814936650116 -3.78513702912254,51.6814636175879 -3.78528737133801,51.6813894146233 -3.78571399286579,51.681274151936 -3.78647202647169,51.6811672382568 -3.78658021364263,51.6811583998093 -3.78686604894145,51.681145059728 -3.78689397349006,51.6811545233973 -3.7875217984433,51.6822573443729 -3.78752082697916,51.682269045456 -3.78697856844672,51.6827889000721 -3.78648569160787,51.6834637003745 -3.78643557638835,51.6835480659286 -3.78637009484327,51.6836875022985 -3.78627706365509,51.6838966684263 -3.78615513271761,51.684289664297 -3.78610085989761,51.6846016224625 -3.78614171919918,51.6849759598479 -3.78603791845491,51.6851691084374 -3.78601315735327,51.6852036456459 -3.78591036478415,51.6854588081759 -3.78588191089009,51.6855419452481 -3.78582445024293,51.6857730447768 -3.78540939491437,51.6869528672127 -3.78520016730329,51.6873346020333 -3.78512007898647,51.6874697650098 -3.78489316864318,51.6877690635594 -3.78469219234177,51.6881030273576 -3.78448374213572,51.6883561973128 -3.78408641118454,51.6880771761156 -3.78389311102421,51.6883849537958 -3.78376835802055,51.6885613396869 -3.78350464743902,51.6888441163933 -3.78342171065351,51.6889433640873 -3.78326088661801,51.68915805307 -3.78315524348395,51.6893412489408 -3.78309086233151,51.6895059287024 -3.7830457753035,51.6896486503364 -3.78299562370816,51.6898445776303 -3.78283246407005,51.6902579727497 -3.78281892126311,51.6903534690269 -3.78277260276872,51.6908685599593 -3.78277984540129,51.6910528273417 -3.78283865774615,51.6912622917813 -3.78295612218235,51.6915617505996 -3.7831768192371,51.69176524982 -3.78336528105159,51.6919953086803 -3.78341579554155,51.6920664583291 -3.78342584136779,51.6921004671592 -3.78335124879175,51.6921177811211 -3.78315984356464,51.6921072049262 -3.78307225598654,51.6921247170826 -3.78291409726017,51.6921495930207 -3.78266969159771,51.6921533049822 -3.78267908309929,51.6922071009536 -3.78257435698972,51.6924137475645 -3.78243493608563,51.692620920866 -3.78243209573538,51.6926245600202 -3.78254269165442,51.6926399606456 -3.78266049326904,51.6926930095662 -3.78276224318949,51.6927049483029 -3.78292970356516,51.6926556584046 -3.78300052278873,51.6926545827444 -3.78323882495206,51.6927534465399 -3.78332644455721,51.6929580701114 -3.78338840414474,51.6930623092653 -3.78352124535109,51.6930548965571 -3.7836443322325,51.6931330355593 -3.7837193150917,51.6931256034008 -3.78382366260308,51.6930943512399 -3.78390235550844,51.6931084378593 -3.78396931006426,51.6931910255729 -3.78409026525004,51.6933241234382 -3.78424051432914,51.6933164462721 -3.78430795949642,51.6932659768503 -3.78432769646228,51.6932521928614 -3.7846414864988,51.6932501207084 -3.78465924775441,51.6932588405047 -3.78475973192056,51.6933112525498 -3.78481024908394,51.6933095857977 -3.78490126952215,51.6933064052814 -3.78503229882126,51.6933619481098 -3.78512183740473,51.6933938501135 -3.78517961190475,51.6934280314256 -3.78522997277407,51.6934587302433 -3.78532918422753,51.6934787986641 -3.78543491387696,51.6934825853457 -3.78564246221174,51.6934605521946 -3.78583345360338,51.6934603456628 -3.78609689745524,51.6935004801691 -3.78622438197933,51.6935416923374 -3.78630158312005,51.6936268204599 -3.78638137065423,51.6937442716732 -3.78639916783686,51.6937538898911 -3.78648927668164,51.6938002553212 -3.7868424017506,51.6938757920764 -3.7869775239829,51.6939654323046 -3.78705514515247,51.6939885235899 -3.78713258787675,51.6940071231753 -3.78738732988625,51.6940472972381 -3.78747490833343,51.6940657414783 -3.78760576923429,51.6941168795455 -3.78776066726857,51.6941936322762 -3.78783860811825,51.6942248094689 -3.7880512741503,51.6942961873508 -3.78818298511627,51.6943355354871 -3.78834034602569,51.6943628065724 -3.78862811064251,51.6943962723077 -3.78890499360483,51.6944441963436 -3.78914854010296,51.6944575681934 -3.78941111436989,51.6944724472607 -3.78964731606045,51.6945929071151 -3.78980478651582,51.6946228713631 -3.78985808392066,51.6946885836079 -3.79004015451053,51.6949034505112 -3.7900852577462,51.6949459146705 -3.79012273236588,51.6949795045401 -3.79018295312284,51.6951117244466 -3.79020165056423,51.6952921339062 -3.79022644235553,51.6954788323321 -3.79026031054726,51.6955691125483 -3.79031161179163,51.695620471781 -3.79032566534514,51.6957587896888 -3.79034090922665,51.6958124950986 -3.79034248283087,51.6958160671447 -3.79031607885204,51.695954103308 -3.79032641532008,51.695995297858 -3.79045723364566,51.6960481419132 -3.79058972166386,51.6961432116844 -3.79058681215113,51.6961783161883 -3.79053558283832,51.6962375300428 -3.79052056900888,51.6962953834685 -3.79057099536213,51.6963638359277 -3.79074806805284,51.6964519330955 -3.7909343903315,51.6965506770636 -3.79100334063777,51.6966108455564 -3.7912027703677,51.6968631138411 -3.79113202120778,51.6969748565685 -3.7910966031647,51.6970688897291 -3.79101799057051,51.6972382860292 -3.79091600394224,51.6974412112854 -3.79109321857097,51.6976777266484 -3.79110608842754,51.697746751481 -3.79125135063016,51.6980170154532 -3.79134615369667,51.698402218753 -3.7913986225473,51.6984860120494 -3.79151160578335,51.6985975598494 -3.79166243478496,51.6987157223779 -3.79182135708967,51.6988212655387 -3.79198338534741,51.698890711808 -3.79215979549247,51.6989617360047 -3.79216454966833,51.6989733498873 -3.79218970684812,51.6990242078918 -3.79221175833498,51.6990689103737 -3.7922758404289,51.6991506377019 -3.79240849552422,51.6994336790648 -3.792713236799,51.6999649069295 -3.79249682976939,51.7003126958433 -3.79234677033995,51.7005792840274 -3.79241761340663,51.7006870694637 -3.7920222540357,51.700899865259 -3.79207932683179,51.7009521238931 -3.79240042697647,51.7012420882963 -3.7927917055151,51.7015112930047 -3.79281704766738,51.7015667332216 -3.79284898445518,51.7016049010618 -3.79293886283029,51.7016448822438 -3.79300316001971,51.70169873869 -3.79303780709432,51.701769228445 -3.79305507413227,51.7018769319937 -3.79308293197752,51.7019205565163 -3.79310691889443,51.7019417656308 -3.79315497527852,51.7019500216861 -3.79324792173199,51.7020313087424 -3.79332749170923,51.7021424655723 -3.79322483856002,51.7023616745003 -3.79308959709129,51.7027494884557 -3.79306587560324,51.7028073851557 -3.79303173725362,51.702858338724 -3.79286807284023,51.7029651169953 -3.79290462334062,51.7030113056743 -3.79289404202643,51.7030725978084 -3.79288253652513,51.7031105303307 -3.7927231925457,51.7032541909687 -3.79236953659488,51.703496107927 -3.79215342393909,51.703631554431 -3.79211295521769,51.7037427448883 -3.79202371521575,51.7039392736288 -3.79195820649116,51.7040751189646 -3.79183894257602,51.7042064805771 -3.79175452930187,51.7043048572459 -3.79168706701165,51.7043912889038 -3.79165462961781,51.7044853666269 -3.79162649254438,51.7045433303772 -3.79158324012916,51.7046204031111 -3.79156524067972,51.7046782113317 -3.79154298593532,51.7047370745011 -3.7915090429521,51.7048292876569 -3.79141741514042,51.7049655310208 -3.79132919759054,51.7051125994057 -3.79125879626084,51.7051640155151 -3.79079744017836,51.7053535415045 -3.79066315734891,51.7053979306527 -3.79060094016552,51.7053997773946 -3.79048676100357,51.7054033162656 -3.79179689400159,51.7059255100982 -3.79257672187254,51.7062481208604 -3.79381377922322,51.7067499217613 -3.79454661338767,51.7070543575759 -3.79633187845521,51.7078013563948 -3.79656914903334,51.7075432284933 -3.79688075069592,51.7072246309834 -3.79710268782744,51.7069802214127 -3.79744785311821,51.7065963823071 -3.79766535667115,51.7062073047791 -3.79769749782526,51.706106037947 -3.79772811520615,51.7059994907638 -3.79779862115407,51.7056621058187 -3.79791466049213,51.7048662669989 -3.79797244383468,51.7045722271075 -3.79798715122151,51.7044677209164 -3.79800698465434,51.7042758461428 -3.7980302039479,51.704021980525 -3.79803662483841,51.7039642577418 -3.79801930860739,51.703891705786 -3.79793988240846,51.7036402205605 -3.7977251688476,51.7032991093935 -3.79761386289208,51.7032666518649 -3.79741539811595,51.703223841489 -3.79701444671029,51.7029314266701 -3.79689112379257,51.7028155471839 -3.79657926730801,51.702615261896 -3.79633590625211,51.7021712043157 -3.79635127508518,51.7019749036487 -3.79639584616822,51.7017116312877 -3.7964249579302,51.7015700472733 -3.79644905228418,51.7014464292842 -3.79647883892204,51.7013219158273 -3.79672180711478,51.7007327877512 -3.79665927598426,51.7007265521009 -3.79666056392363,51.7007229372759 -3.7967949495312,51.7000977127604 -3.79692068221951,51.6997990377939 -3.7971407620563,51.6993281148308 -3.79728608099748,51.6989427488331 -3.79734877671093,51.698808741992 -3.79806909179799,51.6984362411294 -3.79842204725709,51.6982113986195 -3.7987133475215,51.6980415267532 -3.79896008029087,51.6979873160257 -3.79898596854869,51.6979842227727 -3.79898586159266,51.6979815276152 -3.79901433678842,51.6979685058893 -3.79907925047809,51.6977823230976 -3.79948421159427,51.6966466485456 -3.79974636299303,51.695959232511 -3.79979465690288,51.6957902948831 -3.79977253702596,51.6957079278316 -3.79975863725246,51.6955741939058 -3.79984595267547,51.6952221655748 -3.79997199689964,51.6949351696893 -3.80008675104779,51.6947274556989 -3.80066480895375,51.6942717166904 -3.80082793882584,51.6939724640569 -3.80090634742179,51.6937599128142 -3.80094871834424,51.6936612757095 -3.80108769672499,51.6935890246343 -3.80116997537004,51.6935850663018 -3.80150845199714,51.6936544934797 -3.80160290905583,51.6936296720024 -3.80178712208247,51.693386732706 -3.80181622739218,51.6924079318102 -3.8010839185421,51.6924757917134 -3.80088190066331,51.6914322136225 -3.80086163636209,51.6913605156195 -3.80082519810492,51.6912810660028 -3.80078736555857,51.691202536084 -3.80075057225881,51.6911141013744 -3.80103923842997,51.6909873254588 -3.80123860741472,51.6909069573633 -3.80153801941224,51.6908313500062 -3.80211910797266,51.6907081821606 -3.80222559954599,51.6906921661603 -3.80232531751576,51.6906888386819 -3.80255253231043,51.690690747988 -3.80263126762937,51.6906697636818 -3.80269564903986,51.6906507961344 -3.80264968865638,51.6904068900577 -3.80258568595346,51.6902883079054 -3.80246307823566,51.6901148882362 -3.80233881070504,51.6899387071778 -3.80232024604525,51.6897627027567 -3.80224850580815,51.6896685111579 -3.80221797667486,51.6896267279432 -3.80232807895713,51.6895935755314 -3.80223245977586,51.6894808716025 -3.80212852633842,51.6894140534133 -3.80205677195877,51.689358518119 -3.80196069137047,51.6892341346319 -3.80190786292932,51.6890694435388 -3.80198188179541,51.6889658250447 -3.80215497182182,51.6888066598119 -3.80232966735456,51.6887239727836 -3.80207764872562,51.6884247921617 -3.80185355810953,51.6880658506278 -3.80179998319221,51.6879183417667 -3.80181729083418,51.687771452993 -3.80187842070598,51.6876707298079 -3.80189385304478,51.687551738776 -3.80183913507918,51.6873754792057 -3.80181326516415,51.6871986883358 -3.80180148155175,51.686974124698 -3.80182041656678,51.6867570914911 -3.80177738771961,51.686622815002 -3.80178726047293,51.6864689389374 -3.80183507488224,51.6862883207169 -3.80191020595445,51.6861046767856 -3.8019782621448,51.6861063310519 -3.80196979146733,51.6860011904499 -3.80191880641889,51.6859938817533 -3.80192462896295,51.6857771394443 -3.80190985336876,51.6856604090723 -3.80186727254679,51.6854983475356 -3.80182572481196,51.6853622498791 -3.80179022075482,51.685270200193 -3.80169428289208,51.6849299697037 -3.80164592464942,51.6848776715847 -3.80159287133867,51.6848182533552 -3.8014651445584,51.6847347193916 -3.80122150833024,51.6846099002445 -3.80112354133763,51.684545776587 -3.80108408854843,51.6845014335136 -3.8010340572834,51.6843708606828 -3.80097086484487,51.684164166401 -3.80096689445015,51.6841362692473 -3.8009832685414,51.6840739881702 -3.80105929097191,51.6838768461965 -3.80107710027123,51.6837425345398 -3.80107755518099,51.683642739467 -3.801061512134,51.6834577029327 -3.8010223051589,51.6833081725159 -3.80100193983996,51.6832698278708 -3.80096554123584,51.6832272346806 -3.80088042769461,51.6831592276268 -3.79990511748337,51.6826050301893 -3.79990193390803,51.6825968985274 -3.79993101098503,51.6825631895629 -3.79994699116815,51.6824577630425 -3.79994715094934,51.6824226997795 -3.79992976748176,51.682315086994 -3.79993296422044,51.6822843825925 -3.79995191678482,51.6822148696506 -3.79997980693921,51.6821542094632 -3.80001522979888,51.682097029866 -3.79997676378497,51.6820382862757 -3.79997783753187,51.6820292800211 -3.79998466891186,51.68202108474 -3.80012300892629,51.6819334693078 -3.80045263197688,51.6817459190214 -3.80074882972306,51.6814464163556 -3.80074804611877,51.681426650256 -3.80072819365513,51.681398186861 -3.80064869589896,51.6813634470842 -3.80049942988194,51.6813197975144 -3.80036075158173,51.6812904597292 -3.80029757519718,51.6813004193415 -3.80021398906531,51.681273831674 -3.80016384737441,51.6812485304791 -3.80013245538701,51.6812238400915 -3.80012916713936,51.681213102222 -3.80026349314804,51.6809520430348 -3.8009737405888,51.6802604290382 -3.80100915602988,51.6802392091087 -3.80128289845184,51.6801406145348 -3.80135095171092,51.6801063083208 -3.80145232099075,51.6799617228718 -3.80227754987585,51.678958096458 -3.80280522249832,51.6784032258264 -3.8029664180416,51.6782757889583 -3.80295994753539,51.6782570093345 -3.80241043711497,51.6778976667253 -3.80221158635244,51.6777343151587 -3.80218277825759,51.6777356566683 -3.80198671266485,51.6778258689013 -3.80197082473938,51.6778252144204 -3.80194425845329,51.6778139345941 -3.80192490530114,51.6777980495763 -3.80192292800905,51.6777872924756 -3.80222928340514,51.6774498708799 -3.80229826260105,51.6774029624216 -3.80236348736412,51.6773695976801 -3.80243039119081,51.6773424991976 -3.8034241468541,51.6770529506825 -3.80346392129787,51.6770334605553 -3.80357049571616,51.6769482163113 -3.80357164001675,51.6769410064615 -3.80350442028136,51.676888009203 -3.80345932427558,51.676845550318 -3.80342421613076,51.6767993418325 -3.80338882727067,51.6767099858763 -3.80337968199889,51.6766238219294 -3.80283571367762,51.6759288918273 -3.80284505955932,51.675908970006 -3.80321261586464,51.6756596942774 -3.80333345724951,51.6756065041153 -3.80350402533348,51.6755652254991 -3.80333566734671,51.6754428520263 -3.80332815988736,51.675433977924 -3.80332121834098,51.6753702581878 -3.80330697974854,51.6753390133967 -3.8032857177118,51.6753140793292 -3.80323543739711,51.6752851868029 -3.80315683808286,51.6752729099065 -3.80311713980943,51.6752582377026 -3.80197236532226,51.6743640076499 -3.8018563080361,51.6742821869299 -3.80185695536339,51.6742623996264 -3.80203043728874,51.6740420983227 -3.80215494785356,51.6739341083199 -3.8023583365607,51.673776364255 -3.80250016235748,51.6736329584123 -3.8030937462152,51.6732830438251 -3.80327973300398,51.673194784449 -3.8034501179002,51.6730770094556 -3.80387041650733,51.6727360455841 -3.80405189867361,51.6726065027325 -3.80418880415955,51.6725225923749 -3.80427844672258,51.6723745929926 -3.80434341645591,51.6722989804787 -3.80462826244067,51.6720428010405 -3.80481764325789,51.671896054763 -3.80495021606889,51.6718112209359 -3.80511546726192,51.6717475499859 -3.8059027174974,51.671249008561 -3.80596083900714,51.6711841975512 -3.80596485616896,51.6711742470154 -3.80593755777032,51.6711054471375 -3.80594256317905,51.6710873911233 -3.80633691082025,51.6709284977915 -3.80639996745346,51.670879881926 -3.80649446102871,51.6707461898123 -3.8065253151209,51.6707214430576 -3.80738703719684,51.6702792771883 -3.80758066322083,51.6702006916359 -3.80771959205654,51.670132027899 -3.80782768046795,51.6700494561652 -3.80812637992388,51.6699234938687 -3.80823113732783,51.6698651548809 -3.80824337599028,51.6698460880479 -3.80785480877193,51.6692415004138 -3.80787163576042,51.6692268581164 -3.80815042693712,51.6691461498814 -3.8082217126986,51.6691216787473 -3.80827314533908,51.6691047046102 -3.80817767086101,51.668994704273 -3.80804762333035,51.6688518854967 -3.80797576770656,51.6687900654072 -3.80789101784061,51.6687338383854 -3.80778273318239,51.6686644883416 -3.80772332894465,51.6686968673322 -3.80741436271477,51.6688553498403 -3.80705139187397,51.6690381265945 -3.80653649226072,51.6688185282564 -3.80561804691443,51.6683425526868 -3.80472752749687,51.667914774962 -3.8035429212189,51.6673260127892 -3.80301976982862,51.6670418007298 -3.80288815005696,51.6669701080484 -3.8028394185156,51.6669079286842 -3.80283337866495,51.6668999302117 -3.80272469577956,51.6668232996778 -3.80268130410258,51.6667484525391 -3.80268597584932,51.6666108378651 -3.80270523714915,51.6665133628284 -3.80270750224759,51.6663901683424 -3.80263779347763,51.6663822498158 -3.80136824281209,51.6662749937703 -3.80078933618297,51.666265002482 -3.80040678830225,51.6662816617782 -3.80008686794373,51.666308146135 -3.79969514594605,51.6663851745105 -3.79939406826323,51.6664509234179 -3.79919698107055,51.6665141776046 -3.79879565755575,51.6666408836528 -3.79859688882416,51.6666978698088 -3.79840535349639,51.666753845522 -3.79818876064799,51.6668003170274 -3.7980133400844,51.6668236817039 -3.79736067281109,51.6668480658185 -3.79640983977165,51.666831164821 -3.79536176174674,51.6667672000334 -3.79522734795171,51.6667692569248 -3.79495373517998,51.6667608577692 -3.79452162779562,51.6668420830365 -3.79394695141505,51.6669362750131 -3.79366322716846,51.667000934774 -3.7933302748505,51.667102215077 -3.79315698940395,51.6672190326077 -3.79315573585489,51.6672235460741 -3.79309594835115,51.6673944540133 -3.79310240073942,51.6675579668554 -3.79314058860829,51.6678307580358 -3.79315107697604,51.6679484523144 -3.79311201417,51.6680946808988 -3.79312294628717,51.6682266615088 -3.79293138738909,51.6683186768928 -3.79262072360481,51.668507711666 -3.79240426885516,51.6687394454788 -3.79228318099422,51.6689706211875 -3.79213910268896,51.6691661000372 -3.79210748495744,51.6692079355394 -3.79196096223944,51.6693082509851 -3.79195538485181,51.6693119312685 -3.79174251738293,51.6694140691807 -3.79151058525728,51.6694742461595 -3.7913154958442,51.6694799221024 -3.79118619759143,51.6693911011053 -3.79101278787986,51.6693568914434 -3.79067001319344,51.6694304452914 -3.79064431839395,51.6694380294833 -3.79059714762879,51.6694513350115 -3.79057456091511,51.6694651636034 -3.79055042339954,51.6694790167612 -3.79050503606096,51.6695012845549 -3.79035964835444,51.6695548347265 -3.79017564206906,51.6696178736678 -3.79011289250667,51.6696413054926 -3.78999767446998,51.6696889104915 -3.78992654388987,51.6697205604087 -3.78989246652699,51.6697363626491 -3.78985985686576,51.6697530417087 -3.78985570873131,51.6697567009897 -3.78982316837511,51.6697751765277 -3.78977365390993,51.6698046990033 -3.78971662172252,51.6698613047316 -3.78971386907498,51.6698640443946 -3.78969846946372,51.6698787523225 -3.78968189841295,51.6698969841885 -3.7896637425886,51.6699143419068 -3.78964133093274,51.6699326628728 -3.78954685413304,51.669995234211 -3.78949345259033,51.6700320069578 -3.78943140849607,51.6700734067316 -3.78939041605157,51.670098304747 -3.78934938957791,51.6701223031465 -3.78930421344609,51.6701499617185 -3.78925227639046,51.6701876112484 -3.78919456204546,51.6702299340105 -3.78916514151742,51.670251957786 -3.78914952723409,51.6702611854638 -3.78914537900449,51.6702648447235 -3.78913117113345,51.6702704549575 -3.78910117206331,51.6702808012454 -3.78904325399855,51.6703149459188 -3.78902906911601,51.6703241517816 -3.78901496883521,51.6703324580293 -3.78900090246049,51.6703416620817 -3.78898124600682,51.6703572441447 -3.78893311028868,51.6704218050574 -3.78885287160406,51.6705129248792 -3.78881140779364,51.6705621916376 -3.78879210496739,51.670586757809 -3.78876478713277,51.6706258301644 -3.78874583658035,51.6706593804869 -3.78872838767662,51.6706947063541 -3.78870853827735,51.6707417551215 -3.78869807499257,51.6707697824815 -3.78868764708268,51.6707987085241 -3.78868521269745,51.6708095336193 -3.78868256458326,51.6708149675364 -3.78867739746682,51.6708321261623 -3.78867138285976,51.6708610748307 -3.78866466430092,51.6709115193609 -3.78866106817476,51.6709322509223 -3.78865612568184,51.6709521028913 -3.78864963523814,51.6709719793627 -3.78863903036669,51.670996412886 -3.78862298919614,51.6710281212842 -3.78858889605483,51.6710798824368 -3.78846491953386,51.6712382824475 -3.78844956482483,51.671251102077 -3.78843555644119,51.6712648004008 -3.78842309748741,51.6712784750998 -3.78840511755724,51.6713003242793 -3.78839696227082,51.6713112356928 -3.78838327218299,51.6713330194657 -3.78837675861316,51.6713493002858 -3.78836922617649,51.6713790813842 -3.78837003969905,51.6713997448108 -3.7883765018441,51.6714185245719 -3.78838594435864,51.6714372588934 -3.78840586979062,51.6714648229183 -3.78844518128712,51.6715092620259 -3.78847089835662,51.6715385361798 -3.78855067486703,51.6716173272449 -3.78862716672677,51.6716853812588 -3.78867625054716,51.6717205918147 -3.78873670688432,51.6717871817456 -3.78879243495233,51.6719517412007 -3.78881215583649,51.6720134697242 -3.7886499615994,51.672336963735 -3.7885763780495,51.6724154863591 -3.7885681734271,51.672428196984 -3.78855721591237,51.6724436463534 -3.78854196698222,51.6724591611576 -3.78852513321739,51.6724738018021 -3.78850826402205,51.6724875428629 -3.78850690528553,51.6724893620257 -3.78845904292789,51.6725215556071 -3.78841658305235,51.6725455755941 -3.78837828550338,51.6725632402444 -3.78824280696087,51.6726507076408 -3.78818910480868,51.6726829901514</coordinates></LinearRing></outerBoundaryIs></Polygon>
  </Placemark>
