  <Placemark>
	<Style><LineStyle><color>ff0000ff</color></LineStyle><PolyStyle><fill>0</fill></PolyStyle></Style>
	<ExtendedData><SchemaData schemaUrl="#Wards__December_2019__Boundaries_EW_BFE">
		<SimpleData name="objectid">2487</SimpleData>
		<SimpleData name="wd19cd">E05006398</SimpleData>
		<SimpleData name="wd19nm">Worksop North East</SimpleData>
		<SimpleData name="wd19nmw"></SimpleData>
		<SimpleData name="bng_e">459284</SimpleData>
		<SimpleData name="bng_n">381093</SimpleData>
		<SimpleData name="long">-1.11143</SimpleData>
		<SimpleData name="lat">53.32346</SimpleData>
		<SimpleData name="st_areashape">1496417.94223441</SimpleData>
		<SimpleData name="st_lengthshape">5780.94382892899</SimpleData>
	</SchemaData></ExtendedData>
      <Polygon><outerBoundaryIs><LinearRing><coordinates>-1.11914803821299,53.3316667775115 -1.11960119847984,53.3311721118134 -1.12080461445556,53.3299719949832 -1.12094782250899,53.3297987190335 -1.12104351146323,53.3296726303608 -1.12112404109105,53.3295492145111 -1.12117745077623,53.3294381801412 -1.12120450162366,53.3293628057169 -1.12123535211157,53.3291023437222 -1.12124529992873,53.3289855963692 -1.12125435423722,53.328031958341 -1.12118951881316,53.3269447789839 -1.1211715919028,53.3258461728556 -1.12115090503862,53.325099086685 -1.1210488047844,53.3239279670931 -1.12089430199466,53.3218728435091 -1.12082473101355,53.3209446804279 -1.12083225153714,53.3207290666061 -1.12084843727105,53.3205978974102 -1.12087259221568,53.3204462080887 -1.12090901180436,53.3202819396125 -1.12100790137984,53.319920434396 -1.12103653479371,53.3198460602998 -1.12110123288613,53.3196909858097 -1.12130502354796,53.3192718447838 -1.12134139298883,53.3191822512703 -1.12140956553495,53.3189301510684 -1.12142196406131,53.3188385837295 -1.12142715660833,53.3186579083922 -1.12139247042783,53.3181525361957 -1.12126184481663,53.3172742451217 -1.12121435534182,53.3170311767825 -1.12115864432418,53.3168932737841 -1.1210383485056,53.3166820135609 -1.12101000653153,53.3166036225758 -1.12099890792921,53.3165595071857 -1.12096687411399,53.3164378645126 -1.12094531959281,53.3163181860273 -1.12094213666579,53.3158884327087 -1.12095560069262,53.3156665682241 -1.12096006040247,53.3156000117149 -1.12095768550121,53.3154202658201 -1.12092509205464,53.3149642342797 -1.12090580409509,53.3143664054309 -1.12093658996688,53.3139638627329 -1.1209221682694,53.3137138435839 -1.12101851462601,53.3130412942753 -1.1212673356007,53.3123258371977 -1.12111892938178,53.3123211459566 -1.12061390283097,53.3126464054203 -1.11957368751615,53.3133784727766 -1.1190747749657,53.3137001770435 -1.11887851885906,53.3138255222955 -1.11871638537595,53.3139042999636 -1.11849825609424,53.3139979402116 -1.11797934023623,53.3141963794151 -1.11775819998468,53.3142917935106 -1.11758526662455,53.3143840598589 -1.11739517834883,53.3145039666561 -1.11699908382466,53.3147832919659 -1.1165048994019,53.3151679283792 -1.11634111079596,53.3153204700923 -1.11620911836941,53.3154614757243 -1.11569785397963,53.3159413274918 -1.11556836240918,53.3160329249861 -1.11526130845463,53.3162185487962 -1.11503850041311,53.3163220338672 -1.11485536985522,53.3163979549196 -1.11462241203939,53.3164833902238 -1.11448464280397,53.3165381716449 -1.11338591233076,53.3169722135295 -1.11287918223399,53.3171590368847 -1.11269116735519,53.3172492958962 -1.11094374197357,53.318410229702 -1.1088771779651,53.3197592651464 -1.10828334163689,53.3201619905135 -1.10804524416854,53.3203499095026 -1.10795340889237,53.3204327943158 -1.10775239563539,53.3206407600053 -1.10732113822572,53.321164219161 -1.10720237946719,53.3213152877327 -1.10694872517443,53.321672930762 -1.10669320205813,53.3219775390611 -1.10605945008496,53.3225642673806 -1.10557506008188,53.3229687023649 -1.10466418698722,53.3236648642593 -1.10353845364538,53.3245884672124 -1.10299812084358,53.3250078395644 -1.10247810787529,53.3253904289322 -1.10213155786201,53.3256646891158 -1.10191735159982,53.3259264660601 -1.10165471084871,53.326284032648 -1.10143085101656,53.326645487265 -1.10165846489928,53.3266004716797 -1.10174340563716,53.3265642678965 -1.10186578098031,53.3265256494688 -1.1022679394488,53.3264629888745 -1.10254268342399,53.3263958628177 -1.10280503321711,53.3263412238107 -1.10299683123264,53.3262860532808 -1.10337948022509,53.3261558449626 -1.10377807879702,53.3260501074287 -1.10384971302813,53.3263535770914 -1.10399044443277,53.3271645765246 -1.10411540910854,53.3277236587905 -1.1041593713067,53.3277761996167 -1.1045162755044,53.3277941587497 -1.10516038551813,53.3277945018801 -1.10575615176258,53.3278097564639 -1.10608950562282,53.3278113577241 -1.10629949295099,53.3278219183663 -1.10662922618598,53.3278486527276 -1.1074600911001,53.3279645094821 -1.10773401725816,53.328007897273 -1.10862954417144,53.3281935140554 -1.10904333662247,53.3282918623853 -1.11100070912649,53.328828757605 -1.11178363858083,53.3290845007476 -1.11310048306934,53.3294502492789 -1.11482941642128,53.3299214845182 -1.11540812819685,53.3304040257224 -1.11600369842083,53.3308623367853 -1.11726091450311,53.3312123152903 -1.11888504953776,53.3316738191415 -1.11914803821299,53.3316667775115</coordinates></LinearRing></outerBoundaryIs></Polygon>
  </Placemark>
