  <Placemark>
	<Style><LineStyle><color>ff0000ff</color></LineStyle><PolyStyle><fill>0</fill></PolyStyle></Style>
	<ExtendedData><SchemaData schemaUrl="#Wards__December_2019__Boundaries_EW_BFE">
		<SimpleData name="objectid">6096</SimpleData>
		<SimpleData name="wd19cd">E05011854</SimpleData>
		<SimpleData name="wd19nm">St Benet's</SimpleData>
		<SimpleData name="wd19nmw"></SimpleData>
		<SimpleData name="bng_e">638857</SimpleData>
		<SimpleData name="bng_n">317572</SimpleData>
		<SimpleData name="long">1.534039</SimpleData>
		<SimpleData name="lat">52.703098</SimpleData>
		<SimpleData name="st_areashape">23227201.7025563</SimpleData>
		<SimpleData name="st_lengthshape">30961.9647656274</SimpleData>
	</SchemaData></ExtendedData>
      <Polygon><outerBoundaryIs><LinearRing><coordinates>1.55385598857412,52.7245843668168 1.55370789659859,52.7247848299508 1.5536422652372,52.725071027864 1.55346793068859,52.7256950673835 1.55339149077454,52.7260301428317 1.55331848682223,52.7263714093202 1.55328495787941,52.7271603564587 1.55380092585343,52.7271664573074 1.55378208938729,52.7273342680337 1.55381523234474,52.7275779373635 1.55322558937995,52.7275596602938 1.55295105849646,52.7275364242514 1.5513543082198,52.727503382158 1.55028374576724,52.7274563483093 1.5500955865084,52.7266533655251 1.55003678860186,52.7264770028053 1.55008816157727,52.7261067139118 1.55022227185305,52.7256062636099 1.54942399735144,52.7254808347044 1.54838032154968,52.7252890202989 1.547776140622,52.7251650495729 1.54708971703951,52.7250119766826 1.54627376248468,52.7248520783177 1.54584071813735,52.7247913098701 1.54540977800793,52.7247564631494 1.54486177146597,52.724740494969 1.54402841342273,52.7247663302796 1.54363644552555,52.7248294001396 1.54332514268599,52.7248629901403 1.54317675331653,52.7248782193634 1.54238838650759,52.7250025058462 1.54230550002398,52.7250211698007 1.54222256351302,52.7250407337203 1.54173021143888,52.7252893306795 1.54015971797758,52.7253605555298 1.53847846628166,52.7254170850138 1.53842522286006,52.7248142536129 1.53845327740145,52.7242107924602 1.53842870737929,52.7236331806276 1.53837980861766,52.7231939581943 1.53732299964662,52.7230950537692 1.53693244096804,52.7230653546035 1.53493401217656,52.7229173029011 1.5334832077134,52.7228184319218 1.53230246187067,52.7227619343842 1.53157144713174,52.7227162936871 1.53078179235786,52.7226417349796 1.5295641362052,52.7224775104704 1.52841978653772,52.7223029078209 1.5273573524328,52.7221519300617 1.52604558618742,52.7218851792379 1.52605075185086,52.722150369949 1.52599680634783,52.7223444867094 1.5256318388732,52.7223562497828 1.52437889492935,52.7228728815168 1.52414438575217,52.7229590755431 1.52402552572533,52.7230102677319 1.52391613779634,52.7230683715934 1.52378753310264,52.7231441306732 1.5236698217381,52.7232277476108 1.52357655031106,52.723302455362 1.52343814493434,52.7234414472249 1.52322802753489,52.7237013524531 1.52308956686011,52.7239123686264 1.52299139133825,52.7241095082072 1.52284928925234,52.7243314227411 1.52267813250109,52.7245595958793 1.52250687462132,52.724751714785 1.52183932537552,52.7246663622083 1.52148283730183,52.7245987334124 1.52135148233157,52.7246601843254 1.52124668297736,52.7247010646764 1.52113701439634,52.7247375943599 1.52103537143735,52.7247630950058 1.52094336335418,52.724779316748 1.52084904783251,52.7247866163751 1.52076170850239,52.7247865149949 1.52061842815988,52.724772789626 1.51974280206933,52.7246243736893 1.51772001252191,52.7244317061388 1.51694956573546,52.7243394009463 1.51634684680517,52.724212528947 1.5162214909835,52.7241649974896 1.51607766743828,52.7240883421715 1.51597545474492,52.7240157563713 1.51438229729186,52.7233255404862 1.51397736018021,52.7231351518051 1.51390307200663,52.7230771114785 1.51379099949432,52.7230094025013 1.51372647625671,52.7229816446163 1.51364121700956,52.7229527029478 1.51353378196452,52.7229244190004 1.51344341854044,52.722906418045 1.51335820623104,52.722896267283 1.51323464140259,52.7228891427666 1.51299461482708,52.7228872691822 1.51253918187198,52.7228980779287 1.51201130330739,52.7229830557772 1.51160303379987,52.7230275300341 1.51140877098931,52.7230251968356 1.51107653875218,52.7229459377084 1.51092504179537,52.7229225542362 1.51076091288241,52.7229076370479 1.51062345872595,52.7228568624793 1.51055853453115,52.7228408027433 1.51044628495729,52.722827045832 1.51027633037226,52.7228140985678 1.51010249300417,52.7228075611589 1.50985568367531,52.7228139751837 1.50944432452322,52.7228747185851 1.50923108818442,52.7229493721348 1.50878110804514,52.7231390279853 1.50806252836337,52.7228419178478 1.50788700453968,52.7227778804916 1.50760404470889,52.7226854645957 1.50715900233094,52.7225655660682 1.5068043454737,52.7224852510484 1.50676531582546,52.7224783135509 1.50646618286514,52.7224232391722 1.50617379238395,52.7223806417779 1.50583230336554,52.7223152197408 1.50072022983156,52.7215561919558 1.4977260251768,52.7211427335178 1.49624101362742,52.720910533367 1.49516068419933,52.7207553013866 1.49460090312218,52.7206828007109 1.49458395456322,52.7204907906866 1.49459135526312,52.7203970600894 1.49461018413849,52.7202813227037 1.49463692940395,52.7201897187286 1.49467599441466,52.720104045384 1.49472862817176,52.7200215675596 1.49482095732567,52.7199162497904 1.49521659504065,52.7195843856929 1.49532968342917,52.7195172080702 1.49543427911204,52.7194736594762 1.49548994452846,52.7194657226667 1.49574860792653,52.7194580891214 1.49583961010106,52.7194293284023 1.49593888730698,52.7193742466079 1.49626280246846,52.7191092347511 1.4963231926447,52.7190687889887 1.49638948071297,52.7190272687838 1.49669376929911,52.7188680370564 1.49693650214826,52.7187179053101 1.49718441231022,52.7185027902418 1.49732408218439,52.7183970611168 1.49738448816097,52.7183385405453 1.49743052302191,52.7182652486358 1.49746150340744,52.7181717209404 1.4974818348417,52.7181297591313 1.49755095637538,52.7180306090014 1.49758388888519,52.7179980760279 1.49771188301181,52.7178944891125 1.49780209461627,52.7178010101582 1.49828171333458,52.7174279920018 1.49850987755511,52.7172440283023 1.49872925143764,52.7170783975662 1.49897855157694,52.7169189849902 1.49913690956943,52.7168423741472 1.4992388597607,52.716802496948 1.49940100022746,52.7167563451998 1.49948715192291,52.7167403122011 1.49958397021766,52.7167293595913 1.49978048270338,52.7167235532789 1.499975723904,52.716738464518 1.50059605859259,52.7168280320242 1.50090048630965,52.7169116474962 1.50096614138771,52.7169537657983 1.50101396356553,52.7169775287894 1.50111153148784,52.7170124995439 1.50114755926703,52.7170186281458 1.50119935924178,52.71701889491 1.5012626670441,52.7170134267702 1.50130746824172,52.7169995141789 1.50134440707965,52.7169804392783 1.50138337895236,52.7169486260693 1.50156038043928,52.7168471837123 1.50178716809182,52.7167757389263 1.50186389862448,52.7167716724575 1.50206287896286,52.7167783776465 1.50222842073278,52.7167563985182 1.50231205564443,52.7167638164474 1.50235704722549,52.7167903599557 1.50239029458915,52.7167983683316 1.50241990005061,52.7167974929035 1.50244887942145,52.7167903418518 1.50248711387468,52.7167676315 1.50255195240877,52.7166533192496 1.50257239925177,52.7166311348657 1.50260326581979,52.7166094509283 1.50266223288687,52.7165879262562 1.50274524447273,52.7165692863686 1.50284352272812,52.7165582870009 1.50305110819838,52.7165611401569 1.50308320452759,52.7165547952804 1.50324586881298,52.71647715205 1.50336137842255,52.7163856177197 1.50338734002586,52.7163758583355 1.50350810079041,52.7163498072108 1.50358044485871,52.7163458693654 1.50377199255203,52.7163527915152 1.50392962269772,52.7163418343396 1.50427365670041,52.7162371543909 1.50475684716321,52.7161302446555 1.50529130213204,52.7159606723677 1.50554681220599,52.7158972717595 1.50563061152292,52.715888497414 1.5057319340015,52.715897188244 1.50578326349415,52.7159083471852 1.50599521575111,52.7159838972676 1.50606777472114,52.7160024298177 1.50624115118072,52.7160035917037 1.50633978717851,52.7159970750114 1.50639566198477,52.7159918241388 1.50680871066423,52.7159148562787 1.50698629978721,52.7158772280932 1.50709193549807,52.7158651087961 1.50722540245318,52.7158665515168 1.50730407519268,52.7158867011176 1.5073414935766,52.7158918872346 1.50737847839302,52.7158916914596 1.50741481646008,52.7158834218464 1.50745808108383,52.7158686529679 1.50756183479515,52.7158133394832 1.50773441144809,52.71574978352 1.50792326035503,52.7156668620474 1.5077947736319,52.7154871488294 1.50772949466768,52.7154117535823 1.50766215469409,52.715347209677 1.50762077755558,52.7153124690432 1.50749883331816,52.7152324585283 1.50686250044963,52.7148887582075 1.50671584547191,52.7147959908509 1.50659812280841,52.714712257673 1.5064883015038,52.7146174101845 1.50639272375177,52.7145159367344 1.5062456543042,52.7143251722389 1.50618737105467,52.7142638662624 1.50608002810601,52.7141816232663 1.50599212764345,52.7141194859151 1.50583643995793,52.7140251860505 1.50548092993387,52.7138207193596 1.50515469420398,52.7136675363285 1.5043187232006,52.7132533915822 1.50411076409442,52.7131345610001 1.50396579072071,52.7130443480207 1.50390428553861,52.7129976133369 1.5038486519079,52.7129129392154 1.50377270279384,52.7126678268631 1.50383746038369,52.7125526167209 1.50393162272289,52.7124706147257 1.50403892600416,52.7123865158813 1.5041069199395,52.7123116720004 1.50412518193982,52.7122805604497 1.50413646918127,52.7122370660783 1.50413687468088,52.7121858024748 1.50412377964365,52.7121519319212 1.50408008239195,52.7121064684157 1.50397979823773,52.7120375015591 1.50390281218133,52.7120002163725 1.50384020436874,52.7119777914113 1.50374984624794,52.7119579852844 1.50362279164082,52.7119617438134 1.50341774414244,52.7119902884205 1.50296596891498,52.712027028636 1.50265776379549,52.712005572423 1.50228815265168,52.7119949227015 1.50216855046626,52.7120002572337 1.50204525961425,52.712012895162 1.50189631942048,52.7120406766361 1.50169750490768,52.712090613704 1.50103094910408,52.7121076212709 1.50074484036385,52.7121043893071 1.50056615822634,52.7120916866194 1.50040406270677,52.7120650066823 1.50026648562765,52.7120304092855 1.50013284297152,52.7119885010146 1.49921549182293,52.7116854350503 1.49895355286963,52.71159516576 1.49845017179306,52.7114113208916 1.49824697014273,52.711351594292 1.49812778307025,52.7113056600415 1.49795992048909,52.7112251981721 1.49769189852433,52.7110603847338 1.49759093378837,52.7109644582067 1.49748541435314,52.7108848511164 1.49734666727237,52.7107989425045 1.4972366159475,52.7107374528748 1.4968977612308,52.7105739196821 1.49673881442115,52.7104751190907 1.49662836096209,52.7103902622182 1.49654431915297,52.7103028267033 1.49650602613756,52.7102500082942 1.49641166063436,52.7100701744808 1.49634411518817,52.7098913468108 1.49629813145652,52.7098171747399 1.49596905259677,52.7095345715074 1.49580310834379,52.7093497472837 1.49552011907569,52.7089029447379 1.4953972875755,52.7089227539312 1.49529828076258,52.7089427602197 1.49486589234014,52.709018550907 1.49352732371781,52.7090931085525 1.49275983104406,52.7091436179977 1.49215928750366,52.7091900995524 1.49124359154093,52.709294422268 1.49060883546615,52.7093742743845 1.49008414665371,52.7094059215433 1.48983226966885,52.7094412171409 1.48978836549262,52.7100595130788 1.48975027192628,52.7102873135666 1.48967849004538,52.7105565686455 1.4898215858286,52.7106054027573 1.49011116029041,52.7106903834551 1.49025791041308,52.7107284090086 1.49067190220857,52.7108133178026 1.49097870470105,52.7109274604133 1.49115257943616,52.7109717889825 1.49142249466829,52.7110322585547 1.49154227660926,52.7110673916888 1.49167609601919,52.7111299846982 1.49171683361516,52.7111584554979 1.49174901630523,52.7111898767384 1.49179180409867,52.7112623467932 1.491825755469,52.711445763147 1.4918156221722,52.7116520588664 1.49176532521302,52.7118019031258 1.49165548145323,52.7120210300874 1.49161052492713,52.7120879938997 1.49153900533735,52.7121755216063 1.49149539540829,52.7122226648085 1.49074305542062,52.7127233727425 1.49061912232797,52.7127845707602 1.49055715134807,52.7128250611794 1.49051407074231,52.7128604986884 1.49047171239468,52.7129049963016 1.49042807260745,52.7129701228953 1.49039288849084,52.7130493864546 1.49037114743984,52.7131471361969 1.49027243617219,52.7133758236637 1.49024871040387,52.7134502542379 1.49019462123808,52.7135328620998 1.49014400653625,52.7135856058767 1.48975016533651,52.7138832327329 1.48910752916398,52.7140334420043 1.4883678562414,52.7141919003399 1.48748981127909,52.7144174602247 1.48705452748856,52.71454806511 1.48670256305014,52.714685298004 1.48635059827232,52.7148026581581 1.48553804415673,52.7150136865224 1.4853183935602,52.7149895789165 1.48493598317223,52.7148937411403 1.48420191702182,52.7148074383942 1.48360106314072,52.714757674365 1.48306237193887,52.7146880964388 1.48286460613813,52.7146030071227 1.48278383997348,52.714574810902 1.48261835155845,52.7145239293055 1.48245379305162,52.7144847089305 1.48237103424614,52.7144682598084 1.48157102059235,52.7143541172012 1.48138301352059,52.7143362642602 1.4812329198812,52.7143298848165 1.48103291975934,52.7143285693447 1.48060023936894,52.7143448795588 1.48027906123056,52.7143660045016 1.48037147288039,52.7140008391804 1.47916495066648,52.714007506687 1.47827632883305,52.7140255093599 1.47780187127734,52.7140385398236 1.47780048140829,52.7140394800403 1.4775696345592,52.7140786268065 1.4773328993082,52.7140621976217 1.47611923996587,52.7140159934425 1.47578952458628,52.7140049877272 1.47536992185825,52.7139984160805 1.47476933321437,52.7139700866167 1.47463180832619,52.7139543396195 1.47445091415563,52.7139137877835 1.47425587047098,52.7138457778442 1.47337895788018,52.7134703785958 1.47268000997956,52.713155395307 1.47225828851058,52.7129914326704 1.47206772462368,52.7129412707374 1.47164533819214,52.7128826169484 1.47109426126395,52.7128240449143 1.47041426192416,52.7127657413164 1.46927947723894,52.7126865856804 1.46748497096808,52.7126537057305 1.46645474499346,52.7126226246368 1.46589699713468,52.7125921881798 1.46576119219565,52.7125610942293 1.46543784506954,52.7124608569691 1.4650500477636,52.7123885788507 1.46436579334682,52.7123518538709 1.46392308044957,52.7123153458873 1.46326632874111,52.7123066730531 1.46304673436876,52.7123014035641 1.46282065363728,52.7122882303674 1.46259562728128,52.7122714291824 1.46224293114318,52.7121936200973 1.46192310187319,52.7121561207776 1.46169586169869,52.7121853298436 1.46124414756668,52.7123711652613 1.46119798635752,52.712368018652 1.46079543655671,52.7123159386416 1.46034639646424,52.7121994872519 1.46020051687767,52.7121336139425 1.45969676708934,52.7118874820694 1.459571398245,52.7119325942432 1.45926074630236,52.7117302755807 1.45892920460188,52.7116958975206 1.45873419165972,52.7115522415332 1.45846168934042,52.7114199296366 1.4582720408479,52.7113625252332 1.45793529985016,52.7112994332878 1.45773464450086,52.7112711222983 1.45752830578056,52.7112465735771 1.45711320179505,52.711203839037 1.45684834186379,52.7111495265621 1.45707012149185,52.7106222668483 1.45631861646866,52.7100883384529 1.4561408214604,52.7099568550321 1.45605580491852,52.7098730163382 1.45601604819074,52.7098211263565 1.45598166647588,52.7097599982347 1.45595257205309,52.7096916123352 1.4559257057536,52.7095773050983 1.45592806434807,52.7094944241724 1.45598722258588,52.7091941802591 1.45599661547779,52.7090319695637 1.45593523622423,52.7087792104977 1.45566504207375,52.708246522717 1.4551185271238,52.7083758464883 1.45379028437691,52.7087698325286 1.45352119061952,52.7085689842569 1.45328413536203,52.708399661107 1.4532204325625,52.708287235681 1.4531429507417,52.7080745978174 1.453071390727,52.7079183429592 1.45310709047896,52.7078633531816 1.45329156706612,52.7077258005839 1.45340494701052,52.7076603643589 1.45337782263606,52.7075056024688 1.45331135630566,52.7074508935149 1.45321685771308,52.7074725303431 1.45319494598939,52.7074578836278 1.45317407004267,52.7074378111684 1.45309392830961,52.7073042853804 1.45307377591085,52.7072176554191 1.45312734114709,52.7071090950894 1.45321326042602,52.7069959049418 1.45318929342031,52.7069552434045 1.45315650368157,52.7069157375501 1.45298541814093,52.7068487916466 1.45286786737902,52.7067856815766 1.45291787360513,52.7067247902568 1.45296601811206,52.706621782641 1.4530719572607,52.7066321821986 1.45325427749218,52.7065971952528 1.45336758244696,52.7065138674777 1.45343689496242,52.7064902673996 1.45347217271021,52.7064685588863 1.45350270977143,52.7064424924245 1.45350365874922,52.7063803336496 1.45352633941556,52.7063491006658 1.45361273691824,52.7062620618216 1.45342862953883,52.7060488459288 1.4532557522973,52.7059792562598 1.4532201074512,52.7059020693123 1.45321673004737,52.7057465243034 1.45309321070246,52.7056449247225 1.45305954568105,52.705575771995 1.45308165072053,52.7054986096119 1.45289373490125,52.7053143668683 1.45284154120908,52.7052718297906 1.45267631753856,52.7052604606716 1.45262921736017,52.7052267664291 1.45260701387925,52.7051697777029 1.45223810533719,52.7051670425153 1.45212724605889,52.705207138088 1.45204484349302,52.7051762702912 1.45202879550176,52.7050859238389 1.45187731301406,52.7050058179893 1.45173498591314,52.7049659068359 1.45163646297165,52.7049921558737 1.45152901532592,52.7049826984502 1.45149163155286,52.7049406286988 1.45146145889227,52.7048955606711 1.45143671251399,52.704806366997 1.45139222132894,52.7046943702894 1.45147875166755,52.7045703742715 1.45156416437865,52.7045265245857 1.45162988233305,52.7044589718788 1.45158803996935,52.7042676827247 1.45144513379935,52.7040704367561 1.45125862881914,52.7035838559526 1.45126381428024,52.7033480375752 1.45125494208205,52.7033114302412 1.45120044530228,52.7030711465548 1.45219589938131,52.7030205610511 1.4538173460446,52.7028554183052 1.45504590961622,52.7027377684964 1.45558033318033,52.7026988014568 1.45584817131481,52.7026972819888 1.45600413846688,52.7027044204642 1.45621590871164,52.7027225196211 1.4563728691042,52.7027422167649 1.45646163612816,52.7027594082817 1.45666298812489,52.7028155741377 1.45699165680258,52.7029472396859 1.45716559183864,52.7030302805014 1.45753003463751,52.7032391266797 1.45800389172213,52.7035949360846 1.4589946434132,52.7044582392615 1.45942795359324,52.7048628833618 1.46057989119594,52.7056117701592 1.46062147666426,52.7056312354632 1.46068671090308,52.7056518087076 1.46076645153652,52.7056674619703 1.46082609517868,52.7056729129868 1.46095728669355,52.7056645840165 1.46105498353316,52.7056464441858 1.4611318115819,52.7056253172664 1.46130138531431,52.7055420464593 1.46176220865007,52.7052470562649 1.46209776108081,52.7049396295405 1.4623641505288,52.7045836917178 1.46266232028136,52.7041235116114 1.46279692298157,52.703803883685 1.46300296184531,52.7031332064698 1.46323697892951,52.7025183566032 1.46353551381062,52.702044585666 1.46404333920692,52.7012958469128 1.46444800511677,52.7008352445035 1.46467952756426,52.7004696201257 1.4649110893201,52.7001030055888 1.46507160065431,52.6997178777924 1.46526397563962,52.6993066412172 1.46533592248411,52.6992056289249 1.46541124281048,52.6991287057826 1.46549998801786,52.6990532776834 1.46560576262598,52.6989863426939 1.46584063469302,52.69886797582 1.46604026440371,52.6987901122353 1.46677489134,52.6985519171242 1.46737453092054,52.6983463521064 1.46829773364306,52.6978912352486 1.46840688285926,52.6978115207271 1.46847445110403,52.6977492985857 1.46852158235435,52.6976894736876 1.46855793403023,52.6976245688518 1.46857789651213,52.6975592454236 1.46858146120588,52.6974934128232 1.46856906870559,52.6974110530935 1.46857373055339,52.6973021190648 1.46856785561193,52.6972465436765 1.46855269524988,52.6971677718087 1.46853034045309,52.6971090822502 1.46848181882949,52.697020586976 1.46836339952085,52.6968711084628 1.46813634227311,52.6965476767843 1.46767686355399,52.6959423305521 1.46761596325195,52.69584700474 1.46751311190064,52.6956521115957 1.46743252224574,52.6954377743364 1.46740466508137,52.6953297014886 1.46739662136909,52.695265198106 1.46740107274008,52.6951535729499 1.46751348644761,52.6946672549401 1.46758089515849,52.6945645760171 1.46765585666606,52.6944832555536 1.46773363040803,52.6944189370594 1.46794456187948,52.694260714675 1.46807579971164,52.6941795441279 1.46821795793219,52.6941052480735 1.46837241727273,52.6940367948877 1.4685364842443,52.6939771415219 1.46870418524626,52.6939263738352 1.4688857990915,52.6938832904644 1.46902993036602,52.6938538928096 1.46927157775044,52.6938198408092 1.47090203874684,52.693716324407 1.4711292551671,52.6936880861569 1.47127321325987,52.6936550041195 1.47140875404192,52.6936096712433 1.47151727053067,52.6935606332068 1.47160192933423,52.6935077990701 1.47171423990898,52.6934127930057 1.47182581703596,52.6933438841463 1.47188832612932,52.6932934079342 1.47193220300855,52.6932480630692 1.47196006978602,52.6932085821832 1.47207401519438,52.6929282115959 1.47212807168077,52.6927144263145 1.47214422704832,52.6925259391282 1.47213646253332,52.6924281584516 1.47211356662817,52.6923073529269 1.47206470425212,52.6921577277499 1.47185067648842,52.6912160196676 1.47184042922563,52.6910669704576 1.47184711559308,52.6909283041913 1.47186122773856,52.6908262854556 1.47191066228963,52.6906664953254 1.47198241870328,52.6905250221766 1.47209441344183,52.6903508089307 1.47218598161104,52.6902375280308 1.4722284146659,52.6901940241575 1.47239799735964,52.6900549884269 1.47279985467985,52.6897841584967 1.47295544012745,52.6896932777817 1.47312208624109,52.6896110630633 1.47330935981602,52.689527344675 1.47349194215502,52.6894598585954 1.47396531692767,52.6893075045196 1.47411322086243,52.6892689983336 1.47422376901593,52.6892441759559 1.47451339718841,52.6892015110166 1.47473232076304,52.689179802925 1.47487368902093,52.6891711601317 1.47518369414617,52.6891791479904 1.47583112765852,52.6892806370023 1.47583258813002,52.6892805941418 1.47654416473182,52.6894980760885 1.47694261235597,52.6896698084444 1.47768341241453,52.6901256920079 1.47952375227163,52.6913595959055 1.48002585059551,52.6917153876784 1.4802227311842,52.6918643482788 1.48079141540045,52.6923143900343 1.48115431668165,52.6925771587524 1.48145232888724,52.6927699011095 1.48169677567461,52.6929029834827 1.48196286239376,52.6930273368407 1.48205772419916,52.693065999118 1.48224681281277,52.693136868118 1.48240936560294,52.6931887353504 1.48253045964269,52.6932211403376 1.48283560792266,52.6932796039759 1.48320006893935,52.6933211257883 1.48340993337411,52.6933356342338 1.48380030048311,52.6933484284317 1.48417263448453,52.6933401721737 1.4846077438061,52.6933201767668 1.48535034690197,52.6932578619739 1.48553070448261,52.693254352687 1.48570677064328,52.6932536658884 1.48610731387249,52.6932823379637 1.48648025888007,52.6933001323504 1.48676209610193,52.6933080197729 1.48779914378994,52.6932999613207 1.48795559133445,52.6932935548374 1.48811009934787,52.6932827099841 1.48826130474114,52.6932656680827 1.48838098061097,52.6932450594351 1.48850458810995,52.6932171413092 1.48866241375314,52.6931729285443 1.48881965932909,52.6931214500697 1.48894890509132,52.6930708862254 1.48907029262492,52.6930151590479 1.48916537217146,52.6929647021397 1.48923738030015,52.692920319623 1.48932269079024,52.6928575621615 1.48941379490289,52.6927756625084 1.48951896090193,52.6926466812451 1.48959562039521,52.6925122457429 1.48967396347314,52.6923255187861 1.48970929448525,52.6921932004395 1.48972145980199,52.692105533662 1.48972447464534,52.6918833523954 1.48971116373539,52.6917532759328 1.48969453013085,52.6916197914466 1.48963026606191,52.6913329646861 1.48946710371397,52.6908835159026 1.48940421683899,52.6907271171497 1.48925111819779,52.6903853611002 1.48918516985782,52.690207381855 1.48913796676554,52.6899874896361 1.48912374880827,52.6898827062835 1.4891176815325,52.689751607751 1.48912056700804,52.6896210540194 1.48914070485473,52.6895017716595 1.48917933757128,52.6893557784935 1.48923788724867,52.6891993975163 1.48930565376536,52.6890652240969 1.48937819619095,52.6889541985505 1.48946748930475,52.6888481640332 1.48954136788069,52.6887722554747 1.48969176588144,52.6886535408375 1.48978326876596,52.6885950966386 1.49003735609831,52.6884590287457 1.49035130255947,52.6883130131294 1.49064078761412,52.6881938835774 1.49099535694739,52.6880737341098 1.49118036989188,52.6880187363572 1.49136989331246,52.6879636952733 1.49249335157535,52.6876670235836 1.49311460835457,52.6875138248024 1.49358876638286,52.6874090222554 1.49390622822907,52.6873439085048 1.49426488188578,52.687276589093 1.49489152830311,52.6871726764172 1.49561641027422,52.6870748530694 1.49602699697295,52.6870267655729 1.49635613536942,52.6869963679494 1.49668891412222,52.686974852516 1.49705505799802,52.6869631420941 1.49742048101739,52.6869622412687 1.49769351119845,52.6869703615125 1.49789146832676,52.6869842963187 1.49808693386072,52.6870036991166 1.49819896623062,52.687017474133 1.49851690933414,52.6870683240201 1.49927379753457,52.6873904290741 1.49952009727434,52.6875082236843 1.49971285228113,52.6876050311755 1.49978437867056,52.6876478756091 1.49985698062837,52.6877041759208 1.49993061029143,52.6877748311458 1.49998482416992,52.687840756327 1.50002877555284,52.6879095922422 1.50008240024226,52.6880428816071 1.50020640397659,52.6892597397256 1.50023076911939,52.6893598157659 1.50027639564674,52.6894861479045 1.50034135379044,52.6896146068477 1.50041075483388,52.6897223430921 1.50047133328343,52.689796082078 1.50059014917184,52.6899112590245 1.50072708200155,52.6900134019184 1.50088398927596,52.6901058735793 1.50107311974886,52.6901937946498 1.50127430689117,52.6902661632277 1.50146933139672,52.6903179433746 1.50157018652054,52.6903383388555 1.50172156515922,52.6903617364127 1.50190823127658,52.6903822922835 1.50205838888413,52.6903904398665 1.50218851896077,52.6903892886524 1.50233132291554,52.690378770935 1.50246605372556,52.6903603997402 1.50260416126878,52.6903293393155 1.50276014200886,52.6902806664325 1.50290936450465,52.6902223023257 1.5030506992516,52.6901568887547 1.50317280359451,52.6900921329622 1.50328565997192,52.6900231553314 1.5033823943423,52.68995555399 1.50343916942943,52.6899071178397 1.50357247687761,52.689723250794 1.50367553378887,52.6896051089299 1.50378902753317,52.6894892646735 1.50408970841743,52.6892330076115 1.50419987720664,52.6891488229207 1.50438018923084,52.6890337889074 1.50454859404259,52.6889559725006 1.50462347812361,52.688929479037 1.50471761413408,52.6889041237242 1.50481662204808,52.6888832102871 1.50492044398047,52.6888675490071 1.50504664036013,52.6888539227185 1.50517487233036,52.6888474296133 1.50530368093641,52.6888481119745 1.50543160293935,52.6888560140172 1.50553923687042,52.688868114223 1.50575738276435,52.6889129976857 1.50585471675326,52.6889442841103 1.50598137031038,52.6889926863098 1.50610115198706,52.689046685679 1.50624599042558,52.6891179269412 1.50636211507458,52.6891811167014 1.50645149805397,52.6892441088593 1.50672693376684,52.689466138774 1.50681354514149,52.6895311015343 1.50688364237296,52.6895757820544 1.50709966086211,52.6896853765614 1.50722095544447,52.6897384315009 1.5074133353788,52.689811950007 1.50767523011028,52.6899031001116 1.50821551113059,52.6900688157672 1.50844559065234,52.6901330336701 1.50864184560165,52.6901802694112 1.50880276314409,52.6902114674051 1.50894963935228,52.6902349891616 1.50910343969359,52.6902520122883 1.5094589274983,52.6902729480299 1.51012905353552,52.6902863543572 1.51041458675511,52.6902841842082 1.5106417377007,52.6902738532891 1.51091533595846,52.6902522538551 1.51119573648935,52.6902241588224 1.51137588161342,52.6901999345845 1.51149254285604,52.6901784911765 1.5116987971198,52.6901283155379 1.51180680556116,52.6900918436241 1.51194427776104,52.6900347158583 1.51207532844306,52.6899705847976 1.51275191513984,52.6895843757968 1.5128179260785,52.6895401563453 1.51288936984408,52.6894723978663 1.51293910353368,52.6893729131542 1.51298493978551,52.6892248996164 1.51300815061856,52.6891082186456 1.51300564847898,52.6888735199212 1.51299175575319,52.6887750242609 1.51295124977606,52.6886764187136 1.51291055285521,52.6886118970813 1.51286119153035,52.6885504197908 1.51279323881297,52.6884778042006 1.51268597011929,52.6883775823204 1.5116073677154,52.6875901641778 1.51061471006342,52.6868406509144 1.51014734358701,52.6864578841202 1.5099367351008,52.6862483276947 1.50986830271301,52.6861711394667 1.50956939355765,52.6857842764659 1.50945624977556,52.685592420915 1.50937035200116,52.6854070412888 1.50928061068336,52.6851920127069 1.50922365108225,52.6850174642443 1.50919027956835,52.6848601107192 1.50916364960622,52.6845829673981 1.50917492195451,52.6843721386379 1.50921058966434,52.684208332756 1.50935376806819,52.6838164586334 1.50942485278877,52.6836515130012 1.50950253634036,52.6835125377483 1.50961726342517,52.6833561884935 1.50978128789285,52.6831678973003 1.51016776899484,52.6828200625295 1.51045811301734,52.6825470099063 1.51071430650315,52.6823289192279 1.51090750239549,52.6821910132947 1.51101783658008,52.6821274973483 1.51116286852673,52.6820538708979 1.51186990057212,52.6817351887352 1.51202694022596,52.681681975448 1.51224512812449,52.6816350411437 1.5124592727916,52.6816107056871 1.51252573775894,52.681608733998 1.5127834336747,52.6816298625604 1.51285011476594,52.6816305816512 1.51292060146468,52.6816239941997 1.51309381049232,52.6815882837431 1.51327313402957,52.6814813577436 1.51427670563204,52.6816296106193 1.51494618202987,52.6817474008918 1.51528918436917,52.681817244321 1.51541589559086,52.6818467511541 1.51567135708443,52.6819128983758 1.51586971436831,52.6819699503106 1.51600355204081,52.6820137211588 1.51632858553668,52.6821362465711 1.51649001821282,52.6822105792142 1.5166154073685,52.6822797779096 1.51678811181818,52.6824032293858 1.51720750059131,52.6827415372582 1.51738017947281,52.6829010457279 1.5174525974844,52.6830094922733 1.51747531712105,52.6830537751189 1.5175042540607,52.6831374371868 1.51751156502074,52.6832101427133 1.5175010734847,52.683281489212 1.51742824940501,52.6834805701027 1.5173619701576,52.6835941253329 1.51717242546392,52.6838516128844 1.51712591194972,52.6839348188387 1.51710523424645,52.6839902826922 1.51708890360591,52.6840815836298 1.51708226335497,52.6842023596013 1.5170949958703,52.6843242681381 1.5171256467978,52.6844474423785 1.51717045765389,52.6845630932425 1.51722850912728,52.6846764619904 1.51727502637239,52.6847587033523 1.51736516099141,52.6848855952496 1.51746185016945,52.6850014138226 1.51786174010932,52.6854473897924 1.51799571582867,52.68560346114 1.51807015456013,52.6857020462604 1.51812154024459,52.6857886379918 1.51817341421191,52.6858994924806 1.51821633473631,52.6860098043964 1.51828830407233,52.6862612310389 1.5183214684792,52.686341260442 1.51837424359664,52.686426911363 1.51849984349244,52.6865895252384 1.51856766383414,52.686660432646 1.51869126106312,52.6867799460195 1.51880088391711,52.6868728989893 1.51888619152801,52.6869396897448 1.5189280963205,52.6869645205464 1.5189429710122,52.6869658764442 1.5196134338843,52.6867444465535 1.52090679891124,52.6864280617075 1.52113617387789,52.6863547023095 1.52201312517437,52.6860336036954 1.52240535831442,52.6859050439967 1.52250312214245,52.6858688667793 1.5226650371101,52.6858019174818 1.52280183103456,52.6857367038193 1.52313608897037,52.6855505214108 1.52323517634162,52.6854944322574 1.52331668968451,52.6854398553214 1.52340166902425,52.6853752832956 1.52349421103387,52.6852925039218 1.52361491455618,52.6851548461723 1.52365418326307,52.6850727516646 1.52373353047625,52.6848095412991 1.52400956646632,52.6842310734021 1.52410368482581,52.6838559256352 1.52416747445612,52.683710160101 1.52426044311485,52.6835418561413 1.52438445920426,52.6833727178974 1.52449591413264,52.6832506192858 1.52460982598006,52.6831393286927 1.52479293719525,52.6829873125204 1.52509596583074,52.6827803839466 1.52541684357323,52.6825936045424 1.52567988655685,52.6824598883979 1.52613387300126,52.682254756105 1.52626574721738,52.6822013736957 1.52640097541992,52.6821532869095 1.5265468407445,52.6821084799574 1.52670631370597,52.6820659648938 1.52686901964237,52.6820287489774 1.52723500930113,52.6819611989039 1.52747502446149,52.6819278824178 1.52871089152204,52.6818011400295 1.52932374144381,52.6816929562199 1.52958634957876,52.6816644475734 1.52981766459323,52.6816503581862 1.52991964590987,52.6816500152509 1.53014117979039,52.6816613945337 1.53035639723699,52.6816882466258 1.53059280281456,52.6817387448045 1.5308665011363,52.6818294915414 1.53097376740897,52.6818749383098 1.53111110124524,52.681943675718 1.53122732860025,52.6820094447366 1.53140625416561,52.6821353880504 1.53149842859165,52.6822145534444 1.53169779616116,52.6824289039949 1.53198598407771,52.6827171236457 1.53201912642903,52.6827422112407 1.53217176871969,52.6828357575664 1.53242317675587,52.6829631330393 1.53262988713717,52.6830658552779 1.53292726362558,52.6831927576423 1.53306878015593,52.6832406865889 1.5332264876188,52.6832881331257 1.5338861022222,52.68344747318 1.53421994485801,52.6835121398919 1.5345732752179,52.6835627360883 1.53483527818376,52.6835809908031 1.53498047691951,52.6835838495894 1.53536013774931,52.68357521151 1.53569897544186,52.6835552028297 1.5358821448608,52.6835326492381 1.5360943381949,52.6835038328939 1.53629646161534,52.683459131676 1.53644107781524,52.6834170471558 1.5366295786091,52.6833502727782 1.53676989263032,52.6832912325743 1.53685948782065,52.683246294768 1.53696549162742,52.6831854918728 1.53706536994678,52.6831213640875 1.53713651450126,52.6830670871024 1.53721526360112,52.6829981956054 1.53729852477763,52.6829111860453 1.53736960875076,52.6828199540292 1.53740264733889,52.6827713106597 1.53747812655762,52.682624288711 1.53750745760959,52.6825298086772 1.53753481036985,52.6822826185913 1.53755756437859,52.6821973266467 1.53760448614111,52.6820457621277 1.53764636079341,52.681941915661 1.53769273634417,52.6818560078503 1.53780459706646,52.681683621176 1.53784113803512,52.6816420666552 1.53792262737263,52.681569405983 1.53802381719539,52.6815034401581 1.53814189806327,52.6814441631399 1.53827085543521,52.6813926531463 1.5383946961889,52.6813502875259 1.53850044119408,52.681321051011 1.5393089599905,52.6811628185793 1.5394580842557,52.6811403775445 1.53980457690447,52.6811066401052 1.53991286938644,52.6810908140134 1.54002898310824,52.6810630649685 1.54013582489409,52.6810292988161 1.54023772652453,52.6809902845902 1.54060457517395,52.6808236684461 1.5411445474658,52.6805286854677 1.54191339917794,52.680118953779 1.54216974850412,52.6799952904748 1.54232148267195,52.6799313155513 1.54300177701271,52.6797059490213 1.54313865776126,52.6796604906855 1.54353679356831,52.6796242981102 1.54382582585373,52.6796300337531 1.54401946851367,52.6796647003713 1.54410895367996,52.6796728122695 1.54411333679435,52.6796726810663 1.54446328685852,52.6797179538442 1.54544418931943,52.6798234609915 1.5456903007588,52.6798656352847 1.54591775390469,52.6799154715914 1.54615072834381,52.6799777305633 1.54701457176902,52.6803188079265 1.54736021850677,52.6804748899094 1.54764777614937,52.6806263272969 1.54772700205219,52.6806734087337 1.54795392709705,52.6808249532663 1.54809923028296,52.6809374920951 1.54858387057002,52.6812575518567 1.54869594079995,52.6813244180471 1.54891021923337,52.6814312918201 1.54902367645217,52.6814791443843 1.54921374413448,52.6815417842342 1.54933928368245,52.6818663106902 1.54932460521928,52.6822688623051 1.54941762637185,52.6830512343741 1.54950095160404,52.6838960299285 1.54961372957152,52.6844826884469 1.54968131136948,52.6852055790938 1.54976919417801,52.6865799424053 1.54975078893313,52.6871921144498 1.54976519151871,52.6875514426228 1.54970812844126,52.6876332703418 1.54957020088613,52.6879216341908 1.5494901528892,52.6881578199155 1.54938873727828,52.6883848449493 1.54897276702917,52.6890413028347 1.54882594316797,52.6892382161902 1.54839822819311,52.6896764345694 1.54810648007669,52.6900035753066 1.54789083389279,52.6902097432817 1.547394955639,52.690611335343 1.54713425786665,52.6908098598612 1.5469032216208,52.6909723382778 1.54652900832988,52.6912129263593 1.54605074274366,52.6915942027916 1.54521792287727,52.6923323651119 1.54487556645486,52.6928562233757 1.54480241401422,52.692994187887 1.54473174464135,52.6932184900258 1.54466104493981,52.6935884586858 1.54463767646897,52.6938482098246 1.54463326504928,52.6940120816179 1.54465107705084,52.6942498294777 1.54466945053086,52.6943680602341 1.5447047083779,52.6945108734162 1.54475017904883,52.6946516710533 1.54481830550045,52.6948159797897 1.54485437301799,52.6949687487875 1.54487767856876,52.6950363881452 1.54490224943296,52.695103090189 1.54501127452304,52.6953337020199 1.5451418713894,52.6955563843567 1.54526368069863,52.6957263684113 1.54549962621448,52.6959882469902 1.54568798860472,52.6961751206565 1.54616559578394,52.6965871174925 1.54637132798768,52.6967517999591 1.54657682771651,52.69691208273 1.54700395063777,52.6972131916883 1.5475575852686,52.6975599636433 1.54811272867032,52.6979417558631 1.54953847430909,52.6987804911673 1.5501594433957,52.6991171410191 1.55066076175355,52.6993647597735 1.55207850351182,52.699976123759 1.55343476673709,52.7005605421805 1.55381209067999,52.7007210518039 1.55415594930863,52.7008528023708 1.55454029689518,52.7009735355485 1.55632532133772,52.7014028913573 1.55729612160619,52.7015788363564 1.55881671538207,52.7018875156847 1.55917867130655,52.7019503708309 1.55954435450878,52.7020050197344 1.55990186383607,52.7020492135511 1.56020205422543,52.7020806521836 1.56053907243185,52.7021100833699 1.56097388255335,52.7021410693608 1.5611880964286,52.7021526111636 1.5615916819451,52.7021629537024 1.56188152215059,52.7021587327502 1.56360338739358,52.7020844516762 1.56373091509687,52.7020689249981 1.56384670408231,52.7020546499819 1.56487963612791,52.7019021717098 1.56572960795488,52.7016858656994 1.56645941480419,52.7015380038413 1.56808079586207,52.701339809592 1.56833156033447,52.7013295563917 1.56849727766623,52.7013272602795 1.56868700941694,52.701330534522 1.5688727969998,52.7013393230482 1.56902655908059,52.7013535718584 1.5696293152799,52.7014290089284 1.57024399223769,52.7014680260079 1.57051486090127,52.7015021213594 1.57067768936152,52.7015376748854 1.5708321395855,52.7015797750857 1.57128661595232,52.7017244163198 1.57162361267022,52.7018446337405 1.57305147124419,52.7024122850476 1.57333464730634,52.7025251298656 1.57354746929159,52.7026464821508 1.57339936050453,52.7027372722531 1.57218289491858,52.7036329597815 1.57074941256955,52.7046628609862 1.56853426830617,52.706313535004 1.56696555996923,52.7074688514215 1.56556424597378,52.708587725042 1.56541389083745,52.7088683900749 1.56509747987387,52.7096010334797 1.56457840614868,52.7106978291589 1.56427960188558,52.7113562087541 1.56405876410467,52.7113538629778 1.56372599258896,52.7118863879728 1.56322016253857,52.7127659865007 1.56267864624894,52.7136619418971 1.56240727260255,52.7142754311526 1.56180194228811,52.7152623192277 1.56148932322448,52.7158779448909 1.5609429992606,52.7157719937169 1.55978885482837,52.715566608377 1.5588573486378,52.715368818802 1.55842617363938,52.716493424647 1.55813155674395,52.7172227842625 1.55874449786985,52.717347338381 1.55936093434467,52.7174592849096 1.55900311050523,52.7180123300193 1.55869411470934,52.7187825856495 1.55852282182239,52.7191340033205 1.55797038105439,52.7202262815773 1.55743560919434,52.7211894444437 1.55692323531912,52.7222464342678 1.55594402609239,52.7221363744721 1.55514217350638,52.7220579383215 1.554942969249,52.7222860135871 1.55476849739555,52.722580872772 1.55449048140065,52.7231702615861 1.55408200102562,52.723938094274 1.55378548727533,52.7243544057444 1.55385598857412,52.7245843668168</coordinates></LinearRing></outerBoundaryIs></Polygon>
  </Placemark>
