  <Placemark>
	<Style><LineStyle><color>ff0000ff</color></LineStyle><PolyStyle><fill>0</fill></PolyStyle></Style>
	<ExtendedData><SchemaData schemaUrl="#Wards__December_2019__Boundaries_EW_BFE">
		<SimpleData name="objectid">3796</SimpleData>
		<SimpleData name="wd19cd">E05009309</SimpleData>
		<SimpleData name="wd19nm">Queenhithe</SimpleData>
		<SimpleData name="wd19nmw"></SimpleData>
		<SimpleData name="bng_e">532129</SimpleData>
		<SimpleData name="bng_n">180843</SimpleData>
		<SimpleData name="long">-0.09735</SimpleData>
		<SimpleData name="lat">51.51107</SimpleData>
		<SimpleData name="st_areashape">79470.313414185</SimpleData>
		<SimpleData name="st_lengthshape">1339.03143523395</SimpleData>
	</SchemaData></ExtendedData>
      <Polygon><outerBoundaryIs><LinearRing><coordinates>-0.098455017648071,51.5119522543864 -0.098770036033048,51.5119663523284 -0.099145050647676,51.5119607448809 -0.099375903366228,51.5119186361698 -0.099542072345056,51.5118404176525 -0.099655061712122,51.5117208812611 -0.099691492901473,51.5113995317883 -0.099719258782235,51.5113576383083 -0.099794730836824,51.5112401907065 -0.099856365167361,51.5111782579058 -0.099877029744358,51.5107531755454 -0.099891921925743,51.5104296792504 -0.09992600770465,51.5097135316059 -0.099290632350113,51.5096744666825 -0.098957624475582,51.5096447956822 -0.098519553904572,51.50960712716 -0.097706949935432,51.5095355119373 -0.096824301272592,51.5094482814866 -0.095990309801165,51.5093340539923 -0.095704045717098,51.5092862524421 -0.095297900667716,51.510007143591 -0.095234003154168,51.5101203705216 -0.09507786172367,51.510445167279 -0.094969620959824,51.510723993038 -0.09481568899479,51.5110982710014 -0.094798352270352,51.5111663145318 -0.094596235631204,51.5111405550549 -0.094567312582279,51.5112470683537 -0.094880073832016,51.5112809186014 -0.094706665649885,51.5118113988718 -0.095159528329979,51.5118367370006 -0.095200459772328,51.5116161529786 -0.095305805619094,51.5112671571807 -0.095349996879684,51.5111393153068 -0.096135356373781,51.5111781392989 -0.096129435825432,51.5113200884173 -0.096304757375915,51.5113302170277 -0.096300186212915,51.5114398231021 -0.096999667949017,51.5114979252612 -0.097081235321401,51.5115109359116 -0.097128779096585,51.5115476686001 -0.09713721581344,51.5115505024337 -0.097215267468468,51.5116164980073 -0.097227159481539,51.5116761169995 -0.097196334688646,51.5118967751419 -0.097304431716517,51.5118976298542 -0.097695609485732,51.5119147649286 -0.09772442826368,51.5119161317087 -0.097813613862248,51.5119202753796 -0.098252258937271,51.5119417738889 -0.098406168184072,51.5119496645857 -0.098455017648071,51.5119522543864</coordinates></LinearRing></outerBoundaryIs></Polygon>
  </Placemark>
