  <Placemark>
	<Style><LineStyle><color>ff0000ff</color></LineStyle><PolyStyle><fill>0</fill></PolyStyle></Style>
	<ExtendedData><SchemaData schemaUrl="#Wards__December_2019__Boundaries_EW_BFE">
		<SimpleData name="objectid">3287</SimpleData>
		<SimpleData name="wd19cd">E05008766</SimpleData>
		<SimpleData name="wd19nm">Kempston South</SimpleData>
		<SimpleData name="wd19nmw"></SimpleData>
		<SimpleData name="bng_e">503455</SimpleData>
		<SimpleData name="bng_n">246775</SimpleData>
		<SimpleData name="long">-0.49072</SimpleData>
		<SimpleData name="lat">52.109638</SimpleData>
		<SimpleData name="st_areashape">1343417.8563967</SimpleData>
		<SimpleData name="st_lengthshape">5753.55444163205</SimpleData>
	</SchemaData></ExtendedData>
      <Polygon><outerBoundaryIs><LinearRing><coordinates>-0.479122005524091,52.115879692198 -0.479296683354119,52.1158954280972 -0.479871596077799,52.1159549743707 -0.480510266563426,52.116027115314 -0.481120057172858,52.1160915995978 -0.481504135822037,52.1161360957243 -0.481749914837281,52.1161680242754 -0.481924106712925,52.1161981317795 -0.482210703799939,52.1162728318324 -0.482546035498703,52.1163770134691 -0.482927953653462,52.1164852982141 -0.483148300506851,52.1165357732711 -0.483353065913684,52.1165698674891 -0.483568186018355,52.1166004988097 -0.483854928782333,52.1166284547691 -0.484176076623278,52.1166325825659 -0.484389435288148,52.116629931384 -0.484616188217154,52.1166193614319 -0.484893264841045,52.1165878644002 -0.485435797333671,52.1165265181075 -0.486208607154884,52.1164357652703 -0.486841993458836,52.1163620052397 -0.487740951969503,52.1162548834204 -0.487710255465361,52.116169095633 -0.487627642254839,52.1159342360676 -0.487630531362749,52.1159342731171 -0.487765530964745,52.1159162294374 -0.487849099864277,52.1159056148463 -0.487846453816718,52.1158983904838 -0.487896319472565,52.1158909393772 -0.488028429736669,52.1158728583508 -0.488029660889663,52.1158791663272 -0.488035589199569,52.1158783431893 -0.488173477610814,52.1158603351796 -0.48832165749163,52.1158406615415 -0.488324333966989,52.1158469880409 -0.488350695359897,52.115843730271 -0.488557588322952,52.1158149210334 -0.488573777798584,52.1158133311329 -0.488594301044408,52.1157227170233 -0.488609107423738,52.1157193111096 -0.488695627040318,52.1157069363507 -0.488720543047408,52.115703659976 -0.488908476303967,52.1156764054439 -0.488920472778973,52.1157098174995 -0.489007142344644,52.115696546191 -0.489067299105106,52.1156874290573 -0.489090771258597,52.1156841341061 -0.489231699523885,52.1156616698964 -0.489331579889771,52.1156458701589 -0.489377110628968,52.115638363798 -0.489382919173468,52.1156375390584 -0.489440186690337,52.1156283847262 -0.489535671827927,52.1156143268026 -0.489477044990095,52.115446293335 -0.489628445861137,52.1154167714539 -0.48974310156419,52.115394869302 -0.489806357586949,52.1153830949557 -0.489860796292345,52.1153721068119 -0.489871089196225,52.1153704403289 -0.489966848373156,52.1153447003234 -0.490086231038379,52.1153111722207 -0.490108350128001,52.1153051632188 -0.490208472066567,52.1152821753986 -0.490323248519417,52.1152566776634 -0.490433691943258,52.1152311252525 -0.490492525319985,52.1152183947868 -0.490549792078227,52.1152092399072 -0.490665740451341,52.1151918473137 -0.490736157208894,52.1151819623964 -0.490769140033216,52.1152857560877 -0.490791168050089,52.1152824423176 -0.490965917905223,52.1152568131848 -0.491117074655413,52.1152344767052 -0.491203591176182,52.1152221009681 -0.491166215471666,52.1151199586676 -0.491248307955306,52.1151102228224 -0.491440357937181,52.11508930822 -0.491850849796993,52.1150433216739 -0.491860383482352,52.1150641184493 -0.49197614919437,52.1150521152828 -0.4921638051667,52.1150293459326 -0.492245988804477,52.1151490491564 -0.492365126918888,52.1151227069565 -0.492421040257372,52.115110837342 -0.492544632196205,52.1150845518954 -0.492663741130785,52.1150591081627 -0.492866808314225,52.1150149606687 -0.49287731397171,52.1151355457008 -0.493017934465691,52.1151256574205 -0.493042790760989,52.1151241767539 -0.493146728979486,52.1151165161135 -0.493211186786635,52.1151119466304 -0.493364836008354,52.1151013252568 -0.493369200611825,52.1151004818743 -0.493442443807646,52.1150960244999 -0.49356245126694,52.1150867704875 -0.493610839628394,52.1150837938032 -0.493767408001427,52.1150723100506 -0.493925542725786,52.1150608460934 -0.493926804966146,52.1150662552624 -0.493932672524574,52.1150672293351 -0.49393399527546,52.1150708418933 -0.493938511153927,52.1150655065134 -0.494394584396109,52.115357264878 -0.494456145129584,52.1153958039194 -0.49452339339417,52.1154371120563 -0.494521889095143,52.1154388902366 -0.494547009579138,52.1154724701411 -0.494580463370265,52.1155196390366 -0.494839286362558,52.1155112564676 -0.49498545016315,52.1154654817276 -0.495158495938571,52.1153580261656 -0.4954203267416,52.1151707129412 -0.495806754772317,52.1148411680454 -0.495980732929964,52.1147058578832 -0.496283481627053,52.1145190645644 -0.496703097417394,52.1143302553765 -0.497029970301477,52.1141671390312 -0.497086726737902,52.1141301091902 -0.497154160877604,52.1141228789597 -0.496987244764108,52.1139157161187 -0.49693841390311,52.1138494753455 -0.496881644707417,52.113754368943 -0.496863774183256,52.1137235793589 -0.496842683597015,52.1136990409207 -0.496811456303598,52.1136715859374 -0.496777246423395,52.1136468802666 -0.49675474091711,52.1136214246356 -0.496745084415262,52.1136042223577 -0.49684548682567,52.1134401077539 -0.497269532144797,52.112642538955 -0.497410019218667,52.1124177201681 -0.497558120881332,52.1121382557854 -0.497656417264997,52.1119506523389 -0.497712611992788,52.1118011647974 -0.497807087452339,52.1115515796731 -0.497926918047515,52.1111601136666 -0.498035591477731,52.1109250909477 -0.498095301340545,52.1107999185064 -0.498201918340693,52.1106691402023 -0.498229784471587,52.1106209548952 -0.498321072637073,52.110641893069 -0.49879432961,52.1107261211721 -0.498885769060387,52.1107425660235 -0.499138269310969,52.110788925958 -0.499199288793197,52.1108004895108 -0.499121756651898,52.110717704299 -0.499107555784578,52.1107031408986 -0.499034415791175,52.1106222098083 -0.499030052653343,52.1106194577509 -0.499003395825846,52.110588556649 -0.498945693500262,52.110524810369 -0.498858354849994,52.110429315771 -0.498787802447856,52.1103538096118 -0.49869059530373,52.110247403159 -0.498635601653988,52.1101890842559 -0.498691449404611,52.1101358620121 -0.498793696573133,52.1100490728964 -0.499070962923286,52.1100103549596 -0.499297378772538,52.1099655953466 -0.499352288980583,52.1099833732763 -0.499368989374019,52.1099629109187 -0.499495150299451,52.1099456396205 -0.499656517409475,52.1099233331262 -0.499617586236463,52.1098671072273 -0.499675811824751,52.1097860494689 -0.499726182626407,52.1097201726701 -0.499770382533353,52.1097090497097 -0.499732445296708,52.1096627234535 -0.499799186537288,52.1095897745284 -0.499844561600075,52.1095436098512 -0.499862706683187,52.1095231658006 -0.499836140318414,52.1094895695061 -0.499784363270718,52.1094214941029 -0.49991256880272,52.1093862709298 -0.499901286052882,52.1093744421654 -0.499859409949274,52.1093162906832 -0.499819035418373,52.1092600464844 -0.499777186658374,52.1092010860915 -0.499728238417859,52.1091348449289 -0.499710126591764,52.109111244021 -0.499964971657154,52.1090443725483 -0.499932152672144,52.108978246712 -0.499829013368025,52.1089625529703 -0.499789869766789,52.1089521671634 -0.499783583902348,52.1089206262264 -0.499759517831036,52.1088555998437 -0.499977563290275,52.1087981480606 -0.500164890587379,52.1087447999767 -0.500322459009435,52.1087027584097 -0.500351915465426,52.1086968407916 -0.500338018066319,52.1086767993025 -0.500480843951437,52.1086399631124 -0.500359357330135,52.1084748210594 -0.500218800202909,52.1082679975329 -0.500076254005617,52.1080774185088 -0.499987624315879,52.108020470602 -0.500038504151924,52.1079393191272 -0.500258269129427,52.1077011231685 -0.500553280022475,52.1074378156491 -0.500821748632133,52.1071832486475 -0.501318548356266,52.1067363449989 -0.501432814244915,52.1067683598884 -0.501519672809564,52.1067919350152 -0.501756993562458,52.1068561652593 -0.501821652700514,52.1068020645004 -0.501866631450015,52.1067639845433 -0.50190276680217,52.1067311843702 -0.501922443136854,52.1067116595165 -0.501945699488142,52.10671465152 -0.50193655411755,52.1066390289135 -0.501914198947059,52.1066090812671 -0.501911460781506,52.1066045525623 -0.501887842596913,52.106569195805 -0.501869520219845,52.1065482881187 -0.501845541036015,52.1065237137819 -0.501824212749013,52.1065062745525 -0.501767199809034,52.1064650994912 -0.501783657206951,52.1064518259601 -0.501659761493696,52.1064017113983 -0.501773337886744,52.1062818053943 -0.502071344962389,52.1060149370681 -0.502273945901819,52.1058070816432 -0.502293441204694,52.1057929474874 -0.502377980743469,52.1056232327019 -0.502406955310078,52.1054554187384 -0.502427472986629,52.1053675894075 -0.502416973165681,52.1051561277885 -0.502711478983154,52.1050403161599 -0.502909923627275,52.1049564526301 -0.502979540810229,52.1049267746751 -0.503243534602351,52.1047620350005 -0.50360054965769,52.1044761361531 -0.503919831809175,52.1041843644077 -0.504160350643298,52.103936537155 -0.504357637558091,52.1037142289827 -0.504497908772674,52.103490387196 -0.504593027044443,52.1033099289785 -0.504596840666538,52.1031958194594 -0.504555108926065,52.1030468839235 -0.504282864334922,52.1027601915883 -0.503965609110918,52.1030349108061 -0.503903875981594,52.1030917463846 -0.503541581660702,52.1033595108543 -0.503211079023997,52.1035909136515 -0.502777714080113,52.1038452799686 -0.502767305334404,52.1038505408548 -0.502371268248968,52.1040361645566 -0.502088712297159,52.1041440375425 -0.501722338799935,52.1042706196537 -0.501024486501544,52.104488359719 -0.500798879864205,52.1045529075706 -0.500443994005972,52.1046419689257 -0.500061551696724,52.1047269940232 -0.499614817438074,52.1048120981201 -0.499446038974595,52.1048369167087 -0.499011758197798,52.1048988064762 -0.498649317601768,52.1049509122338 -0.496815557561501,52.1051181143046 -0.496163846397073,52.105176322623 -0.495570434748233,52.1052371584654 -0.49506634954363,52.105290951865 -0.494231653592742,52.1053629942273 -0.493591429731968,52.1054231324847 -0.492995335434278,52.1054776289582 -0.492294005468898,52.1055360810228 -0.491569084633354,52.1055978219518 -0.491068001261954,52.1056480410776 -0.490755826561455,52.1056835976614 -0.490496151451634,52.1057189254372 -0.490145521284818,52.1057666625055 -0.489654026930636,52.1058358751147 -0.48957634366993,52.1058438688792 -0.489164611445282,52.1058862356515 -0.488625888028476,52.1059278716916 -0.488301079831268,52.1059452814672 -0.488077663227356,52.1059478111369 -0.487613322196912,52.1059472497832 -0.487353594794122,52.1059412218528 -0.48712759506416,52.1059311312284 -0.48704726567345,52.1059318980088 -0.487048939424568,52.10605695574 -0.487039170565019,52.1061287414685 -0.487015706237121,52.1062174298729 -0.486974030530857,52.1063284477991 -0.486880439706689,52.106504327597 -0.48670071233426,52.1067672840002 -0.486513625070993,52.1069878974754 -0.486271529468273,52.1072400749554 -0.486085926934323,52.1074166612393 -0.485947702154868,52.1075308433246 -0.485828047157536,52.1076156898517 -0.485656244200512,52.1077294404599 -0.485474364820019,52.1078385674799 -0.485135190186002,52.108023966978 -0.484777482453785,52.1081947445715 -0.484590854564047,52.108273246233 -0.484255124810858,52.1083992698834 -0.484055682016444,52.1084650224269 -0.483745926556937,52.1085564116225 -0.482951420103672,52.1088186471987 -0.481738343831275,52.1091527911429 -0.481783059099956,52.1093394364925 -0.481719482428384,52.1096623069142 -0.481570185360081,52.1101055127998 -0.48148044344388,52.1103371688605 -0.481342735472447,52.1106942311103 -0.481050793459479,52.1112956010185 -0.480786043482046,52.1117803761592 -0.480422382568088,52.1126811390945 -0.480243171214289,52.1129692594386 -0.480001961263487,52.1132781545311 -0.479868374050007,52.1134283439173 -0.47977019689388,52.1135251471031 -0.47964369956459,52.1136367761596 -0.479448538513874,52.1137916551888 -0.479444114137719,52.113794294677 -0.479122005524091,52.115879692198</coordinates></LinearRing></outerBoundaryIs></Polygon>
  </Placemark>
