  <Placemark>
	<Style><LineStyle><color>ff0000ff</color></LineStyle><PolyStyle><fill>0</fill></PolyStyle></Style>
	<ExtendedData><SchemaData schemaUrl="#Wards__December_2019__Boundaries_EW_BFE">
		<SimpleData name="objectid">2971</SimpleData>
		<SimpleData name="wd19cd">E05008137</SimpleData>
		<SimpleData name="wd19nm">Albrighton</SimpleData>
		<SimpleData name="wd19nmw"></SimpleData>
		<SimpleData name="bng_e">380836</SimpleData>
		<SimpleData name="bng_n">303440</SimpleData>
		<SimpleData name="long">-2.28455</SimpleData>
		<SimpleData name="lat">52.628391</SimpleData>
		<SimpleData name="st_areashape">18145675.3062219</SimpleData>
		<SimpleData name="st_lengthshape">22256.3065828386</SimpleData>
	</SchemaData></ExtendedData>
      <Polygon><outerBoundaryIs><LinearRing><coordinates>-2.32097145263394,52.6146077281935 -2.32061947039352,52.6147507712357 -2.32052366403777,52.614771701943 -2.32032421137211,52.6147740388164 -2.32003172411823,52.6147595515219 -2.31988401270772,52.6147599507076 -2.31964344346263,52.6147848658867 -2.31945872443634,52.6147700861751 -2.31939372817627,52.6147576793199 -2.31926936091835,52.6147193691336 -2.31902485052522,52.6146040023636 -2.31897446072593,52.6145906578331 -2.31890353071981,52.6145827598314 -2.31883852964586,52.6145865299466 -2.31880617702086,52.6145920091895 -2.31818420199745,52.6147843034423 -2.31800114036941,52.6147964787351 -2.31787134385692,52.614815701122 -2.31780632902958,52.6148176729903 -2.3177073575086,52.6148053568004 -2.31761558998872,52.6147786418906 -2.31757710128289,52.6147607709618 -2.31749990398881,52.6147115475632 -2.31734884816852,52.6146534462443 -2.31727337296358,52.614640167634 -2.31711823161614,52.6146235085615 -2.31695266434604,52.6146131674458 -2.31670010571956,52.6146138443143 -2.31600343717481,52.6146660374461 -2.31591345528402,52.614684342161 -2.31580864695059,52.6146900152114 -2.31575247663699,52.6146856712236 -2.31569028790328,52.6146741540926 -2.31563109879467,52.6146562479199 -2.3155037276761,52.6146062591109 -2.31461694524104,52.6143155469419 -2.31431212029285,52.6142273834431 -2.31410645338593,52.6141776013162 -2.31389497194914,52.6141323283051 -2.31346163671815,52.6140552889542 -2.31341411908532,52.6140175784585 -2.31316868520628,52.6137701800365 -2.31309566732169,52.6136911953398 -2.31298841434203,52.6135584673222 -2.31276084550978,52.6133396903228 -2.31268352262246,52.6132545155738 -2.3125587106287,52.6131523910404 -2.31233614528608,52.6130028021089 -2.31212314471098,52.6127597191272 -2.31177632141231,52.6123794845995 -2.31162361691749,52.6120868118838 -2.311003504031,52.6110627276308 -2.31088966689439,52.6108409508668 -2.31082058400296,52.6106802609965 -2.31071655780171,52.6103820669982 -2.31058767228087,52.6101153937489 -2.31052316009792,52.6099635880542 -2.31033064896295,52.6094804883167 -2.30960125232346,52.607401218162 -2.3060972406409,52.607210832096 -2.30499380441467,52.6071633576314 -2.30365088752376,52.6070822474018 -2.30299060374312,52.6070641716305 -2.30243827538413,52.6070574981039 -2.29814857416867,52.6070684046554 -2.29801837143487,52.6070255946642 -2.29795620440769,52.6070149664144 -2.29784242833683,52.6070062662591 -2.29773322782061,52.6070083395612 -2.29754735606371,52.6070330733355 -2.29676362510723,52.6070871709693 -2.29498276188305,52.607310113144 -2.29302179481411,52.6075496517921 -2.29065624541757,52.607794558461 -2.2899241826823,52.6076372829069 -2.28713364142702,52.6070202058179 -2.28670010116275,52.6068936404578 -2.28646630100036,52.6068141309543 -2.28606511357147,52.6066632194452 -2.28475573342304,52.6062807402707 -2.28459767881865,52.6062585639486 -2.28442190167338,52.6062634804694 -2.28430815862937,52.6062592611944 -2.28420032297979,52.6062460395671 -2.28408060895603,52.6062220622147 -2.28396217471925,52.6061890936354 -2.28385414895474,52.6061462147103 -2.28372674643368,52.6060818129417 -2.28338654398289,52.6060017437024 -2.28292259625261,52.6059515393081 -2.2825680070043,52.6059245277781 -2.28158430525676,52.6058738514889 -2.28129680408611,52.6059419413862 -2.28025422652622,52.6059372297874 -2.28010782344551,52.6059088177361 -2.28001461168075,52.6058784823425 -2.2797367399227,52.6058342042574 -2.27955058943701,52.6058157717643 -2.27945304058129,52.6058115094985 -2.27930537110748,52.6058136558715 -2.27863778903995,52.6060202322016 -2.27846715622589,52.6061257859235 -2.27821658903175,52.6062018684885 -2.27804725266195,52.606262482007 -2.27777738013304,52.6063279156888 -2.27706738627249,52.60660737886 -2.27683747238137,52.6066771198592 -2.27672243863255,52.6066998577046 -2.27667822352058,52.6067161384796 -2.27654862702442,52.6067658716493 -2.2762912974821,52.6069292328637 -2.27570194961038,52.6071516967933 -2.27542919604082,52.607225130068 -2.27529808037791,52.6072659681752 -2.27513457343742,52.6073256649326 -2.27481494362482,52.6074576227389 -2.27459833198672,52.6075336194901 -2.27436812175752,52.6075576116513 -2.27426196692934,52.607579427488 -2.27412188841734,52.6076282833436 -2.27325642837459,52.6080734502024 -2.27281913894406,52.6082785615126 -2.27271161649953,52.6083354295189 -2.2725865611702,52.6084121101025 -2.27242194362086,52.6085294142109 -2.27218541539834,52.6087330710258 -2.27184150913649,52.6089981781466 -2.27085903120108,52.6096476968994 -2.2701027445285,52.6098400480948 -2.26925300063682,52.6099830880385 -2.26800074668408,52.6102322769959 -2.26688978232993,52.6104110326017 -2.26513790397949,52.6105992165542 -2.26477034856652,52.6106270024706 -2.26362151522512,52.6106475475138 -2.26338090577598,52.6106669575551 -2.26305901036472,52.6106748641284 -2.2624298766808,52.6106573905589 -2.26208095660009,52.6106051407483 -2.26163935836187,52.6105908416952 -2.26134825692505,52.610555536874 -2.26106725961613,52.6104995396218 -2.26006001467145,52.610228459881 -2.2598159137806,52.6101517063268 -2.25963090502796,52.6101017846247 -2.25935144900551,52.6100376009785 -2.25903176877098,52.6099250632905 -2.25873190715644,52.6099104424324 -2.25849575599154,52.6099217437509 -2.25842634369803,52.6099200986002 -2.25805848679413,52.6098966376925 -2.25764177904598,52.6098481170398 -2.2573179522306,52.6097957984499 -2.25729733824278,52.6097895522919 -2.2573224942572,52.6095530437739 -2.25657542694495,52.6098324644108 -2.25639205356719,52.6097906231316 -2.25617061500712,52.6097982928444 -2.25580397628643,52.6099833266548 -2.25578853157018,52.6101326377709 -2.2556536071331,52.6107990643341 -2.25563636594163,52.6108701005033 -2.25560129782323,52.6109537582961 -2.2555662159905,52.611014048887 -2.25549727228649,52.6110933749445 -2.25521476539025,52.6112584526397 -2.25508832029026,52.6113539908781 -2.25502800191239,52.611409032725 -2.25468030276477,52.6117972233012 -2.25433381833083,52.6121440687695 -2.25427955239392,52.612214285477 -2.25424300567516,52.6122745788161 -2.25418910977402,52.6124086942567 -2.25389166813192,52.6128147484828 -2.25355800037211,52.613337803873 -2.25321877835863,52.6139336660532 -2.25315124966525,52.6140066076012 -2.25311908482197,52.6140668911804 -2.25306030750404,52.6143690782808 -2.25306569240529,52.6145426104747 -2.25305909476557,52.6146864201714 -2.25304226176728,52.6148294427141 -2.25301203017596,52.6149715059786 -2.25298604751317,52.6150695226646 -2.25287546262508,52.6153628334874 -2.25279134722478,52.6156219352624 -2.25205748293426,52.6169503792699 -2.25191021541723,52.6170289722222 -2.25152575882351,52.6171996503801 -2.25142416813491,52.6172591823134 -2.25138005156882,52.617296123618 -2.25131253224704,52.6173718499488 -2.25110053348953,52.617737272319 -2.25093757443388,52.6179263504995 -2.25059325754891,52.6181545477333 -2.25053598852411,52.618213086735 -2.2505111475921,52.6182562778694 -2.25050265847441,52.6183264864142 -2.25052814162325,52.618395634021 -2.25078567338649,52.6187286026259 -2.25086184070422,52.6188866163389 -2.2508859982116,52.6189792237558 -2.2508936733268,52.6190223458885 -2.25089125527027,52.6193657522442 -2.25091847318623,52.6194825285052 -2.25093867794419,52.6196506370068 -2.25092450944698,52.6197710953054 -2.25090124868724,52.6198349542867 -2.25087498288362,52.6198845294676 -2.25012451578542,52.6209082382326 -2.25011137931153,52.6209325313002 -2.25009387605855,52.6209810997607 -2.25008699803086,52.6210566070088 -2.25013798732505,52.6211985863044 -2.25022231587217,52.6214842911742 -2.25020973860885,52.6216065439309 -2.2501866502985,52.6217009586844 -2.25011811632128,52.621856673076 -2.24976914389139,52.6223212416088 -2.24972664585936,52.6223654587545 -2.24967075944449,52.6224114113463 -2.24954998398502,52.6224835651228 -2.24926098296262,52.62257314821 -2.24916232192587,52.6226146977213 -2.24905187070773,52.6226824251068 -2.2490003638552,52.6227274691637 -2.24895642725764,52.6227760931576 -2.24892854281519,52.6228201893101 -2.2489154102176,52.6228453812049 -2.24878780680232,52.6232600505541 -2.24872630942482,52.6233690149448 -2.24853278513577,52.623629242464 -2.24849915482119,52.6236913256775 -2.2484672674509,52.6237812645667 -2.24843861294014,52.623947678163 -2.24822678812622,52.6246331290831 -2.24805812736519,52.6248545692071 -2.24798794698594,52.6249797285285 -2.24787817087762,52.625146222331 -2.24779271018414,52.6254556507254 -2.24765495465114,52.6256501531454 -2.24764690794117,52.6257993566063 -2.2474663731231,52.6260110235958 -2.24732244330022,52.626148019478 -2.24727829956313,52.6261822630318 -2.2471280121617,52.6262508807182 -2.24695437391291,52.6263689753376 -2.24674252420846,52.6265366695239 -2.24660620242456,52.6267274819088 -2.24658709872354,52.6267311167892 -2.24656360576098,52.6267554309428 -2.24652688624574,52.6268104196273 -2.24650212322709,52.6268688875501 -2.24649352510064,52.6269210316128 -2.24651617708486,52.6275251012579 -2.24648895767203,52.6276662565404 -2.24645099766369,52.6277607909548 -2.24605600857339,52.6281796076957 -2.24600037094581,52.6282713928626 -2.24595774586777,52.6283164177438 -2.24591808666583,52.628347146344 -2.24572952538733,52.6284562831655 -2.24561347619843,52.6285715608432 -2.24557686095405,52.6286237621834 -2.2455535876018,52.6286877096376 -2.24551987071388,52.628735411862 -2.24545650072324,52.6287741877613 -2.24504063411954,52.6289053656104 -2.2449449028914,52.6289513983615 -2.24486691486655,52.6290118641364 -2.24480824925515,52.6290856809279 -2.24468161591453,52.6291605365846 -2.24464342387987,52.6292145388471 -2.24457291664182,52.6292839759738 -2.24452292150353,52.629318230605 -2.24419148597643,52.629496861878 -2.24410454763975,52.629547369739 -2.24403684190679,52.6295951417776 -2.24394131428553,52.6296781103316 -2.24366232124791,52.6299780489954 -2.24360652107842,52.6300419732574 -2.24356549474049,52.6301121580457 -2.24354079605415,52.6301832072278 -2.24353233449775,52.6302606038414 -2.24353571407436,52.6303423801107 -2.24356297684865,52.630447474154 -2.24371786733972,52.6306764172088 -2.24371283643777,52.6308229180471 -2.24367560435455,52.6310495613981 -2.24360248432791,52.6311756224778 -2.24343835494243,52.6314311965696 -2.24324109949226,52.631557513216 -2.24314687185639,52.6316125284444 -2.2429891541587,52.6316856492127 -2.24267263211308,52.6318778164142 -2.24247152428669,52.6321227700318 -2.24245443760002,52.6322270563681 -2.24243459632432,52.6323834735328 -2.24240996982762,52.6324680932104 -2.24237314018411,52.6325050159207 -2.24226724667433,52.632587915369 -2.24215984814616,52.6326627288449 -2.24202286891763,52.6327420968124 -2.24163789904996,52.6328732892634 -2.24142122324369,52.6329707936397 -2.24110774305707,52.6331872155085 -2.24093841347427,52.6332990014109 -2.24085885634349,52.6333423027224 -2.24077636062022,52.6333830029486 -2.2398638984107,52.6337633085552 -2.23958496590153,52.6338393668867 -2.23933126976376,52.6339189684123 -2.23880301669666,52.6340513399187 -2.23865115641597,52.6343743763003 -2.23854765641834,52.6346298199284 -2.23852427797767,52.6346766901386 -2.23843027320401,52.634797308135 -2.23832894506,52.6348927767919 -2.23806983962301,52.6350767266628 -2.23787827654304,52.6351804648513 -2.2376396592821,52.6353239313215 -2.23720122845609,52.6356682121347 -2.23716158043284,52.6357033409003 -2.23693705002092,52.6359968628931 -2.23688723626329,52.6360670628935 -2.23674847325168,52.6366525838419 -2.23666506894987,52.6367974441988 -2.23665780818266,52.6368289137892 -2.23662664676614,52.6370591374019 -2.23648590208102,52.6378200019312 -2.23647989347993,52.6383530414836 -2.23651928543696,52.6385399856406 -2.23649932739949,52.6386568578096 -2.23647754720986,52.6387297873758 -2.23642053011769,52.6388431396371 -2.23617401413084,52.6391753481264 -2.23609352277053,52.6393193041153 -2.23602735241861,52.6393851323446 -2.23571660273205,52.6395789761968 -2.23555701546395,52.6398552897495 -2.23551660736103,52.6400217223721 -2.23550830531327,52.6401313820198 -2.23550491648293,52.6403390818159 -2.23551022963509,52.6404882582745 -2.23552527022009,52.6408145514053 -2.23552411251604,52.6408711727468 -2.23550971935658,52.6409359984268 -2.23548186866626,52.6409908759489 -2.23540108592603,52.6410818070581 -2.23503267646051,52.6415454680163 -2.23500205687481,52.6416291998248 -2.23495139279685,52.6418153346908 -2.2349303336247,52.6420230686623 -2.23492667777882,52.6421813397284 -2.23489610349262,52.6425230012969 -2.23483218891347,52.6430094220391 -2.2347668617816,52.6432334216427 -2.23347074330926,52.6462709454741 -2.23336845040876,52.6464895344705 -2.23330579064758,52.6466676939065 -2.23289449572097,52.6476942062433 -2.23310521117756,52.6478556481916 -2.23321796870803,52.6479300193678 -2.23404687435869,52.6481513499446 -2.23453677432041,52.6482636157665 -2.23478700472734,52.6483610774741 -2.23490248492067,52.648396796794 -2.23504904963603,52.6484342511951 -2.2352369234315,52.6484708140889 -2.23548397586938,52.6484981818338 -2.23579822522843,52.6492113126627 -2.23586697184237,52.6493486782244 -2.23604307318327,52.649663864829 -2.23624516697842,52.6501426538989 -2.23643255104726,52.6503571615186 -2.23651775819174,52.6505178607398 -2.2365654393624,52.6505905602627 -2.23662054009473,52.6506606396901 -2.23672156220328,52.6507709791475 -2.23686401251818,52.6508569695664 -2.23697081862443,52.6509322472722 -2.23705675370857,52.6509797966832 -2.23715458943521,52.6510191442132 -2.23724785838563,52.6510477149925 -2.2373159464161,52.6510628571297 -2.23746978065446,52.6510904079848 -2.23760651995444,52.6509552363269 -2.2380423606233,52.650645111507 -2.23837822011515,52.6504395275972 -2.23855398795702,52.6503996298237 -2.23904649965789,52.6501810557662 -2.23980767499872,52.6499071136386 -2.24002581053029,52.6497934328242 -2.24021710513455,52.6496302873245 -2.24037022363802,52.649528421058 -2.24073286533819,52.6493433569756 -2.2410232969511,52.6492133499943 -2.24134477711421,52.6490787858169 -2.24179727873377,52.648858484887 -2.24207302161689,52.6487400984835 -2.24224679741238,52.6486067324582 -2.24231445793073,52.6485670506996 -2.24240892384507,52.6485264149332 -2.24250626832996,52.64849925324 -2.24290333863799,52.6483940976286 -2.24335504885692,52.6482970051734 -2.24377162041194,52.6482584003883 -2.24390168414545,52.6482419549726 -2.24434461493459,52.6481664467506 -2.24455299612097,52.6481642185431 -2.24463291367712,52.6481811281304 -2.24473644244867,52.6481925976291 -2.24480589615895,52.6481906557914 -2.24494921730397,52.6481696886979 -2.24515466184569,52.6481656675801 -2.24532914298746,52.6481814823628 -2.24569639899022,52.6483020451189 -2.24587089962822,52.648321454048 -2.24593733253562,52.6483240117875 -2.24604071660879,52.6483094174984 -2.2461221789439,52.6483191329006 -2.24638395741764,52.6483635232044 -2.24653035923847,52.648370407768 -2.24668414918323,52.6483907567874 -2.24683503960161,52.6484156056189 -2.24691949395086,52.6484370880395 -2.24716676281968,52.6485228478976 -2.24724229514714,52.6485397649031 -2.24757201093522,52.6485723273779 -2.24778932961564,52.6485772638237 -2.24792834511536,52.6485922501917 -2.24800092215441,52.6486037817899 -2.24825983020176,52.6486571600935 -2.24867422255366,52.6484927227277 -2.24884009123629,52.6485364104726 -2.24887410638314,52.6485390357384 -2.24899230681637,52.648536988756 -2.24910310814334,52.6485196801494 -2.24917974080029,52.6484943545684 -2.24936838453131,52.6481298878261 -2.24940657015418,52.6480946673579 -2.24959397103242,52.6480466396491 -2.24999885829242,52.6477563078312 -2.25011636690354,52.6476338341553 -2.25029602576441,52.6475112287083 -2.25058686875644,52.6474601943135 -2.25067395873012,52.6474312505883 -2.25071802417972,52.6474015000362 -2.25081652226833,52.6473006349991 -2.25087101647497,52.6472618743374 -2.25110533314726,52.6471507447009 -2.25121925672785,52.6471684765417 -2.25130947657466,52.647175564537 -2.25138930181133,52.6471762936854 -2.25146907999556,52.6471688440002 -2.25158572175074,52.6471506215793 -2.2517024307351,52.6471440819271 -2.25178348457716,52.6471043652358 -2.25192394822743,52.6471175466926 -2.25203481377021,52.6471119181475 -2.25208801463683,52.6471028176008 -2.25220895446594,52.6470693064828 -2.25238175399197,52.6470473683665 -2.25246777877344,52.6470876265274 -2.25253439897349,52.647101864048 -2.25260826856354,52.6471053010727 -2.25264225312208,52.647102531473 -2.25266132521084,52.6470710356832 -2.25281337085329,52.6470428503323 -2.25290780522408,52.6470201801857 -2.25304649479102,52.6469794411356 -2.25327528345383,52.6469250286883 -2.25367190826438,52.6467497367203 -2.25380928449122,52.6467350625648 -2.25389192947928,52.6467178089946 -2.25402318808001,52.6466779837452 -2.25419945779075,52.6467504004998 -2.2545269465467,52.6466319633256 -2.25458583906578,52.6465958874557 -2.2546107961014,52.6465706696663 -2.25464446000568,52.6465129901371 -2.25477196938936,52.6463320732485 -2.2558793079157,52.6458702578027 -2.25637732213192,52.6456157400128 -2.2564746666925,52.6455705037255 -2.2566604169798,52.6454937093002 -2.25682410088514,52.6454358355618 -2.25694221443303,52.6453996306434 -2.25699235027108,52.6453878376498 -2.25722432575567,52.6453801436589 -2.25727912422568,52.6453944033606 -2.25737827965356,52.6454292373376 -2.25746430730883,52.6454694918739 -2.25757253756124,52.645534861934 -2.25775758439726,52.6455866741245 -2.25841870997748,52.6454071938228 -2.2591224487994,52.6452015542947 -2.259324752072,52.6451633643527 -2.2594249219761,52.6451227023953 -2.25969504012039,52.6450538068436 -2.26018368005003,52.6449492896927 -2.26033704661431,52.6448995227704 -2.26041661072375,52.6448571074427 -2.26130938043181,52.6446186840897 -2.26088696519456,52.6436909769059 -2.2604167707552,52.6429009663509 -2.26030006446108,52.6426602785535 -2.26019840276322,52.64246997451 -2.25987258386853,52.6418575894855 -2.25907447127744,52.6403580395524 -2.25908041487095,52.6403535325557 -2.26070019069379,52.6398770656441 -2.2615104431092,52.6396919365825 -2.26278852988112,52.6394193961448 -2.2637714766775,52.6392238914213 -2.26705843160679,52.6385476830197 -2.26714915242912,52.6386590089226 -2.26761564964116,52.6385742821576 -2.26848960431164,52.6384338978766 -2.26870804915456,52.6383920601663 -2.26880252996384,52.6383810602541 -2.26908477423052,52.6383714306849 -2.26927086650791,52.6383584246512 -2.26954292654872,52.6383766772588 -2.27019051019585,52.6381998587746 -2.27164089363007,52.6378477413345 -2.27186785775514,52.6377465631014 -2.27217608166484,52.6376442083824 -2.27369163760568,52.6373152826504 -2.27393304635621,52.6374010892486 -2.27509455251166,52.637870306061 -2.27602060376759,52.6382681646436 -2.27625678186474,52.6382379546324 -2.27642068165453,52.6382034202141 -2.27660866998607,52.6380286299271 -2.27676106713496,52.6380633221695 -2.27694258201507,52.6380206577085 -2.27714926161415,52.6379886281169 -2.2773543188543,52.6379315278334 -2.27744298197914,52.6379259276243 -2.27776510300066,52.6379224747391 -2.27804588395542,52.6379325983655 -2.27882218492379,52.6379999700043 -2.2790569598225,52.6379796437226 -2.27916918547083,52.6379623035214 -2.27956755104005,52.6378786794836 -2.27965325490434,52.637867692586 -2.27974032923293,52.6378611954459 -2.27990742401613,52.6378697867312 -2.28023573165556,52.6379193365642 -2.28047824549033,52.6379277481378 -2.28090828909049,52.6379393084977 -2.28153043011178,52.6379441187185 -2.28296386769,52.6379442894795 -2.28338074272094,52.6379729474832 -2.28368390437294,52.6380145499086 -2.28383931757199,52.6380438337666 -2.28410571549737,52.6381087996152 -2.28436189147476,52.6381944604358 -2.28536945900599,52.6386164053338 -2.28552947436417,52.6386780300465 -2.28560215061119,52.6387057145312 -2.28620767420307,52.6388875882312 -2.28683453469224,52.6391638612012 -2.28697224336938,52.6392048680237 -2.28737469193569,52.6392794723652 -2.28772468192992,52.6394547692746 -2.28777352019614,52.6394699284317 -2.2878326716622,52.6394787714498 -2.2878814197181,52.6394804506916 -2.28797150028526,52.6394676492729 -2.28803047409166,52.6394495306458 -2.28818429762861,52.6394581436817 -2.28835274207834,52.6394667199565 -2.28847151197038,52.6395365293622 -2.28880446564395,52.6398431676695 -2.28892358989049,52.6399660897405 -2.28899807429587,52.640063867795 -2.28905315582508,52.6401203522047 -2.2891169997459,52.640175108011 -2.28920169622471,52.6402324179943 -2.28928473736323,52.6402789478959 -2.28934252985628,52.6403030724222 -2.28941798925335,52.6403271527716 -2.28953940933176,52.6403547155068 -2.28960892458276,52.6403644312306 -2.2897817742232,52.6403568176846 -2.28984089748704,52.6403611667089 -2.28988522477354,52.6403574630324 -2.28994422431473,52.640342939283 -2.28998551970891,52.6403230659972 -2.29007530312674,52.6402653276802 -2.29013856771079,52.6402328184152 -2.2905523433324,52.6402309041173 -2.29103981083955,52.6402072370349 -2.29122900402151,52.6402022771569 -2.29133826131885,52.640196615921 -2.29142542381663,52.6401847180429 -2.29153755827556,52.6401537955957 -2.29181509030337,52.640112667889 -2.29187661725541,52.6400388218298 -2.29215076116103,52.6399285014883 -2.29237515050718,52.6398848086589 -2.29244885466438,52.6398648543529 -2.29259189655349,52.6398095884729 -2.29268497164251,52.6398075610321 -2.29299646465816,52.6397618533969 -2.29318995125068,52.6397433996454 -2.29361837363578,52.6397279564076 -2.29372924983004,52.6397276809794 -2.29399646329707,52.6396928656928 -2.29413674040902,52.6396799347422 -2.29437467946193,52.6396766464878 -2.2945667929288,52.6396896489599 -2.29506677032498,52.6397513122523 -2.29514954365287,52.639757396644 -2.29535198466354,52.6397479040343 -2.29584277010761,52.639783524001 -2.29592720078023,52.6398003886793 -2.29598488063716,52.6398074333711 -2.29609856493256,52.6398080476687 -2.29615323047919,52.6398016197309 -2.29626832225758,52.6397761673197 -2.29662302959888,52.6397788728842 -2.29676003390962,52.6397147199685 -2.29698409390451,52.6396233871403 -2.2969840877964,52.6396224881828 -2.29740635404775,52.6395800865066 -2.29761290433662,52.6395301366976 -2.29807489230748,52.6394345177131 -2.29898442942855,52.6393243757296 -2.29913511057337,52.6393186016283 -2.2993032904791,52.6392885188535 -2.29952312333377,52.6392214569786 -2.29965876018257,52.639189568297 -2.2997798430306,52.6391676922693 -2.2999186367542,52.639152062203 -2.30082938508384,52.6390068519816 -2.30101553722227,52.6390036821412 -2.30113813754997,52.6389898889198 -2.30145397584814,52.6389225798683 -2.30154998568925,52.6389223351913 -2.30174003790064,52.6388309904962 -2.30180920759256,52.6387903710525 -2.30188076017643,52.6386715581871 -2.30193517531492,52.6386291801685 -2.30195554865515,52.638597673097 -2.30196700680398,52.6385454278879 -2.302048838375,52.6383978296275 -2.30212017318274,52.6382474721955 -2.30214873867128,52.6381143889498 -2.30219099104714,52.6380226127232 -2.30222320584505,52.6379766953798 -2.30232451175516,52.6378792854002 -2.30277729515384,52.6375491077665 -2.30281418402829,52.6375274442887 -2.30292454623269,52.6374714407043 -2.30347562231994,52.6372434629016 -2.3034922111851,52.6372811664448 -2.30352096296054,52.6373863319065 -2.30365131570426,52.6374192504531 -2.30373277923128,52.6374477995066 -2.30393476765466,52.6371820701671 -2.30397719817433,52.6371163549825 -2.30404481283748,52.6370631570985 -2.30420681473105,52.6369871585897 -2.30448295940618,52.6367509846505 -2.30451525709749,52.6367176485024 -2.30458798608719,52.6365591979225 -2.30460707900504,52.6365366807261 -2.30464090193554,52.636512327654 -2.30473517591767,52.6364734407098 -2.30502820802414,52.6363189153145 -2.30509155794238,52.6363007770046 -2.30512698328714,52.6362791165824 -2.30523397142241,52.6361593113175 -2.30535897122765,52.6360718135268 -2.30557084242977,52.6359498502814 -2.30570204453781,52.6358955882408 -2.30579784051916,52.63586568266 -2.30592325959125,52.6358383973335 -2.30614149471645,52.6357731256603 -2.30657875607399,52.6355472240479 -2.30665813290769,52.6354868042077 -2.30671115878181,52.6354561106578 -2.30676266360502,52.6354344080656 -2.306880740431,52.6354025568987 -2.30694124609537,52.6353961089381 -2.30700920160105,52.6353923376383 -2.30717333123137,52.6354125826523 -2.30725748398254,52.6354078701859 -2.30730029942778,52.635397872984 -2.30735920957299,52.6353725559055 -2.30746361284494,52.6353021845042 -2.30752251793704,52.6352759692834 -2.30765087369575,52.6352333955481 -2.30782930732163,52.635191590375 -2.30802248365623,52.6351326714543 -2.30812856128126,52.6350927622193 -2.30834114391451,52.6350562593866 -2.30845167208249,52.6350254152001 -2.3085209249387,52.6349982726365 -2.3086181616492,52.6349485899027 -2.30884017134976,52.6347979252239 -2.30893302541554,52.6347661378493 -2.30901414617385,52.6347461540014 -2.3091426308909,52.6347224522655 -2.30926945037806,52.6346870707854 -2.30986608372392,52.634432880331 -2.31018430955409,52.6343134162168 -2.3102388248221,52.6342872102583 -2.31035211462093,52.6342168139189 -2.31042116106245,52.6341609117299 -2.31068146051784,52.6339821931707 -2.31086554928113,52.6338972304506 -2.31094658311703,52.6338655624532 -2.31138556101573,52.633886876121 -2.31198041870351,52.6340021425128 -2.31203822979079,52.6340280522128 -2.31240749298266,52.6342158982274 -2.31248943257369,52.6343109460646 -2.3125985025527,52.6344859973178 -2.31267754457454,52.6345846476667 -2.31301074369806,52.6348903183832 -2.31302708847258,52.634910047161 -2.31304806207861,52.6349468387867 -2.31306018850448,52.6349899448303 -2.31306046493368,52.6350285891573 -2.31304461507519,52.6350780602311 -2.31301364318828,52.6352957215346 -2.31306330124277,52.635425095327 -2.31306655331177,52.6354709208659 -2.31305941067823,52.6354943067715 -2.31301980346155,52.6355438406929 -2.31296099269001,52.6355826413139 -2.31277778655887,52.6357917171634 -2.31271455690943,52.6358431113698 -2.31269421803322,52.6358782151819 -2.31269141022116,52.6359114747162 -2.31270054811524,52.6359456016542 -2.31274095735241,52.6360084049876 -2.31274406206641,52.6360336507318 -2.31267710136394,52.6361767239562 -2.31264205920126,52.6362343337452 -2.31257744935532,52.6362974145768 -2.31253446998887,52.6364890444157 -2.31253634928039,52.6365303805215 -2.31255001407759,52.6365842675211 -2.31257993425391,52.6366453015616 -2.3127291777192,52.6368490055121 -2.31347876748569,52.6371113334161 -2.31369519430239,52.6372024289678 -2.31379887793772,52.6372363051079 -2.3140075966529,52.6372888653824 -2.31409787182177,52.6373048027817 -2.31426945573079,52.6373268151863 -2.31483193348756,52.6374556340319 -2.31672432464223,52.6379944852785 -2.31685153113903,52.6380121196495 -2.31697135842368,52.6380369627353 -2.31708831206007,52.6380690024834 -2.31724542577941,52.6381278973224 -2.31744085227007,52.6381777003416 -2.31756683344978,52.6382277802445 -2.31765134899994,52.6382724894091 -2.31772859361138,52.6383226100743 -2.31778802506174,52.638369183543 -2.31783860142214,52.6384211737041 -2.31786404344136,52.6384516614268 -2.31803628289533,52.6387811169233 -2.3181989449927,52.6392005592269 -2.31818205575572,52.6393075517424 -2.3180874635715,52.6395199930037 -2.31837661964663,52.6394553168957 -2.31853267378311,52.6393677220465 -2.31869930077945,52.6393097556266 -2.31878042449959,52.6392897652494 -2.3188822633117,52.6392697199283 -2.31905342132444,52.6392485878801 -2.31930583320178,52.6392083643693 -2.31961776644483,52.6392102187711 -2.31979630445587,52.6391818766495 -2.31987301669871,52.6391583024513 -2.31994075334779,52.63912387849 -2.31997299258199,52.6391004252885 -2.32003147826851,52.6390005091854 -2.32004902646125,52.6389842847501 -2.32007850972545,52.6389671299762 -2.3201167845567,52.6389526465451 -2.32015962562755,52.6389462397063 -2.32022614410668,52.6389451617528 -2.32027149693236,52.6388821290172 -2.32043345275781,52.6388025138649 -2.32068736841328,52.6387685743567 -2.32079499330689,52.6387404218747 -2.32084516172537,52.6387196158773 -2.32101728806003,52.6386148982392 -2.32106882948144,52.6385985814878 -2.32111461576046,52.6385948632349 -2.32116339748808,52.6386010219372 -2.32120787242885,52.6386179763724 -2.32125689815652,52.6386573864539 -2.32137842677004,52.6386974996202 -2.32144956826977,52.63872876154 -2.32154882844753,52.6387563520701 -2.32161382847393,52.638764263587 -2.32169218539013,52.6387658486725 -2.32176754521871,52.6387575549558 -2.32187664409674,52.6387311954319 -2.32201103753205,52.6387146539156 -2.32227173504868,52.6387912337716 -2.32256765435177,52.6388525289703 -2.32264000512095,52.6388325607551 -2.32268870718084,52.6388278441805 -2.32273600139897,52.6388304112984 -2.32277590300756,52.6388384813803 -2.3228070519727,52.6388491805319 -2.32303412228238,52.6389752803482 -2.32311131322632,52.6390334858275 -2.32313226552542,52.6390657826503 -2.32316203798736,52.6390881694022 -2.3231961448494,52.639103354338 -2.32325822120611,52.6391112729303 -2.32330400118818,52.6391066548759 -2.32384851686602,52.6392050138431 -2.32399423586734,52.6391218432629 -2.32407384216562,52.6390946643429 -2.32414467353807,52.639083685492 -2.32427322351806,52.6390842324787 -2.32523751162896,52.638988121595 -2.32538800786857,52.6389580501378 -2.32547943867645,52.6389317358539 -2.32569758163182,52.6388556439575 -2.32582291020608,52.6388165651552 -2.32584517744764,52.6386322667944 -2.32589809695843,52.63839207499 -2.32596055971043,52.6382391218841 -2.32601018187221,52.6381616053661 -2.32612445044887,52.6380282815127 -2.3263777947909,52.6379188384401 -2.32647030185711,52.6378412044141 -2.32651569162927,52.6377844602101 -2.32655046276882,52.6376926952559 -2.32663372162525,52.6375512775762 -2.32690161577829,52.637220620073 -2.32696328767222,52.6371746157107 -2.3270207212808,52.6371483941126 -2.32708418505664,52.6371302447802 -2.32711522647743,52.6371265640427 -2.3271816544478,52.6371299755046 -2.3272975284712,52.6372123364288 -2.32734787345996,52.6372157922504 -2.32738621831297,52.6372111931784 -2.32744820715891,52.6371912497853 -2.32747464611788,52.6371749996692 -2.32750543893021,52.6371380674428 -2.32752144160596,52.6371110612139 -2.32752987883746,52.6370499257614 -2.32755612951823,52.637008512124 -2.32768717449016,52.6369362524681 -2.32773261343788,52.6368866077413 -2.32781055689125,52.6368495440274 -2.32758642863486,52.6367099651032 -2.32755249683399,52.636718147021 -2.32745822138004,52.6367543567593 -2.32740504663473,52.6367634908197 -2.32733853832388,52.6367654726366 -2.32730609648656,52.6367610683525 -2.32726807168868,52.6366290623157 -2.32722911573125,52.6365517909536 -2.32717385551787,52.6364773496421 -2.32713814026186,52.6364423991928 -2.32692528374421,52.6364250121057 -2.32678585779862,52.6363534998664 -2.32650331322645,52.636320128211 -2.32626811730873,52.6362802445249 -2.3261332443433,52.6362311869785 -2.32606058864596,52.6361927420455 -2.32597432867077,52.6361273734425 -2.32554503471979,52.6360198102566 -2.3252102816992,52.6359118951051 -2.32518649335733,52.635891290364 -2.32514167272263,52.6358276043855 -2.32511040524107,52.6358007291561 -2.3250452288473,52.6357685540665 -2.32482043151893,52.6355533896782 -2.32462874913759,52.6354002350863 -2.32445569442299,52.6351795351866 -2.32439305473445,52.6351114046694 -2.32427154208019,52.6350559274706 -2.32422843775252,52.6350263874974 -2.32418072842773,52.6349672030122 -2.32412447769695,52.6347579566249 -2.32410104725119,52.6345880735895 -2.32411395457684,52.6343237259393 -2.32409239788975,52.6340118405368 -2.32417312565612,52.6335450963472 -2.32403439815846,52.6335661461719 -2.32389406649922,52.6335683280302 -2.32381131325898,52.6335640603634 -2.32371072803313,52.6335535503554 -2.32360119473257,52.6335358756082 -2.32347393079177,52.6335092621369 -2.32330548725522,52.6334989371267 -2.32324583062822,52.6334217206772 -2.32319665267183,52.6333778176975 -2.32310163754566,52.6333133687306 -2.32307173102725,52.6332559329801 -2.32304312489744,52.6331931007209 -2.32306668703369,52.6329853425516 -2.32311817103852,52.6327478509828 -2.3232337225424,52.6323933500591 -2.32343976744981,52.6316736330237 -2.32349335231447,52.6315394880281 -2.32357792344879,52.6313783861514 -2.32363006623599,52.6312469410533 -2.32368258841875,52.6311506349552 -2.32379236151325,52.6306091262191 -2.32381289566713,52.6303879849279 -2.32381528664088,52.6303159910958 -2.32380418753215,52.630215364913 -2.32384154990095,52.6300624808747 -2.3237484827176,52.6300627353743 -2.32375460696232,52.6299026568595 -2.32370847635075,52.6296609377676 -2.3237091128409,52.6295494944665 -2.32369683232868,52.6294866176976 -2.32368171301142,52.6294354326787 -2.32362622692407,52.6293285468659 -2.32360656985237,52.6292567031839 -2.32359115007132,52.6291812529125 -2.32360038620941,52.6290301529428 -2.32358077068124,52.6289637011985 -2.32346763261797,52.6284569536389 -2.3234015548087,52.6283178323903 -2.32338488875264,52.6282549675574 -2.32337381112546,52.6281570372758 -2.32331153019282,52.6279216531169 -2.32324103006756,52.6275793437466 -2.32309027819338,52.627569869178 -2.32293820607102,52.6275792711266 -2.32288794397451,52.6275856992444 -2.32267852648618,52.6276321053704 -2.32256050406918,52.6276504010956 -2.32109565269432,52.6277577354087 -2.32091713587688,52.6277824854708 -2.32068231512652,52.6278037918711 -2.32008266258181,52.6278242876113 -2.31979620763353,52.6278476196805 -2.31863832006617,52.6278893857656 -2.31849734178966,52.6278168797183 -2.31833732006636,52.6277552978211 -2.31838127950505,52.6277030542997 -2.31840171305362,52.6276652531502 -2.31840581011744,52.6276256988787 -2.31826045122153,52.6269338961962 -2.3180115689802,52.6258242882273 -2.31773656740703,52.6255777887646 -2.31737128895475,52.6251257224796 -2.31731418256048,52.6249936737027 -2.31725149133935,52.6248976774581 -2.31712637653264,52.6247596088308 -2.31708222942337,52.624583486665 -2.31702382643464,52.6244739985414 -2.31697416542096,52.6243437267242 -2.31695737562743,52.6242619875011 -2.31694589941655,52.6241065379987 -2.31688832470486,52.6237065794344 -2.31689226160328,52.623644556943 -2.3169343501669,52.6235356976466 -2.31704989756395,52.6231758077288 -2.31706286042431,52.6231154682056 -2.31711351565121,52.6227764224359 -2.31709750073648,52.6225994157356 -2.31713069667752,52.6222882771547 -2.31720000274227,52.6222719141069 -2.31736519647773,52.622243610602 -2.31753642424863,52.6222242778186 -2.31761032792064,52.622220484378 -2.31767525686805,52.6222221080025 -2.31774034093324,52.622228224301 -2.31808218619406,52.6223072919466 -2.31821262945937,52.6223743464112 -2.31824249328742,52.6224111137332 -2.31827063537147,52.622429012388 -2.31830177784283,52.6224406127726 -2.31836979224539,52.6224476190803 -2.31871054123171,52.6223918804093 -2.31880925959448,52.6223502730114 -2.31903474307517,52.6222714764217 -2.31927465279277,52.6221503100029 -2.31934388601114,52.6221240608145 -2.31949122529056,52.6220859167372 -2.31966548447754,52.6220647751154 -2.32011536246241,52.6219763832537 -2.3201918827646,52.6219474169137 -2.32022425185556,52.6219266590124 -2.32027567892584,52.6218806842677 -2.32030784404621,52.6218319765578 -2.32034975390218,52.6217168254723 -2.32044895871464,52.6215421143926 -2.3206070113762,52.6213367763919 -2.32057403273515,52.6212739547256 -2.3205011314118,52.6211976709478 -2.3204432292585,52.6211573841388 -2.3203292270857,52.621123541089 -2.32030982707101,52.6211020242285 -2.32029039087967,52.6210589381167 -2.32029299293035,52.6210148934005 -2.32030892896878,52.6209789007796 -2.32032799458102,52.6209545837971 -2.3204249337598,52.6208868274959 -2.32052644559881,52.6208281348889 -2.32058517330134,52.6207812421551 -2.32063046042142,52.6207119174585 -2.32063905593001,52.6206714515434 -2.3206388,52.6206364017104 -2.32063283625318,52.620620150727 -2.32024015176958,52.6204495567858 -2.32023353540024,52.620360600332 -2.32024495545602,52.6203065566234 -2.32029142965892,52.6201994822543 -2.32032650276495,52.6201490585904 -2.32038517074546,52.6200940770456 -2.32045577863671,52.6200399621418 -2.32055716666522,52.6199811808405 -2.32079663469711,52.6198016854755 -2.32103124811176,52.6195583029246 -2.32107632442922,52.6194602191854 -2.321079881804,52.6191473626956 -2.32100895372423,52.6189407578456 -2.3209460968835,52.618422272168 -2.32093255273651,52.6183853713706 -2.32091009267744,52.6183449895922 -2.32086095955298,52.6182876038655 -2.32061121589126,52.6180760901535 -2.3204569265464,52.6177771420848 -2.32026485426942,52.6175574732434 -2.32027635940364,52.6175152014929 -2.32074909867704,52.617328693985 -2.32054202090659,52.6172888120848 -2.32041940111693,52.617290941936 -2.32027902538045,52.6172796376034 -2.32019169926954,52.6172618994608 -2.3200407174293,52.6172155738767 -2.3197610669579,52.61714344235 -2.31988570463984,52.6170172836717 -2.31989879674563,52.616992083882 -2.31990132578343,52.6169381531634 -2.31988482819387,52.6168968569565 -2.31986675530583,52.6168564621909 -2.31983256212385,52.6168268071039 -2.31982364429504,52.616806159904 -2.31982496117603,52.6167863849443 -2.31983809754943,52.6167674761458 -2.31985724672543,52.6167548422085 -2.32005613420429,52.6166904947378 -2.32012383719519,52.6166561601278 -2.32015616318847,52.616630009318 -2.32020006489462,52.61657147358 -2.32023310624515,52.6164598514932 -2.32027720413398,52.6164282766901 -2.32027407819427,52.6164004246619 -2.32024395329689,52.6163106335857 -2.32019827704989,52.6161255290807 -2.32020032268616,52.6160050935433 -2.32021174916443,52.6159520377307 -2.32023925851925,52.6158835702467 -2.32028451023716,52.6158097516411 -2.32032700117592,52.6157584097513 -2.32046203179325,52.6156385133254 -2.32052224564197,52.6155960197611 -2.32054418592744,52.6155654038152 -2.32056540522396,52.6154359291757 -2.3205960515912,52.6153801252172 -2.32068241876963,52.6152837267382 -2.32069710417591,52.6152602306059 -2.32078836867472,52.6150173262259 -2.32081312638601,52.6149723224015 -2.32088625132259,52.6148803646751 -2.32091999688643,52.6148488176691 -2.3210243252826,52.614777534668 -2.32105073152391,52.6147415143882 -2.32104450877703,52.6147064806726 -2.32097145263394,52.6146077281935</coordinates></LinearRing></outerBoundaryIs></Polygon>
  </Placemark>
