  <Placemark>
	<Style><LineStyle><color>ff0000ff</color></LineStyle><PolyStyle><fill>0</fill></PolyStyle></Style>
	<ExtendedData><SchemaData schemaUrl="#Wards__December_2019__Boundaries_EW_BFE">
		<SimpleData name="objectid">6077</SimpleData>
		<SimpleData name="wd19cd">E05011835</SimpleData>
		<SimpleData name="wd19nm">Beeston Regis &amp; The Runtons</SimpleData>
		<SimpleData name="wd19nmw"></SimpleData>
		<SimpleData name="bng_e">618651</SimpleData>
		<SimpleData name="bng_n">342118</SimpleData>
		<SimpleData name="long">1.251918</SimpleData>
		<SimpleData name="lat">52.931938</SimpleData>
		<SimpleData name="st_areashape">8325461.30172736</SimpleData>
		<SimpleData name="st_lengthshape">16491.4040027654</SimpleData>
	</SchemaData></ExtendedData>
      <Polygon><outerBoundaryIs><LinearRing><coordinates>1.23310603234567,52.9442989424807 1.23289998999616,52.9443050023869 1.23269411491891,52.9443133056548 1.23243190375833,52.9443307863938 1.23227283954505,52.9443439298563 1.23211384884611,52.9443580603447 1.23195129887901,52.9443723774334 1.23179007658997,52.9443905251932 1.23158852801902,52.9444209217284 1.23138769405549,52.944452916753 1.2311983351482,52.9444830701551 1.23100969070416,52.9445148225784 1.23089212518093,52.9445374463784 1.23077576682282,52.9445622854964 1.23065975231141,52.9445877446656 1.23054306976516,52.9446122326564 1.23041818853687,52.9446365838436 1.23029153375927,52.9446571161134 1.23017046650369,52.9446647260575 1.23005928847085,52.9446412205469 1.22995224879353,52.9446013248522 1.22987990970435,52.9445944692829 1.22987936142456,52.9445835755613 1.22984096563253,52.9439497085509 1.22978476959852,52.9435546644433 1.22978676056651,52.9435006669535 1.22978642631955,52.9434961812904 1.22979001749707,52.9433846005951 1.22984265362888,52.9431322434001 1.22970202616114,52.9423041743069 1.22920836494924,52.9404344220971 1.22911584985513,52.9404315436532 1.22907878863985,52.9403723139557 1.22697178251433,52.9404655507835 1.22253224450292,52.940620270488 1.22250633212332,52.9404886790872 1.22248925898623,52.9404019757295 1.22292247182725,52.9403830265631 1.22274312701638,52.9398924202131 1.22262331901304,52.9396627240617 1.22249936982469,52.9394367365502 1.22193228055426,52.9395385233158 1.22175294160871,52.9391485205574 1.22172644528855,52.9391123780392 1.22161645602286,52.9389948871588 1.22153683294318,52.9388846644942 1.22146388066162,52.9387238233143 1.22130751442893,52.9384231926193 1.22121573971738,52.9382683459253 1.22118637447868,52.9382348882401 1.22117536593543,52.9382073151011 1.22117335827665,52.9381588206299 1.22118732203215,52.9380874162087 1.22126649312638,52.9378909802955 1.22135308463943,52.9376341964555 1.22139814601657,52.9373784492056 1.22157363434675,52.9369752237932 1.22166047428909,52.9369018422454 1.22168483773152,52.9368894937033 1.22175345291758,52.9368714489018 1.2221445737383,52.9368662312093 1.22226211119902,52.9368657390155 1.22253777210041,52.9368906253479 1.22262974257249,52.9369061105539 1.22303275026946,52.9370013524652 1.22339583082454,52.9370184699979 1.22338322131731,52.9367894611021 1.22334817678225,52.9365574647856 1.22334304804771,52.9363085630817 1.22329993723323,52.9361298303521 1.2234144039624,52.9360880641683 1.2234557875424,52.9360240063339 1.22356905060974,52.935825744908 1.22367336849057,52.93554681066 1.22367730588101,52.9354792735614 1.22366276068767,52.9354041470069 1.22364667541849,52.9353677222824 1.22360242167187,52.9353535497046 1.22339419140578,52.9353160473071 1.22309338227602,52.9352531855659 1.22253995943318,52.9352574168577 1.22233594769117,52.9347152429708 1.22225881015958,52.9344187569608 1.22206001969657,52.9339070996745 1.22197612175617,52.9337987010921 1.22192600117896,52.9337649973409 1.22186934393422,52.9337440578196 1.22167866707119,52.9337213601504 1.22159491102429,52.9336957614975 1.22151262890991,52.933630563367 1.22147699319127,52.9336117512944 1.22132716536175,52.9335987331425 1.22119515899692,52.9335447735247 1.22095904602003,52.9334126319707 1.22071759210809,52.9332465603716 1.22065212487597,52.9332077881835 1.22059439824318,52.9331311351827 1.2205751868496,52.9330938954386 1.22049031634003,52.9327922232869 1.22037156257921,52.932295383378 1.22033493063293,52.9321821951582 1.22030097893952,52.9320869162079 1.22019881344959,52.931892701766 1.2201645957545,52.9317938336022 1.2201323688327,52.9316192990584 1.22006005124743,52.9314684192736 1.22004169921127,52.9313402606688 1.22004210671439,52.931306085234 1.22006908235468,52.9311884750017 1.22010266215948,52.9311201349516 1.22013189537216,52.9310725899982 1.22027104583689,52.93094195881 1.22037949730777,52.9308590003603 1.22072073257327,52.9306851270807 1.22099890023283,52.9305229424221 1.22005341159205,52.9304371008817 1.22005069261847,52.9302401895609 1.21997317938912,52.9298771806808 1.21994972038259,52.9295612559446 1.21900970292153,52.9296694569631 1.21772319301611,52.9298014249061 1.21598327260336,52.9299996934591 1.2155723199621,52.9300377942644 1.21474012945642,52.9300944907694 1.21468038678929,52.9298712523688 1.21464763552002,52.9297903240168 1.21456265342351,52.929607327201 1.21431938260862,52.9291561984484 1.21424056859925,52.9288759347443 1.21422483607089,52.9288457926084 1.21416686082825,52.9287655468206 1.21401828414819,52.9286085452757 1.21327532395948,52.9279613652062 1.21310813983276,52.9277932684106 1.21298459750444,52.9276328912616 1.21288307590484,52.9274683218603 1.21270646428952,52.9271331635821 1.21261650946816,52.9269027394328 1.21250698881439,52.9267096168466 1.21242081255863,52.9265914731209 1.21233935412501,52.926495588523 1.21228646272346,52.9264457731969 1.21195815451437,52.9261911378145 1.21127529928495,52.9256322255134 1.21112794423863,52.9254698833653 1.21091618175878,52.9251833234497 1.21062535820733,52.9248530487217 1.21049134101619,52.9247100348391 1.21012641450649,52.9243449000227 1.20992384896701,52.9241211142516 1.20965368276927,52.9239089551986 1.20887879653506,52.9233704987431 1.20876953863474,52.923281746343 1.20855023707778,52.9230322475483 1.20900744523554,52.9229983159275 1.20991390686886,52.9229207725429 1.2101459698455,52.9229198936484 1.21045682390572,52.9229375632001 1.21227046730567,52.9232761043856 1.2131071400328,52.9234207844923 1.2132643420204,52.9234345128699 1.21336415730246,52.9234354083473 1.21356146155086,52.9234273712519 1.21374576089512,52.9234044026855 1.21461381286507,52.9232108941793 1.21541513952491,52.923040852025 1.21660767546187,52.9227279520918 1.2169641889314,52.9225986273704 1.2174418028606,52.9225173570013 1.22114967724922,52.9220526096716 1.22415108856263,52.9217336995886 1.22429546867373,52.9220139748401 1.22433116904118,52.9222747235925 1.22435905252139,52.9225689515791 1.22439041098479,52.9226705934635 1.22456469249566,52.9229536518966 1.22476980336416,52.9234103824868 1.22479962766893,52.9234913877404 1.22480436416541,52.9235550932539 1.22479823357121,52.9237333649713 1.22474698437732,52.9238642229486 1.22464156505118,52.9239282222133 1.22455141988832,52.9239567436511 1.22507161710736,52.9247286709327 1.22534846268241,52.9251087397484 1.22630047015988,52.9255046278643 1.22645954714089,52.9255615323015 1.22666213324354,52.9256243561508 1.22688707272193,52.9256874714934 1.22822231247138,52.9259929120849 1.22923869350975,52.9265111897361 1.22941953491837,52.9265620134014 1.22955440072863,52.9265952068398 1.22977280298711,52.92662972429 1.2298729700861,52.9266368894986 1.23061292262123,52.9266608135426 1.23086729041186,52.9266592865724 1.2316247851954,52.9266386724218 1.23187462099934,52.9266174874394 1.23208100771585,52.9265911903 1.23227224385307,52.9265608104104 1.23251859172791,52.9265109486339 1.23339678609867,52.9263746526565 1.23530102287508,52.9264657314356 1.23632344252778,52.926506197311 1.23680364386857,52.9265795075086 1.23800352384421,52.9267239081839 1.23851662706889,52.926799012168 1.23861753272487,52.9268160387555 1.23906885961512,52.926941284811 1.23994480056691,52.9271116754131 1.24040958799747,52.927177210504 1.24071096146351,52.9272283236747 1.24100153240979,52.9269739565593 1.2412475693757,52.9268018114671 1.24155063296343,52.9266145326804 1.24173196538426,52.9265124822634 1.24191116265573,52.9264212782092 1.24207507400762,52.9263438876783 1.24223659994856,52.9262756434777 1.24257245507124,52.9261495921951 1.24276420365287,52.926086814476 1.24364354938863,52.9258253501754 1.24454625142223,52.9256990900858 1.24498341928815,52.9256546869053 1.24588239270043,52.9255770678914 1.24600048332646,52.9255630510823 1.24642884146741,52.9255009912439 1.24664902247105,52.925460806023 1.24722199918223,52.9253408440468 1.24754481795223,52.9252015584737 1.24788723355057,52.9251634224508 1.24797462771956,52.9251376553912 1.24816455896874,52.9250704235567 1.24827424107446,52.9250260652867 1.24850490450875,52.9249063810603 1.25012119581454,52.9246706444127 1.25040352614497,52.9245855953797 1.25098002140042,52.9245734069583 1.25146876699036,52.9245429413942 1.25245244613753,52.924582530284 1.25290460558003,52.9246384724748 1.25335896472651,52.9246844627132 1.25383723812929,52.9247531722046 1.25428765730491,52.9247858713169 1.25501174223128,52.9245789249904 1.25523270527487,52.9245297106246 1.25539922968771,52.924507163547 1.25550732363674,52.924500603243 1.25654507986936,52.9244874277649 1.25743619701561,52.9245034406535 1.25803185703066,52.9245095736134 1.25855163100258,52.9244953092759 1.25930303916684,52.9244351250558 1.25970947363251,52.9243772150455 1.25997679014232,52.9243114349052 1.26179050706038,52.924029568777 1.26230183075162,52.9239030455907 1.2625672827007,52.9238516965259 1.2635551357815,52.9237103633118 1.2639763730264,52.9231384784935 1.26462880066341,52.9220782377262 1.26533504414971,52.920866277502 1.2656223865761,52.9210652519675 1.2665355546839,52.9218099217964 1.26719321439024,52.9222829022437 1.26704350779375,52.9231800774187 1.26733505293592,52.9232179068891 1.26735942942353,52.9231668875808 1.26748224422914,52.9231571240422 1.26766751618771,52.9232060596644 1.26789072321418,52.9232259895567 1.2682875358919,52.9232995797804 1.2682323454111,52.9233568417665 1.26841388088123,52.9234147798226 1.26851508382997,52.9234552391691 1.26873376833707,52.9235535117806 1.26916140283555,52.9237576057854 1.26931060022667,52.9238227264997 1.26951736055937,52.923879968253 1.27004267065699,52.9239994638937 1.27004177018526,52.9239077824454 1.27040949961899,52.9239291210953 1.27090741361606,52.9239423762005 1.27102564590543,52.9239499080856 1.27121784003607,52.9239733833103 1.27139904222261,52.9240089388217 1.27180068391356,52.9240455213738 1.27226390957929,52.9241307545632 1.27240667436361,52.9241690766974 1.27450263822803,52.9243163664695 1.27458483975371,52.924025403929 1.27464951484615,52.9236989629443 1.27486781134918,52.9231614054242 1.27486596858542,52.9229582644962 1.27484223955345,52.9228617285668 1.27480990435658,52.9227682170706 1.27470402768414,52.9226074149686 1.27456199573988,52.922500745553 1.27428656978605,52.9223806729819 1.27438622295035,52.9223014125326 1.27415366534016,52.9222161200225 1.27400400622902,52.9221465232279 1.27385019613727,52.9220203078235 1.27381589767493,52.9217235685081 1.27465652190019,52.9215052842906 1.27620729260902,52.9211738049749 1.27689900757539,52.9214856652935 1.27778845247952,52.9219737684081 1.27855309995333,52.9223834032685 1.27918487219631,52.9226906139787 1.27957623817697,52.9228866808429 1.27994167343727,52.922996163203 1.2808007258637,52.9231999845439 1.2808382411855,52.9232223234147 1.28105543160216,52.9233799539539 1.28123483351847,52.9235683876005 1.2817864719597,52.9241116492361 1.282514731593,52.9247884817753 1.2829250776552,52.9252348562929 1.28317939597017,52.9260399560116 1.28324648037347,52.9264544599614 1.28346513958875,52.9271400676437 1.28349957780199,52.9275365947341 1.28343902797665,52.9280139671808 1.28330121769849,52.9287885521721 1.28321991472367,52.9295623826644 1.28329303587143,52.929840960534 1.28336291763206,52.9313732925184 1.28311595465574,52.9313936072082 1.28312950033655,52.933656821931 1.28316269183743,52.9342135025251 1.28325366727276,52.9351588683115 1.28331424657578,52.9355861349816 1.28334093185092,52.9357796832144 1.28337780297411,52.9367786903776 1.28337782469886,52.9367965889284 1.28334585697412,52.9368048483687 1.28333097979987,52.9368086925214 1.2832989988918,52.9368169550114 1.28315877462705,52.9368503306692 1.28302198895544,52.9368878378684 1.28289023601384,52.9369308714489 1.28271503753575,52.9370115286339 1.2825947300867,52.9370858114945 1.28247034263284,52.9371573292155 1.28236419613224,52.937208287659 1.28225523968328,52.9372575250539 1.28214424998548,52.9373054695789 1.28203246975597,52.9373528063283 1.28192052714719,52.9373999675944 1.28180936778171,52.9374476466914 1.28169977514729,52.9374963615554 1.28159282982303,52.9375466219129 1.28148932886185,52.9375991251672 1.28139019747893,52.9376542953787 1.28129622600209,52.9377127403078 1.28126790562596,52.9377850188667 1.28117289540126,52.9378317113303 1.2810589218483,52.9378107594331 1.28085408183059,52.9378322482544 1.28074443659526,52.9377957081624 1.2806377421144,52.9377588166363 1.28050483300955,52.9377630287766 1.28039347351114,52.937743173124 1.2802838109148,52.9377280368713 1.28016261325273,52.937739479322 1.2800513675493,52.9377329301211 1.27998031605927,52.9376732897534 1.27987304892835,52.937620945078 1.27973642321237,52.9376173450279 1.27942852801895,52.9376480634035 1.27921217739805,52.9376748135909 1.27906856483379,52.9376929894005 1.278925141414,52.9377116994034 1.27878175179911,52.9377308579584 1.27863853774557,52.937750371219 1.27849548567712,52.9377700596971 1.27833793761688,52.9377929361718 1.27818097752923,52.9378176847712 1.27802489570555,52.9378442075505 1.27786953001007,52.937872329126 1.27771487364237,52.9379019597562 1.27756091980344,52.9379330096997 1.2774077966755,52.9379652056253 1.27700288020803,52.9380535443308 1.27659897542777,52.9381434725036 1.27619525816717,52.9382339337145 1.27604136367284,52.9382677679318 1.27588730003802,52.9383013368204 1.27573341183171,52.9383352603956 1.27558052316903,52.9383705951031 1.27542897860082,52.9384079609641 1.27531457692944,52.9384404348808 1.27519526420985,52.9384886923093 1.2750854411429,52.9385463105469 1.27498180448301,52.9386089740788 1.27488121990125,52.938672632513 1.27479668978935,52.9387281138877 1.2747148068621,52.9387851409588 1.27463292372096,52.9388421679786 1.27454901428763,52.938897991783 1.2744661834529,52.9389483898683 1.27434482823458,52.9390169374353 1.27421495598866,52.9390791547386 1.27293980985115,52.9392133293135 1.27277603592978,52.9392425753157 1.27255013491696,52.9392829764435 1.27184663560734,52.9396423082036 1.27172547248641,52.9396621946611 1.27160667392517,52.9396877714735 1.27148823328327,52.9397141476907 1.27136798186858,52.9397362569559 1.27123752568359,52.9397513627953 1.27109871600881,52.9397642704878 1.27098045942166,52.9397694172128 1.27085920171934,52.9397604372708 1.27072400447307,52.9398389851729 1.27067228528879,52.9398993153206 1.27058903420574,52.9399738239945 1.2704715559148,52.9400248140054 1.27037560895672,52.9400632498661 1.27028462590714,52.9401063153041 1.27017061481435,52.9401421009632 1.27005798604484,52.9401330623872 1.26996377956855,52.9400939287375 1.26986836302809,52.9400466445435 1.26982044015619,52.9399757491508 1.26976382744892,52.9399080608142 1.26963378051018,52.9398772883824 1.26949162228722,52.9398615981561 1.26934716985408,52.9398549641189 1.26918052235626,52.9398520886831 1.26899179446995,52.9398525189382 1.26880330341348,52.9398560899864 1.26863264614038,52.9398612381816 1.26848017388537,52.9398686733857 1.26832808017257,52.9398791556551 1.26817665531752,52.9398925870678 1.26801433951057,52.9399136025507 1.2678535908365,52.9399396108587 1.26769244337633,52.939964280947 1.26753638593732,52.9399794578184 1.26739231886527,52.9399779369076 1.26720091122856,52.9399921976298 1.26701035587738,52.9400197445004 1.26682250204033,52.9400535119574 1.26669372570036,52.9400790885952 1.26656529365582,52.9401052851429 1.26643721266415,52.9401321913474 1.26630946243392,52.9401595379726 1.2661818876425,52.9401872393609 1.26605448828715,52.9402152955128 1.26590057895934,52.9402550524551 1.2657989203315,52.9402829398383 1.26564201854431,52.9403165734632 1.2655211945484,52.9403331167694 1.26539941809897,52.9403468982621 1.26527692565519,52.9403590805489 1.26515454113814,52.9403707201499 1.26503722767106,52.9403805114614 1.26491950888236,52.940388874894 1.2648021615239,52.9403982172338 1.26468580699424,52.9404108596195 1.26450584334245,52.9404426976935 1.26432889149502,52.9404809277783 1.26418040828615,52.9405117199464 1.26403209369304,52.9405427770896 1.26388396798468,52.9405743684468 1.26373633503192,52.9406065755971 1.26358921509924,52.940639667781 1.26344276349504,52.9406737306632 1.26332500412335,52.9407112315216 1.26321374098737,52.9407579066238 1.263101721238,52.9408024440537 1.26298169211205,52.9408335318651 1.26285176949771,52.940843937334 1.26273137458702,52.9408385226188 1.26260053982762,52.9408269195783 1.26248163072347,52.940829377781 1.2623645314857,52.940842038363 1.26224874905283,52.9408623068545 1.26213424958065,52.9408877560298 1.26202085069035,52.9409159627437 1.26190834976871,52.9409442346106 1.26176899967958,52.9409777406006 1.26164576150141,52.941011703118 1.26152880994258,52.9410520578327 1.26142233168753,52.9411010279823 1.26133796178701,52.9411589235079 1.26126095893116,52.9412217427252 1.26117427240712,52.9412765541565 1.26106656440319,52.941311168673 1.26095765429215,52.9413416792446 1.26086965045212,52.9413908609311 1.26088429605292,52.9414608753234 1.26099138913596,52.9414833845888 1.26108696852093,52.9415190702657 1.2609977963582,52.9415606399309 1.26088105294037,52.9415543136661 1.26075808964573,52.9415721699202 1.26066905202391,52.9416175127834 1.26058010887621,52.9416581765293 1.26046513439093,52.9416555784137 1.26037933360872,52.9416113499677 1.26026410885626,52.9416252160601 1.26023323235698,52.9416956712071 1.2602082712532,52.9417675826818 1.26017477434877,52.9418408077263 1.26012706282205,52.941903181606 1.26003455986107,52.9419420541296 1.25997941120597,52.9418778282365 1.26001345933079,52.9417030550333 1.26003238421704,52.9416162007904 1.26005205185131,52.941529326149 1.26006823445859,52.9414554973883 1.26007556385745,52.9413866781148 1.25996059881242,52.9413347066492 1.25983166748492,52.9413226885663 1.25971325734069,52.9413060647443 1.25959448922935,52.941292598247 1.25947453913278,52.9412851895161 1.25935402845579,52.941280224214 1.25921340103554,52.9412769801447 1.25907244240996,52.9412792308451 1.25893404943164,52.9412878860483 1.25880815431414,52.9413202098591 1.25867809318647,52.9413426654433 1.25854164557636,52.9413395756495 1.25840560963857,52.9413399817441 1.25828962858354,52.9413536868103 1.25817775245035,52.9413764521652 1.25808079896823,52.9414115782347 1.25802226689732,52.9414726294509 1.25807725638932,52.9415427062187 1.2582233800813,52.9416487728083 1.25830976527161,52.9417067463675 1.25838466447405,52.9417584700655 1.25845871294579,52.9418107566548 1.25853146499333,52.9418636183695 1.25859871288266,52.9419264336841 1.25855902782756,52.9419946120825 1.25843417124313,52.9420150359952 1.25832617977646,52.9419944376463 1.25813287151179,52.9419776194637 1.25786651528529,52.9419792629937 1.25770287777782,52.9419828538519 1.25734318898619,52.9419172699783 1.25695618931366,52.9418804929766 1.25660669881483,52.9418773096275 1.25642458386961,52.9418945356102 1.25617814165397,52.9419551640609 1.25592913501485,52.9419975162198 1.25580720941488,52.9419558939035 1.25562858465237,52.9419759907089 1.2555762699571,52.9420703248575 1.25536145104418,52.9420743266456 1.25519434398042,52.9420178448196 1.25497556027265,52.942028519678 1.25463193094717,52.942061772119 1.25421461036571,52.9421465952062 1.25409404049292,52.9422360539342 1.25378184393618,52.942305313845 1.25358819159108,52.9423949762734 1.25331645935485,52.9424876772385 1.25300827531441,52.9426025101321 1.25275275476881,52.9427922509085 1.25260555948218,52.9429455691458 1.25233036715959,52.943023973597 1.25205777981792,52.942984316456 1.25182748028647,52.943036039563 1.25164262994853,52.9431697037336 1.25135720548802,52.9433241080795 1.25119402981357,52.9433200330804 1.25084543006377,52.9432990918604 1.25067496467012,52.9433605956212 1.25047402915359,52.9433671760816 1.2503219273906,52.943264592004 1.25019686066741,52.9432326728986 1.25002606726251,52.9433811480115 1.24965925198236,52.9434409204075 1.24930657361943,52.9434410402221 1.24909678254184,52.9434526270409 1.24898330235034,52.9435435051377 1.24891175849032,52.9436595853551 1.24859615317511,52.9437948440864 1.24841882499373,52.9438661549332 1.24810308751335,52.943852669962 1.24791962331546,52.9437626316124 1.24791414175285,52.943649738304 1.24796573998643,52.9435316863589 1.24788663731411,52.9434753950299 1.24769872669818,52.9434213604296 1.247492282865,52.9433762859456 1.24732637775189,52.9433139148184 1.24717985788088,52.9432420202092 1.24709574766152,52.9431804694393 1.2469873460616,52.9431404468892 1.2468832505003,52.9431082204158 1.2467803759036,52.9430803670825 1.24666451448775,52.9430739126234 1.24659855075245,52.9431294051128 1.2464748400385,52.9431672312806 1.24637092684875,52.9431930947926 1.24625117832913,52.9432162435738 1.24613788544767,52.9432401150506 1.24604695765098,52.9432863073922 1.24605433011172,52.9433668638685 1.24612335745989,52.9434337739359 1.24619841739534,52.94349575269 1.24619715602254,52.9435862577506 1.24594706021299,52.9435407552534 1.24574202728346,52.9435184816233 1.24546710162485,52.9435429936543 1.24531622687788,52.9436177133594 1.24503573907859,52.9436156669135 1.24486105588995,52.9436090196643 1.2446952674741,52.9436177770799 1.24461153341128,52.9436885027531 1.24461832092849,52.9437732121233 1.24438936114765,52.9439026740443 1.24421357343559,52.9439867064517 1.24406402279613,52.943967770227 1.24391776377912,52.9439092641831 1.24394938018647,52.9438324087161 1.24399245083794,52.9437037098413 1.24397235613721,52.943580423887 1.24387667339556,52.9435054275714 1.24373484140716,52.9434423937333 1.24348169241422,52.9433739471146 1.24308437135058,52.9433822820123 1.2428694929682,52.9434253823648 1.24286681213015,52.9435029760931 1.24275346918363,52.9435580517527 1.24246155526428,52.9435863482229 1.24233467908819,52.9435480849665 1.242096086539,52.9433856197367 1.24178315796294,52.9435748352928 1.24186862689061,52.9436785303583 1.24208457192816,52.9437312691243 1.24235010275416,52.9438080139814 1.24269479547773,52.9439797217874 1.24309426815397,52.9440697139227 1.24316956674721,52.9441508433678 1.24306104082238,52.944182765412 1.24285084531483,52.9441790636413 1.24247389561045,52.9441015855427 1.24222932110915,52.9440940551628 1.24195006926616,52.9440846832567 1.24152733560336,52.9440339926282 1.24109429071259,52.944054447568 1.24064101720536,52.9441209581027 1.24022539346094,52.9442669276864 1.23995899109448,52.9443956042016 1.23980588154799,52.9443768496509 1.2399761103947,52.9442880292717 1.24008174184879,52.9442014210748 1.24030413919546,52.9439879711809 1.24048539651638,52.943865484702 1.24060672685747,52.9437797965456 1.24050724969456,52.9436858357079 1.24024078122887,52.9436283575427 1.24013787901974,52.9436618321317 1.24003217370125,52.9437095922172 1.23993529635711,52.9437539637341 1.23972892832434,52.9437576162603 1.23960364063639,52.9437465558274 1.23948855562884,52.9437385443456 1.23936679076841,52.9437586835285 1.23922966944702,52.9437645827799 1.23907416720325,52.9437675659256 1.23895311913106,52.9437853469242 1.23882909532212,52.9438111228966 1.23870378322271,52.9438336064334 1.23858590809596,52.943840059137 1.2384674975463,52.9438373533673 1.23829170911008,52.9438258703122 1.23814717634945,52.9438242363812 1.23800782250434,52.9438241697292 1.2378753009102,52.943827873563 1.2377400904538,52.9438334491896 1.2376189800263,52.9438404388088 1.23749859682479,52.9438511855763 1.23737905587737,52.9438652367031 1.23726060068325,52.943881866105 1.23709834826629,52.9439140784041 1.23694041318771,52.94395426657 1.23678129704364,52.9439925981711 1.23651664971214,52.9440372235802 1.23633328732849,52.9440658734257 1.23615027545129,52.9440952328821 1.23602977810312,52.9441144347797 1.23590963139835,52.9441343464464 1.23579968035799,52.9441572176522 1.2357233287052,52.9442113684115 1.23570858833059,52.9442871322614 1.23564474317785,52.9443532626909 1.23552322411404,52.9443966833456 1.23539528102502,52.9444198645932 1.2352660168822,52.944427343779 1.23515825166409,52.9444077074135 1.23508973796427,52.9443534572497 1.23497734453382,52.9443156908345 1.23485000478615,52.9443130448679 1.23472880899917,52.9443348724687 1.23461502126076,52.9443462460038 1.23450031236613,52.9443293162684 1.23425936786365,52.944304583679 1.23409477438771,52.9443054697253 1.23391145063536,52.9443007503822 1.23372821522399,52.9442952189711 1.23354481660398,52.9442914903408 1.23339849134301,52.9442917879862 1.23325221834316,52.9442947819569 1.23310603234567,52.9442989424807</coordinates></LinearRing></outerBoundaryIs></Polygon>
  </Placemark>
