  <Placemark>
	<Style><LineStyle><color>ff0000ff</color></LineStyle><PolyStyle><fill>0</fill></PolyStyle></Style>
	<ExtendedData><SchemaData schemaUrl="#Wards__December_2019__Boundaries_EW_BFE">
		<SimpleData name="objectid">7271</SimpleData>
		<SimpleData name="wd19cd">W05000092</SimpleData>
		<SimpleData name="wd19nm">Ogwen</SimpleData>
		<SimpleData name="wd19nmw">Ogwen</SimpleData>
		<SimpleData name="bng_e">262067</SimpleData>
		<SimpleData name="bng_n">367007</SimpleData>
		<SimpleData name="long">-4.06554</SimpleData>
		<SimpleData name="lat">53.18224</SimpleData>
		<SimpleData name="st_areashape">1267033.60608199</SimpleData>
		<SimpleData name="st_lengthshape">6777.97124573676</SimpleData>
	</SchemaData></ExtendedData>
      <Polygon><outerBoundaryIs><LinearRing><coordinates>-4.0706322755411,53.1895178624256 -4.07070600092574,53.1894932108521 -4.07124450114707,53.1893939637807 -4.07155140716363,53.1893625586671 -4.0718708827051,53.1893461237327 -4.07194004383599,53.1893522008349 -4.07223124170445,53.1893687043005 -4.07372517524603,53.1894011167852 -4.07380442324962,53.1893988374202 -4.0739533517294,53.189382760915 -4.07402303366135,53.1893689637602 -4.07413529839324,53.1893373478734 -4.07447683427606,53.1892513132001 -4.07492537237962,53.1890529497426 -4.07595667168751,53.1885889823101 -4.0762809779713,53.1884556953383 -4.07651945861128,53.188403000838 -4.07659300977202,53.1884080096671 -4.07732605789897,53.188460834779 -4.07797038084758,53.1885367754044 -4.07822116561112,53.1885521722188 -4.07840823545627,53.1885516029736 -4.07854194219872,53.1885321909275 -4.07875645493753,53.1884790112397 -4.07901867987356,53.1884223016787 -4.07919622521518,53.1884111113492 -4.07939917269337,53.1884300373991 -4.0795846310432,53.1884879178444 -4.08009235624547,53.1887424904665 -4.08046972421327,53.1889606897811 -4.08066958529898,53.1890380911441 -4.08094878783085,53.1890871396306 -4.08104616904269,53.1891177951343 -4.0810653884476,53.189020387342 -4.08098647148508,53.1886909128905 -4.08094156223169,53.1884417379699 -4.08090041862747,53.1883669566614 -4.08079498070767,53.1882591442308 -4.08067388426708,53.1881389320677 -4.08049350943484,53.1879695120065 -4.08025485145543,53.1877713589547 -4.07999983882781,53.1876355100439 -4.07984678459421,53.1875662789858 -4.07954163490456,53.1874781322548 -4.07936774336248,53.187439824904 -4.07868937861197,53.1873410272087 -4.07850079351427,53.1872796047563 -4.07827467733229,53.1871541239456 -4.07799123779323,53.1869585466757 -4.07790129606908,53.1868621458172 -4.07795992198063,53.1867118292957 -4.07813533021743,53.1865011416427 -4.07821505722315,53.1862947313335 -4.07838711174486,53.1860148032178 -4.0785083634028,53.1858275308099 -4.07858699498111,53.185690347006 -4.07861313814469,53.1856134911174 -4.07859413083368,53.1855293346576 -4.07820045346295,53.1850650502163 -4.07804414702347,53.1848339981799 -4.07795103970007,53.1847358545834 -4.07787989390528,53.1846580016947 -4.07777982283187,53.184599527833 -4.07758059453575,53.1845346056938 -4.07732417651622,53.1844608832055 -4.07682901207696,53.1843751479454 -4.07639150788977,53.1843027864283 -4.07607838674965,53.184266003302 -4.07538781068817,53.1841889737419 -4.07481606111978,53.1841270359597 -4.07449798385359,53.1840795499217 -4.07432821120348,53.1840366686294 -4.0740778456178,53.1839654412305 -4.0735845297687,53.1837924762648 -4.07304007507364,53.1835825601222 -4.0729592287584,53.1835489144295 -4.07290087164307,53.1835184724085 -4.0728056066887,53.1834059824508 -4.0727751744376,53.1833021614947 -4.0727723246025,53.183181770569 -4.07279560535574,53.1830428588171 -4.07285363609072,53.1829438780955 -4.07294901784126,53.1828415506239 -4.07319110702935,53.1826188348597 -4.0732464746508,53.1825234957242 -4.07339275992397,53.1822691917428 -4.07343787325318,53.1821174062448 -4.07345029101773,53.1819094754199 -4.07343347468861,53.1818091018323 -4.07341139500113,53.1817249086779 -4.07339291587759,53.181682088007 -4.07338613761598,53.1816669264573 -4.07334461722669,53.1815813636582 -4.0732778739594,53.1814998363844 -4.07317700057227,53.1813963423134 -4.07305785901375,53.181315726507 -4.07293188417353,53.181246914706 -4.07249012709673,53.1810549812967 -4.07231124203064,53.1809457436668 -4.07218792773186,53.1808399438841 -4.0721161054244,53.1807477181696 -4.07197623796009,53.1805469313449 -4.07171205631242,53.1800660827805 -4.07153377546734,53.1797518156089 -4.07138873927062,53.1795690946611 -4.07135538954745,53.1795274304741 -4.07121917191963,53.1794354253876 -4.07120203859244,53.179420443827 -4.07117112822215,53.17940120751 -4.07104081206841,53.1793036170191 -4.07092371533031,53.1792652076438 -4.07073764723641,53.1792549617135 -4.07064015875484,53.179252163779 -4.07052735009391,53.1792694053843 -4.07026599752802,53.1793432487002 -4.06985515740199,53.1795130766633 -4.06945631371488,53.1797142430449 -4.06921646542803,53.179829864958 -4.06898753653933,53.1799237244233 -4.06732487602043,53.1803905089775 -4.06726907710576,53.1804130492157 -4.06685081337211,53.1805829956797 -4.06662529162503,53.1807478877525 -4.0665294226624,53.180840331591 -4.06641070788336,53.180986291472 -4.06640652904778,53.1809917566083 -4.06628579987329,53.1810342992058 -4.06612736672716,53.1810703043516 -4.06605008196424,53.1810797344275 -4.06595610389763,53.1810858596522 -4.06586465146014,53.1810829521036 -4.06577176340893,53.1810809693605 -4.06567452355525,53.1810808583855 -4.06553138597928,53.181032109308 -4.0653547954425,53.1809676726749 -4.06517613019893,53.1808934746467 -4.0648522805704,53.180632953536 -4.06462821443187,53.180456179128 -4.06446040343302,53.1802945167677 -4.06441188731428,53.1802504181946 -4.06437002359042,53.1802214829929 -4.06403118092649,53.1800826495508 -4.06395366533182,53.1800281775538 -4.06389252588004,53.1799087967228 -4.06387601043692,53.17987582746 -4.06382433340602,53.1797967288656 -4.06358201317525,53.1797046671612 -4.06295855392382,53.1794997582762 -4.06270252217536,53.1793405213884 -4.06263241836527,53.1792527536363 -4.06259897791686,53.1790240469174 -4.06257955746546,53.1788688890276 -4.06256866951273,53.1787988812913 -4.06247183592277,53.1787762913267 -4.06234164211528,53.1787758495881 -4.06220613907885,53.1787907801967 -4.0621676925023,53.178799535962 -4.06208962751343,53.1788260548129 -4.06200638297334,53.1788680328501 -4.06194244541466,53.1789086874598 -4.06181377567821,53.1790016954839 -4.06159791011757,53.1791186836887 -4.06155024902858,53.1791231043825 -4.06142301173343,53.1791226113173 -4.06132164562871,53.1791315571923 -4.06124533176269,53.1791328785069 -4.06117014673971,53.1791242932082 -4.06104609912928,53.1790976788187 -4.0607537323654,53.1790218475038 -4.06023052396263,53.1788150995712 -4.06000156467702,53.1787543469349 -4.05976041207038,53.1787171742239 -4.05962022814713,53.1786962310663 -4.05941145439241,53.1786189503419 -4.05922944496932,53.1785671811897 -4.05909571174027,53.1785263518317 -4.05902924205863,53.1784807636264 -4.05900018638533,53.178404867274 -4.05899189198361,53.1783888320673 -4.05898647926399,53.1783376934042 -4.05906263837324,53.1779290371072 -4.05911716614632,53.1777564221211 -4.05917109931338,53.1776331616339 -4.05926765539667,53.1774930750635 -4.05944145241173,53.1773093179222 -4.05958744742197,53.1771710729487 -4.05961157593061,53.1770798751344 -4.05961480951504,53.177054652569 -4.05961084388929,53.1769719415911 -4.05957490142505,53.1768476294015 -4.05949843247056,53.1767195239151 -4.05941520891303,53.1766049277097 -4.05925192752087,53.1764468656288 -4.05910821641242,53.1763521905317 -4.05891360892713,53.1762252290919 -4.05872887826297,53.1760855141385 -4.0586232271269,53.1759740016101 -4.05855334723092,53.1758880259917 -4.05851891671628,53.1757951447732 -4.05850827692634,53.1756658113485 -4.05854949790738,53.1753081816267 -4.0585586485941,53.175187584425 -4.05854614833522,53.1751455565455 -4.05852451560923,53.1751009004097 -4.05851816764551,53.175092022299 -4.05845898891777,53.1750130528421 -4.05825284401791,53.175021110881 -4.0571434070211,53.1750690503339 -4.05703443888668,53.1750736296729 -4.05680678679244,53.1751323906862 -4.05674072639721,53.1751595976115 -4.05655724447864,53.1752338625589 -4.05628531016743,53.1753985475574 -4.0560228925427,53.1755739436879 -4.05586453976179,53.1756422913626 -4.05563737288745,53.1756803689428 -4.05552692420224,53.1756849724759 -4.05540413700586,53.1756843963721 -4.05533817860067,53.1756828389445 -4.05491569531269,53.1756406978676 -4.05467531929388,53.1756502406048 -4.05435129198637,53.1757268382923 -4.05411517155501,53.1758279838164 -4.05382188298995,53.1759850325988 -4.05353477794443,53.1761140203026 -4.0532928547115,53.1762513066835 -4.05322438875331,53.1762902374072 -4.05300805524061,53.1763640755508 -4.05298131440395,53.1763699292947 -4.05297552673168,53.1763727253937 -4.05277231237282,53.1764112833293 -4.0527083846255,53.1764186773209 -4.05261462978288,53.1764292818682 -4.0523643541217,53.1764228110114 -4.05211334346839,53.1763983773706 -4.05198239003451,53.1763844561436 -4.05154226316286,53.1763165424664 -4.05123176612958,53.1762374056715 -4.05074230152291,53.1761414857696 -4.05071512547874,53.1761356622087 -4.05069433827551,53.1762016327707 -4.05068131658573,53.1762441911071 -4.05074530585166,53.1763931889584 -4.05084330838398,53.176533601992 -4.05096976956082,53.1767066901975 -4.05116969897688,53.1769765723279 -4.05126976147333,53.1772221089039 -4.05219649319152,53.1782040783116 -4.0523916743922,53.1784362900325 -4.05243850270539,53.1785073869179 -4.05252961410194,53.1786918687062 -4.05262990077853,53.1788798774937 -4.05266239688036,53.1789970600447 -4.05267068145921,53.1791704764495 -4.05267535793407,53.1792683656038 -4.0526814545315,53.1793959802015 -4.05268109121443,53.1794193557594 -4.05268216501015,53.1795038247079 -4.05272046696991,53.1795849554916 -4.05280374055562,53.17966989426 -4.05307427858799,53.1798494845733 -4.05311864245998,53.1798999507243 -4.0531581911264,53.1799451981373 -4.05317034540039,53.1799800411295 -4.05320303551339,53.1800702573764 -4.05328877842105,53.1802971644749 -4.05335951336768,53.1804011041337 -4.05344440982995,53.1804553664208 -4.05358352648513,53.1805158832305 -4.05380488341589,53.1805750711335 -4.0542639643768,53.1806615253645 -4.0544443651716,53.180710542829 -4.05463222345425,53.1807890922812 -4.05477643136997,53.1808630921342 -4.05506827055419,53.1810207385317 -4.05582322294596,53.1814725669524 -4.05672185770656,53.1819559735836 -4.05721746448637,53.1821784938331 -4.05737586476894,53.1822368760322 -4.05760452161943,53.1823219058737 -4.05770262255909,53.1824326518267 -4.05778831812443,53.1825677888174 -4.05793736736313,53.1828043850986 -4.05796665055701,53.1828515158248 -4.05797160527389,53.1828622153478 -4.05803839231552,53.1829761086837 -4.05815869810156,53.1832051117862 -4.05819426535856,53.1836666628503 -4.05856347563922,53.1835325604213 -4.05860327249502,53.1835183900151 -4.05866655878308,53.1835900992831 -4.05883434283865,53.1837823283662 -4.05897779734422,53.1839020848273 -4.05901671173561,53.183933858963 -4.05928629620977,53.1841233380037 -4.05946175023205,53.1842875699098 -4.05965372008304,53.18491988282 -4.05972212250348,53.1850364431724 -4.05960793107963,53.1850896494867 -4.05995789559276,53.1855835097644 -4.0601089300989,53.1856114558929 -4.06045275225855,53.1857583040518 -4.06059078546474,53.1858908257477 -4.06071858835779,53.1859335536121 -4.06094713290615,53.1860491391034 -4.06206148747046,53.1867194994405 -4.06267435290364,53.1870460257632 -4.06288195497908,53.1871287151693 -4.06328099171326,53.1873043490547 -4.06372956203215,53.1874808305763 -4.06618987481748,53.1861633022005 -4.06630329029831,53.1862197571004 -4.06643985249918,53.1865059936512 -4.06781735542866,53.1862366171034 -4.06841052697439,53.1861202537503 -4.06896132557269,53.186961223181 -4.06979684221861,53.1882089847179 -4.0706322755411,53.1895178624256</coordinates></LinearRing></outerBoundaryIs></Polygon>
  </Placemark>
