  <Placemark>
	<Style><LineStyle><color>ff0000ff</color></LineStyle><PolyStyle><fill>0</fill></PolyStyle></Style>
	<ExtendedData><SchemaData schemaUrl="#Wards__December_2019__Boundaries_EW_BFE">
		<SimpleData name="objectid">533</SimpleData>
		<SimpleData name="wd19cd">E05000731</SimpleData>
		<SimpleData name="wd19nm">Saddleworth North</SimpleData>
		<SimpleData name="wd19nmw"></SimpleData>
		<SimpleData name="bng_e">400140</SimpleData>
		<SimpleData name="bng_n">409373</SimpleData>
		<SimpleData name="long">-1.99935</SimpleData>
		<SimpleData name="lat">53.580959</SimpleData>
		<SimpleData name="st_areashape">41899008.2713675</SimpleData>
		<SimpleData name="st_lengthshape">37930.0056790661</SimpleData>
	</SchemaData></ExtendedData>
      <Polygon><outerBoundaryIs><LinearRing><coordinates>-2.04697113528899,53.5424306688036 -2.04677794149037,53.5423452941162 -2.04630086545583,53.5421846427245 -2.04506901423482,53.5417374628305 -2.04486674620336,53.5416521779515 -2.04323634729536,53.5410074458168 -2.04337436433599,53.5416527507507 -2.04342135766883,53.5418603928802 -2.04341545180301,53.5420437034327 -2.04336886578524,53.5422298140229 -2.04332370507427,53.5423520357703 -2.0432514590061,53.5425120972789 -2.04224685773256,53.5443029481335 -2.04171195641009,53.545165043093 -2.04142582354464,53.5457098545112 -2.04138955556325,53.5457754623775 -2.04130967027466,53.5457727952531 -2.04107422248258,53.5457441246306 -2.04104529204476,53.5455553469195 -2.04102562321284,53.5454196708559 -2.04100294978065,53.5453918235734 -2.04096962678966,53.5452911963882 -2.04094991405135,53.5452371996135 -2.04091519941059,53.5452381106899 -2.04088508816848,53.5452381213139 -2.04087451322594,53.545239023862 -2.04086393917177,53.5452408243289 -2.04079750004633,53.5452463287283 -2.04067681579555,53.5452562554515 -2.04054406251736,53.545267085091 -2.04035532345694,53.5452833252004 -2.04014419041587,53.5453040650572 -2.03999477031363,53.5453211897726 -2.03976535082908,53.5453464284413 -2.03941985482928,53.545386082794 -2.03911504033844,53.5454203312815 -2.03902148093532,53.5454311459437 -2.03894148390627,53.5454419550725 -2.03888873269201,53.5454482627152 -2.03845104927455,53.5455041201943 -2.03819301743316,53.5455383507084 -2.03887976779703,53.5471515752583 -2.03689696306807,53.5474542255837 -2.03658578940991,53.5472134200173 -2.03650422142462,53.5471406632798 -2.03647706981823,53.5471118279607 -2.03644692687071,53.5470776923706 -2.0364211419254,53.5470480476817 -2.0363607308949,53.5469779788879 -2.03631090905603,53.5469222841891 -2.03624290568335,53.5468504209965 -2.03618860653831,53.5467982321321 -2.03618250395596,53.5467919441357 -2.03603753750205,53.5466455239583 -2.03584873795365,53.5464621876659 -2.03565084778475,53.5462672619567 -2.03547114031035,53.5460884146931 -2.03531248359836,53.5459339114423 -2.0351901849205,53.5458062642817 -2.03504211151006,53.5456580474361 -2.03479441534709,53.545413625545 -2.03464796078496,53.5452654058434 -2.03454970215046,53.5451665035144 -2.03446364989723,53.5450802663884 -2.0343170739489,53.5449338439778 -2.03417511003821,53.5447936192059 -2.03408905556647,53.5447046871967 -2.0339833265629,53.5445950035048 -2.03391084416163,53.5445168488089 -2.03387161469721,53.5444746282401 -2.03385791598484,53.5444593567726 -2.03369506760064,53.5444899529711 -2.0336345504953,53.544434259686 -2.03352883009411,53.5443345497378 -2.03343220000546,53.5442410362916 -2.03329634627189,53.5441125806094 -2.03318901127557,53.5440128708325 -2.03309698830887,53.543922951119 -2.03295503344343,53.5437864092481 -2.032838729809,53.5436731331721 -2.03274359679496,53.5435815063156 -2.03256229771063,53.5434081351039 -2.03240976367832,53.5432625201991 -2.03224664468576,53.5431035201518 -2.03210618778223,53.54296688708 -2.03189176964964,53.5427575811905 -2.0317907679485,53.5427935495777 -2.03173491750016,53.5428115360468 -2.03168205058241,53.5428259264582 -2.03166401204408,53.5428304243615 -2.03164883614421,53.5428349206108 -2.03155840041956,53.5428574083396 -2.03131097289599,53.5429185750167 -2.03101649511239,53.5426274292048 -2.03099233952626,53.5426049723371 -2.03070417336455,53.5427578898976 -2.03042968661471,53.5429035255923 -2.03018976803032,53.5430239915505 -2.02995593984942,53.5431400531101 -2.0298458256486,53.5431373848944 -2.02976581866551,53.543132912424 -2.02950329269174,53.5431392668441 -2.02924673815333,53.5431438216171 -2.02899628011449,53.5431483752712 -2.02877592695987,53.5431457325346 -2.02857672401806,53.5431421855715 -2.02848017171433,53.543139512885 -2.0283669453228,53.5431359452346 -2.02817682479569,53.54313149666 -2.02797002986883,53.5431234582109 -2.02787497133245,53.5431225814116 -2.02780256065136,53.5431261924676 -2.02773014906377,53.5431307013908 -2.02764256068458,53.5431370113686 -2.0275957817527,53.5431415152308 -2.02753394581292,53.5431442248935 -2.02748865808888,53.5431469307536 -2.02744188127615,53.5431568256147 -2.02737706648464,53.5431685212727 -2.0272578884819,53.5431964041677 -2.02717640671754,53.5432179876874 -2.02706767892839,53.5432440695152 -2.02696667127221,53.5432791358127 -2.02685048744682,53.5433195964573 -2.02676454181641,53.5433645434306 -2.02670720164063,53.5433933998207 -2.02655169786633,53.543430274518 -2.02656079800988,53.5434563307926 -2.02588639159587,53.5435975498173 -2.02578076874811,53.5436182387178 -2.02574755963703,53.543636217483 -2.02573100434916,53.5436254380006 -2.02572191784963,53.5436200488803 -2.02561329340374,53.5436146800049 -2.02459000586477,53.543566371303 -2.02415998463089,53.5435412985897 -2.0240060674947,53.5435332417818 -2.02355477227388,53.5435108675529 -2.02340695400636,53.5435037075976 -2.02337970332158,53.5435010173458 -2.02319570931968,53.5435504728335 -2.02305389677421,53.5436008188042 -2.02291358046977,53.543661048504 -2.02283508305439,53.5436845150351 -2.02265555537233,53.5437115058213 -2.0224925759165,53.5437384923601 -2.02235671877945,53.5437654745647 -2.02230099367677,53.5437933397842 -2.02219377661046,53.5438607502647 -2.02206716030301,53.5439479334437 -2.02195695705695,53.5440145353127 -2.02173515490877,53.5440999377159 -2.02151037114244,53.5441961232056 -2.02132178097097,53.5442707359207 -2.02120111896165,53.5443283535162 -2.02091141557263,53.5444874476484 -2.02061274723595,53.5446403416873 -2.02041657878954,53.5447437079027 -2.02029591638227,53.5448057277824 -2.02017526040026,53.5448812260316 -2.02006803908609,53.5449496240602 -2.01974376068631,53.5451608354549 -2.0187780438462,53.545360556328 -2.01832379822539,53.5454540742462 -2.01751944538839,53.545622308557 -2.01664130217737,53.5457913544138 -2.01600601873802,53.5459155255447 -2.01598785936426,53.5459343973613 -2.01593959971301,53.5459820266539 -2.01594258629633,53.5459820262777 -2.01604974103076,53.5460341281627 -2.0164708947176,53.546237236351 -2.01650561670901,53.5462543037264 -2.01650574913604,53.5465733786957 -2.01644839085133,53.5465814727309 -2.01640770274883,53.5465859711507 -2.01635034516686,53.5465958627494 -2.01630654887178,53.5466057516724 -2.01625827667553,53.5466237295041 -2.01619035630348,53.5466704626157 -2.01609232997278,53.5467333735248 -2.01596854674775,53.5467971855141 -2.01590672068373,53.5468386165412 -2.01585845773278,53.5468808547622 -2.01577847684494,53.5469545452185 -2.01570757548962,53.5470183512324 -2.01565483359807,53.5470623866378 -2.01556874292302,53.5471055273179 -2.01552196886896,53.5471361733281 -2.01535451015463,53.5472098750839 -2.01527152941285,53.5472494208513 -2.0151885476924,53.5472907641716 -2.0151115408813,53.5473365998502 -2.01503615925327,53.5474022027098 -2.0149697374918,53.547467894346 -2.0149079060114,53.54750024962 -2.01483250996015,53.5475290112258 -2.01469066946057,53.547568564347 -2.01456985982428,53.5476135050273 -2.01443101519636,53.5476755213359 -2.01432700746478,53.5477303440249 -2.01423494580578,53.5477879515849 -2.01415644924139,53.5478472643982 -2.01409313389339,53.547907474287 -2.01405532319008,53.5479568983663 -2.01401463443358,53.5479640914904 -2.01396785028115,53.5479721831749 -2.01394370348329,53.5479524183957 -2.01393012253772,53.5479065933993 -2.01393009558537,53.5478302165329 -2.0139601604239,53.5476935445216 -2.01399333164203,53.5475416859459 -2.01400997270325,53.5474500329482 -2.01401742364767,53.5474077100865 -2.01401741120761,53.5473726665699 -2.01401440953546,53.5473304356359 -2.01398876350029,53.547290901806 -2.01393436764912,53.5472387923345 -2.01390112873642,53.5471983614077 -2.01385433028558,53.5471633229783 -2.01371098190632,53.5471579474216 -2.01342577199095,53.5471300329491 -2.01341968197472,53.5471507896994 -2.01336393374315,53.5471445056968 -2.01332311796051,53.547140016826 -2.01329601046587,53.54719483149 -2.0132627867324,53.5471930373268 -2.01325980006175,53.5471930376363 -2.01298505142494,53.547191269073 -2.01293229253369,53.5471930711178 -2.01293378334169,53.5471876799331 -2.01288400994586,53.5471858882317 -2.01272102245135,53.5472452085684 -2.01257007957942,53.5472299482346 -2.01229853583089,53.5475301790641 -2.01223671601612,53.5476020687075 -2.01215672422948,53.547665873484 -2.01210696389213,53.5477081094357 -2.01199971840179,53.5477666155116 -2.01186248876611,53.5478385119563 -2.01175984796743,53.5478996221311 -2.01167076681746,53.5479445578917 -2.01158479205226,53.547981405858 -2.01146111795805,53.5480317355918 -2.01128294445578,53.5480929428046 -2.0111396070478,53.5481360852731 -2.01105064694474,53.5481756295278 -2.01098420798683,53.5482124753971 -2.01093444579761,53.5482547108603 -2.01089065926608,53.5483104251838 -2.01085745780854,53.5483913869444 -2.01077913150859,53.5486402914992 -2.0107474378327,53.5487778616477 -2.01066744816415,53.5488605340396 -2.0105965557486,53.54899801837 -2.01050750397666,53.5491706366165 -2.01042765539727,53.5493224970523 -2.0103385993538,53.5494843331007 -2.01026620949699,53.5496119322852 -2.01022704699171,53.5497495028648 -2.01018626224441,53.5498717084837 -2.01015456659862,53.5500128727729 -2.0101244802277,53.550121599953 -2.01010633342541,53.5502060647582 -2.01007014838172,53.5503103891224 -2.01002637507777,53.5504218118877 -2.01000835575096,53.5505197550936 -2.00999021046602,53.5506097007426 -2.00994197726065,53.5507983994222 -2.00993752818226,53.5509206919885 -2.00991940427906,53.5510878233451 -2.00992405293153,53.5512604338786 -2.00992407788034,53.551355680174 -2.00993768138803,53.5515048375186 -2.00995425572771,53.5515920858902 -2.00996783555564,53.5516504900589 -2.00999509833259,53.5516828359451 -2.01003580665067,53.5517331514866 -2.01007962003247,53.5517672927913 -2.01028036950394,53.5518283778538 -2.01037844074602,53.5518545180985 -2.01053551061178,53.5519165050063 -2.01054299258604,53.5519713161805 -2.01044498075805,53.5521628044362 -2.01033338732706,53.552301189634 -2.01013421110122,53.5525448009612 -2.01013259352755,53.5525465986951 -2.01007833319153,53.5525421097699 -2.01009948289745,53.5525205431285 -2.01005866146118,53.5525079666137 -2.01003302254983,53.5524998811441 -2.0100164695362,53.5524953901899 -2.01000278328334,53.5525097676103 -2.0099968116256,53.5525133623848 -2.00999220698917,53.552515160345 -2.00998922040476,53.5525169572827 -2.00998175398746,53.5525187545622 -2.00997864339695,53.5525196536037 -2.00997565633868,53.5525196538316 -2.00997266904389,53.5525187552552 -2.00995910332332,53.5525151628695 -2.00992288577093,53.5525034838632 -2.009889656469,53.552496298641 -2.00984883501502,53.552489113082 -2.00980963209257,53.5524837249962 -2.00977789768862,53.5524846252734 -2.00974778179775,53.5524873230302 -2.00969340137141,53.5525026031371 -2.00962097606669,53.5525169848402 -2.00958775327472,53.5525412477928 -2.00960741951188,53.5525493337951 -2.00965869664576,53.5525690974315 -2.00984887287532,53.5526346780088 -2.00990923473881,53.5526526441445 -2.01007228136351,53.552715530004 -2.01010252571895,53.5527299040415 -2.0100104523555,53.5528009867586 -2.00991836255073,53.5528162689489 -2.00975844363826,53.5528135854473 -2.00954401983312,53.5528252820761 -2.00917876592522,53.5528567572108 -2.00908829005204,53.5528504736423 -2.00900514985817,53.5528190301806 -2.00894179827737,53.5527956718653 -2.0088769516552,53.5527560506547 -2.00880600070197,53.5526949537885 -2.00876666279304,53.5526482320637 -2.00865501054403,53.5525556895337 -2.0085493396746,53.552492798063 -2.00841641364021,53.5524334126621 -2.00822773514785,53.5523687285169 -2.00816891950089,53.5525898649193 -2.00807240562605,53.5528640177289 -2.0079924293885,53.5530697893466 -2.00787475428158,53.5533367546008 -2.00781740622979,53.5534464704678 -2.00774649701646,53.5535839520421 -2.00764995479632,53.5537457863266 -2.00729671618525,53.5535372527868 -2.0071171113608,53.5534303352063 -2.00666713017236,53.5529485575959 -2.00628673981663,53.5525423420742 -2.00601955183227,53.5525738030683 -2.00598192991916,53.5530923562416 -2.00560759370902,53.5531652440408 -2.00546572583788,53.5532101763154 -2.00515175492877,53.5533467675748 -2.00504921717469,53.5534169471374 -2.00552317063261,53.5536820012608 -2.00541601914617,53.5536972805689 -2.0051941255064,53.5537414075176 -2.00494510284589,53.5537989235691 -2.00469147870999,53.5538789021579 -2.00441980749411,53.5539642726719 -2.00408777788871,53.5540668068754 -2.00387945002223,53.5541324061369 -2.00370745978829,53.5541845257101 -2.00343727825059,53.5542645029265 -2.00311868296613,53.5543580479023 -2.00304475950276,53.5543760199635 -2.00281228134428,53.554420052801 -2.00262361078661,53.554455998008 -2.00244551791842,53.5544892463654 -2.00221913593756,53.5545233938218 -2.002161762408,53.5545126124113 -2.0018795032426,53.5545961796534 -2.0018945596708,53.5545665270855 -2.00189752986398,53.5543004676304 -2.00190063708811,53.5542420624271 -2.00190972022401,53.5542079176857 -2.00204249564688,53.5539472480219 -2.0020983666008,53.5538286385874 -2.00216468640672,53.5536380563821 -2.00221607695631,53.5535239400567 -2.00223412021089,53.5534781143272 -2.00225079137052,53.5534115316305 -2.00222814115164,53.5534115318927 -2.00222813551443,53.5533333584117 -2.00166362131801,53.5533046099211 -2.00159268306521,53.5532929295223 -2.00154427137699,53.5532839444671 -2.00149001095672,53.5532785537409 -2.00146885356657,53.5532776550473 -2.0014491907466,53.5532776551401 -2.00140090413897,53.5532830463808 -2.00133756002393,53.5532920319762 -2.00124546729767,53.5533171916049 -2.00121833775714,53.5533225836069 -2.00115486863589,53.5533396556462 -2.00111417452592,53.5533531341935 -2.0010779601888,53.5533648151121 -2.00103266114172,53.5533845834696 -2.00099495253081,53.5533980619729 -2.00096471230536,53.5534097428522 -2.00093758145694,53.5534224124071 -2.00092700383602,53.5534278034373 -2.00090883413432,53.5534376875891 -2.00089228253208,53.5534484696435 -2.00087722525907,53.5534601513987 -2.00086515352916,53.5534709334498 -2.00085756301812,53.5534772232786 -2.00084698396805,53.5534853107138 -2.00084399694039,53.5534871074219 -2.00083192653167,53.553493397247 -2.0008198545417,53.5534978903617 -2.00075190624624,53.5535464113385 -2.00074742651206,53.5535509044546 -2.00073373667868,53.5535625852945 -2.00071867925704,53.5535724694217 -2.00070212752174,53.5535823535445 -2.00069602970076,53.5535868457572 -2.00067798364738,53.5535967298743 -2.00066280095099,53.5536075127982 -2.00064923635619,53.5536191936287 -2.00063865889144,53.5536317732681 -2.00063268485775,53.5536371642819 -2.0006039375149,53.5536596280254 -2.00059647067269,53.5536650190338 -2.00057830090746,53.5536784974528 -2.00054507348068,53.553697366853 -2.00053760662426,53.5537027578577 -2.00052852168367,53.5537081497559 -2.00051943671297,53.5537126419505 -2.00050885891086,53.5537162362344 -2.00050587182502,53.5537171350289 -2.00049529396613,53.5537189317035 -2.00048172899273,53.5537207292659 -2.00046355876844,53.5537207292022 -2.00045310454643,53.553718033651 -2.00043941559186,53.5537126416746 -2.00043344126206,53.5537090473345 -2.00043045396826,53.5537027574923 -2.00042883573124,53.5536973664594 -2.00043045347699,53.5536856856084 -2.00043344051038,53.5536829901065 -2.00043642759534,53.5536820913139 -2.00044103125203,53.5536811925273 -2.00044849822193,53.5536793958459 -2.00045609044533,53.5536767003605 -2.0004605702504,53.5536731060594 -2.00046517528204,53.5536677150493 -2.00046666800236,53.5536650186424 -2.00046965497861,53.5536605264304 -2.00046965484513,53.553656033309 -2.00046666754969,53.5536497434677 -2.00046206368473,53.5536434536205 -2.00045459648442,53.5536371637627 -2.00045148404369,53.5536353670419 -2.00043791886113,53.5536290771604 -2.00042435373406,53.5536245839866 -2.00040021069564,53.553619192863 -2.00038664416607,53.5536182940023 -2.00037457347899,53.5536182939506 -2.00036548841338,53.553619192715 -2.00035951422484,53.5536200914926 -2.00035192353907,53.553623685776 -2.0003458256508,53.5536272800657 -2.00032018873601,53.5536380619992 -2.00030961093562,53.5536416562656 -2.00030214398961,53.5536443517424 -2.00028247964833,53.5536506414745 -2.00025385701476,53.55365782996 -2.0002386740356,53.5536623221007 -2.00021452983006,53.5536713073105 -2.00019797785428,53.5536775970464 -2.00017084811085,53.5536901765474 -2.0001662429785,53.5536928729317 -2.00014969253622,53.5537009593703 -2.00011945048503,53.5537189298671 -2.00010737848941,53.5537298026212 -2.0001014059211,53.5537369912167 -2.00009381377633,53.5537450777064 -2.00008771614549,53.5537630483537 -2.00008771634965,53.5537729325019 -2.00008472926933,53.5537747300899 -2.00008024936625,53.5537756279648 -2.00007726224873,53.5537756279445 -2.00002885133233,53.5537918015841 -2.00002138434183,53.5537944970433 -2.00001229928162,53.5537980912943 -2.00000470855104,53.5538025843597 -2.00000172149853,53.553806178655 -2.00000022726747,53.5538106708665 -2.00000172166582,53.553815163999 -1.99999263699634,53.553840323254 -1.99998964998955,53.5538466130622 -1.99998666299826,53.5538538007756 -1.99998666314594,53.5538618882143 -1.99998815764329,53.5538717723737 -1.99999114340672,53.5538798589361 -1.9999957487865,53.5538888443146 -2.0000032161138,53.5539032216396 -2.00001528866404,53.553917598099 -2.00002736120524,53.553931076652 -2.00002885404941,53.553932873372 -2.00003793936473,53.5539409608757 -2.00004403755372,53.5539490474588 -2.00004702475429,53.5539526417972 -2.0000485176355,53.553956236125 -2.00004702487814,53.5539589316277 -2.00004254504268,53.5539643226226 -2.00003495281088,53.5539706123991 -2.00003346001733,53.5539715111925 -2.00002736206894,53.5539760033711 -2.00001989506287,53.5539795976343 -2.00000782283048,53.5539831918632 -1.99999873767851,53.5539840905999 -1.9999896524932,53.5539831917278 -1.99996252236406,53.553988582547 -1.99994136499996,53.5539948722117 -1.99992020915397,53.5540020606766 -1.99990664261445,53.5540074515924 -1.99988847391933,53.5540164376844 -1.99979500989324,53.5540551636345 -1.99978891189519,53.5540587578958 -1.9997798267943,53.5540650476424 -1.9997692488644,53.5540704385703 -1.99975717659622,53.554074931578 -1.99974970952689,53.5540767282163 -1.99974062434927,53.5540776269334 -1.99973913154569,53.5540785257231 -1.99972855354175,53.5540785256209 -1.99971946834186,53.5540776267284 -1.99970888882872,53.5540776266244 -1.99969383089175,53.5540794240829 -1.9996862385372,53.554081220716 -1.99967566056194,53.5540839161225 -1.99965151752331,53.5540946988269 -1.99963197820127,53.5541054806762 -1.99960783518084,53.5541207555944 -1.99958518495973,53.554136030524 -1.9995760998425,53.5541459145725 -1.99954896813156,53.5541620882499 -1.99953079931379,53.5541737689021 -1.99950665469587,53.5541872470907 -1.9994749190984,53.5541881455238 -1.99942364552819,53.5541872461028 -1.99941157316897,53.5541872459543 -1.99936328523524,53.5541854486391 -1.99933914201939,53.5541827528155 -1.9993029264402,53.5541755637062 -1.99927119083898,53.5541701722547 -1.99925003327429,53.5541683743586 -1.99923497528457,53.5541683741514 -1.99920933775884,53.5541692725982 -1.99919726540436,53.5541701712322 -1.99918058931325,53.5541710689004 -1.99916702262806,53.5541737642192 -1.99913690511851,53.5541827500247 -1.9990085950026,53.5542195882568 -1.99900249691836,53.5542222836742 -1.99898283362353,53.5542285731932 -1.99896329410097,53.554233963907 -1.99892857127618,53.5542393552686 -1.99892247319023,53.5542411518778 -1.99888028321047,53.5542492377169 -1.99883796943365,53.554258223242 -1.9988123318191,53.5542618162184 -1.99879565567461,53.5542636135359 -1.99873380238553,53.5542699022686 -1.99869310672779,53.5542734958461 -1.99863423910227,53.5542761902647 -1.99861756295728,53.5542770887534 -1.99857076924451,53.5542779857613 -1.99855570970627,53.5542779854686 -1.99855272256731,53.554277087505 -1.9984998308199,53.5542752888526 -1.99849385651414,53.5542752887332 -1.99847568606686,53.554274389564 -1.99846971327065,53.5542743894434 -1.99845913372431,53.5542734913238 -1.99845303566217,53.5542725923957 -1.99844245762608,53.5542716933758 -1.99842142539576,53.5542663019172 -1.99840624217505,53.5542618084816 -1.99829908919301,53.5542114875629 -1.99823424965639,53.5541791390814 -1.99819803468036,53.5541548768534 -1.99815721389614,53.5541548759281 -1.99811950560828,53.5541521795475 -1.99807121767221,53.5541539760279 -1.99800475867571,53.5541782349641 -1.99800027865964,53.5541800315654 -1.99793381952671,53.5542060880706 -1.99787047268645,53.5542339413268 -1.99782666402499,53.5542537085108 -1.99781608600697,53.5542528094355 -1.997804013629,53.5542528091248 -1.99779343555109,53.5542537076557 -1.99778596836654,53.5542555041716 -1.99777539019556,53.5542590982144 -1.99775124540483,53.5542599963877 -1.99772399122958,53.5542599956699 -1.99770743890871,53.5542590964267 -1.99765454620913,53.5542438198327 -1.99760775347158,53.5542195580378 -1.99757004421235,53.5542024842134 -1.99752325153317,53.5541791211892 -1.99750669957583,53.5541701353774 -1.9975020944034,53.5541683376389 -1.99749612169542,53.5541665407602 -1.9974840493053,53.5541674383225 -1.99747048409666,53.5541683367397 -1.99744783364111,53.5541701336985 -1.99742518306929,53.5541746252677 -1.99735573747206,53.5541773187502 -1.99734366654537,53.5541791160013 -1.99732698890187,53.5541800134111 -1.99732101611904,53.5541800132331 -1.99729388434046,53.5541782157113 -1.99726974126095,53.5541755194696 -1.99724248579893,53.5541719243241 -1.99724099302292,53.5541710254744 -1.99722444083203,53.5541683294548 -1.99720925768853,53.5541656334751 -1.99719419819041,53.5541656330109 -1.99717453486984,53.5541674291114 -1.99716557489986,53.5541683276369 -1.9971474043067,53.5541719213877 -1.99712786462037,53.5541764138968 -1.99710969388598,53.5541827031555 -1.99710670815927,53.5541844997706 -1.99710210282228,53.5541862963344 -1.99709152470085,53.5541880936074 -1.99699793769102,53.5541557426381 -1.99699047077425,53.5541521480772 -1.99697989133765,53.5541503510224 -1.99690434929883,53.5541512473338 -1.99682445106785,53.5541521425508 -1.99679881350068,53.554153040481 -1.99679122095801,53.5541557357348 -1.99678661712009,53.5541575331853 -1.99677006480729,53.5541575326165 -1.9967247639524,53.5541593277574 -1.99670821158549,53.5541602259842 -1.99665382535428,53.5541647162941 -1.99662520046525,53.554168309595 -1.99661910234678,53.5541692081817 -1.99661001686071,53.5541737000803 -1.99660105671036,53.5541772940773 -1.99658437882762,53.5541817866004 -1.99656782627975,53.5541853803214 -1.99656484058626,53.5541862781189 -1.99654218991175,53.55419077042 -1.99652700657474,53.5541916686715 -1.99651344139552,53.554191668176 -1.99646216672658,53.5541853764577 -1.99639720342527,53.5541745910821 -1.99638513106969,53.5541745906281 -1.9963806510454,53.5541754892635 -1.99637305853253,53.5541772856867 -1.99635650578581,53.5541835748923 -1.99634443457021,53.5541889663606 -1.99632178350111,53.5541988487487 -1.99630062511656,53.554210529697 -1.99625532241974,53.5542374839871 -1.99610896002171,53.5543138550127 -1.99610746706626,53.5543156516626 -1.99610136865019,53.5543201445409 -1.99609688676295,53.5543255353889 -1.99609539347434,53.5543318251607 -1.99608170102556,53.5543579726225 -1.99608020780033,53.5543633635899 -1.99607572714776,53.5543723487551 -1.99606664088949,53.5543858268566 -1.99606216063455,53.5543894209938 -1.99605917333919,53.5543912175828 -1.99604710065175,53.5543948114128 -1.99602594434958,53.5543966072643 -1.996019844812,53.5543957091109 -1.99600478701471,53.5543921141793 -1.99600179992202,53.5543912152531 -1.99598823502226,53.554386722475 -1.99597454491186,53.5543813299872 -1.9959624744915,53.5543750396592 -1.99590062373004,53.554341701348 -1.99588257786327,53.5543309176403 -1.99586440959936,53.5543219315332 -1.99584474535768,53.5543147429685 -1.995835785688,53.5543111482725 -1.99582670066527,53.5543084523746 -1.99581761557138,53.5543066543814 -1.99580255760509,53.5543057549379 -1.99578899231621,53.5543066531646 -1.99578139982764,53.5543075516449 -1.99575725625529,53.5543111449297 -1.99573460542786,53.5543156361793 -1.99571344734426,53.5543210271923 -1.99570286898044,53.5543246201534 -1.99568631630149,53.5543282137527 -1.99566963848825,53.5543300106347 -1.99564101514117,53.5543309072879 -1.99559571412919,53.5543318040963 -1.99559123414861,53.554331803898 -1.9955609911829,53.5543327013592 -1.99553087365537,53.5543318012099 -1.9955006309257,53.554330003142 -1.99547038986759,53.5543264074581 -1.99545682472512,53.5543255080387 -1.99543417434113,53.5543246082038 -1.99541612905845,53.5543255061839 -1.99539347843109,53.554327302754 -1.9953843931884,53.5543273023363 -1.995333117779,53.5543290966757 -1.99532253962937,53.5543299949882 -1.99527114069299,53.5543290937814 -1.99521837279332,53.5543272945822 -1.9951866373426,53.554324596661 -1.9951550254959,53.5543236972446 -1.99512179696699,53.5543236956474 -1.99507201579549,53.5543263887511 -1.99505683228992,53.5543281847215 -1.9950432668891,53.5543299816679 -1.99502969988863,53.5543326765181 -1.99502360153394,53.5543353717331 -1.99501314688076,53.5543389655382 -1.99501003577125,53.5543407620951 -1.99500406251724,53.5543452549238 -1.99500256809387,53.5543461536545 -1.99499646892696,53.5543569354099 -1.9949829006212,53.5543875749771 -1.9949843931766,53.5543902705647 -1.99498289980996,53.5543956624175 -1.99498439245578,53.5543974592009 -1.99497991156629,53.5544064443255 -1.99497381274609,53.5544136326604 -1.99496933239513,53.5544172267569 -1.99496173932575,53.5544235162129 -1.99495725897271,53.554427110309 -1.99494817334504,53.5544307041763 -1.99494207497097,53.5544333993872 -1.99493460772445,53.5544342969213 -1.99492850962285,53.5544342966176 -1.99491793162124,53.5544333981848 -1.99489229467128,53.5544262082664 -1.99486516518113,53.5544163227534 -1.99485608029063,53.5544127279775 -1.99483803438067,53.5544046405245 -1.99482895100442,53.5544010457466 -1.99480480691518,53.554393855885 -1.99478365122115,53.5543893625836 -1.9947504217017,53.5543839689566 -1.99472627885817,53.5543794754918 -1.99469304964273,53.5543713863349 -1.99467799245021,53.5543632990123 -1.99467189348816,53.5543713852373 -1.99464774496824,53.5544055295534 -1.99464475882899,53.5544100216212 -1.99462359733211,53.5544450639936 -1.99461612909727,53.5544549477525 -1.99461301757026,53.5544603386172 -1.99460405420656,53.5544774109332 -1.99459646120432,53.5544962800303 -1.99459496657018,53.5544989754656 -1.9945858814198,53.5545115546514 -1.99458289365835,53.5545169455218 -1.99457990599477,53.5545214384866 -1.99457380738643,53.5545259303885 -1.99456173433572,53.5545313216773 -1.9945436883492,53.5545376105537 -1.99452402424298,53.5545438993413 -1.99452103697121,53.5545447970878 -1.99449228706447,53.5545555785087 -1.99447722672095,53.5545618675347 -1.99445905502045,53.5545717507098 -1.99443951555874,53.5545834305181 -1.9944289348996,53.5545924152932 -1.99442283626483,53.5545969080862 -1.99440329424729,53.5546175732343 -1.9943866154095,53.5546400361432 -1.99437155436339,53.5546651946517 -1.99436246748747,53.5546787625051 -1.99435798513317,53.5546859499979 -1.99434889997543,53.5546976312602 -1.99434279897748,53.5547093117862 -1.9943398122651,53.5547182969686 -1.9943353279282,53.5547425572465 -1.99433682082144,53.5547551369919 -1.99434129866728,53.5547740067326 -1.99434279129905,53.5547758044226 -1.99435187404903,53.5547982687325 -1.99435797116883,53.554807254411 -1.9943594648984,53.5548126455201 -1.9943624509525,53.5548225298327 -1.99436394307038,53.5548288197459 -1.99436705341749,53.554834210943 -1.99437004009396,53.5548387042279 -1.99437003916535,53.5548467907691 -1.99436543322643,53.5548521815458 -1.99436244723217,53.5548548768968 -1.99435796516936,53.5548593697745 -1.99435497938106,53.5548602684157 -1.99434888090704,53.5548629635965 -1.9943397954452,53.5548638619039 -1.99430357961039,53.5548611635043 -1.99425827691365,53.5548584654895 -1.9942523040348,53.5548584651585 -1.99424620608352,53.5548566681107 -1.99422206119494,53.5548548691599 -1.99421608831662,53.554854868827 -1.99417987228281,53.5548539688971 -1.99417675980496,53.5548539687227 -1.99415410894913,53.5548548653557 -1.99414962891303,53.5548548651035 -1.99412249791135,53.5548566611813 -1.99411789259102,53.5548566609209 -1.99405902460093,53.5548656429219 -1.99405006430649,53.5548674391199 -1.99404247156982,53.5548692362943 -1.99404097861687,53.5548701350131 -1.99403487990077,53.5548746268874 -1.99402741200445,53.5548800174872 -1.99402131328537,53.5548845102597 -1.99401683118309,53.5548890031247 -1.99401533811825,53.5548907997486 -1.99401371921522,53.5548970894874 -1.99401371855064,53.554902480515 -1.99401222548507,53.5549042780377 -1.994001642656,53.5549294367565 -1.99399716116741,53.554941117358 -1.99398956858934,53.5549536965842 -1.99398658083167,53.5549581895341 -1.99398060553754,53.5549653769266 -1.99397301373163,53.55497166632 -1.99396392756743,53.5549779556265 -1.99395334877777,53.5549824481363 -1.99394438648435,53.5549879285247 -1.99392770860715,53.5549996084153 -1.99390965934755,53.5550175789543 -1.99390505517986,53.5550202741995 -1.99389298133564,53.5550301576443 -1.99387343999554,53.55504183736 -1.99385078731881,53.5550562124034 -1.99382813428237,53.5550732838551 -1.99382203528449,53.5550795733269 -1.99380846843828,53.5550903545804 -1.99379788925783,53.5550975425901 -1.99378282815463,53.5551074258467 -1.99378282769186,53.5551110201647 -1.99371039239126,53.5551307841426 -1.99370728128524,53.5551316818614 -1.99368624630895,53.5551370725241 -1.99365451079088,53.5551424616382 -1.993636339717,53.5551442572483 -1.99357448581003,53.555139761262 -1.99356851150221,53.5551388620926 -1.99353826966647,53.5551379614354 -1.99350802656561,53.5551352640609 -1.99347790899777,53.5551307699769 -1.99342962220881,53.5551145929964 -1.99342651146782,53.5551127951941 -1.99338432241971,53.5551002128931 -1.99336465974735,53.5550930239216 -1.99336018006014,53.5550903272273 -1.99335109527754,53.5550858344321 -1.99334201062199,53.5550804428321 -1.99333753106263,53.5550768482315 -1.99333305187981,53.555070558117 -1.99332844753909,53.5550633691902 -1.99331189839108,53.555038208816 -1.99331040604538,53.5550346144035 -1.99330729393164,53.5550319186925 -1.99329671619298,53.555028323704 -1.99326659847065,53.5550256262761 -1.99324693509055,53.5550238283127 -1.99321221190861,53.5550220284825 -1.99317898282999,53.5550220263468 -1.99314425913515,53.5550238217137 -1.9930628646839,53.5550256131294 -1.99304917533027,53.5550265110379 -1.99302963533895,53.5550274085607 -1.99300847734611,53.5550274071697 -1.99298881397631,53.555025608265 -1.99298433405482,53.555024709165 -1.99297226172196,53.5550229116575 -1.99296168401411,53.5550193166393 -1.99296019143241,53.5550175198307 -1.99295259955603,53.5550130262052 -1.99294662745623,53.5550076347812 -1.9929119076695,53.5549832820676 -1.9929104134476,53.5549823831637 -1.99290581042913,53.5549769918289 -1.9928998368311,53.5549715995036 -1.99288627220988,53.5549662075695 -1.99286959621048,53.5549635109394 -1.99284545145503,53.5549608138053 -1.99281222242464,53.5549608115676 -1.99276094599877,53.5549635036104 -1.99273680220786,53.5549644007727 -1.99273381486831,53.5549652984747 -1.99271265676812,53.5549661958355 -1.99268390778141,53.5549661938681 -1.99265067860695,53.5549670903898 -1.99263561882293,53.5549670893523 -1.99260238936517,53.5549697825703 -1.99256766526428,53.5549742723849 -1.99254663215635,53.5549769673336 -1.99251190998129,53.5549787616182 -1.99239566884883,53.5549778546217 -1.99237301803431,53.5549778530122 -1.99222354665257,53.5549751467696 -1.99209523521953,53.5549697463827 -1.99208614999045,53.5549688469105 -1.9920756953863,53.5549697449454 -1.99207258440938,53.5549697447163 -1.99206349872392,53.5549715407565 -1.99205453816954,53.5549742356095 -1.99204843771736,53.5549787282817 -1.99204096938078,53.5549851074428 -1.99203188351745,53.5549967876314 -1.99201520175807,53.5550192502116 -1.99201520129812,53.5550219457257 -1.99201221301871,53.5550282353365 -1.99200773204322,53.5550336269311 -1.9920031260894,53.5550372200088 -1.99199416505578,53.5550426112701 -1.99198657189225,53.555046205024 -1.99197151297258,53.5550497973225 -1.99196242757443,53.5550497966453 -1.99195483684397,53.5550479993692 -1.9918779226649,53.5550479936033 -1.99185527149937,53.5550497886056 -1.99184917315197,53.5550506869495 -1.99182353430356,53.555055178133 -1.99181756123949,53.5550560755859 -1.99177823069124,53.5550659567495 -1.99177524332395,53.5550668553264 -1.99169820085329,53.5550920087653 -1.99165140367412,53.5551063815376 -1.99164692328892,53.5551081788004 -1.99163484985936,53.5551126700914 -1.99162128357559,53.5551171621645 -1.99160771761303,53.5551198566274 -1.9915715009194,53.5551216505235 -1.99156092130755,53.5551207517939 -1.99154885019088,53.5551207508526 -1.9915382705799,53.5551198512222 -1.99152769280616,53.5551171548813 -1.99152620011846,53.5551162559602 -1.99151711536173,53.5551126609308 -1.9915065359175,53.5551108633922 -1.99149446496812,53.555109963641 -1.99144766800956,53.5551144530816 -1.99143260951685,53.5551153497983 -1.99140846393511,53.5551171454969 -1.99138581254574,53.5551198392147 -1.99136764239309,53.5551243308935 -1.99134499049449,53.5551297201177 -1.9913314226651,53.555134211259 -1.99129371039618,53.5551503822254 -1.99129072301259,53.5551512807902 -1.99125288525826,53.555168350538 -1.99124989736387,53.5551719437171 -1.99122575086958,53.5551863190439 -1.99121828307014,53.555189013955 -1.9912106898142,53.5551926076597 -1.99120160404408,53.5551944036345 -1.99118194016018,53.5551953008458 -1.99117746008797,53.5551953004824 -1.99116240156049,53.555196198064 -1.99114883437741,53.5551970948663 -1.99113365073578,53.5551970936297 -1.99112157994191,53.5551952959355 -1.99110801513082,53.5551917005094 -1.99110054818681,53.5551899031891 -1.99108088365956,53.5551863072609 -1.99106271466126,53.5551845081621 -1.99106122047144,53.5551836101339 -1.9910491480013,53.5551827103377 -1.99103558250366,53.5551827092217 -1.99102351119481,53.5551836070317 -1.99101293105529,53.5551854028691 -1.99099488443539,53.555190792407 -1.99098430510101,53.5551961834592 -1.99098268678651,53.5551970812308 -1.99097521844307,53.5552024725396 -1.99096613090423,53.5552132538433 -1.99095405455736,53.5552321223395 -1.99091334634893,53.5552914229616 -1.99088608182177,53.5553328438808 -1.99088458843049,53.5553355392701 -1.99088160031521,53.5553400321431 -1.99087861255444,53.5553427274074 -1.99086803298951,53.5553490163548 -1.99085446637023,53.5553544062466 -1.99081812290591,53.5553624906357 -1.99080306377375,53.5553660836863 -1.99078501607885,53.5553687776785 -1.99076983201585,53.5553705731057 -1.99075029350657,53.5553705714525 -1.99074270071936,53.5553714696135 -1.99072303656248,53.555373264655 -1.99070499036886,53.5553759586352 -1.99068532415374,53.5553804500833 -1.99065968649062,53.555384941018 -1.99063404767815,53.5553876343386 -1.99062794943885,53.555387633816 -1.9906173694145,53.5553885308141 -1.99060691522505,53.5553867332068 -1.99058426474253,53.555384035745 -1.99054195101712,53.5553786410667 -1.990538963971,53.5553777420042 -1.99050424286475,53.5553723479687 -1.99049217072411,53.5553696505078 -1.99047250786047,53.5553651565744 -1.99046653377322,53.5553633584457 -1.99044687128879,53.5553570668994 -1.9904287020441,53.5553489787705 -1.99041974242892,53.555346282473 -1.99040007958408,53.5553417876288 -1.99038651327792,53.5553381921208 -1.99036685006343,53.5553354948797 -1.99035328470527,53.5553345957809 -1.99033822648875,53.5553336956503 -1.9903230426086,53.5553345931153 -1.99030798231425,53.5553363884949 -1.99028993668007,53.5553363868984 -1.99026566771917,53.5553354859426 -1.99023405502919,53.5553354831328 -1.9902158858109,53.5553345836086 -1.99019783905218,53.5553327843894 -1.99019174101302,53.5553318850402 -1.99017058456962,53.5553309852421 -1.9901570188316,53.5553318819321 -1.99013287365192,53.5553309818593 -1.99012080115943,53.5553300819695 -1.9900981507384,53.5553273844155 -1.99008906547491,53.5553264847917 -1.99006492219905,53.5553237870967 -1.9900362967449,53.5553237845047 -1.99000157417784,53.5553255780613 -1.98998800863432,53.5553255768267 -1.98996087564358,53.5553273719613 -1.98993212601577,53.5553291660429 -1.98990200710406,53.5553318587964 -1.98987176401448,53.5553363491396 -1.98986118358843,53.5553390436795 -1.98983255823481,53.5553453308718 -1.98981886699918,53.5553471272151 -1.98981587957047,53.5553480248443 -1.98979932638985,53.5553498209206 -1.98977966240395,53.5553507170027 -1.98976460419371,53.5553498176986 -1.98975253190524,53.5553480189673 -1.98973896695987,53.5553453221901 -1.98971171259837,53.5553363343009 -1.98968906321451,53.5553291435463 -1.98967101839644,53.5553255475378 -1.98966952423125,53.5553246494921 -1.98964986106891,53.5553219521331 -1.98963928316144,53.5553201535306 -1.9896212385556,53.555315659609 -1.98961364677664,53.5553120645753 -1.98959709442101,53.5553102654061 -1.98959398362373,53.555309367207 -1.98957295118588,53.5553075676116 -1.98955179305278,53.5553075656094 -1.98952914185516,53.5553084622661 -1.98950798481776,53.5553102569662 -1.98944612445071,53.5553345124951 -1.98935251681839,53.5554045895792 -1.98934492294432,53.5554099807745 -1.98931778990631,53.5554180646977 -1.98928306974009,53.5554027861557 -1.98926191370457,53.5554000885882 -1.98924224925899,53.5554027821908 -1.98919544981604,53.5554153572942 -1.98913968822053,53.555436018043 -1.9889931887134,53.5554971051947 -1.98893282020453,53.555523157317 -1.98889050171406,53.5555375294589 -1.98887245202952,53.5555537016333 -1.98886336167324,53.555573469024 -1.98887244211851,53.5555941361451 -1.98889807477572,53.5556175903192 -1.98891773276479,53.5556418537132 -1.98891922081148,53.5556616212665 -1.9889207097112,53.5556840852328 -1.98890713727485,53.5557056488883 -1.98885884272478,53.555731702181 -1.98879847579388,53.5557496667941 -1.98873051786604,53.5557667327005 -1.98850710101912,53.5558278105229 -1.98845731558973,53.5558385883196 -1.98841947814228,53.5558475697319 -1.9883772859294,53.5558502608442 -1.9882881742555,53.5558538458169 -1.98817043218354,53.5558691085468 -1.9880617752135,53.5558915607721 -1.98797875711816,53.555906827029 -1.9879349471999,53.5559131121298 -1.98789275489063,53.5559158030714 -1.98783388579489,53.5559184930796 -1.98778099045148,53.5559184872998 -1.98772821917233,53.5559229737347 -1.98765117738082,53.5559311425631 -1.9876285255616,53.5559329367663 -1.98759529675608,53.5559293387624 -1.98745802323451,53.5559166538937 -1.98731913287019,53.5558995663399 -1.98697651089973,53.5558662802362 -1.98696891898619,53.5558635838391 -1.98695983497873,53.5558581917534 -1.98695075097387,53.5558527987682 -1.98694478082843,53.5558429148192 -1.98694018794751,53.5557997833548 -1.98694332276602,53.555718015883 -1.98694185681259,53.5556254658154 -1.98694485061936,53.5556029124633 -1.9869342885069,53.5555418105032 -1.98692671412614,53.5554843023103 -1.98691465711205,53.5554303879123 -1.98689352194229,53.5553567041446 -1.9868890471677,53.555333341894 -1.98685581494959,53.5553432221552 -1.98685282903754,53.5553387286812 -1.9868573104405,53.5553342369817 -1.98682420534698,53.5553378265161 -1.98680304667017,53.5553396216367 -1.9867728027958,53.5553405168777 -1.98675326350466,53.5553432100861 -1.98671244077344,53.5553459007721 -1.98670484790476,53.555346798677 -1.98657653039771,53.5553602609739 -1.98655400207597,53.5553638525969 -1.98653135051437,53.5553656474906 -1.98652226477828,53.555366544306 -1.98648604819907,53.5553665399528 -1.98646787823311,53.5553683353738 -1.98645132463052,53.5553710288928 -1.98640900693789,53.5553755160052 -1.98640153907008,53.5553773127105 -1.98638946788025,53.5553773112486 -1.98638038268513,53.555376411343 -1.98637739572784,53.5553755121763 -1.98637428472106,53.555375511799 -1.98632599680755,53.5553710137076 -1.9862203347164,53.5553647109689 -1.98619917889583,53.555362012859 -1.98612226721284,53.5553521192397 -1.98602718755775,53.5553377301919 -1.98599097241117,53.5553332334636 -1.98596981539372,53.5553296365084 -1.98589427952151,53.5553035689251 -1.98586266972763,53.5552944897302 -1.98580679116434,53.5552890916708 -1.98576298349213,53.5552845930173 -1.98570113338465,53.5552702088039 -1.985568348729,53.555238742704 -1.98550189140028,53.5552351398573 -1.9854385491432,53.5552144654809 -1.98545809582707,53.5551938008895 -1.98551398564842,53.5551686487446 -1.9856196580819,53.555136315196 -1.98571474806848,53.5551165589835 -1.9858400896607,53.5550707483604 -1.98590494033734,53.555042003739 -1.98598049632076,53.555002476559 -1.98605593188641,53.5549565705 -1.98609975086595,53.5549188369154 -1.98647109252949,53.5546114892557 -1.98653159285959,53.5545593802425 -1.98657081018849,53.5545117626764 -1.98662820333352,53.5544461747672 -1.98672781199167,53.5542888517398 -1.98677463158242,53.5542061906105 -1.98683813154137,53.5541082562368 -1.9868788477751,53.5540371862325 -1.98691358061581,53.5540021467989 -1.98695279542947,53.5539599192372 -1.98700719672491,53.55390601256 -1.98706458323601,53.5538530050079 -1.98713852457006,53.5537955071067 -1.98720350231242,53.5537451958759 -1.9872729593135,53.553701982981 -1.98730009874337,53.5536687401793 -1.98717030452825,53.553639073789 -1.98708282096634,53.5536183966027 -1.98702396021555,53.5536031146045 -1.98697107449777,53.5535851377573 -1.98692129897463,53.5535644648356 -1.98687749579645,53.553555474359 -1.98683680331743,53.5535419911066 -1.98678092747918,53.5535347967846 -1.98673712019548,53.5535347916075 -1.98665261426383,53.5535473612475 -1.9865649982169,53.5535572349398 -1.98651521605233,53.5535644167076 -1.9864383067547,53.5535572196951 -1.98635069885476,53.5535401362771 -1.98627528751622,53.5535212575752 -1.98621941401494,53.5535068743496 -1.98616055178696,53.5534978808624 -1.98606397807248,53.5534960722161 -1.98595831873876,53.5534960590685 -1.98589484554597,53.5535104275091 -1.98579229161531,53.5535274874026 -1.98555831292418,53.5535625011342 -1.98533640780827,53.5535921240494 -1.98511300446932,53.5536325302168 -1.98504654307085,53.553644202298 -1.98494996814918,53.5536495804955 -1.98479154244034,53.553645964953 -1.98474475344312,53.5536342777803 -1.98456355553946,53.5536216735203 -1.98412437713588,53.5535955546384 -1.98362471874966,53.5535622376908 -1.98269497106462,53.5534992015589 -1.98254252312905,53.5534883953184 -1.9818632886179,53.5534433624795 -1.98141055527053,53.5534018664155 -1.98103622168156,53.5533685581006 -1.98022271715812,53.5533091163169 -1.97956153758676,53.5532568848933 -1.97913145210543,53.5532253582806 -1.97890346962832,53.5532064471001 -1.97872844314623,53.5530526733702 -1.97872844271056,53.5530535721748 -1.97812185253412,53.5528503859567 -1.97730237541985,53.5525733846011 -1.97717259951138,53.5525284321982 -1.97713788619955,53.5525158456427 -1.97710615889692,53.552502360866 -1.97707605059112,53.5524870796925 -1.97704581754849,53.5524708098013 -1.97699904048149,53.5524429456154 -1.97698398679288,53.5524330584538 -1.97684216453,53.5523413780242 -1.97679078698474,53.5523054262862 -1.97677872048572,53.5522982352157 -1.97676515972962,53.5522910438427 -1.976757694861,53.5522874480176 -1.97674102086775,53.5522820536235 -1.97672447119942,53.5522784559628 -1.97670779728839,53.5522757570795 -1.97669423415823,53.5522730588227 -1.97666411993345,53.5522694584105 -1.97665802214351,53.552269457176 -1.97663238672637,53.5522676552721 -1.97660065352248,53.5522658512264 -1.97659169345023,53.5522640526969 -1.976508567599,53.5522550504402 -1.97647235658234,53.5522496511281 -1.97646178000171,53.5522478522591 -1.97635613494277,53.5522271644318 -1.97620980417796,53.5521920908479 -1.97602565173468,53.552141644167 -1.97541148645268,53.5519546166454 -1.97383758390829,53.5513844128873 -1.97236940903988,53.5507602997889 -1.96883019746094,53.5506722452985 -1.96856299590652,53.5507036226034 -1.96832142632243,53.5507412961219 -1.96815687377527,53.5507942654221 -1.96802865890062,53.5508472444283 -1.96788974118076,53.550900311114 -1.96776290061778,53.5509452027646 -1.96762249346376,53.5509909902085 -1.96747002213175,53.5510286866715 -1.96733112078751,53.5510582993087 -1.96717867820127,53.551057357599 -1.96712591425566,53.5510573427033 -1.9670503771676,53.5510582201425 -1.96682255564346,53.5510132277697 -1.96655544499081,53.5509223981271 -1.96632766598234,53.5508243016443 -1.96611185231941,53.5507029345584 -1.96587055326036,53.5505518181641 -1.96553993276485,53.5506803029197 -1.96519724696171,53.5508006067341 -1.96486651695326,53.5509066257741 -1.96458423602747,53.5509604533559 -1.96430805939839,53.5510052967907 -1.96402728325917,53.5510429495301 -1.96339335003536,53.5510652161472 -1.96277000731833,53.5510713087917 -1.96218584850473,53.5510953815869 -1.96166515566103,53.5511176756649 -1.96129692825414,53.551116655446 -1.96066139415721,53.5511173420319 -1.96011509279208,53.5511090694638 -1.95965776248345,53.5511089125723 -1.95906155973975,53.5511015176698 -1.9587054031475,53.5511013925 -1.95841257308355,53.5511165639826 -1.95799750862167,53.5511622413302 -1.95762612724148,53.5512034408307 -1.95716721747601,53.5512896238461 -1.95681246684247,53.5513730590595 -1.9564818748752,53.5514412261097 -1.95606217823606,53.5515084609596 -1.95586143383173,53.5515227618969 -1.95564404383938,53.5515083034231 -1.95529996883029,53.5514937954061 -1.95496943582153,53.5515008575321 -1.95474157001908,53.5515079584241 -1.95448791971581,53.5515385005003 -1.95400787447571,53.5515958205491 -1.95356105918011,53.5516486587076 -1.95331798662467,53.5516773159014 -1.95287426022821,53.55174992015 -1.95265835393452,53.5517435433966 -1.95235348937533,53.5517191594564 -1.95198534015638,53.5516435313459 -1.95161723315303,53.5515301630778 -1.95119774347328,53.5514085959157 -1.95094418505042,53.551355476034 -1.95082958005799,53.5513482394618 -1.95052466775218,53.5513687776458 -1.9501049524562,53.5514458758024 -1.94964754813417,53.5515058835312 -1.9492534832833,53.5515669046664 -1.94882187403132,53.5515963699802 -1.9485169557466,53.5516195985572 -1.94805961133332,53.5516265860041 -1.94743928761955,53.5515966578287 -1.94691713630412,53.5515811480794 -1.94642369044896,53.5514972698238 -1.94612947429455,53.5514216573718 -1.94562090785294,53.5512929310784 -1.94515163957777,53.5511865949068 -1.94465521627793,53.5511027969482 -1.94428705703008,53.5510496090054 -1.94394452222062,53.5510045186868 -1.94355056526553,53.5509818674794 -1.94325928387401,53.5509511761557 -1.94282608595904,53.5509590540348 -1.9424970396623,53.5509732701919 -1.94201404384291,53.5509963959963 -1.94142831520478,53.5510679899102 -1.94084571783743,53.5511243073307 -1.94015132515506,53.5512112054466 -1.93929541254846,53.5512898400046 -1.938582861637,53.5513649489002 -1.93776011862869,53.5514795311641 -1.93693139712675,53.5515941953447 -1.93595305524611,53.5517302468684 -1.93272697271173,53.5521788043453 -1.93157049672937,53.5523290958352 -1.93060431758602,53.5524652007007 -1.92977852097849,53.5525932048667 -1.92891490200645,53.552713094026 -1.92724975868835,53.5529466910127 -1.92566597193519,53.5531893013427 -1.92599900515115,53.5534744404126 -1.9263910380788,53.5537560200863 -1.92687191806353,53.5541203201345 -1.92752155724135,53.554637475499 -1.92816370115726,53.5551798710563 -1.92851943138357,53.5554569293819 -1.92870192015064,53.5555846330376 -1.92943793724802,53.555899656525 -1.9298769053654,53.5561237463044 -1.93145327920248,53.5567574282727 -1.93224368834778,53.5570958286321 -1.9328319750538,53.557361325548 -1.93440697368658,53.5580569681176 -1.93514458674786,53.5583602756017 -1.93587631626324,53.5586932287885 -1.93629873473029,53.5588732563463 -1.93672115943397,53.5590514865916 -1.93724610663251,53.5592593307188 -1.93812873867291,53.5596678273668 -1.93915311279133,53.5601097273428 -1.93984714413551,53.5603860272402 -1.94272585126694,53.5616412941119 -1.94298715940485,53.5626444675298 -1.94317656956819,53.5633366196117 -1.94331164744219,53.5638894702253 -1.94341536884617,53.5642454335456 -1.94356708100523,53.5648378283091 -1.94360919162122,53.5650004850755 -1.94369778550337,53.565316007283 -1.94389318644773,53.5660136407335 -1.94414392960224,53.5670473569394 -1.94424316328368,53.5674194920529 -1.94436009319036,53.5680666797693 -1.94439001673377,53.5682240292724 -1.94447446042826,53.5683876035241 -1.94459483622557,53.5686860671118 -1.94482523058485,53.5691086717167 -1.94506934265623,53.5695186118365 -1.94520497282539,53.5697703576418 -1.94570369162208,53.5705758651277 -1.94619972467821,53.5712537752789 -1.94640023378514,53.5715055493053 -1.94663094890922,53.5716980319404 -1.94715142045041,53.5721682962262 -1.94747570500374,53.5724138341388 -1.94810941608059,53.5728482016363 -1.94870847739784,53.5732179465729 -1.94928344639049,53.5735453562269 -1.95004853137993,53.5739968427337 -1.95032014322127,53.5741650751145 -1.95051228918501,53.5739278509824 -1.95077980005975,53.5737643382924 -1.95091578374699,53.573639497693 -1.95093396405684,53.5736368097802 -1.95105754080082,53.5738003964947 -1.95157363357413,53.5741341493688 -1.95294382349373,53.5750973172732 -1.95312036830521,53.5752258796307 -1.95370733205369,53.5756862564321 -1.95377822601948,53.5757609540608 -1.95380991694214,53.5758175739236 -1.95382791104487,53.5758750880916 -1.95382636868379,53.575919116154 -1.95380515933138,53.5759586442719 -1.9537703830485,53.575991876336 -1.95374770557019,53.5760062437274 -1.95368878315255,53.5760305717177 -1.95388502572419,53.5761420679331 -1.9542276432329,53.5763102301757 -1.95486915255709,53.5766718729999 -1.95624867563255,53.5774264527157 -1.95658075113971,53.5775712417357 -1.95892720725598,53.5781194806879 -1.95976517395123,53.5783310194709 -1.96103816194394,53.578626262265 -1.96400523333089,53.5793417351199 -1.9651302446873,53.5796018462233 -1.9656013622833,53.5797196948366 -1.96602118775705,53.5798250378222 -1.96686372166137,53.5800166701129 -1.96694371699533,53.5801174196306 -1.96717757687376,53.580452732105 -1.96731792266485,53.5806163065432 -1.96758650266448,53.5809920622739 -1.96785971826306,53.5811683424701 -1.96883047304349,53.5818247227614 -1.96942522745572,53.5822068510015 -1.96968184605518,53.5824541080556 -1.96993693528083,53.5827570726874 -1.97032038884429,53.5831139823393 -1.9706779993997,53.5835752061423 -1.97116244649911,53.5841558759441 -1.97162763552532,53.5843052381034 -1.97210786522397,53.5845040225774 -1.97268323698193,53.5847234037828 -1.97429461804429,53.5852819469781 -1.97509040983126,53.5855868168449 -1.97552685722251,53.5857405607552 -1.97595731877899,53.5859105655941 -1.97688464486431,53.5862397111288 -1.97754163380313,53.5864825374753 -1.97775606403842,53.5865661440398 -1.97778021117587,53.5865984955903 -1.97780585276645,53.586629949523 -1.97824393720057,53.5867882667338 -1.97844475535565,53.5869536359485 -1.97885695651375,53.5873402653152 -1.97964060643829,53.587941621611 -1.98045004349208,53.5885853877798 -1.98046212261332,53.5885925775328 -1.98082011799368,53.5888244624713 -1.98164621160679,53.5893378442983 -1.98186971373351,53.5895329534117 -1.9825584335945,53.5900758693494 -1.98269577367792,53.5902044714686 -1.98275167706526,53.5902664790524 -1.98280608247356,53.5903392692695 -1.98287094061077,53.5904408144935 -1.98327720070268,53.5909343537766 -1.9833964538361,53.591149211887 -1.98346592179239,53.5912570472299 -1.98362441642187,53.5914620275947 -1.98387818007459,53.5917371068574 -1.98460912415926,53.5924975536269 -1.98468470665903,53.5925856208903 -1.98580829005842,53.5939114755466 -1.98645174859144,53.5946351499043 -1.98751816698868,53.5958351866979 -1.99071452448347,53.5994755871749 -1.99210904904574,53.6009569490749 -1.99230238626059,53.6011475447312 -1.992409768509,53.6012481897587 -1.99279047619091,53.6015699865517 -1.9929415870001,53.6017209527327 -1.99312583213841,53.6019250249111 -1.99416086176488,53.6028086294016 -1.99449487122398,53.603131316966 -1.99470342776093,53.6033236165469 -1.99476385214279,53.6033875067147 -1.99481218908951,53.6034611904526 -1.99528060443013,53.6042817656658 -1.995560048984,53.6047051736979 -1.99576263105933,53.6049757353269 -1.99587438891635,53.6051150152637 -1.99615697317124,53.6053523331467 -1.99879108914863,53.6072363080604 -1.99874273901242,53.607309089354 -1.99879258238012,53.6073342497145 -1.9988847940952,53.6073944543526 -1.99938198809682,53.6077603508874 -1.99960716296328,53.607942759226 -2.00016194137259,53.6082896949968 -2.00047322814497,53.6084739891828 -2.00070301954173,53.6086249464444 -2.00147227606455,53.6090177926325 -2.00295202073754,53.6099732063945 -2.00464033047497,53.6110220446793 -2.00604766985465,53.6118830734769 -2.00662660153075,53.6122479489373 -2.00682913119025,53.6123350985711 -2.00721761184852,53.6124924156429 -2.00739906690491,53.6124986965026 -2.00744742325189,53.6125076793943 -2.00749129439509,53.612522054409 -2.0075139783691,53.6125346328875 -2.0075396560207,53.6125606896453 -2.00756234480074,53.6126002240898 -2.00757294403204,53.6126370636463 -2.00756534635271,53.6126667164196 -2.00754267006656,53.6126981666728 -2.00752148746285,53.6127143417027 -2.00734016500502,53.6127638604576 -2.00731748619318,53.6127818322311 -2.00728421736921,53.6128159784658 -2.00726453286785,53.6128519216304 -2.0072509581136,53.6129157192694 -2.00727365997154,53.6130325282766 -2.00729784379163,53.6130639761722 -2.00739768158349,53.6131314523712 -2.00743245948562,53.6131691895244 -2.00743396752794,53.6132446672508 -2.00740834891046,53.6135610459591 -2.00741284953322,53.6136437121489 -2.00750362174319,53.6138873026628 -2.00766680764077,53.6141443677582 -2.00768501281212,53.6141937865276 -2.00769561934204,53.6142683658557 -2.0076744524981,53.6143762816177 -2.00769115597471,53.6143960489888 -2.00771982561926,53.6144185112326 -2.00774400545644,53.6144301907816 -2.00780146291982,53.6144427673508 -2.00782713678919,53.6144409692688 -2.0079707035435,53.6143996282651 -2.00800098752788,53.6143969310906 -2.00803576040046,53.614399624673 -2.00807352571156,53.6144077090921 -2.00814756062841,53.6144355597068 -2.00823231802816,53.6144750913911 -2.00829875595272,53.6145263049021 -2.0083895169094,53.6146773441801 -2.00853611035079,53.6148112192431 -2.00858002062138,53.6150143772772 -2.00858614380736,53.6150880579819 -2.00861182539361,53.6151302875351 -2.00867228445657,53.6151868922052 -2.00885215121256,53.615292101153 -2.0088975463022,53.6154295754304 -2.0089957854775,53.6155625541306 -2.00900189982522,53.6155976861021 -2.00898832112023,53.6156273393308 -2.00892627060352,53.6157073132329 -2.0089173078978,53.6157639221229 -2.00893090153294,53.6158052544588 -2.00903525362555,53.6159544965476 -2.00900797585461,53.6160389613712 -2.00908962424311,53.6160973611741 -2.00923483678729,53.6161530612653 -2.00926811931858,53.6161773204305 -2.00932547544956,53.6162807390426 -2.00934668036536,53.6163616064066 -2.00934668763784,53.6163948521768 -2.00933759510565,53.6164227084386 -2.00926059890819,53.616553990682 -2.00947078713106,53.6167795111392 -2.01000582265421,53.6166393012276 -2.01066185990565,53.6164280041845 -2.01115912201267,53.6162832989277 -2.01153101248576,53.6161933240268 -2.01229883237557,53.6159803007618 -2.01270847792879,53.6158786379301 -2.01306664486224,53.6157680823911 -2.01386324849439,53.6155819132539 -2.01443151707713,53.6153949558865 -2.01451015573556,53.615376975755 -2.01461147669686,53.6153607915709 -2.01477312154481,53.6153490918836 -2.01550932027169,53.6153184570457 -2.01564230759353,53.6153274266053 -2.01594020543643,53.6153920865041 -2.01635292480506,53.6155429911448 -2.01704371458565,53.6157155131379 -2.01743684578148,53.6157999241515 -2.01763640905286,53.6158538100397 -2.01792969483808,53.6159023806498 -2.01865223303914,53.6159696698631 -2.01911474908364,53.6159588193466 -2.02062940561905,53.6158848145353 -2.02069745450368,53.6158812101691 -2.02121443864922,53.6158784292541 -2.02303595762586,53.6158394769092 -2.0233792602388,53.6161746610769 -2.02362730387479,53.6164334863162 -2.0238935428777,53.6166833213998 -2.02435483723712,53.6171343949866 -2.02458619597981,53.617395020907 -2.02483283016485,53.6177670645076 -2.02512050054323,53.61838629138 -2.02539738289049,53.6188797212027 -2.02569402411356,53.6194683942482 -2.02606034639322,53.6202493419922 -2.02620871073909,53.6205000975522 -2.0264402513001,53.6208047489365 -2.02636193521639,53.6213377878866 -2.02626984941557,53.6215841000202 -2.02619746254833,53.6218411011456 -2.02618841251341,53.6219202657584 -2.02617214748513,53.6224199547436 -2.02623575028441,53.6226626410868 -2.02635848518641,53.6229771983583 -2.02654023522566,53.623568588412 -2.0266750817361,53.6239056076514 -2.02679315632841,53.624135701517 -2.02681574056412,53.6241671461057 -2.02694417574741,53.62403134814 -2.02729630935595,53.6237967496518 -2.02741878701521,53.623703183951 -2.0286713418606,53.6226028065203 -2.02875901690153,53.6224822910918 -2.02905803529753,53.6220867691417 -2.02937226541487,53.6217029237973 -2.02960483344967,53.6213047203546 -2.02974368466086,53.6211168001629 -2.02982074061084,53.6209730126093 -2.02989312959935,53.6207518618555 -2.02998968977354,53.6205199222459 -2.02999063993381,53.6195869534131 -2.02997924747155,53.6184760739734 -2.03000467080491,53.6181237446376 -2.03001970309967,53.6180562591849 -2.03016450899579,53.617672452672 -2.03029283863776,53.6174333163393 -2.03045300715742,53.6172706394213 -2.03061318867837,53.6171294366837 -2.03092290498317,53.6169451573365 -2.03122662944826,53.6167518051436 -2.03127347155244,53.6167212422809 -2.03161344630304,53.6165063153807 -2.03203028658594,53.6160829050759 -2.0322010206789,53.6158958735476 -2.03229913058787,53.6157610665712 -2.0324531289144,53.6155309090639 -2.03264936525876,53.6151264230065 -2.0327413978268,53.6148711228881 -2.03283483755858,53.6145035034723 -2.03289784598106,53.6139498030085 -2.03289894410693,53.6134366430915 -2.03280752143812,53.6125369540048 -2.0328178251628,53.6121603709249 -2.03280104635144,53.6118961129322 -2.03274496429385,53.6117334011974 -2.03263147089931,53.6116202141024 -2.03214007139757,53.6112707170606 -2.03194492037963,53.6111143304508 -2.03163035149211,53.6109122373031 -2.03151698800194,53.6107980613309 -2.03136715483799,53.6105743608837 -2.03130957664657,53.6103999679896 -2.03134571140939,53.6102246519141 -2.03141976291946,53.6100943446484 -2.03166729846233,53.6096521079519 -2.03198426566073,53.6090776767458 -2.032603105346,53.6081050200853 -2.03293670639938,53.607482061399 -2.03347245221886,53.6065929876477 -2.03415777142673,53.6054818401 -2.03444596775725,53.6050036443286 -2.03482789879628,53.6044237966876 -2.03531310602655,53.6045862966194 -2.03553980886706,53.6046501181014 -2.03569229341404,53.6044684784991 -2.03587950576634,53.604245495434 -2.03593695771093,53.604258058496 -2.03659114651826,53.6040089711747 -2.0355281477956,53.6033711318459 -2.03582706317256,53.6029323753639 -2.03614735410366,53.6028774718989 -2.03702809833792,53.6025581393809 -2.03781667395748,53.6022882473944 -2.03800251122748,53.6022234957038 -2.03832272341015,53.6020886154373 -2.03846168454967,53.6019932363973 -2.03886349067529,53.6018457497241 -2.03874404009052,53.6017477555096 -2.03957940175371,53.6014409980671 -2.04141475023572,53.6007779900759 -2.04232715727382,53.600433448747 -2.04421436645839,53.6003627013736 -2.04504987091722,53.600251878125 -2.046086313569,53.6001256089264 -2.04679797618077,53.6000247036492 -2.04732973741894,53.5999292552671 -2.04768025901463,53.5998679286752 -2.04825741396428,53.5998155886405 -2.04853083427111,53.5997723503084 -2.04929822551982,53.5996058143355 -2.04983900471936,53.5994554495093 -2.05013360570856,53.5994157941564 -2.05062303613277,53.5992529569003 -2.05107772899014,53.5991116072085 -2.05159734619916,53.5989855934207 -2.05175294171227,53.59897654154 -2.05199917707697,53.5989206376606 -2.05259265261664,53.5986849647277 -2.05313342624498,53.5985498591878 -2.0532061342322,53.5986109292811 -2.0538962915771,53.5983868885138 -2.05415915868022,53.598287841783 -2.05498966930991,53.5979378464578 -2.05512259402018,53.5978398446029 -2.05551495065413,53.5974990275887 -2.05609212588632,53.5974960675153 -2.05640191634854,53.597465374425 -2.05688071457029,53.5974004571557 -2.05676246685625,53.5971065961552 -2.05595265082126,53.5971617818409 -2.0559313242602,53.5969559335073 -2.05587937828029,53.5965820709315 -2.05591543479865,53.5964346924181 -2.05586399694015,53.5963492646494 -2.05580644545845,53.5962576387906 -2.05563241661004,53.5960725272773 -2.05549634103761,53.5959476911012 -2.05532222772441,53.5956960864096 -2.05518127425718,53.5953644951966 -2.05512506724955,53.5951559678758 -2.0551504172402,53.5949169422298 -2.05509570196047,53.594608674566 -2.05507883948858,53.5944792010285 -2.05503182921497,53.5943471354599 -2.05506766512946,53.5940298414891 -2.05502836116748,53.5939804392641 -2.05497237026212,53.5939346388819 -2.05486504229497,53.5938779887342 -2.05482253289591,53.5936623554288 -2.05471329044188,53.5933774747832 -2.05458611670109,53.5930952976021 -2.05434224885194,53.5926378656047 -2.05409097683546,53.5922317430099 -2.05396071751318,53.5919666394172 -2.05372909525712,53.5916296948097 -2.05364130093739,53.5915497619785 -2.05356575067319,53.591498578406 -2.05339485865455,53.5914070010296 -2.05327098214901,53.5913584432254 -2.05298076610511,53.5912696138877 -2.05272691206623,53.5911726806357 -2.05244112023291,53.5910343372305 -2.05216003511902,53.5908745159208 -2.0521070530235,53.5908385961593 -2.05201627934819,53.5907630667586 -2.05194518623059,53.5906876187735 -2.05160177712515,53.5902860226374 -2.05118731203196,53.5898332365423 -2.05072749327943,53.589362406477 -2.05063971236673,53.5892869652104 -2.0505868295848,53.5892285805992 -2.05053841032404,53.5891521334703 -2.05049445507612,53.5890605000162 -2.05046571434339,53.5889841346555 -2.05046414433419,53.5889212366724 -2.05047913004643,53.5888510533397 -2.05058161701971,53.5886263737607 -2.05073653625466,53.5880905938296 -2.05084046037098,53.5878217935545 -2.0509081605498,53.587672606392 -2.05098657265268,53.5875251215767 -2.05150355664048,53.5865901415411 -2.05164976480086,53.5862799891968 -2.05142729337465,53.585950225195 -2.05163699056008,53.5857191187734 -2.05188441263635,53.5854790991147 -2.0519432455277,53.585417882914 -2.05205481522783,53.5853010229608 -2.05217101866342,53.5852048272197 -2.05246992838277,53.5850123184328 -2.05266752653073,53.5848729565185 -2.05271427877954,53.5848136317592 -2.05275804074535,53.584752420783 -2.05291771763205,53.584371275279 -2.05310767764469,53.5841051297155 -2.05321620542408,53.583952328234 -2.05340166321021,53.5836754019659 -2.05346951472051,53.5835612562357 -2.05354023269031,53.5833526701256 -2.05356284629843,53.5833122252681 -2.05358545986175,53.5832717804052 -2.0537166100526,53.5830883268233 -2.05379647749263,53.582927449833 -2.05394560221372,53.5826819888147 -2.05409639462546,53.5824751631329 -2.05422459522919,53.5823268447518 -2.05431367036395,53.5822566272215 -2.0548962812373,53.5820056665819 -2.05561626573166,53.5816772734317 -2.05589550231371,53.5815189091073 -2.05604199805787,53.5814604343697 -2.05649631376107,53.5812965949577 -2.05736571745129,53.5808845551718 -2.05825328631055,53.5804733987328 -2.05869391367146,53.5802412671457 -2.05903948203362,53.5799813254266 -2.05935476997141,53.5797106145071 -2.05964270210916,53.5793842059487 -2.05984456226177,53.5790416653588 -2.05987620704084,53.5789661707439 -2.05995893861563,53.5787414006737 -2.0600175164682,53.5785193372484 -2.06005340615444,53.5782803029287 -2.06005932266784,53.5781526152636 -2.06005762731769,53.5780133393935 -2.05992100640863,53.5775675435347 -2.05978482086496,53.5773357838523 -2.05918472275031,53.5769568007875 -2.05880227220046,53.5767412457408 -2.05860417980234,53.5765750199032 -2.05849820873871,53.5763935633461 -2.05839348696427,53.5760367968728 -2.05837037259944,53.5757150353272 -2.05845576850533,53.5751702880338 -2.05841301914771,53.5748763917255 -2.05836149517753,53.574717282063 -2.05831303380877,53.5746103775341 -2.05826295384118,53.5745034746762 -2.05822984302382,53.5745088818843 -2.0580542933799,53.5742500929925 -2.05797424475411,53.5742582193575 -2.05757341394333,53.5737864915265 -2.05716210141362,53.5733822494685 -2.05690646687679,53.5730956423024 -2.05611037116755,53.5728182762769 -2.05577340235245,53.5726836501731 -2.05551052309004,53.572553392895 -2.05539115138978,53.5725742046325 -2.0551010769807,53.5724035242735 -2.05454670380777,53.5722483287063 -2.05380491441169,53.5720598793568 -2.05311013288239,53.5719208257256 -2.0522263173835,53.5715500236355 -2.0515646898404,53.5713301661983 -2.05116892003978,53.5712511719873 -2.05098312280433,53.5712206997418 -2.05079595954967,53.5711929233168 -2.05042139519977,53.5711472539135 -2.04993491085352,53.5710045850496 -2.04962666210981,53.5708159257309 -2.04950428783448,53.5707216277653 -2.04938489650722,53.5706236442492 -2.04912783453972,53.5703397169409 -2.04859126677527,53.569945379568 -2.04928061723831,53.569315934281 -2.04977685958976,53.5688969153738 -2.05115709427651,53.5677404399587 -2.05213150730802,53.5669670826973 -2.05299413724895,53.5662457916379 -2.05340887316223,53.5659247323196 -2.0537060121262,53.5656378705732 -2.05480530879821,53.5646990082519 -2.05515692314492,53.5645730472823 -2.05520079571613,53.5646143594921 -2.0565016788707,53.5642057118661 -2.0572622727362,53.5639545595323 -2.06099561251911,53.5628400107704 -2.06126271906859,53.5627445353706 -2.06148002934706,53.562645580799 -2.06162778000171,53.5625610395529 -2.06191290756705,53.5623667124179 -2.06219059239802,53.5623548855045 -2.06246835576522,53.5623125062993 -2.06267651922448,53.5621775225801 -2.06274885829252,53.5621082952066 -2.06279101111369,53.5620804176311 -2.062840886996,53.5620552314738 -2.06304007488494,53.5619940238543 -2.06307776619267,53.5619778295492 -2.06322691150788,53.5618329920304 -2.06310895531503,53.5617009671197 -2.06296835705179,53.5615752440992 -2.06293656349641,53.5614592573252 -2.06298919035277,53.5613621850995 -2.06310823248457,53.5612317402836 -2.06322589205713,53.5611723725635 -2.06334369564784,53.5612073532605 -2.06345240876277,53.5611587731967 -2.06353229790736,53.5610643815647 -2.06364664530379,53.5608773294881 -2.063690367222,53.5608188999644 -2.06374617574985,53.5607676517139 -2.06380945078072,53.560716399393 -2.06406137283656,53.5605535340357 -2.06440969707171,53.5603529658648 -2.06457114605647,53.5602818018754 -2.06461013728923,53.5601443003252 -2.06467052410595,53.5600777745985 -2.06485907406456,53.5599868267428 -2.06497359659921,53.559915776955 -2.06517888906032,53.5598662430694 -2.06547317648337,53.5598166594041 -2.0656693989541,53.559777013075 -2.06586698300015,53.5597337721844 -2.0659047878842,53.5597130845549 -2.0661294666362,53.5595673018232 -2.06669783100103,53.5591373801282 -2.06711879780506,53.5589995716065 -2.06736013632081,53.5588484756217 -2.067580065752,53.5586209235742 -2.06774272028077,53.5583772281676 -2.06795679413837,53.5582207526281 -2.06799757044864,53.558191076716 -2.0683581707403,53.5580541932595 -2.06863403534687,53.5578554474211 -2.06862456899276,53.5576217340752 -2.06854090396557,53.5572227274919 -2.06848904533443,53.5568659354293 -2.06839054546619,53.5566044187745 -2.06865914458696,53.556612348341 -2.06852304899831,53.5564218407803 -2.06845344319273,53.5563257348748 -2.06817527144403,53.5560921792094 -2.068055665544,53.5558603276122 -2.06795969696237,53.5553121649523 -2.06809363016414,53.5550163669849 -2.06830903043353,53.5547645505915 -2.06839781913407,53.554643101592 -2.06847914024745,53.5545217458987 -2.06858439109007,53.554268196848 -2.06878483061801,53.5540047069478 -2.06882211269743,53.5537432000388 -2.06882639466049,53.5536209018312 -2.06882768810369,53.5534986952737 -2.06880766639576,53.5532029867443 -2.06884792147527,53.5529324025317 -2.0692083718295,53.5527299201205 -2.06922749670217,53.5524774093903 -2.06928461439529,53.5523236295432 -2.06934783121321,53.5521699358984 -2.06946080311521,53.5520772259459 -2.06970354945901,53.5518946700651 -2.06983469105397,53.551803745582 -2.07022230792377,53.5516309857943 -2.0703472193245,53.5513864084901 -2.07061717877434,53.5512586466055 -2.07069089864178,53.5511390015258 -2.07095778266832,53.5509591237842 -2.07131823642754,53.5507737068917 -2.07155206145845,53.5506962860239 -2.07165914880423,53.5506611754535 -2.07184890960527,53.5504309340127 -2.07186355671976,53.5501891184164 -2.07194021743992,53.5499698173726 -2.07211037185244,53.5497728338203 -2.0724677292131,53.5495299053547 -2.0725261282931,53.5492584091958 -2.07244433025616,53.5490877302403 -2.07283188771326,53.5488986965943 -2.07293880114043,53.5487647417908 -2.07305172737358,53.5486549545659 -2.07297591971463,53.548422270574 -2.07267866740288,53.5484395303618 -2.07231342760319,53.548431670699 -2.07189112289429,53.5486017641908 -2.07167993078945,53.5486638964089 -2.07147022184209,53.5487207260131 -2.0710915150113,53.548772177808 -2.07081389521895,53.5488487269259 -2.07059630855366,53.5487338410637 -2.07045592123085,53.548721346318 -2.07008203926776,53.5489075785071 -2.06985121129122,53.5489876915437 -2.06984362411618,53.5489903917173 -2.06963421029865,53.5492296291715 -2.06961769775485,53.549253001589 -2.06957863390685,53.5493357843109 -2.06954263862749,53.5494687947403 -2.06951102021463,53.5495389030026 -2.06953075190336,53.5495820226396 -2.06957452299792,53.5496386966572 -2.06970294020039,53.5497105056233 -2.06982836650027,53.549780519482 -2.06983895834844,53.5497885999174 -2.06995684495555,53.5498891695594 -2.06979395416033,53.5499675345854 -2.06957982982002,53.5500692018545 -2.06942440982121,53.5501519643808 -2.06935350928826,53.5501708769305 -2.06905481747498,53.550230361173 -2.06860937952386,53.5501192016381 -2.06860178635609,53.5501174093621 -2.0681624684952,53.550017926691 -2.06731249935214,53.5498404132929 -2.06687009092144,53.5497490145946 -2.06644585305057,53.5496567041604 -2.06602459237736,53.5495580115295 -2.06560036069097,53.5494683937423 -2.06516704381178,53.5493760848706 -2.06472926944207,53.5492980638956 -2.06428542104023,53.5492345114257 -2.06388383030573,53.5491358894567 -2.06346257625728,53.5490345822227 -2.06300976920081,53.5489682444973 -2.06258857032193,53.548901977897 -2.06210097741074,53.5488725876813 -2.06202095520259,53.5488672384387 -2.06204808691386,53.5487845555763 -2.0622302768619,53.5485381579327 -2.06223338871745,53.5485390550942 -2.06235385689779,53.5483781450969 -2.06248642527786,53.548237806317 -2.06262359873938,53.5480993515364 -2.06291457568003,53.5478771551836 -2.06316176153073,53.5476630705527 -2.06347682301057,53.5474076126587 -2.06363941742992,53.5472134311927 -2.06393329854142,53.5469445047188 -2.06417599230042,53.5467295214603 -2.06436897263036,53.5465550901146 -2.06460706470673,53.5463437029003 -2.06480890689949,53.5461080732326 -2.06491738232329,53.5460082698013 -2.06513604451361,53.5458697661898 -2.06503024606044,53.5457672983266 -2.06495011950768,53.5456891671934 -2.06486550575344,53.5456065452516 -2.06472344246459,53.5454663571951 -2.06482295758996,53.5454483302495 -2.06483203832723,53.5454465274985 -2.06493018609057,53.5454285012278 -2.06499051683697,53.5454176840777 -2.06510209917199,53.5453969545212 -2.06517449574228,53.5453834348911 -2.0653103484695,53.5453680826858 -2.06537489881363,53.5451873428537 -2.06538855471403,53.5451675661861 -2.06553792565238,53.5452043231842 -2.06568145037085,53.5452429708658 -2.06582024860867,53.5452815311803 -2.06585957437298,53.5452860012061 -2.065909355267,53.5452913641065 -2.06596062162864,53.5452931326009 -2.0660391342627,53.5452912902104 -2.0661161429808,53.5452840583165 -2.06615831345766,53.5452768453696 -2.0662171525736,53.5452669272793 -2.06616110596318,53.5451518518625 -2.06614149922757,53.545106035085 -2.06613837637587,53.5450979500544 -2.06611415292899,53.5450431502604 -2.06610515843581,53.5450206917229 -2.06609604020253,53.5449982323566 -2.06607030890329,53.5449344477668 -2.06606269434183,53.5449181877004 -2.06592089114504,53.5449471129749 -2.06591479153379,53.5449453196759 -2.06581820064656,53.5449220111971 -2.0658016459913,53.5449183362805 -2.06578496483437,53.5449138533814 -2.06564617896621,53.5448815830758 -2.0656400807585,53.5448806876978 -2.06559028928224,53.5448681358213 -2.0654966880289,53.5448466230626 -2.06547702039401,53.5448421418103 -2.06536225636442,53.5448143499705 -2.0653321353979,53.544808076926 -2.06523392583307,53.5447847697954 -2.06517965704469,53.5447722202732 -2.06511020113926,53.5447560848302 -2.06502867281579,53.5447372605253 -2.06498485897541,53.5447265018129 -2.06487470243553,53.5447014034293 -2.06481582682378,53.5446870595568 -2.06472521133284,53.5446655445326 -2.06464828474512,53.5446458185655 -2.06461024197017,53.5445028766546 -2.0646057370405,53.5444858058163 -2.06460122256871,53.544462445841 -2.06459969855488,53.5444426777351 -2.06460117074271,53.5444283000623 -2.06460411224083,53.5443986449852 -2.06460999508212,53.5443402345631 -2.0646160071174,53.544284428889 -2.06461895132553,53.5442565714772 -2.06462190371515,53.5442341052676 -2.0646354247153,53.5441244714122 -2.06478461091591,53.5440435162805 -2.06479369820966,53.5440462067964 -2.06481037894668,53.5440506907274 -2.06486465223637,53.5440668348402 -2.06492203867318,53.5440838751179 -2.06495228558431,53.5440919458564 -2.06499149744877,53.5441036050926 -2.0650412905185,53.5441188528085 -2.06512431859495,53.5441421695194 -2.06520137239992,53.5441645898062 -2.06521494147683,53.5441690754346 -2.06529946360444,53.5441932891201 -2.06537502220497,53.5442148122053 -2.06541124792236,53.5442255750575 -2.06549116463644,53.5442488923781 -2.06550025201545,53.5442515837401 -2.06556821880898,53.5442713133319 -2.06563008615289,53.5442892504723 -2.06567390262955,53.5443018955971 -2.06574933923217,53.5443243164553 -2.06577809546694,53.5443323878355 -2.06585353217417,53.5443548095281 -2.06588227582048,53.544355691114 -2.06595021512433,53.5443574501111 -2.06620368073646,53.5443635955387 -2.06626701021902,53.5443617616528 -2.06627603059308,53.5443213206206 -2.06628505220907,53.5442816885376 -2.06630154642061,53.5442466344346 -2.06631666766571,53.54420888551 -2.06631203266834,53.5441891191957 -2.06627890733174,53.544171166859 -2.06621542214853,53.5441532318764 -2.06613239499466,53.5441299159141 -2.0660328121851,53.5441030157971 -2.06608843504047,53.5440257058641 -2.06608843225388,53.5440239090953 -2.0660522094394,53.5440140452807 -2.06608238541599,53.5439752999777 -2.06611094083834,53.5439357457414 -2.06612149708502,53.5439222607901 -2.06614111684979,53.5438970894062 -2.06616371748387,53.5438683227745 -2.06605806084143,53.5438558030153 -2.0660534524584,53.5438531091408 -2.06601571782131,53.5438306669896 -2.06599765590274,53.5438171983642 -2.06593874620798,53.543781288437 -2.0659175741259,53.5437678224703 -2.06587530767913,53.5437921078718 -2.06582549235463,53.5437633815936 -2.06573943667821,53.5437122113119 -2.06568053022394,53.5436772009934 -2.06567741863659,53.5436763039245 -2.0656684675748,53.5436817002126 -2.06562762004149,53.5436582709913 -2.06559294017186,53.5436799462696 -2.06556583946054,53.5436961361515 -2.06552050902673,53.5436701028138 -2.06551291712966,53.5436683094426 -2.06544345853255,53.5436493887266 -2.06537412538494,53.5436305577836 -2.06535595240638,53.5436251768395 -2.0653393970274,53.5436206938138 -2.06530317607951,53.5436117277132 -2.06522911375329,53.5435920014208 -2.06515816168513,53.5435722724332 -2.06514608801509,53.5435695836273 -2.06508870352333,53.5435534413983 -2.06501326991674,53.5435319180776 -2.06502083171845,53.5435130437002 -2.0650267701672,53.5434914746303 -2.06503432921072,53.5434708025846 -2.06505089136998,53.5434797798193 -2.06506441353945,53.54345371321 -2.06506589776805,53.5434483211668 -2.06506439568993,53.5434420319687 -2.06506289210315,53.5434357427714 -2.06505989618649,53.543428555579 -2.06502959055431,53.543382744649 -2.06501450457322,53.5433620862297 -2.06500090667846,53.5433395394204 -2.06473997286322,53.5434089660985 -2.06468861212601,53.5434260681897 -2.06466908682755,53.5434323691496 -2.06463588399013,53.5434440689577 -2.06460267977256,53.5434548708218 -2.06453328469629,53.5434773732243 -2.06440954502653,53.5435178780508 -2.06437497197425,53.5435286806122 -2.06434027772812,53.5435421788343 -2.06430397388484,53.5435610691481 -2.0641969290469,53.5436168401499 -2.06402351479468,53.5436385020065 -2.06396916166089,53.5436520109998 -2.06387561901495,53.5436683271078 -2.06384534412528,53.5436412961149 -2.06374881082548,53.5436548282882 -2.06363723249336,53.5436747485872 -2.06352552330539,53.5436909845324 -2.06343346220236,53.5436991218867 -2.06333691526897,53.5437036680896 -2.06320265524117,53.5436992482988 -2.06304712012852,53.5436957387974 -2.06282076289659,53.5436760930976 -2.0627045305909,53.5436625883247 -2.06260497488288,53.5436509601594 -2.06241777606007,53.5436070311662 -2.06224712211839,53.5435603973702 -2.06207361521585,53.5435191560716 -2.06200713962817,53.5434967281275 -2.06179420874202,53.5433818239189 -2.06161292328656,53.5432955680581 -2.06149364485106,53.5432399201522 -2.06137139608486,53.5431941572814 -2.06126720758173,53.5431627624428 -2.0610770194311,53.5431134417797 -2.06088840667836,53.5431216282365 -2.06065452720265,53.543146013597 -2.06034516053714,53.5431973940033 -2.06011442366496,53.5432451391203 -2.05985183962061,53.5432964947452 -2.05964374544876,53.5433433283559 -2.05947325063934,53.5434073054275 -2.05939490028781,53.5434334038621 -2.05937224139222,53.5434235310652 -2.05932390573747,53.5433813233839 -2.05921671255537,53.5434236110285 -2.05914136101545,53.5434586942835 -2.05895287028471,53.5435558368584 -2.05869648699394,53.5436845537363 -2.05827125234021,53.5438995292608 -2.05787608279381,53.5440840257946 -2.05763483132218,53.5441829903455 -2.05721551500393,53.5443648010874 -2.05696817984222,53.5444745496535 -2.05661232297722,53.5446626168343 -2.05622016459062,53.5448757708385 -2.05586430735827,53.5450683289492 -2.05562446144884,53.5452014343131 -2.05543149098072,53.5453094455223 -2.05536819122203,53.5453364337158 -2.05531530154883,53.5453301691066 -2.05521410123729,53.5453005643239 -2.0551009484319,53.5452637772236 -2.05501182180584,53.5452367731063 -2.05505258771688,53.5452008102618 -2.05515504453076,53.5451459487055 -2.05524108790877,53.5450991808186 -2.05526968571289,53.5450829935261 -2.05529231628149,53.5450713005518 -2.05535112924098,53.5450398221902 -2.05536318942143,53.5450335263712 -2.0553813444132,53.5450245320248 -2.05538432742276,53.5450218349951 -2.05544910862068,53.544986759286 -2.05533293890206,53.5449275093727 -2.05528761539332,53.5449031800049 -2.0551925073412,53.5448681811001 -2.05523613052235,53.5448295212191 -2.05528286070826,53.5447872663012 -2.05532959165325,53.544746808127 -2.0553492319725,53.5447324209803 -2.05521791854444,53.5446992371619 -2.05512730527482,53.5446759172669 -2.05512132987806,53.5446741233645 -2.0550518464078,53.5446328220606 -2.0548328108303,53.5445034418871 -2.05478459501786,53.5445510894252 -2.05473178332971,53.5446041303176 -2.05471376540984,53.5446222 -2.05463994742742,53.5446932229638 -2.05462478709675,53.544708505797 -2.05460676897551,53.5447264855789 -2.05457209878184,53.5447615465536 -2.05451182531663,53.5448190841348 -2.05454045575501,53.544828056184 -2.05441230177685,53.544929744987 -2.05449234277891,53.5449557660256 -2.05456329700266,53.5449790957255 -2.05451059783969,53.54502404877 -2.05447132185349,53.5450582139584 -2.05437772668516,53.5450375904976 -2.05426147152307,53.5450070941062 -2.05416188925455,53.5449765897566 -2.0540501080481,53.5449406989705 -2.05386898823722,53.5448804894458 -2.0536652129758,53.5448122933284 -2.05341003224342,53.5447288451313 -2.05295109016365,53.5445869927489 -2.05230494358856,53.5443878049426 -2.05208749919397,53.5443294968604 -2.05203323089409,53.5443151446695 -2.05207236713637,53.5442683104433 -2.05206937618759,53.5442647182752 -2.05206638785946,53.5442620231386 -2.05206327276892,53.5442593289584 -2.05205430811106,53.5442539418372 -2.05205268702455,53.5442512469794 -2.05205119230488,53.544249449996 -2.05204969273954,53.5442449583209 -2.05204819357064,53.544239567815 -2.05204819134474,53.544237770155 -2.05204967827528,53.5442332771261 -2.05205265809335,53.5442278836911 -2.05205427361589,53.5442260861965 -2.05210248529541,53.5441730486094 -2.05216126140988,53.544111020593 -2.05223208582855,53.5440319137778 -2.05215503649176,53.544007686668 -2.05215204889768,53.5440067900933 -2.05210674040365,53.5439924329713 -2.05201462868484,53.5439618336078 -2.0519995636608,53.543954651586 -2.05189088585176,53.543909772721 -2.0518712188736,53.543904389526 -2.05181835575111,53.5439178922658 -2.05176711214545,53.5439340898438 -2.05171885829712,53.5439529816446 -2.05168862822792,53.5439565896861 -2.05163886416639,53.5439611044423 -2.05162080278993,53.5439458369444 -2.05158758955135,53.5439521418945 -2.05154230334354,53.5439557566659 -2.05148345609326,53.5439602763354 -2.05140495948984,53.5439719923936 -2.05135519448244,53.5439765076407 -2.0513145151406,53.5439819167878 -2.05124050650579,53.544000909356 -2.05119983370168,53.5440117096421 -2.05110466245313,53.5439209058721 -2.05094149068293,53.5437745104923 -2.05081453530907,53.543635197157 -2.05072083037946,53.5435202211912 -2.05064074629369,53.5434537616474 -2.05061060590012,53.5434286147602 -2.05056829518526,53.543422343199 -2.05047472647141,53.5434196883535 -2.05037059315571,53.5434260236193 -2.05019106991556,53.543440478201 -2.05007485963116,53.5434405284239 -2.04994507361385,53.5434289032008 -2.0497157355353,53.5434056393844 -2.04956479253591,53.543388630756 -2.04940771333598,53.5433391867448 -2.0491315182064,53.5432512441722 -2.04889602030655,53.5431713705977 -2.04835259685459,53.5429989835011 -2.0482393315857,53.5429621896463 -2.04800383574814,53.542881416548 -2.04784078020045,53.5428257721364 -2.04761437475539,53.5427503857447 -2.0474951031595,53.542682952734 -2.04697113528899,53.5424306688036</coordinates></LinearRing></outerBoundaryIs></Polygon>
  </Placemark>
