  <Placemark>
	<Style><LineStyle><color>ff0000ff</color></LineStyle><PolyStyle><fill>0</fill></PolyStyle></Style>
	<ExtendedData><SchemaData schemaUrl="#Wards__December_2019__Boundaries_EW_BFE">
		<SimpleData name="objectid">883</SimpleData>
		<SimpleData name="wd19cd">E05001220</SimpleData>
		<SimpleData name="wd19nm">Cheylesmore</SimpleData>
		<SimpleData name="wd19nmw"></SimpleData>
		<SimpleData name="bng_e">434901</SimpleData>
		<SimpleData name="bng_n">276644</SimpleData>
		<SimpleData name="long">-1.48861</SimpleData>
		<SimpleData name="lat">52.38673</SimpleData>
		<SimpleData name="st_areashape">5789642.57018381</SimpleData>
		<SimpleData name="st_lengthshape">14822.3561246069</SimpleData>
	</SchemaData></ExtendedData>
      <Polygon><outerBoundaryIs><LinearRing><coordinates>-1.46040192707784,52.3748079048743 -1.46057577753158,52.3748932711528 -1.46072339077556,52.3749550601808 -1.46082355601179,52.3750543808666 -1.46139644440817,52.3754120923318 -1.46178873294915,52.375652138922 -1.46240277385628,52.3760136258088 -1.46300537014511,52.3763507907001 -1.46292395816185,52.3764025502396 -1.46373238306554,52.3769672236762 -1.46436122168717,52.377440302989 -1.46477357165407,52.3777271649444 -1.46502875824326,52.3778793100096 -1.46530045833851,52.3780081605228 -1.46538078614958,52.3780463609695 -1.46533351619416,52.3781899516537 -1.46542239865567,52.3783728916685 -1.46543702347357,52.3783855403754 -1.46550961966786,52.3784523767058 -1.46552124945161,52.3784623157199 -1.46556806851131,52.3784769075643 -1.46575099108551,52.3785352524339 -1.46570529887755,52.3785476293439 -1.46537965669012,52.3786333420839 -1.46539558000364,52.3786486937266 -1.46556273213206,52.3787996313317 -1.46596386021837,52.3790343095412 -1.46615183861057,52.3790450415578 -1.46629459803169,52.3790187214096 -1.46633872324521,52.3791366591028 -1.46642118799697,52.3792493760089 -1.46650547027278,52.3793217464487 -1.46668426954202,52.3794816322724 -1.4667377993137,52.3795528762 -1.46682120876757,52.3796980428314 -1.46685552676927,52.3797754908044 -1.46720065517235,52.3797824339739 -1.4672607153456,52.3798042740573 -1.46727245368673,52.3798052258041 -1.46728846434475,52.3798133862413 -1.46743028803026,52.3798652531562 -1.46836735231072,52.3803792377015 -1.46850748860881,52.3804508678606 -1.46868554338649,52.380552417278 -1.46882398997069,52.3806438126021 -1.46894915975791,52.3807414396889 -1.46915257921183,52.3809302829213 -1.47034232991221,52.3823101726892 -1.47072368630371,52.3827244970453 -1.47092453655475,52.3828863618311 -1.47111998002855,52.3830040727181 -1.47141474418127,52.3831735445864 -1.47227418260618,52.3835522446163 -1.47347570820208,52.3840655648743 -1.47432986185626,52.3843921000077 -1.47483269153623,52.3846190178836 -1.47489993247915,52.3846489751628 -1.47533388529686,52.3848514094056 -1.47582596708608,52.3851071259082 -1.4762932065681,52.3853537430433 -1.47667577015164,52.3855594505658 -1.47698065688567,52.385746929349 -1.47722524180038,52.3859323437037 -1.47735924605279,52.3860335957684 -1.4775973106028,52.3862791981612 -1.4781472723454,52.3868695007419 -1.47836018109356,52.3871329667643 -1.47887887085261,52.387757370861 -1.47915261680104,52.3880921034535 -1.47940765255967,52.3884006896688 -1.47953950350788,52.3885523502956 -1.47971785097347,52.3887580506716 -1.47988784861672,52.3889215616476 -1.4800842163845,52.3890887829672 -1.48021242154863,52.3891900059274 -1.48033037663822,52.3892768040103 -1.48040027499907,52.3893292378608 -1.48049364864963,52.3893943579659 -1.48063810960181,52.3894732721243 -1.48081055554021,52.3895522185099 -1.48094810293595,52.3896112390298 -1.48108999329412,52.3896612908206 -1.48123045327246,52.3897095390389 -1.48137385684512,52.3897650802182 -1.48149361680186,52.3898222252578 -1.48160306401988,52.3898910088593 -1.48171523060569,52.3899759821216 -1.48182866099643,52.3900772285856 -1.48222059345482,52.3903684297981 -1.48159928631688,52.3904636858261 -1.48144594852664,52.3905115494488 -1.4812720697324,52.3905548298797 -1.48053995620094,52.3907072077853 -1.48008922008881,52.3908032008709 -1.47980770317991,52.3908711735817 -1.47880409881076,52.3911239129073 -1.478153882136,52.3913062945387 -1.477273349672,52.3915801423162 -1.4767984575376,52.3917300339961 -1.47646222853718,52.3918337082986 -1.47618789694852,52.3919179722201 -1.47470923763616,52.3924418091583 -1.47401836291385,52.3927084743687 -1.47331684060197,52.3930038492138 -1.47307467551318,52.3931025390651 -1.47284285958657,52.3931968708894 -1.47236550345586,52.3934185466392 -1.47195176171428,52.3936091360466 -1.47310434079141,52.3938183639459 -1.47407220432809,52.3939925199817 -1.47637017177447,52.3943982186316 -1.47708599589183,52.3945138071664 -1.4780670546573,52.3946915836872 -1.47821815300984,52.3947120196299 -1.48016734163142,52.3950460085967 -1.4811733309709,52.3952284515751 -1.48313434071522,52.3955606450386 -1.48456282969596,52.395809608104 -1.48536503841441,52.3959505986642 -1.48574784301195,52.3960215524456 -1.48623624202451,52.3960982643246 -1.48704575920069,52.3962473650776 -1.487047212588,52.3962473713557 -1.4884245130656,52.3964834868781 -1.49053219144375,52.3968521449203 -1.4928217444781,52.3972458074141 -1.49507778679179,52.3976276870961 -1.49638909971743,52.3978561471195 -1.49789103491937,52.3981169445794 -1.49844549705437,52.3982172519657 -1.4990864156393,52.3983341889705 -1.50012202560639,52.3985147071449 -1.50060607553507,52.398595025601 -1.50211993475732,52.3988557312712 -1.50366308183971,52.3991211273983 -1.5049230887814,52.3993394859589 -1.50608347196936,52.3995384524923 -1.50831604146688,52.39992627978 -1.50876644437047,52.4000054375641 -1.51136305947403,52.4004404592469 -1.5120234939327,52.4005295477793 -1.51333555799238,52.4007048005627 -1.51334438443161,52.4007066338892 -1.51477804907785,52.4009112191929 -1.51573486880506,52.4010490412899 -1.51579946959202,52.4010591912958 -1.51623740582573,52.3999821971291 -1.51643649567757,52.3992484547995 -1.51665190388953,52.3980833774393 -1.51679623439808,52.3971130394015 -1.516842131601,52.3968147494963 -1.51685143253088,52.3967616709839 -1.51685477403232,52.3967329242657 -1.5168585422727,52.396653848944 -1.5168550601075,52.3965729469746 -1.51684113775711,52.3964937996224 -1.51678329408287,52.3962750769558 -1.51638515587186,52.3957268315799 -1.51610826627126,52.3953724012538 -1.51597533015658,52.3951623592335 -1.51592799696914,52.3949248939956 -1.51592177694486,52.3946839123154 -1.51589631757976,52.3936508678447 -1.51588534075071,52.3935797317438 -1.51579164374416,52.3930049532534 -1.51561891709717,52.3919999776143 -1.51558025531424,52.3917787262404 -1.51556260335317,52.3916419528508 -1.51551678722835,52.3913990113883 -1.51550173554029,52.3911571844763 -1.51551015467211,52.3910627604031 -1.51531390189122,52.3910053369565 -1.51495504792656,52.3908933228355 -1.51478804482642,52.3908423094128 -1.51466210682566,52.3908031473703 -1.51461972166451,52.3907903014353 -1.51457520973257,52.390827956969 -1.51449512010868,52.3908950363267 -1.51446540633598,52.3909200798921 -1.51441219109087,52.3909558118092 -1.51436325564849,52.3909879669684 -1.51431896444526,52.3910165459682 -1.51423599157099,52.3910701317353 -1.51422561559438,52.3910772786544 -1.51413690000421,52.3911354249043 -1.51410871768793,52.3911532843417 -1.51404513565819,52.3911952649254 -1.51396521163699,52.3912470658659 -1.51395190653186,52.3912559987861 -1.51387489021576,52.3913078106817 -1.51386158653356,52.3913167444966 -1.5137845700053,52.3913685563328 -1.51377125646142,52.3913783882119 -1.51368239804378,52.3914383306653 -1.51350773055414,52.3915562500491 -1.51350342695571,52.3915508392148 -1.51349753978723,52.3915463217979 -1.51349321797915,52.3915427089159 -1.51345683425342,52.3915129012169 -1.51344951207919,52.3915065798839 -1.51344518044715,52.3915038650745 -1.51344219137644,52.3915002585565 -1.51343931297433,52.391497549708 -1.51343642472095,52.3914957407318 -1.51343354630964,52.3914930327822 -1.51342908434786,52.3914912164513 -1.51334612495314,52.3914216718326 -1.5133169425867,52.3913980950318 -1.51325725162976,52.3913502158557 -1.51311403849393,52.3914170352331 -1.51302802178882,52.3913501739804 -1.51297120958112,52.3913050026192 -1.51293869509352,52.3913201478489 -1.51288922329694,52.3912795007592 -1.51284693197748,52.3912469715663 -1.51279738299885,52.3912135144325 -1.51239945085936,52.3914501394978 -1.51222898752482,52.3913172314499 -1.51231911252352,52.3912744619584 -1.51239148136253,52.3912379107043 -1.51254363777718,52.391162141511 -1.51256884383112,52.3911505615126 -1.51278157732029,52.3910416974125 -1.51279323087867,52.391050732722 -1.51282722798252,52.3910328974792 -1.51284196676247,52.3910257677016 -1.51278956779074,52.3909869056729 -1.51276481882713,52.390967930115 -1.51270206964345,52.3909227342304 -1.51268020745771,52.3909055685419 -1.51265833544141,52.3908893009236 -1.51260005127918,52.3908459213566 -1.51251558304032,52.3907816723215 -1.51243098371099,52.3907184116009 -1.51235082673933,52.3906587642389 -1.5123318431089,52.3906443064616 -1.51237179750599,52.3906246978143 -1.51243683714913,52.3905935086867 -1.51237266521443,52.3905456106299 -1.51226778331668,52.3905973069241 -1.5121861834453,52.3905367553993 -1.51210013039271,52.3904734884568 -1.5120330733388,52.3904236904153 -1.51201708865431,52.3904119410668 -1.51198067578326,52.3903848289234 -1.51193248087519,52.3903495789591 -1.51186254349474,52.3902971636235 -1.51182855644576,52.3903140996177 -1.51179310483646,52.390331928588 -1.51155225956941,52.3904522697383 -1.51152118854176,52.390468319538 -1.51142956925256,52.3905147673269 -1.51128044952073,52.39057886312 -1.51122950712293,52.390540006391 -1.51098452408702,52.3903645483183 -1.5110303523789,52.3903395720532 -1.51110430577582,52.3903021291015 -1.51120175796693,52.3902539974747 -1.5112638801569,52.3902236959805 -1.5115091560938,52.3900969933598 -1.51155150459579,52.3901241300957 -1.51158406804827,52.3901044921753 -1.51158249291003,52.3901044856891 -1.51153148164952,52.3900719201031 -1.51146431619249,52.3900320976438 -1.51145696490405,52.3900284731061 -1.51138690163663,52.3899877396519 -1.51136354625346,52.3899741627195 -1.51134164554166,52.3899605908765 -1.5112730455403,52.3899189652669 -1.51118254651297,52.3898637686496 -1.51109796357891,52.3898103035758 -1.51109205713039,52.3898075821868 -1.51100301025935,52.3897523914151 -1.51090675564267,52.389691777667 -1.51078116961137,52.3897532737294 -1.51075314834698,52.3897675387782 -1.51065556490408,52.3898165676105 -1.51055212502807,52.3898692572548 -1.51052995737738,52.3898799512486 -1.5103417106499,52.3897676380428 -1.51032557646471,52.389758583988 -1.51025121163192,52.3897124407053 -1.5102438718821,52.3897079162258 -1.51010526132998,52.389621062693 -1.51023526830111,52.3895541933131 -1.51019165717015,52.3895098842059 -1.51011143607783,52.3894565263302 -1.51005020890187,52.3894167275818 -1.51000643856656,52.3893868882807 -1.50996553644796,52.3893606550727 -1.50987506846422,52.3893027614226 -1.5098987287796,52.3892884785607 -1.50996384745961,52.3892501007976 -1.51005262722424,52.3891973511071 -1.50996794527469,52.3891421775712 -1.50996505732759,52.3891403676105 -1.50994316736181,52.3891258974323 -1.50988337411697,52.3890879025464 -1.50985269989661,52.389068002864 -1.50979868268384,52.3890336269627 -1.50979435995485,52.389030013938 -1.50970980060161,52.3889748407198 -1.50962367482337,52.3889187610498 -1.50954674679308,52.3889624820818 -1.50950394587459,52.3889874702951 -1.5094743099125,52.3890053235233 -1.50941224073327,52.3890419156034 -1.50934461097888,52.3890443319891 -1.50917200584385,52.3889753124935 -1.50906202183253,52.3889514892051 -1.50885824731087,52.3889075054365 -1.5088073298259,52.3888667607087 -1.50918994120603,52.3886787065493 -1.50910054165452,52.3886558674891 -1.50903636769518,52.3886088665865 -1.50898975167364,52.3885735329287 -1.50896355109533,52.388554550546 -1.50894901111285,52.3885437048698 -1.50891102805503,52.388516585258 -1.50888195954081,52.3884939958225 -1.5087959648706,52.388426232487 -1.50870708407928,52.3883566600017 -1.50861978710008,52.3882861958939 -1.50857896731512,52.388252682315 -1.50853170410334,52.3882759444606 -1.50849383307615,52.3882496333899 -1.50839461516554,52.3881836129845 -1.50829683225683,52.3881193955734 -1.50820639884525,52.3880588037151 -1.50811594578413,52.3880000097339 -1.50807217816996,52.3879701688112 -1.50800953114183,52.3879275779439 -1.5079540835555,52.387891397219 -1.50789146560799,52.3878462001647 -1.50737996333705,52.388120984004 -1.50724138333008,52.3880323300447 -1.50682700871706,52.387763586802 -1.50635814960152,52.3875143873404 -1.50640995325175,52.3874858425668 -1.50675453404039,52.3872858653693 -1.50682240825783,52.3872501969308 -1.50682095370103,52.3872501908822 -1.50676114721178,52.3872139914602 -1.5067129492681,52.3871904238034 -1.5067027126275,52.387184988934 -1.50669536221475,52.3871813631997 -1.50669248596701,52.3871786550902 -1.50668670061097,52.3871759348801 -1.50662384480018,52.3871415198344 -1.5066048246497,52.3871306561243 -1.50660193697215,52.3871288460809 -1.50659904928485,52.3871270369365 -1.50659615162824,52.3871261258664 -1.50659169037989,52.3871243101752 -1.50658289688292,52.3871197794152 -1.5064908636369,52.387072661189 -1.50637397679641,52.387016451994 -1.50633158702276,52.3869937165685 -1.50617679115595,52.3869148802891 -1.50614749330397,52.3869021756785 -1.50601601019561,52.3868405121515 -1.50591213669828,52.3867906480034 -1.50588442401722,52.3867770509157 -1.50586247661529,52.3867679720191 -1.50585814590496,52.3867652578287 -1.50572365403985,52.3867017843044 -1.50561990414593,52.3866518305095 -1.50550879473668,52.3865992396915 -1.50550590713887,52.3865974296212 -1.50539618106041,52.3865511357715 -1.50529240088389,52.3865039676065 -1.50519886722219,52.3864613353778 -1.50510672822281,52.3864241020859 -1.50502182758729,52.3863895950789 -1.50493562554356,52.3863522956305 -1.50484928065956,52.386316884353 -1.50476449090151,52.386283275738 -1.50472783522987,52.3862678438985 -1.5046840733818,52.3862487872064 -1.50467815777777,52.3862469653679 -1.50465474635665,52.3862387782457 -1.50462252324732,52.3862278590643 -1.50461819267633,52.3862251439293 -1.50461227707821,52.3862233220874 -1.50460648195617,52.3862215007485 -1.50459910182683,52.3862205709044 -1.50459477124797,52.3862178566676 -1.5045874126189,52.3862151297812 -1.50447319611321,52.3861804999077 -1.50446884551104,52.3861795827139 -1.5043604458011,52.3861449770354 -1.50431216010841,52.3861294964594 -1.50424189911986,52.3861076317935 -1.50415546504356,52.3860803080711 -1.50402664502267,52.3860410326244 -1.50393584056969,52.3860145894777 -1.50386107733209,52.3859945037814 -1.50384645918595,52.3859908474622 -1.50383185254687,52.3859862921741 -1.50382158644417,52.3859835530752 -1.50380986582844,52.3859808078897 -1.50380104273736,52.3859789738419 -1.50379669216917,52.3859780566234 -1.50378931209789,52.3859771267287 -1.50377469542267,52.3859734713058 -1.50376153180465,52.3859698210622 -1.50372925747726,52.3859633946994 -1.50367354490754,52.3859514770442 -1.50359438970777,52.385934069843 -1.5035870111174,52.3859331399419 -1.50345949346875,52.3859074408598 -1.50340086196625,52.3858964107682 -1.50335540557545,52.3858881310718 -1.50335250806749,52.385887219922 -1.5032336716941,52.3858651521134 -1.50321759055431,52.385862388603 -1.50319993443179,52.3858596184926 -1.50318386334472,52.3858559560043 -1.50316475418617,52.3858531798014 -1.50313839698732,52.3858485751977 -1.50311203831477,52.3858439714809 -1.50309293921639,52.385840296293 -1.50309148617608,52.3858402902047 -1.50309003166656,52.3858402841101 -1.50306947953147,52.3858366028301 -1.50301082812762,52.3858273695926 -1.50300056211325,52.3858246304223 -1.5029888315488,52.3858227832297 -1.50297419489598,52.3858209247553 -1.50295652875237,52.3858190535817 -1.50293306909033,52.3858153600917 -1.50291105241746,52.3858125716609 -1.50287586073804,52.3858070309518 -1.50284066047116,52.3858023901106 -1.50272767971863,52.3857875357654 -1.50271885818084,52.3857857016429 -1.50271002512646,52.3857847655879 -1.5027027670544,52.3857838361368 -1.5026939440492,52.3857820020063 -1.50268220345035,52.3857810537564 -1.50267047290095,52.3857792074312 -1.50265727926519,52.3857782530853 -1.50266631343824,52.385761215073 -1.50272474794613,52.3856598102375 -1.50279955372165,52.3855351967032 -1.50281762186031,52.3855011197558 -1.5028760657273,52.3853988158674 -1.50295990459429,52.3852571632964 -1.50301533879799,52.3851639249816 -1.50307669929447,52.3850607350983 -1.50307670934492,52.3850598361249 -1.50313214452075,52.3849665977583 -1.50318451989946,52.384876042694 -1.50323698540256,52.3847881841312 -1.50323845996151,52.384786393176 -1.5032878480981,52.3847029250772 -1.50334323069177,52.384614180568 -1.5032699446452,52.3845923035373 -1.50316165015631,52.3845594943042 -1.50305032642555,52.3845266722768 -1.50293900433004,52.3844938501506 -1.50283071991181,52.3844600526358 -1.50271059551886,52.3844235991249 -1.50259059180557,52.3843871450981 -1.50247046782065,52.3843506904439 -1.50234309479793,52.3843124081134 -1.50221862084464,52.3842750368295 -1.50210006086142,52.3842394873765 -1.50209414563365,52.3842376654081 -1.50197993767595,52.3842030331221 -1.50187888275718,52.3841729492556 -1.50185993516953,52.3841665783524 -1.50173981338976,52.3841300339563 -1.50161532892587,52.3840935601044 -1.50149678146039,52.3840571119773 -1.50137375026862,52.3840206440068 -1.50134006649884,52.3840106159012 -1.50126098767321,52.3839869161439 -1.50115559191991,52.3839550162911 -1.50104571544737,52.3839230974898 -1.50091835632607,52.3838839146805 -1.50090373910802,52.3838802579993 -1.50087733346132,52.383869362271 -1.50081740368878,52.3838448428852 -1.50076773030555,52.3838238728074 -1.50069899830973,52.3837957220378 -1.50065366569892,52.3837766572207 -1.50059951923734,52.38375485912 -1.5005892639454,52.3837512207673 -1.5005570638314,52.3837385025301 -1.5005293344753,52.3837267021421 -1.50048977495528,52.383711255859 -1.50042104328406,52.3836831049562 -1.50036109378628,52.3836603833073 -1.50072671812082,52.3832906470012 -1.50084160090449,52.3831247705489 -1.50090325458413,52.3830063932971 -1.5009484048466,52.3829122136805 -1.50098144344371,52.3828394641511 -1.50104677032017,52.3826527968955 -1.50105918589398,52.3825935312056 -1.50106723061719,52.3825350562384 -1.50106795686972,52.3824703481729 -1.50104950494576,52.3824091554785 -1.50101638591675,52.3823487991825 -1.50097137746876,52.3823009754635 -1.50084177267361,52.3822032743118 -1.50116393699989,52.3820347645766 -1.50116539138514,52.3820347706945 -1.50129125218822,52.3820775420933 -1.50135712502559,52.3821011863045 -1.50137315282286,52.3821084440227 -1.50143901566854,52.3821329871612 -1.50146966165189,52.3821439014848 -1.50152671239155,52.3821657113931 -1.50152082723447,52.3821719779631 -1.50154414524172,52.382188253763 -1.50160530440905,52.3822325499929 -1.50161407628112,52.3822388781695 -1.50168990127126,52.3822932123654 -1.50175106220774,52.3823375076266 -1.50177445948869,52.3823465942879 -1.5018827788723,52.382387493345 -1.50189881838691,52.3823938520284 -1.50198807926755,52.3824274806076 -1.50209048405324,52.3824665575012 -1.50219580494751,52.3825047475317 -1.50230414522628,52.3825438491552 -1.50240656820972,52.3825812177198 -1.50241682484424,52.3825848559196 -1.50251188106827,52.3826203055486 -1.50252213625142,52.3826239437331 -1.50261140958683,52.3826566737733 -1.50263191998803,52.3826639501242 -1.50272264643228,52.3826966852753 -1.50274012906089,52.3827039489102 -1.50282507258705,52.3827339644848 -1.50284546260317,52.3827412393945 -1.50285571784175,52.38274487755 -1.50293329205745,52.3827730641208 -1.50295814422009,52.3827821566441 -1.50303861440808,52.3828112533996 -1.50306201367274,52.382820339812 -1.50314405887591,52.3828494430954 -1.50316891113477,52.3828585346753 -1.50325226885488,52.3828894423112 -1.50327712015392,52.3828986237656 -1.50335469490737,52.3829268100596 -1.5033869052641,52.3829386285558 -1.50345422480747,52.382963177574 -1.50349222986908,52.3829768174362 -1.50356244539395,52.3830022766335 -1.50359755318669,52.3830150062165 -1.50365461612057,52.3830359170231 -1.50369997934568,52.3830522846609 -1.50389615314448,52.3831232080157 -1.50415359976014,52.3832178452579 -1.50434240538809,52.3832869408244 -1.50434829029656,52.3832806741148 -1.50441210073219,52.3832288123211 -1.50450550571274,52.3831518199236 -1.50458705073142,52.3830847533761 -1.50467605373425,52.3830114275162 -1.50475910123662,52.3829398738489 -1.50484508539762,52.3828655454389 -1.50492822425443,52.3827966890793 -1.50501273389505,52.382724242323 -1.50506165504185,52.3826822044965 -1.50509578031528,52.3826526884147 -1.50518333969146,52.3825783663327 -1.50529303103468,52.3824853533959 -1.50543172662655,52.3824311081833 -1.50559330511943,52.3823014616297 -1.5056881504984,52.3822253724199 -1.50577712997521,52.3821538427648 -1.50588936879442,52.3821039800283 -1.50600454315309,52.3820514332683 -1.50606355818045,52.3820274128818 -1.50612116163616,52.381999791426 -1.50617133417612,52.3819757341586 -1.50618764583887,52.3819686117627 -1.50628064584973,52.3819275660918 -1.50637510905265,52.3818857173253 -1.50647114544116,52.3818438759299 -1.50656851557274,52.3818020391074 -1.50666590399368,52.3817584051501 -1.50675901408372,52.3817183484787 -1.5068563921621,52.381675613337 -1.50695085527403,52.3816336751092 -1.50704980782603,52.381590945456 -1.50714426957876,52.38154909697 -1.50724176885743,52.3815063611166 -1.50733621033508,52.3814663095246 -1.50743213440959,52.3814235678696 -1.50752366828065,52.3813835040509 -1.50758866635236,52.3813550135767 -1.50756682181896,52.3813368580591 -1.50749557040256,52.3812736490861 -1.50742418876652,52.381211338543 -1.50735595454638,52.3811382555471 -1.50728919482007,52.3810633815054 -1.5072834500661,52.3810570663283 -1.50725728460074,52.3810245121524 -1.50723128843946,52.3809875552977 -1.50721829388816,52.3809686273752 -1.50717631690421,52.3809091350122 -1.50717062200295,52.3808983258599 -1.50712870492602,52.3808334414349 -1.50710702923248,52.3808000967709 -1.50708400882536,52.3807568609423 -1.50707389319768,52.3807406411161 -1.50705679878082,52.3806982381292 -1.5070481973038,52.3806766323018 -1.50702955702355,52.3806316175382 -1.50701673354297,52.3805974115397 -1.50699127599882,52.3805119235315 -1.50698552052672,52.3804957218242 -1.50696858621786,52.3804390296409 -1.50696716178283,52.3804363275719 -1.50695591100427,52.3803804681303 -1.50695042552584,52.3803507859109 -1.5069477490362,52.380330103725 -1.5069395747957,52.3802698527969 -1.50693556212856,52.3802383795686 -1.50693611032104,52.3801889494941 -1.50693615018046,52.3801853553968 -1.50693224778086,52.3801332106693 -1.50693383020314,52.3801215336466 -1.50693400961073,52.3801053566127 -1.50693598321028,52.3800585396083 -1.50693791533207,52.380026192082 -1.50693954905644,52.3800100210949 -1.50694311403135,52.37995071799 -1.50694602119624,52.3799507300779 -1.50695588822414,52.3798581994982 -1.50707481910244,52.3798595929526 -1.50718500859226,52.3798627470907 -1.50719675768755,52.3798627959185 -1.50725694458734,52.3798639441459 -1.50735829215496,52.37986706228 -1.50753752048888,52.3798705028883 -1.50769579955772,52.3799062118126 -1.50777795082998,52.3799146412838 -1.5078469001742,52.3799230159062 -1.50785270308095,52.3799239390052 -1.50786153507908,52.3799248746754 -1.50797162533401,52.3799370151227 -1.5080126358133,52.3799416794561 -1.50804796384595,52.3799454211859 -1.5081286112339,52.3799583374519 -1.5081930688164,52.3799675931544 -1.50824000420672,52.3799731800978 -1.50839704004679,52.3799900089986 -1.50842442775114,52.3799011452032 -1.50843824845874,52.3798562643211 -1.50845340151361,52.3798113898589 -1.50846866336755,52.3797565385746 -1.50848692345092,52.3797044866625 -1.50899590093828,52.3797695083231 -1.50901446808408,52.3796895953241 -1.50909718610319,52.3793833717985 -1.50920150002891,52.3791176815891 -1.50927821671067,52.3789490318633 -1.50936687100707,52.3787740511661 -1.50887258722832,52.37869561118 -1.5059079319275,52.3783192073467 -1.5044732980587,52.3781297846671 -1.50449893765669,52.377807147852 -1.50364687638407,52.3778161668029 -1.50230827437188,52.3777062996251 -1.50084350770457,52.3775931902216 -1.50001875270409,52.3775222183094 -1.49957525533207,52.377507764849 -1.49830401880889,52.3774295943575 -1.49772113093531,52.3774028595772 -1.49697966707816,52.3773682598807 -1.49631477037661,52.3773213981653 -1.49608319534612,52.3772781730621 -1.49594041734275,52.3774258616457 -1.49443563364929,52.3773511488613 -1.49355637015168,52.3772925728174 -1.49347394301812,52.3771707977562 -1.49172972253739,52.3770959273025 -1.49164450079725,52.3770919667883 -1.49035994560095,52.3770262354005 -1.48887102334227,52.3769748880107 -1.48764965838726,52.3769022100888 -1.48727076396352,52.3768843943971 -1.48726931122004,52.3768843881149 -1.48685559757541,52.3768402672105 -1.48660451510808,52.376830191909 -1.48605504872224,52.3768367997938 -1.48539251720416,52.3768384193573 -1.48511192836326,52.3768452905422 -1.48392279710492,52.3769076180047 -1.48332730951847,52.3769553558174 -1.48303444301045,52.376997219834 -1.48254575226165,52.377078673918 -1.48227797499042,52.3771188484217 -1.48196217742398,52.3766131740275 -1.48154225350548,52.3759703421768 -1.48135193533128,52.3756629426802 -1.4811247078636,52.3753634694594 -1.48087783122389,52.3749947026478 -1.48067119855278,52.3747061023373 -1.48040989552119,52.3743183071523 -1.47963780541528,52.3743914056161 -1.4775564809587,52.3745071820458 -1.47732147382608,52.3745115386026 -1.4771612771626,52.3745189208045 -1.47695106958725,52.3745359687679 -1.47650830010072,52.3745861437694 -1.47591340806165,52.3747085343091 -1.47549787818653,52.3748208408773 -1.47535480442788,52.3748651457327 -1.47524717899898,52.3749024177953 -1.47427915357263,52.3752784890952 -1.47310906658763,52.375718275274 -1.47244494059617,52.3759778513412 -1.47193013933994,52.3761562122006 -1.47167627458826,52.376258529273 -1.47150365977608,52.3763215718365 -1.47132819248265,52.3763801081216 -1.47100830681801,52.3764730520106 -1.47070926510022,52.376544607729 -1.46804899708172,52.3770343053182 -1.46749698649407,52.3771208953972 -1.46660878554623,52.3772040829588 -1.46654274404867,52.377196596305 -1.46648265861637,52.3771873374656 -1.4663847122753,52.3771437559851 -1.46538535222148,52.3760873336845 -1.46518054583987,52.3758859842448 -1.46499156195853,52.3757286556521 -1.46469575144741,52.3755313877425 -1.46503433378777,52.3753449835565 -1.46633235788727,52.374536277046 -1.46533682799823,52.3740122089331 -1.46494015581189,52.3737739506926 -1.46447743031373,52.373539886734 -1.46401360334253,52.3732671682518 -1.46399499983254,52.3733435701408 -1.46384536227147,52.3736899095943 -1.46381107593838,52.3737310982332 -1.46375039863863,52.3737712683967 -1.46370914859097,52.373787259787 -1.4636428304059,52.3738031376931 -1.46357227225227,52.3738091097113 -1.46329474431585,52.3737943710761 -1.46321527870275,52.3738056949312 -1.46313576015412,52.3738215127572 -1.46260171873752,52.3740169123331 -1.46237197869471,52.3740662016279 -1.4620838952941,52.3740828703516 -1.46175939268694,52.3741865530961 -1.46167505306543,52.3742401865791 -1.46123062073451,52.374555524575 -1.46040192707784,52.3748079048743</coordinates></LinearRing></outerBoundaryIs></Polygon>
  </Placemark>
