  <Placemark>
	<Style><LineStyle><color>ff0000ff</color></LineStyle><PolyStyle><fill>0</fill></PolyStyle></Style>
	<ExtendedData><SchemaData schemaUrl="#Wards__December_2019__Boundaries_EW_BFE">
		<SimpleData name="objectid">2786</SimpleData>
		<SimpleData name="wd19cd">E05007424</SimpleData>
		<SimpleData name="wd19nm">Farnham Shortheath and Boundstone</SimpleData>
		<SimpleData name="wd19nmw"></SimpleData>
		<SimpleData name="bng_e">483226</SimpleData>
		<SimpleData name="bng_n">144726</SimpleData>
		<SimpleData name="long">-0.81029</SimpleData>
		<SimpleData name="lat">51.19569</SimpleData>
		<SimpleData name="st_areashape">1431260.67802731</SimpleData>
		<SimpleData name="st_lengthshape">9000.5634397065</SimpleData>
	</SchemaData></ExtendedData>
      <Polygon><outerBoundaryIs><LinearRing><coordinates>-0.809285794530604,51.2060423130283 -0.809875527373064,51.205819878722 -0.810354908550446,51.2056062075394 -0.810966163635528,51.2052716119973 -0.811476261061255,51.20497374266 -0.81200028746657,51.2047444270748 -0.812344588248562,51.2046057911278 -0.81289649692329,51.2044072304125 -0.813423699555718,51.2042237892968 -0.814169278727839,51.2041170864079 -0.81420217919368,51.2030599280795 -0.814191148702176,51.2030436341528 -0.813850174390366,51.2025519315302 -0.8131174105321,51.2015444523861 -0.815439238316087,51.2009241238428 -0.814891072063589,51.2002513340975 -0.815148077903203,51.2001649372219 -0.814561331732018,51.1995474926291 -0.813733441580546,51.1997927083358 -0.813529461796101,51.1994866871559 -0.813234038873321,51.1995663986342 -0.812965885921637,51.1993055748874 -0.81336856783538,51.1991757098286 -0.813253227409757,51.1990440944115 -0.813982526034397,51.1988465197561 -0.813350172725296,51.1982187172798 -0.813989797271928,51.1980570017023 -0.813011376919088,51.1969221587265 -0.812615674258615,51.1963902497986 -0.812022371886541,51.1955856436661 -0.812347830907289,51.1955071395099 -0.812422116968203,51.1955690261612 -0.81262840903011,51.1955036949393 -0.812524820982161,51.195360601151 -0.812692664102019,51.195064646148 -0.813493530516344,51.1949773890891 -0.814176416747612,51.1948018167953 -0.814394631269509,51.1951088797834 -0.815100554843503,51.1948723132513 -0.815005325597992,51.1947895395107 -0.81523703174725,51.1947406442014 -0.815033384918727,51.1945326199157 -0.815125012562261,51.1943644463075 -0.815103830301307,51.1941826338583 -0.814227553175773,51.1937555390047 -0.814683242802058,51.193507538093 -0.814575967628979,51.1933930869482 -0.814141100267814,51.1932754049323 -0.813484316116219,51.1928254481817 -0.813757450050687,51.1926654087088 -0.81410761920927,51.1924045640685 -0.81415856742212,51.1921478757288 -0.814662193909335,51.1921511828019 -0.814980324406037,51.192247092723 -0.814907726613897,51.1918983542979 -0.814146641521182,51.1917754791084 -0.814113457724601,51.1912841981504 -0.814188097490805,51.1912768642359 -0.814666442766925,51.1910370946761 -0.815167172604122,51.1908766612467 -0.815377825617574,51.1908059756514 -0.815638090998482,51.1907007317669 -0.816073616369112,51.1905153614582 -0.816691675689633,51.1903526037533 -0.816779298746629,51.1902850764116 -0.816813933796009,51.1902180013012 -0.81697795638853,51.1902403378939 -0.816897209171131,51.1899283770069 -0.817227338895428,51.1898867654283 -0.817548512709948,51.1897524657857 -0.817713583955346,51.189618295199 -0.81780844940373,51.189659708967 -0.818003104603348,51.1896005446345 -0.818007966227653,51.1894657437295 -0.817792695126771,51.189043554372 -0.81800154737725,51.188876653142 -0.817677890548807,51.1888868672669 -0.817705425636807,51.1886497189621 -0.817776463389302,51.1885569411197 -0.818453817202826,51.1881455702025 -0.819268480824587,51.1873463143682 -0.818972101112941,51.1873514135898 -0.818818625858003,51.1872536701246 -0.818465195922087,51.187141231674 -0.818049985469897,51.1873735640022 -0.817790409040632,51.1874527497733 -0.817747966944386,51.1873777030267 -0.817320314904034,51.1874273198507 -0.816769230765613,51.1873210581384 -0.816528486142613,51.1875587460687 -0.816117150312713,51.1873072684083 -0.815865142888846,51.1873119087574 -0.815480263718041,51.1873682448904 -0.815457181927958,51.1873158694268 -0.815157893696871,51.187383858786 -0.815126297485152,51.1873322953643 -0.814786487740415,51.1874115609417 -0.814644908157076,51.1870756083025 -0.814245939844332,51.1866183775163 -0.813837486664406,51.1861402825277 -0.812426006172361,51.1866133976346 -0.81159991532941,51.1868523231206 -0.811304912623484,51.1864733623066 -0.811222599562754,51.1864994963105 -0.810543549511525,51.1856401588901 -0.807626578073745,51.1863954667272 -0.807666332388643,51.1864093572854 -0.80667243478734,51.1866627185862 -0.807080632614896,51.1871480285258 -0.806753508191911,51.1872930272391 -0.806773908503321,51.1873345895933 -0.804718977458815,51.1880582513405 -0.804606192873179,51.1879940786316 -0.803892497361571,51.188309613842 -0.80392635410986,51.1883280297794 -0.804148774049326,51.1884732457731 -0.80439625366411,51.1886988181131 -0.804670751755408,51.1889290705995 -0.804813268314249,51.1890618709521 -0.80532831658097,51.1896175017412 -0.805393439002773,51.1896999760601 -0.805501310459462,51.1897900791867 -0.805879005236932,51.1900178772577 -0.805758898202731,51.1902325010443 -0.805315197604447,51.1901253942356 -0.805222895109467,51.1902089575015 -0.805136185440822,51.1902998591275 -0.804784783004988,51.1902189551103 -0.804489923541331,51.1907761099703 -0.803885518748059,51.1906827270494 -0.803403385871543,51.1905150766342 -0.803282323068645,51.1906019402932 -0.803239539449257,51.1907597271925 -0.803503627993003,51.1909000659103 -0.803691129846778,51.1909496310005 -0.803911744753024,51.1911650403112 -0.803502299244166,51.1910061343064 -0.803318296909101,51.1914232769678 -0.803711870634324,51.1915892126402 -0.803672549789532,51.1916679227848 -0.803309037709166,51.1925562834693 -0.802820103955674,51.1934757236345 -0.802829495316096,51.1936097706214 -0.802838070047933,51.1937753651298 -0.803529232921764,51.1937824369179 -0.803956074444162,51.1937670239105 -0.803956027964642,51.193768821053 -0.803920395308268,51.1938736402694 -0.803718189310669,51.1942780103121 -0.803645110107157,51.1944436688777 -0.803545506600421,51.1945900862364 -0.803234550498476,51.1949376951084 -0.803220203395668,51.19499508467 -0.803267969871627,51.1950279367838 -0.803311814000117,51.195048163629 -0.803360045737631,51.1950630406925 -0.803425569646987,51.1950753986516 -0.803758393930296,51.1951003787245 -0.804077103486974,51.1951737600004 -0.80427790123354,51.1952117723175 -0.804408740020997,51.1952446646831 -0.804503834629928,51.1952726062726 -0.804661299728647,51.1953299542317 -0.804883175760781,51.1953834637937 -0.804966037696029,51.1954418467072 -0.804986834722619,51.1954681304683 -0.805015454106371,51.1955250599238 -0.805031351962925,51.195576554688 -0.805034784018117,51.1956628942525 -0.804409579489744,51.1964855641099 -0.804379166088909,51.1965527686474 -0.804372272631166,51.1966003444768 -0.804383272452051,51.1966723768709 -0.804654508299841,51.1971949515131 -0.804690743716497,51.1972357767095 -0.804854293329053,51.1973866823845 -0.804987852435658,51.1974789357943 -0.805325522234824,51.1976504975942 -0.805655389892122,51.1978454430768 -0.80573872199102,51.1979406889766 -0.80580021250044,51.1980545908529 -0.805805781216532,51.1981176676861 -0.805807220188381,51.1981716225529 -0.805815644309043,51.1983983466757 -0.805801785914667,51.1984917010187 -0.805786489938035,51.1985311005095 -0.805759539248585,51.1985784725329 -0.80574319675391,51.1985989832173 -0.805203478996775,51.1983272770852 -0.805168864257629,51.198616491706 -0.804952381206344,51.1986322600333 -0.804625605359578,51.1988151043935 -0.804777832896783,51.1989020651044 -0.804999374417334,51.1990833194738 -0.805074769453043,51.1991569088523 -0.804552183502988,51.1993818036587 -0.80443285069503,51.1992366533855 -0.804225840076757,51.199105082094 -0.803977928617952,51.1990081525065 -0.803883426423006,51.1990665201568 -0.803524198559797,51.1991167865736 -0.803625307653355,51.1993048123638 -0.803805732112192,51.1995243057508 -0.803877017376389,51.1995879647378 -0.803295020119612,51.19978707352 -0.803051367226242,51.1995255791241 -0.802782899981066,51.1992791131205 -0.80271711735547,51.199221802783 -0.802702173783847,51.1991380422351 -0.802442718694392,51.1991497708526 -0.802323331705744,51.1991755181969 -0.802195513553917,51.1992443317734 -0.802083410686525,51.1993214866955 -0.8020319166534,51.1991545543834 -0.801958747390418,51.1991591987743 -0.802003090205767,51.1993242602652 -0.801793655029976,51.1994003281308 -0.801812734026344,51.1994382815962 -0.801419718304521,51.199580792055 -0.80148461220196,51.199672345849 -0.801609369850594,51.1998264537821 -0.801720711352463,51.199947251425 -0.80207742477832,51.2003222821998 -0.802499581703859,51.2001619981711 -0.802503665800945,51.2001683329853 -0.803019499692757,51.2008111833735 -0.804390700586934,51.2003144836952 -0.804229117681083,51.2001419326695 -0.804810509133335,51.1999662755881 -0.805029856197946,51.199894709054 -0.805410085835773,51.2003015247352 -0.805934949239854,51.200875141319 -0.805796173173845,51.2009295523571 -0.806051455558115,51.201239705961 -0.805734210366815,51.2013317618381 -0.806135513660623,51.2018646492227 -0.806818622848445,51.2016305973093 -0.806834454285911,51.2016253650443 -0.807187555146996,51.2020327063827 -0.807137111193514,51.2020483741365 -0.80748457584852,51.2025051926112 -0.808008086065328,51.2022955770276 -0.80815724924483,51.2024517249691 -0.807811797697569,51.202694621008 -0.807404190045362,51.2027345172259 -0.807311934432869,51.2027605462722 -0.807235553944388,51.2026698678952 -0.807184131125869,51.2026091104388 -0.807088905910268,51.2026405036709 -0.806827551700004,51.2027250409527 -0.806913354715265,51.2028392800091 -0.807017176331722,51.20297788557 -0.80629386335947,51.2032187207005 -0.806301616804467,51.2032475679449 -0.805197747723246,51.2035905941943 -0.806636976906024,51.2051744879123 -0.806906724419626,51.2050945320038 -0.807105201977697,51.2053339813674 -0.807633692051845,51.2051019439485 -0.807406516156072,51.2048631012752 -0.807591384829026,51.2048020558139 -0.807549640510581,51.2047548824571 -0.807595863017239,51.2047382722326 -0.808037133839723,51.2048353665921 -0.808056683614443,51.2048553440331 -0.808157073768185,51.2049579531677 -0.808523442519715,51.2053511315575 -0.809234087469497,51.2059923420224 -0.809284283516823,51.2060413983925 -0.809285794530604,51.2060423130283</coordinates></LinearRing></outerBoundaryIs></Polygon>
  </Placemark>
