  <Placemark>
	<Style><LineStyle><color>ff0000ff</color></LineStyle><PolyStyle><fill>0</fill></PolyStyle></Style>
	<ExtendedData><SchemaData schemaUrl="#Wards__December_2019__Boundaries_EW_BFE">
		<SimpleData name="objectid">4870</SimpleData>
		<SimpleData name="wd19cd">E05010565</SimpleData>
		<SimpleData name="wd19nm">Tavistock North</SimpleData>
		<SimpleData name="wd19nmw"></SimpleData>
		<SimpleData name="bng_e">248530</SimpleData>
		<SimpleData name="bng_n">75941</SimpleData>
		<SimpleData name="long">-4.14004</SimpleData>
		<SimpleData name="lat">50.563519</SimpleData>
		<SimpleData name="st_areashape">7605926.82597901</SimpleData>
		<SimpleData name="st_lengthshape">17042.3197373007</SimpleData>
	</SchemaData></ExtendedData>
      <Polygon><outerBoundaryIs><LinearRing><coordinates>-4.12418420783702,50.5591655172377 -4.1242733098237,50.5594202484561 -4.12430225941547,50.5595617909679 -4.12430492942813,50.5596211780064 -4.1242954414299,50.5596923860249 -4.12427153658908,50.5597899335834 -4.12422603482573,50.5599094553799 -4.12414346876811,50.5600513244162 -4.12393350161344,50.5603115108127 -4.12389436803188,50.5603499902761 -4.12382096191816,50.5604133725218 -4.12376205634643,50.5604549100129 -4.12369043242001,50.5604957809178 -4.12357156818691,50.5605527984426 -4.12327479507791,50.5606715975818 -4.12315091641374,50.5607439929426 -4.1230433108599,50.5608313773736 -4.12296163439399,50.5609309673877 -4.12258462328928,50.5611815183599 -4.1222726682326,50.5614030977366 -4.12212896183621,50.5615369979777 -4.12197419447454,50.5617071553369 -4.12186546771686,50.5618629863849 -4.12167132380337,50.5622244875057 -4.12158405762705,50.5623267857694 -4.12148991708743,50.5624004353365 -4.12143219820108,50.5624347571463 -4.12076692020065,50.56274549394 -4.12029835848294,50.5630346614171 -4.11943729406776,50.563450561975 -4.1192855609487,50.5634992723645 -4.11900718032184,50.5636212313302 -4.11846141506363,50.5638560472134 -4.11832161748021,50.5638567917197 -4.11823799435339,50.5638484228264 -4.11817239570381,50.5638343293717 -4.11811919137161,50.5638136271236 -4.11808297475939,50.5637927057789 -4.11801851706769,50.5637417263258 -4.11755901454451,50.5633192876393 -4.11725716921072,50.5631385567809 -4.11714029927484,50.5630507644413 -4.11709873353167,50.5630065610545 -4.11706709225914,50.5629603792328 -4.11694961805825,50.5626719903733 -4.1168861730419,50.5623889142608 -4.11676745244728,50.5621661877792 -4.11669580764296,50.5620820691063 -4.11606704608164,50.5615034568981 -4.1151871308038,50.5615635051201 -4.11429509744063,50.5615401435781 -4.11427715514156,50.5615476630687 -4.11410653970332,50.5616478721653 -4.113946858889,50.5617713505108 -4.11389540290486,50.5618208406948 -4.11378596521193,50.5619639982478 -4.11372371079957,50.5620245639442 -4.11366925972509,50.5620696121186 -4.11362306105093,50.5621091156532 -4.11353273420009,50.5621745962643 -4.11312906116375,50.562397816085 -4.11295501813509,50.5625178677428 -4.11266652193441,50.5626976325089 -4.11261932534453,50.562746145363 -4.1126088952146,50.56279668851 -4.11266248426971,50.5630161044345 -4.11267850417119,50.5632181278948 -4.11267420506696,50.563343281156 -4.11266501903047,50.5634216769788 -4.11261740271523,50.5635232478284 -4.11259727276981,50.563643293506 -4.11260140027846,50.5637043630178 -4.11262338740508,50.5637534185488 -4.11266662638339,50.5638038873472 -4.11272230605042,50.5638487346964 -4.11283233975604,50.5639087819553 -4.11327082281938,50.564083446535 -4.11334719407557,50.5641171284507 -4.11338209242938,50.5641398740261 -4.11342701566503,50.5641993036294 -4.11347365898715,50.5643882726384 -4.11347987786111,50.5644960612406 -4.11349222191378,50.5645507764014 -4.11351740470448,50.5646087663144 -4.11355075726823,50.5646594142573 -4.11359355727251,50.5646999987299 -4.11360827643704,50.5647141188926 -4.11368901915345,50.56481425957 -4.11380415437519,50.5649570269304 -4.11393828699917,50.5651470158572 -4.11397363265388,50.5651797332675 -4.11405782583615,50.5652294580563 -4.11447239948856,50.5655016643373 -4.11450327241326,50.5655280795331 -4.11455222043258,50.5655811405095 -4.11458146738986,50.5656336616049 -4.11459504505022,50.5656846674836 -4.11458786603175,50.5657766039863 -4.1142571623442,50.5664652641223 -4.1141653865421,50.5666233869603 -4.11414095283821,50.5666472086606 -4.11408465918825,50.566682400195 -4.11392028098392,50.5667637026139 -4.11356594359245,50.5668933211084 -4.11352977823344,50.5669047680382 -4.11331111706541,50.5669725784325 -4.11304544125381,50.5670331484545 -4.11289656282436,50.5670835963695 -4.11269297774479,50.5671709132495 -4.11276383418353,50.5672712351065 -4.11279343577984,50.5673030687854 -4.11289216540391,50.5673939824457 -4.11304106493736,50.5675027793935 -4.11310534876684,50.5676149087645 -4.11313072254735,50.5676459196418 -4.11332865341753,50.5678069679343 -4.11341463422353,50.567930393357 -4.11345612062415,50.5679728017229 -4.11349844872691,50.5680053927229 -4.11354376294597,50.5680396384401 -4.11392060490101,50.5682539958289 -4.11403819811686,50.56832658362 -4.11444929478228,50.5686141405928 -4.11451349128005,50.5685967894949 -4.11467620845395,50.5685406931426 -4.11489279538556,50.5684576316241 -4.11529321960741,50.5682831105975 -4.11547949969517,50.5682175933893 -4.11560836059288,50.5684455327247 -4.11570802461775,50.5685597161998 -4.11585104665183,50.5687891959486 -4.11592370909152,50.5688022621431 -4.11603652653928,50.5688929180792 -4.11613696752157,50.5689594303456 -4.11639143815037,50.5690618082046 -4.11641928034289,50.5690828823914 -4.11644924785192,50.5691228007467 -4.11650481805758,50.5692585565829 -4.11655186680253,50.5693314337604 -4.11646664108472,50.5694148082879 -4.11637139790588,50.5695604979934 -4.11633500165043,50.5695980265412 -4.1162403958736,50.5696617891309 -4.11620635063622,50.5696893828915 -4.11618757716759,50.5697122037175 -4.11616288266534,50.5697899825683 -4.11613960260039,50.5699955080648 -4.11615570747648,50.5700716460348 -4.11619849401641,50.5701455901853 -4.1162435256502,50.5703605757525 -4.11633446260577,50.5705631269647 -4.11639291825622,50.5706384943009 -4.1166260474864,50.5707970984518 -4.11670112061852,50.5708352983228 -4.1167442777805,50.5708524971954 -4.1169556116253,50.5708729330746 -4.11699549299042,50.5708794017496 -4.11702564601005,50.5708896441258 -4.11705636790242,50.5709151611999 -4.11711888762411,50.5709850603613 -4.11718788439664,50.5710747130094 -4.117229354354,50.5711503887546 -4.11725284016706,50.5712326866398 -4.11727141939414,50.5713951902625 -4.11728775425073,50.5714452473891 -4.11736756402441,50.5715552950557 -4.11738181723049,50.5715901040728 -4.11738597944606,50.5716206002839 -4.1173764247801,50.5716594390517 -4.11734849949545,50.5717274748088 -4.11728112250728,50.571863576887 -4.11728817065694,50.5719272908325 -4.11732488926843,50.5719904652971 -4.11738879015739,50.5721872129962 -4.11739240264298,50.5722366019974 -4.11736959695643,50.5725149528347 -4.11739202236086,50.5725424204497 -4.11742078080513,50.5725526871858 -4.11746154081404,50.5725501480523 -4.11754994891103,50.5725350524708 -4.11761606888782,50.5725293538116 -4.11767397820524,50.5725300995945 -4.1177933902081,50.5725468107691 -4.11783926157453,50.5725621619069 -4.11787963308867,50.5725821084451 -4.11791625420417,50.5726093168831 -4.11795540839469,50.5726644436591 -4.11797369160452,50.5727890979005 -4.11799787717775,50.5728246247307 -4.11808437054319,50.5728940873441 -4.1181284390109,50.5729653100596 -4.11815218153507,50.5729909537995 -4.11817846860675,50.5730084599082 -4.11823176137332,50.5730308687061 -4.11836080117138,50.573075278661 -4.11839127830868,50.5730927084997 -4.11843959532609,50.5731313931021 -4.1185335873163,50.5732745412262 -4.1186187470101,50.5733790949898 -4.11869883038993,50.5734639597158 -4.1188499244745,50.5735871858573 -4.11898241940877,50.5736773900985 -4.11933591634901,50.5741899642394 -4.11934363292133,50.5743930382642 -4.119335161222,50.5745182682513 -4.1193594023234,50.5747444206116 -4.11935961127657,50.5748425175748 -4.11937975061257,50.5749149848085 -4.1193965924493,50.5749425527625 -4.11941722119243,50.574961060114 -4.11945045637115,50.574980237459 -4.11953378579157,50.5750101921296 -4.11966748670203,50.5750311367404 -4.11980349531637,50.5750412495358 -4.1199019740084,50.5751258685275 -4.12002600734126,50.5752764708675 -4.12013230452796,50.575441873333 -4.12018981602217,50.5755918886101 -4.12023914411742,50.5756530337115 -4.12034445461406,50.5757627050051 -4.12053303931475,50.5759373085049 -4.12047134601013,50.5761039706905 -4.12048076465093,50.5761892214744 -4.12095152077206,50.5766384208824 -4.12098555631648,50.5767350023082 -4.12100844169137,50.5768685639104 -4.12111665996954,50.5768872735957 -4.12142622787701,50.576923896459 -4.1216852168149,50.5770919106483 -4.12174725912884,50.5770575100676 -4.12135918339072,50.5767821476889 -4.12123508212993,50.576599087289 -4.12083090933337,50.5759651533537 -4.1208779235991,50.5759436163462 -4.12069060881515,50.5753875576292 -4.1205319346546,50.5747482521691 -4.12035407501403,50.574246961051 -4.12000749190768,50.5737018933042 -4.11992538576715,50.5734137627448 -4.11970979030645,50.5729536196868 -4.11956283161347,50.5727305105481 -4.11944558119676,50.5722585967459 -4.11929592744083,50.5719753810042 -4.11927767028342,50.5719162775071 -4.1192805105066,50.5718523837052 -4.11936480215926,50.5714964827189 -4.11935686818366,50.5714157010731 -4.11943460388233,50.5708799930119 -4.11950015021815,50.5706098544853 -4.11954838554551,50.5704884868821 -4.11959504136114,50.5703968204745 -4.11963556015932,50.5703240586187 -4.11985243404093,50.5698686313957 -4.12008584258495,50.5694677531316 -4.12034400154927,50.5690528466557 -4.12042234104328,50.5690055622899 -4.12079855218553,50.5687018909481 -4.12132912209091,50.5683792219479 -4.12183599331414,50.5680605782597 -4.12270933326072,50.5676651168775 -4.12325297400581,50.5674447070101 -4.12427321286231,50.5671445662562 -4.12455700159164,50.5670494703106 -4.12485914799842,50.5669846114314 -4.12543251773086,50.5668896244364 -4.12609337448518,50.5667336014981 -4.12653708466731,50.5666140003612 -4.12674759144057,50.5665517094488 -4.12719139701684,50.5671246531374 -4.12820833911434,50.5684138418865 -4.12852704282372,50.5689359264962 -4.1290779935694,50.56994228923 -4.13009624266835,50.5718853230499 -4.13054644881946,50.5726910263372 -4.13095466693762,50.5735362512732 -4.13177378051959,50.5750683006406 -4.13207328497997,50.5756636507877 -4.13276046864794,50.5769624339375 -4.13313285373268,50.5778892325839 -4.13336365975053,50.5783707428425 -4.1341325426466,50.5780688262083 -4.13537727592028,50.5776070284566 -4.13684465588694,50.5770396142789 -4.13962556434687,50.5760045783031 -4.14064144538542,50.5755757022597 -4.1405938299276,50.5754578856291 -4.14092157775398,50.5753970100742 -4.14166569269807,50.5753599492893 -4.14205075374761,50.5753816401345 -4.14254757256847,50.5753716019586 -4.14272619717157,50.57535572684 -4.14289771777043,50.5753372847494 -4.14321901119524,50.5752908180715 -4.14321763569217,50.575229699435 -4.14333859157906,50.5752184815671 -4.1434008400257,50.575250605249 -4.14457364731325,50.5750446806436 -4.1449000138551,50.5750458635726 -4.14501383576425,50.5751570641901 -4.14535778732162,50.5750787927444 -4.14566177689622,50.574961693796 -4.14611736654945,50.5748542979989 -4.14628946971544,50.5748205541557 -4.14702030830926,50.5745839945869 -4.1470805636873,50.5745747913728 -4.14776911956066,50.5743714665508 -4.1489505849569,50.5741391713154 -4.14934932029664,50.5747991870231 -4.15022349922305,50.5746418772161 -4.1513518508066,50.5744222273246 -4.15355638821462,50.5740118238231 -4.15348367949123,50.5737810891206 -4.15348660473375,50.5736281731079 -4.15343904579364,50.5735454288214 -4.15332393428768,50.5734062956814 -4.15322963865735,50.5731975402976 -4.15335431563811,50.5732348885106 -4.15354437481979,50.5733167964408 -4.15418945505758,50.5731519137188 -4.15514423215888,50.5728733936166 -4.15585255477496,50.5726732512515 -4.15550811405039,50.5721812998054 -4.15655031948475,50.5718696780737 -4.15822151437669,50.5713530655264 -4.15824783503028,50.5704153575924 -4.15829123656425,50.5699126281463 -4.15827865529963,50.5692652679307 -4.15743161179234,50.5661491008923 -4.15733353584741,50.5654241967232 -4.15730444032924,50.5650343990087 -4.157219122872,50.5636301020624 -4.15717131912414,50.563139043391 -4.15701695898118,50.5627289963747 -4.15674541582308,50.5621926261412 -4.15691212360598,50.5621336988862 -4.15786818984609,50.5621664290472 -4.15816414509425,50.5621843231621 -4.1581794422823,50.5621165102929 -4.15856111791194,50.5621274196705 -4.15908783481766,50.5621276342575 -4.15950486895431,50.5621072219456 -4.1598452599548,50.5620784295025 -4.159865692303,50.5620312920006 -4.1598941234888,50.5620037893877 -4.15993018080715,50.5618349730738 -4.16000082383845,50.5616510377059 -4.16000713997606,50.5616338355975 -4.16006731876594,50.5614375056812 -4.16014789447711,50.5612543753294 -4.1602223433778,50.5609678622455 -4.16025581488097,50.5608647334022 -4.16043078060648,50.5604926412476 -4.16049186722513,50.5603773107555 -4.16064910974792,50.5601396155484 -4.16086265440864,50.5599315373041 -4.16116998379384,50.559735115167 -4.16153049360369,50.559561175061 -4.16173049439022,50.5594872352082 -4.16142309805508,50.5588804157114 -4.16126572527709,50.5585271695651 -4.16102329411698,50.558011851136 -4.16085127295102,50.5576156257631 -4.16075586059064,50.5573493491969 -4.16071076613384,50.5571982243928 -4.16048919893395,50.5563649246775 -4.16048081085815,50.5560286952087 -4.16051975181684,50.5555818869859 -4.16059797169006,50.5547619077654 -4.16059160633505,50.5546837959782 -4.160591565288,50.5546828981969 -4.16056283367576,50.554487318729 -4.16056799569258,50.5543532446737 -4.16057753813232,50.5542207973674 -4.16060443844796,50.5539460464245 -4.16075091010697,50.5536590961757 -4.16108856071568,50.553449522761 -4.1626305304568,50.5540109368788 -4.16402648226667,50.5545273872191 -4.16421031521584,50.5540094561115 -4.16443007168063,50.5531652608636 -4.16443041102181,50.552956642975 -4.16441816588101,50.5528138104977 -4.16459397393359,50.5519353641863 -4.16476174628555,50.5508205795885 -4.16436642998099,50.5500192954625 -4.16420987095929,50.5500852385492 -4.16416257467391,50.5500996048317 -4.16402698890351,50.5500363952121 -4.16399425161977,50.5500001375918 -4.16398977371923,50.5499633546835 -4.16402791336726,50.5499015010807 -4.16407381083171,50.5498565880711 -4.164208051559,50.549765882994 -4.16443135504865,50.5496502337052 -4.16452051944641,50.5495919275549 -4.16459406084074,50.5495330123779 -4.16473153546937,50.5493909929625 -4.16478612452952,50.5493198424274 -4.16483348887367,50.5492434304821 -4.16486949760294,50.549168129119 -4.16488675247086,50.5491128678839 -4.16490744366679,50.5489776060959 -4.16492339072698,50.5488658107146 -4.16490827378675,50.5485027332832 -4.16614436057322,50.5486146170226 -4.16599328450592,50.5483682646737 -4.16597764940181,50.5483343868106 -4.16590615820719,50.5481306143958 -4.16586486131044,50.5479380583315 -4.165834541714,50.5476471980732 -4.16583175876237,50.5474925005634 -4.16587286237469,50.5465734018868 -4.16488989480029,50.5450825016223 -4.1655301865417,50.5450382211523 -4.16551885676894,50.5447299226485 -4.16606130256472,50.5443689698272 -4.16646786767296,50.5437858373526 -4.16662390350553,50.5432468412574 -4.16642829462117,50.5431686564307 -4.16635589017953,50.5431276520782 -4.16630589080611,50.5430854221168 -4.1662550191034,50.5430216272253 -4.16622281541735,50.5429664774972 -4.16622269192195,50.5429637823773 -4.16612536655603,50.5429655935566 -4.166025003252,50.5429620663491 -4.16591664534995,50.5429694774851 -4.16580607408927,50.542989518251 -4.165600506301,50.5429987386704 -4.1654886243195,50.5429927269823 -4.16539268722883,50.5429918143026 -4.16531840879577,50.5429734138066 -4.16526082087928,50.5429484094201 -4.16521267431031,50.5429466076001 -4.16513409103942,50.5429561615727 -4.16506834243825,50.5429385016985 -4.16501489144585,50.5429098224913 -4.16493995642751,50.5428770474479 -4.16484730018705,50.5428562910473 -4.1644463518777,50.542886226923 -4.16430995036836,50.542959799043 -4.16430436844326,50.5429599028304 -4.16430002591846,50.5429590841343 -4.16428595546204,50.5429593457511 -4.16427332233369,50.5429604800803 -4.16415754272849,50.5429608338562 -4.16408133894486,50.5429613520866 -4.16404606454237,50.5429611084477 -4.1640178016638,50.5429589364698 -4.16400935422664,50.5429599920546 -4.16395025718481,50.5429655869996 -4.16387019659693,50.5429733695994 -4.1638210998886,50.5429787785745 -4.16377873312179,50.542978666696 -4.16376601770993,50.5429780036227 -4.16373759664619,50.5429749350789 -4.16370925154996,50.5429709665774 -4.16365507076055,50.5429593851563 -4.16357210352016,50.5429672215786 -4.16356935364321,50.5429681712297 -4.16342523064036,50.5429951285064 -4.16342096892654,50.5429961062527 -4.16327557429787,50.5430257843897 -4.16321516449923,50.5430332013317 -4.16313481739197,50.5430652663783 -4.1630156753081,50.543114237661 -4.16290199162244,50.5431604099781 -4.16277727120503,50.5432095746029 -4.1625692995917,50.5432934660542 -4.16256794587302,50.5432943897425 -4.16238924762918,50.5433669464477 -4.16228528179238,50.5434093416585 -4.16188220441698,50.5435760730019 -4.16174911989162,50.5436306967036 -4.16169029910111,50.5435787375389 -4.16168738485731,50.5435760942454 -4.16167421740253,50.5435655482216 -4.16165650207461,50.5435496927258 -4.16163590801139,50.5435320009682 -4.161583236995,50.5434898186641 -4.16155686113629,50.5434678288154 -4.16154944009844,50.5434607738195 -4.16145924464895,50.5434022034535 -4.1614838951561,50.5433864597816 -4.16137511494143,50.5433210407529 -4.16130149577936,50.5432864409945 -4.16115428428472,50.5432153511275 -4.1609969064929,50.5431382455 -4.16089436655149,50.5430870975911 -4.16083661649841,50.5430584972165 -4.16083522171618,50.5430585231086 -4.16071086222306,50.5429933926929 -4.16066603164396,50.5429699472431 -4.16064433500236,50.5429586608911 -4.16059503885119,50.5429317014555 -4.16044151726743,50.542877812657 -4.16029213870392,50.5428203398667 -4.16024771902286,50.5428058783088 -4.16024488840702,50.542805031404 -4.16019419645606,50.5427780977092 -4.16014669993482,50.5427573989539 -4.16008911348661,50.5427323911361 -4.16004473642009,50.5427188281494 -4.15998481206497,50.5427037547746 -4.15991357330793,50.5426906892921 -4.15977900452508,50.5426796991846 -4.15977769109875,50.542650949668 -4.15973646971761,50.5426147584435 -4.15947020911231,50.542716899648 -4.15910773160818,50.5428477100271 -4.15881961411841,50.5429682384379 -4.15867183443727,50.5430680912587 -4.15849420480609,50.5431666976286 -4.15829340386465,50.5432829080835 -4.15807565558969,50.5433975444536 -4.1578327683376,50.5435198401015 -4.15752453896283,50.5436614187069 -4.15732689030409,50.5437550003275 -4.15693749142589,50.543943940233 -4.15665842014895,50.5440767939741 -4.15637807260756,50.5442429407748 -4.15618439686537,50.5443599148287 -4.1560381748915,50.5444354567837 -4.15580368389727,50.5445557935918 -4.15554335123819,50.5446964805447 -4.15523945224504,50.5448720522006 -4.15491205406905,50.5450913082539 -4.15458284311903,50.5453321770105 -4.15428919190608,50.545548918646 -4.1540436546383,50.5457360853266 -4.15388310494898,50.5458370664985 -4.15368047448249,50.5459110406467 -4.15359626625057,50.5459224896176 -4.15346792337638,50.545956335107 -4.15342104701031,50.5458879656165 -4.1534130905877,50.5458691401337 -4.1533411882034,50.5458389989992 -4.15325985892446,50.5457577788373 -4.15314252670255,50.5455989971642 -4.15293406468918,50.5453303116374 -4.15279044330613,50.545120672552 -4.15274473224255,50.544955170265 -4.15271614618349,50.5448845743589 -4.15261828998095,50.5447802804294 -4.15250559047741,50.5446924471109 -4.15235889176469,50.5445404111368 -4.15211569107308,50.5443443914629 -4.15195623534351,50.5442213646593 -4.15179276645966,50.5441047960166 -4.15165287515128,50.5439769117964 -4.15152590859377,50.5438542723786 -4.15143027118639,50.5437679206917 -4.15127759025066,50.5436402724332 -4.15123484529848,50.5436932142635 -4.15100816246879,50.54395465843 -4.15088981549416,50.5440828190499 -4.1505614794475,50.5444045866367 -4.1503755311049,50.5445689745466 -4.15012414885054,50.5447814177558 -4.14990214103232,50.5449590584577 -4.1497246461914,50.5450919078898 -4.1495017352819,50.5452497832165 -4.14927965135978,50.5453951442986 -4.14899799598567,50.5455639942696 -4.14898003138523,50.5455733175407 -4.14854455123931,50.5458044413888 -4.14826134748653,50.5459418469148 -4.14784526952042,50.5461339460598 -4.14748733573177,50.5462430552613 -4.14730950921499,50.5463047816098 -4.14704918954755,50.5464157764461 -4.14684067808841,50.5465194301727 -4.14675157202205,50.5465768220197 -4.1464973545631,50.5467299637347 -4.14618888671735,50.5469623331138 -4.14558066045502,50.5473395982141 -4.14539009258442,50.5474618011417 -4.14518377739764,50.5476140569976 -4.14485714637634,50.5479132063622 -4.14434686104417,50.5482716661775 -4.1440044048283,50.5485018671691 -4.14388587557573,50.5485958558313 -4.14378210545571,50.5487047684555 -4.14368620382356,50.5488306207695 -4.14357495615409,50.5489928119293 -4.14316720778429,50.549590356146 -4.14295002251933,50.5499370289579 -4.1427974225511,50.5502141756672 -4.1426413471639,50.5505687147117 -4.14256113939229,50.5507302449297 -4.14249318569588,50.5508206037149 -4.14244242180751,50.5508844805739 -4.14237902193364,50.5509494893754 -4.14228867000455,50.5510104978073 -4.14223779394022,50.551041107332 -4.14210769602883,50.5510983506822 -4.14183196817788,50.5511835410777 -4.14149776606593,50.5512832035381 -4.14130068758074,50.5513290903817 -4.14116924312832,50.5513566849782 -4.14072852473725,50.5514124454323 -4.13976814324003,50.5514669677632 -4.13935554467261,50.5514574655869 -4.13859186440312,50.5513959653586 -4.13819655079619,50.5513645613954 -4.13781918494296,50.5513876768436 -4.13705053651084,50.5514350589423 -4.13665406916276,50.5515016815436 -4.13623249436205,50.5516695614243 -4.13588533031621,50.5518278915447 -4.13550924265529,50.552003027307 -4.13524528777946,50.5521301567555 -4.13504485269477,50.5522256388763 -4.1348221296514,50.5523250353227 -4.13454043846428,50.5524641782812 -4.13416638477535,50.5526536592497 -4.13393685095956,50.5527621708435 -4.13373218318711,50.5528568300219 -4.13350200086465,50.5530103117446 -4.13307256334994,50.5533500670862 -4.13270731768635,50.553608618502 -4.13235634333539,50.5538714035651 -4.13175694997801,50.5543869084633 -4.1314917282504,50.5546103550143 -4.13126636938014,50.5547782200901 -4.13110006372276,50.5549107460887 -4.13098163297318,50.5550387986821 -4.13090032496716,50.5551150082898 -4.13064398712203,50.5553471918367 -4.13030332015787,50.5556196717728 -4.12985345044518,50.5559436038213 -4.12967652021737,50.5560601367054 -4.12955389640299,50.5561263105788 -4.12944650284437,50.5562514621801 -4.12933722623416,50.5564252930365 -4.12935259470247,50.5567353180648 -4.12939101407906,50.5570557110743 -4.12938417393416,50.5573121007566 -4.12937156370017,50.5574068347909 -4.12931649440241,50.5575642982983 -4.12915142978638,50.5580062941604 -4.12907084276722,50.5582226710938 -4.12891222091537,50.5586501622604 -4.12881106712577,50.5588804020147 -4.12876202309327,50.5590450398348 -4.12876263026685,50.5590585167252 -4.12876291360928,50.5590648058208 -4.12832819439984,50.5590385846826 -4.12721412304746,50.5589438492365 -4.12655048172916,50.5588803514904 -4.12660002202233,50.5591636781754 -4.12651708412477,50.5593307320252 -4.12636690187751,50.5594755457813 -4.1262415549383,50.5595461725115 -4.12615965833948,50.5595449706863 -4.12617215659054,50.559633851614 -4.12618796844408,50.5597342711859 -4.126230048716,50.5598234204789 -4.12631464915318,50.5598821207541 -4.12629823568222,50.5598950989934 -4.12595239616816,50.5597718422387 -4.12593369392485,50.5597649900271 -4.12563698709317,50.5599782082037 -4.12534000753628,50.5598126960387 -4.12437027329308,50.5592853102967 -4.12418420783702,50.5591655172377</coordinates></LinearRing></outerBoundaryIs></Polygon>
  </Placemark>
