  <Placemark>
	<Style><LineStyle><color>ff0000ff</color></LineStyle><PolyStyle><fill>0</fill></PolyStyle></Style>
	<ExtendedData><SchemaData schemaUrl="#Wards__December_2019__Boundaries_EW_BFE">
		<SimpleData name="objectid">3683</SimpleData>
		<SimpleData name="wd19cd">E05009196</SimpleData>
		<SimpleData name="wd19nm">Lanner and Stithians</SimpleData>
		<SimpleData name="wd19nmw"></SimpleData>
		<SimpleData name="bng_e">173164</SimpleData>
		<SimpleData name="bng_n">37128</SimpleData>
		<SimpleData name="long">-5.17931</SimpleData>
		<SimpleData name="lat">50.190609</SimpleData>
		<SimpleData name="st_areashape">23396188.0296876</SimpleData>
		<SimpleData name="st_lengthshape">31735.2550425779</SimpleData>
	</SchemaData></ExtendedData>
      <Polygon><outerBoundaryIs><LinearRing><coordinates>-5.22819670796886,50.2053694387761 -5.22806697720505,50.2053154864187 -5.22802755648563,50.2052725146711 -5.22799679267971,50.2052310996645 -5.2279691351443,50.2051535344366 -5.22788274191551,50.2050156365101 -5.22758925230388,50.2049257651296 -5.22752890190701,50.2049031594113 -5.22743912050491,50.2048605978126 -5.22722260995511,50.204726315357 -5.22701883223573,50.2046762192275 -5.22698579066958,50.2046438616368 -5.22688260437209,50.2044865535765 -5.22682819222048,50.2044269089514 -5.22679256535343,50.2043973211094 -5.22665393034807,50.2043175338554 -5.22661710165438,50.2042906764119 -5.22658159013381,50.2042627945728 -5.22647614524956,50.2041542038145 -5.22656489865733,50.2040770907645 -5.22658582405362,50.2040549247327 -5.22667464408546,50.2039805076959 -5.22676596824328,50.2038798493321 -5.22688889476837,50.203810779763 -5.22751703469779,50.2036674098552 -5.22770011907054,50.2036181616711 -5.22789618910054,50.2035335669562 -5.22819130711426,50.2033994513978 -5.22845512449303,50.2032382354324 -5.22819139046786,50.2029846642841 -5.22782937811793,50.2026259013261 -5.22734724491082,50.2020248618658 -5.2270168922039,50.2015527965695 -5.22678851160853,50.2012217937614 -5.22669916363081,50.2010605033533 -5.22665434965673,50.2009169526644 -5.2266404211436,50.2008543845226 -5.22663345039152,50.2007510619626 -5.22662088519232,50.2006281986506 -5.22663852946171,50.2005368730487 -5.22672633707011,50.200259138262 -5.22685824376249,50.199742657273 -5.22686912987381,50.1996128476432 -5.22686318865429,50.1995247855232 -5.22687378526402,50.1991628584352 -5.22683921184255,50.198939878545 -5.22678597689311,50.198815357709 -5.22674466687117,50.198703186433 -5.22660403279286,50.1984461905903 -5.22643725102907,50.1982178012417 -5.22636998085276,50.1980308049889 -5.22630127670518,50.1978842305597 -5.22609391659205,50.1974276315814 -5.22600672502535,50.1972159166026 -5.22585692803243,50.1968863261173 -5.22566199011217,50.1964887388398 -5.22549320052706,50.1963143656382 -5.22535017683077,50.1961879322168 -5.22533175786278,50.1961632618084 -5.2250393343858,50.1959014871662 -5.22487471849255,50.1957872534993 -5.22481275415,50.1957610945678 -5.22450709796173,50.1954897930359 -5.22437227664792,50.1954027020735 -5.22431476034951,50.1953602307313 -5.22423870649906,50.1952912937361 -5.22415722137161,50.1951846444202 -5.22404165199917,50.1951123074447 -5.22394882892058,50.1950654195425 -5.22394876846451,50.1950645225035 -5.22387525329599,50.1950144004436 -5.22385339525593,50.1949592472984 -5.22380838787378,50.1947697430457 -5.22378744374967,50.1947298535086 -5.22375272559268,50.1946930443773 -5.22371091255996,50.1946555326154 -5.22354949574057,50.1945475046641 -5.22346063015247,50.1944753244014 -5.22328954949481,50.1942461511231 -5.22324988012257,50.1941564171617 -5.22311408939669,50.1940342764638 -5.22298221958562,50.1939685965091 -5.22284004855388,50.1938340415603 -5.22267584103934,50.1936433484396 -5.22261236758846,50.1935758595133 -5.22248794982436,50.1934749869279 -5.22235554442642,50.1934030256038 -5.22219757997112,50.1933255679135 -5.22207498377315,50.1932534239951 -5.2219565878174,50.1931595788632 -5.22188373087976,50.1930985555009 -5.221822066715,50.193056198027 -5.22169093900669,50.1930031770215 -5.22154971351498,50.1929855112445 -5.22139124865377,50.1928388155853 -5.2213319255462,50.1927900074106 -5.22120711339638,50.1927467037233 -5.22093001183643,50.1926689529881 -5.22059303193701,50.1924929429725 -5.2202063526403,50.1924110340292 -5.21979963974148,50.1923026989523 -5.21916842540051,50.1920431096938 -5.21877397520565,50.1919280456993 -5.21830872624873,50.1917206001469 -5.21815439671015,50.1916969979885 -5.21761902868546,50.1915291762493 -5.21745092771405,50.1915086525621 -5.21724921759527,50.1915106453114 -5.21706320157888,50.191515799529 -5.21696384309676,50.1914969670875 -5.2168690503616,50.1914618203699 -5.2167000312225,50.1913657748695 -5.21657119951742,50.1913467708524 -5.21616205070815,50.1913050428962 -5.21594000574611,50.1912950047141 -5.21580161985275,50.1912799511011 -5.21566923617416,50.191208071468 -5.21553819065537,50.1912179962979 -5.2154005848429,50.1912128136809 -5.21531301039554,50.1911612772057 -5.21513345923715,50.1910339535628 -5.21497635826862,50.1909690531003 -5.21483424454584,50.1909603970714 -5.21472292944221,50.1909922587786 -5.21459814662904,50.191033486713 -5.21425206120147,50.1911375907143 -5.21411247999602,50.191166636766 -5.21387534280761,50.191141723443 -5.21374529262694,50.191040907455 -5.21358465889708,50.1910489510975 -5.21353881249494,50.1909494918102 -5.21342537364131,50.1908671922069 -5.21323952547746,50.1908128881266 -5.21310468364309,50.1907662556569 -5.21281696333013,50.1907175579299 -5.21236442507723,50.1908433984788 -5.21223037490264,50.1908309185996 -5.21210177858247,50.190731050134 -5.2119900301484,50.1906738844168 -5.21172299999367,50.1906201153259 -5.21108248550802,50.1904929445006 -5.21081431585796,50.1904634863666 -5.21068031924645,50.1904294187353 -5.21011178848071,50.1902058202264 -5.20993701792429,50.1901288104602 -5.20967556276434,50.1899272969687 -5.20873729478141,50.1894980655643 -5.20859993235966,50.1894550950968 -5.20831956700124,50.1894538491288 -5.20815069398754,50.1894423267772 -5.20801597401191,50.1893767085484 -5.20785323127715,50.1892480996249 -5.20769595711096,50.1890769800864 -5.2076251650993,50.188980905605 -5.20749272566108,50.1887200629217 -5.20743407510215,50.1884724715765 -5.20729905187123,50.1881920038528 -5.20725712419126,50.1880060059617 -5.20725411470192,50.1878990653943 -5.20726108259634,50.1878358278386 -5.20727238239841,50.1877734601972 -5.20729433156691,50.1877251877365 -5.20735320221826,50.1876417198449 -5.20751002679861,50.1874942991853 -5.20762241533304,50.1873526930697 -5.2076544480682,50.1870980993209 -5.20764294122216,50.1868006398286 -5.20739813184258,50.1867660322078 -5.20716330018833,50.1867734187166 -5.20703948406429,50.1867876305635 -5.20681463915261,50.1868406074346 -5.20679656936297,50.1862572431542 -5.2066809689938,50.1857027441515 -5.20664253576913,50.1855894967985 -5.20662491356254,50.1855558079757 -5.20645652831992,50.1853013527009 -5.20636434170404,50.1852013719986 -5.20610467554979,50.1849638272317 -5.20541433520444,50.1842587239852 -5.20509352604645,50.1839032502801 -5.20474867261317,50.1835457432146 -5.20446136347237,50.1833143548809 -5.20420850993402,50.18315756073 -5.20395115619149,50.1830180682889 -5.20387496654852,50.1829877936954 -5.20372590842157,50.1829388449674 -5.20360046929725,50.1829062416159 -5.20350985148614,50.1828916546786 -5.20341827675371,50.1828851878767 -5.20328941744332,50.1828860451422 -5.20299525660515,50.1829076501128 -5.20288323185073,50.1829080425158 -5.20282646779426,50.182897017417 -5.20267602649009,50.1828481054937 -5.20253243544723,50.1827738225016 -5.2024434486527,50.1827007311884 -5.2027233721474,50.1822143735095 -5.20292813631398,50.1817787439961 -5.20297617870041,50.1816163441248 -5.20302663688192,50.1814917413398 -5.20307071729721,50.181228723005 -5.20306863210848,50.1808212834282 -5.20309785814829,50.1806297234888 -5.20306173340174,50.1804679371351 -5.2030197025024,50.180362883086 -5.20285484152673,50.1800966352416 -5.20279015696261,50.1799050588221 -5.2026244021841,50.1795839742638 -5.20230852312484,50.1790717810402 -5.20203750217649,50.1786861477881 -5.20157475744651,50.1780709795125 -5.20140691147519,50.1777823278475 -5.20134066858478,50.1775448359565 -5.20123003890738,50.1768336185381 -5.2010552815023,50.1758974424114 -5.20101382119417,50.175612500705 -5.20099586359213,50.1753646858044 -5.20107484795976,50.1748065318072 -5.20113399799515,50.1742454170407 -5.20122680162337,50.1737696212407 -5.20122602491067,50.1737372667773 -5.20092315640175,50.1735846336193 -5.20060976672664,50.1734438920679 -5.20048515633821,50.1733196192252 -5.20025601258999,50.1730344572656 -5.19945243228605,50.1723711214897 -5.19837140850925,50.1714527241752 -5.1978806142737,50.1710676525547 -5.19783168621208,50.1710267304353 -5.19779520323629,50.1709836672147 -5.19760677010468,50.170806199348 -5.19754305952385,50.1707324087286 -5.19746913014339,50.1706526040591 -5.1974083106416,50.1705598474299 -5.19736888496714,50.1704727070843 -5.19731341835661,50.1703771050732 -5.19724121752205,50.1700291576616 -5.1971789406796,50.1696845335321 -5.19705713121513,50.1687406041103 -5.19701803637496,50.1685338411615 -5.19696130044638,50.1684814432766 -5.19692493454516,50.1684608594813 -5.19680303990014,50.1683976647643 -5.1966617190782,50.1683358126206 -5.19648055283952,50.1682652560969 -5.19617532254388,50.1681837236615 -5.19605258475182,50.1681286451116 -5.19543252596035,50.1678407430674 -5.19489596241205,50.1675874131734 -5.19466323292391,50.1674778012038 -5.19423124661815,50.1673223177302 -5.19344894339851,50.1671207096472 -5.19329103760629,50.1671061664516 -5.19307607920447,50.1671174750809 -5.1928004602394,50.1671421417883 -5.19233085652756,50.1672207966742 -5.19156041581821,50.1673858730529 -5.19115420844713,50.1674905713537 -5.1909938739904,50.167543542382 -5.19087965221974,50.1675953367537 -5.19065646988236,50.1677345731967 -5.190197830268,50.1680611385493 -5.1899881280658,50.1681514398897 -5.18968846107113,50.1683630152948 -5.18943208168175,50.168551816566 -5.18940093509347,50.1685453871605 -5.1893533956455,50.1685269080306 -5.18931108219298,50.1685001897738 -5.18901362955688,50.1681988948789 -5.18886567579406,50.1680806472668 -5.18863900848905,50.1678520529176 -5.18846151606189,50.1676266039193 -5.18823325296156,50.167353174833 -5.18813290019976,50.1672560130269 -5.18746756641187,50.1666652434478 -5.18697988817594,50.166829810741 -5.18644597977267,50.1671413388791 -5.18600746015944,50.1674547441439 -5.18598323674244,50.1674482137998 -5.18582064478277,50.1674256952057 -5.18571423799559,50.1674475011948 -5.18519551527171,50.1676299106125 -5.18467607332953,50.1677998374129 -5.18432882764125,50.1678867052132 -5.18396147105248,50.1679003773415 -5.18342590658989,50.1679564330768 -5.18318190058898,50.167972116432 -5.18300161095317,50.167999543018 -5.18267151080216,50.1680490627318 -5.18240902123259,50.1679969008531 -5.18201931245381,50.1678879685301 -5.1815764258592,50.1677138501813 -5.18118931529601,50.1675796620861 -5.18121264568461,50.167677052039 -5.18094666299647,50.1676591576906 -5.18063793112936,50.1675227304241 -5.18026475682776,50.1673027191563 -5.18006178106473,50.167261512676 -5.1799900307948,50.1672157233598 -5.18015733376988,50.1670762386583 -5.18007453896053,50.1670119556868 -5.17969879925113,50.1667514538047 -5.1794971340047,50.1665212584767 -5.17902613031237,50.1661563412237 -5.17893137354228,50.1659726813545 -5.17887534108575,50.1658887776736 -5.17885349320473,50.1657283940282 -5.17885232089959,50.1656689795827 -5.17885421457568,50.1656122690573 -5.1788747757675,50.1654992874529 -5.1789048708348,50.1652150810042 -5.17893260669512,50.1651684545395 -5.17896172655585,50.1651217910731 -5.17912820181637,50.1649507643434 -5.17932286214304,50.1646755411046 -5.18003559249297,50.163851828722 -5.17980306536888,50.1636818358255 -5.18043416791774,50.1633784683486 -5.18058807971498,50.1633139959152 -5.1806952179588,50.163261597181 -5.18068543437916,50.1631142828526 -5.18064180904241,50.1627529519856 -5.18060815791876,50.1626252676907 -5.18049601191856,50.1626022585878 -5.18030917190948,50.1625516175679 -5.17982238812648,50.1624128711275 -5.17902776888026,50.1621296637625 -5.17899015355826,50.1621109087694 -5.17895380011205,50.1620903191109 -5.17868992907275,50.1618915043968 -5.17846032023549,50.1617026327072 -5.17811653033403,50.1614826212267 -5.177774218618,50.1611978158741 -5.17770521468312,50.1611079712631 -5.17745549062724,50.1608907790647 -5.17743735003038,50.1608696913934 -5.1774262436962,50.1608502095125 -5.17744153535365,50.1608057231409 -5.17734811270271,50.16074982286 -5.17713866926132,50.1606106700704 -5.17707409797704,50.1605440871331 -5.1770581316062,50.1605157448951 -5.17693629232699,50.1601358684736 -5.17682130056399,50.1598574307347 -5.17675278383309,50.1597539918568 -5.17617845680415,50.1589700080171 -5.17600024070764,50.1587949253188 -5.17544255351552,50.1581570766293 -5.1753502583811,50.1580309939711 -5.17537112946173,50.1580079403131 -5.17533414128113,50.1579567894736 -5.17516753240205,50.1577894818103 -5.17481838301143,50.1574652834232 -5.17436588920332,50.1570171028218 -5.17428315504729,50.156888869668 -5.17411122979972,50.1566830338435 -5.17378974342075,50.1562690417501 -5.17371794475147,50.1561576871461 -5.17359885302549,50.1560295486992 -5.17354111476113,50.1559178096429 -5.17350946799581,50.1558844988578 -5.17337803385433,50.1558035532832 -5.17333028109537,50.1557589024079 -5.17325710057504,50.1556475852997 -5.17310459753994,50.1554385192741 -5.17304237276562,50.1553862591719 -5.17293009985084,50.155319178531 -5.1729006063347,50.1552957025485 -5.17285544816458,50.1552483726322 -5.17275278942025,50.1550946017172 -5.17263425727219,50.1550375856625 -5.17251611632031,50.1549463829607 -5.17234271985731,50.1548854691297 -5.17223681960877,50.1548082308314 -5.17217152110727,50.1547740408803 -5.17196622648768,50.1547823488244 -5.1719320975127,50.1547742870656 -5.17186477852623,50.1547095756143 -5.17177457955986,50.154700347762 -5.17175168881468,50.1546928794237 -5.17173000202955,50.154682679387 -5.17162543206556,50.1546045954581 -5.17146465655403,50.1545459434884 -5.17143557893861,50.1547833552883 -5.17138874278994,50.1549007398648 -5.17135204048558,50.15496019939 -5.17126198285066,50.1550786745854 -5.17102012915876,50.155359670533 -5.17098486922664,50.1554199901355 -5.17095757333146,50.1555151667335 -5.17088017116903,50.1556783533417 -5.1708478072487,50.1557179092859 -5.17072777012712,50.1558300078094 -5.1706952930588,50.1558678575573 -5.17066426671356,50.1559712305574 -5.1704983592444,50.1563409838458 -5.17040125477377,50.1564821344564 -5.17037982144498,50.1565385696363 -5.17037222293452,50.1565720524489 -5.17034674734334,50.1568849103264 -5.1703305850879,50.1569581977026 -5.17025771388763,50.1569997591855 -5.17012029413128,50.1572086518677 -5.17007349605894,50.1572638895025 -5.17000580104468,50.1574465062314 -5.16981047225915,50.1578603207543 -5.16973951928805,50.1580565157489 -5.16973445472331,50.1580864226851 -5.16974519707609,50.1581859562204 -5.16986499927515,50.1584714641779 -5.16994469547281,50.1587022180773 -5.16999149305771,50.1588179450209 -5.17022329017388,50.1593162368644 -5.17051526917805,50.1600450960632 -5.17063071330097,50.1603082387058 -5.17054132434854,50.1603340622012 -5.17038362898868,50.1604687736392 -5.1698707065245,50.1608641903958 -5.16969648440796,50.1610039382396 -5.16944863053186,50.1612157540414 -5.16934920299368,50.1613219825214 -5.16924516124207,50.1614003673956 -5.16911413460802,50.1614722946426 -5.16897011537078,50.1615607637676 -5.16889947391205,50.1615942588263 -5.16876858141905,50.161647294908 -5.1685087775185,50.1617641050569 -5.16825301647661,50.1618565222872 -5.1681587315001,50.1619131457717 -5.16807471321297,50.1619765931759 -5.16788873408302,50.1620644075565 -5.16769529295089,50.1621686126268 -5.16749765557943,50.1623350772395 -5.16737207201479,50.162363684972 -5.16730961321082,50.1623707847038 -5.16724061767306,50.1623663715248 -5.16698756141496,50.1623094219313 -5.16662644044299,50.162163595308 -5.16624138341466,50.1619735437807 -5.16586511996341,50.161832624823 -5.16566541148255,50.1617337464169 -5.16560087918936,50.1617112239596 -5.16554841729431,50.1617018627641 -5.16545285528001,50.1616972732599 -5.16534692564411,50.1617262425408 -5.16508253035555,50.1618575594388 -5.16477219714879,50.1620765552226 -5.16438624356667,50.1622345672965 -5.16434579355252,50.1623004229776 -5.16428463735962,50.1624775513545 -5.16429823259274,50.1625976921328 -5.1643098554512,50.1626460302189 -5.16432417956006,50.1626933051213 -5.1643862101394,50.1628265157766 -5.16404043963292,50.1628710138815 -5.16354964208751,50.1629050727714 -5.16276891526127,50.1626402626441 -5.1626264284001,50.1628151094897 -5.16241531851156,50.1625662560784 -5.1620592824859,50.1621999376414 -5.16186558868703,50.1622357910964 -5.16124967859184,50.162366778861 -5.16082405215247,50.1625169559717 -5.16051225156388,50.1626090836393 -5.16071808045401,50.1630964999179 -5.16039754554616,50.1632698047765 -5.16042002937713,50.1633987882248 -5.16041921780423,50.1634284890217 -5.16028043329877,50.1634268701197 -5.16011414870171,50.1634529812723 -5.16006640429234,50.1635361201122 -5.15999171276563,50.1636343832707 -5.15953369442453,50.16363335809 -5.15892582672301,50.163697564059 -5.15873496843643,50.1637117501395 -5.15854047863369,50.1636936589937 -5.15771274661059,50.1635650848512 -5.15754144796798,50.1635589511777 -5.1572772072175,50.1635652376678 -5.15693310681489,50.1635494130491 -5.15681103451475,50.1635473364665 -5.1567451238004,50.163694822412 -5.15719138483123,50.1637924976245 -5.15721044332649,50.1638486379739 -5.15701703479045,50.1638889717842 -5.15663391182879,50.1639398592918 -5.15645138609875,50.1639753991698 -5.15608872496983,50.1640617026904 -5.15590973396137,50.1641088368328 -5.15579476717076,50.164148025911 -5.15559086648923,50.1642219178452 -5.1553838756074,50.1643102834104 -5.15505389664521,50.1644668331469 -5.15450225526701,50.1647678136519 -5.15341368800253,50.1654217085485 -5.15198484055166,50.1663097579614 -5.1519848996576,50.1663106559569 -5.15181825184508,50.166438479273 -5.15150452693559,50.1666511463227 -5.1515632696852,50.1666927208786 -5.15192699203428,50.1669203630917 -5.15197549919655,50.166976604414 -5.15199693309815,50.1671110137932 -5.15204282603614,50.1671907084614 -5.15213189916838,50.1672035788743 -5.1522654944621,50.1672332279069 -5.15246533927134,50.1673114406557 -5.15272687808424,50.1674339351768 -5.15275168832187,50.1674494498599 -5.15321151871935,50.1678597454592 -5.15330939480471,50.167964199665 -5.15349893882985,50.1679490685279 -5.1536252553028,50.1679312482725 -5.15386152696217,50.1679680886608 -5.15415247335899,50.1680267367064 -5.15423257359003,50.168050641038 -5.15448362020938,50.1682048038995 -5.15507665212788,50.1685962749298 -5.15516501228215,50.1686631235441 -5.15525348727011,50.1687299680702 -5.15546706067766,50.1689742729632 -5.15587757230862,50.1692734799924 -5.1560869479474,50.1693892011067 -5.15631573118818,50.1695242692208 -5.15681612151953,50.1698273248695 -5.1568805212617,50.1698687422858 -5.15706763799152,50.1700093490266 -5.15744251259664,50.1702564580933 -5.15754986249771,50.1703344797161 -5.15765312677103,50.170413601925 -5.15784620977378,50.170600811146 -5.15812292384486,50.1708460907274 -5.15819444039142,50.1709971251082 -5.15842171463348,50.1716395519931 -5.15849874931249,50.1720422527966 -5.15849880855364,50.1720431507907 -5.15856832518176,50.1722058406444 -5.15874773121838,50.1724411750888 -5.15882003960553,50.1725183505794 -5.15891627537976,50.172595864565 -5.15897653319802,50.1726391918147 -5.15908865135722,50.1727035926699 -5.15891245561396,50.1729423067775 -5.15874812775445,50.1732103775076 -5.1586185330594,50.1734972871784 -5.15842345742211,50.1738525308862 -5.15828494430194,50.1742161285528 -5.15818746793142,50.1744157370865 -5.15813479485742,50.1744874092912 -5.15807852317467,50.1745482968307 -5.15791253092686,50.1746652301972 -5.1578380618655,50.174704128743 -5.1577858397855,50.1747406238427 -5.15773289063002,50.1747871216152 -5.15767288248624,50.1748544060184 -5.15761640974976,50.1749332855084 -5.15757864469963,50.1749963673869 -5.1575297042263,50.1751263950523 -5.15751346893082,50.1753040084736 -5.15751259951155,50.1753976540478 -5.15758107235488,50.1755217005826 -5.15759584572181,50.1755968441141 -5.15759254426354,50.1756535931632 -5.15756391408032,50.1757291078473 -5.15743021637754,50.1759539850957 -5.15743058815837,50.1760646855255 -5.15747185561909,50.1762245475804 -5.15753051250166,50.176369636483 -5.15759484418573,50.1764326399126 -5.157888048231,50.1766297179095 -5.15801743073513,50.1767018343161 -5.15791863652254,50.1767117166307 -5.15771913198373,50.1767234384285 -5.15761547907865,50.1767244583284 -5.15733361974885,50.1767186341291 -5.1570868384115,50.1766947663896 -5.15664649655948,50.1766869545053 -5.15640881978102,50.1766943151394 -5.15620824795116,50.1766898748665 -5.15577051166711,50.176658515295 -5.15541126725385,50.1766071239855 -5.15502332980719,50.1765655038005 -5.15486952797711,50.1765696832457 -5.15482815270012,50.1765798009533 -5.15478689577075,50.1765917146503 -5.15427074223456,50.1769215010605 -5.15408165623834,50.1770282651977 -5.15370599912882,50.1773659243585 -5.15366557520479,50.1773904959246 -5.15360204464767,50.1774254972626 -5.15354321850858,50.1774459815243 -5.15346828978665,50.177457010116 -5.15330515825836,50.1774686359588 -5.15326508294234,50.1774985038142 -5.15322668622301,50.1775328223159 -5.15317741453461,50.177614203272 -5.15298034387632,50.1779820836606 -5.15291878132664,50.1780890701191 -5.15285397567706,50.1781906578926 -5.15277300715552,50.178280093599 -5.15245483112684,50.1784893786719 -5.15240831314567,50.178528414554 -5.15233384370586,50.1786095796924 -5.15230595636718,50.178654405149 -5.15228149270057,50.1787091206102 -5.15196687055842,50.179993303402 -5.15198930038688,50.1801006170173 -5.1519815571914,50.1801952592349 -5.15176781697081,50.1806734007344 -5.15161789692835,50.180906895102 -5.15157190625604,50.1810592346986 -5.15131934854402,50.181393544203 -5.15121134962305,50.1815620458935 -5.15117938069753,50.1816519496988 -5.15103083661914,50.1819906305217 -5.15100677641874,50.1820515394 -5.15100084132629,50.1820894732825 -5.151000262068,50.1821227655478 -5.15101327817846,50.1821502920452 -5.15124727561633,50.1824480116849 -5.15146266551582,50.1826122329287 -5.15150803096821,50.1826415792514 -5.15163688286685,50.1827055334153 -5.15171510622656,50.1827654650445 -5.15176138949388,50.1827876821405 -5.15178956653545,50.1828120990967 -5.15180661374224,50.1828359185744 -5.15181056387364,50.1828537981268 -5.15178176106105,50.1830110670282 -5.1516751058619,50.1834350387018 -5.15153964201298,50.183419829449 -5.15106676885122,50.1833030683808 -5.15090095601447,50.1832742923296 -5.15082880857927,50.1832627608761 -5.15040173492644,50.1832239876284 -5.15023645609555,50.1832032908938 -5.15014399392642,50.1832885396609 -5.15026175413202,50.1833752798753 -5.15043879017457,50.1835324484635 -5.1504926441088,50.1836047342264 -5.15050109928177,50.1836278874059 -5.15048803217639,50.1837487554516 -5.15037866846483,50.1841089462051 -5.15029048575593,50.1842381485844 -5.1502436029044,50.1844823368485 -5.15028685522534,50.1845234323178 -5.15041074440231,50.1848295387451 -5.15054095125894,50.1850842091621 -5.15064119347009,50.1852451713004 -5.15070869940369,50.1853756343561 -5.15088738135625,50.1856208058355 -5.15073266915044,50.1857186275646 -5.15055147640939,50.185882730585 -5.15049044063333,50.1859347509122 -5.15027196812434,50.1860414974759 -5.15008254356786,50.1861437679059 -5.15010243161097,50.1862124785868 -5.15012010905147,50.1862686582772 -5.15013763550744,50.1862997500791 -5.15019717033278,50.1863529956007 -5.15033264023326,50.1863682058567 -5.15062224718415,50.1864241999265 -5.15067076337411,50.1864381721065 -5.15078280908319,50.186480099122 -5.15101516006305,50.1866033898308 -5.15098686646021,50.1866859991115 -5.15095546008545,50.1868037678476 -5.15093504905814,50.1868762701268 -5.15093942974177,50.1869427935831 -5.15093823804532,50.1869895922594 -5.15093973734537,50.1870965748067 -5.15105749148247,50.1873111117392 -5.15109328341924,50.1874072705251 -5.15107464280318,50.1875715490015 -5.15109008435333,50.187741107981 -5.15108465760962,50.1878078076572 -5.15105666137459,50.187893196686 -5.15082987292207,50.188173745606 -5.15059001777725,50.1884032953168 -5.14999441304599,50.1888288446962 -5.1497608213277,50.1891536436846 -5.14967134883424,50.1893476337242 -5.14959815449112,50.1895133921388 -5.14951039319211,50.1897334171717 -5.14943031531039,50.1899227449423 -5.14944268198845,50.1901527343506 -5.14934592511436,50.1903010550478 -5.14925334369827,50.1905338915705 -5.14919766792568,50.1907306509886 -5.14916785481546,50.1907674343259 -5.14913942636768,50.1908041791937 -5.14916025745762,50.1910995917597 -5.14917157223051,50.1911433531966 -5.14923282050192,50.1913278582022 -5.14928114865217,50.1916162292911 -5.14933539992549,50.1919296215862 -5.14947212725739,50.1922813371395 -5.14952707769031,50.1924561202945 -5.14956364160965,50.1925657484319 -5.14961444559839,50.1927407340042 -5.14968283699616,50.1929494178118 -5.14974054238708,50.1930800576191 -5.14975556244106,50.1930958386407 -5.14977617320698,50.193110568354 -5.14981333094258,50.193122151149 -5.14983900539367,50.1931295492427 -5.15014386384981,50.1931410621868 -5.15030635106876,50.1931609360888 -5.15020412030787,50.1933103951223 -5.15005972951828,50.1936723471357 -5.15004647488725,50.1939605905097 -5.15005113207965,50.1940944688489 -5.14972768059545,50.1942481317297 -5.14977377723369,50.1943305208244 -5.14982716917159,50.1943956246889 -5.14992523763385,50.194588214165 -5.14987451231649,50.1946039798581 -5.14988643381245,50.1947007868068 -5.14990430833012,50.1948020193576 -5.14991721979047,50.1948700198903 -5.14987234027848,50.1949341926191 -5.14976719184743,50.1949973026501 -5.1496246381117,50.1951082838319 -5.14965562391087,50.1951542095717 -5.14986180074823,50.1953689579297 -5.1499036469876,50.195493822419 -5.14993151160213,50.1955344368921 -5.14999765520371,50.1954948691547 -5.15008367959187,50.1954817422327 -5.15007404389072,50.1955494558502 -5.15008276985781,50.1955959854991 -5.1501673067227,50.1956251690398 -5.15020109375261,50.1956908038331 -5.15025467115651,50.1957586903784 -5.15036867007215,50.1958527271964 -5.15047333978042,50.1961647515417 -5.15048411463926,50.1962651870981 -5.15047690937319,50.196303155626 -5.15046449935575,50.1963287643668 -5.15039022706547,50.1963712508961 -5.15031733956887,50.1964136997973 -5.15026255739569,50.1964538590089 -5.15012727133679,50.1965699494654 -5.1498985332266,50.196884725444 -5.14987751721285,50.1969059813943 -5.14972586609971,50.1970298004625 -5.14962929675563,50.197158329552 -5.14961434814936,50.1971875146615 -5.14960870654245,50.1972299378695 -5.14965948251212,50.1973833396968 -5.14968283852127,50.1975257032055 -5.14966454163521,50.1975882549711 -5.14964602428632,50.1976895752655 -5.14961783911275,50.1977721814015 -5.14959339211767,50.1978483906144 -5.14955319021484,50.1979187317592 -5.14948472801894,50.1979863319874 -5.14940418333855,50.1980388810641 -5.14929625907535,50.1981020658866 -5.14909739481808,50.1982108863468 -5.14893852629808,50.1983322021527 -5.14877321114804,50.1985030669676 -5.14854896006232,50.1988213159069 -5.14846304939595,50.1989433502293 -5.14841680153703,50.19898507539 -5.1483420874135,50.199043761066 -5.14823167736475,50.1990692384115 -5.14805643090677,50.1990892805315 -5.14779053694279,50.1991594454056 -5.14750153591454,50.199240218255 -5.1472159692989,50.1993082172229 -5.14707066222278,50.1994443616957 -5.14700298072941,50.199501057515 -5.14696351340393,50.1995615747081 -5.1469503019191,50.199596108235 -5.14694638790419,50.199749104457 -5.14690954780777,50.1998706170366 -5.14688561593477,50.2000179503415 -5.14682909491657,50.2002021416308 -5.14674224179233,50.2003942601961 -5.14667965805299,50.200467005262 -5.14658997443067,50.2006161206905 -5.14649408300901,50.2008201755763 -5.14647890854921,50.2008881289416 -5.14628966864967,50.2013349311377 -5.14623125393912,50.2014903940307 -5.14603706661521,50.2017988298373 -5.14594384327205,50.2019785295315 -5.14592783632768,50.2020338235144 -5.1458808041761,50.2022780142868 -5.14587895359937,50.2023131394578 -5.14589614823008,50.2024251827651 -5.14596926802805,50.2026003739066 -5.14596431332422,50.2027165259031 -5.14598914215758,50.2028796249847 -5.14607864824742,50.2030913362222 -5.14625203204122,50.203381716084 -5.14633940586199,50.2035592195408 -5.14645826510451,50.2037269661345 -5.14662699772649,50.2037340843262 -5.1469402959149,50.2037885472544 -5.14718226200297,50.2037810885209 -5.14752034402797,50.2037854136844 -5.14781725040337,50.203759376835 -5.14803244654821,50.2037490446102 -5.14816407486429,50.20374727453 -5.14848879204181,50.2037627510473 -5.14865298473669,50.2037448074304 -5.14866621642474,50.2040089493663 -5.14868874740732,50.2041387444803 -5.14874001273777,50.2042345753132 -5.14884302634516,50.2043738788977 -5.14889784916826,50.2044605288754 -5.14900544615316,50.204648364504 -5.14905688758838,50.2047485958319 -5.14914652716444,50.2049603011765 -5.14919805017395,50.2050389467017 -5.14923710783847,50.205079256854 -5.14928170144638,50.2051176193948 -5.14949617489871,50.2052243105522 -5.14974856652369,50.2054171208569 -5.14986888547041,50.2054786997319 -5.1501285295974,50.2056955948278 -5.15036025493819,50.2058728650968 -5.15076152892678,50.2061975260685 -5.15087402440449,50.2063086906426 -5.15091387819891,50.2063399860987 -5.15118980456792,50.2064863769116 -5.15126514415486,50.2065230045907 -5.15138018487214,50.2065675471215 -5.15166405892896,50.2067047277079 -5.15177448878599,50.2067862692919 -5.15184137453959,50.2069067667962 -5.15191716367285,50.206866036658 -5.1519718968009,50.2068249785071 -5.15212036302465,50.2067804767699 -5.15229190824652,50.2067038707154 -5.15233728489317,50.206690947266 -5.15242253672981,50.2066868332315 -5.1526099023771,50.206722217384 -5.15268640087129,50.2066922592403 -5.15294125693586,50.2065593392477 -5.15335608778142,50.2064320549257 -5.1534789643368,50.2064026366909 -5.1536534666133,50.2063709154803 -5.15386497827514,50.2063255985327 -5.15409768445864,50.2062634268756 -5.15419100177864,50.2062536965263 -5.15430604914434,50.2062334826552 -5.15461007257623,50.2061469781976 -5.15498953508647,50.2061195795704 -5.15524138175319,50.2060497802897 -5.15529555294153,50.2060195284782 -5.15541446139908,50.2059317572644 -5.15567372826251,50.2056557121318 -5.15575233658213,50.2056140040888 -5.15598723025045,50.2055202916029 -5.15612681506497,50.2054481461297 -5.15619190010303,50.2053924151761 -5.1562356372733,50.2053336669927 -5.15625700956634,50.2053177970089 -5.15630456012253,50.2052958194337 -5.15633350352038,50.2052878374354 -5.15668086944647,50.2052837889754 -5.15672954206718,50.2052770696683 -5.15683165245509,50.2052535174968 -5.1570635808733,50.2051779602807 -5.15716280939054,50.2051527787124 -5.15745458306368,50.2050926805322 -5.15756889310305,50.2050823765006 -5.15810081441651,50.2050939898927 -5.15843969634656,50.2050892682148 -5.15870348854555,50.2050919844634 -5.15881784287671,50.2050421057202 -5.15889781152245,50.2050210442463 -5.15893818199523,50.2050163482312 -5.15898035386767,50.2050196970242 -5.15922252023719,50.2050571760058 -5.15928459827939,50.2050626818466 -5.15950321709734,50.2050621283688 -5.15987995785146,50.2050356864098 -5.16029738673186,50.2049901487367 -5.16047345715125,50.2049385892353 -5.16069227229462,50.2048570861592 -5.16089231737082,50.2047661106722 -5.16164722956943,50.2043749291672 -5.16218165043676,50.2041273501471 -5.16224967356808,50.2040742345242 -5.16249002546022,50.2037663125722 -5.16254199653985,50.2037046396712 -5.16264759945133,50.2036064306028 -5.16270928649726,50.2035012340067 -5.16281663471384,50.2032581804299 -5.16305755946666,50.2026200869734 -5.16322746001476,50.2020963486801 -5.16315531839677,50.2020434530116 -5.16322744838382,50.2019686394756 -5.16345607164094,50.2021404835669 -5.16358232482795,50.2022269787557 -5.16373403863925,50.2024432774133 -5.16375495881863,50.2024642918004 -5.16403453714835,50.2026429299716 -5.16469737393829,50.2030440537962 -5.1649924303816,50.2027580189186 -5.16546733333415,50.2024149162588 -5.16579385057707,50.2022027570688 -5.16592836076619,50.2021171582098 -5.16609235377169,50.2020335421549 -5.16620656033688,50.2020637033975 -5.16651287879703,50.2018223246787 -5.16672094332216,50.2016835448117 -5.16682072540298,50.2016232636909 -5.16729403849416,50.2013629380233 -5.16759970167258,50.2011746363135 -5.16733599442634,50.201087398474 -5.16720466406497,50.2010307242085 -5.16714501588328,50.2009972763262 -5.16701220580164,50.2008955848975 -5.16819833788496,50.2007966704525 -5.16865485038346,50.2007905086807 -5.16902048492662,50.2007679389314 -5.16973185380507,50.2007782005663 -5.17004448930133,50.2007597723633 -5.1702221095219,50.2007738094078 -5.17051046795477,50.2008109931636 -5.17061838389629,50.2008107452182 -5.17071547761658,50.2007954128616 -5.17089579572051,50.2007473187642 -5.17137758410175,50.2006361302206 -5.17165737704225,50.2006069033117 -5.17243100071076,50.2004372859276 -5.17250961118889,50.2004604099702 -5.17259933154226,50.2005029255913 -5.17273963857745,50.20054675771 -5.17279370837979,50.200558770817 -5.17289981087054,50.2005747579181 -5.17333878121823,50.2006212194727 -5.17355851242822,50.2006376980484 -5.17464105430515,50.2004129447769 -5.17517852944594,50.2002965309619 -5.17534734124946,50.2002649342651 -5.1754467359715,50.2003260704549 -5.1759265096999,50.2006493971203 -5.17608887125168,50.2007520695549 -5.17611923941784,50.2007656282011 -5.17624410632164,50.200789192842 -5.17709630003454,50.2008944865715 -5.17723458433986,50.2009077899338 -5.1773825583625,50.200920828869 -5.17790324911809,50.2009309512482 -5.17790818745233,50.2010261482308 -5.17786447560817,50.2012135108193 -5.17769850475895,50.2015626874338 -5.17768955871189,50.2016384782922 -5.17776459831888,50.2019243083856 -5.178267892588,50.2018637662957 -5.17899161365238,50.2017449339249 -5.17985029483058,50.2015685303729 -5.18010983225328,50.2015092599106 -5.18020079564444,50.2014851840553 -5.18045553945618,50.201374689675 -5.18074046700616,50.20129583585 -5.18139450485109,50.2010781705361 -5.18162408723774,50.2010116227787 -5.18184387071476,50.2010496685715 -5.18201042946076,50.2010675881628 -5.18243126071521,50.2010722420999 -5.18283423644932,50.2010620959429 -5.18318272232724,50.2010336561626 -5.18411120204185,50.2010225881609 -5.18438426021466,50.2009773267802 -5.18499278410905,50.2009597374217 -5.18506632269805,50.2007382777332 -5.18507392384569,50.2006615337717 -5.1850279225659,50.2004757302458 -5.18499691567431,50.2002426583755 -5.18497648432368,50.2001874590728 -5.18491282741187,50.2000748968767 -5.18523464473518,50.1999185754185 -5.18533296025365,50.1998592191082 -5.18535643642077,50.1998109091823 -5.18536136856758,50.1996541964854 -5.18536842232394,50.1996126325444 -5.1854055154467,50.199517182747 -5.18549512644788,50.1993896244253 -5.18565640872268,50.1992017320339 -5.18582759888584,50.1990359607006 -5.18589691750646,50.1989836949451 -5.18627947667747,50.1988355969122 -5.18642554720857,50.1987559527938 -5.18653481284917,50.1986702133886 -5.18662983332905,50.198561482105 -5.1868597538354,50.1981412884538 -5.18706691302229,50.1981374018611 -5.18717687412998,50.197958110076 -5.18749169907444,50.1976139191744 -5.18753779938183,50.197549698799 -5.18762970362755,50.1972035320974 -5.18777708992187,50.1973119050166 -5.18809245238033,50.1974804199275 -5.18818164787565,50.1975149341671 -5.18828593861668,50.197545347242 -5.18842962449187,50.1975773755031 -5.18852050434477,50.1975955656494 -5.1886549326606,50.1976152568734 -5.18887288785015,50.1976884147275 -5.18920533518819,50.197693673494 -5.18946165857193,50.1978171298916 -5.18964273474394,50.1979263733928 -5.18973081939249,50.1980273803278 -5.19013510640504,50.1983734071732 -5.19023878680876,50.1984569861768 -5.19051806918553,50.1986525674303 -5.19067678713546,50.1987418288573 -5.19080373768094,50.1988381685584 -5.19083049920148,50.1988617154962 -5.19095659086141,50.1990283185733 -5.19107036549245,50.1991367123367 -5.19144130657513,50.1994242937917 -5.19151840747611,50.1994662430575 -5.19164429632714,50.1995050529325 -5.19194100179091,50.1996255947282 -5.19206093484293,50.1996582714884 -5.19252285692469,50.1998389339725 -5.19300374509687,50.199966100312 -5.19340272347185,50.2000225803827 -5.19383441314987,50.20012762275 -5.19411838562171,50.2001819577078 -5.1942583604102,50.2002014899213 -5.19453036513018,50.2002236860743 -5.19474781134471,50.2002473817989 -5.19496531780248,50.2002719759718 -5.19505319654877,50.2002866451687 -5.19521818784639,50.2003225760137 -5.19539695298785,50.200376115342 -5.19570287722131,50.2004874004776 -5.19584729643144,50.2005301921026 -5.19592290319621,50.2005496955701 -5.19637133281669,50.2006335830427 -5.19667852667764,50.2006790878869 -5.19702013527834,50.2006948648412 -5.1971075367322,50.200702351429 -5.19725479040356,50.2007235688249 -5.19735873351573,50.2007485866211 -5.19740324524883,50.200764449099 -5.19797436440499,50.2010464977592 -5.19829886607752,50.201267795535 -5.19886085266016,50.2015599844466 -5.19931071827471,50.2018741464304 -5.19906725704539,50.2020473250007 -5.19880784981825,50.2022136572669 -5.19864608840245,50.2022883534466 -5.19849407291969,50.202342904879 -5.19834854852705,50.2023873842676 -5.19820224734863,50.2024219918176 -5.19799013149407,50.2024557138823 -5.1977857167563,50.2025009157489 -5.19762593507729,50.2025637737348 -5.19747945244993,50.2026371479085 -5.19713407485749,50.2027968502745 -5.19700503473437,50.2028372765332 -5.19666622084314,50.2029690077174 -5.19586856511935,50.2032608608864 -5.19557359667025,50.2033778006242 -5.19524732999141,50.2035711467774 -5.19513452331001,50.2036435912708 -5.194850061909,50.2038555720335 -5.1943834227119,50.2041724830736 -5.19424341605317,50.2042789507417 -5.19333796692652,50.2048885261083 -5.19315470179845,50.2049979813042 -5.19286006400378,50.2051616713338 -5.19250966175735,50.2053296825935 -5.1923279640014,50.2054003308544 -5.19212906200739,50.2054660559047 -5.19170208145609,50.2056001952353 -5.19160293087949,50.2056263032592 -5.19150222044251,50.2056515553576 -5.19029377962881,50.2059006080945 -5.19028228343955,50.2059378881303 -5.19023960653041,50.2062440320202 -5.19018745823839,50.2070595610055 -5.19017238384297,50.2071904711405 -5.19014854379839,50.2072540809878 -5.19006692693576,50.2073750379001 -5.18973395711116,50.2076990492972 -5.18940690634126,50.2079455529611 -5.18930244157975,50.2080185712994 -5.18926044194785,50.2080404105357 -5.18912523600232,50.2080926886329 -5.18902415981762,50.2081125527185 -5.18872032875557,50.2081388834321 -5.18857912504866,50.2081445592483 -5.18843768189357,50.2081466448173 -5.18803627991859,50.2081396791444 -5.18798880980164,50.208141881138 -5.18791528742842,50.2081537926748 -5.18785005999858,50.2081843629001 -5.18777248588682,50.2082603300157 -5.18767193122829,50.208518596522 -5.18759001639361,50.208782557672 -5.1875269127306,50.2089507606168 -5.18747532906525,50.2090178297253 -5.18740949806319,50.2090619070644 -5.18685200473024,50.20927785562 -5.18663977849277,50.2093538302584 -5.18617574064605,50.2094997585068 -5.18573539614491,50.2096665303297 -5.18564632158126,50.2097382247847 -5.18562814372831,50.2097603079897 -5.18554401889124,50.209970457933 -5.18547417596073,50.2101000826586 -5.1853526053707,50.2102114310459 -5.18508852573695,50.2103922515734 -5.18496912610122,50.2103262759291 -5.18483064785015,50.21026711896 -5.18479190862877,50.210254690825 -5.18467261102283,50.2102318810839 -5.18453996452467,50.2101752626684 -5.1842879605532,50.2100966446951 -5.18386601276994,50.2105814592655 -5.18373105996294,50.2107227618388 -5.18350114190831,50.2109324122485 -5.18333749310863,50.2110646081098 -5.18323557732176,50.2110494155342 -5.18319911994875,50.2110504151131 -5.18313009913529,50.2110657981289 -5.18310055017919,50.2110854948219 -5.18297468505514,50.2113633394509 -5.18288064942296,50.2115099047034 -5.18270680283543,50.2116990397734 -5.18252797091154,50.2118758092577 -5.1823690483254,50.212058238292 -5.18204137284913,50.2120636228544 -5.18179709318691,50.2120577266591 -5.18180854344224,50.2124416183734 -5.1818499950526,50.212704894038 -5.1818645378903,50.2127549495679 -5.18248536144686,50.2127306485734 -5.18331461216443,50.2127205957816 -5.18367338722757,50.2127395378105 -5.18387820328095,50.2127429147276 -5.18414461122475,50.2127859727746 -5.1842219172711,50.2128099342699 -5.18428019468001,50.2130323665499 -5.18440595843496,50.213299624536 -5.18448851752351,50.21344404554 -5.18460458462187,50.2139023232935 -5.18471258102769,50.2142394091131 -5.1847736823808,50.2144833483174 -5.1847935308052,50.2146771552366 -5.18478115890534,50.2147638325551 -5.18411898977775,50.2147370260583 -5.18362606638848,50.2147451467307 -5.18294681041584,50.2147134073557 -5.18249024158542,50.2146998416513 -5.1824694213796,50.2147031103042 -5.18247229965455,50.2147255155176 -5.18248119154854,50.2147531517898 -5.18253993116693,50.2148558674607 -5.18254808934343,50.2149159010294 -5.1822848477837,50.2148997328827 -5.18210546495039,50.2149208381046 -5.18193565122556,50.2149606572988 -5.1820150657216,50.215122164182 -5.18220935097608,50.2155558159609 -5.18235900405971,50.2158243094707 -5.1823310026039,50.2158881220843 -5.18233055338125,50.215943894405 -5.18240879528844,50.2161710862369 -5.18243699410598,50.2162369559577 -5.18250457287359,50.2163682089682 -5.18268244929678,50.2166386263643 -5.18309649478274,50.2170878376109 -5.18286905879513,50.2171876958512 -5.1831980061148,50.2175376119233 -5.18365344204418,50.2182088167243 -5.1838519561006,50.2182213600726 -5.18387383564853,50.2182756213933 -5.18389150510392,50.2183308968797 -5.18388906457628,50.2184191909973 -5.18382349848141,50.2185091262125 -5.18385129630085,50.2186730369309 -5.1837823893204,50.2186920138225 -5.18378848958623,50.2189310761491 -5.18349326662525,50.2190876557145 -5.18349348697333,50.2191326178972 -5.18356247136852,50.2192206619252 -5.18365480858378,50.2193017700513 -5.18377703463493,50.2192849287241 -5.18401679704631,50.2192432786415 -5.18413011697795,50.2192176868132 -5.18433751276249,50.2191535408715 -5.18448773755332,50.2190936599097 -5.18487881257261,50.2189651180408 -5.18502067578274,50.2193678263985 -5.18498853737158,50.2193920917017 -5.18512175807593,50.2199183393044 -5.18522718869396,50.2204056876837 -5.18535335372129,50.2211624554605 -5.18583680181468,50.2212418252436 -5.18567352008339,50.2214423657708 -5.18556709145446,50.2215506002045 -5.18533671498074,50.221733194846 -5.18495326638259,50.2220181081531 -5.18526814312033,50.2221561557364 -5.18575974831804,50.2223369298807 -5.18517620100635,50.2226066489881 -5.18505882970196,50.2226548359763 -5.18482181280335,50.2227170973607 -5.18429705353395,50.2228386035673 -5.18433217503116,50.2230498894602 -5.18433643821916,50.2230930314778 -5.18507912669256,50.2232750170031 -5.18547694802551,50.2233946000934 -5.18660868417712,50.2237134864837 -5.18668787625129,50.2237221048676 -5.18683342920706,50.2238017509507 -5.18741799261846,50.2239683651424 -5.1880027285896,50.2241357803934 -5.18872589405444,50.2243192681291 -5.18979953871602,50.2237032158234 -5.19003886503365,50.2235491460883 -5.19160178741849,50.2224697752735 -5.19216700799372,50.222178944121 -5.1929687944392,50.2218816941269 -5.19345760403655,50.2217053775153 -5.19477440157217,50.2212661507483 -5.19527075494476,50.2212875677356 -5.19547277294547,50.2213107878187 -5.19557531409958,50.2213124620337 -5.19603797588452,50.221291634008 -5.19666010996534,50.221264614566 -5.19757856846545,50.2211808668121 -5.19775645724417,50.2211561816398 -5.19806631823591,50.2211566409425 -5.19857855580248,50.2211839017718 -5.19910343391937,50.22119102591 -5.19930942457701,50.2211889477999 -5.19950566240752,50.2212725772895 -5.19955771337088,50.2212954254117 -5.19971158660247,50.221331656183 -5.19979680424286,50.2213284081568 -5.19990734876416,50.221323563368 -5.19998696512245,50.2213402557197 -5.20009191930847,50.2213589476388 -5.19975870169261,50.2214914331239 -5.19963195406487,50.2216082451567 -5.19955245480852,50.2216572024002 -5.19948090290236,50.2217195211974 -5.19941884241088,50.2218597325407 -5.1993517948668,50.2219686037067 -5.19922150397281,50.222075709806 -5.1990852969254,50.2223034022303 -5.19890010202095,50.2225523211488 -5.19891610019064,50.2226445138257 -5.19905714654674,50.2229087268127 -5.19912781450926,50.2236085492646 -5.19907526967746,50.2236612597898 -5.19898059428683,50.2237547033381 -5.19893044612625,50.2240331773753 -5.1989218776261,50.2242177824634 -5.19891404707421,50.2243736766763 -5.19883241900476,50.2246844954869 -5.19865291517545,50.2251239207766 -5.19856182718387,50.2255007429768 -5.19850456530999,50.2257766245318 -5.1994004797396,50.2256485147321 -5.19967294014732,50.2255924417917 -5.20005355334356,50.2254974129342 -5.20032034777073,50.2254810652887 -5.20065791980516,50.2254753579337 -5.20190878518162,50.2255389024527 -5.20287191253613,50.2255564096029 -5.20317909181719,50.2255785143614 -5.20370715352819,50.2256737583318 -5.20422468001078,50.2257790937276 -5.20429972821874,50.2257896138554 -5.20446909017838,50.225806524736 -5.20610190534965,50.2259189315425 -5.20664417443101,50.2259965924765 -5.20695370768694,50.2260330125271 -5.20715478234727,50.2260400501523 -5.20732661300534,50.2260317065704 -5.20781060873412,50.2259508847097 -5.20803593726722,50.2259437601306 -5.20807114718701,50.2259463849448 -5.20811086732006,50.2259524827097 -5.20820253291477,50.2259814277566 -5.20840735436767,50.2261079745635 -5.20859505815211,50.2260002614428 -5.20903267763144,50.2257092763004 -5.2091713354084,50.2256442883596 -5.20923079880126,50.2256327518759 -5.20978550219555,50.225559860775 -5.21030384691337,50.2254689967888 -5.21071019995645,50.2253822157973 -5.21078529023856,50.2252677192012 -5.21082475612078,50.2251667995164 -5.21091604293553,50.2251470980699 -5.21140777921433,50.225014783821 -5.21221460870059,50.2247729344295 -5.21233996137186,50.2247388888445 -5.21262871537035,50.2246967249372 -5.21270953627086,50.2246881933754 -5.21342799190163,50.2246539232589 -5.21433699132678,50.2246386576485 -5.21510141946897,50.2245986083111 -5.21539907627655,50.2245633861312 -5.21553857663429,50.224552328114 -5.21597477539609,50.2245330531407 -5.21722684445059,50.2244273210725 -5.21722322402508,50.2243941455599 -5.21767837431552,50.2243644460561 -5.2181065075661,50.2243507831272 -5.21829298947113,50.2243077518129 -5.21901335629518,50.2240737369943 -5.2193286777848,50.2239867512455 -5.22002362276966,50.2237290625618 -5.21982609489403,50.2236904715171 -5.21937804747978,50.223533724901 -5.21924898460328,50.2234284813161 -5.21909865342153,50.2232580843084 -5.21897904261361,50.2231678664288 -5.21891740776922,50.2231282053927 -5.21836274496567,50.2228251175943 -5.21803815254899,50.2227108117401 -5.2176381639301,50.2226013821136 -5.21761472740419,50.2225228888737 -5.21759903382372,50.2223739401059 -5.21747908165546,50.2223215039314 -5.21727541264925,50.2222533993632 -5.21725716399215,50.2222107360791 -5.21724181647467,50.2221922747988 -5.21702800587772,50.2220353250925 -5.21689541999826,50.2217951829464 -5.21655185122427,50.2215447855608 -5.21541002800958,50.2206830769007 -5.21574028098817,50.2202357654496 -5.21597528132588,50.2200394926843 -5.21598532703905,50.2200221271903 -5.21598772904337,50.219995979042 -5.21597676742723,50.2199791044837 -5.21594312313983,50.2199584518021 -5.21611190735193,50.2196749768213 -5.21641331904561,50.2196530479392 -5.21648515398982,50.219595298279 -5.21648044169957,50.219525278663 -5.21643265883487,50.2195230055413 -5.21647520793147,50.2190936428261 -5.21649833789897,50.2189786935152 -5.21663562127745,50.2186429383883 -5.21684348372261,50.218273749505 -5.21695909429856,50.2181158580421 -5.21810703007036,50.2169244190794 -5.2186070524953,50.2168754848058 -5.2185533315602,50.2167437787869 -5.2184373215639,50.216560827285 -5.21827964242144,50.2162809114547 -5.21830627254963,50.2161974322139 -5.21830415717994,50.2161660133348 -5.21826758151053,50.2160176443077 -5.21828813490258,50.2159280379912 -5.21831410147498,50.215834684974 -5.21846013281775,50.2154626203149 -5.21851143875467,50.215391947659 -5.21855179884181,50.2153458607856 -5.21868330374129,50.2152387895183 -5.21954426498526,50.2148442051927 -5.21968172726352,50.2147621495918 -5.21979204840727,50.2146718529984 -5.21989930899908,50.2145996280675 -5.22017687958648,50.2144542381026 -5.22045655247521,50.2142971886134 -5.22059591688165,50.214161027573 -5.22078137572029,50.2140416646371 -5.22098117997951,50.2138435703647 -5.22105858534567,50.2137451912592 -5.221090447943,50.2136759563954 -5.22117429972633,50.2136097755241 -5.22170717865265,50.2133628670298 -5.22175818875982,50.2133290745043 -5.22180234178731,50.2132981710685 -5.22183209193477,50.2132199111862 -5.22196621317742,50.2130866818207 -5.22275351501718,50.2124971569855 -5.22421602643253,50.2114615947554 -5.22442336398191,50.2113344240313 -5.22498827290223,50.2109598006992 -5.22501961332247,50.210946339177 -5.22607455972028,50.2104599780379 -5.22633108373505,50.210292764461 -5.22650658846174,50.2101924652625 -5.22719290901969,50.2098738154615 -5.22775209646255,50.2095793807015 -5.22790451954222,50.2095121881521 -5.22797020677066,50.2094887765755 -5.22801818815061,50.2094307829655 -5.22810523607381,50.2090595362236 -5.22811162846584,50.2088632078758 -5.22833552386125,50.2075282693096 -5.22834928070881,50.2074838181657 -5.22853061793776,50.2073879407266 -5.2287106097426,50.2072704259389 -5.2287867459773,50.2072152465992 -5.228914770224,50.2070983669706 -5.22903133946251,50.2069556341091 -5.22909041635344,50.2068343762226 -5.22911156304063,50.2067744304638 -5.22914953029916,50.206568230332 -5.22912549847452,50.2061712922016 -5.22906668072985,50.2059848720359 -5.22882228569119,50.2058108969513 -5.22849199958984,50.2055492841214 -5.22819670796886,50.2053694387761</coordinates></LinearRing></outerBoundaryIs></Polygon>
  </Placemark>
