  <Placemark>
	<Style><LineStyle><color>ff0000ff</color></LineStyle><PolyStyle><fill>0</fill></PolyStyle></Style>
	<ExtendedData><SchemaData schemaUrl="#Wards__December_2019__Boundaries_EW_BFE">
		<SimpleData name="objectid">2668</SimpleData>
		<SimpleData name="wd19cd">E05007117</SimpleData>
		<SimpleData name="wd19nm">Alexandra</SimpleData>
		<SimpleData name="wd19nmw"></SimpleData>
		<SimpleData name="bng_e">617120</SimpleData>
		<SimpleData name="bng_n">244557</SimpleData>
		<SimpleData name="long">1.165613</SimpleData>
		<SimpleData name="lat">52.056839</SimpleData>
		<SimpleData name="st_areashape">1901869.20974385</SimpleData>
		<SimpleData name="st_lengthshape">8001.23052234731</SimpleData>
	</SchemaData></ExtendedData>
      <Polygon><outerBoundaryIs><LinearRing><coordinates>1.14513524376548,52.0513407385237 1.14560270339133,52.0512662107264 1.14610436848045,52.0512231363488 1.14670339444228,52.0511945410254 1.1470880058139,52.0512076387821 1.1475490204634,52.0512501636356 1.14785526177243,52.0512896312385 1.14895226773317,52.0512477083039 1.14981935423483,52.0512766632084 1.1510794947746,52.0512933844867 1.15179391379527,52.051371368092 1.15240271409688,52.0514593688468 1.15301743084097,52.051571574497 1.15350901767773,52.0516330366259 1.15369880442024,52.0516567256066 1.1536806500544,52.0517507222228 1.15367178845238,52.0517905222756 1.15366698404934,52.0520739691507 1.15366478202096,52.0522287703018 1.15367054376293,52.0522286159656 1.15386850936402,52.0522215151182 1.15401088161519,52.0522141044623 1.1542236127009,52.0521895234067 1.15474955849017,52.0521376676526 1.15494968765683,52.0520998456432 1.15512702238834,52.0520492376289 1.15537794892845,52.0520290254492 1.15547498338258,52.0520183329079 1.15561064372745,52.051997612825 1.15572483232348,52.0519828636005 1.15581454390841,52.0519723661587 1.15597938364148,52.0519526622916 1.15607209613419,52.0519420851079 1.15610815680089,52.0519366223365 1.1561871086396,52.051939001918 1.15676640459398,52.0519000927143 1.15694766279142,52.0519051232028 1.15697533909118,52.051905280474 1.15711420385494,52.0519078507706 1.15721194120525,52.0519088265153 1.15744735649002,52.0519159997041 1.15748530028762,52.0519167808927 1.1577018107114,52.0519253599792 1.15778670844439,52.0519284784118 1.15792288891064,52.0519356149449 1.15803859781064,52.0519424019465 1.15808687242296,52.0519447037278 1.15813652520375,52.0519460691222 1.15818636073361,52.0519483289918 1.1582361401562,52.0519514888446 1.15826550263134,52.0519533993772 1.15833168545551,52.0519606152502 1.15839637074192,52.0519687706588 1.15846274360695,52.0519786786566 1.15849956405398,52.051983984849 1.15860582755579,52.0520018138774 1.15870651952931,52.0520224904873 1.15876275805844,52.0520336595535 1.15882331190972,52.0520446228718 1.15891166150381,52.052055738872 1.1590116568959,52.0520665432272 1.15910701980538,52.0520747745037 1.15917457961405,52.0520810535597 1.15926129931085,52.0520895166376 1.15936404822309,52.0520984480098 1.15944895363471,52.0521033629406 1.15956910562253,52.0521100292124 1.15963785214736,52.0521126794604 1.15972851339567,52.0521156409216 1.15980571609726,52.0521153677265 1.15989468237079,52.0521147778543 1.15996023199864,52.0521130185212 1.16000399513242,52.0521127433099 1.16008256711517,52.052109734984 1.16016690229501,52.0521065728106 1.16027295315846,52.0520992300758 1.16036129302928,52.05209146417 1.160442423733,52.052082092923 1.1606263565585,52.0520636678768 1.16073935694739,52.0520525423558 1.16090732222519,52.0520345455405 1.16106370510738,52.0520177588637 1.16113451051302,52.0520086643628 1.1612343615032,52.0519969920236 1.16141071007498,52.0519733747864 1.16153779342569,52.0519555763323 1.1616347562786,52.0519438912664 1.16169279278883,52.0519396354228 1.16173905536213,52.0519338969435 1.16178519260094,52.0519263639121 1.16180678872527,52.0519221872348 1.16183546122872,52.0519160226106 1.16189586459473,52.0519027118045 1.16192297017653,52.0518947904416 1.16195157183451,52.0518859303921 1.16197855054704,52.0518762136243 1.16199125578531,52.0518704777972 1.16201822715351,52.0518589642169 1.16204213406999,52.0518466326357 1.16206309606017,52.0518334816441 1.16208393124866,52.0518185361544 1.1621018848115,52.0518036671571 1.16211276953255,52.0517925856134 1.16212359082117,52.0517806063728 1.16213134627764,52.0517678100754 1.16213778108227,52.0517550492483 1.16214415391201,52.0517413906858 1.16214902926885,52.0517286717427 1.1621622623992,52.0516878550252 1.16216574271652,52.0516553921547 1.16253049431141,52.0517175260464 1.16349044486807,52.0519453838128 1.16463445537052,52.0521565088863 1.16459396623753,52.052305146535 1.16455015258476,52.0523863474505 1.16453793537454,52.0524415239622 1.16453899601717,52.0524973320199 1.16455413053796,52.052546377844 1.16459689784269,52.0526153617289 1.16467641591619,52.0526869535485 1.1647550337535,52.0527271003997 1.16485617416498,52.0527540528563 1.1649063281686,52.0527607974366 1.16539678021965,52.0527853760834 1.16629516442914,52.0528242484882 1.16648006295177,52.0528381577261 1.16675639284036,52.052867590028 1.16821427598783,52.0531008973778 1.16985964604048,52.0534064659841 1.17098846214575,52.0536279186937 1.17150257845531,52.0536976906379 1.17245375478762,52.0538429018272 1.17265487656543,52.0537988187311 1.17289192275771,52.0537456752168 1.17331125519604,52.0536525513428 1.17363405281846,52.0535755156341 1.17438990374068,52.0533716225158 1.17488687997763,52.0532404341273 1.17552280170923,52.0530739350616 1.17583663737117,52.0529944376268 1.17640786163713,52.0528621383427 1.17664141264729,52.0528225689038 1.17691571781565,52.0527827078451 1.17717239053521,52.0527604960815 1.17757179160202,52.0527155495511 1.17794296583073,52.0526830522313 1.17827571092526,52.0526632798141 1.17877981324338,52.0526343846824 1.17899655858005,52.0526258350076 1.17966271722899,52.052617736224 1.18054417876798,52.0526011200955 1.18113097280249,52.0525645853691 1.18131265431811,52.0525551809335 1.18146084191041,52.0525466804289 1.18183258551235,52.0525222483005 1.18246943141182,52.0524115232529 1.18285454307299,52.0523687438541 1.18317875438499,52.0523339029233 1.1832217961781,52.0524469311735 1.18327497085074,52.052599247542 1.18343754769264,52.0525867588043 1.1834609991312,52.052650953767 1.18349700349793,52.0527461886206 1.18348493779161,52.0527609008532 1.18347681984817,52.0529545274179 1.18334671572567,52.0529517513026 1.18334545824412,52.0529949441281 1.18334574030393,52.053019213228 1.18334525781645,52.0530327137438 1.1833462153857,52.0530461753223 1.18334583025103,52.0530830505275 1.18334543978097,52.0531181279672 1.18334546648747,52.0531388072527 1.18334555850576,52.0531603841766 1.18334420907114,52.0531820009748 1.18334503893457,52.0531936671971 1.18334503826373,52.0532359266344 1.18334429896259,52.0532458373751 1.18334462456144,52.0532504146348 1.18334465272638,52.0532710938805 1.1833440054457,52.0533025815447 1.1833436773793,52.0533385567006 1.18334418803283,52.0533457354308 1.18334335756225,52.0533763295429 1.18334348520981,52.053378124001 1.1833436767131,52.053380816137 1.18334357723263,52.0533997009242 1.18334334864858,52.0534167912926 1.18334308437681,52.0534536632281 1.18334231090605,52.0534833563941 1.18334275776993,52.0534896383439 1.18334198963602,52.0535211292749 1.18334294715725,52.0535345899548 1.18334256308197,52.0535697571601 1.18334252600414,52.053589539664 1.18334177924971,52.0536399121133 1.1833411759067,52.0536534158957 1.18334177859406,52.0536821715479 1.18334176975476,52.0537226341935 1.18334090273657,52.053730749578 1.18334095914719,52.0537721089641 1.1833408293906,52.0538125739793 1.18334021919012,52.0538242791379 1.18333925275931,52.053851280206 1.18333988862279,52.053900805806 1.18333714451104,52.0540465421428 1.1833254347168,52.0540459593507 1.18332562556944,52.0540909109188 1.18333438988126,52.0540906739474 1.18333490061098,52.0540978535745 1.18333732648425,52.0541319554563 1.18333770956437,52.0541373406254 1.18333956085388,52.0541633652022 1.1833422484886,52.0542011466648 1.18334250385507,52.0542047364783 1.18334297897845,52.0542316985678 1.18334336199677,52.0542370828391 1.18335404149949,52.0542637681198 1.18335730477572,52.0542690754129 1.18356167423455,52.0542707419486 1.1835612186454,52.0543049217425 1.18355740585079,52.054354478593 1.1835564764584,52.054361696261 1.18355534692341,52.0544066844328 1.18355368513394,52.0544256114639 1.18355313885012,52.0544382142995 1.18355255559733,52.0544705996353 1.18355060242616,52.054504010459 1.18354861422094,52.0545589125984 1.18350922652046,52.0545581788244 1.1835094459151,52.0546238105244 1.18350962878626,52.0546669652974 1.18350952068418,52.0547263118202 1.18351098906711,52.0547469521204 1.18350884481838,52.0547793796629 1.18350860629209,52.0549197426591 1.18350742010541,52.0549233714509 1.18350510535265,52.0550142477963 1.18350342802401,52.0550718388383 1.18350054587729,52.0551141761815 1.18349798110547,52.0551592930961 1.18349874726889,52.0551700625332 1.18349430457821,52.0551701826605 1.18349013868088,52.0551927732161 1.18349276506456,52.0551891063821 1.18350754687282,52.05519230251 1.18350242341718,52.0552014332895 1.18351576510419,52.0552046683565 1.18351214411853,52.0552146570152 1.18351265489738,52.0552218366398 1.18351694121888,52.0552415022385 1.18350247851785,52.0552427918064 1.18350211322002,52.0553408088716 1.18351375949172,52.0553404939637 1.1835140431689,52.0553647630141 1.18350383702205,52.055365038982 1.18350449512286,52.0554351549355 1.18350468398632,52.0555206588925 1.18338809743572,52.0555220124441 1.18338842687058,52.055670362965 1.18339004981561,52.0557134787944 1.18338987490109,52.0558547394542 1.18338932711495,52.0558673423268 1.18339350475545,52.0559886138624 1.18335055713218,52.0560815781664 1.18335083194258,52.0561463089496 1.18334783076712,52.0561463900947 1.18335168818984,52.0562209147591 1.18335013980311,52.0562803002103 1.1833476317998,52.0563684844451 1.18334552208641,52.0564216818816 1.18334579545675,52.056486412701 1.18334485727396,52.0565340929954 1.18334539628356,52.0565619518554 1.18334530365365,52.056582634359 1.18334472028974,52.0566150196863 1.18334411008385,52.0566267248408 1.18334448441354,52.0566725717384 1.18334451119295,52.0566932510132 1.18334358179779,52.0567004695759 1.18334320460262,52.0567374344906 1.18334255737656,52.0567689221398 1.18334072536321,52.0568040385396 1.18333976720148,52.0568328372826 1.18334001381023,52.0568768888241 1.18333990414874,52.0569362353705 1.18333942114613,52.0569919952938 1.18333846105184,52.0570190852205 1.18333916336416,52.0570289569785 1.1833391545892,52.057069418707 1.18333754920437,52.0571297050966 1.18333668366626,52.0571378213363 1.18333593556305,52.0571881938002 1.18333672998633,52.0572196424692 1.1833359633542,52.0572511333448 1.18333528782387,52.0572619408604 1.18333460504385,52.0573132109615 1.18333581808812,52.0573302614445 1.18333319757503,52.0573762792511 1.18333280574733,52.0574113567092 1.18333289785762,52.0574329336198 1.18333093620081,52.0575085150106 1.1833300705933,52.0575166303522 1.18333080116326,52.0575471813424 1.1833287118398,52.0576209682751 1.18332835702426,52.0576362632396 1.18332915639413,52.0576678017136 1.18332816311778,52.0576741225982 1.18332689648681,52.0578000374284 1.18332753495074,52.0578090115079 1.18332716992511,52.0578647682354 1.18332812765537,52.0578782298033 1.18332828084727,52.0579835161874 1.1833283715123,52.0580050931356 1.18332859130241,52.0580284645012 1.18333142890581,52.0580886307579 1.18333483967099,52.0581568734551 1.1833352510684,52.0581829378516 1.18333883256055,52.0582755434833 1.18333962558206,52.0583069921864 1.18334210697225,52.0583824534422 1.18334217077556,52.0583833502217 1.18334133164052,52.0584544060333 1.1833421899322,52.0584867514756 1.18334189753845,52.0585029441547 1.18334348652228,52.0585658414797 1.1833453737025,52.0585720844845 1.18328707572138,52.0585727612718 1.18312201536031,52.0585709297912 1.18302714578658,52.0585698987497 1.18280966924697,52.0585685844524 1.18280838842959,52.058817772746 1.18280969493988,52.0588563985428 1.18280975144598,52.0588977562314 1.18281695557788,52.0588975614949 1.18281589759718,52.0589435342856 1.18281717523133,52.0589614826041 1.18281643028757,52.0590118529342 1.18281690494383,52.0590388130361 1.18281860217611,52.0590423637291 1.18282179618177,52.0590872331787 1.18246097839114,52.0590817011298 1.18240962987971,52.0590785930251 1.18237437023357,52.0590750500633 1.18223633221596,52.0591030573606 1.18194074809997,52.059131724547 1.18145680487703,52.0591591876893 1.18103496250412,52.0591768789603 1.18082775350368,52.0591761831036 1.18054725125983,52.0591513923325 1.18025049672664,52.0591027641979 1.18002810426379,52.0590323463243 1.17966740433112,52.0588846536774 1.17921400007928,52.0586630331308 1.17892960003254,52.0585223530554 1.17862774011094,52.0584000364026 1.17829246046604,52.0582814092969 1.17816004453908,52.0582463202132 1.1778804228117,52.0581711470833 1.17757686703007,52.0580875370787 1.1775754253459,52.0580875759877 1.17755939239455,52.0580871092901 1.1774464835619,52.0580793672325 1.17600390951113,52.0578800156211 1.17524742949166,52.0577267952187 1.17485117557726,52.0576116007415 1.1745998044622,52.0578530552767 1.17423117550597,52.0582713855467 1.17387401214001,52.0587072981848 1.17375653538985,52.0588607108364 1.17366113972106,52.0589963494246 1.17356875139269,52.0591337056006 1.17333102851441,52.0595269086392 1.17312636660688,52.059931717751 1.1729427908561,52.0602658276215 1.17280456906872,52.060516897205 1.17276206961829,52.0606385221181 1.17248440896706,52.0611676653424 1.17220897434504,52.0616858691507 1.17205044735235,52.0619815401209 1.17194101504137,52.0621670967713 1.17173880448322,52.0625457627648 1.17167034215046,52.062691553672 1.17121523400046,52.0624663581359 1.17102167839987,52.0623716803874 1.17096422051415,52.062343556857 1.17073582527331,52.0622292268535 1.17072212206986,52.0622412848877 1.17051980886223,52.0621469311904 1.17033564926599,52.0620591924374 1.17010319556925,52.0619503657807 1.16989637028625,52.0618534353151 1.16988891108613,52.0618500395719 1.1698797012678,52.0618439937658 1.16964135201187,52.0617334371617 1.16941348022466,52.0616280814765 1.16937275054133,52.0616084987378 1.1693587368524,52.0616178668795 1.16913143098564,52.0615187891684 1.16906827625196,52.0614917174196 1.16904258724676,52.0614806307568 1.16899591051814,52.0614603085856 1.16894315297978,52.0614356541334 1.16888739398554,52.0614110813349 1.16883614053006,52.0613872857197 1.16878332736022,52.0613635320574 1.1687276243058,52.0613380574161 1.16867186410801,52.0613134845494 1.16850470750192,52.0612397597585 1.16833585682737,52.0611641934534 1.16833284755355,52.0611624766001 1.16827571100427,52.0611388390475 1.16822602714445,52.0611167987635 1.16810260709231,52.0610643752575 1.16808763342746,52.0610584843969 1.16805622874716,52.0610278606471 1.16791462902292,52.0609021989767 1.16780882179892,52.060809650169 1.1677668858625,52.0607730159294 1.16775441308951,52.0607616633634 1.16770771759739,52.0607206621331 1.16767807156212,52.0606944859899 1.16764071401135,52.0606613250894 1.16751609767769,52.0605495023354 1.16744589623944,52.0604857561921 1.16739763388784,52.0604429982647 1.16736334808368,52.0604124518376 1.1673289366382,52.0603801100539 1.1672698253266,52.0603268551472 1.16721052329834,52.0602726151426 1.16717141466058,52.0602368040081 1.16708010619332,52.0602861033661 1.16702114883148,52.0603182585246 1.16687194137644,52.0603959987876 1.1668396061417,52.0603725928555 1.16679962156712,52.0603430980028 1.16670423454636,52.0602736451158 1.16645813580768,52.0600941493353 1.1663734145777,52.0600325908635 1.16632566211955,52.0599970119002 1.16628874462901,52.0599700425529 1.16618565296751,52.059893693269 1.16621705766522,52.0598631778975 1.16618171405232,52.0598380539585 1.16617701675242,52.0598345846153 1.16615858993013,52.0598206938988 1.16614304378399,52.0598067266181 1.16613978818366,52.059803217607 1.16612913759396,52.0597972102547 1.16611854287871,52.0597903020358 1.16610638705656,52.0597834366927 1.16610632351009,52.0597825390383 1.1660939846643,52.0597747783528 1.16608170175881,52.059766117698 1.16607862913072,52.0597635031285 1.16606189830872,52.0597531642457 1.16604661388185,52.0597445833961 1.16604510864579,52.0597437254065 1.1660221752022,52.0597290573835 1.16601615844085,52.0597256226133 1.16600857905237,52.0597222298598 1.16599498290691,52.0597154023343 1.1659798815324,52.0597077168168 1.16596615837319,52.0596990948763 1.16596302981895,52.0596973802714 1.16594937020948,52.0596896559834 1.16594177826724,52.0596843749005 1.16593106425678,52.0596774707721 1.16592034872998,52.059670565784 1.16591264379474,52.0596653785731 1.16590813088895,52.0596628027252 1.16590055152036,52.0596594099642 1.16588701895407,52.0596534800802 1.16587787221102,52.0596483307345 1.16586120356856,52.059638889515 1.16585656973109,52.0596363160173 1.16585055305998,52.0596328821357 1.16583708398598,52.0596278490027 1.1658236149787,52.0596228167657 1.16581302656303,52.0596177070767 1.16578139119511,52.0596041714398 1.16576936395184,52.0595991004323 1.16575426265979,52.0595914148841 1.16571955473816,52.0595752646509 1.16569230675882,52.0595625103931 1.165681775711,52.059556499787 1.16566974703681,52.059551428808 1.16563503924362,52.0595352794461 1.16564035869817,52.0595288426865 1.16562525884742,52.0595211561838 1.16558572674917,52.0594997412316 1.16554782084465,52.0594791819097 1.16552651854376,52.0594671671289 1.16546292457602,52.0594338115409 1.16539782549793,52.059399597918 1.1653946969889,52.0593978832971 1.16533855381697,52.0593678339562 1.16527640049566,52.0593344404395 1.1652111761252,52.059298431357 1.16514288544571,52.0592616053025 1.16505335636991,52.0592136619893 1.16496985824231,52.0591880342793 1.16489393793957,52.059165798465 1.16484921558686,52.0591526152248 1.16489747942661,52.0591342345602 1.1648930301665,52.059132556324 1.16483388663143,52.0591008794711 1.16471709719254,52.0590382939489 1.16465795384946,52.0590066161006 1.16465175298908,52.0590022877422 1.16464410424644,52.0589961995714 1.16454661631164,52.0589394778948 1.16445538839977,52.0588861853499 1.16425609615526,52.0589769563756 1.1640201304058,52.0590866944083 1.16399346692774,52.0591008977388 1.16399033850133,52.0590991830765 1.16394440278865,52.0590671508615 1.16388456172802,52.0590256019696 1.1638429559622,52.0589952511942 1.16382772825798,52.0589857700604 1.16382465728551,52.0589831553858 1.16382133699178,52.0589787486838 1.1637912711964,52.0589040316043 1.16378602081198,52.0588502261701 1.16385177046219,52.0588511575964 1.163852640842,52.0588430417386 1.163852748057,52.0588241576249 1.16385950957903,52.0586935111888 1.1638390907717,52.0586922610622 1.16374847957726,52.0586902006277 1.16369425065441,52.0586871616524 1.16367259532818,52.0586292996519 1.16366412417577,52.0584873727026 1.16364331113496,52.0581930134865 1.16363907860921,52.0581552732903 1.16363412920981,52.0580852729118 1.16349290782949,52.058068387456 1.16343060637063,52.0580736580588 1.16342130463671,52.0579012727675 1.16341634927458,52.0578311826033 1.1631236213432,52.0578390471121 1.16286778101962,52.0578531133849 1.16262226532066,52.0578669008725 1.16227212716884,52.0578879948118 1.16202976048503,52.0579071819152 1.16174331226561,52.0579409488022 1.160968508743,52.0580435741182 1.15991576786615,52.0581779303366 1.15943396548894,52.0582340191858 1.15917055999544,52.0582653635286 1.15898693994037,52.0583090433972 1.15892041701567,52.0583584818672 1.15869548482711,52.0585002867801 1.15804629394468,52.0588522700845 1.15777613818623,52.0589737914117 1.15760429917637,52.0590395393885 1.15737484749727,52.0590969416956 1.1571353102036,52.0591546130843 1.15712366995669,52.0591567239201 1.15628889361304,52.0593185545367 1.15595361734372,52.0593850844975 1.1555734775154,52.0594159517858 1.15513408183349,52.059432222506 1.1546746440052,52.0594355416821 1.15427820101045,52.0594416665646 1.15402591901854,52.059463709274 1.15354781973593,52.0594702211184 1.15314774209763,52.0594674494844 1.15284667062117,52.0594800065083 1.15220405999885,52.0594720365262 1.15179245541634,52.0594695688668 1.15146763303161,52.0594557852454 1.15111116711483,52.0594094909981 1.15077197957085,52.0593574279602 1.15012200305983,52.059285806712 1.14972972459621,52.0592468500445 1.14960254098443,52.059243058994 1.14947924896101,52.0592535499686 1.14935652692916,52.0592721171625 1.14922460830367,52.0593053164526 1.14886281841999,52.0594516562108 1.14834239226172,52.0596652650801 1.1479872760984,52.0597817537785 1.14789179776288,52.059606282251 1.14784347359955,52.0595418493738 1.1477401794935,52.0593800744041 1.14761550867088,52.0591846138637 1.14747768081451,52.0589680162481 1.14742690752496,52.0588892632168 1.14737513066256,52.0587962400396 1.14733112041183,52.0587093009286 1.14730703405082,52.0586371144603 1.1472814855732,52.058542398556 1.14726915139266,52.0584303362742 1.14726410119351,52.0583585403676 1.1472671789226,52.0582774460186 1.14727309199676,52.0582161462109 1.14734116492904,52.058002130642 1.14752018733198,52.0577886550881 1.14767692648793,52.0575901616651 1.14788453289384,52.0573264690744 1.14798502041115,52.0571988026292 1.14805390171422,52.0570989548751 1.14813119818058,52.0569340545962 1.14831300292434,52.0565721454214 1.14845321214788,52.0562841792931 1.14848060878136,52.0562375901274 1.14852178183375,52.0561816422026 1.1485801620883,52.0561189392451 1.14860776026306,52.0560957235338 1.14865757612925,52.0560583354932 1.14882863076827,52.0559386716352 1.14903336164227,52.055800123413 1.14957025293521,52.0554484956157 1.14955285178373,52.0553670495551 1.14922715212657,52.05529933554 1.1490287119669,52.0552776684941 1.14884410580558,52.0552457413852 1.14864602196159,52.0551880991519 1.1485155087266,52.0551385403183 1.14836781577602,52.0550704688933 1.14791489429631,52.0548118482254 1.14747987080712,52.0545185800905 1.14733485637214,52.0544064677202 1.14719954402868,52.0542869024833 1.14706942016936,52.0541590166164 1.14698872216128,52.0540685627459 1.14688810234116,52.0539462711247 1.14678596679745,52.0538212335993 1.14668420691182,52.0536809897641 1.14647271635941,52.0533709547412 1.14640697317018,52.0532656241697 1.14637111397893,52.0531901553911 1.14634041492267,52.0531487167397 1.14626887969244,52.0530858897885 1.14601011796227,52.0526628362951 1.14595265244406,52.0525708615681 1.14588777951534,52.0524368248362 1.14581887548147,52.052370331529 1.1457311896477,52.0522026471385 1.14564635485836,52.052094319456 1.14549784719639,52.0518707155681 1.14519395001768,52.0514281853329 1.1451387492983,52.0513478382497 1.14513524376548,52.0513407385237</coordinates></LinearRing></outerBoundaryIs></Polygon>
  </Placemark>
