  <Placemark>
	<Style><LineStyle><color>ff0000ff</color></LineStyle><PolyStyle><fill>0</fill></PolyStyle></Style>
	<ExtendedData><SchemaData schemaUrl="#Wards__December_2019__Boundaries_EW_BFE">
		<SimpleData name="objectid">914</SimpleData>
		<SimpleData name="wd19cd">E05001251</SimpleData>
		<SimpleData name="wd19nm">Norton</SimpleData>
		<SimpleData name="wd19nmw"></SimpleData>
		<SimpleData name="bng_e">389380</SimpleData>
		<SimpleData name="bng_n">282503</SimpleData>
		<SimpleData name="long">-2.15765</SimpleData>
		<SimpleData name="lat">52.440399</SimpleData>
		<SimpleData name="st_areashape">5693762.37502057</SimpleData>
		<SimpleData name="st_lengthshape">10572.1546510966</SimpleData>
	</SchemaData></ExtendedData>
      <Polygon><outerBoundaryIs><LinearRing><coordinates>-2.17492345032422,52.4585783929928 -2.17505649731922,52.4583462308822 -2.17560993813051,52.4576406163236 -2.17572354637167,52.45734287414 -2.17596892878349,52.4568624011139 -2.17614951600135,52.4563830120273 -2.17631298201787,52.4560537389212 -2.17634944870591,52.4559789992189 -2.1764170765994,52.4555941469395 -2.17648842038757,52.4550159689054 -2.17648315747155,52.4548218475081 -2.17646961636199,52.4547426891469 -2.17642032184009,52.4545522285243 -2.1763416030747,52.4543761022587 -2.17625995368181,52.4541955770002 -2.17601716804999,52.4538299698151 -2.1757330227331,52.4534366534513 -2.1753693989844,52.4530093012314 -2.17524226198346,52.4524925328259 -2.17510634818073,52.4519956388667 -2.17506016440313,52.4518527166674 -2.17471761180494,52.450796031481 -2.17435458500061,52.4494345218661 -2.17408292664479,52.4488119128328 -2.1737730869856,52.4474854640916 -2.17309474714524,52.445575190295 -2.17293226399514,52.4450342042494 -2.17257105425769,52.4440808954504 -2.17233865027827,52.4433683507743 -2.17219376782865,52.4427949837766 -2.17194567908129,52.4421633478568 -2.17178913970629,52.4416467077198 -2.17126308205039,52.4414298848692 -2.17099679787774,52.4406661571816 -2.17097780006528,52.440301114181 -2.17097620638453,52.4402651671778 -2.17077603107097,52.439877109199 -2.17053039596204,52.4394945078252 -2.17031833453552,52.4390731231258 -2.16983633294503,52.4384103630848 -2.16951791984852,52.4378633944205 -2.16945133137219,52.4377681336587 -2.16927536097483,52.4375184443714 -2.16905338562213,52.4371627698365 -2.16873640206777,52.4366041135997 -2.16835915977136,52.4360481486473 -2.16825555978053,52.4358819385432 -2.16815936319903,52.435716705811 -2.16812125898153,52.4353589695579 -2.16792672162185,52.4352620919354 -2.16778977276576,52.4352236410813 -2.16738237722272,52.4344484218231 -2.16715539263225,52.4339461646491 -2.16704772476888,52.4338564418307 -2.16687469763185,52.4336076443411 -2.16662287694747,52.4331423583959 -2.16636950388713,52.4326500221386 -2.16599821178353,52.4321120144512 -2.16573343663575,52.4317123542086 -2.16547885953673,52.4312821210055 -2.16517478091693,52.4309741861398 -2.16489064605783,52.4305169410553 -2.16485128257998,52.4302041413132 -2.1636326544225,52.4299666793728 -2.16227697465045,52.4296863436349 -2.15870355299838,52.4290078836246 -2.15874153466737,52.4289134640516 -2.15799235328482,52.4287706696364 -2.15665611532887,52.4285153179821 -2.15524625982285,52.4282861129839 -2.15177743201892,52.4275615606235 -2.14848495056288,52.4268159220084 -2.14771827984457,52.4266802734592 -2.14757264719923,52.4266427081428 -2.14705882801057,52.4264787890863 -2.14660255763756,52.4263733044467 -2.14634352170921,52.4263259919858 -2.14582567691156,52.4262628212273 -2.14510929687385,52.4261872199473 -2.14426464290336,52.426039962263 -2.14404400433408,52.4260159647662 -2.14393802242655,52.4260142968737 -2.14385279522802,52.4260188939371 -2.14364989530307,52.4260434077163 -2.14357790486549,52.4260542797088 -2.14318620127387,52.4268278571092 -2.14308859009184,52.4270913978609 -2.14276387385064,52.4281130363572 -2.14260543059472,52.4286930984499 -2.14237675007446,52.4298333446356 -2.14217317148268,52.4310149005802 -2.14206459553192,52.4315705458136 -2.14193178242335,52.4323600740161 -2.14179446384777,52.4331072760266 -2.14155711298366,52.4343194279313 -2.14128239569378,52.4357986406682 -2.14127653881289,52.4358256096126 -2.14116175405558,52.4362671194582 -2.14113254341191,52.4363490299722 -2.14102761077867,52.4366476280878 -2.14069313176574,52.4373815819266 -2.14059797345904,52.437550658814 -2.14038454501472,52.4379456404699 -2.14013262864074,52.4383288940576 -2.14039119287561,52.4386675031041 -2.14045628844025,52.4387707820263 -2.14048295680206,52.4388427395844 -2.14053055471963,52.4390125455301 -2.14063221331036,52.4395158998947 -2.14077223348685,52.4400676510635 -2.14083220163668,52.4404272570448 -2.14077696587313,52.4406421228144 -2.14061787311946,52.4410397360137 -2.14057545409563,52.4411269643421 -2.14015717884043,52.4418807874414 -2.13959249888224,52.4429108764138 -2.13918408598677,52.4435712150133 -2.13898663764587,52.4439301347971 -2.13891948371877,52.4441009751416 -2.13891660173744,52.4441099658284 -2.13889624117373,52.4441936623482 -2.13887324551659,52.4443653497384 -2.13887795804706,52.4444759795709 -2.13890629405694,52.4445766045348 -2.13904364322275,52.4447418121331 -2.13961627813114,52.4453434736681 -2.13985832223453,52.4455472917343 -2.14008411363337,52.4457897747532 -2.14028827076428,52.4461338402723 -2.14037734257123,52.4463737888597 -2.14047115176067,52.4467305674716 -2.14054428347093,52.4470693959968 -2.14055495475781,52.4476429608991 -2.14056464928978,52.4484061608434 -2.14057072449659,52.4484474949807 -2.14070619260765,52.4484724985279 -2.14156893703962,52.4486450153201 -2.14186632811262,52.4486967853156 -2.14253189133013,52.448854163262 -2.14309016314494,52.4490333270116 -2.14312100748653,52.4490422769506 -2.14353492637964,52.4491496242115 -2.14393682754558,52.4492166304012 -2.14432980607842,52.4492628855427 -2.14464329311603,52.4493002494124 -2.14531609710517,52.4494027791871 -2.14589183615515,52.4495387688779 -2.14599346085218,52.4495629091506 -2.14635866822452,52.4496478380249 -2.14706126088034,52.4498771337627 -2.14770057466708,52.4500830468554 -2.14849438310928,52.4503032318513 -2.1488242053016,52.4503603367005 -2.14921868470788,52.4504155610301 -2.14958077405595,52.4504349657726 -2.15048285647673,52.4504517951405 -2.15068307668218,52.4504991735064 -2.15088921442886,52.4505384556802 -2.1510099821035,52.45055357992 -2.15125276659915,52.4505595606379 -2.1522900830094,52.4505267730393 -2.15250497329019,52.4505705344567 -2.15308568125534,52.4508332052768 -2.15340397496716,52.4509568187283 -2.15436431242157,52.4512531431519 -2.15540712675798,52.4515385652388 -2.15643664966814,52.4518015279478 -2.15746620095929,52.4520689748854 -2.1579978028414,52.452190495573 -2.15807584819002,52.4521993785675 -2.15828341839757,52.4522278608044 -2.15853219607608,52.452243704142 -2.15928727476464,52.4522939180352 -2.16028087595025,52.4523753499551 -2.16125971454114,52.4524665891733 -2.16183081888464,52.4525035561882 -2.16196480296634,52.4525141580535 -2.16224589639457,52.4525407346242 -2.1624741433523,52.4525817635502 -2.16246838172697,52.4525988479687 -2.16234907526658,52.452984751974 -2.16225638057784,52.4529848791951 -2.16223533134574,52.4532672029927 -2.16221084889581,52.4534065419806 -2.16206081580108,52.4542500372241 -2.16195255625432,52.4544074655013 -2.16156409251737,52.454818901632 -2.16155997906868,52.4548890094315 -2.16143821948961,52.4550051133641 -2.16116387082969,52.4552356556551 -2.16105251230827,52.4553769097936 -2.16104514424866,52.4553859071232 -2.16111373172924,52.4556285642074 -2.16175380798199,52.4556025257557 -2.16174967654247,52.4556672404806 -2.16167820787365,52.4558327963303 -2.16168290376521,52.4559226646707 -2.16180563897478,52.4560726764577 -2.16177186097623,52.4560933933534 -2.16176738086203,52.4560960955799 -2.16185776579961,52.4562586449451 -2.16137102672952,52.4563446897874 -2.16139468719514,52.456378001385 -2.16167273692198,52.4567605755314 -2.16250212561718,52.4566038662374 -2.16283604804981,52.4565701539073 -2.16336445872454,52.4565640330554 -2.1645315549508,52.4566118459006 -2.16485548545906,52.4566320655463 -2.16517336875447,52.4566576858483 -2.16567847869606,52.4567154871801 -2.16653247152885,52.4568455049421 -2.16765600345565,52.4570174641965 -2.16739593434398,52.4575212183118 -2.17492345032422,52.4585783929928</coordinates></LinearRing></outerBoundaryIs></Polygon>
  </Placemark>
