  <Placemark>
	<Style><LineStyle><color>ff0000ff</color></LineStyle><PolyStyle><fill>0</fill></PolyStyle></Style>
	<ExtendedData><SchemaData schemaUrl="#Wards__December_2019__Boundaries_EW_BFE">
		<SimpleData name="objectid">1549</SimpleData>
		<SimpleData name="wd19cd">E05003233</SimpleData>
		<SimpleData name="wd19nm">Ullswater</SimpleData>
		<SimpleData name="wd19nmw"></SimpleData>
		<SimpleData name="bng_e">339666</SimpleData>
		<SimpleData name="bng_n">518480</SimpleData>
		<SimpleData name="long">-2.93445</SimpleData>
		<SimpleData name="lat">54.557949</SimpleData>
		<SimpleData name="st_areashape">158125788.079401</SimpleData>
		<SimpleData name="st_lengthshape">76437.7446185839</SimpleData>
	</SchemaData></ExtendedData>
      <Polygon><outerBoundaryIs><LinearRing><coordinates>-2.87753262543814,54.481154928934 -2.87715188059663,54.4811729690824 -2.87561766303319,54.4811005457371 -2.87482648361879,54.4814145447411 -2.87406394186372,54.4816995801214 -2.87317475656749,54.4820556072598 -2.87283680439838,54.4822009963225 -2.87188460019598,54.483219819711 -2.87086473612613,54.4842552935011 -2.86996641990034,54.4852036303633 -2.8689387316072,54.4863066199425 -2.86796166155223,54.487326486674 -2.86724179849694,54.4881018211968 -2.86636843476018,54.4889987353366 -2.86546084015929,54.4900243679983 -2.86534293744356,54.49014300161 -2.8651358077504,54.4903520302144 -2.86499705385067,54.4909416968511 -2.86485755223457,54.4914298427389 -2.86469901459196,54.4917401392006 -2.86467054509123,54.4917843676739 -2.86463138378231,54.4918286724624 -2.8645525531638,54.4918993156926 -2.86446293986149,54.4919656340993 -2.86399651174045,54.4922537821626 -2.86385558341337,54.4923797651952 -2.86378019856659,54.4924629617066 -2.86371126408779,54.4925622853561 -2.86364436919269,54.4926859423993 -2.8636091680825,54.4927733442686 -2.86353873381421,54.4931638687751 -2.86345494375417,54.4939535831691 -2.86345171367242,54.4940901723996 -2.86344749894399,54.4943310790009 -2.86337818462475,54.4949984105033 -2.86338760876301,54.4951556633328 -2.8634210575779,54.4952749193554 -2.8634953207205,54.4954281148941 -2.86390849743206,54.4960596530159 -2.86402357698764,54.4962466078293 -2.86421867971981,54.496636131379 -2.86477822151296,54.4976145023819 -2.86517686208924,54.498357549267 -2.86514932086359,54.4985905370451 -2.86507641155458,54.4987914149718 -2.86504377384341,54.4988555292864 -2.86498660903092,54.4989278150299 -2.86480952729584,54.4990970936604 -2.86465870537044,54.4992680714296 -2.86451437145076,54.4996016232673 -2.86453545103642,54.4996472943398 -2.86456264143098,54.4996929207896 -2.86473964033289,54.4998813191118 -2.86508458141971,54.5002751591049 -2.86566411651714,54.500883037699 -2.86656441113881,54.5017627331007 -2.86724977983235,54.5023339071621 -2.8674657034782,54.5024653283279 -2.86767658991833,54.5026534788355 -2.86778596068638,54.5027856653591 -2.86784553752998,54.502899340903 -2.86817034549737,54.503217846337 -2.86877814112878,54.5038398787953 -2.8698484160915,54.5050077153949 -2.87108174644094,54.5064332114315 -2.87174074443117,54.5071411120631 -2.8739611034207,54.5094320307068 -2.87649129558118,54.5121152627393 -2.87804420923139,54.5137297393019 -2.87906814776051,54.5147315273661 -2.88061208580213,54.5148416624043 -2.88141013561745,54.5148834600091 -2.88221733706307,54.5149242868031 -2.88445297009465,54.5150157529526 -2.88584636638042,54.5150954766939 -2.88688079500975,54.5151426916688 -2.88781680013922,54.5152085893083 -2.88926949130097,54.5152383328274 -2.89088924514101,54.5153540676452 -2.89174756262958,54.5153962498175 -2.89206026395322,54.5155026545817 -2.89258461961071,54.5156722721362 -2.89358646068652,54.5160692607218 -2.89405212057829,54.5161691372697 -2.89590194658227,54.5154993768605 -2.89592373137347,54.5155055044767 -2.89622796547669,54.5156434963356 -2.89644522252854,54.5157586837384 -2.89656409888813,54.5158305766202 -2.89668625920375,54.5159070266551 -2.89714026763382,54.5162478540986 -2.89725726466378,54.5163035878927 -2.89729964287131,54.5163311251479 -2.89746637300774,54.5164709450992 -2.89771395504334,54.5165572431087 -2.89798469184128,54.5167178521659 -2.89812314206856,54.5167644411825 -2.89818087176103,54.5167891687371 -2.89822484271677,54.5168194789267 -2.89825963208958,54.5168551579982 -2.89828368782432,54.516900800946 -2.8983454290239,54.5169632337896 -2.89845929407913,54.5170153957334 -2.89847707915578,54.5170538964714 -2.89851667991142,54.517094033252 -2.89855247624637,54.5171117358561 -2.89883700201082,54.5171923671106 -2.89892112574054,54.5172240849044 -2.89900236903386,54.5172639107108 -2.89904617149142,54.5172923354579 -2.89914320996024,54.5174191946298 -2.89929546244391,54.5176706169732 -2.89932891765795,54.5177845621242 -2.8993076181279,54.5180093345753 -2.8993219473335,54.518099164025 -2.89937028654937,54.5181949386784 -2.89940033595885,54.518223465702 -2.89943945676511,54.5182474324973 -2.89948317008746,54.518265974593 -2.8996555912518,54.5183105114516 -2.89978481932867,54.518354472011 -2.89993991038849,54.5183812585388 -2.89999857022701,54.5183844154411 -2.9000417900731,54.5183804994466 -2.90014017797625,54.5183599109935 -2.90020331315958,54.5183522525694 -2.90027439533983,54.5183526215136 -2.90035500985498,54.5183637003411 -2.90043729385954,54.5183811457445 -2.90059307378226,54.518439282448 -2.90089583408273,54.5185780824594 -2.90103516559676,54.5186641942342 -2.90201718176032,54.5194145331983 -2.90215906324725,54.5195410550805 -2.90222628615779,54.5195800847312 -2.90233198657189,54.5196773170454 -2.90235286086058,54.519711302369 -2.90238254504416,54.5197982307473 -2.90243066498983,54.519877834364 -2.90246984688082,54.5199044949695 -2.90262407108726,54.5199609340128 -2.90290547470393,54.5201124669754 -2.90309717410313,54.5202566732453 -2.90313616011538,54.5202743515528 -2.9032091298281,54.5202908761262 -2.90342968659485,54.520276648302 -2.90345570399335,54.5202665705428 -2.90347394128598,54.5202502626655 -2.90348133239969,54.5202331362994 -2.90348053710081,54.520197113681 -2.90350780644946,54.5201052677871 -2.90352614278591,54.5200934500366 -2.90358775053773,54.5200858021648 -2.90370862482637,54.5201028667832 -2.90375062807834,54.5201187248906 -2.90378205077364,54.5201400526407 -2.90380759187675,54.5201775967608 -2.9038339073304,54.5203194461861 -2.90406337670281,54.5207086472958 -2.90406105415528,54.5207419081298 -2.90391137222885,54.5208220918396 -2.90385457539045,54.5208341974426 -2.9037524825822,54.5208313673764 -2.90366159924525,54.520840133058 -2.90336726749748,54.5208765657777 -2.90332128612017,54.5208939807314 -2.90329092168775,54.5209148719436 -2.9032712555316,54.5209356840462 -2.90318071898692,54.5211043720956 -2.90321867179581,54.5212137898797 -2.90329844871913,54.5213308916543 -2.90354993797219,54.521453896084 -2.90368033350232,54.5214807726932 -2.90390024261414,54.5215753517567 -2.90407671835132,54.5215893056056 -2.90445349849056,54.5217212535377 -2.90455826548759,54.52178156365 -2.90480845436049,54.5219837295081 -2.90521715786174,54.522234122896 -2.90622008945015,54.5227308168778 -2.90680237589714,54.5231452184833 -2.90697497704471,54.5232598236075 -2.90721703140645,54.5234503650456 -2.90731806597861,54.52354304647 -2.90749990099888,54.5237349383586 -2.9075443609378,54.5237867145136 -2.9078131438623,54.5241998722706 -2.90790511774723,54.5243088826447 -2.90799814807999,54.5243908417898 -2.9081678032737,54.5245216397533 -2.90858242337775,54.5248240876355 -2.90882054805192,54.5249688345132 -2.90890054091257,54.5250257342404 -2.9089526731292,54.5250729594871 -2.9092454949823,54.5253915951482 -2.90939057710105,54.5255225763647 -2.9095085444935,54.5256143196712 -2.90977506132629,54.5257866131168 -2.90989873429531,54.5259286267137 -2.91004376301391,54.5261314840526 -2.91041641633352,54.5264873397153 -2.91082017772285,54.5268554491522 -2.910820197729,54.5268563477158 -2.9109773889157,54.5270501278075 -2.91112996654371,54.5272368444465 -2.91135761320335,54.5274706130009 -2.91143810160275,54.5275436797043 -2.91195649674101,54.5279953745125 -2.91225102008802,54.5283139901797 -2.91250553703222,54.5286437790708 -2.91283841045362,54.5291561702692 -2.9131653035272,54.5296058036 -2.91344449633955,54.5301383643027 -2.91365840097929,54.530514188931 -2.91461910058032,54.5319457994747 -2.91514470867339,54.5327156601023 -2.91560351682682,54.5336027353179 -2.91571237553994,54.533911967628 -2.9158140731977,54.534242816964 -2.91597790719768,54.5346568420963 -2.91639055905122,54.5358310510548 -2.91690103000408,54.5376443071805 -2.91732289155069,54.5390844757304 -2.91745130643314,54.5395768434441 -2.91773881237651,54.5403323289866 -2.91794808376552,54.5408439382683 -2.91814680579168,54.5411578764626 -2.91820193371372,54.5414108222224 -2.91838627592339,54.5418390650365 -2.91855227068108,54.5421424727316 -2.91869107488258,54.5424721415925 -2.9189004091432,54.5429117862443 -2.91915160171114,54.5433592879808 -2.91942547662368,54.543993496479 -2.91943852459118,54.5440239447382 -2.92005819947707,54.5452531792494 -2.92050991267336,54.5460234973709 -2.92108550950981,54.547143449857 -2.92141716605155,54.5477260010298 -2.92133337923097,54.5479898887395 -2.92161924399424,54.5485988448059 -2.92197658253993,54.5492962922707 -2.92252105056328,54.5504056043049 -2.92255627295831,54.550661487515 -2.92258189983714,54.5515258848747 -2.92257415763732,54.5520696049833 -2.92258794100218,54.5535047968514 -2.9226059785652,54.5536205610575 -2.92260710800843,54.553738340673 -2.92259132205766,54.5538579569075 -2.92255666431528,54.5539660373246 -2.92251543850994,54.5540598817581 -2.92229769300153,54.554415627155 -2.92210581270736,54.5548160983851 -2.92177972717446,54.5553767108714 -2.92139462201639,54.5559889829975 -2.92132553961319,54.5560802549738 -2.92116742676998,54.5562657340867 -2.92081335101066,54.5570224214572 -2.92074835934959,54.5571595721818 -2.92061593795076,54.5573878919492 -2.92053509678547,54.5575062954551 -2.92044956330504,54.5576201529381 -2.92028067825325,54.557814698201 -2.92010009202536,54.557965216741 -2.91997526366939,54.5580497240314 -2.91976595116461,54.5581646115123 -2.91928361987776,54.5583794179331 -2.91933029809571,54.5587314407463 -2.91949068217232,54.5591957157049 -2.91963394826267,54.5597886906838 -2.91998065481348,54.5598013275562 -2.92056287065394,54.5598373280135 -2.92193128796888,54.5598969837497 -2.92234327641057,54.5598588030975 -2.9224761970681,54.5598559918648 -2.9225659372267,54.5598606978586 -2.92267924886438,54.5598760059099 -2.92280355311139,54.5599038084768 -2.92310250572848,54.5599923616349 -2.92359970456138,54.5601646645923 -2.92436716998459,54.5604589784312 -2.92479332891018,54.5606355024102 -2.92509528255636,54.5607886277759 -2.92516418629823,54.5608303280019 -2.92522205597948,54.5608577375609 -2.92530931038954,54.5608877083103 -2.92540570652077,54.5609103303065 -2.9255205731719,54.5609265225282 -2.92574050564968,54.5609428082835 -2.92587705782812,54.560965123423 -2.92593315473401,54.5609817642595 -2.92601600205122,54.5610197641624 -2.92615900420048,54.5611183984126 -2.92638625979431,54.5611877260482 -2.92664988028904,54.5613537196672 -2.92693505115422,54.5615196365201 -2.92722646896522,54.5616854158366 -2.92782137124218,54.5620034915559 -2.92856596850846,54.5624444934459 -2.92912716256024,54.5628436830835 -2.92940539405554,54.5629727217001 -2.92954322163329,54.562983342244 -2.93076662599301,54.5637360998382 -2.93116132227475,54.5639504901256 -2.93052122035764,54.5645000647983 -2.92977274663193,54.5649839835854 -2.92949584487008,54.565250350193 -2.92945845941892,54.5653054432806 -2.92922823767685,54.5654545611203 -2.92903579135864,54.5655602605521 -2.92873604097696,54.5657082039263 -2.92855957105901,54.5657706539075 -2.92842724405936,54.5658004207318 -2.92826069014722,54.5658223643178 -2.92751309267084,54.5658640378143 -2.92685151593855,54.5659482642775 -2.92589049478547,54.5661272311838 -2.92548642213317,54.5661797399513 -2.92497422636163,54.5662385538097 -2.92480060853195,54.5662866014375 -2.92464268436083,54.5663462095025 -2.92449116177599,54.566418346015 -2.92362916529041,54.5668041727944 -2.92279544231286,54.5671439564337 -2.92198538924757,54.5675725917953 -2.92049877317168,54.5681815716877 -2.91992172301833,54.5684483135142 -2.91969952519773,54.5685426343197 -2.91958188964716,54.5686082185849 -2.91947999158631,54.5686817679763 -2.91939490474373,54.5687542916711 -2.91935271244331,54.5688005243651 -2.91932128953246,54.568849279677 -2.91928872121027,54.5689151157594 -2.91927311696068,54.5689754305833 -2.91926806188767,54.5690284781687 -2.91927573216437,54.569159685923 -2.9192580119081,54.5692676354688 -2.91919226167881,54.5695081147945 -2.91913586434988,54.5696145617019 -2.9190968506579,54.5696660707873 -2.91898759816366,54.5697586341066 -2.91884417542948,54.5698459756237 -2.91866186745871,54.5699282217992 -2.91846224323253,54.5699890362213 -2.91791586658369,54.5701127696381 -2.91768937995446,54.570153122857 -2.91742413647113,54.5701883782916 -2.91721884250632,54.5702070068673 -2.91675671942394,54.5702266838128 -2.91629643510568,54.5702544308316 -2.91605572503783,54.5702805128538 -2.91580951939718,54.5703344891127 -2.91570341588939,54.5703631448601 -2.91563580883057,54.5703853096514 -2.91513732000801,54.570575065081 -2.91478846785776,54.5706756372179 -2.91454078323238,54.5707377968069 -2.91432380104402,54.5707870562964 -2.91400804617107,54.5708451487044 -2.91361938743483,54.5708939070278 -2.9133414061789,54.5709130781685 -2.91321150935072,54.5709158557805 -2.9129454538427,54.5709151695295 -2.91268062679707,54.5709009962392 -2.91234110538466,54.5708658230097 -2.91135924941945,54.570679069801 -2.9110522270536,54.5706427493021 -2.91084628677156,54.5706326210115 -2.91074255859353,54.5706307070597 -2.91013963801381,54.5706451298392 -2.90991878985031,54.5706584716629 -2.90967801317184,54.5706818462107 -2.90947440412507,54.5707076359901 -2.90932804814685,54.5707329957893 -2.90911249115448,54.5707778323666 -2.90881853982963,54.5708474261117 -2.90857721093574,54.5709148272132 -2.90815483667061,54.5710536679142 -2.90756265132059,54.5712702410773 -2.90689606344329,54.5715538546863 -2.9064303101174,54.5716867254005 -2.90576531707574,54.5718301612312 -2.90474022045389,54.5719249858347 -2.90364401292197,54.5720860105291 -2.9022526308165,54.5722626153281 -2.90117531141486,54.5724423454557 -2.90061948509314,54.5725578956821 -2.9000667361645,54.572674319159 -2.89928036157481,54.5728617493492 -2.89872886243051,54.5731049304296 -2.89795274871961,54.5733363002466 -2.89713774857042,54.5735570827468 -2.89595999042472,54.5739576343846 -2.89496740878441,54.5742651617773 -2.89364419486663,54.5745894993619 -2.89328828198937,54.5746569090277 -2.89289185934275,54.5747092523624 -2.89253697053775,54.5747478115354 -2.89119981368232,54.5748672873232 -2.89062434604686,54.5749389118052 -2.89042391231846,54.574965634866 -2.89029900240702,54.5749872198238 -2.8900603261596,54.5750383921711 -2.88988351078059,54.5750837182464 -2.88971286460677,54.575137084461 -2.88948569106533,54.575218719481 -2.88841639687357,54.5754863265362 -2.88756383804986,54.575691238371 -2.88691662721517,54.5758783756726 -2.88591443499901,54.5761068342715 -2.8856337112487,54.5761430323853 -2.88546536653776,54.5761559460786 -2.88522429075539,54.5761675946486 -2.88437016446212,54.5763015167127 -2.88408175610514,54.5763422603001 -2.88381368119615,54.5763972295459 -2.88365977963983,54.5764351912587 -2.88350912554897,54.5764758242967 -2.88319872758239,54.5765733295453 -2.88255646462847,54.5768494454787 -2.88203007556958,54.5771166259142 -2.88160435049967,54.577249198732 -2.88104250057518,54.5773808766322 -2.88043385755449,54.5775668894418 -2.87911503481353,54.5781767482644 -2.8787488729771,54.5784166932611 -2.87867311076529,54.5784882228185 -2.8785544104786,54.5785799197227 -2.87848719381235,54.5786217374747 -2.87831122564505,54.5787137603751 -2.8780671425792,54.5787999885171 -2.877985581092,54.5788213349348 -2.87779757349928,54.5788577402159 -2.87751988459228,54.5788938974534 -2.87739791207596,54.5789046658983 -2.87705320424335,54.5789206442165 -2.87639085647283,54.5788409922449 -2.87611305806085,54.5788006878008 -2.87588673233731,54.5787753742859 -2.87566039557074,54.5787554500345 -2.8754728955516,54.5787442295049 -2.87523460441762,54.5787378690812 -2.87500869155947,54.5787377078202 -2.87468564586188,54.5787526238974 -2.87453118842426,54.5787654210062 -2.87406047226443,54.5788182401098 -2.8739151920328,54.5788246808614 -2.87379140062444,54.5788219825591 -2.87366734631543,54.5788129959132 -2.87355412646862,54.5787976416379 -2.87343601585404,54.5787742368388 -2.87332709920152,54.5787453741113 -2.87323829695698,54.5787145694687 -2.87315395153347,54.5786774433557 -2.87308501862946,54.5786393071648 -2.87298443398916,54.5785645629029 -2.87287681291344,54.578452942901 -2.8727918349057,54.578386172452 -2.87266155213659,54.5782945712052 -2.87253924810818,54.5782180969493 -2.87229992693649,54.5780976335754 -2.87209399114842,54.5780173594653 -2.87134483183633,54.5777836811911 -2.87077375323032,54.5776278702179 -2.87057466357488,54.5775753064852 -2.87038650179615,54.577532636806 -2.87023114800817,54.5775032078268 -2.86999216234786,54.5774698878397 -2.86970839433499,54.5774359908396 -2.86948359764071,54.5774160449234 -2.8690902109569,54.5773919201858 -2.8679626095509,54.5774036147049 -2.86780471354051,54.5773984584623 -2.8676683862555,54.5773877558941 -2.86741856542932,54.5773545086362 -2.86734545032235,54.577335266614 -2.8672082234776,54.5772822530593 -2.86694837323609,54.5771430579763 -2.8667397599008,54.5770078980056 -2.86602319904817,54.5764801546431 -2.86578570344219,54.5763721532764 -2.86561573431986,54.5763086812406 -2.8654911715551,54.5762691421739 -2.86538697452974,54.576245628745 -2.86524894751918,54.5762268508294 -2.86509861453692,54.5762171443373 -2.86496406886119,54.5762181066396 -2.86482976889929,54.5762307467361 -2.8646786273869,54.576255187688 -2.86450927924491,54.5762932348198 -2.86433400033085,54.5763403094456 -2.86421411384296,54.5763771039561 -2.86411899028948,54.5764147100116 -2.86401325289568,54.5764630838224 -2.86390166529106,54.5765303669413 -2.86378284336733,54.5766174679487 -2.86369336706385,54.5766989678882 -2.86362835286667,54.5767731950397 -2.86353861872969,54.5769148934962 -2.86328888214455,54.5775430811459 -2.86310677510895,54.5778589307933 -2.86284608126397,54.5782588968918 -2.86253641698433,54.5786898487028 -2.86245630574782,54.5787802661672 -2.86238965514058,54.5788436333766 -2.86218704492351,54.5789925144295 -2.86183108995171,54.5792070864133 -2.86168879747551,54.579282761671 -2.860766675393,54.5797251688044 -2.86011371287689,54.5800111195972 -2.86002490624081,54.5800584706076 -2.85985979145103,54.5801530835826 -2.85950872369285,54.5803766888562 -2.85936553401939,54.5804828259052 -2.85925026503268,54.5805942439073 -2.85913023166573,54.5807702950951 -2.85903313308494,54.5809390861515 -2.85894164164841,54.5811500642123 -2.85879807238051,54.5815294226035 -2.85875600923524,54.5817372644644 -2.85874732381518,54.5818398404484 -2.85875293609744,54.5821795058121 -2.85873913410371,54.5825543497585 -2.8587344281126,54.5826217677131 -2.85871697891434,54.5827504604501 -2.85868940380207,54.5828405013364 -2.85863431932247,54.5829388240667 -2.85859053471579,54.5829921435464 -2.85854202808619,54.5830392972006 -2.85847493569037,54.5830882902682 -2.85838632306424,54.5831392325096 -2.85825443673211,54.5831949734327 -2.85767467779345,54.5835864088356 -2.85708160818041,54.5840795499939 -2.85651379908096,54.5845248021439 -2.85584308345863,54.5849303483102 -2.85561565911755,54.5850847834798 -2.85533551848797,54.5852988896216 -2.85520484457904,54.5854130185268 -2.85506383581065,54.5855514783193 -2.85484653725786,54.5858181468947 -2.85456186742924,54.5861149402696 -2.8541807735123,54.5866083667125 -2.85400637297317,54.5867794055233 -2.85388325242068,54.5868890768367 -2.85373269154101,54.5870105323072 -2.85357261526946,54.5871284607698 -2.85339402456588,54.5872457107616 -2.85322291132409,54.5873484430146 -2.85288148673722,54.587525239464 -2.85275109035452,54.5875800658678 -2.85259503521486,54.5876647213789 -2.85231049936015,54.5877493839794 -2.85225686081403,54.5877713245531 -2.85192423491881,54.5879237982991 -2.85175402667871,54.5879968727231 -2.85165289370753,54.58804789798 -2.85151687956432,54.5881271104202 -2.8514466711573,54.588174324822 -2.85130670201947,54.5882903113305 -2.85103531387449,54.58855915081 -2.8509370157222,54.5886667580796 -2.85081965070088,54.5888266990978 -2.85070357491489,54.5890485349452 -2.85064142197466,54.5892619948568 -2.85062590947805,54.5894850099443 -2.8506390947487,54.5895972235817 -2.85066346079145,54.5897256207565 -2.85069163255302,54.5898161662825 -2.85095555792391,54.5903760226515 -2.85128787195269,54.5908742131466 -2.85138456701495,54.59098323375 -2.85143424278183,54.5910646433908 -2.85147497867256,54.5911640847256 -2.8514905714762,54.5912448354755 -2.85149033635292,54.5913069208698 -2.85147683064107,54.5913995560071 -2.85144977620933,54.5915156466294 -2.85137920037507,54.5916923297967 -2.85105075520559,54.5920469235978 -2.85097337191379,54.5921175473901 -2.85081459424253,54.5922256696502 -2.85030809577757,54.5924987654938 -2.85017049924685,54.5925824791874 -2.84997998394391,54.592723077978 -2.84973101162269,54.5929549203885 -2.84916532339382,54.5935852916054 -2.84897461562671,54.5937906681162 -2.84849314426283,54.5942316812627 -2.84780201435611,54.5947838623857 -2.84763330071905,54.5949305928501 -2.8474222519932,54.5951280236111 -2.8472175668321,54.5953369991734 -2.8470859627363,54.5954826610724 -2.84700597190688,54.5955820501493 -2.8468681091932,54.5957951389388 -2.84678311445807,54.5959547601382 -2.84643988440188,54.5963445729624 -2.84618201929204,54.5965988414698 -2.84587640069339,54.596864313991 -2.84565413100155,54.597038459844 -2.84455482880763,54.5978450397294 -2.8438772446292,54.5984590958546 -2.84363068969185,54.5986630555682 -2.84341092452594,54.5988173245576 -2.84268253533002,54.5992223883806 -2.84091283207053,54.6002457243918 -2.84030451588805,54.6006210997108 -2.83982832474255,54.6009551249528 -2.83960249605873,54.6010330595694 -2.83926233519458,54.6011307449506 -2.83873421226665,54.6013419483564 -2.83783809880327,54.6018748266478 -2.8376029666073,54.6020346716132 -2.8373942484581,54.6022005317183 -2.83726673606502,54.6023182125867 -2.83719076895682,54.6023916025746 -2.83707292224271,54.6025325755421 -2.8369774337803,54.6027058280696 -2.83693221596271,54.6028409081079 -2.8365873178605,54.6033870344623 -2.83646824862982,54.6035432896729 -2.83633938356932,54.6036763422603 -2.836277117605,54.6037333748749 -2.83610661073855,54.603871116827 -2.83562909263638,54.6042186105258 -2.83512468502597,54.6046059100243 -2.83456941279598,54.605084211827 -2.8339121386071,54.6055686949903 -2.83340919829954,54.6058858086985 -2.83409064007897,54.6059709582807 -2.83519905920362,54.6061996938484 -2.83624044113903,54.6064018414804 -2.838808987682,54.6069331972352 -2.83917494946841,54.6070385632303 -2.83950382540464,54.6071467916358 -2.84041723085784,54.6073741388091 -2.84134128603535,54.607585142978 -2.8421564695473,54.6077035483003 -2.84301863348009,54.607846688484 -2.84383671319182,54.6080243598356 -2.84493575071904,54.6082386080954 -2.84689475547114,54.6086356864382 -2.84814992701071,54.6105492172376 -2.84941756767294,54.6125408134453 -2.85058566283421,54.614350710898 -2.85235376527765,54.6171539207638 -2.85274865869076,54.6177451937187 -2.85324056861309,54.6185361353593 -2.85396481969984,54.6196957763901 -2.8556317748731,54.6223055867632 -2.8560871551596,54.6230482582189 -2.85658852960227,54.6238337286318 -2.85689533522,54.6238432368274 -2.85720023312145,54.6238347890468 -2.85777161894453,54.6237525767582 -2.85857379612218,54.6235995445704 -2.85897678328895,54.6239858034683 -2.85917423252873,54.6242414480848 -2.85944588598084,54.6245639495839 -2.85966236214122,54.6248374279214 -2.85994425086651,54.6251302064175 -2.86014434223701,54.6253650757604 -2.86033295233534,54.6254976945217 -2.86081620806513,54.6257161752413 -2.86082892479039,54.6258042225282 -2.86078918154312,54.6260507689388 -2.86051189605565,54.6260491472681 -2.86007415721132,54.6268071325742 -2.85991359401997,54.6270536391496 -2.85983688545444,54.6271646931305 -2.85932079367673,54.6278118250596 -2.85909936214145,54.6280309108043 -2.8588723018043,54.6282859734229 -2.85864008523611,54.6285086379539 -2.85841579301604,54.6285983662229 -2.85807457656432,54.6288730151027 -2.85799294210499,54.6291872412011 -2.85798924203237,54.629381421514 -2.85837419688777,54.6295638624124 -2.8585858904406,54.6296881437791 -2.85887595928125,54.6299979372239 -2.85894270564604,54.6301529842974 -2.85898821436494,54.6303305534448 -2.85906866710843,54.6304693319243 -2.85916591515784,54.6305989169502 -2.85920338273267,54.6306858001035 -2.85923765865371,54.6307727957672 -2.8592417866997,54.6308958537708 -2.85915387073014,54.6310572997633 -2.85911030490891,54.6311232852612 -2.85906211952444,54.6311883149486 -2.85892278356393,54.6313402425799 -2.85815801750626,54.6318759286441 -2.85802219406808,54.6319766186103 -2.8578427402084,54.6321343095635 -2.85780500694405,54.6319619855064 -2.85780564678366,54.6318406911138 -2.85777929977934,54.6316934428606 -2.85763853450815,54.6313349723865 -2.857587811841,54.6311340797217 -2.85749293288639,54.630898370388 -2.85746265439411,54.6306370469462 -2.8562201867924,54.630631465855 -2.85584257285163,54.6307923516941 -2.85569885857051,54.6308823140054 -2.85482938311198,54.6314573524509 -2.85469706512204,54.6315732873724 -2.8544647129808,54.631791542739 -2.85436451252703,54.631891978044 -2.85420885049362,54.6320764486564 -2.85426055479656,54.6321057329363 -2.85448223872509,54.6321886222934 -2.85467174870223,54.6322843166269 -2.85484753488341,54.6323954708923 -2.85498438008135,54.6324951305037 -2.85514889154084,54.6325802197958 -2.85525097851208,54.632648678108 -2.85535175719427,54.6327217289617 -2.85554233349615,54.6328740165009 -2.85559895265659,54.6329851139305 -2.85564244094901,54.6332130114618 -2.85569951395077,54.6334247306725 -2.85570665926196,54.6336188342362 -2.85567994434153,54.6338184785805 -2.8556259058211,54.633976178515 -2.85557928312373,54.6340429931725 -2.85547041164624,54.6341686463121 -2.85540656204886,54.6342301913016 -2.85524359699985,54.634359012391 -2.855158859758,54.6344539478275 -2.855078796877,54.6345525330742 -2.85496837282889,54.6347563623134 -2.85489393482793,54.6349708080578 -2.8544516068268,54.6358969039726 -2.85413928833437,54.6365910900647 -2.85401286038907,54.6369155122255 -2.85395954214695,54.6371810199926 -2.85365552800713,54.6383452133349 -2.8536252584725,54.6383759736487 -2.85352430460949,54.6384413730754 -2.85337503802309,54.6384873477833 -2.85318151154961,54.6385731654244 -2.85288695861519,54.6387819727984 -2.85274456498573,54.6389366098394 -2.85265195746948,54.6391017677114 -2.85255599767995,54.6393325355064 -2.85241052661231,54.639559968013 -2.85224910481799,54.6398433058379 -2.85207205814643,54.6401186668641 -2.85194243327511,54.6403649444666 -2.8519852267784,54.6404868317885 -2.85201008792326,54.6410825061952 -2.85219666104116,54.6420733446481 -2.85222941183319,54.6423804726543 -2.85225456910516,54.6427703992999 -2.85230396990943,54.6432013948651 -2.85238447167417,54.6442388000136 -2.85239133647417,54.6444140388131 -2.85237499483477,54.6447439716907 -2.85248509437984,54.6449678978776 -2.85252144729515,54.6450808458882 -2.85247939321916,54.6452141110477 -2.85239060792387,54.6452696314317 -2.85235135452512,54.6453902995075 -2.85225489037632,54.6455977102329 -2.85222044346819,54.6457282265405 -2.85218915519917,54.6458632132096 -2.85223650046137,54.6462691565052 -2.85230964531656,54.6464366501648 -2.85233468606612,54.6465219160701 -2.85242182283626,54.6469059267677 -2.85248576618868,54.6472927949766 -2.85260110320686,54.6476200050179 -2.85266501653398,54.648011365912 -2.85275703844617,54.6482623719869 -2.85285201738166,54.6484289035888 -2.85309884952979,54.6488171783681 -2.85326671470146,54.6489920905647 -2.85389105914055,54.6495709595284 -2.85418707065779,54.6498663461099 -2.85433774643938,54.6500315849393 -2.85449244548665,54.6502362364925 -2.85459489202339,54.6504656051389 -2.8546689327523,54.6507418931268 -2.854922014615,54.6514320879989 -2.85522821470051,54.65213816823 -2.85532042513547,54.652542804725 -2.85544318397337,54.6527045556021 -2.85565554235799,54.6527030552685 -2.8558541285739,54.6527151288087 -2.85597723521454,54.6528203646187 -2.85603912734844,54.6528891072571 -2.85609651471212,54.6529623734142 -2.85618050683977,54.6531217922683 -2.85621039980002,54.6533641607631 -2.85622758395002,54.6534458874795 -2.85626200103289,54.6535327928742 -2.85635403976892,54.6537101242083 -2.8565031658306,54.6539462580709 -2.85713645890794,54.6539130268696 -2.85769427350057,54.6539063820887 -2.85798850106609,54.6538962121843 -2.85846880853821,54.6539592931056 -2.85891304926588,54.6539300878867 -2.85911932370072,54.65393671025 -2.85973856358978,54.6539763391868 -2.86022252779884,54.6539945546376 -2.86112162781842,54.6539971496351 -2.8615456370483,54.6539661913522 -2.86197634632307,54.6539559393761 -2.86283574231454,54.6539183735264 -2.86338991112225,54.6539566500274 -2.86433283549023,54.6540551316745 -2.86470977533763,54.6540704092727 -2.86475668709742,54.6540889415988 -2.8656391010261,54.6541841614065 -2.86628947785068,54.6542271281891 -2.86629389031643,54.6539242309619 -2.86632246114113,54.6535196373855 -2.86644405751071,54.6528267859087 -2.86646599500105,54.6526207959268 -2.86655390331117,54.6523802820942 -2.86657198699346,54.6522093590993 -2.86861206487473,54.652228883343 -2.86863368609198,54.6525890938064 -2.86862117156271,54.6528767750284 -2.8684679926474,54.6532499196857 -2.86843301812759,54.6533535813179 -2.86839408212894,54.6535649950031 -2.86863370601614,54.6540441224921 -2.86863827438286,54.6543298846001 -2.86860433783836,54.6546258059125 -2.86860700444454,54.6547506702093 -2.86862774417379,54.6549976838468 -2.86864749445128,54.6551206290859 -2.86875758512122,54.6553445395824 -2.86868569758693,54.655676670367 -2.86867228033327,54.6558502562316 -2.86873108187727,54.6562039106491 -2.86918400490156,54.6562213252222 -2.86973767174334,54.6562344197644 -2.87034487054431,54.6562884564696 -2.87138330331451,54.6563555589848 -2.87162844597021,54.6563681694188 -2.87177982678739,54.6561981725181 -2.87202847368713,54.6560821906041 -2.87215704676939,54.6560048966604 -2.87228083311371,54.6559249418551 -2.87241886114994,54.6557819932444 -2.87283652802185,54.6555264314475 -2.87297303584248,54.6553843019726 -2.87314341867161,54.6552366266476 -2.87322307260083,54.655119165445 -2.87318629357493,54.6548525929016 -2.87322720969078,54.6547345114175 -2.87333215415693,54.6546403166525 -2.87373559909878,54.6546634604985 -2.8742662800381,54.654690177943 -2.87441206379175,54.6546945157201 -2.87460449411187,54.6547048055267 -2.87463866842733,54.6547072538957 -2.8747582842013,54.6547189680748 -2.87487623870148,54.6547306941385 -2.87499577732662,54.6547388156341 -2.87506406808646,54.654741017356 -2.87519584709141,54.6547418614893 -2.87532754878773,54.6547391130314 -2.87535385055198,54.6547380242011 -2.87544681526482,54.6547346569308 -2.8755412562142,54.6547285837109 -2.87563399710504,54.6547207253085 -2.87572525341268,54.6547092836657 -2.87579476894565,54.6546971013941 -2.87591359186385,54.6546719842069 -2.87602910448995,54.6546414995427 -2.87614313238232,54.6546074325031 -2.87625390951988,54.6545706927754 -2.87627545667465,54.6545624512371 -2.87633548899779,54.6545431494664 -2.87639394983875,54.6545220616369 -2.87644919724292,54.6545000992352 -2.87650453102278,54.6544762498089 -2.87655508030121,54.6544498287579 -2.87658721847025,54.6544289322748 -2.876629836892,54.6543962794929 -2.87667568955212,54.6543654006827 -2.87672939543501,54.6543371602005 -2.87681219852221,54.6542952320824 -2.87683675579325,54.6542842725432 -2.87687665552116,54.6542678114876 -2.87691653741347,54.6542504527454 -2.87695342284715,54.6542304195868 -2.87698541263724,54.6542086253693 -2.87701291202718,54.6541859649643 -2.87703870940118,54.6541614305063 -2.8770614030048,54.6541352109909 -2.87768543619921,54.6543248431272 -2.87839472864214,54.65343805682 -2.87853819218934,54.6532582256631 -2.87870151772967,54.6530691760067 -2.87876806803621,54.6529968175999 -2.87884535462471,54.6529127008083 -2.8789288114379,54.6528302467113 -2.8790627765531,54.6527196640988 -2.87930542122766,54.6525408194603 -2.87942280586095,54.652455513297 -2.87959993825646,54.6523320383269 -2.8797849401294,54.6522120090539 -2.87998547998379,54.6520955512505 -2.88026587037178,54.6519487737045 -2.88054004940872,54.6517985366288 -2.88083825392031,54.6516129956907 -2.88092699652364,54.6515566458626 -2.88102784860072,54.6514930209402 -2.88112402479588,54.6514258369472 -2.88118045808365,54.6513823002667 -2.88126720575921,54.6513106022891 -2.8813477842821,54.6512372416169 -2.88315541371579,54.6518998814887 -2.88352921350246,54.6520535736857 -2.88406238498447,54.6522725863488 -2.8839740845881,54.6523433099895 -2.88503544495969,54.6527570180292 -2.88501966292052,54.652812836724 -2.88501408625527,54.6528443230662 -2.88501029005594,54.6528812766812 -2.88502652330229,54.6529871743336 -2.88503048918929,54.6530284739616 -2.88504748481293,54.6531694055315 -2.88505109113737,54.6531883363956 -2.88506467788362,54.6532430426424 -2.88507673044541,54.6532977592015 -2.88508405647117,54.6533525112031 -2.88508483830355,54.6533884427853 -2.88508143110317,54.6534432732328 -2.88507176346489,54.6534982384068 -2.88502757500989,54.6538167009586 -2.88549677845406,54.6538725682348 -2.88567020363881,54.6537202713296 -2.8858978660264,54.6535703633844 -2.88782736958607,54.6542697771057 -2.88889178749321,54.6546789369509 -2.88929827667439,54.6548350678123 -2.88938078285321,54.654856024465 -2.89008498145192,54.6554413088046 -2.89130281265611,54.6564802079148 -2.89235379581813,54.656057296617 -2.89375038112058,54.6554969694009 -2.89505887772564,54.6549426682991 -2.89569025628602,54.6546837400628 -2.89611219744791,54.6544900585132 -2.89659059485493,54.654254628852 -2.89705039880597,54.6540166388958 -2.89750674931611,54.6537670839841 -2.89880538293054,54.6530545973516 -2.89880994425413,54.6530527669891 -2.89912106441568,54.6528941279771 -2.89944314111397,54.6527398086232 -2.89949690685787,54.6527151514709 -2.89966415214305,54.6526384395694 -2.89983294929236,54.6525626146056 -2.90000812568835,54.652492132415 -2.90019106658456,54.6524259940992 -2.90044647865713,54.6523432352496 -2.90070830941058,54.6522676159453 -2.90105054240359,54.6521815139034 -2.90153007885604,54.652069143236 -2.90219824537742,54.6519401806792 -2.9030384119598,54.6518054400854 -2.90307089333607,54.6518007061224 -2.90341843439807,54.6517468120565 -2.90376760890318,54.6516974872878 -2.90385719061603,54.6516860368881 -2.90397925344144,54.6516698522162 -2.90410297582077,54.6516536550296 -2.90422665090166,54.6516410519864 -2.90435195987329,54.6516329283358 -2.9044651018129,54.651629388059 -2.90459058893528,54.6516293493686 -2.90471613753614,54.651632005302 -2.90484189312654,54.6516382525772 -2.90537080074869,54.6516549638883 -2.9065001026248,54.6517022183099 -2.90682246117115,54.6516998046009 -2.90684514196055,54.6517427599613 -2.90698080936468,54.6518496476655 -2.90698045842072,54.6519026585621 -2.90697078019998,54.6519557393215 -2.90691262884541,54.6520585974866 -2.90679278148443,54.6521054062451 -2.90674365647447,54.6521947206597 -2.90673305748813,54.6522810504563 -2.90694516103146,54.6521995007017 -2.90698604697743,54.6523654070905 -2.9070811886634,54.6524600190626 -2.90693406706041,54.6525329967215 -2.90692188261635,54.6526112527658 -2.90693135128473,54.6526920427448 -2.90675373286329,54.6527213145421 -2.90662956377349,54.6527806429784 -2.90670879508704,54.6528609097206 -2.90682708965718,54.6529507678242 -2.90684996275263,54.6530710776838 -2.90675861586322,54.6532155130442 -2.90673582181324,54.6532363485289 -2.90665773147444,54.6532818549672 -2.90660707258293,54.6533712706566 -2.90662441585906,54.6534555947084 -2.90668599375339,54.6535063453935 -2.9068124563278,54.6535440319041 -2.90696455135083,54.653556368882 -2.90710951133991,54.6534492665439 -2.90730219370931,54.6534020025557 -2.9074435884056,54.6534216069394 -2.90770499201733,54.6534645703404 -2.90782167991444,54.6534879534029 -2.90803269716063,54.6535636372968 -2.90825721289279,54.6536257435125 -2.90867003925421,54.6537880501498 -2.90895383118132,54.6538604920127 -2.90910096023233,54.65392497405 -2.9091794911872,54.6540421704058 -2.90926999205128,54.6541403204652 -2.90941932616711,54.6542290433829 -2.9098515945003,54.6544316309147 -2.91068154741245,54.6548783883913 -2.91095373753296,54.6549230602199 -2.91124852761416,54.6549325226952 -2.91154717262661,54.6549087123669 -2.91217752363621,54.6547511392202 -2.91241744369379,54.6546675729741 -2.91286998880993,54.6547306475246 -2.91373274026321,54.6547070705476 -2.9144025718848,54.6545780281722 -2.91491148525274,54.6543970998224 -2.91504812845965,54.6543358721049 -2.91533359627672,54.6541413567474 -2.91550824690519,54.65404839462 -2.91573065473786,54.6540161659408 -2.91598552667459,54.6540465826464 -2.91619409277452,54.6540863326339 -2.91626645784433,54.6540651211715 -2.91634036425087,54.6540385066714 -2.91661333836849,54.6537039252699 -2.91681392113618,54.6535936949295 -2.91712953980861,54.6535013696787 -2.91786321327257,54.6532523317163 -2.91829739415288,54.6531249642886 -2.91863713089864,54.6529975019068 -2.91884941859332,54.6529249138581 -2.91989849176802,54.6525753573666 -2.92030890406711,54.6524204001169 -2.92057554285265,54.652355481481 -2.9212821692121,54.6523528014588 -2.92185840003087,54.6523367354935 -2.92226473614037,54.6523462190167 -2.92275491935332,54.6523676404114 -2.92298602730387,54.6523703704214 -2.92426906724999,54.6523596840584 -2.92441309011842,54.6523540918006 -2.92472028023494,54.6521620837839 -2.92516281726369,54.6519259145216 -2.92602092235327,54.6514260153932 -2.92629488486151,54.6512737888314 -2.92691800730337,54.6510057739982 -2.92791560737539,54.6505056009572 -2.92891485324639,54.6499443136626 -2.92971731322212,54.6495238783376 -2.93015166984835,54.6492733775003 -2.93136056582674,54.6486628405206 -2.93136054525747,54.6486619419714 -2.93527162942312,54.6466160248908 -2.9361102425351,54.6461565447001 -2.93628895253734,54.6461102398216 -2.93653828150659,54.6461011233343 -2.93867300748166,54.6466732554089 -2.94231833377459,54.6475643204748 -2.94428561803632,54.6480612886391 -2.94815184596709,54.6491705763975 -2.94956570374654,54.6495900331744 -2.94976241275247,54.6495156255018 -2.95089115876812,54.6496047863573 -2.95148061399562,54.6496917964265 -2.95229293650625,54.6499703091029 -2.9528985709358,54.6500167547593 -2.95330939561569,54.65022384802 -2.95377482102354,54.6501761579895 -2.95406817717033,54.6501963079241 -2.95438764266042,54.6502018764693 -2.95479254216065,54.6500907794018 -2.955210144036,54.6503139850709 -2.95591655318148,54.6502383297889 -2.95599538441109,54.6502269263964 -2.95606127301634,54.6501976554705 -2.95660952732848,54.6499174099893 -2.95659628925628,54.6498815760998 -2.95629661265346,54.6498533965287 -2.95622683596697,54.649722683982 -2.9561981314775,54.6496213852939 -2.95623242561694,54.649563613192 -2.95635708642956,54.6493981223976 -2.95676488564136,54.6490740627002 -2.9570314461261,54.6488787880035 -2.95869119479899,54.6474905739321 -2.95964230257511,54.6466211527323 -2.96016663296242,54.6461802570324 -2.96035141659838,54.6460026045155 -2.96039379054337,54.645957345419 -2.96044170321061,54.6458868865621 -2.96063275278334,54.6453794515186 -2.96070455890447,54.6452062888325 -2.96092642624174,54.6447597039129 -2.96168838422942,54.6439519627878 -2.96205399002782,54.6437495107159 -2.96157580342454,54.6425994264299 -2.959480924669,54.6372138229627 -2.95914054109597,54.6364409743705 -2.95882987955226,54.6355572893241 -2.9587750130172,54.6353321220137 -2.95884708016368,54.6352300254271 -2.95889592256239,54.6351344019721 -2.95892335683612,54.6349867481942 -2.95887920400149,54.6348855731491 -2.95874711203252,54.6346735959313 -2.95857318988344,54.6345240328909 -2.95862301167096,54.6342692856603 -2.95869695638829,54.634122251234 -2.95889340649051,54.6340406431891 -2.95913386209506,54.6340540116524 -2.95932865888254,54.6341028712952 -2.96017142873565,54.6342372462395 -2.96027981384871,54.6342345889853 -2.96050156855787,54.6341753289578 -2.96060642026088,54.6341529340651 -2.96084830447938,54.6341617951262 -2.96102533159476,54.634182851235 -2.9611245142483,54.6342503460952 -2.9611616456012,54.6343785302926 -2.9612513760182,54.6345054888281 -2.9614328869778,54.6346460033512 -2.96159048057126,54.6346932675749 -2.96170806109937,54.6346851455172 -2.96190932468888,54.6345478801989 -2.96202114022637,54.634495779315 -2.96213927211168,54.6345110126899 -2.96219591045793,54.6345456023707 -2.96239749577751,54.6346868536941 -2.9626779006007,54.6349470632263 -2.96277200289793,54.6349994134023 -2.96289688460797,54.6350352564529 -2.96305652672719,54.6350393768593 -2.96318909444145,54.6350113687352 -2.96354888679699,54.6348314192192 -2.96363320020335,54.6347939115793 -2.96381872460752,54.6347744655811 -2.96391495626168,54.6347817849951 -2.96400978212827,54.6347945069062 -2.96418438646376,54.6348425309989 -2.96423879201776,54.6348528794628 -2.96429015435983,54.6348587594816 -2.96434898636041,54.6348564933504 -2.96440756520577,54.6348488387287 -2.96451522645474,54.6348156371087 -2.96466614004077,54.6347102134419 -2.96478014518566,54.6346805540779 -2.96494697820211,54.6346647594094 -2.96508578338243,54.6347005790794 -2.96512520353748,54.6347308120166 -2.96525528032096,54.6348564573336 -2.96536841501023,54.6349247361927 -2.96552012069164,54.6349874057748 -2.96570526231752,54.6350164769509 -2.96580588063527,54.635014775435 -2.96590483603409,54.6350076966259 -2.96607616255512,54.6349766798956 -2.96616811318952,54.6349381209441 -2.96619469547635,54.6348795094979 -2.96619703597266,54.6348489435649 -2.96617977062772,54.6347781028366 -2.96609200309809,54.6345999208761 -2.96608670165566,54.634575705131 -2.96610687838943,54.634510855633 -2.96624699242379,54.6343435229501 -2.96647779044995,54.6340144625066 -2.96667383796454,54.6338574636372 -2.96673481798705,54.6338165462072 -2.9669607357232,54.6338039606527 -2.96722130618169,54.6338144571249 -2.96745516375779,54.6338134859774 -2.96759119540042,54.6338025163713 -2.96764210849361,54.6337895309736 -2.96772945835676,54.6337510974651 -2.96789110708811,54.6336410013471 -2.96805045428992,54.6335040599785 -2.96823146828122,54.6333650586676 -2.96841224545449,54.6332108752434 -2.96847322282849,54.6331699569468 -2.96853126147845,54.6331344526146 -2.96865441251405,54.6331029198365 -2.96892827893901,54.6330872506483 -2.9690072670394,54.6330893135344 -2.96908346656888,54.6330976878893 -2.96934178193556,54.6331477303476 -2.96939931461428,54.6331553552885 -2.96957297691706,54.6331638474068 -2.96979910420055,54.6331602392356 -2.96993172536062,54.6331349175696 -2.97004378364387,54.6330935891198 -2.97010749981643,54.6330336905889 -2.97017963211638,54.632876781283 -2.97021567345654,54.6327650834134 -2.97030584490987,54.6327112618969 -2.97037803814327,54.632685526341 -2.9704564259795,54.6326624363139 -2.97061690458688,54.6326323996527 -2.97074395144857,54.6326358725207 -2.97078807953253,54.6326651680334 -2.97080324165375,54.6327171565053 -2.97078982549575,54.6328027074684 -2.97079404739916,54.6328511897351 -2.97081653815722,54.632948043395 -2.97083459430646,54.6329928207408 -2.97090407577448,54.6330461709106 -2.97102723447286,54.6330794139918 -2.97119685680856,54.6331112964427 -2.97140415646114,54.6331644381976 -2.97161581798092,54.6332076623345 -2.97167859140029,54.6332368069486 -2.9718614536464,54.6333737909349 -2.97197882610177,54.6334213654584 -2.97210749151845,54.6334230273801 -2.97240498425626,54.6332947639056 -2.97256033200146,54.6332476948397 -2.97271442674455,54.6332177058019 -2.97277826062751,54.633227075926 -2.9729512078003,54.6332697101684 -2.97301385370614,54.6332988551192 -2.973145772102,54.6333724560472 -2.97334724058114,54.6335074018519 -2.97353418540479,54.633611916007 -2.97372519684292,54.633699416862 -2.97382321742785,54.6337174958532 -2.97393930371489,54.6337111704146 -2.97406620707518,54.6336390815991 -2.97440104684205,54.6335824788739 -2.97457063085341,54.6336125595174 -2.97478313901591,54.63369090118 -2.97544019715314,54.6338293605782 -2.97556875788288,54.6338265279009 -2.97572019566839,54.6338082361245 -2.97581084010105,54.6337796533235 -2.97584439968242,54.6337569211961 -2.97587161546823,54.6337306462495 -2.975892529909,54.6336972350867 -2.97592028414797,54.6336241462634 -2.97592853100515,54.6335845480309 -2.97592784641894,54.6334920120598 -2.97599034627215,54.6334456871586 -2.97609020487336,54.6334125371905 -2.97623559873776,54.6334032788509 -2.97675248918259,54.6334440308702 -2.97687964681078,54.633451989093 -2.97695718645042,54.6334522619594 -2.97713044181332,54.6334436754625 -2.97723405394702,54.633433854509 -2.97745940543755,54.6333978935946 -2.97753832825322,54.6333972562044 -2.97767800101919,54.6334051125045 -2.97774170929916,54.6334144810318 -2.97780410149148,54.6334328445985 -2.9779589028326,54.6334908919791 -2.97829704141775,54.6336355961659 -2.97839530130278,54.6336635526936 -2.97846360731998,54.6336728836848 -2.97853983141411,54.6336821506226 -2.9787802693837,54.6336945814545 -2.97906134636149,54.6337237541686 -2.97928939806865,54.6337362850818 -2.97968040737314,54.6336360875344 -2.97991352344951,54.6335990705874 -2.98007454196123,54.6335968681521 -2.98021601099564,54.6336155787415 -2.98030807941357,54.6336462791103 -2.98067397904344,54.6337870680267 -2.98077215305413,54.6338060388808 -2.98082174619,54.6338074335424 -2.98087587468749,54.6338060961841 -2.98105611923384,54.6337642048766 -2.98128336520836,54.6336797052415 -2.98155696396394,54.6335893480179 -2.9816355824073,54.6335707406246 -2.98171107193396,54.6335548547025 -2.98188594673063,54.6335498422233 -2.98204448468797,54.6335719162988 -2.98220710738132,54.6336308834147 -2.98234115276566,54.6336648355564 -2.98252142417073,54.6336876304342 -2.98298791496508,54.6337620084883 -2.98311682865854,54.6338373306549 -2.98321241900298,54.6338814764514 -2.9833095002443,54.6339239043002 -2.98341719564853,54.6339562718948 -2.98355385266988,54.6339713338624 -2.98368832519496,54.6339594591714 -2.98399450815176,54.6338697303181 -2.98428283956889,54.6337496884015 -2.98435634037028,54.6337149484768 -2.98439904581151,54.6336849525473 -2.9844337664323,54.6336523254008 -2.9844608445111,54.6336152686276 -2.98457171455327,54.6333986473574 -2.98462589351347,54.633330821926 -2.98466369882705,54.6332936778726 -2.98477801984951,54.6332144922645 -2.98513201852116,54.6329896922214 -2.98527816567891,54.6328850903375 -2.98531586125349,54.6328434543181 -2.9853489146649,54.632800059545 -2.98538989917099,54.632699098649 -2.98542613552634,54.632597188704 -2.9854756944233,54.6324072103957 -2.98549765371899,54.6323540227341 -2.98556198610449,54.632257274478 -2.98560580768987,54.6322101970913 -2.98566814571842,54.6321629698071 -2.98573825101324,54.6321147805214 -2.98640767773319,54.6318037622894 -2.9868853075424,54.6315688750607 -2.98696884315979,54.6315637021715 -2.98702169486161,54.6315731543793 -2.98708244607806,54.6315870339219 -2.98734002799121,54.6316694779122 -2.98748614989488,54.6316853570033 -2.98756953684773,54.6316792852999 -2.987728706509,54.6316591189332 -2.9877996360712,54.6316449740136 -2.98786553556941,54.6316183806628 -2.98803543940354,54.6315352342123 -2.98812453440498,54.6315012643539 -2.98832421955828,54.6314295540687 -2.98853329410697,54.6313658534059 -2.98881681592815,54.6313014543542 -2.98934486023764,54.6312288560207 -2.98949742316755,54.6311997568572 -2.98975938920055,54.6311419108756 -2.98997950658406,54.6310808126408 -2.9900901597397,54.6310457662808 -2.99018047975213,54.6310045070743 -2.99050636924551,54.6308338285531 -2.99073914078265,54.6307259056454 -2.99086379240388,54.6306888566842 -2.99091005616973,54.6306794934927 -2.99119600415561,54.6306573858699 -2.99150866943341,54.6306467393228 -2.99200601929675,54.6306516487033 -2.99227909395811,54.6306673792936 -2.992564161908,54.6306668394325 -2.9926695385691,54.6306722644841 -2.99276574572802,54.6306787532391 -2.9928716671833,54.6307012438523 -2.99303070550676,54.6308068558021 -2.9930829898728,54.630855841829 -2.99330751238571,54.631101166112 -2.99337408919861,54.6311653083986 -2.9934815027631,54.6312488818308 -2.99359428036632,54.6313010549474 -2.99380008959039,54.6313550695494 -2.99404881603554,54.631393458583 -2.99452674011201,54.6314236740443 -2.99473957204644,54.6314461832915 -2.99492958438523,54.6314913413423 -2.99509530045677,54.6315510746983 -2.99522618202772,54.6316435280036 -2.99530300745509,54.6317453202608 -2.99536331470393,54.6318715073395 -2.99541446213501,54.6321245416669 -2.99543586887381,54.6321746793296 -2.99546327423655,54.6322193771586 -2.99553195813534,54.6323015597427 -2.99557308555517,54.632338058943 -2.99567279942502,54.6323623956206 -2.99582792317926,54.632370103983 -2.99594278102069,54.632381737423 -2.99643098747621,54.6324504948309 -2.99692665188329,54.6324482100686 -2.99778394688672,54.6324105989613 -2.99842764010868,54.6322516547849 -2.99873606557614,54.6321978979125 -2.99885507252361,54.6321860450543 -2.99897112972854,54.6321787980781 -2.99919606750272,54.6321895198988 -2.99946552183658,54.6321872953021 -2.99984987548999,54.6321931954051 -3.00000202933246,54.6322099074201 -3.00015013105474,54.6322437238433 -3.00096788552733,54.6325515149822 -3.00175770881685,54.6327929570728 -3.00183083479987,54.6328059182526 -3.00190387021272,54.6328151971976 -3.00198587304662,54.6328100269293 -3.00207236387358,54.6328003258844 -3.00216471188658,54.6327743149267 -3.00225378134095,54.6327448278348 -3.00240860550865,54.6326779588948 -3.00262605779786,54.6325764289841 -3.0026773173746,54.6325158076182 -3.00271939050827,54.6324659543297 -3.00275107547677,54.6323677596919 -3.00273699101785,54.6322367014124 -3.00268980335013,54.632078873948 -3.00263219003599,54.6319436833903 -3.00261419117221,54.6318404197655 -3.00271316228492,54.6314558679352 -3.00276397078515,54.6311903113204 -3.002835254673,54.6311960102145 -3.00366142759823,54.6308970759403 -3.00446086957888,54.6306541527092 -3.00451572095214,54.6306150636276 -3.00499675295562,54.6306470110009 -3.00518177690115,54.6306760226372 -3.00528270760186,54.630682372696 -3.00536300255849,54.6306754168349 -3.00539845340352,54.6306679345497 -3.00548642279772,54.6305890381438 -3.00550014356376,54.6304567605865 -3.00548654056337,54.6302213870391 -3.00549317580981,54.6301746121007 -3.00568123946634,54.6299493333822 -3.00596363936211,54.6296548979873 -3.00610248265511,54.6295674018864 -3.00634439264238,54.6294539829249 -3.0067061216912,54.6292999446533 -3.00722349083072,54.6291078638996 -3.00748408291209,54.6289960837244 -3.00760851869671,54.6289563243032 -3.0077365500909,54.6289327971357 -3.00779830400045,54.6289250961094 -3.00800864704986,54.6289143598091 -3.00775037335774,54.6286811128291 -3.00754393430406,54.6285398860641 -3.00680678304039,54.6281074792379 -3.00638355488617,54.627906957242 -3.00621809738502,54.627852627124 -3.00614036712203,54.6278442885846 -3.0059869854525,54.6278392738263 -3.00591273555648,54.6278425859659 -3.00576593192545,54.6278608766579 -3.00546558686254,54.6279298574195 -3.00537593144179,54.6279350936944 -3.0052922948141,54.6279357881377 -3.00520983658901,54.627922097746 -3.00513354484954,54.6279047621348 -3.00507874378677,54.627883653212 -3.00502704749516,54.6278589254193 -3.00490128224184,54.6277827020048 -3.0048239749173,54.6275999682918 -3.00473153344011,54.6274974116224 -3.00467009535352,54.6274556942736 -3.00459950507344,54.6274157594976 -3.00438846854387,54.6273411408668 -3.00406946379213,54.6272799957385 -3.00375230162426,54.6272314138558 -3.00367126624373,54.6272132179483 -3.00353079095127,54.627172154293 -3.00347150016599,54.6271501840519 -3.00338666765952,54.6271022808582 -3.00296674297693,54.6267184335068 -3.00268205257337,54.6265464906139 -3.00259207299702,54.6264761669581 -3.00244684130295,54.626303967339 -3.00242908518046,54.6262726682231 -3.00241036028209,54.6262072348436 -3.00240761622996,54.6260957590598 -3.00241981062935,54.6259581938417 -3.00243073701474,54.6258988050864 -3.00246121981235,54.6258193981376 -3.00245940657379,54.6257457389713 -3.00240378759146,54.6256860033672 -3.00236452561585,54.6256629680596 -3.00231749635667,54.6256408957609 -3.0021533475233,54.6255820575892 -3.0020375323513,54.6255308159668 -3.00192159112582,54.6254796642522 -3.00177564348971,54.6254027059938 -3.00168102832436,54.6253307142793 -3.00164911862948,54.6252950394648 -3.00162501670468,54.6252601088938 -3.00160014377261,54.6251938284404 -3.00165683330264,54.6247260705369 -3.00163901859365,54.6246299931813 -3.00158241216833,54.6245352244409 -3.00151589966558,54.62447378117 -3.00124589484842,54.6243268700549 -3.0010248897784,54.6242198950028 -3.00082506960505,54.624096661824 -3.00076991883488,54.62405578857 -3.00069477829029,54.6239601851358 -3.00047702583505,54.6234812193533 -3.00018705144754,54.6230926956993 -2.99996413941439,54.6227152080283 -2.99983022364547,54.622560881276 -2.99964582289111,54.6223682465553 -2.99957094465075,54.6222206198042 -2.9995210748812,54.6220825788916 -2.99950939588132,54.6219865395582 -2.99953174286511,54.6218200500583 -2.99950671105389,54.6216845900196 -2.99950164064605,54.6216028719837 -2.99950116603372,54.6215211159914 -2.99951527825125,54.6214041095656 -2.9996677905681,54.6211197449266 -2.9997167031724,54.6209639077113 -2.9997645408584,54.620894331064 -2.99985858256443,54.6208135008949 -2.99995336245304,54.6205755246913 -2.99996058500985,54.6204900212419 -2.99993698449927,54.6204129481013 -2.99986713570245,54.6203452424386 -2.99958399633773,54.6202288949249 -2.99945682024063,54.620156272002 -2.99941436254874,54.620070370011 -2.9993927180884,54.6199428778337 -2.99943936539204,54.619699908064 -2.99944006370598,54.6195982860935 -2.99933837866079,54.6194976003721 -2.99898031938094,54.6192938200337 -2.99862408508541,54.6191017949888 -2.998215490797,54.6188624914751 -2.99799415301259,54.618740328965 -2.99795848884823,54.6186084594496 -2.99794045857516,54.6185708727745 -2.99791962321393,54.6185387006344 -2.99786280111459,54.6184969411272 -2.99771682917226,54.6184801756872 -2.99748170911938,54.6184937935866 -2.99721462409532,54.6185265421049 -2.99714336817587,54.6185262314223 -2.99707053542294,54.6185241362541 -2.99689356336986,54.618508523045 -2.99682004920172,54.618478581184 -2.99674897887082,54.6184180708424 -2.99669921457991,54.6180958437947 -2.99660935052663,54.6180291099543 -2.99641681813028,54.6179462392523 -2.99618934386943,54.6178286166819 -2.99600949240116,54.6176898476641 -2.99591938645471,54.6175504297237 -2.99588386664669,54.6174293394326 -2.9958439710635,54.6170666001918 -2.9958118047353,54.6170147545364 -2.99567655176118,54.6169296147852 -2.99562231523937,54.6168680674638 -2.99557126765793,54.6168064040119 -2.99554849147891,54.6167625668051 -2.99553054728522,54.6167231816448 -2.99554073890512,54.6166961443729 -2.99555708045717,54.6166699543256 -2.99568527224993,54.616591632449 -2.99580193855385,54.6165484444662 -2.99612959673332,54.6163983105488 -2.99620578580686,54.616344674333 -2.99637124891016,54.6162085431497 -2.99642665252927,54.6161298311514 -2.9964510800919,54.6160532605969 -2.99645354543318,54.6159660898618 -2.99643529313397,54.6159141298133 -2.9964128203862,54.6158827788528 -2.99638260776992,54.6158533780228 -2.99625538513554,54.6157780560268 -2.99622211034742,54.6157486812651 -2.99619972306106,54.6157156219985 -2.99619261155359,54.6156806413411 -2.99620514148255,54.6156239351659 -2.99622274645562,54.6155815621972 -2.99628508355946,54.6154731435832 -2.99628925640619,54.6154506484792 -2.99628649827869,54.6154057478891 -2.99626527195041,54.61535740537 -2.99623954024181,54.6153180853157 -2.9961635544097,54.6152494394837 -2.99614001454029,54.6152370548052 -2.99604968781423,54.6152189306276 -2.99599352633678,54.615198728658 -2.99594642480659,54.6151730606925 -2.99591163996625,54.6151445960927 -2.99589076884253,54.61511601698 -2.99587332415455,54.6150344006063 -2.99587844177885,54.6149930291647 -2.99593294280445,54.6148774881635 -2.99596095823875,54.6148170605893 -2.99598812652866,54.6147898835458 -2.99602772108872,54.614764400756 -2.99606915096698,54.6147460907901 -2.9961508122052,54.6147283474611 -2.9963404556642,54.6146989340558 -2.99641889903679,54.614674927812 -2.9964525193152,54.6146557832994 -2.99648880572662,54.6146203554245 -2.99651857592073,54.6145742882545 -2.99653123357226,54.61451758098 -2.99647843952461,54.614259169731 -2.99648802973229,54.6141449859553 -2.99656982162108,54.6139447637968 -2.99667122540332,54.6136590270138 -2.99672596638297,54.6135534567083 -2.99675155248567,54.6134616027982 -2.99667457320447,54.6132896425575 -2.99636399230806,54.6129363195614 -2.9962689967862,54.6127897541853 -2.99603292648054,54.6126325803945 -2.99590302304734,54.6125150529424 -2.99583061440239,54.6122738730343 -2.99582172969955,54.6122290228318 -2.99582710573136,54.6121930397564 -2.99584193623104,54.6121677607954 -2.99587218366621,54.6121360657273 -2.99591793999345,54.6121068492944 -2.99599161307765,54.612081086018 -2.99607924105495,54.6120570043653 -2.99623345290937,54.6120305779616 -2.99661190350601,54.6119960155376 -2.99674181474257,54.6119886563062 -2.99681577278921,54.611974569918 -2.99688185112392,54.6119515648119 -2.99694451897236,54.6119196023829 -2.99699016654419,54.6118859827159 -2.99714074747127,54.6117112489301 -2.99716167728267,54.6116796303105 -2.99721302594236,54.6115660010204 -2.9972309917347,54.6114759173312 -2.99723817682253,54.6113887076112 -2.99722585496055,54.611328612108 -2.99718034778006,54.6112427353347 -2.99708957486373,54.611138273076 -2.99707003973615,54.6111015973771 -2.99706147871184,54.6110648303535 -2.99706138460455,54.6109983457464 -2.99709840905718,54.6109306556699 -2.99713014320345,54.6108971514838 -2.99717115591352,54.6108671639041 -2.99731303853136,54.6107805507695 -2.99739982734937,54.6107223345415 -2.99757079206699,54.6105565065035 -2.99772599247657,54.6104455248708 -2.99781332993236,54.6104097645854 -2.99785610958358,54.6103842548901 -2.99790584320939,54.6103299369287 -2.99791734423402,54.610293904127 -2.99791957173574,54.6102597443401 -2.99789689048085,54.6101520258513 -2.99790189550729,54.6101061634127 -2.99791945240484,54.6100619939984 -2.9979523641511,54.6100141039725 -2.99799004631387,54.6099733625439 -2.99808885908258,54.6099005808596 -2.99837256529534,54.6096628435546 -2.99839806553079,54.6096302882737 -2.99842016990424,54.6095841948486 -2.99842985314975,54.609536496343 -2.99841518320527,54.6094431767083 -2.99842753215018,54.6093792846629 -2.99846505556821,54.6093268637404 -2.99852222261224,54.6092634098068 -2.99866028856479,54.6091463689483 -2.99870653788111,54.6090750091275 -2.99871801583198,54.6090380777091 -2.99871937958515,54.6088385176329 -2.99873336014858,54.6087162115349 -2.99874030815354,54.6086820127585 -2.99875504751439,54.6086531401876 -2.99877619250227,54.6086304141044 -2.99880971865214,54.6086076765891 -2.99884943758363,54.6085875823036 -2.99889252297057,54.6085746481678 -2.99898045000326,54.6085631403583 -2.9990237387502,54.6085636816845 -2.99912630032549,54.6085763120606 -2.99917732965798,54.6085749919796 -2.99922820633825,54.6085673839029 -2.99926975911308,54.6085544622882 -2.99930492752782,54.6085362028687 -2.99933521891207,54.6085116944824 -2.99935772037131,54.6084818590104 -2.99937090474239,54.6084521013836 -2.99937192526422,54.6084260372853 -2.99932726285498,54.6083122112612 -2.9992908185659,54.6082783707862 -2.99924061566891,54.6082509331585 -2.99917814256181,54.6082280886317 -2.99910501981851,54.6082134186838 -2.99899016844167,54.6082044837279 -2.99877707637118,54.6081613203269 -2.99858684393331,54.6081080837851 -2.99850910534063,54.6080925528513 -2.99844974181845,54.608071479728 -2.99839468497336,54.6080386912833 -2.99835961636062,54.6079984600672 -2.99834464881416,54.6079554567096 -2.99834228013213,54.6079213347994 -2.99834931798172,54.6078907292582 -2.99838493882159,54.6078284416881 -2.99873346978745,54.607522693397 -2.99875006475411,54.607501892165 -2.99884802338284,54.6073320829569 -2.99887259350135,54.6072564092576 -2.99888494120473,54.6071925162102 -2.99888219782442,54.6071431236591 -2.99886664078476,54.6070812584054 -2.99884029328896,54.6070166961917 -2.99872611585954,54.6068424386499 -2.99870154550035,54.6067878348279 -2.99875870840686,54.606594104135 -2.99896832825281,54.6061106177183 -2.99898518144811,54.6060430943693 -2.99899562348128,54.6059639432878 -2.9989875153934,54.6058831488157 -2.99895913128024,54.605797939167 -2.99885394819046,54.605615520781 -2.99882876202213,54.6055357659922 -2.99882269084575,54.6054755290833 -2.9988264702631,54.6054422551373 -2.99884107119752,54.6054026017209 -2.99888274938937,54.6053375687094 -2.9990871849277,54.6051480124725 -2.99928530352669,54.6050861793027 -2.99935318798861,54.6050748367128 -2.99938221037237,54.6050611207047 -2.99939889210301,54.6050439117382 -2.99940761889853,54.6050249719328 -2.99940546979438,54.6049998327153 -2.99937127133918,54.6049273395305 -2.999331550404,54.6048899321375 -2.99924503897542,54.6048339535491 -2.99910368452056,54.6046859764328 -2.9989825087418,54.6044811386023 -2.99895886424728,54.6044642635238 -2.99893075801915,54.6044528157977 -2.99888113252024,54.6044487327779 -2.99868071729242,54.6044845285641 -2.99860997016345,54.6045039801888 -2.9984228770154,54.6045729991214 -2.99836739439609,54.6045851366858 -2.99829325380384,54.6045911389196 -2.9982219562752,54.6045881331501 -2.99816130773417,54.6045769537092 -2.99810041349504,54.6045558031696 -2.99804877326052,54.6045319708802 -2.9980109771084,54.6045053282229 -2.99797915322639,54.6044723479524 -2.99795981200581,54.6044383660017 -2.99795423189177,54.6044033718325 -2.99796096152725,54.6043601903534 -2.99798299988623,54.6043114911897 -2.99802201120451,54.6042626520268 -2.99806906802851,54.6042244394575 -2.99810716434818,54.6042007647833 -2.99819461663506,54.604165003175 -2.99845245705512,54.6040766238632 -2.99858568195169,54.6040180225485 -2.9986569884133,54.6038286668876 -2.99877403626916,54.603552681652 -2.99877744133813,54.6035041361398 -2.99876525194435,54.6034494310057 -2.99873939504666,54.6034047210107 -2.9986441964635,54.6033065855299 -2.99862943365412,54.6032770585944 -2.99862242731401,54.6032411774994 -2.99862460996755,54.6032052214643 -2.99865729542193,54.6031483485072 -2.99869361601351,54.6031148050716 -2.99875149917206,54.6030756940188 -2.99943368825572,54.6027411331188 -2.99981506113942,54.6025743730777 -2.99992166214368,54.6025025130459 -2.99996856306231,54.6024581007358 -3.00003130832546,54.6023623447768 -3.00004422363345,54.6023217174286 -3.00009056961391,54.6020049856986 -3.00011143603108,54.601908678005 -3.0001832188998,54.6017391737488 -3.00022331427406,54.6016722659954 -3.00024352972572,54.6016119016879 -3.00025438709924,54.6015498181955 -3.00025175272045,54.6015049165317 -3.00012989007627,54.6010169803794 -3.00013798481398,54.6009099962813 -3.00015380649409,54.6008577540879 -3.00016716425698,54.6008351828479 -3.00020199501276,54.6008034486962 -3.00025381552723,54.6007723820343 -3.00055605680753,54.6006584740875 -3.00059410424854,54.6006330024681 -3.00062101754854,54.6005959431415 -3.00062188663167,54.6005689815254 -3.00060532278479,54.6005232972334 -3.00056671070425,54.6004633294593 -3.00052845371219,54.6004178236451 -3.000490592143,54.6003884879258 -3.00038708248336,54.60033633454 -3.00033830912884,54.6003043928285 -3.00030512707603,54.6002732209217 -3.00028106568367,54.6002392783419 -3.0002660109154,54.6001926828059 -3.00025227460001,54.6000750071669 -3.0002697537941,54.5999706411607 -3.00034940052702,54.5997470729042 -3.00054673667141,54.5993994411954 -3.00052477651014,54.5992585634401 -3.00053443023143,54.5992098760815 -3.00055526364235,54.5991746634232 -3.00059905949897,54.5991338703191 -3.00065558008491,54.5991019565158 -3.00079515064682,54.599047792676 -3.00085153874401,54.5990104893253 -3.00088608156964,54.5989670773796 -3.00090212677291,54.5989292089931 -3.00090293008197,54.5988995525168 -3.00086111503471,54.5987713277348 -3.00077995005782,54.5986830504966 -3.00075223237065,54.5986248797108 -3.00075590012618,54.5985871137145 -3.00077519873367,54.598551823837 -3.00080237720653,54.5985255432044 -3.00083912801265,54.5985045748372 -3.00089128004547,54.5984870721612 -3.00094513890519,54.5984767442434 -3.00138134037708,54.5984605563995 -3.00142337447072,54.598472787051 -3.00148696696865,54.5984794477833 -3.00155177747222,54.5984681301927 -3.00158077109051,54.5984535141755 -3.00159900373675,54.5984371915834 -3.00161353958778,54.5984002334137 -3.00159710719758,54.5983599385118 -3.00166609240609,54.598019656571 -3.00186549621561,54.5978193549766 -3.0019219578239,54.597722750815 -3.00193336440315,54.5976831241394 -3.00193583754839,54.5975967604518 -3.00192718924647,54.5975564011277 -3.00189430953452,54.5974803042456 -3.00188012363826,54.5974067469342 -3.00186047599734,54.5973601894082 -3.00180951129416,54.5973012227641 -3.00169425649152,54.5972123296936 -3.00166068502965,54.5971703801371 -3.00163801778156,54.5971256441234 -3.00163197472359,54.5970717859251 -3.00163710200368,54.5970259219791 -3.0016503677277,54.5969996664447 -3.00169264635586,54.5969543936459 -3.00174146891514,54.5969261361373 -3.00179652518998,54.5969023206195 -3.00199657021551,54.5968530451262 -3.00216076529325,54.5968561779311 -3.00232329990177,54.5968593233703 -3.00254059186721,54.5968835788847 -3.00267324423967,54.5969274033038 -3.00279902521234,54.5969461265182 -3.00285331913191,54.5969483717777 -3.00293986637011,54.5969440612748 -3.00304482159823,54.5969306126495 -3.00320627428115,54.5968897409254 -3.00349893957495,54.5968289138322 -3.00357162325455,54.5968265135153 -3.00363175325873,54.5968170301859 -3.00369474686178,54.5967994372416 -3.00374061582273,54.5967756961564 -3.00377703774853,54.5967466428773 -3.00381588120858,54.5966915145574 -3.00386749130569,54.5966469715326 -3.00394248560498,54.5966140041555 -3.00398394227528,54.5966028781463 -3.00403650483224,54.5965970514128 -3.00410142783639,54.596595613905 -3.00416660884942,54.5965995656729 -3.00422403541455,54.5966098710466 -3.00428019107172,54.5966255765967 -3.00433505956333,54.5966511769839 -3.00438540639638,54.5966849905843 -3.00442801453448,54.5967205759862 -3.00449638649256,54.5967918856938 -3.00454010508605,54.5968103905535 -3.00458816758904,54.5968135854973 -3.00464348313765,54.5967951561872 -3.00467354194699,54.5967616636475 -3.00505560111473,54.5964340534469 -3.00520655930194,54.5962781736968 -3.00533438523132,54.5962555485159 -3.00582738742546,54.5962873892568 -3.00600559680307,54.5962948921695 -3.00636472524728,54.5962954995611 -3.00650951276514,54.5963293355595 -3.00661919051259,54.5963833190307 -3.00670019353257,54.5964078021818 -3.00680124034095,54.5964222361077 -3.00686773618695,54.5964225805795 -3.00692950765815,54.5964175746789 -3.0071450702528,54.5963717555374 -3.00721411381975,54.596346023673 -3.00728437504421,54.5963076132031 -3.00733439219545,54.5962658671125 -3.00736437562603,54.5962242878037 -3.0073803249548,54.596182825338 -3.00738194570981,54.5961244117885 -3.00741534096999,54.5959677106258 -3.00744728209822,54.5958865818736 -3.00754340688114,54.5958929694375 -3.0076426988225,54.5958984318229 -3.00783107065075,54.5958213915175 -3.0079044561114,54.5957183551977 -3.00790873982671,54.5957057409552 -3.00759494718225,54.5955977529869 -3.00765637904987,54.5954498926846 -3.00768976296186,54.5954271528067 -3.00753142579104,54.595407807055 -3.00753140360191,54.5954069085146 -3.00749127913815,54.5953478539797 -3.00752880599566,54.595301719083 -3.00752878382887,54.5953008214411 -3.00777830923509,54.595059660821 -3.00811187472523,54.594842147739 -3.00837852957641,54.5947985959568 -3.00849374436172,54.5947616974348 -3.00853792491229,54.5947369809034 -3.00857746413416,54.5947052049138 -3.00861945019086,54.5946536419498 -3.00868212726634,54.5946234695902 -3.00874050026351,54.5946050138152 -3.00880372606945,54.5945919081043 -3.00888394934543,54.5945849499072 -3.00902327209119,54.59458378808 -3.00908475162221,54.5945671027834 -3.00916131257883,54.5945359165542 -3.00921921706376,54.5944985966176 -3.00925232776545,54.5944596860242 -3.00926855467541,54.5944244203924 -3.009270236459,54.5943067075006 -3.00925526339592,54.5942637061679 -3.00922625544866,54.5942208210049 -3.00916603424722,54.5941593292429 -3.0091349606811,54.5940948091952 -3.0091324971755,54.5940570940625 -3.00915265235893,54.5939949309815 -3.00920528106927,54.5939351932099 -3.00949163494785,54.5937494275213 -3.00955940558214,54.5936724919673 -3.00956299152445,54.5936266405315 -3.00957771840987,54.5935977665234 -3.00960036036758,54.5935742170219 -3.00963240484349,54.5935541830583 -3.00969223951587,54.5935330193484 -3.00976753444946,54.5935126244082 -3.00991699243801,54.5934880172978 -3.00998760186428,54.5934639774553 -3.01004719159924,54.5934329323311 -3.01008819353156,54.5933984483554 -3.01011212079171,54.5933650047441 -3.01012374048851,54.5933343600575 -3.01012864180571,54.5932849036183 -3.0103306546353,54.5930019068344 -3.01083066479203,54.5926948564107 -3.01102637015814,54.5925386844676 -3.01107399881769,54.5924627252169 -3.01111777166644,54.5924165378964 -3.01117098978173,54.5923756621785 -3.01122428126393,54.5923428716575 -3.01128551154215,54.5923163040396 -3.01136385882551,54.592290492037 -3.01155171629127,54.5922502880818 -3.0116346779733,54.5922253351519 -3.01174168070704,54.5921767324856 -3.01198802478291,54.591999470229 -3.01212843179015,54.59185714642 -3.01219380063422,54.5918071840457 -3.01226851021882,54.59176343279 -3.01236958457748,54.5917176634743 -3.01248461567024,54.5916789652808 -3.01260612048078,54.5916491973473 -3.01276960238478,54.5916244693759 -3.01305372403475,54.5914117595917 -3.01322432329558,54.5912368367827 -3.01335979648857,54.5910245621557 -3.01371501211356,54.590684572024 -3.01399137063107,54.5904063361386 -3.0143795080158,54.5900822406787 -3.0144190677182,54.5900567519098 -3.01446343574328,54.5900348168127 -3.01453552592409,54.5900090552494 -3.01460324711886,54.5899923148309 -3.01471893732202,54.5899804727647 -3.01480723852894,54.5899806309092 -3.01503980458944,54.5898762551182 -3.01529330562144,54.5898031486877 -3.01544980216977,54.5896877296855 -3.0158800105963,54.5894962489214 -3.01608125973986,54.589312978885 -3.01621843363113,54.5891698687733 -3.01625678927214,54.5891524762408 -3.01633808327252,54.5891275350224 -3.01641666735022,54.5891116001673 -3.01654951883802,54.5891023982335 -3.01697975383143,54.5888561063999 -3.01737720804139,54.58878448173 -3.01777407141779,54.5887505963818 -3.01818752049864,54.5888189954026 -3.01839852818172,54.5888432758174 -3.01859938802125,54.5888290068942 -3.01886749366866,54.5888456179117 -3.01893235739231,54.5888423756504 -3.01900171735197,54.5888301118441 -3.01905859223557,54.5888134604016 -3.01924087631048,54.5887400480663 -3.01983223115655,54.5886873575389 -3.02027582550229,54.5885425593405 -3.02039980812869,54.5884849105723 -3.02051450196697,54.5884282387278 -3.02068348418288,54.588318009573 -3.02081807140605,54.5881946828959 -3.02105177674474,54.5880705198697 -3.02129679931828,54.5879704293959 -3.02148269137297,54.5879140536062 -3.02213520322165,54.5878941693206 -3.02235902783425,54.5878087207006 -3.02268816421104,54.5877304685219 -3.02279268181188,54.5877007451882 -3.02299324097628,54.5876136954588 -3.02319012953436,54.5875024180443 -3.02339323046044,54.5874557771003 -3.02354022498323,54.5873951453606 -3.02368591313942,54.5872825026938 -3.02395940337882,54.5871427236705 -3.02418900012363,54.5870436565624 -3.02440098295877,54.5869798683741 -3.02445949292432,54.5869065970458 -3.02451705724078,54.5868566942544 -3.02460863598433,54.5868047060176 -3.02465925540542,54.5867881048962 -3.02475772247838,54.5867666067893 -3.02512506174923,54.586726569003 -3.02537688443254,54.5866489643517 -3.02562665385089,54.5865507112905 -3.0258542463287,54.5864939762676 -3.02602229842094,54.5865302873322 -3.02611835338251,54.5864737672738 -3.02620454790761,54.5863345833279 -3.02624053254868,54.5862282582847 -3.02698791832144,54.5857967638554 -3.02738658735696,54.5855876304896 -3.02738134582353,54.5854402364083 -3.02757279244172,54.5853011456211 -3.02782570642375,54.5850850725584 -3.0281003510854,54.5849264064769 -3.02821771144903,54.584794143408 -3.02847315583245,54.5846787658337 -3.02873830775699,54.5845182916395 -3.02875998307081,54.5844570120359 -3.02878536738468,54.5844163652927 -3.02882164738761,54.5843828130275 -3.02886414100824,54.5843528028289 -3.02894077368437,54.5843207049191 -3.02901615384251,54.5843047892761 -3.02905870771328,54.5842720832188 -3.02909946568806,54.5842340009634 -3.02918189175046,54.5841280889462 -3.02936095162328,54.5839891006343 -3.02955028456548,54.5838274729415 -3.02989608638869,54.5835468137201 -3.0299438785882,54.5833577295287 -3.03005166824981,54.5832156629254 -3.03028995241666,54.5830932396242 -3.03036229258853,54.583078247755 -3.03041132824692,54.583059861161 -3.03044794586464,54.5830397828308 -3.0304768199373,54.5830161773215 -3.03049930818772,54.582987234729 -3.03050938000233,54.5829566013074 -3.03050806271422,54.5829044109845 -3.03059163982247,54.5828444005268 -3.03064855768781,54.5827693432163 -3.03079302028652,54.5826701797014 -3.03103424482554,54.5825431481658 -3.03114933559324,54.582382240389 -3.03169959905275,54.5822373001751 -3.03386189678734,54.5817156153175 -3.03655100082454,54.5811075354773 -3.03706473510016,54.5809871435035 -3.03322088732273,54.5780317988329 -3.03232574149073,54.5773231787168 -3.03103890141554,54.5763517635312 -3.03030707757183,54.5757990588736 -3.02983206295718,54.5756116384267 -3.0294244451437,54.5754614684069 -3.02831776544704,54.575069980828 -3.02696350079389,54.5745503958502 -3.02670612122765,54.5745256251582 -3.02443614711313,54.5745061390813 -3.02390358400841,54.5744890830894 -3.02314997637694,54.574726452877 -3.02268997165185,54.5748921549864 -3.0218973707634,54.5751774663202 -3.02087378414463,54.5755096439415 -3.01949758312257,54.5759678733529 -3.01828209753154,54.5749949140102 -3.01829495108986,54.5748914820599 -3.01865644504323,54.5741864657077 -3.01890265962022,54.573702723514 -3.019296073428,54.5729794680901 -3.01995902339509,54.5722073085117 -3.02053235639376,54.5715041843722 -3.02127853207549,54.5709101116254 -3.0212800391113,54.5709092001806 -3.02233777447468,54.5700913764333 -3.02273944354547,54.5697626469687 -3.02340066993232,54.5692367533741 -3.0238992136958,54.5688253500294 -3.02402175680806,54.5687129024449 -3.02488473109838,54.5682796325549 -3.02561127117174,54.5678276563736 -3.02627229328456,54.5674841370977 -3.02660360121839,54.5672503306462 -3.02756376308698,54.567174795568 -3.02836150288632,54.5670961414128 -3.0287384619161,54.566959065671 -3.02879338492837,54.5669270624056 -3.02763935094655,54.5666106337448 -3.0261896473755,54.566224824277 -3.02470082229818,54.5658186634123 -3.0238126461182,54.5655547529356 -3.02233947575917,54.5651556195247 -3.02194603255351,54.5650672088685 -3.0212264786317,54.5648648380789 -3.02105170887357,54.5648060253518 -3.02095475687107,54.5647637170471 -3.0208546118412,54.5647160450355 -3.02058091307328,54.5645305727182 -3.02001082628854,54.5640626048389 -3.01857290248428,54.5629612431053 -3.01740457645233,54.5621244441573 -3.01677730569577,54.5615895576106 -3.01699815344355,54.5613899478673 -3.01806483458392,54.5603852006953 -3.01820736258087,54.5602716928591 -3.02017710875657,54.5590786450314 -3.02031816309946,54.5589678423753 -3.02036193547853,54.5589234481848 -3.02027013896732,54.5585916982023 -3.02016635603033,54.5583364186154 -3.01966207583329,54.5567822715061 -3.01946479565613,54.5563102598455 -3.01921776950147,54.5556427997594 -3.01892274130918,54.5549110537385 -3.01882834838006,54.5546583890956 -3.01843566319782,54.5535473206109 -3.01841137438528,54.5533758273905 -3.01863812663937,54.5530467850141 -3.01893165877408,54.5526659675971 -3.01945222454909,54.5520243867232 -3.01958932820498,54.5518173911147 -3.01945551438647,54.5515992017247 -3.01889312560417,54.5508697074635 -3.0179702269704,54.5498215010154 -3.01754660752815,54.5493235386395 -3.0170423567306,54.5486941773495 -3.01679406590612,54.5483412784718 -3.01658049363855,54.5479593360328 -3.01678731763267,54.5477625390842 -3.01724678951658,54.5474638869295 -3.01769494677329,54.5470233693455 -3.01937506315106,54.5456439960968 -3.02048539808382,54.5447925875581 -3.02110744384647,54.5443253445667 -3.02215990405394,54.5435732411649 -3.02298279001089,54.5429129166473 -3.0238701696117,54.5422385641668 -3.02432496786102,54.5418797276819 -3.02446752297407,54.5417095170277 -3.02495140566557,54.5412200634239 -3.02505366338232,54.5410439947865 -3.02504273633142,54.5409182110161 -3.02460358946956,54.5403549039494 -3.02427093077675,54.5399720947369 -3.02372124737335,54.5393755784123 -3.02333903408747,54.5389877954278 -3.02326083296849,54.5388878276944 -3.02326204776098,54.5388141430008 -3.023269390922,54.5387358238402 -3.02373290649649,54.5371231834133 -3.02386842902643,54.5365505166827 -3.02395746448851,54.536279232176 -3.02419657869233,54.5357675936428 -3.02470745152917,54.5349390956503 -3.02482254711262,54.5347215881501 -3.02484151528252,54.5343700338393 -3.02489607662521,54.5333998473487 -3.02485485836647,54.5331736913477 -3.02476473662719,54.5330908971869 -3.024839074811,54.5325438159355 -3.02494303637428,54.5322535366968 -3.02508589239179,54.5317256413039 -3.02518971658048,54.5314299723754 -3.02565150169588,54.5304302793358 -3.02570839813155,54.5302959237361 -3.02576058994763,54.5300959305429 -3.02570664765911,54.5299822814923 -3.02562351198988,54.5298678922447 -3.02515811649419,54.5294270033582 -3.02510139240164,54.5293852554194 -3.02504331219704,54.5293453164081 -3.02438483140941,54.5290947393413 -3.02392579221827,54.5289628672886 -3.02336080125082,54.5288634255079 -3.02260991206299,54.5286819052818 -3.02125853272084,54.5284633130673 -3.02084231415604,54.5283822802 -3.01931103187315,54.528131941328 -3.01894173463549,54.5276991136658 -3.01865096340674,54.527441813439 -3.01842507801059,54.5273035540065 -3.01808227922644,54.5271311477794 -3.01778920761864,54.5270266968561 -3.01751378595591,54.5269454565992 -3.0171757319669,54.5267739080071 -3.0164741235178,54.5265218571366 -3.01623364823239,54.5264214531469 -3.01599657122893,54.5262680094247 -3.01557475770278,54.526021688562 -3.0155747353987,54.5260207900191 -3.01548762678969,54.525873183617 -3.01531381341767,54.525594230663 -3.01528053808699,54.5254956776523 -3.01527801924105,54.5253941719476 -3.01545196316089,54.5248058280481 -3.01545080398646,54.5247591173611 -3.01543379396169,54.524699961205 -3.01540459957059,54.5246426149733 -3.01533805432123,54.5245739915378 -3.0153041716032,54.5245176723637 -3.01529775756856,54.5244440511311 -3.01530731982671,54.5243981491266 -3.01533201173489,54.5243304660741 -3.01527562103592,54.5241781997957 -3.01528722461651,54.5239578867801 -3.0153895709936,54.5237854193471 -3.01545436530479,54.5237218921512 -3.015475280562,54.5236920664868 -3.01548669902251,54.5236542347298 -3.01549001312513,54.52360299371 -3.01547486011224,54.5235519087201 -3.01543156341312,54.5234857853394 -3.01561559610227,54.5232478510722 -3.01581653132798,54.5227518238472 -3.01610846868273,54.5224375101729 -3.01628661602644,54.5222706939207 -3.01652094397898,54.5218733058668 -3.01660786374192,54.5216442723442 -3.01662717050589,54.5215497702968 -3.01663418941351,54.5214579779108 -3.01662720062898,54.5213663923125 -3.01659447333294,54.5212283027188 -3.01636463210898,54.5208059767037 -3.01624414443433,54.5206219044847 -3.01613451379164,54.5205005441202 -3.01587294247932,54.5203544947021 -3.01577386131395,54.5202834497222 -3.01588958707296,54.5198447408783 -3.01587209210137,54.5195761551298 -3.01589932644539,54.5194878758568 -3.01590712773642,54.5194276124586 -3.01589748714787,54.519352221753 -3.01578072434085,54.5190665011292 -3.01562752904483,54.5188062429166 -3.01523247113926,54.5183260041648 -3.01552504836515,54.5181052167021 -3.01560432244184,54.5179993398256 -3.01564997488316,54.5179091092382 -3.01568017452357,54.5178172110394 -3.01569067508924,54.5177424598936 -3.01568267889374,54.5176050600453 -3.0157109169963,54.5173109325896 -3.01581441808135,54.5170008976763 -3.01607214890419,54.5164954068566 -3.01649621567754,54.5158411658007 -3.01684669105063,54.5153987738293 -3.0169439008941,54.5151435978971 -3.01698344137791,54.5149357176104 -3.01694857332609,54.5148343933234 -3.01687340471671,54.5147308036248 -3.01681491342467,54.514678285045 -3.01657586561779,54.514509496864 -3.01635864077416,54.5143424111091 -3.01625299747673,54.5142578545122 -3.01610903192103,54.5141224966399 -3.01604232288987,54.5140466878646 -3.01596722108124,54.5139457015605 -3.01591576617349,54.5138634742502 -3.01583248674183,54.5136843903702 -3.01577190070428,54.513418950731 -3.01564799237304,54.5126596143863 -3.01555468631659,54.5121993907578 -3.01550272043326,54.511721660155 -3.01534535167467,54.5110453534041 -3.01527672768153,54.5107071145067 -3.01518821887528,54.5104400235271 -3.01512373007928,54.5102068717117 -3.0150957644062,54.5101370253436 -3.01504871420146,54.5100421828821 -3.01496981613262,54.5099160705128 -3.01489627784447,54.5098160589759 -3.01474739146784,54.5096663655549 -3.01464350641506,54.509585386792 -3.01453176921787,54.5095009706081 -3.01382732209451,54.5089982564586 -3.01372860184372,54.5089405934117 -3.0135909310721,54.5088680738306 -3.01339410514243,54.5087825719202 -3.01327427192149,54.5087413490089 -3.01310774646175,54.5086915319324 -3.0129120260373,54.5086454635063 -3.01259348212317,54.5086328592708 -3.01201913696091,54.5086421634823 -3.01175454708542,54.5086228158412 -3.01165009725049,54.5085185683866 -3.01170494747757,54.5083625835902 -3.01171279910133,54.5083041164257 -3.01170894654295,54.5082152002368 -3.01169665377161,54.5081506123972 -3.01167686841749,54.5081022608733 -3.01161092710068,54.5079949057165 -3.01143371211855,54.5075740163577 -3.01143218497699,54.5075740291401 -3.01139827533621,54.5074539169612 -3.0113888800634,54.5073829265276 -3.01138945097754,54.5072822924668 -3.01141500616555,54.5071311346461 -3.01151466764317,54.5069127792969 -3.0116655185983,54.5067047773988 -3.01219612436617,54.5061170438591 -3.01230505655273,54.5059597958787 -3.01237124068762,54.5058297717632 -3.01241352072186,54.5057269907566 -3.01245466946669,54.5055783973192 -3.01249119749783,54.5054953422297 -3.01253608059219,54.5052505809124 -3.01266124422161,54.5048126930407 -3.01281273738617,54.5040700009998 -3.01288069727012,54.5036361862914 -3.01291088886352,54.5034822938853 -3.01304303075306,54.5029562962878 -3.01361806184618,54.5010434702527 -3.01366620007877,54.5009307561977 -3.01372995458491,54.5008214161704 -3.01381216945715,54.5007120110963 -3.0138812414151,54.5006323654643 -3.01396275140592,54.5005562094549 -3.01404890621339,54.5004826198379 -3.01419599947759,54.5003762640439 -3.01462615009647,54.5000347353562 -3.01477288419496,54.499914005798 -3.01483453751538,54.4998433176212 -3.01483072701538,54.499504534407 -3.01485481276902,54.4989813286886 -3.01490031973781,54.4985108640146 -3.01501110638722,54.4980597066594 -3.01493964729886,54.4978526689295 -3.01480369119315,54.497164500221 -3.01451926521409,54.4964029138696 -3.01432736329587,54.495824918137 -3.01426343709126,54.4956133248381 -3.01416842236571,54.4952052254627 -3.01414167824933,54.4948756191142 -3.01405119354713,54.4947738617579 -3.01375314975817,54.494710773992 -3.01308440538647,54.4946373176464 -3.01243800736313,54.4947828976044 -3.01224895305725,54.4947566288913 -3.01200827674207,54.4946400462037 -3.01184680686297,54.4946018649832 -3.01176926404526,54.4945908343696 -3.01158998364399,54.494578858032 -3.01100344490809,54.4945864624329 -3.01083410505457,54.4946058493929 -3.01073581176545,54.4946309302742 -3.01060430584171,54.4946823449549 -3.01034704195318,54.494765359072 -3.01004016051729,54.4949063800642 -3.00967716757269,54.4950900071879 -3.00940684526382,54.4952063725656 -3.00888200251887,54.4953986272025 -3.00831146870257,54.4956173169231 -3.00810373737223,54.4957115937224 -3.00788595777021,54.495770014525 -3.00773849235035,54.4957990971431 -3.00755447952429,54.4958536416874 -3.00732654347693,54.4959391899561 -3.00713301278304,54.4959794379617 -3.00679373940266,54.4961242247978 -3.00606628087584,54.4964906625903 -3.00577388386559,54.4965902220167 -3.00510525547423,54.4968438549657 -3.00498930771879,54.4968969306451 -3.00481006228075,54.4969541275353 -3.00277293172996,54.4972523632704 -3.0023047187533,54.497300273389 -3.00192078627169,54.4973223255387 -3.00151919991976,54.4973148726939 -3.00043287786004,54.4973409455961 -2.99988327051967,54.4973454961797 -2.99890734106881,54.4973409917587 -2.99840160196112,54.4973694314275 -2.99758951485162,54.4973752428975 -2.99692837569941,54.4974265229466 -2.99601259282885,54.4975500705024 -2.99591857395061,54.4975526422527 -2.99573010833964,54.4975506027965 -2.99562647296107,54.4975451676933 -2.99393032524895,54.4973191526836 -2.99335905815976,54.4973229530866 -2.99297427141979,54.4973099440635 -2.99265835007786,54.4972703127833 -2.9925494570483,54.4972369757746 -2.9924450626923,54.4972000975516 -2.99221736065915,54.4971076282132 -2.99185972214728,54.4969380582211 -2.99156113585803,54.4967202932681 -2.9912962558541,54.4964959616539 -2.99096553067373,54.4962281443759 -2.99066396886801,54.4960185783064 -2.99055427708364,54.4959520019721 -2.99031031770699,54.4958237238996 -2.99001694535114,54.4957578448714 -2.98962608186566,54.4958140576586 -2.98945109391815,54.4958532271198 -2.98879876923175,54.4960158917504 -2.98868357209815,54.4960374992256 -2.9880637924646,54.4961405043819 -2.98774357578508,54.496180859206 -2.98741830038188,54.4962014878271 -2.98612157397414,54.4962120808737 -2.98539649031907,54.4962350694693 -2.98480527669761,54.4962452815577 -2.98413884631689,54.4962668848639 -2.98365384127084,54.4962573573309 -2.98274542984666,54.4961102124331 -2.98248065623307,54.4960791227662 -2.98207570578976,54.4960580668261 -2.98155661287265,54.4960443152413 -2.98080679689226,54.4960072783847 -2.98047670181107,54.4959542526634 -2.9801978432385,54.495850495829 -2.97992195135052,54.4957430295041 -2.98007311843345,54.4954155676903 -2.98012202999585,54.4952624307299 -2.97998302793145,54.494874429593 -2.97984682174158,54.4946032073463 -2.97962983306545,54.4943074818795 -2.97954087729804,54.4942020936655 -2.97926616547722,54.4940156413113 -2.97886386912466,54.4938490002854 -2.97854076950462,54.4937042683087 -2.97808888297633,54.4935290418209 -2.97790979612507,54.4934658019431 -2.97752606685085,54.4933619892673 -2.97705585812775,54.4932614802823 -2.97697402975245,54.4931983511061 -2.97688385101779,54.4927210026081 -2.97570165769867,54.4922820392803 -2.97562865181024,54.4921990703909 -2.97558180094605,54.4921131958401 -2.9751169254562,54.4911984392392 -2.97485356368481,54.4907062249899 -2.97473910850771,54.4905660882584 -2.97462467332992,54.4904267592191 -2.97421178411821,54.4900104129607 -2.97390391291623,54.4897225982042 -2.97322426647954,54.4890549398357 -2.97291836398537,54.488785076897 -2.97268693343699,54.4885316840221 -2.97259411174624,54.48845516304 -2.97249670931924,54.4883840685597 -2.97226035512449,54.488250212525 -2.97187014905854,54.4880691650087 -2.97153174022791,54.487925346591 -2.97013970949942,54.4874153304572 -2.96958447066007,54.4872409026915 -2.96884155931578,54.4869664500835 -2.9684649555901,54.4868373946344 -2.96781599003126,54.4865469091488 -2.96770356480002,54.4864912059315 -2.9675972447671,54.486435363839 -2.96740422868131,54.4863030365669 -2.96720213484952,54.4860449063701 -2.96719235902611,54.4858949397658 -2.96722103206424,54.4855406219946 -2.96720788271093,54.4850481832993 -2.96714445200194,54.4846469836738 -2.96692342993762,54.4841795706714 -2.96667433866743,54.483692705112 -2.96629515317619,54.4830639317347 -2.96623584078594,54.4829016925854 -2.96622117121113,54.4826735068419 -2.96636042360584,54.4822320509732 -2.96532660571815,54.4821801197129 -2.9646325531267,54.482132654703 -2.96400264742799,54.4821286981473 -2.96331588130012,54.4821961727251 -2.96252733459148,54.4823354327047 -2.96169114601768,54.4825488319778 -2.96108616336117,54.4827505034988 -2.9605706856559,54.4829486741138 -2.96014329726297,54.4831534202207 -2.95981082880722,54.4833249753735 -2.95759351472278,54.4838863293346 -2.95688356136342,54.4840852162145 -2.95669831993558,54.4841531705098 -2.95669782135713,54.4841971995579 -2.95534731649034,54.4845323262068 -2.95420150716425,54.484045247448 -2.95300188079662,54.4835029676724 -2.95203550452574,54.4831007049058 -2.95082928992698,54.4825350934988 -2.94941311301873,54.4819027466451 -2.94929372968742,54.4817427683766 -2.94922914675595,54.4816246778303 -2.94886930381036,54.4810109742906 -2.94813367812268,54.4797037239977 -2.94747881915639,54.4796809201725 -2.94712082534662,54.4791508436931 -2.94630623440437,54.4778972126881 -2.94605257787854,54.4774704487033 -2.9464315860606,54.4771097978913 -2.94566415420541,54.4760885864957 -2.94547031789136,54.475843833537 -2.94542534450469,54.4757696126852 -2.94539030851418,54.4755856098005 -2.94522210973159,54.4753874660643 -2.94510356555094,54.4752679084283 -2.94497883439377,54.4751448958478 -2.94450891164972,54.4747073312678 -2.94425058360452,54.4744792520888 -2.94372817686631,54.4740438024679 -2.94316570954218,54.4735422671297 -2.94238750696234,54.4725165352907 -2.94198239081905,54.4719400913672 -2.94181855507046,54.4717256461141 -2.94132041123863,54.4710033839673 -2.94122064833531,54.4708917627864 -2.93953930750615,54.470239805807 -2.93898798173025,54.470020285277 -2.93876124718004,54.4696859294258 -2.93856172542093,54.4694619638684 -2.93846907462326,54.4692604373561 -2.93843728517813,54.4692166592266 -2.93838832700512,54.4691676239315 -2.93831304418169,54.4691134017005 -2.93806137790939,54.4689733091924 -2.9375529600881,54.468670788239 -2.93747503713624,54.4686345561049 -2.93733500958783,54.4685862274159 -2.93700935774283,54.4685150797522 -2.93692916276458,54.4685130067547 -2.93688601923374,54.4685178333682 -2.93681398969644,54.4685390576245 -2.93638202931761,54.4687427674335 -2.9355602663465,54.4690412307071 -2.93473774120666,54.4693738360081 -2.93433729684532,54.4695432424588 -2.93391471268306,54.4696902669948 -2.93363992446018,54.4698191667617 -2.93327428737707,54.4699531700857 -2.93297368280702,54.4697640287405 -2.93255134896688,54.4697826549938 -2.93229706436695,54.4698007912308 -2.93204443335211,54.469818914168 -2.93160878323969,54.4698618085342 -2.931454715895,54.4698728804394 -2.93130611863276,54.4697831911842 -2.93114464975452,54.4696029453013 -2.93093509069806,54.4694113002191 -2.93064248508068,54.4692320637312 -2.93038878684811,54.4690686104082 -2.93003384575797,54.4689284882165 -2.92970635069582,54.4688428700928 -2.92923275476386,54.4686425625945 -2.92895992450826,54.4684540953929 -2.92877670717737,54.4683351101819 -2.92819444005969,54.4679702251758 -2.92770591582298,54.4677223174361 -2.92723861412586,54.4674562755649 -2.92682779239636,54.46716733643 -2.92619183255173,54.4668118394351 -2.92565168272057,54.4665355680433 -2.92514239657827,54.4661835869362 -2.92482647560793,54.4660683068014 -2.92462739599699,54.4659951686162 -2.92392366963555,54.4657129549039 -2.92362439312689,54.4655795750697 -2.92335753046063,54.465444958018 -2.92298827310559,54.4652824626689 -2.92284786923623,54.4652161509239 -2.9226151646531,54.4651577314839 -2.92131372168111,54.4649151081006 -2.91981878893852,54.4647790666166 -2.91904963315893,54.4651560827909 -2.91899060846165,54.4652752200668 -2.91870997753936,54.4661769963739 -2.91848464345829,54.4668617287108 -2.91827293013906,54.4676038590474 -2.91810440564031,54.4681390122835 -2.91799648683427,54.4684211437996 -2.91775200989619,54.4692120399063 -2.91763152961067,54.4695526676797 -2.91749464930483,54.4697802125276 -2.91691692228924,54.4705809155241 -2.91679627159205,54.4707723080909 -2.91660937874218,54.4708348225089 -2.91561035768187,54.4710769926271 -2.91519716065566,54.4711637733752 -2.9139991231198,54.471479226152 -2.91318738632427,54.4716831213588 -2.91282232670234,54.4717838152004 -2.91275826224772,54.4718149371393 -2.91242243757614,54.4721886337643 -2.9121758677711,54.4724798943192 -2.91175254424602,54.4729414014684 -2.91156200249415,54.4731837198372 -2.91125860034597,54.4738375813317 -2.91097555624052,54.4744975768071 -2.91087953414379,54.4747625415224 -2.91079855719266,54.4749374551971 -2.91071758159063,54.4751124595743 -2.91057131754683,54.4753382692366 -2.9095220134442,54.4766574028664 -2.90922001974314,54.4768214011526 -2.90914081039911,54.476938888504 -2.90893050867983,54.4773358875761 -2.90874345741733,54.4777372040119 -2.9084601812098,54.4782579307406 -2.90835957344494,54.478523825989 -2.90808722575901,54.4790443806288 -2.90799186491907,54.4792716016998 -2.90760500602449,54.4800573448587 -2.90745357602745,54.4803272153536 -2.90719115334236,54.4805385301471 -2.90645370291444,54.4811758717698 -2.90627846384084,54.4813479854911 -2.90616480284769,54.4813757931804 -2.90604499563046,54.4814018494377 -2.903726363164,54.4817292883757 -2.90331897281581,54.4818024179262 -2.90292640132598,54.4818493794431 -2.90250843427574,54.4817950023372 -2.90213245938099,54.4817519907492 -2.90082134579799,54.4815793008394 -2.9006662963292,54.4815481123168 -2.90040571522215,54.4814862641656 -2.90013881993101,54.4814208694168 -2.89959857831587,54.481280152153 -2.89962365755569,54.4815064692818 -2.89970667314903,54.4819138451258 -2.89972862598046,54.4820036178979 -2.90009841141224,54.4830963640458 -2.89947836883789,54.4831126651496 -2.8984241491964,54.4831133255744 -2.89572233188746,54.4841408467016 -2.89484072632564,54.4844825998708 -2.89397259103225,54.4839552531176 -2.89338369743521,54.4839182821428 -2.89228135584968,54.4838373958556 -2.89206394697232,54.4837770084448 -2.89188954669152,54.483704622292 -2.89087993751603,54.4838378604232 -2.8905139139548,54.4839016554656 -2.89028052838412,54.4839609683128 -2.89014876980827,54.484005964466 -2.88978472576434,54.4841550969756 -2.88904197278149,54.4844993796861 -2.88903251438338,54.484556141566 -2.88879470378922,54.4845525017563 -2.88811515690867,54.4846078159041 -2.88756455276721,54.4846289356838 -2.88711924707447,54.4847346327544 -2.88690096541179,54.4846338116781 -2.88633858076715,54.4846810672442 -2.88556743587416,54.4847792676721 -2.88443091748233,54.4849017918408 -2.88387483748309,54.4849525834302 -2.88366493839024,54.4849568148835 -2.88350726119938,54.4849453901239 -2.88305008977742,54.4848614934337 -2.88177232424564,54.4845185423941 -2.88164212970946,54.4844889454589 -2.88147729315691,54.4844344442353 -2.88100090676772,54.4841727833596 -2.88034081915597,54.4837660104505 -2.87984042911555,54.4834703792407 -2.87951670462504,54.483199513384 -2.87902178857135,54.482796919331 -2.87900971241777,54.4826612485028 -2.87901981889889,54.4824149053467 -2.87900584512182,54.4821257002098 -2.87844244835797,54.4817630454805 -2.87803515745678,54.4814811036548 -2.87753262543814,54.481154928934</coordinates></LinearRing></outerBoundaryIs></Polygon>
  </Placemark>
