  <Placemark>
	<Style><LineStyle><color>ff0000ff</color></LineStyle><PolyStyle><fill>0</fill></PolyStyle></Style>
	<ExtendedData><SchemaData schemaUrl="#Wards__December_2019__Boundaries_EW_BFE">
		<SimpleData name="objectid">4498</SimpleData>
		<SimpleData name="wd19cd">E05010138</SimpleData>
		<SimpleData name="wd19nm">Loddiswell &amp; Aveton Gifford</SimpleData>
		<SimpleData name="wd19nmw"></SimpleData>
		<SimpleData name="bng_e">271664</SimpleData>
		<SimpleData name="bng_n">48913</SimpleData>
		<SimpleData name="long">-3.80432</SimpleData>
		<SimpleData name="lat">50.326111</SimpleData>
		<SimpleData name="st_areashape">51856272.9823295</SimpleData>
		<SimpleData name="st_lengthshape">40744.1894407389</SimpleData>
	</SchemaData></ExtendedData>
      <Polygon><outerBoundaryIs><LinearRing><coordinates>-3.82293740429958,50.3622090175577 -3.82284875725685,50.3620223901302 -3.82276419314899,50.3617971237959 -3.82272378404927,50.3616591944049 -3.8226817250398,50.3614782206699 -3.82247147853865,50.3602474885538 -3.82241496898352,50.3599857257565 -3.82235287611674,50.3597204536047 -3.82204949868553,50.3585909892423 -3.8219984315081,50.3583229357593 -3.82195767320252,50.3579547335334 -3.82190115493166,50.3575805730474 -3.82191375706131,50.3574706763279 -3.8219428441744,50.3573856981919 -3.82224751106703,50.3568960882701 -3.82246615295987,50.3565122203456 -3.82251720710155,50.3563773533821 -3.82253123039873,50.3563016028276 -3.8225532695254,50.3561052368496 -3.82254683117293,50.3559371025288 -3.82256962198185,50.3558360376144 -3.82260899868948,50.355762497064 -3.82280967003909,50.35549679242 -3.82285103502646,50.3554025390559 -3.82287016160727,50.3552754560672 -3.82272341079605,50.3549332821803 -3.8225966141244,50.3546672263909 -3.82289274563217,50.3546544907624 -3.82435911047695,50.3539973926586 -3.82559709129761,50.3537270007935 -3.82597149038896,50.353627607341 -3.82605383405618,50.3536137256251 -3.82625122899335,50.353592641032 -3.82671347544292,50.353583581376 -3.82704948673535,50.3535863938321 -3.82737646969946,50.3535713648481 -3.82796531833818,50.353493680279 -3.82854053967392,50.3533902215055 -3.82875127218868,50.3533482431153 -3.82916594059336,50.3532383148359 -3.82980320923006,50.3530303784644 -3.83025838733046,50.3528406810201 -3.83078412773105,50.3525841409478 -3.8310798238043,50.3524490133669 -3.83131239416584,50.3523572309911 -3.83157338763065,50.352272194055 -3.831708344003,50.3522341013748 -3.83192424723286,50.352182143744 -3.83324043515369,50.3519374125234 -3.83436224454825,50.3517559783074 -3.83500290281748,50.3516370684349 -3.83661639153348,50.3510808971347 -3.83829724549916,50.3504903679657 -3.83851264878591,50.3504258183229 -3.83876081703399,50.3503724391396 -3.83903350702963,50.3503357554075 -3.84051574331308,50.3502421638877 -3.8408546615854,50.3502098231224 -3.84104465882249,50.3501807382015 -3.84129727928794,50.3501316885108 -3.84148668360343,50.3500873272548 -3.84161191804886,50.3500529729201 -3.84184226672301,50.3499764903744 -3.84198610196034,50.3499166639669 -3.84217259754831,50.3498300859086 -3.84235973573759,50.3497272220837 -3.84313530357624,50.3493551678335 -3.84378540636292,50.3491523463609 -3.84475235047496,50.3489310953438 -3.84529035888232,50.348850623197 -3.84591839660321,50.3488054952813 -3.8461935573577,50.3489046214927 -3.84633935551659,50.348788021175 -3.84666836515143,50.3488979801469 -3.84713906377099,50.3488212659471 -3.84834784294127,50.3486383142465 -3.84904046248219,50.3485193989896 -3.8501837138225,50.3482043924045 -3.85022426326045,50.3482010496797 -3.85025961366289,50.348204083936 -3.8502922783709,50.3482125557423 -3.85032086666594,50.3482264872346 -3.85034403458357,50.3482441018329 -3.85050012148015,50.348461107814 -3.85054116801575,50.3485063122243 -3.85060372444117,50.3485592673597 -3.85071484004154,50.3486330296443 -3.85100585700531,50.3488505834746 -3.8511948548946,50.3489779556133 -3.8513614849443,50.3490337485495 -3.85170102529151,50.3491965770956 -3.85209864745216,50.3493359107558 -3.85231492636311,50.3494404568382 -3.85243701054234,50.3495428157067 -3.85246378303956,50.3496529882927 -3.85245851305947,50.3497349875068 -3.85247309641387,50.3497851091735 -3.85251381601245,50.3498545965856 -3.85269027973789,50.3500200206173 -3.8529384130109,50.3502192812407 -3.85318604693855,50.3504770846023 -3.85323078927804,50.3505069441497 -3.85362290360637,50.3506860139107 -3.85417584121179,50.3508786130575 -3.85430397853455,50.3509189202924 -3.85448858316826,50.3507873033971 -3.85472374932301,50.3506891382413 -3.85507298573596,50.3505261200734 -3.85521535627068,50.3505004701912 -3.85532208242602,50.350604060518 -3.85534152899267,50.350636120902 -3.8553620262338,50.3506564745416 -3.85541369495551,50.3506826258777 -3.85544493642825,50.3506902195263 -3.85551683553325,50.3506971642911 -3.85569553972747,50.350699707812 -3.85574635636745,50.3507069889347 -3.85580448466084,50.350720448481 -3.85585722916132,50.3507384893207 -3.85589592109772,50.3507558550212 -3.85598219754931,50.3508075292196 -3.85602363617441,50.3508239524936 -3.85607613419767,50.3508357029135 -3.85613955285316,50.3508391858337 -3.85617315427398,50.3508359519717 -3.85629242378376,50.3507944842273 -3.85633323168539,50.3507947312043 -3.85636435820934,50.3508023273412 -3.85639310007573,50.3508171543391 -3.8565199273551,50.3508268182682 -3.85687676579998,50.3508202201819 -3.85692956813846,50.350804090922 -3.85702590925822,50.3507512995513 -3.85707022064,50.3507344064132 -3.85717759996496,50.350712009547 -3.8572784387805,50.3507032059138 -3.85754013804565,50.35070891522 -3.85765875305131,50.3506863392934 -3.85783779795044,50.3507005631529 -3.85794211878089,50.3507780231248 -3.85799342830184,50.350797884803 -3.85802866447134,50.3508009185357 -3.85806651682204,50.3507967167537 -3.85809705866194,50.3507863375383 -3.85815721752953,50.3507449131195 -3.8582015735491,50.3507262208612 -3.85825161881976,50.350713731011 -3.85831058724778,50.3507100910809 -3.85841226919457,50.350722853168 -3.8584384670735,50.3507467119944 -3.85846998972437,50.3507614940308 -3.85850543779187,50.3507699190523 -3.85852933417597,50.3507704364933 -3.85858913065196,50.3507523957978 -3.8591144473207,50.350311401939 -3.8594475198614,50.3500910811994 -3.85947961117959,50.3500492064332 -3.85948682696106,50.3500203171378 -3.8594828533525,50.3499898079305 -3.85946906991559,50.3499603559562 -3.85932688554549,50.3498096797867 -3.85915679904588,50.3495588305239 -3.85908811444443,50.3494204666526 -3.85904771284521,50.3493563712181 -3.85881832684063,50.3490263532133 -3.85868880730819,50.3488763732194 -3.85839051900602,50.3486545482814 -3.85806361643804,50.3484537716123 -3.85802646659667,50.3484372805262 -3.85787697586951,50.3483902148871 -3.85758108181987,50.3483364957768 -3.85744501913933,50.3482711417496 -3.85738441726048,50.3482298481034 -3.85736239068605,50.3482059223983 -3.85826834977816,50.3479000214495 -3.85902480000019,50.3476180843309 -3.85986430178788,50.3469435799507 -3.86016032979214,50.3467131497887 -3.86097307066978,50.3461820353869 -3.86142086237034,50.3459149129109 -3.86236529262828,50.3453025518882 -3.86295856135214,50.3449449739514 -3.86346434915073,50.3446175690932 -3.86393250404828,50.3442970587157 -3.86424398289701,50.3441040457679 -3.86441322268197,50.3440105145724 -3.86484162913235,50.3435719470684 -3.86500998154836,50.3433848237433 -3.86506661633746,50.3432508369416 -3.86507217682222,50.3429638187335 -3.86540397355671,50.342139071492 -3.86548425644009,50.3419669384167 -3.86556164486073,50.3418244351747 -3.86563160326238,50.3417082175925 -3.86578633725775,50.3414961344438 -3.86595710968307,50.3413000698961 -3.86606517758755,50.3411894446698 -3.86621038798504,50.3410567318956 -3.86637489279995,50.3409137289959 -3.86645519291489,50.3408485975978 -3.86671340912822,50.3406574222096 -3.86722908550522,50.340297380707 -3.86733506207585,50.3402399285241 -3.86738421293846,50.3402049702101 -3.86741821924702,50.3401738520089 -3.86748608653549,50.3400783476462 -3.8675113363469,50.3400042086818 -3.8675131403136,50.3399438453052 -3.86745263025479,50.3395472884911 -3.86730490855281,50.338968609968 -3.8672567522206,50.3388515910753 -3.86722471370062,50.33871713758 -3.86722004253203,50.3385625539712 -3.86725269320848,50.3382840918953 -3.86719217737681,50.3381384975154 -3.86715187567751,50.3380770115351 -3.8671286323222,50.3379865666335 -3.86715942569529,50.3375543751701 -3.86713906982257,50.33739275889 -3.8671451979329,50.3373333145289 -3.86712033722163,50.3367346788242 -3.86711234390875,50.3366017278858 -3.86695525744539,50.3356418563817 -3.86699945236969,50.3349071432717 -3.86699941713463,50.3349062443975 -3.86704754716617,50.3347714934964 -3.86709911040483,50.3345439812348 -3.86710697946145,50.3344935005892 -3.8670993821432,50.3342642410857 -3.8671196067275,50.3341713008917 -3.86719423967262,50.3339973691456 -3.86739204299949,50.3336641016624 -3.86745694648063,50.3335641484624 -3.86756908584519,50.3334130829892 -3.86786491579704,50.3331097112032 -3.86818904521365,50.3327392541401 -3.8689711542142,50.3317220250121 -3.86921794372886,50.3314212361007 -3.86930781220249,50.3312786192718 -3.86875104477778,50.3311967536561 -3.86842828649356,50.3311380095546 -3.86820412176769,50.3310822663389 -3.86769088775285,50.3309286608024 -3.86755402979163,50.3308805052237 -3.86720961059363,50.3307330861184 -3.86689713265686,50.3306113204614 -3.86674421449882,50.3305435495859 -3.86660640800548,50.3304711303985 -3.86646908631902,50.3303726266661 -3.86629528354222,50.3302774058726 -3.86620520542875,50.3302373994306 -3.86604857326036,50.3301841646525 -3.86588408767844,50.3301463417161 -3.8654504010657,50.3300858626699 -3.86424795604247,50.329952201118 -3.86336445947735,50.3299223059839 -3.86317695128829,50.3299414968433 -3.86240638355762,50.3299286672876 -3.86212574788956,50.3299394572268 -3.86164833527301,50.3299812724729 -3.86123289741559,50.3299933194876 -3.86076586086169,50.3300160830079 -3.86035410031319,50.3300154794362 -3.86021109207471,50.3300231627698 -3.85956733559497,50.3300893014124 -3.85944104304458,50.3300949184252 -3.8590602409115,50.3300920170959 -3.85860536620572,50.3301028874026 -3.8581767105712,50.3300998488087 -3.85780487460976,50.3301129855011 -3.85773880972377,50.3301122423907 -3.8574457473252,50.3300925576469 -3.85741142496591,50.33007692059 -3.8573481838936,50.3298603290503 -3.8572675688134,50.3297032702768 -3.8569633362433,50.3292512543954 -3.8568088186608,50.3292519245437 -3.85672265339486,50.3292407121948 -3.85663898555443,50.3292222661579 -3.85655911181335,50.3291911708766 -3.85649756233346,50.3291605933037 -3.85635448732176,50.3290594710384 -3.8562969006459,50.3290235242679 -3.85619796338524,50.3289729517104 -3.85538687450048,50.3286746918025 -3.85520035141454,50.3286120282028 -3.85498563258936,50.32854522796 -3.85476833726412,50.3284866515507 -3.85457859243705,50.3284483160934 -3.8542987852281,50.3284087194997 -3.85424366526851,50.3283259748402 -3.85410345807,50.3281554776927 -3.85394782200813,50.3279456617497 -3.85390959495978,50.3278653449435 -3.8538711668131,50.3276726325007 -3.85385428875054,50.3276378341912 -3.85381592845272,50.3275897995656 -3.85363151083544,50.3273994158701 -3.85356063195728,50.3273105369947 -3.85352125039572,50.3272392301831 -3.85351919758202,50.3272221789008 -3.85353145767123,50.3271770238886 -3.85349202748187,50.3271371893366 -3.85384040708242,50.3269921703701 -3.85405389853276,50.3268817625976 -3.8543599475856,50.3267653826549 -3.85444539961289,50.3267226568972 -3.85448231369009,50.3266977902873 -3.85455433723082,50.3266345069368 -3.85471256713233,50.3264764240195 -3.85477916573265,50.3264196122236 -3.85484094255917,50.3263817593207 -3.85496693196779,50.3263329015886 -3.85500816303127,50.3263088653717 -3.85512402493037,50.3262170974648 -3.8551712573901,50.3261686867681 -3.85535845517579,50.3259246279939 -3.85546124051492,50.3258213801929 -3.8555198772144,50.3257772827502 -3.85570404443067,50.3256726458207 -3.85581216220071,50.3255962868751 -3.85592931615631,50.3255377677531 -3.85578649954406,50.325442935346 -3.85574067149738,50.3254202884968 -3.85483458238593,50.3250991717289 -3.85446530075356,50.3249953612446 -3.85424718557291,50.324915216201 -3.85416352655742,50.3248967681262 -3.8541155852187,50.3248912384309 -3.85383949757658,50.3248722630398 -3.85382089205606,50.3248644665165 -3.85372137057482,50.3247985248616 -3.85342007722809,50.3245632449738 -3.85329788776736,50.3244922685753 -3.85326091297068,50.3244469997489 -3.85325893042606,50.3244317452621 -3.85327835782527,50.3243891732638 -3.85341191487322,50.3242818393753 -3.85346141125198,50.3242558729339 -3.85352260040943,50.3242387118078 -3.85370140659288,50.3242106834694 -3.85374722472286,50.32419736421 -3.85381604718424,50.3241620077295 -3.85383912489596,50.3241418572899 -3.85389296762491,50.3240429868705 -3.85392510807371,50.3239669423912 -3.85393091233499,50.3239344796455 -3.85392930468605,50.3238931424349 -3.85390720122851,50.3237953931922 -3.8538280991109,50.3236051273836 -3.85380300774763,50.3235020308848 -3.85380105078165,50.3234517074728 -3.85382747693684,50.3233002222055 -3.85398910743905,50.3233012414979 -3.85398086536119,50.3231250418231 -3.85399145635295,50.3230727203 -3.85402961778476,50.3230055715217 -3.85407632449486,50.3229436813234 -3.85457288576804,50.3224518169009 -3.85493866765263,50.3221059980966 -3.85501846548072,50.3219896279577 -3.85513027713159,50.3218654640631 -3.85515821081045,50.3218272523133 -3.85518653048116,50.321760260189 -3.85518565623088,50.3217377942631 -3.85517483797025,50.321712790487 -3.85514535551593,50.3216754950001 -3.8550661728566,50.3215903460218 -3.85481953086176,50.3213541975863 -3.85462226056301,50.3211216673641 -3.85415522387382,50.3206002147149 -3.85413578123243,50.3205708511627 -3.85413372731657,50.320553799825 -3.8541401950835,50.3205384105638 -3.85415784501641,50.3205246409436 -3.85455742633345,50.3203572218937 -3.85502853596586,50.3201914474581 -3.85529918678158,50.3201071008528 -3.85611006430024,50.3198980429672 -3.85632312230765,50.3198487826154 -3.8568266416279,50.3197571167317 -3.85703983470883,50.319711358947 -3.85716507199348,50.3196823829205 -3.85717577550919,50.3196687238095 -3.85724057820753,50.319527414289 -3.85725676674932,50.3194732049964 -3.85725589159284,50.3194507390888 -3.8572451763751,50.3194284303915 -3.857223160542,50.319404414296 -3.85711717263463,50.3193179868823 -3.85709787885748,50.319289520884 -3.85704712239917,50.3191788317183 -3.85697854925426,50.3190746324273 -3.85687972776667,50.3189907877617 -3.85673891267432,50.3189112106413 -3.85669225065685,50.3188669961465 -3.85662587601508,50.3186764388596 -3.856642032539,50.3185143270389 -3.85662826097982,50.3184848733164 -3.85660067916053,50.3184636434415 -3.85657492078315,50.3184505676118 -3.85651109062973,50.3184354014575 -3.85649659415839,50.3184230443021 -3.85644786988653,50.31832581053 -3.85644574526298,50.3183069614583 -3.85645571390889,50.3182744311444 -3.85648520929327,50.3182406904394 -3.85659715832017,50.3181560868152 -3.85660643685962,50.318141551963 -3.85660990511224,50.3181235121169 -3.8566012342857,50.3180436231515 -3.85661878265216,50.3176287263184 -3.85660228173669,50.3175678445082 -3.8565875070127,50.3175482989247 -3.85648305946847,50.3174626549316 -3.85642169449482,50.317400691576 -3.85639995235609,50.3173479866666 -3.85639972170221,50.3172706603371 -3.85641583664137,50.3172145637331 -3.8564511324147,50.317148359827 -3.85648606336008,50.3171055399876 -3.85662601293598,50.3169846129853 -3.85680209201251,50.3168189588292 -3.8568151280821,50.3167908760591 -3.85681675108468,50.3167611767057 -3.85680665611399,50.316719075955 -3.85676613515385,50.3166154186942 -3.8567743141404,50.3165369693034 -3.85679262506554,50.3165016085617 -3.85682083530088,50.3164705851018 -3.85694633297538,50.3163741671728 -3.85705348304332,50.316312210144 -3.85708597465374,50.3162811182308 -3.85711391108423,50.3162401188911 -3.8571398903498,50.3161488865002 -3.85720416089831,50.31603276469 -3.85722173744671,50.3159785327738 -3.85722382400851,50.3158893901078 -3.85723703465057,50.3158658008078 -3.8573418379342,50.3157823007619 -3.85739866212137,50.3157247443409 -3.85747367762715,50.3156317390227 -3.85755484559948,50.3155153470504 -3.85760969806292,50.3154101652084 -3.8576365514177,50.3153413984587 -3.85763574157975,50.3152136369434 -3.85764442372338,50.3151838256816 -3.85768615797849,50.3151372999417 -3.85780863815852,50.3150706019023 -3.85789347063181,50.3150125976668 -3.85807864176019,50.3149349163687 -3.85814703029738,50.3148888638985 -3.85836040306218,50.3145958264311 -3.85836897953754,50.3145633193915 -3.85836784688662,50.3144985958119 -3.85835465772051,50.3144484523974 -3.85827887648133,50.3143434704613 -3.8582568513909,50.3142449120003 -3.85824620815296,50.3142244012989 -3.85805773709545,50.3140034270113 -3.85802114971859,50.3139293798143 -3.85802166379527,50.3139068918913 -3.85803215406048,50.3138878413897 -3.85807020945415,50.3138539637891 -3.85811598111079,50.313839744236 -3.85818755422327,50.3138368022963 -3.85820127778585,50.3138293892247 -3.85821204960459,50.3138175279296 -3.85823647346889,50.3137577915909 -3.858336037954,50.3136113417142 -3.85834641137757,50.3135536279252 -3.85832299830237,50.3134550925464 -3.85832662032914,50.3132984862029 -3.85830060021105,50.3130973951475 -3.85831177928672,50.3130603502073 -3.85838719966558,50.3129422507144 -3.85845437578589,50.3127909236297 -3.85858660476539,50.3123625076023 -3.85879103709829,50.3118078600397 -3.8587926223224,50.3117772627247 -3.85878566645837,50.3117414071204 -3.85872878691234,50.3116874659211 -3.85868642301896,50.3116108138227 -3.85866448173814,50.3115500197463 -3.85863937393846,50.3114109575255 -3.85860660356743,50.311327857739 -3.85852606543663,50.3112076658884 -3.85843438630438,50.3111255068026 -3.85837973828719,50.3110931109095 -3.85834556833781,50.311081068509 -3.85825783775419,50.3110644873232 -3.85823371628737,50.3110576791279 -3.85820069085305,50.3110393241068 -3.85807625274956,50.3109099423822 -3.85781556632682,50.3107432630544 -3.85755605026441,50.3106808698495 -3.8575233054693,50.3106697038686 -3.8574574322124,50.3106374868574 -3.85729158258291,50.310524051802 -3.85709138302186,50.310396867645 -3.85693876818026,50.3103021035199 -3.8568052490044,50.3102278050156 -3.85670833575793,50.3101924864004 -3.85657789662175,50.3101586015942 -3.85648077375705,50.3101178912821 -3.85638430586619,50.3100582866595 -3.85635809724642,50.3100335279558 -3.85629614213099,50.3099561982794 -3.8562714866117,50.3099386084891 -3.85619742181251,50.3099101174732 -3.85595769079214,50.3098501030269 -3.85588629917555,50.3098188717102 -3.85546839728407,50.309584470503 -3.85542717038089,50.3095725398253 -3.85529729339613,50.3095530320282 -3.85527449140724,50.3095444041565 -3.85518201736658,50.3094802384435 -3.85507949368454,50.3093720838949 -3.85500006574501,50.3093158039509 -3.85486113685543,50.3092451862705 -3.85474970035588,50.3091966096109 -3.85473103531536,50.3090412580307 -3.8547124958443,50.3089992925885 -3.85466274449334,50.3089110666361 -3.85445585104772,50.308647221012 -3.8544255728207,50.3086279226552 -3.85430117267336,50.3085705601441 -3.85400250101464,50.3084746150466 -3.85393798266682,50.3084413852263 -3.85388727208367,50.308399932943 -3.85385490573202,50.3083626835316 -3.85383769678512,50.3083162007931 -3.85385344513848,50.3082179391884 -3.85383854782551,50.3081236730939 -3.85378239449419,50.3079780027802 -3.85374780032552,50.3079192087148 -3.85370361458198,50.3078668609013 -3.85345535194185,50.3076585232218 -3.85332816999009,50.3075652373991 -3.8532257924122,50.3074993414331 -3.85315284171374,50.3074636381095 -3.8530759944787,50.3074378870271 -3.85265909549358,50.3073357304146 -3.8525579553622,50.3072986770078 -3.85251934583341,50.307279509992 -3.85243998885849,50.3072249356064 -3.85236014812612,50.3071578703244 -3.85221810974794,50.3070099706131 -3.85190394605242,50.3066579108048 -3.85188229115004,50.3066429698082 -3.85179038186749,50.3065930911701 -3.85165230276282,50.3065440367727 -3.85156864236343,50.3065246874356 -3.85139623352253,50.3064950630485 -3.85124928439844,50.3064740238001 -3.85116622931592,50.3064672539292 -3.85107903156774,50.3064641459971 -3.85081111266711,50.3064738061472 -3.85065649520098,50.3064699731692 -3.85053506440018,50.3064530232724 -3.85043590881514,50.3064312233439 -3.85037623942323,50.3064123908418 -3.84997091351717,50.3062470084386 -3.84979036590321,50.3061896360716 -3.8497326713482,50.3061500910997 -3.84972428813881,50.3061160558277 -3.84972898214115,50.3060908041549 -3.84974343181061,50.3060662967062 -3.84977054025095,50.3060397889834 -3.8498678714707,50.3059788048102 -3.85003654780343,50.3059122789744 -3.85040212648094,50.3057428107283 -3.85048708707252,50.3056883171732 -3.85052253796699,50.3056589790898 -3.85058153074791,50.3055888033868 -3.85062787982021,50.3054792654505 -3.85063871410665,50.305433234389 -3.85066146088632,50.3051153734521 -3.85065926443968,50.3050200053088 -3.850629618216,50.3048379439934 -3.85062762998533,50.3047867222157 -3.85063515277902,50.3046912002614 -3.85065085610281,50.3046244109737 -3.85067274081545,50.3045737086302 -3.85071505674692,50.3045064957187 -3.85076596100557,50.3044427429211 -3.85081061633635,50.3043969829453 -3.8508512952261,50.3043621667246 -3.85101423938287,50.3042525704352 -3.85123258511701,50.3040907493943 -3.85130187575921,50.3040294010782 -3.85172854429361,50.3035909110959 -3.85194874979492,50.3033310486369 -3.85227119967491,50.3029193935321 -3.85250063671119,50.3025694645622 -3.8526464665745,50.3023116851381 -3.85298618846738,50.3016595827549 -3.85306828709074,50.3013857327263 -3.85331225972663,50.3008709313841 -3.85345253698005,50.3006492959743 -3.85351252082663,50.3005691219758 -3.85365722437478,50.3004256443323 -3.85371591129042,50.3003806489861 -3.85382826885877,50.300310520355 -3.85398635609628,50.3002224877404 -3.85412971230976,50.3001545619341 -3.85428472021063,50.3000945423479 -3.85447874274828,50.3000285054845 -3.85496997759826,50.299879408718 -3.85556337632493,50.2997197777754 -3.85629804112103,50.2995101420045 -3.85686885653408,50.2993832346716 -3.8572562708915,50.2993096091054 -3.85794814206155,50.2991905638498 -3.85864765406943,50.2990508015362 -3.85899235127164,50.2989625661915 -3.86026271078099,50.2985904896599 -3.86054126539293,50.2985311832244 -3.86151305048309,50.2983555751225 -3.8616265592717,50.2983123954106 -3.8617147617915,50.2982704302842 -3.8617972029423,50.2982232515723 -3.86187647109957,50.2981689308219 -3.86194858654603,50.2981093297428 -3.86200805408159,50.2980490317322 -3.86205094607234,50.2979970913716 -3.86207986912216,50.2979461842017 -3.86210114203124,50.2978802035724 -3.86210945281009,50.2978054388706 -3.86209407572973,50.2975924900198 -3.86190212575036,50.2967771311244 -3.86187581364769,50.2966398883767 -3.8618474452625,50.2963462207253 -3.8618372801203,50.2963023237204 -3.86180161819493,50.2961806065297 -3.86175135666443,50.2960437472405 -3.86167934073462,50.2958893428733 -3.8613940820757,50.2953434325638 -3.86126966995337,50.2949973523064 -3.86117310560672,50.2947892988579 -3.86113403846513,50.2946514505971 -3.86111073958569,50.2945231510769 -3.86109483939636,50.2943678480662 -3.86109543832722,50.2942734246386 -3.86114090246659,50.294073888155 -3.86114249685846,50.294040593378 -3.86112022015204,50.2939384429928 -3.86102915579526,50.2937644709545 -3.86100702964343,50.2936632184708 -3.86101011331489,50.2934544692606 -3.86105257639456,50.2932136184314 -3.86103979270373,50.2930996278896 -3.86101735628371,50.2930289513153 -3.86095960188124,50.2929164900656 -3.86075964948106,50.2926129797321 -3.86062332003139,50.2924299306186 -3.86053495971366,50.2923251517332 -3.86041046290996,50.2921931665417 -3.86031426888608,50.2921011904386 -3.85992298626941,50.2917890518283 -3.85946856161303,50.2914040978296 -3.85932644208246,50.2912148456198 -3.85924683376243,50.2910820514075 -3.85918738659731,50.2909616132029 -3.85914676791048,50.2908579577864 -3.85911574336154,50.290745067334 -3.8590964091082,50.2905727341758 -3.85910939988434,50.290475415204 -3.85914744179458,50.2903704120156 -3.85895488688746,50.290398667928 -3.85887303827103,50.2904251535866 -3.8587901171035,50.2904597485637 -3.85859248026561,50.2905744966689 -3.85852220294881,50.2906097887671 -3.85831742250337,50.2906867951125 -3.85816440916208,50.2907584774812 -3.85810125726616,50.2907954534161 -3.85800612669504,50.2908761915521 -3.85797660476443,50.290911731448 -3.85795709050361,50.2909516067944 -3.85794617246735,50.2910309091706 -3.857969572297,50.2910907803758 -3.85786326206142,50.2911014708603 -3.85782400972605,50.2911011986454 -3.85769134914797,50.2910862344671 -3.85763955738316,50.291087960516 -3.85756548701518,50.2910972370755 -3.85747776946317,50.2911157223809 -3.85737921851786,50.2911443626289 -3.85725328669706,50.2911922321016 -3.85700925094806,50.2913076287048 -3.85686733738615,50.2913404670973 -3.85680724149712,50.2913459222421 -3.85672972918202,50.2913381684458 -3.85666961019685,50.2913103546455 -3.85662287032531,50.2912634453055 -3.85655721288315,50.2911646842221 -3.85652574105237,50.291147203438 -3.85648768782725,50.2911450237077 -3.85643464020908,50.2911531543689 -3.85637923346858,50.2911720223652 -3.856196585806,50.2912765459809 -3.85613137961129,50.2912964697419 -3.85608944516808,50.2913016345763 -3.85606259375133,50.2912957689779 -3.85603931081707,50.291274560491 -3.85601626298188,50.2912236749504 -3.85600618542652,50.2912175415689 -3.85598922524162,50.2912160143368 -3.85592228173282,50.2912269740511 -3.85582808925188,50.2912248807303 -3.85580297519249,50.2912279790031 -3.8557616701545,50.2912493199246 -3.85575090283398,50.2912611808554 -3.8557516720388,50.2912809507749 -3.85576067658578,50.2912951935312 -3.85586273987377,50.2913924736131 -3.85587969959391,50.291432666728 -3.85588537903277,50.29146854272 -3.85587902431688,50.2914867174238 -3.85584488011158,50.2915106414787 -3.85577839068059,50.2915332829308 -3.85568795466361,50.2915563065491 -3.85556514717915,50.2915744519182 -3.85540850044767,50.291588640895 -3.85523036921137,50.2915950802578 -3.85508869940681,50.2915955427773 -3.85501264587801,50.2915895625318 -3.85495896491719,50.2915814273268 -3.85492330717963,50.2915694077109 -3.85488894389701,50.2915519726158 -3.85478664425425,50.2914842779062 -3.85472945430845,50.2914573158149 -3.85468411386072,50.2914463491242 -3.854644674904,50.2914442808384 -3.85461404358349,50.2914483662986 -3.85452409490452,50.2914839697416 -3.85445212308268,50.2915472507483 -3.85442340342557,50.2915647936082 -3.85437932071733,50.2915861774374 -3.85434864271957,50.2915920624434 -3.85431761391295,50.2915889604759 -3.85428623715627,50.2915768723884 -3.85424234586974,50.2915317137417 -3.85422229450888,50.2915221433249 -3.8541856103365,50.2915164341055 -3.85412116180252,50.2915201593006 -3.8539227989569,50.2915808692573 -3.85389333390145,50.2915822385219 -3.85386074284943,50.291574665962 -3.8538221806325,50.2915563980681 -3.8537745445635,50.2915220894875 -3.85362191778207,50.2913895562365 -3.8534667038134,50.2912976168962 -3.85335826196295,50.2912534869326 -3.85331295697351,50.2912434194782 -3.85317621305783,50.2912276157996 -3.85291850798272,50.2911731859906 -3.85282849175222,50.2911683262736 -3.85267444762788,50.2911779747098 -3.85263640975861,50.291173186009 -3.85259252751573,50.2911639941401 -3.85252845617397,50.2911416359977 -3.85243359384661,50.2910864991718 -3.85232918994261,50.291036010563 -3.8521783682461,50.2910213285313 -3.8519714041675,50.2910066420537 -3.85191706941264,50.2910173986165 -3.85183349747076,50.2910681843161 -3.85179173717852,50.291077841104 -3.85168486726506,50.2910741483664 -3.85162222678261,50.2910886339127 -3.85144998068672,50.291136335213 -3.85137817001132,50.2911680514371 -3.85108150603195,50.2913356161026 -3.85102060286791,50.2913590653641 -3.85087590966105,50.2913919407753 -3.850789820668,50.2914166894041 -3.85070532847497,50.2914468082649 -3.85061851412367,50.2914886530935 -3.85039482717265,50.2916217852558 -3.85031482070303,50.2916958921904 -3.85008467531203,50.2918416250874 -3.85001835555602,50.2918687568544 -3.8498501350395,50.2919128849244 -3.84975060343441,50.2919522340313 -3.84966096523772,50.2919959219329 -3.84959110784199,50.2920392941784 -3.84939468260742,50.2921889855128 -3.84880490659599,50.2926193608835 -3.84871697802991,50.2926684156852 -3.84862591358137,50.2927112251307 -3.84845856662565,50.2927750304279 -3.84808192608007,50.2929105897992 -3.84796768627332,50.2929348852575 -3.84767959897716,50.292962842093 -3.84757897358181,50.2929770297107 -3.84751355396611,50.2929915572339 -3.84745126843865,50.2930123291683 -3.84739591350774,50.2930356874512 -3.84728606159134,50.2930985774455 -3.84725420144636,50.2931098741889 -3.84686817534842,50.2931825453768 -3.84685398730865,50.293145005261 -3.84581366772125,50.2932533324447 -3.84573414364504,50.2932653854776 -3.8456630528931,50.2932800010857 -3.84544923803174,50.2933427417027 -3.8453417740445,50.2933597333295 -3.84532659571967,50.2933653690525 -3.84524863589625,50.2934178598177 -3.84518070404054,50.2934423160821 -3.84506550161447,50.2934747161672 -3.84474488166896,50.2935356434913 -3.84411493998173,50.2936922026555 -3.84395459223084,50.293721720852 -3.84375169320728,50.2937375271616 -3.84342731844629,50.2938092100542 -3.84328615180189,50.2938258356023 -3.84306667335894,50.2938140291755 -3.84293877527081,50.2938115603235 -3.84248480214275,50.2938367388105 -3.84234867898816,50.2938370979591 -3.84210233574357,50.2938221185735 -3.84157290791267,50.2937459830867 -3.84106970828012,50.2936595387818 -3.84096749464634,50.2936296860885 -3.84084342547334,50.2935794078047 -3.84071991497723,50.2935435978474 -3.84061874412683,50.2935047366892 -3.84057330085722,50.2934910696493 -3.84048696039604,50.2934735537365 -3.84034742615107,50.2934604766181 -3.8403033720888,50.2934467865838 -3.84022689903346,50.2934659812236 -3.84020922690438,50.2932269896871 -3.84024053485148,50.2931653496644 -3.84026017179663,50.2930562387083 -3.84025869404913,50.2929789331853 -3.84024545718027,50.2929268999263 -3.84023774201802,50.292909938177 -3.84012622278701,50.2927858183598 -3.84002411638791,50.2926506690015 -3.83995685840189,50.2925815972945 -3.83986674020268,50.2925020976925 -3.83981032104542,50.2924589307931 -3.83979035392534,50.2924484571402 -3.83975344883112,50.2924400494824 -3.83959551168093,50.2924209675353 -3.8393973037363,50.2924142133584 -3.83853811528658,50.2922694578663 -3.83798465772479,50.2921909887073 -3.83749410312599,50.2921016316979 -3.83729095759718,50.2920418097735 -3.83711103435228,50.2919987943602 -3.83679732569173,50.2918724712637 -3.83653551372315,50.2917830930173 -3.83564673162286,50.2915245887742 -3.83547904834232,50.2915829849151 -3.83471118324911,50.2918766368797 -3.83462919146357,50.2918275767944 -3.83446930585778,50.291866067167 -3.83436388529029,50.2919001002858 -3.83418559896491,50.2919748481122 -3.83399845791188,50.2920722140041 -3.83392104584212,50.2921031074769 -3.83354503142763,50.2922197270436 -3.83340593027245,50.2921454903823 -3.83327864692559,50.2920835666456 -3.8331174131043,50.2920177708538 -3.83303206399565,50.2919867468038 -3.83273523853407,50.2918988106878 -3.83192626079751,50.2917073575553 -3.83107738485086,50.2915408047589 -3.83098279136466,50.2915252106968 -3.83073167760918,50.291494097174 -3.83071180332122,50.2914890153242 -3.83061365884426,50.290723383208 -3.83057112335497,50.2906043724836 -3.83052568036917,50.2905151706913 -3.83052564587139,50.2905142718005 -3.83044108375181,50.2903618440874 -3.8292354814209,50.2891629743764 -3.82905400394833,50.2891514432239 -3.82896415411114,50.2891537562135 -3.828764183098,50.2891730864043 -3.82862264550951,50.2891798090177 -3.82838218374832,50.2892420371163 -3.82828743491257,50.2892615113701 -3.8280425868384,50.2891367795002 -3.82752634095547,50.2889254061747 -3.82721580652944,50.2887719428869 -3.82691140350084,50.2886697247978 -3.82678799556062,50.2885997300261 -3.82665679701345,50.2885469413747 -3.82653162020657,50.2884669931154 -3.82638034467925,50.2883281991591 -3.82622293180629,50.2882497463743 -3.82596086892399,50.2880802315949 -3.82589946609075,50.2880515236863 -3.82583260011027,50.2880282954486 -3.82567391264091,50.2879921236298 -3.82509259982217,50.2878402084378 -3.82488508599313,50.2877742294277 -3.82482388903928,50.2877509125283 -3.82457179425791,50.2876208915235 -3.82425868723915,50.287435989679 -3.82407365149532,50.2873705559509 -3.8238002456102,50.2873793408103 -3.82317615509233,50.2873585580868 -3.82288486397728,50.2873415458133 -3.82255381008266,50.2873107688577 -3.82240704855249,50.2872896915147 -3.82201413123202,50.2872211280158 -3.82178214723212,50.2872112765746 -3.82154594997843,50.2872032877532 -3.82114135950827,50.2872321059118 -3.82068468604313,50.2872185781724 -3.82045760226103,50.2871915626236 -3.8199882720637,50.2871071949655 -3.81952966055606,50.2870063824359 -3.81911549412877,50.2869328378102 -3.81829615574569,50.286760425677 -3.81772050095077,50.2867225805864 -3.81704103135043,50.2867215167703 -3.81661384440081,50.2867102116237 -3.81625364056085,50.2866888656045 -3.81600649895838,50.2866882322576 -3.81598568319342,50.2867677750012 -3.81590882951699,50.2868499013575 -3.81583456042022,50.2869634584091 -3.81580101705044,50.2870431100304 -3.8157464437086,50.2872301819816 -3.81569165614397,50.2873416366001 -3.81539537399177,50.2873759372845 -3.81506044816533,50.2874289148235 -3.81453729434028,50.2875512794896 -3.81407303874022,50.2876367550821 -3.81390350728355,50.2876834607501 -3.81377690351906,50.2877115120869 -3.81364124260692,50.2877631744028 -3.81350656950005,50.2878012424217 -3.81347022014661,50.2878072044086 -3.81333993707786,50.2878146329399 -3.8130386436745,50.2879029564215 -3.81286450204833,50.2879380434714 -3.81275134856522,50.2879514974685 -3.8124011848865,50.2879722445051 -3.81216374439047,50.2880047207787 -3.8117063087307,50.2880109530376 -3.81122701154104,50.2880328109422 -3.81064357319697,50.2880463974272 -3.81048952805622,50.2880559909225 -3.81033548284768,50.2880655842145 -3.80974275485959,50.2881333514412 -3.80966407099793,50.2881309798289 -3.80960762554466,50.2881228671089 -3.80952832467462,50.2881042297923 -3.80924717155742,50.2880951199872 -3.80897234591288,50.2881399506788 -3.8087052081915,50.2882043532348 -3.80849372227013,50.2882193333664 -3.80814156264457,50.2882607792522 -3.80802835288854,50.2880529432072 -3.80749464267913,50.2880837243843 -3.80724871676575,50.2880389930234 -3.80717101222342,50.2880258149093 -3.80714857070503,50.2880261638631 -3.80711368895552,50.288031202507 -3.80708453200546,50.2880406474871 -3.80705985714166,50.2880554175618 -3.80702999203046,50.2880828576785 -3.80696243436316,50.2881144797573 -3.80683388999761,50.2881678214307 -3.80673825624028,50.2882007792964 -3.80660041218166,50.2882316949399 -3.80633486773094,50.2882618987595 -3.80611752264187,50.2882688734409 -3.80573560473628,50.2881938825301 -3.80569478227593,50.2881918193941 -3.80540465991214,50.288202620845 -3.8052781657402,50.2882000895224 -3.80499947387288,50.2882529731093 -3.80477270405308,50.2882708821311 -3.80454393308354,50.2882726356074 -3.80441279865035,50.2882575878437 -3.80435621650506,50.2882458778668 -3.80424823164433,50.2882124863718 -3.80418760823627,50.2882071332745 -3.80408990516842,50.288222137843 -3.80395376582184,50.2882584195731 -3.80386430356803,50.2882679003473 -3.80349656501554,50.2882709100743 -3.80341255256516,50.2882776085348 -3.80325529050063,50.288312419245 -3.80306110099714,50.2883379115957 -3.8029742777887,50.2883437548133 -3.80276771030097,50.2883388661132 -3.80267828160345,50.2883492448847 -3.8025874492995,50.2883623436527 -3.80243350762426,50.28841148816 -3.80215616188951,50.2884265787041 -3.80205126738864,50.2884749621491 -3.80184443605892,50.2885366158556 -3.80171303610465,50.288551331356 -3.80162475679277,50.2885553972741 -3.80158105231112,50.2885505900299 -3.80152843248867,50.2885334215638 -3.80139949416344,50.2884661837089 -3.80122419291482,50.2883574035703 -3.80120516749568,50.2883379163303 -3.8011591606207,50.2882720903676 -3.80103469986749,50.2881732224851 -3.8009818427487,50.2881497644771 -3.80090967162014,50.2881329000821 -3.80083203715066,50.288121515125 -3.80062112184559,50.2881148934217 -3.80049616191769,50.288076367477 -3.80044768622387,50.2880555387136 -3.80040283354571,50.2880202664692 -3.80035888742093,50.2879354358554 -3.80033231245095,50.2878998812203 -3.80025196401431,50.2878166040725 -3.80024490099871,50.2877061148874 -3.79995955701116,50.2876196299162 -3.79983441717778,50.2876161739891 -3.79969816789717,50.2875022913888 -3.79931521478399,50.2872491708246 -3.7990722401499,50.2870982756661 -3.79898789721058,50.2870194658012 -3.79893798838678,50.287000456557 -3.79886218432307,50.2870007309488 -3.79882249407804,50.2869887570806 -3.79877649186518,50.2869597971206 -3.79869946646779,50.2868908538363 -3.79860433194269,50.2867529543913 -3.79857325114332,50.2866715216139 -3.79852206737393,50.2865787991813 -3.79844744830896,50.2864999283131 -3.79838547068989,50.2864586261572 -3.79828543109153,50.2864116198332 -3.79803013629193,50.2862653185831 -3.79792845796454,50.286214740482 -3.79753440662702,50.2860382158547 -3.79725680023787,50.2858617772516 -3.79716222654511,50.2858092896928 -3.79690068171317,50.2856873609912 -3.79684755863311,50.2856567115328 -3.79676055041382,50.28558072858 -3.79669033538957,50.2855449477045 -3.79660969274643,50.2855273122017 -3.79649151268163,50.2855210476232 -3.79627500200418,50.2854730523769 -3.79613966535252,50.2854968149366 -3.79608643961565,50.2855003352518 -3.79603444864724,50.2854966436918 -3.79598622984739,50.2854856101881 -3.79592796191842,50.2854658294351 -3.79562863233674,50.2853454713429 -3.79549432609746,50.2852828069494 -3.79542470096472,50.2852596046429 -3.79521804677877,50.2852151427589 -3.7950606735031,50.2852499442444 -3.7949695548038,50.2852522515907 -3.79465191412089,50.2852050072377 -3.79458499674886,50.2852168305704 -3.79449533320688,50.2852209130313 -3.79441916013303,50.2852113000553 -3.79425782541615,50.2851777346154 -3.79418799637089,50.2852229626431 -3.79380807390565,50.2852369227539 -3.79359837205796,50.2852221764236 -3.79338638608013,50.285186695278 -3.79319793883534,50.2851770158021 -3.79313780785664,50.2851815398865 -3.79309607338786,50.2851920751218 -3.79305322015439,50.2852098212717 -3.79299554565561,50.2852458693576 -3.79284329387948,50.2853030683171 -3.79277911863486,50.2853139497591 -3.7926462987046,50.2853276884105 -3.79242472960998,50.2853329061055 -3.79231631640245,50.2853246877159 -3.792274814485,50.285378379243 -3.79213555335263,50.2853346700854 -3.79202673512137,50.28531566718 -3.79188228893773,50.2853187947068 -3.79173594508393,50.285345329376 -3.79158962358052,50.2853385944015 -3.79094283520723,50.2852333832823 -3.79058373452809,50.2852038507722 -3.79027778490789,50.2852058686559 -3.79008519389339,50.2851998448178 -3.78995701611261,50.285189231375 -3.78974112204936,50.2851574896586 -3.78959131840817,50.2851319231175 -3.78932657234093,50.2850721594146 -3.78914464399281,50.2850479865229 -3.78865125215736,50.2849188190763 -3.78846908135167,50.284854186068 -3.78806240026958,50.28479031025 -3.78770680915139,50.2847400341483 -3.7876974149013,50.284751867742 -3.78753171983967,50.285160934115 -3.78747052993569,50.2854029452328 -3.78748009626269,50.2855439685277 -3.78743859438313,50.2856750770241 -3.78721733765376,50.2863251688192 -3.78713210509491,50.2865990198549 -3.78702796689405,50.2868532895756 -3.78696714097675,50.2870278562161 -3.78686302293602,50.2874341763552 -3.78679122023352,50.2876556687339 -3.78677976172609,50.2879122003524 -3.78644774361017,50.2878552627849 -3.78642685667663,50.2880084443466 -3.78636991424711,50.2882126232148 -3.78593509044703,50.2891601160726 -3.78581010045166,50.289460653603 -3.78571161261045,50.2894549738984 -3.78564174196114,50.2894623421281 -3.78552513545141,50.2894983029647 -3.78538382255706,50.2895112653462 -3.78499305786937,50.2896107842512 -3.78508777316627,50.2898899607803 -3.78519086253234,50.2901330429303 -3.78516506565525,50.2907180829474 -3.78516449812573,50.2908143030386 -3.78517762854973,50.2909022204398 -3.78522247656176,50.2910149172738 -3.78525051263033,50.2910495543901 -3.78530992806288,50.2910998936416 -3.78545605570374,50.2912154401659 -3.78545747707166,50.2912163177524 -3.78555280314636,50.2912858870541 -3.78567323822134,50.2913551602622 -3.78584363621507,50.2914046935606 -3.78579160571022,50.2914774272893 -3.78567109867416,50.291597970571 -3.78571823174334,50.2916170281719 -3.78574812487341,50.2916301455855 -3.78567205928326,50.2916978539311 -3.78565228959686,50.291921153116 -3.78553935130166,50.291940873205 -3.78544167609502,50.2921456775844 -3.78530660573403,50.2923627455555 -3.78480322420983,50.2924541043081 -3.7843990836483,50.2925340446015 -3.78368654770151,50.2926664664227 -3.78351842171606,50.2927149053009 -3.78323471129389,50.292786699238 -3.78287977676533,50.2929072410888 -3.78218375262221,50.2932525933567 -3.78190774884203,50.2934564444282 -3.78132050505998,50.2931470529614 -3.78100720923904,50.2929909043053 -3.78069394565604,50.2928355637999 -3.78037139045995,50.2926948421008 -3.78001086486044,50.2925168451625 -3.77930334306544,50.2922191774951 -3.77894050298264,50.2920502951227 -3.77838507550277,50.2918015458349 -3.77798716828348,50.2916358038989 -3.77792458707258,50.291689813783 -3.77759807382894,50.2920078127142 -3.77749467362427,50.2921344698304 -3.7772876949591,50.2923426485337 -3.77707081769391,50.2925151008633 -3.777013871124,50.2925681237093 -3.77697895098439,50.2926127174142 -3.77678003583658,50.2928883002239 -3.77670944677766,50.2930288411536 -3.77659274522944,50.2933237568578 -3.77657398764588,50.2934635059036 -3.77652456773962,50.293644095719 -3.77570270827522,50.2937421729029 -3.77552144031236,50.2937395487767 -3.77561127389423,50.29400082394 -3.77573705572818,50.2944377885115 -3.77575998790113,50.2945282544029 -3.77578554786632,50.2946862075876 -3.77574947271593,50.2948117448448 -3.77558920558445,50.2948789347088 -3.77541280336449,50.2949698397923 -3.77525496311038,50.2950306978842 -3.77510361242733,50.2950761716708 -3.77511572088621,50.2951371299492 -3.77515922298671,50.29521109637 -3.77515775504588,50.295246276649 -3.77512853286896,50.2955560392022 -3.77502759575797,50.2958985476037 -3.7749812471932,50.296012551666 -3.77481577436646,50.2963568553846 -3.77459043635758,50.2967164606444 -3.77456843983413,50.2967662509452 -3.77456559607351,50.296804959103 -3.77459640479852,50.2969889085954 -3.77461246398565,50.297196462286 -3.77456769896888,50.2976144521313 -3.77459034767588,50.2978093167185 -3.77461339594558,50.2978997810138 -3.77462880036741,50.2979373109743 -3.77469555525272,50.2980325032559 -3.77482063889842,50.2982608698579 -3.7748544430319,50.298379044917 -3.77488013835994,50.2984254991636 -3.77490832255806,50.2984673291832 -3.77499583688753,50.2985541110381 -3.775098674178,50.298638860729 -3.77521810807967,50.2987153535832 -3.77530677886258,50.2987616548633 -3.77539700380297,50.2988061334635 -3.77562665191765,50.2989042304169 -3.77568384153048,50.2989321299481 -3.77580026218952,50.2990022841068 -3.77619285612479,50.2992508380134 -3.77675907549299,50.2996379952297 -3.77713377248823,50.2997446602434 -3.7774718352511,50.2998096239539 -3.77757810509106,50.2998340732985 -3.77785311600187,50.2999810159457 -3.77809278156139,50.300192250551 -3.77817775080971,50.3002881505097 -3.77836430224419,50.3005839101974 -3.77841766477716,50.3008474501817 -3.77854782453376,50.3010622480609 -3.77868956536415,50.3013236253462 -3.77879737979201,50.30154146246 -3.77907879977679,50.3020057120157 -3.77918780588333,50.302218135734 -3.77922997082327,50.3023334831478 -3.77923465962855,50.3023846644505 -3.77922819158711,50.3026240325478 -3.77919116205815,50.3028728611886 -3.77911390636849,50.3032104247832 -3.77908610708514,50.3034087583319 -3.77906889746464,50.3034719639725 -3.77899478597776,50.3036331515014 -3.7789218951086,50.303749452236 -3.77882333611474,50.3038543661164 -3.77878245358597,50.3038882610942 -3.77868380710978,50.3039536129792 -3.77877306201987,50.3042014072978 -3.77880251691942,50.3043143419949 -3.77884546557132,50.3045996211341 -3.77890968534458,50.3047380988433 -3.77892807951986,50.3048556091733 -3.77917984491915,50.305619916004 -3.77923055442044,50.3058493276758 -3.77922731628052,50.3059115098515 -3.77919495773425,50.3060621669522 -3.77908066182512,50.306235749677 -3.77898348774811,50.3063406424153 -3.77877192319778,50.3065049228777 -3.77839434724451,50.3067354967478 -3.77799082382003,50.3069503711829 -3.77785978173484,50.307013519787 -3.77772588532389,50.3071523332147 -3.777696493578,50.3071932455738 -3.77767140199914,50.3072718573531 -3.77767572116129,50.307313153307 -3.7777013221444,50.3073972836179 -3.77772124931197,50.3074410381288 -3.77778662463877,50.3075390361061 -3.77789738337105,50.307646141519 -3.77799719979101,50.3077237403285 -3.77868219152872,50.308165718309 -3.77875445242307,50.3082185624279 -3.77891569552374,50.3083626591535 -3.77902390443013,50.3084788831839 -3.7788142227197,50.3085045732473 -3.77864733978741,50.3085475908895 -3.77847491839592,50.3085942898896 -3.7780794543957,50.3087245181729 -3.77772947580869,50.3088665484635 -3.7773989739869,50.3090434369579 -3.77709317890309,50.3092432356551 -3.77655337276099,50.3095680901119 -3.77618053496529,50.3098148597186 -3.77587902860311,50.3099777226696 -3.77567262336722,50.3101320285551 -3.77544657421506,50.3103217021258 -3.77521807820264,50.3104861458058 -3.77502434822705,50.3106015021218 -3.77492054617264,50.3106408532048 -3.77437060720613,50.3109244895541 -3.77422671956654,50.311019392042 -3.77412629597783,50.3110748760303 -3.7740858387094,50.3111204517946 -3.77407876069367,50.3111574265994 -3.77413663136604,50.3114677465493 -3.7742330205935,50.311680366851 -3.77429505932945,50.3117603456732 -3.77442354004064,50.3118923599531 -3.77465279834242,50.3120903631765 -3.77470170529431,50.3121192892599 -3.77475049435305,50.3121482162251 -3.7757584098019,50.3125843806163 -3.77637353544661,50.3128843837763 -3.7765548963013,50.3129652336748 -3.77687211062848,50.3131457026456 -3.77700821268663,50.3132551191341 -3.777168979362,50.3133488715076 -3.77746351275981,50.313563854324 -3.77773443936417,50.313785491835 -3.77793607101009,50.3139190815703 -3.77804347853784,50.3139731865618 -3.77823699316233,50.3140412604416 -3.77851573015947,50.314130598125 -3.77869415333763,50.3142069944416 -3.77882722992837,50.3144244454334 -3.77894023479337,50.3145539945744 -3.77919499431481,50.3147920616678 -3.77974345197096,50.3152252463873 -3.78004098120218,50.315405110147 -3.7801986009341,50.3155258825137 -3.78023068046723,50.3155568621515 -3.78049947471177,50.3159098954626 -3.7806681978263,50.3161015315121 -3.78080251674654,50.316237136533 -3.78097657707248,50.3163855302525 -3.78110351003973,50.3164753006864 -3.78114522786317,50.316500737568 -3.78142400341075,50.3165936648677 -3.78156446644325,50.3166301753159 -3.78173279624786,50.3166995292065 -3.78177302532229,50.3167222904035 -3.7818567179004,50.3167830499059 -3.78219414362039,50.3169793804935 -3.78229854907955,50.3170272344729 -3.78240524830316,50.3170651612253 -3.78244977923997,50.3170914530435 -3.78256247795558,50.3171752360197 -3.78266432678409,50.3172321205261 -3.78283706515454,50.3173418679399 -3.78290137593079,50.3173705537734 -3.78306516195748,50.3174328723593 -3.78313860595734,50.3174425350807 -3.78321523167824,50.3174629395153 -3.7833716314504,50.3175135919657 -3.78344303814927,50.3175430680558 -3.78355763971903,50.3176033525602 -3.7838299972985,50.3177133685681 -3.78418953696923,50.3178967673767 -3.78425224474584,50.3179227796961 -3.78436339718159,50.3179651330003 -3.78446574515073,50.3179950328312 -3.7847374130357,50.3180493986283 -3.78489925151463,50.3180936713149 -3.78509210786029,50.3181806289525 -3.78513670797016,50.3182087180956 -3.78521203719673,50.3182687053079 -3.78524127690247,50.3182979297349 -3.78525348136481,50.318323818002 -3.78528310774103,50.3185149790059 -3.78528522756285,50.3185715950337 -3.78527272035779,50.3186149485755 -3.78525320383402,50.3186567008197 -3.78521825450867,50.3186977006719 -3.78513152214371,50.3187817568224 -3.78508106171306,50.3188229948166 -3.78496305209097,50.3188976408573 -3.78481853180377,50.3190159443066 -3.78532408328744,50.3191979094398 -3.7856705766833,50.3193356473153 -3.78589649111672,50.319439179824 -3.78596703482256,50.3194857529539 -3.78602916320722,50.3195333547713 -3.78611055266599,50.3196436925362 -3.78609118343898,50.3197635815684 -3.78612293492818,50.3199340288484 -3.78632647228864,50.3200801654595 -3.78661210206836,50.3203923792628 -3.78625781966375,50.32053548827 -3.7859107621279,50.3207602209553 -3.78578131271181,50.3208666048956 -3.78565949253613,50.3208396121892 -3.78556632888298,50.3207520237303 -3.78551608693769,50.32064759144 -3.78525401107466,50.3205157495626 -3.78518179839256,50.3204988750746 -3.78513104241558,50.3204951581732 -3.78491215632844,50.3205021159669 -3.78484036691041,50.3204996213197 -3.78473823007907,50.3204724153951 -3.78469450268984,50.3204676918573 -3.78461154995612,50.320467166428 -3.78457525333519,50.3204722199212 -3.78450755761343,50.3205388993556 -3.78447276345533,50.3205871803952 -3.78444952167248,50.3206037226853 -3.78434308140139,50.3206503163583 -3.78428747421567,50.3206655566394 -3.78417731486007,50.3206870301172 -3.78412686112551,50.3206914006196 -3.78393949747241,50.3206771927737 -3.78375966681614,50.3206754566749 -3.78365527475778,50.3206653697282 -3.78339786918474,50.3208068946204 -3.78336721061089,50.3208109619295 -3.78329088209877,50.3207986451407 -3.78313558849638,50.3208181127186 -3.78298169902618,50.3208348602251 -3.78294516650109,50.3208336226968 -3.78288281101435,50.3208201927409 -3.78278440565429,50.3207812383019 -3.78274047630484,50.3207711224791 -3.78253470238273,50.3207508995939 -3.78236321823911,50.3207121670967 -3.7823227044988,50.3207190826866 -3.78199637602204,50.3208202996976 -3.78195740085268,50.3208280910038 -3.78191257108125,50.3208341731823 -3.78173694058531,50.3208332689784 -3.78169522035686,50.3208420008178 -3.78162724845258,50.3208673213738 -3.78154075713491,50.3209208893209 -3.78134868147006,50.3209696913378 -3.78128720315854,50.3210137949683 -3.7811835158911,50.3210225769052 -3.7809895230918,50.3211316538678 -3.78094388805642,50.3211503365389 -3.78078936441225,50.3211904699017 -3.78064117878988,50.3212080262885 -3.78044146442919,50.3212011948021 -3.78019835108047,50.3211239928195 -3.78012565310089,50.3210972318425 -3.78002224188636,50.3210358730379 -3.77989816605788,50.3209856202777 -3.77988364030236,50.320975053078 -3.77985123327714,50.3209322990076 -3.77980686818272,50.320910498771 -3.77957317080326,50.3209365570004 -3.77949578843649,50.3209332455557 -3.77946034396856,50.3209238971335 -3.77942747543085,50.3209091144355 -3.77939705005854,50.3208853026461 -3.77926528633949,50.3207407538949 -3.77921896151851,50.3207036975094 -3.77909581045473,50.3206813042477 -3.77905367291599,50.3206819492785 -3.77894320791385,50.3206953301625 -3.77890674261483,50.3206958883166 -3.77884455739777,50.3206869490137 -3.77880470995701,50.3206713735297 -3.77879168960562,50.3206607822629 -3.77877232303445,50.3206322148338 -3.77872168150926,50.3205943257944 -3.77865994687091,50.3205943711746 -3.77852803042376,50.3206350549793 -3.77850277857149,50.3206381388189 -3.77845071565384,50.3206335406948 -3.77842363936809,50.3206249624527 -3.77830741358692,50.3205584034817 -3.77822732001929,50.3205227628631 -3.77819476976232,50.3205133697878 -3.7781638616903,50.3205138426856 -3.7781024463842,50.3205255728674 -3.77807051703323,50.3205359524717 -3.77797394500154,50.3205832876877 -3.77764034819177,50.3206792976314 -3.77757493293398,50.3206955840881 -3.77745469505735,50.3207109109905 -3.77742276544632,50.3207212904124 -3.77737888936176,50.3207498358556 -3.77736422995136,50.3207698422461 -3.77735079420745,50.3208257965822 -3.77733600073668,50.320842208172 -3.7772933790565,50.3208671375484 -3.77726419437138,50.3208765755098 -3.7772277958987,50.3208789300835 -3.7770096589275,50.3208687785194 -3.77681357749086,50.3208474979286 -3.77672940253788,50.320851483086 -3.77642608519409,50.3208525227875 -3.77633560160517,50.3208395184022 -3.77596688416527,50.3208199763084 -3.77591850500931,50.3208054296671 -3.77578728729553,50.3207498878797 -3.77574178584987,50.3207379946058 -3.77569243465177,50.3207315549471 -3.77553118057582,50.320740312815 -3.77505126013302,50.3206801149639 -3.77475693141707,50.3206207689045 -3.77463025100292,50.3206155096385 -3.77448924459476,50.3206392427869 -3.77437211870016,50.3206230477389 -3.7742727986236,50.3205966896628 -3.77419096756278,50.3205889472537 -3.77408563835236,50.32062831969 -3.77404944058177,50.3206360659129 -3.77393019031223,50.3206405835478 -3.77381147369032,50.3206594802671 -3.77333496682329,50.3208403831828 -3.77321738747687,50.3208898327821 -3.77302245520195,50.321011498721 -3.77299104447533,50.3210732113562 -3.77301596034017,50.3211016050489 -3.7730224534913,50.3211266829466 -3.77295757088754,50.3211573459539 -3.77291263603859,50.3211948974065 -3.77283636739703,50.3213336345941 -3.77276599765197,50.3214067319138 -3.77264893140572,50.3215074272709 -3.77260498355817,50.3215341730271 -3.77256229202638,50.3215573036697 -3.77243093589573,50.3216132576343 -3.77239930534556,50.321631723265 -3.77237619263356,50.3216518578614 -3.77231154470269,50.3217293638801 -3.77224461871471,50.3217798388442 -3.77212994694693,50.3218328406296 -3.77201445596139,50.3218606769505 -3.77195092696147,50.3218904192721 -3.77157296251367,50.3219276521061 -3.77142632813132,50.3219496691863 -3.77118699096624,50.3220891822895 -3.77087321478122,50.3221892754259 -3.77079409550136,50.3223668092014 -3.77077856831401,50.3225163092673 -3.77057403285332,50.3226822656161 -3.770271326538,50.3228154583239 -3.77012775626799,50.3229606131959 -3.7699917289948,50.3230032382878 -3.76993991909967,50.323120919198 -3.76989733664188,50.3231845098513 -3.76987873625931,50.323251332143 -3.769862567863,50.3232713604383 -3.76982574967353,50.3232998852851 -3.76980215290882,50.3233101356268 -3.76960905518383,50.3232914056002 -3.76957152108537,50.3233037559891 -3.76952859162285,50.3233205948187 -3.76947640581064,50.3233501629882 -3.76929266814176,50.3234743481084 -3.76927559288973,50.3235042811626 -3.76931556347824,50.3235980851589 -3.76932086998221,50.3236286669004 -3.76924566491044,50.3237215275496 -3.76922499504526,50.3237326317446 -3.7691916716252,50.3237430299997 -3.76914380834214,50.3237392622427 -3.76906633442737,50.3237710139551 -3.76909288540629,50.3238434422034 -3.76889888434387,50.3238409998963 -3.7688592454805,50.3239090415612 -3.76890642599214,50.3240441880417 -3.76870060866324,50.3241759026396 -3.76849078242609,50.3242402385037 -3.76812273545176,50.3243142643756 -3.76797558585988,50.3243632594816 -3.76791268601722,50.3244100745201 -3.76789542777867,50.324438211253 -3.76785698078911,50.3244603760232 -3.76777860439964,50.3244678625225 -3.76771028635796,50.3244841876391 -3.76767984069013,50.3244972392122 -3.7676266469264,50.3245403099212 -3.76746091078093,50.3246535193009 -3.76735545558735,50.3247648222468 -3.76728595783911,50.3248243251018 -3.76725025550672,50.3248455486745 -3.76717965780367,50.3248753959882 -3.76714077667727,50.3248858783033 -3.76687707917136,50.3248970817607 -3.76654524138546,50.3249669568816 -3.76645082664403,50.3249980652357 -3.76636533116866,50.3250416254537 -3.7663242205162,50.3250701245786 -3.76625659275886,50.3251394902858 -3.76618079303759,50.3252540280919 -3.76611251673462,50.3253090153844 -3.76601585503608,50.3253545438916 -3.76597770595256,50.3253847967344 -3.76587595709644,50.3255212187332 -3.76572719380486,50.3254893108316 -3.76553478183041,50.3254517717067 -3.76533642952134,50.3254071288753 -3.76489752929531,50.3253544503578 -3.76478330482046,50.325341797844 -3.76477613430131,50.3253014441192 -3.76452972776754,50.3252854048197 -3.76447071547327,50.3252871994126 -3.76438352809531,50.3253226916516 -3.76424055494465,50.3253689218008 -3.76376399326694,50.3255505957387 -3.76359070883584,50.3256135604957 -3.76308027635415,50.325753484952 -3.76266751762774,50.3257624439886 -3.76224388809549,50.3257436920638 -3.76214393351328,50.3257002487287 -3.76204164874565,50.3255938092497 -3.76165856981747,50.3251490423954 -3.76143713806784,50.3249374069969 -3.76090070727859,50.3245273327596 -3.75989090467063,50.3238518881869 -3.75979507243098,50.3238038854232 -3.7594907057419,50.3236672349012 -3.75935329271116,50.3235973820006 -3.75914315741007,50.3234998563233 -3.75874362095877,50.3231415606001 -3.75844917716236,50.3228906523528 -3.75835741616261,50.3228398894688 -3.75817490354373,50.3227688289067 -3.75800899902202,50.3226895145941 -3.75775929637717,50.3226213587298 -3.7577016208348,50.3225431041064 -3.75763519466107,50.3224945648754 -3.75750407418565,50.3224443967059 -3.75731809436596,50.322354594665 -3.75621890631423,50.3218441205236 -3.7557937676966,50.321667114655 -3.7552994325014,50.3214416086409 -3.75496707650086,50.3212298393745 -3.75457686925675,50.3214696065181 -3.75408529547268,50.3218161047852 -3.75271411128973,50.3228845968281 -3.75224774906669,50.3232307064105 -3.75187146875683,50.3235791426475 -3.75160725093294,50.3238061192061 -3.75134097759026,50.3241285271373 -3.75124299881898,50.3242173136046 -3.75108818767673,50.3243230508241 -3.75045787709328,50.32468151496 -3.74955020138747,50.3253292780137 -3.74936223561382,50.3254913503036 -3.74928234137048,50.3255743773706 -3.74920292599695,50.3256672884224 -3.74911588310091,50.325782793633 -3.74899051348408,50.3259682008294 -3.74895396919936,50.3260424832365 -3.74892863948077,50.3261192933119 -3.74891202747719,50.3262032566228 -3.74890675958226,50.3262869583402 -3.7489111203779,50.3263300526067 -3.74926341206218,50.3264345380553 -3.74962413219649,50.3265792690272 -3.749475526129,50.3267407492718 -3.74923849611067,50.3266740923914 -3.74907492264668,50.3269643795002 -3.74891539243807,50.3269829659717 -3.74912250402579,50.3277650930938 -3.74923330199257,50.3280251727942 -3.7493215666081,50.3281353414771 -3.74963993040304,50.3286152906942 -3.75002179974467,50.3291429272884 -3.75007947180289,50.3292590408666 -3.75011047894519,50.3293368015198 -3.75012990829553,50.3294084423531 -3.75015249462451,50.329562849463 -3.750274182032,50.3298920002998 -3.75030040786639,50.3299941111508 -3.75033370604444,50.3302508618498 -3.75033663857322,50.3304063735415 -3.75041708211724,50.3311832136168 -3.75044835312764,50.3313059280491 -3.75047620372978,50.3313765434394 -3.75053925612897,50.3314844827114 -3.75060219237876,50.33155456953 -3.75068926231708,50.3316287871686 -3.75093256430555,50.3318275248519 -3.75124221289564,50.3320314667136 -3.75152180896715,50.332259329441 -3.75142386282725,50.3323084614379 -3.75094320004742,50.3328041320665 -3.75056201783504,50.3331759270213 -3.75043344300425,50.3333091422725 -3.75019040417473,50.3335781471158 -3.74974027227526,50.334025698962 -3.74949725794053,50.334257747584 -3.74937518270571,50.3345303266767 -3.7490607314625,50.3349974149572 -3.74883067110764,50.3353174759467 -3.7487524882581,50.3354823020488 -3.74872146032622,50.3355934573723 -3.74870589798583,50.3357060879937 -3.74871011486505,50.3358588845834 -3.74869061574817,50.3361326165832 -3.74853760552332,50.3366359375044 -3.74816115477055,50.3364086247075 -3.74780520544145,50.3361684149387 -3.74751120014741,50.3364291897888 -3.74737201118926,50.3365041157015 -3.74716159289632,50.3366683211252 -3.74697296739138,50.336772762444 -3.74682489259157,50.3368739874179 -3.74661470348648,50.3370066264249 -3.7462101474367,50.3372420841515 -3.74608518126119,50.3373194920935 -3.74594144027419,50.3373872918054 -3.7458679484647,50.337411773739 -3.74556568720242,50.3374856399122 -3.74545596459426,50.3375205567298 -3.74526738656523,50.3375917262955 -3.74473568190113,50.3378074178228 -3.74461222637057,50.3378534203399 -3.74413043997328,50.3380117109607 -3.74361664657259,50.3382200255327 -3.74319095500959,50.3383756725879 -3.74296694620055,50.3384762322327 -3.74260396231583,50.3386579122695 -3.74229020574821,50.3388011779984 -3.74193062987285,50.3389621232829 -3.74169635993267,50.3390483578308 -3.74162721287082,50.3390808648862 -3.74157371981311,50.3391168240974 -3.7415276156675,50.3391615741982 -3.74146631276881,50.3392533086828 -3.7414510141055,50.339297597201 -3.74141191100462,50.3395338552731 -3.74140894848669,50.3396049336605 -3.74141692855625,50.339709117892 -3.74144601325741,50.3398517404218 -3.74147799893679,50.3399564635235 -3.74159088976748,50.3402012347627 -3.74163463600565,50.3403201688478 -3.74167951787039,50.3404733441591 -3.74173111877344,50.3406929574501 -3.74172588918518,50.3408953482977 -3.74168856088424,50.3411801353452 -3.74168422438977,50.3412548311223 -3.74171272244617,50.3414954710774 -3.74170613195925,50.3415845878475 -3.74167800922205,50.341775722666 -3.74154777445794,50.3422102646008 -3.74148131153419,50.3423543178754 -3.74137717020706,50.3425042413361 -3.74122314166801,50.3426747830065 -3.74116714621734,50.342756547767 -3.74107158321353,50.3429477934705 -3.74100098778898,50.3430549526932 -3.74082457532037,50.343266292469 -3.74068917664647,50.343407691725 -3.74018513495297,50.3438847842519 -3.74026587316427,50.3438997608318 -3.74045784752717,50.3439238615592 -3.74061865354341,50.3439385385522 -3.74102516506609,50.3439477369217 -3.74146607201958,50.343975301214 -3.74187683694559,50.3439835343649 -3.74208177409656,50.3439786645872 -3.74230205282958,50.3439654723612 -3.74277975647809,50.3439250428481 -3.74289903568617,50.3439196577855 -3.74304104810909,50.3439211253722 -3.74333114423121,50.3439347585227 -3.74425537306365,50.3440341904236 -3.74509618168923,50.3440422531193 -3.74527995817414,50.3440323005765 -3.74557975757357,50.3440071177972 -3.74643802011327,50.3439159993503 -3.746586849892,50.3439137633686 -3.74668263316557,50.3439186184506 -3.74692960917381,50.3439445803979 -3.74769690956867,50.344059021503 -3.74800887720273,50.3440938942081 -3.74809378873174,50.3441088026366 -3.74817481032654,50.34413455996 -3.74833238385876,50.3442158129521 -3.74838372378499,50.3442348228824 -3.74843597489628,50.3442439271568 -3.74850627925059,50.3442428697429 -3.74870612338439,50.3442128889484 -3.7490820649052,50.3441910479771 -3.74935651393765,50.3441635403617 -3.74957452596295,50.344129686945 -3.74988241641024,50.3440567158563 -3.75011308493786,50.3440235712301 -3.75024623074994,50.3440107762143 -3.75045247119168,50.3440003873135 -3.75082371194494,50.344008374509 -3.75082515895581,50.344161211833 -3.75083436907986,50.3442572852024 -3.75086884349738,50.3444321945054 -3.75090052404382,50.3445279285371 -3.75095267247917,50.3446477225499 -3.75102639458834,50.3447805886095 -3.75112902142502,50.3449337007362 -3.75154179754755,50.3454563768686 -3.75196019138338,50.3459394028165 -3.75208860364697,50.3461065121247 -3.7521752569075,50.3462473657417 -3.7522792462536,50.3464373223558 -3.75233889629724,50.3465686917769 -3.7524373776859,50.3468766123942 -3.75244457438251,50.3469178660237 -3.75244194185308,50.3469628646254 -3.7524281240545,50.3470062329551 -3.75241217195055,50.3470325496726 -3.75236180209074,50.3470746709473 -3.75222888422975,50.3471316131792 -3.75217118332208,50.3471666512098 -3.75212660484001,50.3472149793163 -3.75206355755096,50.3473346200176 -3.75203666693658,50.3473691945882 -3.75198901039318,50.3474094759495 -3.75190379473159,50.3474621030677 -3.75178649165243,50.3475214169512 -3.75167564074435,50.3475671465523 -3.75143527575384,50.347642701328 -3.75131767282004,50.3476939279767 -3.75103256140771,50.3478511713456 -3.75083006797895,50.3479639199955 -3.75105504158681,50.3483490639257 -3.75040035775253,50.3490839259492 -3.75047444887782,50.3492266778168 -3.75072242739699,50.3496637184683 -3.7507635950976,50.349711653362 -3.75090929112002,50.3498506292914 -3.75116675237324,50.3500473569167 -3.75157243202972,50.3503380633743 -3.75173502584542,50.3504794812147 -3.75179137160854,50.3505208937941 -3.7518841385124,50.3505599587199 -3.75195941396303,50.350580404499 -3.75207270607285,50.3506039640796 -3.75197327935008,50.3509193625749 -3.75211007391809,50.3514272209823 -3.75276054069089,50.3514560807889 -3.7522697775612,50.3517953622419 -3.75176113221618,50.3523355148238 -3.75123753468729,50.3527373290262 -3.75087520038387,50.3530899549943 -3.75081436506675,50.3531943663902 -3.75077788724132,50.3532740418955 -3.75075643603442,50.3533400042089 -3.75070983509367,50.3536770854002 -3.75071665397336,50.353749006159 -3.75073925522798,50.3538277929497 -3.75086071756772,50.354073326227 -3.75097926387059,50.3543529807878 -3.75119418317022,50.3546150894096 -3.75132602872112,50.3547993209716 -3.7513950344883,50.3549547378078 -3.751455949119,50.3551957868133 -3.75155302391832,50.3554650637282 -3.75175253820107,50.3558847581354 -3.75190474170676,50.3562377269016 -3.75208389485839,50.3565984714441 -3.75216391248018,50.3567096616293 -3.75219904907708,50.3567477966964 -3.75229000761879,50.3568129646355 -3.7524798897811,50.3569297823859 -3.75267228575454,50.3570770435097 -3.75271177480663,50.3571169107668 -3.75274896558054,50.3571730877849 -3.75277940198006,50.3572346714313 -3.75279401545813,50.3572884014559 -3.75280159572318,50.3573431369308 -3.75279762312265,50.357424121847 -3.75314609425004,50.3590234354033 -3.75317085892088,50.3590851943235 -3.75321564635434,50.3591555538431 -3.75325831443091,50.3592061633365 -3.75332918702532,50.3592608428403 -3.75338094267631,50.3592906338619 -3.75362567152122,50.3594075219344 -3.75398851072719,50.3596025634114 -3.75420487515507,50.3597486507744 -3.75433915865119,50.3598473316693 -3.75457219374544,50.3600273360061 -3.75491563307546,50.3599978757097 -3.75527885083152,50.3599735105763 -3.75555537419812,50.3599621422253 -3.75571132145185,50.3599597875592 -3.75599853696809,50.3599680386732 -3.75645252532112,50.3600034419567 -3.7573956975651,50.3601105787314 -3.75758298168844,50.3601563025261 -3.7577170190233,50.360207327196 -3.75782032641585,50.3602643018875 -3.75785500412694,50.3602898537842 -3.75787844301394,50.3603155746848 -3.7579379554412,50.3604045923445 -3.75796985237845,50.3604301853501 -3.75801268947349,50.3604475217019 -3.75805929882253,50.3604540096897 -3.75813641229268,50.3604483483823 -3.75835672365431,50.3603964614225 -3.75840144518719,50.3603894909294 -3.75855169895683,50.3603836217561 -3.75872179852753,50.3603846458185 -3.75980455096451,50.3604258105188 -3.76050405379475,50.3604448935317 -3.76084028216108,50.3604523905864 -3.76110723907632,50.360445650138 -3.76117589418424,50.3604401149231 -3.76142351418088,50.3604057916186 -3.76150416573191,50.3603829898733 -3.76231033662764,50.3600550761446 -3.76239944500586,50.3600321455941 -3.76248607194626,50.3600173447284 -3.76340422337856,50.3599431791852 -3.76454262628672,50.3598908408362 -3.7648456263432,50.3598745532204 -3.76527053951653,50.3598447241332 -3.76529186940907,50.3598884596184 -3.76564673901466,50.3598641887881 -3.7662447522805,50.3598038541873 -3.76689949465715,50.3596760249033 -3.76730721156995,50.3596014918071 -3.76736813364953,50.3595376238945 -3.76801590274109,50.3594125925628 -3.76819898293144,50.3593855303177 -3.76850149230651,50.3593530554294 -3.76861623654141,50.3593369237873 -3.76916433391531,50.3592188868066 -3.76934732743012,50.3591864292994 -3.76984562428723,50.3591257946313 -3.77022381389917,50.3590866785471 -3.77046800189152,50.3590757669704 -3.77125560443758,50.3590080232849 -3.77140159812542,50.359003101796 -3.77193127381434,50.3589914342268 -3.77257396374151,50.3589951260235 -3.77305540533146,50.3590111633799 -3.77312279957925,50.3590092362295 -3.77319012686865,50.3590055121054 -3.7733979375511,50.3589609807694 -3.77378453534016,50.358923612733 -3.77402908884607,50.3588821165359 -3.77429429478786,50.3588690782669 -3.77457956374231,50.3588656241959 -3.77487119671911,50.3588431896876 -3.77499010784099,50.3588269872247 -3.77540086758414,50.3587568754173 -3.77588665303795,50.3586657434018 -3.77595488225387,50.3586458186856 -3.77605196914884,50.3586101673509 -3.77613903956833,50.3585701727017 -3.77618434273749,50.3585416064752 -3.77621155555984,50.3585160139716 -3.77628457136103,50.3584007044288 -3.77634062568103,50.3583962512602 -3.77635887247612,50.3582825869717 -3.77659274874252,50.3581819032842 -3.77746149817351,50.3578790026831 -3.77803076868066,50.3577236442252 -3.77814838407546,50.357675987315 -3.77853934058243,50.3575261405083 -3.77890985449814,50.357434151481 -3.77938947614744,50.3573646798815 -3.77974025825622,50.3572720916289 -3.78014302196429,50.3571778070339 -3.78094207612611,50.357076552199 -3.78137839952246,50.3570149291835 -3.78180399326663,50.3569670458328 -3.78217861161517,50.3569478164825 -3.78261853700367,50.3569824345599 -3.78301076143663,50.3569071841739 -3.78346637451112,50.3567572285419 -3.78387165373711,50.3567303297717 -3.78409741230835,50.3567538415334 -3.78415885406621,50.3568158407915 -3.78436284767622,50.3570070212504 -3.78442355879713,50.3570897121612 -3.7844607416291,50.357181756638 -3.78446960505633,50.3572697394935 -3.78445241257564,50.3573708005965 -3.78439032925867,50.3575174186664 -3.78438229353772,50.357602963483 -3.78488606099819,50.3575376838032 -3.78502109678961,50.357466374472 -3.78600169231905,50.3568837586538 -3.78607129710956,50.3568296383839 -3.78616336595337,50.3567347103367 -3.78691480292773,50.3567519376626 -3.78706373689428,50.3567514465769 -3.78734912043831,50.3567884218996 -3.78761107793019,50.3568374456848 -3.78747567217377,50.3570500236505 -3.78724316468602,50.3575599218548 -3.7870647728166,50.3580879603491 -3.78712425413551,50.3586995619725 -3.78723286302816,50.3590450622956 -3.78754595245789,50.3593316705033 -3.78786533420107,50.3595264663591 -3.78808228979037,50.3596885773218 -3.78815296293854,50.3597739012751 -3.78824568778943,50.3599586030143 -3.78828482568074,50.3600623051345 -3.78830900664695,50.3601474446209 -3.7883184048426,50.3602093426737 -3.78831903996106,50.3602632833458 -3.78831111739591,50.3603146582525 -3.78829212499769,50.360370698762 -3.78823102590197,50.3604661414578 -3.78793007789419,50.3607621908076 -3.78784666549614,50.3608623827028 -3.78775977570854,50.3609842070945 -3.78770679510657,50.361070533078 -3.78755403302443,50.3614200521825 -3.78750562395048,50.3615170073832 -3.78720237937633,50.362014594396 -3.78701738715942,50.3623673054834 -3.78693081021487,50.3626087150815 -3.78688216586491,50.3626994693483 -3.78671153001671,50.3629098001161 -3.78662947856316,50.3629722940013 -3.78639125192578,50.3631054350667 -3.78593021793846,50.3633347021489 -3.78582575006192,50.3633992486708 -3.7858081672857,50.3634157039275 -3.78568445926157,50.3635668666299 -3.78556488378199,50.3637540220022 -3.78550665927466,50.3638861948232 -3.78540292752225,50.3640074673603 -3.78526986670754,50.3642091258758 -3.78523007933117,50.3643105338464 -3.785226222652,50.3643591486756 -3.78523324874839,50.3643950071236 -3.78524983942914,50.3644262233797 -3.78529499147516,50.3644677915415 -3.78553670552035,50.3645756666323 -3.78578485785817,50.3647067312322 -3.78592582930412,50.3647899874471 -3.78634092115172,50.3650597463159 -3.78681268794448,50.3653412212052 -3.78699831873043,50.3654156976934 -3.78711916772891,50.3654507960525 -3.7874423521384,50.3655204593283 -3.78752900271708,50.3653580864821 -3.78760991240969,50.3652651270402 -3.78767694881167,50.3652164402173 -3.78789573214974,50.3650871024417 -3.78805082582905,50.3649876072097 -3.78818738930753,50.3648794051565 -3.78848868274405,50.3647029390488 -3.7886720381902,50.3645688398736 -3.78869622999814,50.3645369967308 -3.78879631173884,50.3642818012256 -3.78882586278602,50.364244480834 -3.78886270363698,50.364216039868 -3.78890698470059,50.3641973745357 -3.78896135058089,50.3641848491247 -3.78901181580183,50.3641795764326 -3.78905123035411,50.3641825668056 -3.78912376334868,50.3642030307471 -3.78922935201134,50.3642454654043 -3.78948318858871,50.3643764346975 -3.78956865571029,50.3644047923626 -3.78966370227338,50.3644258088941 -3.78973713867205,50.3644363675367 -3.78984149146474,50.3644428543213 -3.79005507067633,50.3644404649949 -3.79058209314094,50.3643568198785 -3.79080745577381,50.364331769188 -3.79104454505946,50.3643164284438 -3.79116396990371,50.3643136893894 -3.79181584234542,50.3645222348025 -3.79191285750138,50.3645216382737 -3.79217808744233,50.3645085589293 -3.79254577239846,50.364525370545 -3.79261039711259,50.3644497432442 -3.79264211519208,50.3644330690218 -3.792703056489,50.3644104595199 -3.7927365368049,50.3644036491198 -3.79310100181182,50.3644457753752 -3.79317454054664,50.3644590276594 -3.79371460563324,50.3646107500736 -3.7937527989553,50.36461825394 -3.79397613823054,50.3646471778612 -3.79440503830474,50.3646855185451 -3.79452741753499,50.3647241824279 -3.79506254007463,50.3647815618352 -3.79528342393136,50.3648222110388 -3.79552219469532,50.3648544914533 -3.79570671688476,50.3648624314662 -3.79623212736277,50.3648498207083 -3.79639664746659,50.3648499764549 -3.79679798760178,50.3649381883289 -3.79725222455304,50.3650148807083 -3.79734947819222,50.3650205710659 -3.79741677774696,50.3650159339321 -3.79749775859858,50.3650020936667 -3.79756731081125,50.3649803378619 -3.79764455637566,50.3649412884718 -3.79771739516821,50.3648961028987 -3.79780432156351,50.3648156316121 -3.79785244339399,50.3647483486763 -3.79797687825582,50.3646204505118 -3.79822479566702,50.3645572714087 -3.79822402538853,50.3644601728262 -3.79844965440538,50.364442295911 -3.79856406022646,50.3644171483401 -3.79864093531693,50.3644051687367 -3.7988400512565,50.3643912989041 -3.79890772349248,50.3643965461607 -3.79914127339329,50.3644378906139 -3.79922704861557,50.364437462794 -3.79927180150214,50.3644313755032 -3.79932743337956,50.3644125314291 -3.79953638580699,50.3642878189811 -3.79959186677235,50.3642680776842 -3.80021740811119,50.3641504943451 -3.80062557928311,50.3640515589324 -3.80084548780316,50.3640265731942 -3.8009437228166,50.3640214548758 -3.80141669402786,50.3640357081773 -3.80175319316614,50.3639729479226 -3.80185322616028,50.36397859053 -3.80189097917009,50.3639744086585 -3.80207230034565,50.3639346428108 -3.80216673291227,50.3639026075823 -3.8022087378785,50.3638974602746 -3.80234520057377,50.3639007407414 -3.80248122070402,50.3638923380176 -3.80256777326585,50.3638757095305 -3.80264298427624,50.3638565603214 -3.80267473244277,50.3638407822984 -3.80283024166629,50.3637133864292 -3.80293118100567,50.3635930407859 -3.80295436841817,50.3635746971371 -3.80301069351018,50.3635405547199 -3.80312002255179,50.363494799861 -3.80338011343849,50.3634197318969 -3.80347685352217,50.3634119372218 -3.80352058972395,50.3634157541873 -3.80353342317083,50.3634209499081 -3.80358307282834,50.3635074002078 -3.80360345167405,50.363525067303 -3.803630931687,50.3635435236717 -3.80365222347218,50.3635485881735 -3.80369011082872,50.3635480004522 -3.80378366271819,50.3635294654161 -3.80392965879574,50.3634876363114 -3.80411562322093,50.3634236077456 -3.80417149045561,50.3634110509933 -3.80422886938586,50.3634047658683 -3.80427528445585,50.36340584449 -3.80433338035443,50.3634184299248 -3.80438187979471,50.363434761974 -3.80447797274472,50.3634863218085 -3.80451936973822,50.3635018645951 -3.804571564376,50.3635055498935 -3.80465655389453,50.3634844496502 -3.80470849554354,50.3634845419924 -3.80507233837519,50.3635499293186 -3.80511795627716,50.3635636075052 -3.80524987602538,50.3636335830761 -3.80549193497242,50.3637494146752 -3.80552423459426,50.3637848804363 -3.80557901295849,50.3638199962248 -3.80566206956415,50.3638609679576 -3.80574744277884,50.3638866169385 -3.80581260679435,50.3638990927668 -3.80586901033478,50.36390370149 -3.80598989239376,50.3639027234115 -3.80609939861575,50.3638983250895 -3.80615657114868,50.3638865565956 -3.80626200135552,50.3638480529809 -3.80632535733497,50.3638129002982 -3.80641064603122,50.3637630195519 -3.80653232075855,50.3636730101807 -3.80670180503326,50.3636910582886 -3.80728944355569,50.3638734496282 -3.80722818191835,50.3640003760348 -3.80721201749501,50.3640204084458 -3.80715356237145,50.3640716706895 -3.80692074955447,50.3641994651316 -3.80645269993436,50.3644279346588 -3.80685909117017,50.3645754686041 -3.80693152978975,50.3645932255452 -3.80701213962774,50.3646063592012 -3.80709544245133,50.3646140561656 -3.80717418471489,50.3646146312094 -3.80733534091784,50.3645995379193 -3.80793657176722,50.3644741077952 -3.80802353316028,50.3644682593508 -3.80819266505132,50.3644800156621 -3.80824895699891,50.3644054085455 -3.80827614286851,50.3643825062954 -3.8083962996332,50.3643257876089 -3.80859795603815,50.3642660031634 -3.80879699228988,50.3641738895263 -3.80898359833265,50.3641268370189 -3.80915703006887,50.3640656918508 -3.80919577196756,50.3640875685037 -3.80938462768378,50.3640234865059 -3.80941881154345,50.3639986762242 -3.80942923075596,50.3639769340479 -3.80943519439855,50.3639112017081 -3.80946270982433,50.3638604197977 -3.80948875350487,50.3638410419129 -3.80958453636316,50.3638080801922 -3.80959411249879,50.3638007384109 -3.80963116818499,50.3637417149051 -3.8096777913241,50.3637086196673 -3.80984883571026,50.3636609984703 -3.80993041593221,50.3636965944633 -3.80995591485114,50.3637024917541 -3.81012868235477,50.3636971048636 -3.81016114581678,50.3637001962938 -3.81031959516797,50.3637633689593 -3.81038079445345,50.3637812987433 -3.8104614394081,50.3637953288905 -3.81059410601057,50.3638085489178 -3.81076738820129,50.3638166409249 -3.81081081609982,50.3638123677746 -3.81092370712521,50.3637872306832 -3.81112723931409,50.3637768677989 -3.81140980862935,50.3637382966493 -3.81186022030782,50.3637141950624 -3.81209443725079,50.3636601913439 -3.81216837706566,50.3636473499805 -3.81232489176981,50.3636565995231 -3.81239066100936,50.3636483807256 -3.81257731944275,50.3635663436441 -3.81266909852492,50.3635379380382 -3.81281553304256,50.3635077808063 -3.813435656464,50.3631761163493 -3.81358489915484,50.3631071605653 -3.81364044780162,50.3630163762183 -3.81423872634381,50.3627749660548 -3.81444280432628,50.3628185384944 -3.81451758186851,50.3628246551512 -3.81456939465034,50.3628183618325 -3.81476956593019,50.3627594883178 -3.81479765265308,50.3627572519765 -3.81501218032916,50.3627799796999 -3.81515745356828,50.3627894008985 -3.81530396711441,50.3627979031205 -3.8155655247301,50.3627983155096 -3.81595055462909,50.3628292585436 -3.81610312288396,50.3628475571389 -3.81729820336327,50.3630311981113 -3.81804345448568,50.3631050593533 -3.81810674996377,50.3631049690849 -3.81827345912673,50.3630897737858 -3.81917742641556,50.3629029028419 -3.82024814000978,50.3626990272407 -3.82026520478914,50.3625935571929 -3.82053955624358,50.3625254202271 -3.82072652402696,50.3624883241339 -3.82091249350263,50.3624584370259 -3.82172245452991,50.362351246391 -3.82216363169339,50.3623074665388 -3.82270399226924,50.3622441479017 -3.82293740429958,50.3622090175577</coordinates></LinearRing></outerBoundaryIs></Polygon>
  </Placemark>
