  <Placemark>
	<Style><LineStyle><color>ff0000ff</color></LineStyle><PolyStyle><fill>0</fill></PolyStyle></Style>
	<ExtendedData><SchemaData schemaUrl="#Wards__December_2019__Boundaries_EW_BFE">
		<SimpleData name="objectid">6692</SimpleData>
		<SimpleData name="wd19cd">E05012465</SimpleData>
		<SimpleData name="wd19nm">Clutton &amp; Farmborough</SimpleData>
		<SimpleData name="wd19nmw"></SimpleData>
		<SimpleData name="bng_e">364607</SimpleData>
		<SimpleData name="bng_n">160316</SimpleData>
		<SimpleData name="long">-2.50949</SimpleData>
		<SimpleData name="lat">51.340809</SimpleData>
		<SimpleData name="st_areashape">17364989.4697606</SimpleData>
		<SimpleData name="st_lengthshape">26007.370614948</SimpleData>
	</SchemaData></ExtendedData>
      <Polygon><outerBoundaryIs><LinearRing><coordinates>-2.5258307329394,51.365835218081 -2.52583645081506,51.3659520540305 -2.52584565173947,51.3660005556227 -2.52587050222857,51.3660400868721 -2.52589956349917,51.3660750151633 -2.52599468376041,51.366097062207 -2.52596018870925,51.3662185725872 -2.52601814139881,51.3662632597159 -2.52611472956742,51.3662996826329 -2.52617385370667,51.3661879501556 -2.52628368614162,51.366119137862 -2.5264022505212,51.3660682656124 -2.52650495491172,51.3659975986003 -2.52654178686018,51.3659560822043 -2.52663076342778,51.3658244387215 -2.52684226354298,51.3658531534334 -2.52689108815209,51.365855630839 -2.5269356083847,51.3658545325926 -2.52701581629001,51.3658361929903 -2.52692298655315,51.3657557061668 -2.52681468412632,51.3656995597039 -2.52675472693501,51.3656143401456 -2.52678277304384,51.3655503905471 -2.5269118356393,51.3655372258954 -2.52696423686658,51.3654695701072 -2.52691752351483,51.3654032586745 -2.52690235859106,51.3653304239808 -2.52697465009295,51.3652518912662 -2.52697812539252,51.3651727702358 -2.52700174878356,51.3651052436903 -2.52704750324902,51.3650879589281 -2.5271892906021,51.3650485775667 -2.52720014951126,51.364993693416 -2.52719365579391,51.3649334938912 -2.52725462904665,51.3648595078265 -2.52733219491113,51.3647350160372 -2.52735845375626,51.3646495000578 -2.52743239655905,51.3645808480593 -2.52753732826046,51.3645911639015 -2.52763190946077,51.3645664676458 -2.52765281287936,51.3645097408052 -2.52758445307688,51.3644354360544 -2.52763380810635,51.3643605129372 -2.52773844420508,51.3643348721946 -2.52779906462686,51.3643642647197 -2.52788789405407,51.3643440882945 -2.52791762814616,51.364303502618 -2.52799640759981,51.3641611164571 -2.52799757454052,51.3640153946434 -2.5280370449287,51.3639459991133 -2.52806259267041,51.3639225114724 -2.52809398440428,51.3639025933879 -2.52814403115022,51.3638879855726 -2.52830322899105,51.3638594020664 -2.52840292358737,51.3637851502713 -2.52848707995153,51.3637398252087 -2.52852778373499,51.3636542430332 -2.52854701550474,51.3635759492947 -2.52865400158819,51.363517935308 -2.52870394727239,51.3634843601891 -2.52885191366164,51.3633650334924 -2.52894827554842,51.3633717908711 -2.52898329219047,51.3631729685399 -2.52899561212208,51.3629984304527 -2.52910997987542,51.3629439786582 -2.52922064850136,51.3629488729332 -2.52933671059612,51.3629285735305 -2.52945179942515,51.3628236879557 -2.52962936612936,51.3627761422235 -2.52967369664914,51.3627588620063 -2.52972502218791,51.3627217742994 -2.52953926799708,51.3626857566798 -2.52951475897875,51.3626759788806 -2.52956862507887,51.362612810445 -2.52965997133339,51.3625647545615 -2.52974121332791,51.3625031700442 -2.52978638364428,51.3624355466157 -2.52990079560235,51.3623954773304 -2.52998352728969,51.362350156777 -2.53006581664648,51.3622562962686 -2.53017119260091,51.3620489749628 -2.5304426712906,51.3618067444362 -2.53056088031595,51.361716317097 -2.53054854363184,51.3616426599413 -2.53051350177047,51.3615923881644 -2.53053590354421,51.3615428458061 -2.53063614928406,51.3615172224322 -2.53081851357976,51.3615163976981 -2.53068446017005,51.3613524988935 -2.53066984024858,51.3613273948665 -2.53074405264928,51.3612830115216 -2.53081837454703,51.3612583145102 -2.53084400730924,51.3612321301388 -2.53086225651573,51.3612023824003 -2.53084713807622,51.3611341321011 -2.53085497266138,51.3610639795943 -2.53091014247714,51.360990916287 -2.53097691217089,51.3609275989512 -2.53106168579466,51.3608031630693 -2.53109987756444,51.3607571441227 -2.53119384233012,51.360690198555 -2.5314640381454,51.360573821389 -2.53154815400329,51.3605257968496 -2.53151186517327,51.3603677495683 -2.5315184539014,51.3603127944878 -2.53148212638766,51.3602743055081 -2.53135644587859,51.3602200392573 -2.5314506100432,51.3601602834223 -2.53169408389452,51.3600989520107 -2.5320348380871,51.3598788776206 -2.53197071991639,51.3598027586651 -2.53197008507024,51.3597479262229 -2.53216749573477,51.3596768252224 -2.53223619469716,51.3596576361124 -2.53231874035127,51.3595970331042 -2.53237960530427,51.3595149541143 -2.53248942179348,51.3594470355679 -2.53228412434618,51.3593382071298 -2.53237068797385,51.3592461241032 -2.53238874063176,51.3591894094212 -2.53234482634306,51.3591194915458 -2.53233853696374,51.3590672924033 -2.53234273697068,51.3590618791122 -2.53259280574853,51.3590797121918 -2.53269043323802,51.3590738758163 -2.53272171850888,51.3589226231226 -2.53268660764733,51.3587438045524 -2.53266861096552,51.3585497158815 -2.53280481128369,51.3585311192109 -2.53285919056547,51.3585128929561 -2.53290913610281,51.3584901926306 -2.5330187409723,51.3584042067089 -2.53290074986484,51.3583795721892 -2.53286899953556,51.3583680294965 -2.53284290076854,51.3583537653534 -2.53282674616944,51.358318779977 -2.53281482279386,51.3582810787058 -2.53285849192956,51.3582071680711 -2.53284061045813,51.3581560095222 -2.53282020746006,51.3579995972614 -2.53282949101018,51.3579321343831 -2.53289478298195,51.3578644181471 -2.53304003413351,51.3577584925891 -2.5330613344519,51.3577368214776 -2.53304918335091,51.3576793443679 -2.53295350548187,51.3576078638965 -2.53280036836544,51.357533947475 -2.53256559865284,51.3573434492238 -2.53251421521958,51.3572519905076 -2.53250338916021,51.3571863273373 -2.53251690890311,51.3571062610179 -2.53257447719806,51.3569954303194 -2.53247956689503,51.3568672229125 -2.53245433247781,51.3567945232435 -2.53249680790814,51.35674039415 -2.5325695703709,51.3566942185996 -2.53259614716813,51.3566374649123 -2.53302720736012,51.3567739448958 -2.53319546380882,51.3567938559686 -2.53328287177112,51.3567853688612 -2.53376172007713,51.3567130751215 -2.53412578554654,51.3566475943274 -2.53435533472175,51.356633066224 -2.53437260128652,51.3566311892362 -2.53479147053988,51.3565843342879 -2.53504619399861,51.3565147640412 -2.53514942975724,51.3564927188434 -2.53542073179845,51.3564842893419 -2.53619540435673,51.3564151293388 -2.53677753015144,51.3563351593552 -2.53720640738264,51.3562837551885 -2.53776554809963,51.356202895553 -2.53799935049501,51.3561775526772 -2.5382760505203,51.3561349323536 -2.53852385359728,51.3560816572848 -2.53872590308739,51.3560447718798 -2.53881185911169,51.3560237020148 -2.53903937361798,51.3559570347232 -2.53920562025882,51.355926605537 -2.53967888192284,51.3558739992907 -2.54023556125865,51.3558264912723 -2.54068332565512,51.3558010560197 -2.54162515634641,51.3557706427198 -2.54212505126855,51.3557881109038 -2.54257023880708,51.3557851538957 -2.54276436396569,51.3557995387379 -2.54286650045961,51.3558152463001 -2.5433933481524,51.3559189725255 -2.54353551813282,51.3559255048523 -2.54404826413946,51.3558079750817 -2.54467042192769,51.3557107002954 -2.54478355442284,51.3556850048572 -2.54484248666305,51.3556820345336 -2.54490278675281,51.3556844511861 -2.54508961156747,51.3558121310857 -2.54515366489519,51.3556518230515 -2.54517779016412,51.3556193490112 -2.54526326199607,51.3555677131405 -2.54531440596779,51.3555170451309 -2.54527045445054,51.3554453346576 -2.54526244409151,51.3553689620829 -2.54532183597918,51.3552949729442 -2.54541578947077,51.3552297233344 -2.54541109928745,51.3551937873187 -2.54537248029514,51.3550824992994 -2.54560750193121,51.355040954698 -2.54563954264,51.3549572041618 -2.54564421177755,51.3548716943993 -2.54566793042748,51.3548149511425 -2.54590730935713,51.3546520288475 -2.54600650693505,51.354540009849 -2.54594533296451,51.3544638846938 -2.54592578274921,51.3543929601105 -2.54585879842166,51.3543159627449 -2.54602215920174,51.3542827517118 -2.54612736050455,51.3543174097678 -2.54641801427544,51.3542449511651 -2.54661398165556,51.3541757195736 -2.54667252675239,51.3541502766325 -2.54672241781242,51.3541239747923 -2.54672111351559,51.3540143108412 -2.54674290672196,51.3539053485422 -2.54687839249303,51.3538283073834 -2.54707412043966,51.353749187738 -2.54730983686419,51.3536374294032 -2.54736404248472,51.3536156022366 -2.54785057799856,51.3534677038767 -2.549215467389,51.3531546971851 -2.54971296919979,51.3530930380348 -2.55038382239311,51.352992718645 -2.55055016843669,51.3529721614828 -2.55127341423157,51.3529265165485 -2.55182596868338,51.3529041418096 -2.55212298141334,51.3528793715504 -2.55200471817593,51.352713625287 -2.55187656051263,51.3524534473548 -2.55160405456829,51.3520041835353 -2.55132038248,51.3515712414799 -2.55120685250515,51.3514540138929 -2.55089918074526,51.3511811942129 -2.55093559931422,51.3510982310242 -2.55106920458492,51.3508656786772 -2.55117406244031,51.3507536279698 -2.55131357564852,51.3505300368314 -2.55141950978525,51.3503793265925 -2.55154611725283,51.350165593101 -2.55158239763379,51.3500710338812 -2.55161780528666,51.3500322127435 -2.55166043532706,51.3499933585323 -2.55174598700966,51.3499498064654 -2.55211873186287,51.3497753666499 -2.55215434520111,51.3497536246216 -2.55217548186739,51.3497193655707 -2.55219372298634,51.349680625063 -2.55217736586911,51.3493929520395 -2.55216530033338,51.3493543541753 -2.55211741265984,51.3491917818485 -2.55207750365815,51.3490921876326 -2.55207669477219,51.3490247705915 -2.55233817297155,51.3489218704185 -2.55269517338223,51.3487484912025 -2.5531021946424,51.3485702919159 -2.55319080802791,51.3485357136615 -2.55351593215373,51.3484685577759 -2.55359314928542,51.348441225658 -2.55367315371975,51.3484093852549 -2.55405146351778,51.3482268222499 -2.55421410663882,51.3481361605459 -2.55445033158593,51.3479623583423 -2.55452146346279,51.3479017931231 -2.55463058120183,51.3477808201521 -2.5548094097531,51.3476090860552 -2.55490640171869,51.3475528934046 -2.55515339039838,51.3474375594967 -2.55524567693039,51.3473544201523 -2.5555404524304,51.3469123657561 -2.55558097215048,51.3468168861052 -2.5555891038252,51.3467745970811 -2.5555873984286,51.3466333819357 -2.55562634467019,51.3465352139296 -2.55570115995583,51.3464269866832 -2.55571391986211,51.3462973889782 -2.55575033628627,51.3460976525392 -2.55577030431442,51.3458493609764 -2.55590511622666,51.3454845623608 -2.55598301256406,51.3451514961484 -2.55603791649243,51.3450612516447 -2.55607386842833,51.3449505116313 -2.55614776933155,51.344884538974 -2.55617173099134,51.3448493666505 -2.55618705003882,51.3448141462659 -2.55618907627019,51.344746715837 -2.55635009202737,51.3445230157657 -2.55659489341443,51.344228710678 -2.55663922254967,51.3440962664336 -2.55652752011516,51.3439925200512 -2.55649466332223,51.343889297982 -2.55650758971095,51.3436563214908 -2.5565311207352,51.3434682419233 -2.55653409825254,51.3433522638592 -2.55651272319149,51.3432488974087 -2.55648909671923,51.3431941746584 -2.55631749134008,51.3430116043693 -2.55618533288873,51.3428898852172 -2.55610700799435,51.342824633935 -2.55585382907555,51.3426604288627 -2.55561804468953,51.342514927782 -2.55527005646779,51.3423511702108 -2.55475938792275,51.3421548294329 -2.55468866724589,51.3421210039567 -2.55456578573229,51.3420514676721 -2.55451217401576,51.3420130661354 -2.55441796112109,51.3418174512409 -2.55431974780304,51.3416434305804 -2.55421495915196,51.3414146948126 -2.55417358215103,51.3411927605311 -2.55417618746999,51.3410551200947 -2.55411955593904,51.340519527382 -2.55415585648225,51.3404375520624 -2.55428458070231,51.34027504395 -2.55432121604154,51.3402209350459 -2.55435567328443,51.3401038194925 -2.554464906281,51.3398758703525 -2.55448090964885,51.3397696296517 -2.55449473291723,51.339728212779 -2.55454404163008,51.3396452775872 -2.55477033712825,51.3393681417495 -2.55495150588647,51.3392657052688 -2.55504427512005,51.3392239150607 -2.55533716287524,51.3391100720235 -2.55601971964777,51.3388011096825 -2.55634084242539,51.3386440712868 -2.55682142039394,51.338381008966 -2.55759686134047,51.3380419314329 -2.55791076379777,51.3378857324016 -2.55807357867686,51.3378130421682 -2.55817335396,51.3377541368013 -2.55844542724864,51.3375846508448 -2.55878870765045,51.3373627759924 -2.55886406839844,51.3373012886653 -2.55877436661827,51.3372440939984 -2.55873814474262,51.3372146008761 -2.5587090255492,51.3371850739371 -2.55869126500516,51.3371357168065 -2.55877951357897,51.3370732698944 -2.55890587692935,51.3369620980965 -2.55910435220512,51.3367561037029 -2.55920216933815,51.3366531585606 -2.55932288063913,51.3365446200343 -2.55954653005396,51.3362872658085 -2.5596883094474,51.3361400624707 -2.55982935802533,51.3360494950182 -2.56008550839742,51.335866596887 -2.56029149122721,51.3356947244669 -2.56053131832018,51.3354643490614 -2.56063203450423,51.3353666924078 -2.5608639184623,51.3350770241116 -2.56092439220689,51.3349696709527 -2.56096105887281,51.3349191549026 -2.56101627085806,51.3348559650074 -2.56107720495696,51.3347864551334 -2.56130618509898,51.3344922157446 -2.56130150048585,51.3344670677146 -2.56125234912459,51.3342020240812 -2.56128572398542,51.334114577307 -2.56127586864737,51.3340148419071 -2.56114593981798,51.333832078163 -2.56107768287864,51.3337666914578 -2.56106592943512,51.3337442738132 -2.56123768404791,51.3337074955101 -2.56137790371966,51.3336663717228 -2.56144360001939,51.3336381903327 -2.56174170837452,51.3334811570517 -2.56192067973038,51.333444342314 -2.56231703442642,51.3333471568236 -2.5623450359619,51.3332849946848 -2.56237649573076,51.3331571039113 -2.56239574185577,51.3329691319394 -2.56242267618469,51.3325868607825 -2.56245071496364,51.332421229661 -2.56243218484987,51.3323089502332 -2.56236721229395,51.3321635417726 -2.56218997624041,51.3318667493838 -2.56214474648065,51.3318067363337 -2.56206172601155,51.3317145427165 -2.56199484919876,51.3316456438906 -2.56167578734041,51.331373800856 -2.56133334681546,51.3310670096336 -2.56119987951166,51.3309524928419 -2.56090274992531,51.330712095938 -2.56056595509062,51.3304016795592 -2.56027967770122,51.3301188883869 -2.5601142687858,51.3299658677591 -2.55984963205241,51.3296910633214 -2.5596030163008,51.3294675025956 -2.55945899829425,51.3293116823541 -2.55931619455764,51.3291388656701 -2.55920210274347,51.3289622262124 -2.55912261091288,51.3287989962629 -2.55893009150758,51.3287809451378 -2.55884394577427,51.3287813552292 -2.55875653101719,51.3287844689119 -2.55846393118118,51.3288084239752 -2.55784712220276,51.3288356286422 -2.55665280299267,51.3288224195183 -2.55627655735659,51.3287989423644 -2.55621038617512,51.3287875689079 -2.55608797448953,51.3287539888832 -2.55581102359748,51.3286429320985 -2.55568572902395,51.3286057693809 -2.55562677724918,51.3285943623237 -2.55500698979351,51.3286197677214 -2.55399629373233,51.3285930780562 -2.55366029525339,51.3285802793629 -2.55348065635014,51.3285604509507 -2.55323011320932,51.3284995147397 -2.55315082020562,51.3284693234794 -2.55307293448808,51.3284382272302 -2.55285637569017,51.3283295756702 -2.55276353728748,51.3282455118223 -2.55241356274215,51.3279054692558 -2.5523376592395,51.3279211083599 -2.55182961241971,51.3275628397603 -2.55156252294953,51.3274337469762 -2.55146010429526,51.3273892813256 -2.55068054873618,51.3271348522185 -2.54996640155789,51.3269367452626 -2.54965844195177,51.3268725642995 -2.54955027106679,51.3268218303517 -2.54936109696958,51.3266068785495 -2.54919999451502,51.3263343521072 -2.54896753030933,51.3261007242265 -2.54870680683769,51.325898690238 -2.54789186385448,51.325311707164 -2.54765106251229,51.32510247663 -2.54748253203851,51.3251697849759 -2.54717695598065,51.3250560544488 -2.5468147672475,51.3248878404419 -2.54654018910373,51.3247335104086 -2.54646488963494,51.3246700361545 -2.5463749952958,51.3245931443779 -2.54623448525335,51.3244886216313 -2.54594703798294,51.32432625993 -2.54535207603533,51.3240152020515 -2.5452898773678,51.3239786342831 -2.54503263797612,51.3238287153385 -2.54510371338635,51.3237654589282 -2.54452680382733,51.3235290155127 -2.54433651524192,51.3234569929672 -2.54397513299531,51.3233552888579 -2.54373114880398,51.3232350612849 -2.5434330049626,51.3230170074966 -2.54330405760363,51.3229088318102 -2.54304361918089,51.3227373486745 -2.54275898129235,51.3225704719684 -2.5424876220778,51.3224359846684 -2.54227982477891,51.3223434541752 -2.54210088578553,51.3222498009446 -2.54172477240726,51.3220007295158 -2.54164544391232,51.3219660372733 -2.54163536645645,51.3219642853525 -2.54150767764041,51.3220835353885 -2.54130784003545,51.3222958000106 -2.54092764596915,51.3226769983177 -2.54083951494468,51.322749320117 -2.54066544906394,51.3228391180249 -2.54048591448853,51.3229470094871 -2.54014498858407,51.3231157830482 -2.53976608396041,51.3232344789928 -2.53959652814776,51.3235886345148 -2.53952201554527,51.3237229199125 -2.53943742472476,51.3238554540499 -2.53934431461307,51.3239881171763 -2.5386538609499,51.3248374670326 -2.53840347126368,51.3250193035855 -2.53793902662192,51.3248263605591 -2.53757647295648,51.3246238699661 -2.53723154082925,51.3244608518755 -2.53638346166632,51.323604256244 -2.53606610116678,51.3233386281404 -2.53573724766586,51.3230712532113 -2.53518756949757,51.3226988093701 -2.53464821723438,51.3223487888889 -2.53445907653672,51.3222515746366 -2.53350242649264,51.3218000690315 -2.53320551345026,51.3216835662163 -2.53260743835973,51.3214714319784 -2.53232921259161,51.321353942959 -2.53194583374885,51.3212082532029 -2.5316414800427,51.3210819814933 -2.5312543434104,51.320856209755 -2.5308833378581,51.3206645246131 -2.53070553459372,51.3205538584613 -2.53036084029193,51.3202730565436 -2.5301538443482,51.3201237773501 -2.5298787997839,51.3199110692368 -2.52976286137655,51.3198090218542 -2.52965106981248,51.3196971579027 -2.5295378080705,51.3195808053451 -2.5293124052853,51.3193219360502 -2.52894642340842,51.3188235902363 -2.52863622794887,51.3182990131123 -2.52830421284169,51.318120627788 -2.52823374937801,51.3179905977594 -2.52819211937785,51.3178576504297 -2.52819193412015,51.3178414700524 -2.52851864271425,51.3176808861423 -2.52819197202407,51.3174728107247 -2.52813636721409,51.3172455374804 -2.52819400051955,51.3170196420989 -2.52822849616297,51.3165194909785 -2.52827224159597,51.3160832138148 -2.52841681156898,51.3154224642402 -2.52850437882368,51.3151766566292 -2.52813622220964,51.3152286546894 -2.52770637379624,51.3152863223595 -2.52732201346141,51.3154319711597 -2.52703069896237,51.3155519413814 -2.52690924589905,51.3155974334196 -2.52667494808154,51.315561628086 -2.52647418992916,51.31557241715 -2.52630436733533,51.3156504879182 -2.52620058523102,51.3157309600673 -2.52613350416412,51.3157619146802 -2.52605776691065,51.3157910206074 -2.52578728041384,51.3158497653877 -2.52545863859713,51.3157261922141 -2.52522842971323,51.3155402413251 -2.52481846223508,51.3157029869118 -2.52451479787767,51.3158716378179 -2.52433808077004,51.3159785039231 -2.52422522046028,51.3160203588461 -2.52388766215453,51.3161217396263 -2.52349268952462,51.3162098001284 -2.52342488204262,51.3161768417169 -2.52335099102826,51.3161187389003 -2.52325580862355,51.3160714296938 -2.52312215241755,51.3160531473856 -2.52293404114567,51.3160422984495 -2.52283751727607,51.316012164328 -2.52253357457875,51.3159065425434 -2.52241564858505,51.3158774025394 -2.52217686473615,51.3158317187116 -2.52206615915838,51.3158133331215 -2.52193146008179,51.3158283157401 -2.52185513346829,51.3159311348867 -2.52180358911925,51.3160599136225 -2.52178704455244,51.3162497556407 -2.5217865915413,51.3163351579664 -2.5218733552055,51.3163914061252 -2.52190245284081,51.3164327175955 -2.52188403176753,51.3164462839795 -2.52177688625498,51.3164917079397 -2.52171792201778,51.3166025408684 -2.52165223427682,51.3166315992578 -2.52163239833921,51.3166559587644 -2.5216154512838,51.3166848005639 -2.52159927486546,51.3167712609648 -2.52156601663965,51.316874787748 -2.52159533693464,51.3169357864197 -2.5216559764085,51.3169624850902 -2.52174512308842,51.3169782701709 -2.52195889534567,51.3169773199737 -2.52203642539754,51.316980571189 -2.52206438797238,51.3170470591425 -2.52203353772591,51.3172377731425 -2.52204390981018,51.3172655943112 -2.52208763336476,51.3173238320786 -2.52212099604996,51.3173552368459 -2.52233275628689,51.3174271090113 -2.52239909480682,51.3174555803472 -2.52242946028511,51.3174833125181 -2.52245275673286,51.3175137737558 -2.52242424521747,51.3176496411378 -2.52246813351504,51.3177223507445 -2.5223995891177,51.3177604116069 -2.52205633037716,51.317850934636 -2.52201902720308,51.3181091887289 -2.52191530284311,51.3181959484379 -2.52189182170195,51.3182851389227 -2.52183644135038,51.3183366254205 -2.52130108501341,51.3184522703361 -2.52125395581201,51.3184695599971 -2.52121392490702,51.3184868181272 -2.5211541542537,51.3185266368139 -2.52106390230823,51.3186646662072 -2.52096246638893,51.3187028721893 -2.52064302411973,51.3187555295213 -2.52059444338229,51.3187701277353 -2.52055298271893,51.3187864927718 -2.52048614574617,51.3188398269302 -2.52038784265206,51.3189040882904 -2.52035382191859,51.318940286427 -2.52032551854876,51.3189799661169 -2.52038697551684,51.3198446610386 -2.52034728809651,51.3201442768177 -2.51981763567824,51.3201277450824 -2.5196307244759,51.3202248503765 -2.51955340170643,51.3202404745603 -2.51946429138861,51.3202282835748 -2.51941237685192,51.320209635337 -2.5193360559443,51.3201776105525 -2.51927522179156,51.3201337412322 -2.51922484424554,51.3201150861135 -2.51901482841952,51.3201988081146 -2.51891185703012,51.3202271305297 -2.51885305864251,51.3202381772505 -2.51860096789934,51.3202734518166 -2.5185251764078,51.320298956218 -2.51841372924909,51.3203416993126 -2.51837372450776,51.320361653063 -2.51826596155513,51.320469103643 -2.51817332227327,51.3205325288304 -2.51798014392827,51.3207041807871 -2.51787201766871,51.320790058141 -2.51784516083784,51.3208217297477 -2.51778109882432,51.3209964087117 -2.5177585905631,51.3210360613389 -2.51770343557533,51.3211082203549 -2.51767077976021,51.3211399174945 -2.51763225502855,51.3211652579503 -2.5174952646632,51.3212305859021 -2.51712290776365,51.3213041427498 -2.51687326577622,51.3214319942729 -2.51681688212389,51.32152132857 -2.51675593709095,51.321721162809 -2.51669501047336,51.3217853464985 -2.51666710630769,51.321860980944 -2.51666473967121,51.3219032413927 -2.51668516821822,51.3220685583708 -2.51668606438618,51.3222754020675 -2.5166341703573,51.322512143775 -2.51658350947148,51.3225950692809 -2.51657008976318,51.3226751350633 -2.51658246250516,51.3227551763584 -2.51662046761695,51.322820632146 -2.51663399838421,51.3228772062942 -2.51664330026153,51.3229364966669 -2.51664112485558,51.3229958366545 -2.5166331845975,51.3230579886485 -2.51648108509254,51.3233175542131 -2.51694776295732,51.3234657147987 -2.51801241699357,51.3237047257574 -2.51822806556348,51.3237415299554 -2.51911326914154,51.3238472910924 -2.51919955800348,51.3238603940297 -2.51942278949964,51.3239295248758 -2.51875068066692,51.3249172026905 -2.51853922098437,51.3252535337476 -2.51886358343824,51.3253815493957 -2.51902367797995,51.3254545559038 -2.51918394087566,51.3255321455561 -2.51953036243449,51.3257166944461 -2.51969350811594,51.3257977766106 -2.51985363540783,51.3258735684102 -2.52016517953455,51.3260079297314 -2.5208524452343,51.3262485870332 -2.52135804172072,51.326412648166 -2.52176885683082,51.326566431425 -2.5227986907406,51.3268882579505 -2.52426647236173,51.3273537505096 -2.52426683104285,51.3273853019711 -2.52425855050692,51.3274168020859 -2.5242032757037,51.327478176747 -2.52409484054104,51.3275370919627 -2.52390750910405,51.3275990567421 -2.52363177078092,51.3277019579058 -2.5235517763123,51.3277436653999 -2.5235188118211,51.327873260846 -2.5234195932439,51.3279833745532 -2.52324915764416,51.3281370455587 -2.5232182047234,51.3281938171308 -2.52322334141739,51.3282711032727 -2.52319927223612,51.3282981785378 -2.52308139295551,51.3284012740781 -2.523048069837,51.3284994078338 -2.52301388976959,51.3287828172894 -2.52295912383907,51.3287641833339 -2.522881687366,51.3287708208124 -2.52268016270847,51.3288445328335 -2.5222579481894,51.3289506893983 -2.52175840310206,51.3290626714082 -2.51984909688222,51.329418223083 -2.519614062489,51.3294489280691 -2.5192201258044,51.3295135968264 -2.5191111619335,51.3295266638249 -2.51877264868398,51.3295425434693 -2.51860172342659,51.3295388033523 -2.51848811553491,51.329517730458 -2.51824764961618,51.3294441797072 -2.5179879311391,51.329321270724 -2.51784276951298,51.3293039324136 -2.51771083927661,51.3293162002846 -2.51759644842475,51.3293517636663 -2.51770505449293,51.3294438766418 -2.51779389327683,51.3295567511702 -2.51729013509799,51.3298116657852 -2.51707426045565,51.3298944207985 -2.5169115685604,51.3299707385739 -2.51619714766057,51.3302571396462 -2.51579550674581,51.3304171186292 -2.51564637906785,51.3301722724524 -2.51557997549614,51.3300017641075 -2.51550342841726,51.3297071563218 -2.51545316560542,51.3295724453247 -2.51529102975889,51.3292009032452 -2.51520789560413,51.3290790115626 -2.51526638573115,51.3289123600832 -2.51524924410774,51.3287973706088 -2.51513842360691,51.3286440473395 -2.51504977099616,51.3285365625003 -2.51505817374117,51.3283989871491 -2.51508592421928,51.3283088803644 -2.51518481072479,51.3281673120797 -2.51529406712542,51.3280535653954 -2.51544812954214,51.3278406484184 -2.51548617013227,51.3277820502864 -2.51558828780896,51.3275378971545 -2.51565703209611,51.3271455651428 -2.51562818687399,51.3269999723553 -2.51558241977063,51.326886007812 -2.51553726580179,51.3268268757687 -2.51536865774564,51.3266378481734 -2.51529584657009,51.3265392841849 -2.51519711055037,51.3264398438946 -2.51501468997931,51.3262959138916 -2.51480412502947,51.3260792032088 -2.51470090193628,51.3259591967101 -2.5145131327662,51.3259824935325 -2.51428992089081,51.3260428018611 -2.51370804690689,51.3262414098016 -2.51315478199324,51.3264380014662 -2.51300741100659,51.3264764012458 -2.51276426083948,51.326553064853 -2.51252817631303,51.3266161227376 -2.51251817882635,51.3266215598011 -2.51265148058509,51.3268610866329 -2.51268229614274,51.3269292717272 -2.51259075252841,51.3269548419318 -2.5124822336139,51.3270074541632 -2.51054242718825,51.3274502761938 -2.51036913582017,51.3274779985078 -2.51041584788404,51.3272934210732 -2.51059351184241,51.326752202384 -2.51066236425271,51.3266116677175 -2.50995748542489,51.32672170606 -2.5095001318817,51.3267650433231 -2.50908226502313,51.3268802130663 -2.50878442636943,51.3269453286429 -2.50892874507579,51.3266191952757 -2.50893686870859,51.326583201833 -2.508933978991,51.3265787201426 -2.50863644125109,51.3265422537813 -2.50860784570953,51.3265459735725 -2.50858212002491,51.3265523776351 -2.50839889955662,51.3267311620906 -2.50779422505689,51.3272157938914 -2.50766883415383,51.3271659951658 -2.50761561435152,51.3271581342445 -2.50743463018954,51.3271427354283 -2.50735985427995,51.3271222932886 -2.50732950225887,51.327106243289 -2.5072801866626,51.3270552161968 -2.50724465675053,51.326966374695 -2.50720549773994,51.3269242930218 -2.50717222811888,51.3269010646598 -2.50704811974773,51.3268386744863 -2.50696715130529,51.3267823006149 -2.50686431248689,51.32669554622 -2.50660962225742,51.3267676627049 -2.50600226200303,51.3264807313053 -2.505858652819,51.3264741583082 -2.50567942490982,51.3264893140231 -2.50521368844954,51.3265561326507 -2.5038773149914,51.3268018942245 -2.50370249462756,51.3268197238038 -2.50357323949281,51.3268166823341 -2.50272430136224,51.3270109872643 -2.50185973231347,51.3272269265013 -2.50157649473941,51.327308143357 -2.50151824994337,51.3273713183551 -2.50140748995973,51.3276109999647 -2.5012963483038,51.3278156266617 -2.50124022557198,51.3279327297228 -2.50118552345092,51.3280498275433 -2.5011647005861,51.3281156297133 -2.50114820672471,51.328176829166 -2.50114916876909,51.3284069542767 -2.50115521228691,51.3284294920257 -2.50142844124906,51.3284822583721 -2.50142060186754,51.3286863523456 -2.50117949437572,51.328681991724 -2.50098828556636,51.3286522481713 -2.50099787011912,51.3284778113105 -2.50074237620154,51.3283475713929 -2.50057477548226,51.3282467088625 -2.49998323379879,51.327966884725 -2.4994101700266,51.3276663035788 -2.49876238818454,51.3273498571628 -2.49851585800524,51.3272484308964 -2.49809045051424,51.3270640753245 -2.49780012454115,51.3272901394921 -2.49757274956385,51.3275051459617 -2.49749454797304,51.3275729002268 -2.49739220675345,51.3275310855685 -2.49713688080519,51.3278099461905 -2.49695351068401,51.3279798173925 -2.49691526003045,51.3280213316032 -2.49684437132692,51.3281088302904 -2.49668897370329,51.3283379128419 -2.49656154521743,51.3284940609391 -2.49622197444298,51.328819212672 -2.49615073658248,51.3288635633971 -2.49604164854137,51.3288658242347 -2.49596714287456,51.3288814224915 -2.49594167318581,51.3289120952569 -2.49591767414977,51.3289472559591 -2.49588263775619,51.3290346016683 -2.49570585765675,51.3299390558371 -2.49494994387603,51.3298577605413 -2.49493369120189,51.3299423295646 -2.49489210321779,51.3300810323067 -2.49484973057296,51.3304112122606 -2.4948839132789,51.3306628603777 -2.49487083998966,51.3307788787661 -2.49487212386539,51.330898432233 -2.49483220479687,51.3311926437556 -2.49483396090462,51.3316207111258 -2.49491319480542,51.3319126206144 -2.49492072205331,51.3319413549194 -2.49497350772743,51.3323160781254 -2.49504594869526,51.3326475701801 -2.49506968949193,51.3327202838365 -2.49510065988035,51.3327938651717 -2.49519728037356,51.3329742330269 -2.49529623985505,51.3329648236814 -2.49533616910404,51.3330680333027 -2.4954358041403,51.3332645683896 -2.49565107206916,51.3335271349795 -2.49571978783686,51.333643705951 -2.4957440619939,51.3337658586879 -2.49573078786407,51.3338630902435 -2.49564621544041,51.3340108747667 -2.49563092927733,51.3340531901192 -2.49568093660788,51.3341690312319 -2.49583554347294,51.3343922111731 -2.49593893389248,51.3345302995165 -2.49600003798468,51.334599258803 -2.49621473415329,51.3348078916909 -2.49632578462335,51.334865851269 -2.49648447204701,51.3349290028514 -2.49652779121015,51.3349620793919 -2.49656699829313,51.3349978709682 -2.49665198336982,51.33516300479 -2.49640040685415,51.3352557647129 -2.49620013183451,51.3353204385337 -2.49597106779315,51.335382628175 -2.49569324172308,51.3354449331515 -2.49565886889545,51.3354513713733 -2.4952277111919,51.335530506703 -2.49476331684946,51.3356007907877 -2.49477562863375,51.3356781370108 -2.49422533314594,51.3357622664605 -2.49396016209128,51.3358020409707 -2.49377537221426,51.3358432731267 -2.49357216379172,51.3358998644987 -2.49325273777186,51.335968632356 -2.49292327362462,51.3360285413661 -2.49265524963048,51.3360674256297 -2.49249204618849,51.3361130598357 -2.4921660826324,51.3362348892493 -2.49166679584969,51.336397088849 -2.4910925913133,51.3365379363629 -2.4910231528514,51.3364860889876 -2.49066629351034,51.3365415222303 -2.4904653927809,51.3365486570463 -2.48981503133324,51.3365405945924 -2.48980574593889,51.3366134463991 -2.48956149569175,51.3365955909289 -2.48928276464055,51.336574284177 -2.4886235386182,51.3365338893991 -2.48838065310946,51.3365106324618 -2.48828735562745,51.3365191118476 -2.48810537370133,51.3365468396321 -2.48792775683003,51.3365844364155 -2.48762420826657,51.3366559087214 -2.48739202806867,51.3366937320195 -2.48708941173109,51.3367192630058 -2.48646149303012,51.3367964870791 -2.48634098309864,51.3368059771854 -2.48539401276023,51.3368548549859 -2.48449026282309,51.3369170338975 -2.48425823733875,51.3369701354408 -2.48385992189201,51.3370357034305 -2.48353120550257,51.3370451571977 -2.48343582887425,51.3369798410382 -2.48329509996007,51.3369804245002 -2.48198142936285,51.3370983187208 -2.48142776055469,51.3371473505942 -2.48116505992445,51.3371538293255 -2.48093959110345,51.3371439721185 -2.4805467798465,51.3371932353145 -2.48021870596489,51.3372530171882 -2.47984600102356,51.3373121734745 -2.47960696822291,51.3373751829519 -2.47923350537899,51.3374980747298 -2.47898979625802,51.337384911977 -2.47878212319944,51.3372993784003 -2.47874087381445,51.3373391902278 -2.47855525310436,51.3372913198312 -2.47846890043761,51.3372736959353 -2.47828335966791,51.3372447931187 -2.47817848974885,51.3372335365835 -2.47805788164216,51.3372340312175 -2.47775652214161,51.3372451549517 -2.47758853321063,51.337242247417 -2.47719245717159,51.337251061021 -2.47683178970037,51.3372156809281 -2.47686247254986,51.3371382469928 -2.47661537952213,51.3371203799411 -2.47654643752267,51.3371152684613 -2.47652933175778,51.337120731703 -2.47637334420184,51.3371681134083 -2.47630885026473,51.3371809619399 -2.47615664074647,51.3371815837273 -2.47575498843215,51.3372119894194 -2.47533639817319,51.3372640369651 -2.47478958842125,51.3372788502641 -2.47428318833268,51.3373213632816 -2.47400518632066,51.3373594406258 -2.47397506920901,51.3373658555816 -2.47391405037926,51.3375782503617 -2.47386828362088,51.3375937180675 -2.47381820990323,51.3376047091301 -2.47367331074334,51.3376142871296 -2.47348791027037,51.3375988594488 -2.4733343428513,51.3376057755773 -2.47289175110787,51.337695756722 -2.4727871515888,51.3377222501719 -2.47247950727322,51.3378133899302 -2.47237490724928,51.3378398830105 -2.47217426218234,51.3378730575512 -2.4720623758048,51.3378816006474 -2.4718384909008,51.3378879003432 -2.47152403090689,51.3378801835306 -2.47102694494905,51.3378390447696 -2.47051953483891,51.3377835622061 -2.47031523932893,51.3377376424592 -2.46994887064505,51.3375727284478 -2.46979282632461,51.3374762732768 -2.46886702152658,51.3373414757825 -2.4686772898311,51.3373188662403 -2.46850884214025,51.3372710017575 -2.46842104611069,51.3372506787229 -2.46805286283176,51.3371856377217 -2.46796506655558,51.3371653139075 -2.46793194411737,51.3371555581034 -2.4677979814377,51.3371111482717 -2.46768248975439,51.3370441002672 -2.4675384038653,51.3369934372238 -2.46722650708019,51.3369569287442 -2.46714332067255,51.3369590594322 -2.46684499069088,51.3369881173799 -2.46676466325123,51.3369920338573 -2.46668851426178,51.3369878427368 -2.46661374084814,51.3369791519505 -2.46647704846777,51.3369455381238 -2.46639515419166,51.3369350772312 -2.46617390223944,51.3369197794613 -2.46609059749589,51.3369102231633 -2.46592518998763,51.3368812172609 -2.46570637760051,51.3368263555289 -2.46538443221299,51.3367790946334 -2.46535212094048,51.3368493398765 -2.46532113694095,51.3369105906741 -2.46528983511322,51.3370807025824 -2.46526193704153,51.3371662109909 -2.46522297683958,51.337281429315 -2.46511925590482,51.3375354291734 -2.46510961238127,51.337576818353 -2.46510909201902,51.3376658145702 -2.465105931549,51.337774686982 -2.46506827244378,51.3378898991688 -2.46505948498567,51.3380158739722 -2.46499786219507,51.3381608464387 -2.46491441497841,51.3382897247996 -2.4648870895608,51.3384202683027 -2.46486589777694,51.3386073290642 -2.46479574853533,51.3389043443107 -2.46474266418584,51.3390511700741 -2.46474833192609,51.339190481641 -2.46474320100743,51.3393856584124 -2.46475499526791,51.3395573072853 -2.46473065913479,51.3398550386552 -2.46475316448263,51.3399503257456 -2.46483473875712,51.3402098812048 -2.46490554954278,51.3405404951914 -2.46490010951346,51.3407050199499 -2.46486715392113,51.3408526648888 -2.46486494883852,51.3409272852947 -2.46487585175586,51.3411511640913 -2.46484431612447,51.3412987134497 -2.46485086969159,51.3413732990348 -2.46486455396072,51.3414505520292 -2.46493590579278,51.3416939671614 -2.46501028504174,51.3418034303843 -2.46506040562161,51.3419371717974 -2.46507490754311,51.3420954146458 -2.46493093737133,51.3423386976906 -2.46489044299258,51.3424549101299 -2.46486902355596,51.3426078134865 -2.46472411276216,51.3431802869447 -2.46458293840725,51.3438534242982 -2.46460527211559,51.3439315430288 -2.46463195988258,51.3440070359215 -2.46470799754418,51.3441514611055 -2.46475523462873,51.3442807190598 -2.46484273838729,51.344411704333 -2.46489791692102,51.3444717132536 -2.46496031868993,51.3445316934292 -2.46505279509152,51.344592453163 -2.46515105621339,51.3446514813647 -2.46537454892155,51.344755766193 -2.46558250716247,51.3448691024828 -2.46594096915515,51.3451032835679 -2.46614846825375,51.3453227837477 -2.46621718254561,51.3454447638023 -2.46630766928855,51.3455892202274 -2.46638534512615,51.3457426268944 -2.46654589692381,51.3458616337272 -2.46665888608181,51.3459600643833 -2.46672131810647,51.3460227401377 -2.46683025730619,51.3461535484203 -2.46700575452854,51.3463219365842 -2.46710693857981,51.3465283753597 -2.46721393063877,51.3466070527716 -2.46734346743446,51.3466326043284 -2.46741643917388,51.3467536683539 -2.46752422547166,51.3468989529472 -2.46753890661727,51.3469339525346 -2.46759775541891,51.347074848652 -2.46771072630439,51.3474503276673 -2.46774184916,51.3478332356907 -2.46773491491929,51.3479896773311 -2.46773980453423,51.3481911072915 -2.46768471325645,51.3482803207272 -2.46754286159581,51.3483132495417 -2.46757247911025,51.3483968208497 -2.46764409820883,51.348524182592 -2.46772477993362,51.3486929478179 -2.46777006181382,51.3487682765475 -2.4678196866236,51.3488399920508 -2.46794027458573,51.3489861241825 -2.46802966579023,51.3491610566312 -2.46810504619652,51.3492272749574 -2.46813395264865,51.349252328939 -2.46826128375496,51.349199680673 -2.46838243690579,51.3491102004197 -2.4684738501138,51.3490648868498 -2.46852531168966,51.3490493986005 -2.46868588349919,51.3490172913065 -2.46881031577039,51.3489708566274 -2.46894107338107,51.3489757245078 -2.46905026671527,51.3489906571739 -2.4693270029683,51.3489490029093 -2.46954771278952,51.3489049667126 -2.46975518896774,51.3488286217238 -2.4698295539008,51.3488067481844 -2.46999455870036,51.3487917003158 -2.47014486249058,51.3487398565712 -2.47022935545712,51.3487242344548 -2.47031401980376,51.3487140048947 -2.47039579054583,51.3487100794319 -2.47068017807132,51.3487107300718 -2.47098715702736,51.3486861197496 -2.47108042874341,51.3486839448532 -2.47110982377812,51.3487449536657 -2.47131638359011,51.3487297361348 -2.47188114822265,51.3487670068985 -2.47215262482314,51.3487784937114 -2.47228344537032,51.348789650102 -2.47272045246132,51.3488373213246 -2.47331548522077,51.3488933401102 -2.47359549441327,51.3488940014585 -2.47390017756246,51.3489224295099 -2.47398198276801,51.3489104114276 -2.4742455897308,51.3488590003296 -2.47434549791422,51.3489376992568 -2.47455158708205,51.3491410081009 -2.4747970709954,51.3494214647924 -2.47488578540374,51.3493905404619 -2.47520331086391,51.3492633078044 -2.47549955024758,51.3491731067696 -2.47606340021915,51.3489838299972 -2.47613562763199,51.3490302804507 -2.47625607398778,51.3491484474679 -2.47649412245322,51.3491214064561 -2.47694271640545,51.349029681191 -2.47732652940881,51.348936330876 -2.4776218462904,51.3488946707545 -2.47778385937967,51.3488652416004 -2.47826242503654,51.34876439836 -2.47839716437524,51.3487422718246 -2.47852624843629,51.3487228649881 -2.47861473774065,51.3488186882381 -2.4789013689423,51.3487617778667 -2.47921394964022,51.348718245343 -2.47934831808287,51.3489334366565 -2.47943003080366,51.3489241117846 -2.47967215740125,51.3488682824461 -2.4798559378625,51.3492803156266 -2.48010864413084,51.3492738829127 -2.48034950351581,51.3492440358802 -2.4804873151806,51.3492326809761 -2.48121627303136,51.3491874280396 -2.48132957581345,51.3494477409602 -2.48134887780809,51.3495159799538 -2.48136258705917,51.349581635263 -2.48134532909269,51.3497201420282 -2.4817628674132,51.34969324907 -2.4819430260627,51.3496214899453 -2.48218863730939,51.349480151478 -2.48222651417838,51.3495357294485 -2.48227156611516,51.3495868717289 -2.48231946971976,51.3496388123785 -2.48237876213769,51.3496817158392 -2.48244382745087,51.3497218987382 -2.48260400086277,51.3497994435376 -2.48279470650044,51.3499093135921 -2.48302408310469,51.3500036516648 -2.48324594690195,51.350070152717 -2.48348464194606,51.3499693828299 -2.4838104001657,51.3500866918518 -2.48387792157739,51.3500900077987 -2.48394113395869,51.3500888465215 -2.48399404142979,51.3500760420655 -2.48424730162135,51.3499868960669 -2.48438467946073,51.3499341882306 -2.4846375639871,51.349820682037 -2.4848679824945,51.3497442187098 -2.48551409606597,51.3494672808558 -2.48574292957474,51.3493755410737 -2.48638095076862,51.3491516695816 -2.48693154212352,51.3489453257678 -2.48716065468195,51.3488804605555 -2.48726378661462,51.3488593560596 -2.48747452756742,51.3488261192011 -2.48808265332867,51.3487543716788 -2.48834940382122,51.3487334842888 -2.48874274715179,51.3487156646184 -2.48917163253292,51.3486779194067 -2.48927701541082,51.3487350110472 -2.49017525875616,51.348669233474 -2.49080374109481,51.3486306477509 -2.49134308119197,51.3485816436354 -2.49188866249838,51.3485739629905 -2.49213846725796,51.3485629365039 -2.4928046798635,51.3485656228141 -2.49312357913529,51.3485723722582 -2.49448552711877,51.3486367545221 -2.49499997321107,51.3486732378085 -2.49574702497168,51.3487177259009 -2.49597588429702,51.3487626046086 -2.49609406329996,51.3488088494607 -2.49641529606196,51.3489001702903 -2.49651748817187,51.3489240087771 -2.49662689300343,51.3489469183344 -2.49687548021428,51.3489656422626 -2.49699328381526,51.3489660413614 -2.49721136392132,51.3489552293474 -2.4975555986058,51.3489178112986 -2.4981166253594,51.3488821691496 -2.49888309065984,51.3488491555549 -2.49911917448262,51.3489048741894 -2.49960307770009,51.3489082069711 -2.49986148589731,51.3489044090721 -2.50031795485782,51.3488889780546 -2.5004209883892,51.348990119142 -2.50075527410715,51.3489635217764 -2.50113280839899,51.3489511222296 -2.50177193102464,51.348966370735 -2.50203594206139,51.3489445662966 -2.5022956701078,51.348931769778 -2.50297695129958,51.34886143389 -2.50337971947299,51.3487966923721 -2.50348653137962,51.3488421701377 -2.50394262988104,51.3487933791423 -2.50447616079324,51.3487452429065 -2.50491797385506,51.3487001943887 -2.50556066368941,51.3486524830568 -2.5057030798269,51.3486734444136 -2.50603154741878,51.3486351722923 -2.50620366880422,51.3486227445394 -2.50691414097295,51.3485918130024 -2.50708201877881,51.3485811997746 -2.507586965717,51.3485394653656 -2.50775912591687,51.3485306301584 -2.50836080318486,51.3485325223721 -2.5087428381265,51.3485425540692 -2.50877874567813,51.348803091905 -2.50878510317066,51.3488534950989 -2.50869031283487,51.3491145990865 -2.50867625543059,51.3494069062618 -2.50866768951279,51.3497999611711 -2.5086464973554,51.3500896025088 -2.50863850288789,51.3506632519277 -2.50859961951947,51.350916113361 -2.50880959615982,51.3509430709563 -2.50925115779987,51.3508845237605 -2.50925563660778,51.3508934936372 -2.50930105700916,51.3512322876837 -2.50935001648407,51.3519019672134 -2.5093585032936,51.3522733734545 -2.50945725473414,51.3527665542599 -2.50952792194619,51.3530539986301 -2.50962780435375,51.353124581309 -2.50981096955343,51.3531992975126 -2.50999552646485,51.3532606138148 -2.5101373849521,51.3533687693463 -2.51039740166928,51.3536365127696 -2.51047517072143,51.3536559517583 -2.51069211501466,51.3536586045101 -2.51074522691442,51.3536646661449 -2.51079996644677,51.3536788107709 -2.51092976601562,51.3537240927321 -2.51105669314372,51.3537774771427 -2.51126886507803,51.3538728300413 -2.51132808793601,51.3539067318873 -2.51138021703649,51.3539415637902 -2.51141511966122,51.3539818640795 -2.51149254587015,51.3540983895063 -2.51157470938174,51.3541294946163 -2.51159002398297,51.3542185124532 -2.51162232618097,51.3542803993876 -2.51175939047266,51.3543400314675 -2.51190064659327,51.3543825648312 -2.51205377731274,51.3544601950417 -2.51210901993818,51.3545300719119 -2.51221605272622,51.3545934293994 -2.51229163200706,51.3546713075786 -2.51239409416545,51.3547176054544 -2.51246386490749,51.354794700483 -2.51252227818313,51.3548834402033 -2.51260467241265,51.3549352197615 -2.51272580391816,51.3549778399628 -2.51282708568583,51.3550457170909 -2.51300890465053,51.3551259183719 -2.51316344037816,51.3552016526704 -2.51331777631626,51.3552594099545 -2.51344867105358,51.3552750188608 -2.51358119904162,51.3553202850497 -2.51366762578642,51.3553405823561 -2.51418143037969,51.3554391054182 -2.51459235082292,51.3555811361052 -2.51470637309815,51.3556336747949 -2.51494094697354,51.3556766946785 -2.51504180387349,51.3557060069105 -2.51514126837921,51.3557379328397 -2.51536061993393,51.3558385502914 -2.51551393284708,51.3559313680313 -2.51568615762996,51.3560529578198 -2.51574872166839,51.3561308909038 -2.51597121739243,51.3562476744823 -2.51596650247064,51.3563340839192 -2.51600201511533,51.3564283167884 -2.51601292486188,51.3565037799678 -2.51605105817459,51.3565782243285 -2.51613246319103,51.3566678503185 -2.5161573786194,51.3567144865633 -2.51621071330947,51.3568562841786 -2.51623081226015,51.3569803401019 -2.5162472755716,51.3570440919568 -2.51631824284174,51.3572271643535 -2.51637904452289,51.3572638433082 -2.51655510452736,51.3573466711641 -2.51661623824009,51.3574129240762 -2.5166603062033,51.3574990281075 -2.51665817416664,51.3575728410089 -2.51662313429861,51.3576476070516 -2.51666279755558,51.3577211452716 -2.51678915058279,51.3578482395727 -2.51688325383153,51.3579189313739 -2.51693094965358,51.3579483869081 -2.51703461023115,51.3579632124772 -2.51709525289693,51.3579962059422 -2.51710567180564,51.3580276230242 -2.51711096351398,51.3581192918957 -2.51737721180762,51.3582926033601 -2.51743543719222,51.3583633637412 -2.51746342581633,51.3584198737428 -2.51755155661888,51.3584752195192 -2.51775657856287,51.3585634012364 -2.51786415158547,51.3585575326538 -2.51792219756222,51.3586121125058 -2.51795037899139,51.358685700914 -2.51802866555703,51.3587500798512 -2.51813808262814,51.3587711713885 -2.51819840540283,51.358775400193 -2.51837068263258,51.3587737403249 -2.51846471791983,51.3588273515263 -2.51858430536716,51.3588681745085 -2.51861348540388,51.3589040025722 -2.5186735420505,51.3590107107644 -2.51884108017189,51.3590926728261 -2.51888617129139,51.3591429039138 -2.51892726261674,51.3592164346016 -2.51903265624523,51.3592690057792 -2.51917799561461,51.3592935332536 -2.51937196940913,51.3593043619419 -2.51945457098133,51.359362426943 -2.51952290767339,51.3594367360171 -2.51972534623484,51.3595572867485 -2.51988251744651,51.3596123245363 -2.52003072093021,51.3596386357304 -2.52012850618312,51.359772234472 -2.52016665037899,51.3598466769324 -2.52034809614253,51.3598908188611 -2.52037725653692,51.3599248499468 -2.52043126239146,51.3600091104178 -2.52070014186871,51.3600357847818 -2.52077259117426,51.3600858937155 -2.52096530991569,51.3601111069768 -2.52103010687468,51.3601234044574 -2.52109932944918,51.3601500657505 -2.52135354107257,51.3602720912346 -2.52140835504359,51.360291623694 -2.52153896697115,51.3602910433753 -2.52158811698966,51.360312400203 -2.52162997618125,51.3603382826817 -2.52165663456421,51.3604020788511 -2.52161544258368,51.3604454106145 -2.52162292013347,51.3604678509174 -2.52163891422295,51.3604893541746 -2.52172553892022,51.3605258252644 -2.52176349270992,51.3605831887186 -2.52177437355234,51.3606550551155 -2.52180336359385,51.3606738038896 -2.52183798574146,51.3606880334469 -2.52188371725702,51.3606689524414 -2.52193222832972,51.3606444647981 -2.52203771956433,51.3605693841763 -2.52229935865807,51.3607193312975 -2.52250920942514,51.3608658225916 -2.52256341124234,51.3609563736696 -2.52264412292643,51.3609829828567 -2.52276932338745,51.3609959086316 -2.52285587415735,51.3610360649749 -2.52293698486035,51.3610977308028 -2.52298033411113,51.3611191119686 -2.52308129036017,51.3611555181527 -2.52328156523821,51.3612094608034 -2.52345503523895,51.3613012770624 -2.52354638882436,51.3613782675559 -2.52360752300119,51.3614535054004 -2.52365077055303,51.3614658975338 -2.52375148240922,51.3614807307845 -2.52380467226293,51.3614822908768 -2.52384468329706,51.3614704263819 -2.52395190096768,51.3614223040377 -2.52402225067175,51.3614228891259 -2.52412397307679,51.3614017588427 -2.52420760703064,51.3614247580042 -2.52428928412439,51.3615358606122 -2.52440899764105,51.361700820257 -2.52442220248404,51.3617268297301 -2.52441411143399,51.3617754087766 -2.5243393310617,51.3618953013135 -2.5243515470917,51.3619591604119 -2.52447854717878,51.3620152258022 -2.52457897719421,51.3621298411253 -2.52459700535217,51.3621944834809 -2.52462476425183,51.3622402055916 -2.52469286015192,51.3622921289122 -2.52479461064083,51.3623977480023 -2.52480452796146,51.3625091719826 -2.52481493195915,51.3625387897955 -2.52487581437707,51.3625916444502 -2.52490961385791,51.3626580145829 -2.52482756390545,51.3627635573593 -2.52477759451817,51.3627952435627 -2.52478401274982,51.362849150189 -2.52483496353214,51.3629137360691 -2.52482883317753,51.3629991624383 -2.52478719923123,51.3630038428038 -2.52480069203576,51.36305502201 -2.52482537468241,51.363080081796 -2.52489345057746,51.3631301176562 -2.52493540282272,51.3631533017821 -2.52503188543326,51.3631708494616 -2.52512042379438,51.363249648688 -2.52511573899223,51.3633476536785 -2.52506441026735,51.3633847403421 -2.52504823381263,51.3634720091483 -2.52499566875492,51.3635253712916 -2.52492571455866,51.3635598436553 -2.52487203562745,51.3636400893693 -2.52490704086776,51.3636875755552 -2.5250165969854,51.3637194473153 -2.52504568683078,51.3637570724121 -2.52497601974555,51.3638167136988 -2.5249116278506,51.363840464388 -2.52489083410705,51.3639070787131 -2.52494029917339,51.3639553993892 -2.5250331046098,51.3639100371587 -2.52511351515276,51.3639096773228 -2.52515174813202,51.3639805225685 -2.5251622862307,51.3640218265282 -2.52516701278875,51.3640622573063 -2.52514614744506,51.3641225794477 -2.5251478873403,51.3641505284268 -2.5252056073154,51.3642994927159 -2.52523492990944,51.3643470051217 -2.52532542432076,51.3644725407514 -2.52543816572079,51.3645340621452 -2.52547904085211,51.3645977036957 -2.52556873519004,51.3646530356318 -2.52564438866877,51.3647336005658 -2.52565268216521,51.3648271431537 -2.52571379392816,51.3648996822602 -2.52574033195377,51.3649624887543 -2.52571110387895,51.3650372319195 -2.52569740717173,51.365103005292 -2.52564200766762,51.3651571888007 -2.5256717116942,51.365237960452 -2.52568109732509,51.365302641288 -2.5257692947151,51.3653615756125 -2.5258367049883,51.3654773258158 -2.52581565480167,51.3655214679413 -2.52576155822434,51.3655549714643 -2.52575736095349,51.3655711712197 -2.52576333867685,51.3655864261857 -2.52583109045406,51.3656076968359 -2.52582147686227,51.3656472926462 -2.52576302861428,51.3656835123496 -2.52572464710777,51.3657242261817 -2.5258074070391,51.3658047591198 -2.5258307329394,51.365835218081</coordinates></LinearRing></outerBoundaryIs></Polygon>
  </Placemark>
