  <Placemark>
	<Style><LineStyle><color>ff0000ff</color></LineStyle><PolyStyle><fill>0</fill></PolyStyle></Style>
	<ExtendedData><SchemaData schemaUrl="#Wards__December_2019__Boundaries_EW_BFE">
		<SimpleData name="objectid">5479</SimpleData>
		<SimpleData name="wd19cd">E05011208</SimpleData>
		<SimpleData name="wd19nm">Hollington</SimpleData>
		<SimpleData name="wd19nmw"></SimpleData>
		<SimpleData name="bng_e">578722</SimpleData>
		<SimpleData name="bng_n">111676</SimpleData>
		<SimpleData name="long">0.539041</SimpleData>
		<SimpleData name="lat">50.876942</SimpleData>
		<SimpleData name="st_areashape">1995948.62619059</SimpleData>
		<SimpleData name="st_lengthshape">6976.67915165485</SimpleData>
	</SchemaData></ExtendedData>
      <Polygon><outerBoundaryIs><LinearRing><coordinates>0.523098340835081,50.8706182889357 0.523144987851662,50.8703492374464 0.52320239262622,50.8701491893921 0.52323223710237,50.8700703163164 0.523301338401139,50.8699023856382 0.523377923522431,50.8697406771907 0.523490794735035,50.8695673044253 0.523616089546426,50.8693874576716 0.523772486973528,50.8692041506791 0.523983088072873,50.8689980909481 0.524258620994752,50.8687835232533 0.524440926257989,50.868658999898 0.524675065150444,50.8685199576739 0.524956315680079,50.868385290194 0.525163074442682,50.868292606858 0.525383245020289,50.8682096138015 0.52556190548181,50.8681499973677 0.525783123411943,50.8680885608431 0.526045588185042,50.868027040372 0.526352166014318,50.8679664520253 0.526583647544164,50.8679344647595 0.526764442342669,50.8679143642872 0.527000796211361,50.8678966570303 0.527342799203762,50.8678865518388 0.527622801181698,50.8678849824782 0.527822287337554,50.8678941475951 0.528286269806287,50.8679335493223 0.528536768499055,50.8679649866634 0.528836081015416,50.8680062458783 0.529422211514409,50.8680960457617 0.52960131869805,50.8681227343309 0.530262208829501,50.8682252964611 0.530612220417322,50.8682591574699 0.53084383212961,50.8682577305309 0.531345093946414,50.8682756300453 0.531742222257496,50.8682598198087 0.532076758170064,50.8682417705101 0.532333200461647,50.8682272139166 0.532556497947625,50.8682043845249 0.532930214520166,50.8681503254767 0.533320781354729,50.8680914931111 0.533353483330511,50.8681456321986 0.533382190533564,50.8682017468088 0.533399608811792,50.8682355371002 0.533429066195938,50.8682277039045 0.533510428786479,50.8682088536161 0.533621688292197,50.8681902526588 0.533734414570313,50.8681706303741 0.533844708174773,50.8681601432527 0.534037141723381,50.8681451739811 0.534077085120519,50.8681470048373 0.534088439535632,50.8681467582557 0.53410129538278,50.8681482770273 0.534122696145363,50.8681496102265 0.534125505646256,50.8681495492121 0.534132693821303,50.8681502925351 0.534138312823119,50.8681501705058 0.534144096957821,50.8681509443201 0.534145500998466,50.8681509138281 0.534161215070972,50.8681532699499 0.53426580407418,50.8681672736805 0.534390317325648,50.8681834520217 0.534569082724251,50.8682038466117 0.534673794289676,50.8682222536174 0.534693782253152,50.8681975411272 0.534703341500617,50.8681901407392 0.53471149665513,50.868182769951 0.534721835378477,50.8681897390111 0.534730477714012,50.8681913492398 0.534754736748094,50.8681935196638 0.534790397520228,50.8681963418345 0.534789821717872,50.8682116401537 0.534814373125672,50.8682191998938 0.534807768130952,50.8682292335057 0.534852323812649,50.8682642329132 0.534883633807729,50.8682905275491 0.534926931729771,50.8683282516394 0.534989629060733,50.8683844368981 0.535054044715908,50.8684441807097 0.53505714520591,50.8684495090302 0.535066328475545,50.8684610884534 0.535069381598759,50.8684655174733 0.535072288598582,50.8684672531771 0.535079574271891,50.8684697922827 0.535083838001076,50.868470599081 0.535091026193794,50.8684713414441 0.535099766079364,50.8684747483845 0.535111461661013,50.8684807884996 0.535121654341643,50.8684850633051 0.535128921042618,50.8684894007798 0.535133447363806,50.868492899261 0.535135192509467,50.8684991555555 0.535138099514074,50.8685008912576 0.535141298824462,50.8685080144892 0.535152271145849,50.8685266587323 0.535158201524322,50.8685301267077 0.535165517027604,50.8685353634488 0.535175855856773,50.8685423315644 0.535183240453774,50.8685466673735 0.53519207779872,50.8685518701493 0.535200748618707,50.8685561780121 0.535212346748711,50.8685604213743 0.535254378205645,50.8685747939731 0.535302514678692,50.8685980264085 0.535311303302229,50.8686023308038 0.535318735199784,50.8686075641064 0.535329124284307,50.8686154314449 0.535332224771197,50.8686207588579 0.535338184953148,50.8686269235658 0.53535077676887,50.8686473314597 0.535361535307991,50.8686641814666 0.535366159110574,50.86866947578 0.535376936677688,50.8686845283114 0.535381345157108,50.8686880284433 0.535387275575237,50.8686914964056 0.535391732852319,50.8686958958059 0.53539473732616,50.8686994273433 0.535402024475689,50.8687019663957 0.535409505148711,50.8687080980619 0.535415367857683,50.8687124660241 0.535424107815723,50.8687158729376 0.535438757816586,50.8687245462124 0.535501810026545,50.8687591434492 0.53553704682953,50.868780047735 0.535658620773905,50.8688996932764 0.535660123762724,50.8689014594747 0.535664599995571,50.8689040595928 0.535667555752314,50.8689066927516 0.535670462755967,50.8689084275402 0.535673369808602,50.868910163227 0.535679202772273,50.8689118344323 0.535695112158222,50.8689177829164 0.535699490935427,50.8689185871912 0.535702397941104,50.8689203219789 0.535703852178237,50.8689211898065 0.535705304995764,50.8689220576649 0.535709831407286,50.8689255561203 0.53571143039049,50.8689291172921 0.535714434906087,50.8689326488195 0.535716082693098,50.8689371092596 0.535719184669857,50.8689424366287 0.535723906054236,50.8689495276652 0.53572705678753,50.868955753404 0.535739920940274,50.8689833480706 0.535828313673327,50.8690659492374 0.535829912720235,50.8690695113053 0.535834327618542,50.8690731021217 0.535846070748037,50.8690800396556 0.535857717883262,50.8690851822143 0.53586791072644,50.8690894560481 0.535911639469646,50.8691091871897 0.535916000743868,50.8691117897959 0.535921931261003,50.8691152577272 0.535924836868737,50.8691169925394 0.53592774394514,50.869118728219 0.535932270345901,50.8691222257659 0.535935323651822,50.8691266556563 0.535945906489976,50.869138114644 0.535952159337485,50.8691496686345 0.535967219882436,50.8691637276942 0.535973178807964,50.8691698923941 0.535982065131204,50.8691759934714 0.535992599281855,50.8691865549826 0.536005895610983,50.8691961561318 0.536017833844293,50.8692066871247 0.536031177575397,50.8692171875694 0.536040161390507,50.8692250844825 0.536049047734162,50.8692311855539 0.53605631469809,50.869235523861 0.536063699448906,50.8692398587081 0.536073843634079,50.8692432350507 0.536083987820767,50.8692466113923 0.536096941575364,50.8692499266686 0.536111252061972,50.8692523130262 0.536121347490281,50.8692547909949 0.536132848412928,50.8692572384146 0.536142846364934,50.8692579205406 0.53615284573692,50.869258602635 0.536162843640718,50.8692592838609 0.536172744113764,50.8692581701438 0.536184098795189,50.8692579233483 0.536194047983273,50.8692577071005 0.536201071190034,50.869257554449 0.536209665020702,50.8692582661889 0.536226901496975,50.8692605889346 0.536242616115854,50.8692629456557 0.536262758226284,50.8692670031993 0.536267022052952,50.8692678099506 0.536282901808755,50.8692710616067 0.536287212934332,50.8692727658591 0.536298762637162,50.8692761116313 0.536308906847968,50.8692794879524 0.536320602807352,50.8692855279318 0.53632953792018,50.8692925264508 0.536341380189156,50.8693012615357 0.536351816919403,50.8693100262716 0.536359181413168,50.8693161603983 0.536366662323732,50.869322291994 0.536370974877198,50.8693239962121 0.536379763797548,50.8693283014158 0.536389908026411,50.8693316777292 0.53641601061123,50.8693418998889 0.536478575484634,50.8693675155696 0.536501826062755,50.8693769902193 0.536526524671243,50.8693872437724 0.536554100508456,50.8693965353446 0.536580203168762,50.8694067574646 0.536596161625259,50.8694136041836 0.536613641999513,50.8694204178154 0.536628146194134,50.8694263967147 0.536644269805428,50.8694341383662 0.536661731280362,50.8694427503604 0.536679357952024,50.8694522581898 0.53670710858183,50.869466940701 0.536733455198805,50.8694816546278 0.536749629044637,50.8694902946013 0.536762875481208,50.8694989982149 0.536786363728217,50.8695128739422 0.536807043876049,50.8695268116138 0.536829079291811,50.8695398194883 0.536839418667313,50.8695467883357 0.536846880776496,50.8695547182664 0.536846929555007,50.8695556166351 0.536851553630421,50.8695609108791 0.536854655838161,50.8695662391093 0.53685645000417,50.8695733928369 0.536858245639276,50.869580547432 0.536858294418064,50.8695814458007 0.536855826185977,50.8695877936676 0.536853455461846,50.8695959373734 0.536842832182182,50.8696096561731 0.536838843446796,50.8696160370969 0.536837828072917,50.8696232528062 0.536838120646099,50.8696286412213 0.536838510776342,50.8696358263736 0.536841710447653,50.8696429495444 0.536846480867947,50.8696509388941 0.536849534254247,50.8696553678572 0.536854040554311,50.8696606655608 0.536861521592382,50.8696667971198 0.536870408138155,50.8696728981209 0.536879348294942,50.8696799864284 0.53688811701048,50.8696860899898 0.536895501966633,50.8696904256767 0.536900008227072,50.8696957224798 0.536906133970717,50.8697027829309 0.53690792961983,50.8697099375247 0.536911129308042,50.8697170606929 0.536915898329545,50.8697250500698 0.536918951728114,50.8697294790305 0.536923458044257,50.8697347767309 0.536930891743867,50.8697400098852 0.536939680752624,50.8697443141431 0.536945444867245,50.8697468871079 0.536952683496224,50.8697485276851 0.536962681569796,50.8697492097363 0.536972582080818,50.8697480950498 0.536983936880793,50.8697478481721 0.536993837390911,50.8697467334838 0.537033422044093,50.8697440748578 0.537041918464036,50.869742990694 0.537049106941845,50.869743733826 0.537056229158116,50.8697453769278 0.537063515154268,50.8697479158972 0.537070898718059,50.8697522516028 0.537075357690825,50.8697566508973 0.537079912763223,50.8697628460608 0.537084585672473,50.8697690386619 0.53708633114997,50.8697752949142 0.537088125363012,50.8697824486364 0.537088418017203,50.8697878379479 0.537088759406557,50.8697941247294 0.53708895444443,50.869797716406 0.537091959130308,50.8698012478914 0.537093462207679,50.8698030140678 0.53709793861606,50.8698056141241 0.537112688246303,50.8698160829697 0.537118765256365,50.8698222450394 0.537124725852136,50.86982840964 0.537130851650394,50.8698354700772 0.537135455523888,50.8698425636061 0.537138557737748,50.8698478909282 0.537143131723483,50.869852287719 0.537147541928619,50.8698557886418 0.537151950665952,50.8698592886969 0.537160593461028,50.8698608996285 0.537169236207927,50.869862509661 0.537182043912937,50.8698631306009 0.537196255709866,50.8698637210087 0.537211990805422,50.8698642773924 0.537226202602987,50.8698648677965 0.537237606217653,50.8698655192612 0.537249058571056,50.8698670681945 0.537250462662709,50.8698670376632 0.537259154201306,50.8698695460571 0.537266440278158,50.869872085911 0.537272254538025,50.8698755553987 0.537279589355701,50.8698789927215 0.537288427262457,50.8698841962172 0.537294339102041,50.8698894624398 0.537301771451665,50.8698946955988 0.537307732082758,50.8699008601887 0.537324099881192,50.8699130926769 0.537328558895605,50.8699174919601 0.537335942464923,50.8699218267485 0.537341756785593,50.8699252971307 0.53734909161691,50.8699287344486 0.537351998753704,50.8699304691902 0.537356261243579,50.8699312759294 0.537360739100026,50.8699338759437 0.537365147910767,50.8699373768882 0.537371078652028,50.8699408447372 0.53737408337032,50.8699443762141 0.537375732736207,50.8699488356935 0.537375976637274,50.8699533266349 0.537374815024302,50.8699578481401 0.537372298057709,50.8699632976477 0.537365402180436,50.8699679429482 0.537358553720456,50.8699734875456 0.537353228560853,50.8699789981183 0.537344980832526,50.8699846621861 0.537339605509684,50.8699892753196 0.537334064980107,50.8699929926164 0.537331450428294,50.8699966453874 0.537330241440351,50.8700002684934 0.537330436548114,50.870003861067 0.537330826763766,50.8700110462143 0.53733257228672,50.8700173024611 0.537331558406363,50.8700245181408 0.537330543057204,50.870031732953 0.537326603145979,50.8700390122598 0.537322730860986,50.8700453906671 0.537315931124018,50.8700518327322 0.537310653319043,50.8700582417024 0.537303806209388,50.8700637853679 0.537299885179175,50.870069266305 0.537295846262858,50.8700747489059 0.537293329280294,50.8700801984124 0.537292120287157,50.8700838215182 0.537294012124767,50.8700927719713 0.537295661537453,50.8700972323501 0.537301738612707,50.8701033944077 0.537304889654664,50.8701096200918 0.537312517150574,50.8701184458221 0.537318575343854,50.8701264062477 0.537324554896693,50.8701307724662 0.537327608365278,50.8701352014135 0.537329207573978,50.8701387634545 0.537329353893285,50.8701414576601 0.537329549001992,50.8701450502336 0.537325579178827,50.8701496328036 0.537318681848398,50.8701542781333 0.537310477993715,50.8701607507311 0.537300918824361,50.8701681522285 0.537294236902509,50.8701745917306 0.537286033040511,50.8701810643269 0.537279234697637,50.8701875063598 0.537275409762103,50.8701947831649 0.537271488668472,50.8702002632031 0.537268904047536,50.8702066136088 0.537266484631109,50.870213859851 0.537266826051147,50.8702201466305 0.537267313787312,50.8702291276157 0.537269109519009,50.8702362822004 0.537271635413442,50.8702569078445 0.537273283410843,50.8702613682542 0.53727377114906,50.8702703492393 0.537274014993872,50.8702748392826 0.537272659677765,50.8702757681827 0.537271353101232,50.8702775945524 0.537270093942089,50.8702803202193 0.537267333052437,50.8702812787838 0.537263002901171,50.870281372942 0.537260095744241,50.870279638199 0.537257237326888,50.8702788009256 0.5372556869066,50.8702761372517 0.537251209020811,50.8702735372345 0.537248350604017,50.8702726999608 0.53724684897241,50.8702709346548 0.537242633819537,50.8702710263117 0.537238303669189,50.8702711204689 0.537235591567088,50.8702729774007 0.537234236250211,50.8702739063003 0.537232928252408,50.8702757327005 0.53723167046186,50.8702784574379 0.537233269668454,50.8702820194802 0.53723482150734,50.8702846831236 0.537237922395023,50.8702900113703 0.537241024654405,50.8702953386877 0.537247252944316,50.8703042847899 0.537251907095585,50.8703122766484 0.53725948582915,50.870320204013 0.537268470091437,50.8703281008141 0.537279004829576,50.8703386621862 0.53728797025962,50.8703483582529 0.53729690579251,50.8703553575818 0.53730438701197,50.8703614891053 0.537311800556729,50.8703685206294 0.53731637603487,50.8703729173796 0.537318072782267,50.8703782752579 0.537321126316953,50.8703827051029 0.53732282306534,50.8703880629811 0.537324570023622,50.8703943191963 0.537326315562691,50.8704005754423 0.537328471580929,50.8704122175366 0.53733050981191,50.8704238630917 0.537331143885675,50.8704355382812 0.537333134699595,50.870446284539 0.537334831500929,50.8704516433152 0.537335075353572,50.870456133358 0.537339728117826,50.8704641252425 0.537344498672404,50.870472113666 0.53735235125906,50.8704872287007 0.537358867415481,50.870501474267 0.5373698426088,50.8705201182131 0.537373041014449,50.8705272413939 0.537379166952626,50.8705343018124 0.537383674779657,50.8705395985601 0.537388181236835,50.8705448962368 0.537400072749393,50.8705545277639 0.537411962896227,50.8705641602188 0.537420947285254,50.8705720579035 0.537431337162531,50.8705799241238 0.537441725672585,50.8705877912723 0.537450710023008,50.8705956880559 0.537459743169516,50.8706044832064 0.537468760947296,50.8706151674909 0.537476341192802,50.8706230948068 0.537484017608129,50.8706328188885 0.537491870272626,50.8706479339107 0.537495167714845,50.8706568537915 0.537497226253608,50.8706667000432 0.5374993620818,50.8706801414299 0.537498738421194,50.8706945413562 0.537496445051931,50.8707062802065 0.537495675106528,50.8707179868265 0.537494905112029,50.8707296925481 0.537494084952479,50.8707405008312 0.537494621489197,50.8707503792822 0.537495206868874,50.8707611569992 0.537497051407047,50.870769209047 0.537500298695254,50.8707772314887 0.537505166902591,50.8707870166382 0.537508513153009,50.8707968348856 0.53751079527745,50.8708129695776 0.537511526996525,50.8708264414988 0.537510805799632,50.8708390455879 0.537510182191079,50.8708534464122 0.537509557113761,50.870867846369 0.537510044910883,50.8708768273503 0.537510483962674,50.8708849108623 0.537510825425858,50.870891197639 0.537512328509547,50.8708929629094 0.537498071777863,50.8709455144722 0.537498413240046,50.870951801249 0.537500402751149,50.8709625484299 0.537503865434122,50.870972364145 0.53750997257843,50.8709812229217 0.537557977036586,50.8710278351859 0.537586529749288,50.8710550884272 0.537591182576646,50.8710630793986 0.53759462646197,50.8710746943767 0.537602450745718,50.8710871126193 0.537608625548794,50.8710950704902 0.537621921440125,50.8711046723481 0.537651420468711,50.8711256107893 0.537660161076923,50.8711290175104 0.537671905092845,50.8711359557265 0.537679192774805,50.8711384946165 0.53768360173383,50.871141995543 0.537685103413472,50.8711437608415 0.537686801657957,50.8711491186802 0.53769002050315,50.8711544443472 0.537693318026476,50.8711633642188 0.53769511240153,50.8711705179246 0.537697005843173,50.8711794692325 0.53769875142081,50.8711857245708 0.537706527004158,50.8711972453355 0.537709580588045,50.871201674268 0.537718368595274,50.8712059793823 0.537724134318446,50.8712085513702 0.537730016461873,50.8712111208258 0.53774021002661,50.8712153953688 0.537746073303014,50.8712197631918 0.53775219939993,50.8712268235843 0.53775845786187,50.8712384663849 0.537764827915668,50.8712500177146 0.537766719906789,50.8712589681532 0.537767061411123,50.8712652549274 0.537770310158597,50.8712732764285 0.537769832985757,50.8712903714539 0.537771724979898,50.8712993218922 0.537775090150767,50.871307340861 0.537778241350642,50.8713135665256 0.53778144135211,50.8713206905574 0.537808618773458,50.8713506710369 0.537814500940838,50.8713532404873 0.537821739914197,50.8713548818979 0.537828860999552,50.8713565249726 0.537836147307259,50.8713590638819 0.537843365997814,50.87136250369 0.537847892832314,50.8713660020459 0.537849394575182,50.8713677682401 0.537849589686169,50.871371359912 0.537847415689734,50.8713830970703 0.537821311243444,50.8714268248238 0.537816130909539,50.8714350296548 0.537808074672833,50.8714441964645 0.537795752996908,50.8714525575166 0.537791715441914,50.871458040105 0.537789247249014,50.8714643879888 0.53778808706381,50.8714689094661 0.537788330971636,50.8714733995054 0.537788574928328,50.8714778904431 0.537790320580918,50.8714841466772 0.537793666952517,50.8714939649111 0.537816449661257,50.8715466103319 0.537850974556463,50.8716061040394 0.537874231066659,50.8716415645525 0.537913983799207,50.8716937509008 0.537917105105248,50.8716972798247 0.537937961537865,50.8717166082096 0.537976611042085,50.8717463391132 0.53802989474359,50.8717865421275 0.538118579384119,50.8718484544749 0.538233666457677,50.8719260666636 0.538312011475779,50.8719810101499 0.538316518147128,50.8719863068819 0.538321240286659,50.8719933977831 0.538325893399304,50.8720013896141 0.538334829388293,50.8720083879453 0.538339336114066,50.8720136855745 0.538348125716159,50.8720179897035 0.538353989209619,50.8720223583877 0.538409856725945,50.8720562108073 0.538460205267166,50.8720919812247 0.538482340096465,50.8721067854505 0.538486993201866,50.8721147763751 0.538491646357796,50.8721227681978 0.538494914141987,50.8721289913036 0.538496514941685,50.8721325532907 0.538499471087227,50.8721351863625 0.538505304582711,50.8721368574063 0.538516853782059,50.8721402029551 0.538532569492772,50.8721425584268 0.538546978677999,50.8721467411783 0.538570078460591,50.8721534313368 0.538577468880565,50.8721578567313 0.538587662746227,50.8721621311887 0.538632946280472,50.8721845238986 0.538668086264628,50.8722035413739 0.53876739450892,50.8722517342304 0.538797958776983,50.8722663549828 0.53881253322373,50.8722714326334 0.538826941056891,50.8722756153787 0.538841350263673,50.8722797971928 0.538857280110885,50.8722839468168 0.538862997216786,50.8722856203747 0.538880235053891,50.8722879435778 0.538895851765125,50.8722885022972 0.538897257351614,50.8722884717125 0.538945750275352,50.8722901139098 0.538962772623176,50.8722906429333 0.538981220746273,50.8722893420729 0.539002477250141,50.8722879809978 0.539006495909181,50.8722842967372 0.539013196653927,50.8722760578719 0.539020220324323,50.8722759050337 0.539024698567607,50.8722785058694 0.539030610941177,50.8722837719831 0.539033878813435,50.8722899950705 0.539038532038243,50.8722979859686 0.53904022912436,50.8723033447084 0.539047565856123,50.8723067809698 0.539075759859503,50.8723295462804 0.539144204179628,50.8723856040555 0.539202210575908,50.872432896457 0.539217547429849,50.872454142672 0.539252310941926,50.8724921406922 0.539271833173508,50.8725105984301 0.539319839761909,50.8725572098618 0.539325967719949,50.8725642701235 0.539327664803284,50.8725696279589 0.539330913936597,50.8725776494013 0.53934015337916,50.8726161129327 0.539354145202082,50.8726643631453 0.539358700904612,50.8726705581946 0.539361852429941,50.8726767838035 0.53936507159302,50.8726821094118 0.539365315671931,50.8726865994409 0.53936413539944,50.872692919325 0.539364428362512,50.8726983086177 0.53936895540701,50.8727018060062 0.539372106936155,50.8727080316147 0.539382642757389,50.8727185927542 0.539390321387512,50.8727283166481 0.539396281282278,50.8727344811352 0.539403666949864,50.8727388157355 0.539413861028854,50.8727430901126 0.539421128905173,50.8727474281749 0.539430016431681,50.8727535289429 0.539433216761307,50.872760652016 0.539435065260294,50.8727687947806 0.539434051627399,50.872776009567 0.539432218337247,50.8727940335294 0.539431302377176,50.8728030450459 0.539432999483408,50.8728084028788 0.539439321375144,50.8728190557252 0.539452569351222,50.8728277589737 0.539491299734643,50.8728610843939 0.539503192387617,50.8728707165625 0.539513923536984,50.8728848693505 0.539526206815466,50.8729016866392 0.539532870471053,50.8729186253386 0.539537670373278,50.8729293113051 0.539538207458804,50.8729391906242 0.539530269626237,50.8730023053578 0.539529402522586,50.8730122152392 0.539533335283067,50.8730328101884 0.539547332347685,50.8730811501988 0.539561703453016,50.873110510433 0.539595412255792,50.8731808108591 0.539595754044395,50.8731870976161 0.539600027272669,50.873213980247 0.539603923053165,50.8732597527822 0.539605620248524,50.8732651115091 0.539614031403725,50.8732883063622 0.539618684892825,50.8732962981267 0.539631017123549,50.873314012864 0.539675250407313,50.8733687984083 0.539710114113131,50.8734085920465 0.539711713640298,50.8734121540418 0.539711860122472,50.8734148482374 0.539710797728832,50.8734211655581 0.539706876667569,50.8734266456749 0.539702837809113,50.873432129255 0.539706203504245,50.8734401481469 0.539707853295808,50.873444608476 0.539712311444155,50.8734490067767 0.539721052671585,50.8734524133198 0.539726867649531,50.8734558835577 0.539734447380052,50.8734638107221 0.539743432785325,50.873471708188 0.539752320504605,50.873477808924 0.539759637332665,50.8734830444253 0.539768573901436,50.8734900435243 0.539773178595685,50.873497136916 0.539781149006061,50.8735122491965 0.539785706279206,50.8735184441921 0.539788827866897,50.8735219730548 0.539794789347229,50.8735281374839 0.539817267175435,50.8735492281658 0.539874651585563,50.8736109209782 0.539883685845027,50.8736197158972 0.539888388218273,50.8736286051134 0.539888778901854,50.8736357902319 0.539889267232142,50.8736447711808 0.539889540226781,50.8737015029383 0.539893593431146,50.873776045621 0.539895290634625,50.873781403443 0.539898295824103,50.8737849348361 0.539905582651409,50.8737874735964 0.539912870899384,50.8737900123253 0.539915876090859,50.8737935437178 0.539916120284568,50.8737980346412 0.539915007644515,50.8738034536292 0.539911018998731,50.8738098346516 0.539909906357803,50.8738152536396 0.539911507336671,50.8738188155999 0.539945742494016,50.8738729201422 0.539967107938678,50.8738994297733 0.539988426027841,50.8739250419026 0.539991675388593,50.873933063317 0.539993372659452,50.8739384220351 0.539993714514201,50.873944708788 0.539991393014815,50.8739537509039 0.53997731822354,50.8739837294206 0.539983542722888,50.8739925854963 0.539994225507782,50.8740058407564 0.539997284456562,50.8740103603466 0.540009324039576,50.8740226866409 0.540008115124521,50.8740263088701 0.540004192678369,50.8740317899263 0.539997442965914,50.8740391295867 0.539999933666248,50.8740849335837 0.539998405587067,50.8741344209787 0.540000456736596,50.8741721414939 0.539999295297023,50.8741766630166 0.540014388957384,50.874193418163 0.540035754653241,50.8742199286715 0.540035998814116,50.8742244186954 0.540039834282605,50.8742432177813 0.540047835055569,50.8742610276606 0.54005110322591,50.8742672507071 0.540055758273621,50.8742752415171 0.540063435912806,50.8742849653801 0.540066685315816,50.8742929867905 0.540068187249864,50.8742947529484 0.540077758925165,50.8743134271547 0.540078198453294,50.8743215097361 0.540079326610654,50.8743422556573 0.540082478364171,50.8743484812372 0.540087152197083,50.8743546736809 0.540087298756083,50.874357368773 0.540097523312264,50.8743643389035 0.540104956807437,50.8743695727393 0.540118303045904,50.8743800717183 0.540137483194656,50.8743922425424 0.540149327555476,50.8744009762588 0.540156860143001,50.8744080058895 0.540168849607507,50.874419433828 0.540191425790364,50.8744423211399 0.540235643594791,50.8744989047295 0.540240316045752,50.8745050971964 0.540244786617458,50.8745355723055 0.540257383576137,50.8748986523641 0.540472939999572,50.8749398172942 0.541134952417573,50.8750630636351 0.54120251275072,50.8750768779505 0.541254971353196,50.8751018115784 0.541311139616005,50.8751410507186 0.541454896589339,50.8752477080223 0.541516159075733,50.8753030212835 0.541539042565897,50.8753573716738 0.541504400482877,50.8753734120417 0.54145625913887,50.8754041336813 0.541478592133422,50.8754225297854 0.541397477232372,50.8754719527904 0.541732482647759,50.8756985285634 0.542249873945466,50.8760371227144 0.542460946842639,50.8761809762454 0.54255676833914,50.87624452731 0.542720953642554,50.8763344625302 0.542869440204691,50.8763986644288 0.543010937981406,50.8764378408539 0.543176146882189,50.8764711954634 0.543342286450573,50.8764936501041 0.54350042371697,50.8764982958515 0.543727300042178,50.8764888535079 0.543923266453744,50.8764585047674 0.544136139432299,50.8764007224434 0.544384887189938,50.8763215668571 0.544766445623953,50.8762017481473 0.545210694601381,50.8760579922639 0.545670828311033,50.875917573955 0.545965321509488,50.8758176349409 0.546190445442616,50.8757245138603 0.546368814446785,50.8756316032772 0.546542261296118,50.875528010317 0.546733841450334,50.8753915610129 0.5469107870714,50.8752726053971 0.547091160733605,50.8751391874787 0.547301836055233,50.8749897320644 0.547394988663805,50.8749247564988 0.547546047335776,50.8748018689247 0.547680286690908,50.8747080319972 0.547817244621509,50.8747950486594 0.547878541177179,50.8750850402619 0.547892319837471,50.8751549646944 0.547927562672733,50.875175774984 0.547786488043658,50.8752732683212 0.547676997653271,50.8753502898771 0.547573996974552,50.8754173685961 0.547577247873276,50.8754253906419 0.54766018294145,50.8755125967538 0.547746291105011,50.8756042306353 0.547845047232919,50.8755903842937 0.547852316369881,50.8755947217816 0.547883149226629,50.8756120315762 0.547925697087461,50.8755841277723 0.547965191214443,50.8755517944116 0.54799638260121,50.8755241376846 0.548024502051618,50.8754938515602 0.54808010701674,50.8754431832157 0.548115513862725,50.8754154343963 0.548152468493463,50.8753902600963 0.548222629837087,50.8753464664809 0.548298363335952,50.8753016525981 0.548411317023432,50.8752344459018 0.548440170426665,50.8752176305998 0.54845133020693,50.8752137900714 0.548461084350981,50.875209980241 0.548483255460438,50.8751996050452 0.548504022346266,50.8751892605137 0.548530329342728,50.8751751990777 0.548547630807965,50.8751550392462 0.548551668660378,50.8751495563045 0.548583708063667,50.8750859147624 0.54858829630664,50.8750389679898 0.548592003106709,50.8750038193406 0.54893693189983,50.8750466386122 0.548916872172122,50.875095721316 0.54903884209643,50.8751164357158 0.549080489549022,50.8751236180522 0.549139259605007,50.8751331245945 0.549159357454426,50.8751362823414 0.549179337460523,50.8751394426593 0.549246751538296,50.8751505582608 0.549375960094505,50.8751729121251 0.549380174151822,50.8751728200571 0.549520836672934,50.8751967214701 0.549655665166287,50.8752189522394 0.54966997649666,50.8752213369105 0.549793400256134,50.8752429172942 0.549905272195766,50.8752611540802 0.54990824889242,50.8752619875588 0.550007213767772,50.8752778089199 0.550010023617409,50.8752777475156 0.55005172039882,50.8752858278589 0.550195075212783,50.8752044673947 0.550219042496391,50.8752012462131 0.55023175345683,50.8752000689879 0.550282617120574,50.8751935625872 0.550272354642341,50.875162315968 0.55031336616475,50.8751578228284 0.550321959484711,50.8751864085474 0.550446754360036,50.875127931853 0.550476178981919,50.8750679436895 0.550803151813809,50.875121040941 0.551267880722184,50.8751963022048 0.551599480119695,50.8752546908645 0.551964023212839,50.8753196416811 0.552122005000579,50.8753494554067 0.551976930154657,50.8755558411337 0.551654504096887,50.8760279414544 0.551300041761507,50.8765402143139 0.551284048468664,50.8765585470875 0.551255471332057,50.8765825506385 0.551024353348711,50.8769068974425 0.550998087796752,50.876945326633 0.550968939978408,50.8769846283102 0.550946638339887,50.8770183846667 0.550921410325382,50.8770522058922 0.550902999204014,50.8770777850675 0.550884568304044,50.8771051626219 0.55086594261554,50.8771289485325 0.550851647529646,50.8771526388719 0.55083060283053,50.8771836703552 0.550807988374263,50.8772138376248 0.550780171017788,50.8772496033154 0.550752230858073,50.8772852817414 0.550730940733077,50.877311822349 0.550711056331175,50.877338333124 0.550691073769921,50.8773630471924 0.550671091235416,50.8773877621564 0.550631027917,50.8774353944733 0.550611045267203,50.8774601085302 0.550589658310542,50.8774848532794 0.550568220893572,50.8775087006027 0.550546784824257,50.8775325469932 0.550526807038999,50.8775573517714 0.550485337702941,50.8776050147714 0.550465256816873,50.8776279330014 0.550442514470387,50.8776536067736 0.55042117496854,50.8776792498796 0.550399689674604,50.877702197895 0.550379559686914,50.8777242186585 0.550358121991146,50.8777480650505 0.550336685741166,50.8777719123064 0.550315297059887,50.8777966570438 0.550292456467508,50.8778205349849 0.550269663441363,50.8778453104071 0.55024540220472,50.8778711072801 0.550222511056854,50.8778940868882 0.550199621255946,50.8779170655631 0.550156697919378,50.8779638617002 0.550110995107195,50.8780134150396 0.549928391445258,50.8782090180523 0.549586470124331,50.878560960939 0.549434511171514,50.878718938053 0.549380719746696,50.8787749620073 0.549338955290645,50.878817236306 0.549297292273191,50.8788613962658 0.549224775132841,50.8789394100462 0.54915366349136,50.8790173930775 0.549100067448679,50.8790770094345 0.549049330397334,50.8791374627363 0.548992045412955,50.8792089393925 0.548939086180758,50.8792802306859 0.548856061390163,50.8793998356055 0.548709166748613,50.8795991529408 0.548677499053707,50.8796439029427 0.548595289038437,50.8797526994876 0.548376850413285,50.8800479915987 0.548147665364093,50.8803570053787 0.547926456138857,50.8806532561929 0.547710667214894,50.8809457923249 0.547367364289169,50.8814021523162 0.547128624001201,50.8817167683518 0.546437953730258,50.882660863527 0.546285932584591,50.8828719789411 0.546159293941969,50.8830519679039 0.546044314837898,50.8832136301616 0.545969091397702,50.8833196642414 0.545755068617138,50.8836192618254 0.545649818981724,50.8837745062674 0.545612847970337,50.883827464234 0.545588938090687,50.8838576588103 0.545545135908679,50.8839143625966 0.545530376317373,50.8839317692231 0.545528922824975,50.8839309015069 0.545410050205682,50.8839137130121 0.545398595389515,50.8839121649699 0.545334271516178,50.8839063746911 0.545319839389114,50.8839039921703 0.545306929661243,50.8839015764353 0.545289754547105,50.8838983543273 0.545273819958129,50.8838942057299 0.54525940639824,50.8838900248478 0.545246349816122,50.8838849149368 0.545115988825963,50.8838419006978 0.545049330500267,50.8838190775235 0.545010257307662,50.8838055426581 0.544985646654339,50.8837970879528 0.544961037430337,50.8837886332111 0.544937831317468,50.8837801478584 0.544913055276487,50.8837707973211 0.544894279964172,50.8837640141611 0.544875290231965,50.8837554359273 0.544853490093519,50.8837469198903 0.544844746456281,50.8837435138089 0.544830334403855,50.8837393328405 0.544809889841284,50.8837298878037 0.544790967679444,50.8837204095574 0.544773431514674,50.883712699926 0.544758872598678,50.8837058238795 0.544690025572887,50.8836686610471 0.544675348861253,50.8836617884586 0.544660789976766,50.8836549123989 0.544646224780844,50.8836479465327 0.544628688669118,50.8836402368782 0.544612723860752,50.8836333914757 0.544592378725153,50.8836257430802 0.544579322245925,50.8836206321922 0.54456626439847,50.883615522232 0.544545919278771,50.8836078738279 0.544512565236356,50.8835960129118 0.54449512702765,50.8835900990508 0.544476402178488,50.8835842132472 0.544457558042607,50.883578330042 0.54444028662368,50.8835733110601 0.544417180045074,50.8835666222807 0.544394004505287,50.8835608335254 0.544369540906954,50.8835550728553 0.544345077314768,50.8835493121798 0.544302936222723,50.8835052725499 0.544204728929214,50.8834004132362 0.544179678215781,50.883383874936 0.544078792780176,50.8834364281862 0.543949273417419,50.8835120850033 0.543812511064252,50.8835861016473 0.543701427747685,50.8836343806945 0.543642493593757,50.8836500518586 0.54358799012233,50.8836674252477 0.543553250876718,50.8836817603057 0.543520204748791,50.8837013632466 0.543468328697383,50.8837411586107 0.543395302685789,50.8838101875932 0.54336415009446,50.8838387407559 0.543315823963693,50.883864072376 0.543271204933569,50.8838821286729 0.543210604963187,50.8839167193433 0.543161440758708,50.8839546567395 0.543035722110188,50.8840743793151 0.542961730011708,50.8841515224073 0.542906713459897,50.8842111672418 0.5428851838949,50.8842592926646 0.542878396450677,50.8842918110032 0.54287691119613,50.8843162106716 0.542891252700935,50.8843707470013 0.54289262198349,50.8843958939396 0.542895556173902,50.8844497803638 0.542889844596303,50.8845020572674 0.542879002371295,50.8845634366724 0.542874352945987,50.8846093953297 0.542846908597407,50.8846802189926 0.542827211270569,50.884710321308 0.542780460756652,50.8847904673556 0.542726232713337,50.8849184316202 0.542709131841012,50.8849962234438 0.542705564578054,50.8850340663549 0.542700538724104,50.8850989157875 0.542700906694051,50.8851573534754 0.542844958392361,50.8851137514662 0.542850885125856,50.8851450932693 0.542855482057585,50.8852295149961 0.542861991165918,50.8853490527737 0.542865658997442,50.8854164110192 0.542871490818826,50.8855493605294 0.542862120436508,50.8856377734183 0.542850061215103,50.8857306512028 0.542842544241963,50.8858531021045 0.54283671652711,50.8859549255919 0.542831799406681,50.8860476468122 0.542450691938389,50.8861773397756 0.542326355389853,50.8860361821059 0.542112583468208,50.8858177559014 0.541780341657462,50.8855119936292 0.541366169733058,50.8851396774702 0.541315677686573,50.8850994153052 0.54088595195069,50.8847535124764 0.540243077872483,50.8842799819877 0.539964099529376,50.8840909357522 0.53947391584355,50.8837841095964 0.539084392126225,50.8835497219588 0.538729639333721,50.8833532408729 0.538327058576935,50.8831416141012 0.537870137375949,50.8829222663445 0.537475975077974,50.882733832226 0.536932957188191,50.8824982801723 0.536254347438143,50.8822288066341 0.535293752969281,50.8818458676107 0.534783413492501,50.8816374694299 0.534023934492277,50.8813202866083 0.533142851038664,50.8809329054069 0.532812041760858,50.8807836322479 0.532256234329038,50.8805231582394 0.531717458734824,50.8802632123037 0.531235501195916,50.8800263062241 0.530825571947043,50.8798076171882 0.530542626527475,50.8796501044031 0.530159943677438,50.8794344190844 0.529385193812057,50.8789637760495 0.528965950540738,50.8787048201541 0.528634181833898,50.8784853292594 0.528034879756253,50.878076514029 0.527590669858367,50.8777479598099 0.527067029184386,50.8773464026042 0.526538042216901,50.8769216710094 0.526056064068776,50.8765012243513 0.525745522582665,50.8762012407154 0.525472086869176,50.8759284172581 0.525128118284223,50.8755346518993 0.524891029888772,50.8752510587112 0.524662728668807,50.8749456950168 0.524437238585972,50.8746141939152 0.52419046108178,50.8742292025743 0.523993211393386,50.873895291869 0.523849037980384,50.8736195779919 0.523684325245733,50.8732283144721 0.523542425350424,50.8728644324321 0.523401244129616,50.8724357040036 0.52326100322482,50.8718919516571 0.523203010825164,50.8716080792441 0.523144202331306,50.8712027469314 0.523113279409846,50.8708949103121 0.523098340835081,50.8706182889357</coordinates></LinearRing></outerBoundaryIs></Polygon>
  </Placemark>
