  <Placemark>
	<Style><LineStyle><color>ff0000ff</color></LineStyle><PolyStyle><fill>0</fill></PolyStyle></Style>
	<ExtendedData><SchemaData schemaUrl="#Wards__December_2019__Boundaries_EW_BFE">
		<SimpleData name="objectid">5121</SimpleData>
		<SimpleData name="wd19cd">E05010846</SimpleData>
		<SimpleData name="wd19nm">Hawkwell East</SimpleData>
		<SimpleData name="wd19nmw"></SimpleData>
		<SimpleData name="bng_e">586492</SimpleData>
		<SimpleData name="bng_n">192813</SimpleData>
		<SimpleData name="long">0.69158</SimpleData>
		<SimpleData name="lat">51.603271</SimpleData>
		<SimpleData name="st_areashape">1099516.31204649</SimpleData>
		<SimpleData name="st_lengthshape">7707.33928136251</SimpleData>
	</SchemaData></ExtendedData>
      <Polygon><outerBoundaryIs><LinearRing><coordinates>0.698867094690057,51.5848421046266 0.700191557752015,51.584731599729 0.700354271773661,51.5847476351362 0.700428266135488,51.5847549228672 0.70032746961336,51.5850504508746 0.700383430374782,51.5855807300509 0.700386506455047,51.5857550905536 0.700376857145231,51.5859316327352 0.700370468527783,51.5859704427954 0.700327130557316,51.5861891198977 0.700300236107052,51.5864181193745 0.700252192421648,51.5866297123595 0.700245377710672,51.5866613389001 0.700110918968941,51.5869252726286 0.699875510938689,51.5874360938851 0.699657148438834,51.5879654941286 0.699419740266893,51.5886616718469 0.699085964803143,51.5895336895685 0.699014570501794,51.5897431221868 0.698868943783276,51.5901844411326 0.698738661804075,51.5906416804059 0.698642743053785,51.5911906500437 0.698540778606816,51.5917119756467 0.698417537540981,51.59221580717 0.698281467755323,51.5927944680998 0.698215466156727,51.5929965808901 0.698138356764081,51.5932061423379 0.698088825622907,51.5933205713129 0.69796806576351,51.5935248425332 0.697745102033812,51.5938789202004 0.697579354162765,51.5943728444541 0.697370474185752,51.5950873261963 0.69720669945212,51.5956126736226 0.697137299994161,51.595831947345 0.697037630798255,51.5961472234206 0.696972848962882,51.5964203384804 0.696885382843608,51.5966984699696 0.696788395956273,51.5969867106748 0.696536383091629,51.5977533417044 0.69639409775178,51.5982297302311 0.696361969040847,51.5983446575978 0.696228416778758,51.5985041738017 0.696174653201323,51.5986196881464 0.696101900454278,51.5987805043987 0.696015728319579,51.59900825417 0.696006578803114,51.5990246487497 0.695900944610111,51.5992897093801 0.69554055294309,51.6001046828715 0.695415381376551,51.6003576039211 0.695236267205886,51.600698975831 0.695154776517253,51.6008088294148 0.695062893775495,51.6009161353606 0.694923612698007,51.6010515024816 0.694776384315988,51.6011511772277 0.694717194290539,51.6011992897479 0.694655882265144,51.6012618371601 0.694587430752329,51.6013506218798 0.694515128955721,51.6014467779897 0.694385967019842,51.6018013833666 0.694191492720276,51.6023220243984 0.694077267039278,51.6025890734122 0.693863574753593,51.6030527017408 0.693749761539054,51.6032764932123 0.693589041230212,51.6036111425537 0.693458726344262,51.6038740640352 0.693227764872194,51.6043398857344 0.693110069232609,51.6045484807775 0.692880289349913,51.6048875005009 0.692731960418743,51.6051399555023 0.692579407208382,51.6053934955568 0.692443161146634,51.6056529549918 0.692200232497031,51.6061604072776 0.692031897083536,51.6064411911284 0.691890652095713,51.6066665994365 0.691720791417011,51.606919635549 0.691556371105731,51.6071680524897 0.691418940043316,51.6074076670121 0.691054754979194,51.6082353692032 0.690982382964725,51.6083548102247 0.690910067543503,51.6084752391841 0.690755522795595,51.6086954653477 0.690538261252717,51.6089064291001 0.690232946015471,51.6091167098055 0.689950908081999,51.6093299627928 0.689693321070878,51.6095418462944 0.689496636933261,51.609734351468 0.689216710696604,51.6099088931829 0.689046658094879,51.6098669357341 0.68895132934233,51.6098439450045 0.688945991261998,51.6098503608839 0.688924456875469,51.609876927912 0.688248430861863,51.6097314746573 0.687709871232714,51.6096610006312 0.687577502466796,51.6096460498073 0.687401376830712,51.6096222105138 0.687067936174792,51.6095300453736 0.686724081570363,51.6093804860083 0.686335976963509,51.6092419183177 0.685570153760233,51.6090174975497 0.685326544439932,51.6089277673235 0.685298388384262,51.6089652736364 0.685147661637432,51.6089075842582 0.685028098062585,51.6088653646449 0.684910394047846,51.6088284072633 0.68485286622106,51.6088081439473 0.684736545252147,51.6087946214219 0.68478257942843,51.6087432190743 0.68459935451909,51.6086494078152 0.684302297947647,51.6085095587335 0.684228092660251,51.6084770891437 0.683983695974258,51.608373887154 0.683678485859316,51.6081946622575 0.683447058490999,51.6081154380874 0.683410228122724,51.60810279334 0.683344178480802,51.6080854222103 0.683265059411682,51.6080665519946 0.682894810977343,51.6079860041802 0.682859354598625,51.6079724294101 0.682680952361631,51.6078613329044 0.682544567632931,51.6077538608272 0.682282285932585,51.6075188071899 0.682194020960851,51.6074417035254 0.682328698005376,51.6073505145624 0.682323983047583,51.6070502338071 0.681874583737051,51.6067277473726 0.681829330317039,51.6066954252262 0.681997298080016,51.6066781006772 0.682414372521831,51.6066460924679 0.682413682395229,51.6066101448943 0.682415529308369,51.60656874412 0.682423363851164,51.6065299036699 0.682431249872193,51.6064919613957 0.682434737281145,51.6064783958916 0.682443099528039,51.6064485342155 0.682448081727295,51.6064340351961 0.682466393772258,51.6064012489681 0.682468930846642,51.6063957966643 0.682531844579627,51.6062872764059 0.682538411993284,51.6062754374137 0.682544912670278,51.6062645001991 0.682557134877751,51.606251633514 0.682570691668799,51.6062351398108 0.682595030225593,51.606207611044 0.682672287678487,51.6061222287974 0.682693931761016,51.6060974587511 0.682730818343722,51.6060605614798 0.682749976840574,51.6060421419093 0.682788229837081,51.6060062026744 0.682890317476264,51.6059238501318 0.682953714720018,51.6058720515734 0.682989536309972,51.6058433608719 0.683032505852697,51.6058127080552 0.68316521646449,51.6057124820596 0.683256401521747,51.6056411670358 0.682762920667998,51.6053808309226 0.682859866165548,51.6053102829908 0.682958239371066,51.6052397032314 0.683056731976281,51.6051691206489 0.683078903222082,51.6051533292973 0.683153605902511,51.6050993834956 0.683253418551032,51.6050269727395 0.683351790426486,51.604956391736 0.683700528245215,51.6051391173784 0.683850871478333,51.6052147994756 0.683947869271768,51.60514514963 0.683965970965082,51.6051330476784 0.684045020297818,51.6050781034184 0.684142068947009,51.6050093506829 0.684154555059919,51.6050009727419 0.684241867269187,51.6049387362617 0.684340290335473,51.6048690534517 0.684441579881215,51.6047975062764 0.684541317572085,51.6047259045616 0.684559365952126,51.6047129043707 0.684592595846394,51.6046887673649 0.684639739625471,51.6046562205902 0.684736787891369,51.6045874682044 0.684835209319239,51.6045177840613 0.68493082897466,51.6044490632739 0.68504982926349,51.6043608374087 0.685139780009338,51.6042949432837 0.685150839232808,51.6042865978673 0.685233972205102,51.6042262548726 0.685323869459202,51.6041594633543 0.685437424132176,51.6040758557156 0.685443039373039,51.6040721316094 0.685528801682518,51.6040099295035 0.68559537761396,51.6039616530977 0.685622991207051,51.6039412407976 0.685712689068269,51.6038690582652 0.685814756466549,51.6038127764992 0.686243498429865,51.6039063605666 0.686837287022775,51.6040321292268 0.686824373042783,51.6040090487831 0.686814469263112,51.6039643202609 0.686871461376178,51.6039756029408 0.686958073792222,51.6038774158712 0.687222931780118,51.6039100134715 0.687239429415507,51.6038727728895 0.687249745945479,51.6038518568612 0.687258634601442,51.6038309744244 0.687271817772458,51.6038081949421 0.687282924617338,51.6037764721263 0.687286570792381,51.6037655999525 0.68731164572043,51.6037002001503 0.687325288824706,51.6036630249108 0.687332856945211,51.6036439705171 0.687353011308448,51.6035940587788 0.687366760353378,51.6035586789208 0.687380682120219,51.6035241944626 0.687411152741417,51.6034533666686 0.687421250334079,51.6034287700653 0.687431354661179,51.6034042632422 0.687452830648558,51.6033525225001 0.687452724639452,51.6033507271124 0.687493087217341,51.6032518007921 0.687593028349351,51.6031091620765 0.687559160086311,51.6030982496071 0.687553174084123,51.603095689512 0.687509105730823,51.6030814140774 0.687435330232409,51.6030561299392 0.687290912674071,51.6030081887548 0.687194452414775,51.6029879197821 0.687540523752317,51.6025869986802 0.68772379282151,51.6024136810906 0.687806620136445,51.6024954900888 0.687805617893243,51.6025027061046 0.687776990295655,51.6025321330874 0.68778884390019,51.602537255962 0.687901349184557,51.6025832311209 0.687919077490193,51.6025648424305 0.687976598265654,51.6025851032949 0.688116722197704,51.6026349406762 0.688159588206015,51.6026510421305 0.688274833030394,51.6026466045501 0.688307263783686,51.6026089978979 0.688354609217754,51.6025557658965 0.68836826877554,51.602541067766 0.68845900770439,51.6024886395057 0.688488370556638,51.6024716929765 0.688506404601096,51.6024604902493 0.688540068549456,51.6024417372937 0.688630805620471,51.6023893089286 0.688640541928067,51.6023827921663 0.688646091407791,51.602379967855 0.688743869323595,51.6023237815564 0.68884583666816,51.602263902648 0.688894666290289,51.6022358112269 0.68897853271788,51.6021880349753 0.688981279488396,51.6021861742222 0.689025934308201,51.6021599762135 0.689074878099848,51.6021317921573 0.688847377612417,51.6020219192586 0.688810285788915,51.6020047873139 0.688742180546248,51.6019766769415 0.688696088076749,51.6019543568231 0.688715238015278,51.6019116599419 0.688633273826909,51.6018928588117 0.688566913536059,51.6018701036199 0.688630712965552,51.6018011190848 0.688681184610953,51.6017262369788 0.688726725295896,51.6016424760324 0.688752964913237,51.6015726440502 0.688785273232147,51.6014846013086 0.68879886364442,51.6013961779895 0.688874375914549,51.6014025393837 0.68899602754544,51.601407844433 0.689061048998233,51.6014099501938 0.689072637240826,51.6014105840204 0.689182700665488,51.6014152550498 0.689223237566985,51.6014161239618 0.68932016810979,51.6014201964469 0.689359331690095,51.6014219961418 0.689366368049362,51.6013939628649 0.68937080182887,51.6013722829423 0.689371911368065,51.6013668631613 0.689378050388383,51.601347841337 0.689383925563921,51.6013243296637 0.689386302342524,51.6013161836644 0.689389787160569,51.6013026170188 0.689395660935305,51.6012791062759 0.689399147190107,51.6012655395968 0.689401469453539,51.6012564954874 0.689408611844088,51.6012302575939 0.689423156578725,51.6011821818063 0.689432834857207,51.6011504914404 0.689437533868476,51.6011333013293 0.68946192123853,51.6010563185119 0.689412650724907,51.6010547504843 0.689386674726557,51.6010544464182 0.689392319673678,51.6009545169983 0.689397648439082,51.6008733860266 0.689400975662222,51.6008067761044 0.689221811219394,51.6008054875659 0.689227192716695,51.6007010683047 0.689228408331743,51.600697443912 0.689231788873212,51.6006317321382 0.689236639022584,51.6005425197162 0.689233986851286,51.6004976256099 0.688991908608748,51.6005076680322 0.688916769169126,51.6005075919308 0.688857086145254,51.6004990690315 0.688849405992258,51.600417425092 0.688833257268594,51.6003395718025 0.688805825479053,51.600217830225 0.689013131847015,51.6002319615468 0.689171235410001,51.6002436234447 0.689182083010226,51.6001813358232 0.68918414011487,51.6001678016222 0.689477012015699,51.6001871644645 0.689489481041912,51.600105957213 0.689494612154859,51.6000698753118 0.689502805113839,51.6000130429522 0.689541847711346,51.6000148453566 0.689743499530725,51.6000300043427 0.68986388009424,51.6000380339515 0.689943670618696,51.6000442975507 0.690055370575905,51.6000525259489 0.690078546347955,51.6000537934249 0.690145216542465,51.6000576595252 0.690210407377213,51.6000606610241 0.690221995213891,51.6000612938492 0.690303001358515,51.6000639327261 0.690343590076943,51.6000656994193 0.690476653098422,51.600070740408 0.690491213393459,51.6000713059553 0.690494067531702,51.6000712405169 0.690614236091849,51.6000756785094 0.690635865783795,51.600076980426 0.690624083745496,51.6001455844141 0.690623080465755,51.6001527997437 0.690611020877313,51.6002187119585 0.690721192782579,51.600225266855 0.690813946403944,51.600231232638 0.690824053462565,51.6002310008808 0.690984917514978,51.600239000433 0.691171691962954,51.6002482043164 0.691277525099493,51.60025386888 0.691485949401387,51.5990663851767 0.691550737199758,51.5986718931393 0.692106782115196,51.5956695569586 0.692233714322502,51.5956657460522 0.692229207239059,51.5956136998494 0.692225398649289,51.5954284781909 0.69222064600181,51.5952011098826 0.69232159081868,51.5951987936125 0.692349109123402,51.5951990606452 0.692478984948419,51.5951987776076 0.692536757228185,51.5951992506128 0.692597501515567,51.5951996544865 0.692601781513428,51.595199556266 0.692716004628362,51.595202330314 0.692715572228128,51.595170870938 0.69271248695215,51.5951187021674 0.692708929101902,51.5950585424598 0.692708921542923,51.5950342665733 0.692669989526625,51.5950342606672 0.692508208353999,51.5950325788601 0.692148288852709,51.5950264521776 0.692147625604732,51.5949185724346 0.692358404495767,51.5949173325352 0.692356414029312,51.5948111920541 0.692305948811211,51.5948114506832 0.6921499290941,51.59481053468 0.692149284804621,51.5947754844545 0.692148641906132,51.5947404332975 0.692349365779093,51.5947403225839 0.692427350421772,51.5947403318136 0.692426652747287,51.594704382529 0.692427329627572,51.5946675032212 0.692427745640753,51.5946000590839 0.692432027022095,51.5945999608362 0.692612432588021,51.5945985180496 0.692608290902289,51.5945284821579 0.692606480244784,51.5944978638529 0.692605258942509,51.5944772115412 0.692599152613176,51.5943739526758 0.69243176052981,51.5943759962177 0.692429105770388,51.594331100743 0.692424014653345,51.5942691783583 0.69242358988157,51.5942619948667 0.692421466078553,51.5942260783066 0.692419390131782,51.5941909709894 0.692417425612911,51.5941577480137 0.692413132409289,51.5941092944167 0.69241079624362,51.5940697861097 0.692408672519394,51.5940338704466 0.692408566301436,51.5940320741245 0.692402574123259,51.5939548874565 0.69240199008706,51.5939450103795 0.692398002749416,51.5938775773463 0.692392327722102,51.5938057778793 0.692392115395561,51.5938021870313 0.692390894226745,51.5937815347158 0.692386760375673,51.5937357747004 0.692381663244154,51.5936999263701 0.692378591247425,51.5936721241867 0.692378325762327,51.5936676342794 0.692374563585717,51.5936281595942 0.69237451047824,51.5936272614331 0.692369957810634,51.5935985938478 0.692366879078187,51.5935707018807 0.692358398868539,51.5935259409834 0.692344099130597,51.5934552379119 0.692332551747432,51.5933565998994 0.69254865874181,51.5933489433165 0.6925459434194,51.5932788737835 0.692545088608828,51.5932644178809 0.692543224240777,51.5932087144005 0.692539135936346,51.5931395757558 0.692538976659687,51.5931368821706 0.692536951645741,51.5930784860352 0.692536261431519,51.5930668135334 0.692535252677445,51.592999402074 0.692534562465698,51.5929877295721 0.692531105997063,51.5929292754497 0.69242280128195,51.5929056870266 0.692291178917936,51.5928763388331 0.6922692221849,51.5928714482049 0.692191661270784,51.5928543464213 0.692153679561727,51.5928462268724 0.692116740283339,51.5928335873925 0.692222277212101,51.5925667336257 0.692102348054289,51.5925398141642 0.69191215009515,51.5924983234556 0.691794968810661,51.5924695427812 0.691727732282745,51.5925304273725 0.691682352530162,51.5925683322788 0.691650880064053,51.5925978263836 0.691626129890951,51.592618175159 0.691546523079854,51.5926893238442 0.691597323279955,51.5927169304566 0.691643564830358,51.5927419434955 0.691609185815644,51.5928209566455 0.69156609473892,51.5929217475588 0.691548430127285,51.5929653104273 0.691538229371706,51.5929881125711 0.691535748659824,51.5929944633381 0.691535907873351,51.5929971569244 0.691525701795361,51.5930198692508 0.691521833051641,51.5930289490989 0.691518190167667,51.5930398225242 0.691488999353751,51.5931079258478 0.691487785535214,51.5931115503114 0.691384097989569,51.5931660776247 0.691318292776902,51.593200855192 0.691289520891133,51.5932015151883 0.691190061226121,51.5932046951121 0.69114678442491,51.5932056877855 0.691100653936014,51.5932067458985 0.691070336234784,51.5932074412975 0.690978023661682,51.5932086601486 0.690982821028668,51.5934127406319 0.690994855052816,51.5935176613838 0.690850013186798,51.5935587465214 0.690736371046141,51.5935919236147 0.690613278697897,51.5936343974404 0.690557933393745,51.5935762348006 0.69054571205773,51.5935648267374 0.690515016363023,51.5935349598715 0.690501314406971,51.593522686379 0.690389568216776,51.593414656777 0.690314441105031,51.5934145816331 0.690266884232046,51.5934156721185 0.689957760101121,51.5934146681959 0.690236146116537,51.5931654323225 0.690595778084884,51.5928244206963 0.69093144191859,51.5924929486259 0.691696156213013,51.5917505304639 0.6929784031732,51.5905078170205 0.693716403746987,51.5898019594293 0.694567543166744,51.5889846135594 0.695860269690666,51.5877506158545 0.697007250108527,51.586639628015 0.698094787185479,51.5855991392938 0.698867094690057,51.5848421046266</coordinates></LinearRing></outerBoundaryIs></Polygon>
  </Placemark>
