  <Placemark>
	<Style><LineStyle><color>ff0000ff</color></LineStyle><PolyStyle><fill>0</fill></PolyStyle></Style>
	<ExtendedData><SchemaData schemaUrl="#Wards__December_2019__Boundaries_EW_BFE">
		<SimpleData name="objectid">2305</SimpleData>
		<SimpleData name="wd19cd">E05005620</SimpleData>
		<SimpleData name="wd19nm">Billinghay, Martin and North Kyme</SimpleData>
		<SimpleData name="wd19nmw"></SimpleData>
		<SimpleData name="bng_e">515020</SimpleData>
		<SimpleData name="bng_n">356264</SimpleData>
		<SimpleData name="long">-0.28391</SimpleData>
		<SimpleData name="lat">53.091221</SimpleData>
		<SimpleData name="st_areashape">81304810.948076</SimpleData>
		<SimpleData name="st_lengthshape">44446.6172021408</SimpleData>
	</SchemaData></ExtendedData>
      <Polygon><outerBoundaryIs><LinearRing><coordinates>-0.283863999073505,53.0368233842554 -0.283699322319274,53.0369135803435 -0.283421535624782,53.0371487340791 -0.283239915616534,53.0374023531903 -0.283033193755875,53.0376501262616 -0.282996667093655,53.0377090077765 -0.282961497418628,53.0377678189772 -0.282928455727226,53.0378473324026 -0.282831205297769,53.0381192457853 -0.282781780619854,53.0381994224474 -0.28272647765755,53.0382759180344 -0.282548976416326,53.0383884867652 -0.281883022982384,53.0387079065856 -0.281419894952026,53.0389520606903 -0.280611806352856,53.0393197492108 -0.280348638779667,53.0394462648147 -0.279868502200578,53.0397063450353 -0.279411858753403,53.0399353061559 -0.279234337143483,53.0400109310775 -0.279058432319108,53.0400829830042 -0.278483206265515,53.0402598923188 -0.277815429772328,53.0404723077703 -0.277448386925788,53.0405478796215 -0.277444042444755,53.0406970141785 -0.277633081422255,53.0411906656881 -0.277865322629028,53.0416156460013 -0.278163494452527,53.0422196289452 -0.27822365211888,53.0425064010122 -0.277982632683619,53.0425640272365 -0.277773370847957,53.0426518620737 -0.277546361123875,53.0428085553081 -0.27740668859766,53.0429432349872 -0.277271903005394,53.0431435068919 -0.277154351574719,53.0433989431753 -0.277095482475588,53.043564453493 -0.276965456880725,53.0437594016332 -0.276908449942442,53.043878201688 -0.276729398123971,53.0442909310934 -0.276670008830005,53.0444725218596 -0.276649480151525,53.0446511705978 -0.276659845169071,53.0448015061891 -0.276648664099473,53.0450449129449 -0.27668887313706,53.0455696619433 -0.276562308264626,53.0461989477261 -0.276561328313985,53.0465998771772 -0.276494108231102,53.0469746814946 -0.276452785807106,53.0471503324915 -0.276297352183816,53.047719879365 -0.276240318786264,53.0480642730583 -0.276105436556049,53.0483805732186 -0.275954972160551,53.0486741786279 -0.275827747184944,53.048983399942 -0.275672838520946,53.0492742443397 -0.275558561117279,53.0494469488934 -0.275392340364373,53.0495372020378 -0.27528041560587,53.0495769222348 -0.275159321987454,53.0496183064734 -0.274813795914039,53.049716652228 -0.2745115970525,53.0498112214555 -0.273626630964178,53.0500428421139 -0.273114633842683,53.0501604259699 -0.272659132631634,53.050283232836 -0.272245174822449,53.0503760826769 -0.271737252399075,53.0505054046774 -0.271551739267728,53.050554836483 -0.270721170141437,53.0508034937696 -0.270494337780346,53.050843335295 -0.270206567952272,53.0508751002243 -0.269669263433142,53.0509544626647 -0.268998976239039,53.0510400660037 -0.268248592041351,53.0511504729493 -0.267155295921787,53.0512901214427 -0.266732990036423,53.0513666535189 -0.266615137560026,53.0513667334526 -0.266275364616015,53.0513545888758 -0.264680435355604,53.0511685524215 -0.263866709668521,53.0511099365935 -0.263522844185959,53.0511660312361 -0.262929013990622,53.0513138337303 -0.262657488414256,53.0513880599261 -0.262399078225162,53.0514328180249 -0.26219405978645,53.0514468978426 -0.261896354954815,53.0514317612824 -0.261496701970995,53.0514250190962 -0.261148547441705,53.0514010534465 -0.260709770028032,53.0514036230925 -0.260332934583008,53.0514259718136 -0.259355015141632,53.0514062664264 -0.259233836247029,53.0514125817916 -0.258885096619875,53.0514398306607 -0.258628890336684,53.0514297869967 -0.256533685307683,53.0514053728275 -0.25554617376135,53.0514008644518 -0.254648848058739,53.051377718626 -0.253201783669374,53.0513754313714 -0.252519273205042,53.0513546171098 -0.251636146494056,53.0513515205176 -0.251264332486629,53.0513225936467 -0.24995484472933,53.0512736654358 -0.248367130308747,53.0512421954367 -0.247571891169182,53.0512044115558 -0.246962920275834,53.0512116120432 -0.245913995447142,53.0511745704901 -0.245440880214473,53.0511442206464 -0.243435592546114,53.051108318712 -0.243277527298231,53.0511050851119 -0.241793421814711,53.0510579808865 -0.239669170305311,53.0509771147719 -0.238294741387481,53.0509495660318 -0.237516809696478,53.0509281494263 -0.23691676508579,53.0509336326851 -0.236043469114991,53.0509098940452 -0.235616586428337,53.0509134464014 -0.235050872144129,53.0508825799133 -0.23438004814493,53.0508681253795 -0.233238854673496,53.0508287028543 -0.232665870563358,53.0508282763868 -0.232211930992537,53.0508377059228 -0.231166140882724,53.050799681981 -0.229999001667667,53.0507751214886 -0.229311305028595,53.0507702738992 -0.228295359454317,53.0507695198922 -0.226905395653154,53.0507191386205 -0.226310308625273,53.0507147566178 -0.225674161414762,53.0507277342726 -0.224824727325914,53.0507042686436 -0.224209774011135,53.0507103643846 -0.223762989356027,53.0507252609725 -0.223471616391153,53.0506283333558 -0.223306289588034,53.0506222676038 -0.222880227488032,53.0505699723924 -0.222640055081016,53.0505681793884 -0.22238718964543,53.0504772171928 -0.221755523451245,53.0503095850803 -0.221441517839143,53.0502905080263 -0.221394076600063,53.0502835068524 -0.221110750076839,53.0502423283094 -0.220798774594428,53.0502097970561 -0.220455936167507,53.0502397186328 -0.220326636278147,53.0502639380543 -0.220201580443295,53.0502926243574 -0.219980466171194,53.050374698514 -0.219955939644981,53.0503878133201 -0.219864983787938,53.0506786460167 -0.219344178869441,53.0506807337638 -0.219397252358265,53.0508406129963 -0.219461334260995,53.0509513141129 -0.219460140009368,53.0510519600154 -0.219430086903348,53.0510946513003 -0.219392498117347,53.0511381287596 -0.21920783099636,53.0512729664978 -0.219091154496495,53.051390757089 -0.218993294483869,53.0515206032752 -0.218863923628474,53.0517613369938 -0.21879239278647,53.051831359707 -0.218717953098148,53.0519003489531 -0.218429599930509,53.0521271061674 -0.218350622443989,53.0521987234127 -0.218209887292382,53.0523539016901 -0.21809263972147,53.0524466068631 -0.217967872090231,53.0525427045742 -0.217691080657137,53.0527066288789 -0.217588501903716,53.0529864999196 -0.217547156198625,53.0531567391833 -0.217536982120502,53.0532572504348 -0.21757883626593,53.053617480562 -0.21752375530905,53.0537956025694 -0.217326542645034,53.0540551810952 -0.217266069456926,53.0542178521328 -0.217175208420563,53.0543954375026 -0.217087997865661,53.0545918620837 -0.21703341102072,53.0546864047709 -0.216903674000183,53.0548669123244 -0.216635880314724,53.0551730659427 -0.216524966506283,53.0553296783948 -0.216464859222114,53.0554833676734 -0.216463734917025,53.0555463555454 -0.216484780494469,53.0557965324669 -0.216450660718105,53.0560091219582 -0.216409171221868,53.0561469122299 -0.216139056025204,53.0565447957572 -0.216040606738927,53.0567599253366 -0.215984217196546,53.0569694843161 -0.215910505622024,53.0571635041706 -0.215785764351456,53.0575832515827 -0.215763694701582,53.0576826850718 -0.215742226324883,53.0579880391715 -0.215708447716597,53.0580819944029 -0.215577190644655,53.0583704208103 -0.215385616224582,53.0586714237756 -0.215222853454521,53.0590016213776 -0.215123965510161,53.0591556261193 -0.215020329261769,53.0593500954532 -0.214904757152043,53.0596189834206 -0.214605433864938,53.0602195510271 -0.214517425393211,53.0605418815112 -0.21438703255221,53.0608447009872 -0.214314889722248,53.0611105562791 -0.214269614508225,53.0614110585809 -0.214194588950859,53.0616751623206 -0.214115535686743,53.0622152226741 -0.214057692404648,53.0623851230775 -0.213989423334417,53.0624857495168 -0.213609740389659,53.0630410671907 -0.213416630827193,53.0633069017482 -0.213229568185502,53.0636079694585 -0.213125737169576,53.0638096247605 -0.212964401814654,53.0641757907018 -0.212908085382147,53.0643799570513 -0.212814024446056,53.0646338879795 -0.212754512203654,53.0648469040245 -0.212570526607433,53.0653260656296 -0.212289407093419,53.0659161152898 -0.212064157583346,53.0663810847445 -0.211809882632671,53.0668277309031 -0.211355809689153,53.0675194371959 -0.211277467646141,53.0678598865137 -0.211257905423623,53.0680439335353 -0.211296304874603,53.0684508509187 -0.211308623045326,53.0688753522953 -0.211304365491667,53.0690137909772 -0.211260449897959,53.0692450165606 -0.211030043016603,53.0696911225275 -0.210939057909469,53.0699415032939 -0.210760060856012,53.070153619994 -0.210539280495513,53.070295990296 -0.210409731956584,53.0703245992295 -0.21040813282296,53.0703245751644 -0.209953746556369,53.0703752587829 -0.206622866637226,53.070575924217 -0.204832429389559,53.0703034515544 -0.204416835820816,53.0702468451653 -0.204291702885184,53.0702431585025 -0.204166410317192,53.0702403674403 -0.201811990267245,53.0702865787008 -0.199590819513979,53.0703600290704 -0.199172806443816,53.0703644880043 -0.198850750089986,53.0703551181655 -0.197875776552628,53.0700751217533 -0.197004972485003,53.0698029866348 -0.19627316310752,53.069597665696 -0.19611968531666,53.0695566904891 -0.196207079030603,53.0697153932121 -0.196316874937413,53.0699093984188 -0.196378783236122,53.0700713098699 -0.196491249250322,53.0705961979648 -0.196658591287152,53.0712334575378 -0.196804876435229,53.0717355797904 -0.197173746515887,53.0732677578344 -0.197590055336882,53.0750586933443 -0.197683073176992,53.0752982813498 -0.197760941399685,53.0754703195627 -0.197892828678445,53.075710585347 -0.198020632441451,53.0759012662267 -0.198109995177643,53.0760132604033 -0.198252718344917,53.0761709122619 -0.198462870597004,53.0764294389723 -0.198573864696143,53.0766307403844 -0.198657921357258,53.0767991864841 -0.198731667729284,53.0769639719515 -0.198777223751706,53.0770904916742 -0.198819144024109,53.0773365847585 -0.198818964219752,53.0775208327503 -0.198809071899449,53.077613348222 -0.1987853724513,53.0777181468637 -0.198709130791786,53.077934588811 -0.198609949979814,53.0780930709498 -0.198472764399725,53.0782330920067 -0.198173567774969,53.0784973876705 -0.198021699648785,53.0785939545007 -0.197087211254658,53.079414949141 -0.196589585108077,53.0800322432154 -0.196156404052836,53.0805004153279 -0.195953378039946,53.0807868361279 -0.195576712999106,53.0812602666056 -0.195459821203942,53.0814149722425 -0.195446309816237,53.0814525163325 -0.195439691534553,53.0815018498241 -0.195444943216465,53.0815558558569 -0.19547611970296,53.0816669693845 -0.195714806846549,53.0821353510077 -0.195861276147085,53.0823479776152 -0.196085151330444,53.0827055839274 -0.196305228238107,53.0830127992996 -0.196596582518654,53.0834379367843 -0.196707323001163,53.0835394699784 -0.197018581938459,53.0838066315666 -0.197297089503703,53.0840032813792 -0.197631589778977,53.084182803235 -0.197770061094497,53.0842630947905 -0.198108436873572,53.0844560651899 -0.198673530030897,53.0847595122664 -0.199904726821177,53.0852771491927 -0.200093681043839,53.0853662912411 -0.200320276323899,53.0854444073618 -0.200874405104318,53.0856217582051 -0.201066815003024,53.0856606190186 -0.201681152167226,53.0857552889977 -0.201960887138492,53.0857784825661 -0.202423058733504,53.0857962543038 -0.203243219295579,53.0857851883347 -0.203920727423914,53.0858323619498 -0.204422892637001,53.0858210695981 -0.205169405743286,53.0858934539086 -0.205443971175719,53.085934447662 -0.205760640204549,53.0860021391129 -0.206124893935843,53.0861127915125 -0.206538959980837,53.0862099027645 -0.206915337927451,53.0863162412336 -0.207294523185556,53.0864262160723 -0.208061412470652,53.0866931169152 -0.208331828601937,53.0867601054971 -0.208514868348792,53.0868113963742 -0.20893344528236,53.0869454169865 -0.209076016766651,53.0869987947059 -0.20931044184159,53.0871083804163 -0.209547951662982,53.0872504584295 -0.209701550964615,53.0873615237389 -0.209858185761106,53.0874736225741 -0.210295311767592,53.087843398387 -0.210453058424525,53.0879644109328 -0.210611700051436,53.0880638660754 -0.210755151521712,53.0881703729144 -0.211045256501939,53.0883032623924 -0.211260996080069,53.0883945877285 -0.21137719478611,53.0884368701427 -0.211492292367185,53.0884700582859 -0.211731695452906,53.0885311802378 -0.212094261154434,53.0886121285077 -0.212832087215357,53.0887886824798 -0.213193046776117,53.088905554903 -0.213479303203374,53.0889889477862 -0.213597144985131,53.0890302637407 -0.213801279282586,53.0891107142374 -0.21389361400399,53.089152545881 -0.214093769399375,53.0892607092217 -0.214252387045079,53.0893610580856 -0.214405195265976,53.0894946639637 -0.214514918738687,53.0896221405504 -0.214679410795137,53.0898691679418 -0.214752351259043,53.0900167637713 -0.21488531019506,53.0903415123245 -0.21494037841398,53.0904538770845 -0.215100372077289,53.0907026343947 -0.215262032644918,53.0909081844242 -0.215405663546866,53.0911566957641 -0.215515472768023,53.0913894194487 -0.215701160842961,53.0916303819034 -0.216045456386009,53.0921866790116 -0.21639981624066,53.0927916595896 -0.216545410835739,53.0930644656715 -0.216713654799745,53.09347152909 -0.216815730981567,53.093677172429 -0.216959202227238,53.0939984797486 -0.217009156183403,53.0940918033578 -0.217066935878077,53.0941745483937 -0.217127982816637,53.0942527581778 -0.217188133807551,53.0943138781795 -0.2173091541652,53.094421747848 -0.217526804181896,53.0945751955978 -0.218386089366594,53.0952515487328 -0.218600686021379,53.0954075550445 -0.218698788361427,53.0954891059408 -0.218962463139825,53.0957240402856 -0.219133326412372,53.0959253189773 -0.219318516789125,53.0962508430363 -0.219336583646306,53.0963203195684 -0.219353625817846,53.0965219913421 -0.219337311825858,53.0966278029245 -0.219110618044615,53.0974893051869 -0.219112073828944,53.0975971808422 -0.219156031708734,53.0978001537114 -0.219211339187207,53.0979429890764 -0.219298761838448,53.0981043704199 -0.219481313540057,53.0983867133727 -0.219589313807895,53.0986283942782 -0.219782461549434,53.0990151529929 -0.219965210852783,53.0994718617154 -0.22003497883784,53.0996284839726 -0.220195542523031,53.0999365615378 -0.220424304920068,53.1005468398854 -0.220466797304563,53.1006751018485 -0.220501705091744,53.1008797367346 -0.220589852159407,53.1012775068867 -0.220721133119551,53.102041814491 -0.220746940406493,53.1022849608859 -0.220750854477273,53.1025870990989 -0.220742495110215,53.102682244004 -0.22071546128947,53.1027583260338 -0.220644909120276,53.1029100627967 -0.220500720586766,53.1031479701242 -0.219482017528779,53.1040848033739 -0.219270356742534,53.1042920392426 -0.219039389032911,53.1047101988935 -0.219008073500625,53.1047825303917 -0.218987275637205,53.1049252151662 -0.21903711619851,53.1050544866025 -0.219191569952106,53.1052573161717 -0.219433607408349,53.1054748485097 -0.219503427046919,53.1055200235867 -0.219905871008708,53.1057606271499 -0.220517352902039,53.1060368025584 -0.220767276034471,53.1061709539233 -0.221256345242756,53.1064110511896 -0.221412824779187,53.1064934714563 -0.221680161256754,53.1066385761223 -0.222151452439272,53.1069485987308 -0.223210225460079,53.1077924603765 -0.223619429098566,53.108159969815 -0.224247411612782,53.1087636169638 -0.224337728052967,53.1088557414833 -0.224465967657039,53.1090050549331 -0.224558174864997,53.1091260584165 -0.224638282207624,53.1092836409828 -0.224727846313314,53.1096842145255 -0.224750657453775,53.1098930716006 -0.224822256857978,53.1103679752316 -0.224887162088125,53.1108948176998 -0.224888890579033,53.1111429958551 -0.22490205181791,53.1112960748182 -0.224853423713445,53.1114598248739 -0.22473824932577,53.1116451422862 -0.224452950146623,53.1118962266254 -0.223518320807105,53.112389274716 -0.223423405936212,53.112444480373 -0.223284884046834,53.1125773181473 -0.22317077730366,53.112736495308 -0.223073704147846,53.1130263388958 -0.223075607245979,53.1131594765431 -0.223104333421975,53.113371117512 -0.22333996157785,53.1139967699764 -0.223406617190516,53.1142297395382 -0.223530692533424,53.1143727900733 -0.223598317167815,53.1144358160808 -0.223666127139599,53.114494349645 -0.223809738447727,53.1145998530121 -0.224282820136335,53.1148658528628 -0.224575891619795,53.1150068403027 -0.224829906994159,53.1151149788406 -0.225378770489424,53.1153928897415 -0.225599489500162,53.1155139219521 -0.225870486065097,53.1157184802105 -0.226012553633001,53.1158976578934 -0.226107904783969,53.1160474668905 -0.226150909187231,53.1161280995798 -0.22624468277991,53.1163911316853 -0.226321457481836,53.1168875915354 -0.226345262356162,53.1170336383119 -0.226371672576198,53.1174098089788 -0.226413685192316,53.1176972342093 -0.226407653026692,53.1179515871002 -0.226440011213674,53.1189077346461 -0.226480801183863,53.1190422604664 -0.22657203740704,53.1195138583144 -0.226578316589685,53.1195768660609 -0.226577095314591,53.1196424582078 -0.226558130697351,53.1197050897034 -0.226507759243025,53.1198751960782 -0.226476037996644,53.1199574098021 -0.226389391208896,53.1201018097718 -0.22628262689964,53.120226046619 -0.226052123160101,53.1205246882131 -0.225860567315904,53.1207511093251 -0.225682092312788,53.1209830276984 -0.225405090806976,53.1215039605064 -0.225317559809545,53.1217085636828 -0.225286485108237,53.1218078638676 -0.22528559112871,53.1220838646563 -0.22529487206291,53.1223312553951 -0.2253697173793,53.1227279217246 -0.225606861056668,53.1236808324354 -0.225744731602403,53.1239624964457 -0.22580094520687,53.1242312581536 -0.225877980272411,53.1243923881697 -0.226006757860045,53.1246047106711 -0.226105839895157,53.1247392063479 -0.226236727333366,53.1249003296754 -0.226451121209538,53.1251372961797 -0.226927607815516,53.1256172376306 -0.227689264837282,53.1263576595924 -0.229103570670414,53.1276202610827 -0.229421192920239,53.1279279579376 -0.229989210048854,53.1283652944311 -0.231297482113295,53.1292990473264 -0.231459773219109,53.129425486551 -0.231751679256163,53.1296698812059 -0.232188168945554,53.1301060591474 -0.232658108828209,53.1306012411226 -0.233065293117259,53.1310612459166 -0.233243671373338,53.1312284554405 -0.233337758894928,53.1313053469991 -0.233388399053038,53.1313447442157 -0.234283293282274,53.1319037425889 -0.234533928488817,53.1320251951969 -0.23471630880811,53.132098002158 -0.235041990195343,53.1322107691378 -0.235712947952569,53.1324004575542 -0.236394952056447,53.1325733188027 -0.236604557872869,53.1326375368847 -0.236946281449726,53.1327621282726 -0.237179619389767,53.1328699262946 -0.237284835191825,53.1329281044338 -0.237453696025697,53.1330393513104 -0.237922706874938,53.1333034215814 -0.238169786373208,53.1334761306283 -0.238265059318782,53.1335575287903 -0.238446074084404,53.1337363606161 -0.238568043966089,53.1338973322778 -0.238646929902106,53.1340539818747 -0.238705308566969,53.13423288797 -0.238725472578116,53.134327554889 -0.238726621107552,53.1343356602399 -0.238782751353577,53.1350458735881 -0.238837059989416,53.1354359250801 -0.238967296001659,53.1360159262766 -0.239048846258373,53.1363245939045 -0.239131815651241,53.1366377765628 -0.23946648182951,53.1376657688001 -0.23956368860387,53.1379926429179 -0.239674024625008,53.1382576964832 -0.239861956347902,53.1385966950673 -0.240190611387617,53.1391149147464 -0.24061620562845,53.1397135658963 -0.24127132269873,53.1406960430354 -0.243803900506327,53.1440344985567 -0.244550402638593,53.1449409205154 -0.244728962170756,53.1451818086984 -0.244809245079821,53.1453052208352 -0.244942810518435,53.1455490410608 -0.245117769361302,53.1459902961308 -0.245330635551275,53.1464151232656 -0.245810125790709,53.1471620310108 -0.245974888991094,53.1473757520066 -0.24609218567717,53.147507797226 -0.246264218752199,53.1476883706135 -0.246534951119387,53.1479431048323 -0.246726806846302,53.1480790324532 -0.247460511771579,53.1486427339827 -0.248357770226197,53.1492689612234 -0.249276073271633,53.1499271256805 -0.250052147673064,53.1505147109897 -0.251172210412741,53.1515101567817 -0.251793741173445,53.1521153239694 -0.251907269084758,53.1522285241097 -0.251987405450629,53.1523168776756 -0.25206003887944,53.1524078172491 -0.252231829920502,53.152668366834 -0.252274809812444,53.15275168205 -0.252345128184045,53.1529361476217 -0.252433923657148,53.1533275945229 -0.252609876732995,53.1545914745209 -0.25278889385271,53.1551937419875 -0.25284799442449,53.1553205227137 -0.252928209515439,53.1554466240278 -0.253012206876433,53.1555494138517 -0.253101490493143,53.1556343954424 -0.253213135105423,53.1557214128103 -0.253316694595844,53.1557858428069 -0.253428208793949,53.1558396039552 -0.253500212211275,53.15587031813 -0.25362993915621,53.1559189537642 -0.253717920533783,53.1558141912328 -0.253894179335823,53.1557098230273 -0.254144264510626,53.1555911676245 -0.254213820027269,53.1556092621731 -0.254392013424844,53.1555300864521 -0.25464875853255,53.1554295921012 -0.255247364048467,53.1552369481758 -0.255609793079429,53.1551514803523 -0.256496094527194,53.1548336222334 -0.256652748818523,53.1547685075996 -0.257650452732417,53.1544702451646 -0.258864089828781,53.1540096698149 -0.259564343004013,53.1537052474966 -0.261125721526422,53.1530753711387 -0.26299093178104,53.1524013706968 -0.263072844812458,53.1523729064985 -0.264341736020299,53.1520191327888 -0.265287096649812,53.1517929329598 -0.265438675512434,53.1517430115371 -0.265689570601794,53.1516396224685 -0.266607687943069,53.1511954295922 -0.267491809538913,53.1507407592967 -0.268314812605891,53.1504317792812 -0.269090135457573,53.1501553550957 -0.269185905111345,53.1501163026632 -0.269915051058437,53.149795163159 -0.271401968100624,53.1491514899336 -0.275081452949265,53.1478626199433 -0.280375091551358,53.1460602122505 -0.282047926092654,53.1455080652031 -0.284080298256444,53.1447867168232 -0.285274714298517,53.1443426748105 -0.287667763460463,53.1434241478496 -0.288859659929747,53.1430043906954 -0.29089513447393,53.1422361475558 -0.291954457997485,53.1418782674354 -0.293251886905296,53.1413969764228 -0.294085644252272,53.1411059495764 -0.294225343845879,53.1410522276031 -0.294468356922128,53.1409577428971 -0.296745098127173,53.1401712835355 -0.2980599870579,53.1397352165444 -0.299086508632834,53.1393714136447 -0.299300408360544,53.1392925911937 -0.299909425066544,53.1390532288887 -0.300046324914304,53.139032623367 -0.303578952223609,53.1377821285136 -0.307390817266505,53.1364213570887 -0.30967896675687,53.1356366118678 -0.311510062003582,53.1349919326676 -0.312060723976745,53.1347884401381 -0.312596911597935,53.134570450551 -0.313602247499953,53.1341306386601 -0.315028872009073,53.1335448898635 -0.316083710344083,53.1330986578483 -0.317555572787072,53.1324604928258 -0.318406373505874,53.1321093222504 -0.318946028693097,53.1318418324148 -0.319411293674652,53.1315634056515 -0.31972448509496,53.1313888837362 -0.320180402525231,53.1311571465548 -0.320513007346502,53.1309460474085 -0.320654855586022,53.1308734516639 -0.320923200016868,53.1307773838587 -0.321183284386185,53.130662415458 -0.321747419362194,53.1304932211798 -0.321839818446391,53.130345332466 -0.321892787928997,53.1302921540509 -0.322007160410218,53.1301939151964 -0.322119456750829,53.1301110153378 -0.322208408486955,53.1300547484299 -0.322754836156978,53.1297639708885 -0.322959998237926,53.1296760863938 -0.32299629692213,53.1296649130756 -0.323514039767966,53.1295346027999 -0.324004147178358,53.1295792451994 -0.324554315515615,53.1295752998385 -0.325303889363771,53.1295552814798 -0.325578807749913,53.129559145453 -0.325879983868277,53.1295786561579 -0.326629860698817,53.1296682795281 -0.3268474514675,53.1296822096085 -0.327365811688205,53.1296912858493 -0.328517126084195,53.1296812897564 -0.329526737119359,53.1296262466835 -0.330526585998384,53.1296258815641 -0.330988825230837,53.1296170783724 -0.331237187178949,53.129609772931 -0.332082481346157,53.1295524067006 -0.332251000084924,53.129522410983 -0.332517848659242,53.1294641335113 -0.332981738075909,53.1293743708547 -0.333365954452019,53.1292925681667 -0.33360212291582,53.1292563276358 -0.333813301438219,53.1292449017298 -0.333925193340961,53.1292482635368 -0.334744713744802,53.129315441944 -0.334943304381257,53.1293586603437 -0.335046300353168,53.129439188706 -0.335366291734102,53.1298617523126 -0.335436872496232,53.1299328402313 -0.335791336159544,53.129887464511 -0.336204912595897,53.1298590908525 -0.336805565264467,53.1297892004601 -0.337192572775088,53.1298297438239 -0.337881963932345,53.1300919106223 -0.338162229307391,53.1297623016328 -0.338364613077711,53.1295539229436 -0.338480893862728,53.1294467089578 -0.338662589935516,53.1293081426063 -0.338772818942566,53.1292395787015 -0.338939256009852,53.1291483421807 -0.339109672617583,53.1290689340978 -0.33926012732556,53.1290054247508 -0.339686298689019,53.1288450111596 -0.340042913245616,53.1287466278363 -0.340152589820438,53.128807472603 -0.340447346286715,53.1287217072303 -0.340736066859978,53.1287158437173 -0.340873870100093,53.1287087762537 -0.340956403774105,53.1287000397671 -0.341056219706144,53.1286681765229 -0.341281738418923,53.1285561902919 -0.341382160293524,53.1285117538685 -0.341789547418726,53.1284131734612 -0.342475354053446,53.1282240100308 -0.3429384005397,53.128113618112 -0.343740312358359,53.127978189803 -0.344206010890439,53.1279172598807 -0.344217433873361,53.1278509133286 -0.344903028458959,53.1277084670995 -0.345151141728392,53.1276687759785 -0.345524150067677,53.127569705299 -0.346150078562549,53.128201399181 -0.346672448882489,53.1280252205179 -0.347210281194309,53.1286538875455 -0.347482199020859,53.1289318634969 -0.348391392072486,53.128881563729 -0.350110698494867,53.1287517104604 -0.350581762945397,53.1287051202229 -0.351068640354406,53.1286381656656 -0.351441987282169,53.1285687396626 -0.351864223901889,53.128509875667 -0.352265557168872,53.1284110868835 -0.353497716420729,53.1281611173515 -0.354218472272508,53.1280362714893 -0.354857222138057,53.1279030983156 -0.355201923679102,53.1278412639573 -0.355306123353136,53.1277717039561 -0.355646608417358,53.1277395575213 -0.356067626448273,53.1276734722557 -0.356399414064643,53.12763671138 -0.357500424892202,53.127415447096 -0.357837608890105,53.1273113507623 -0.359119874871984,53.127002698621 -0.359633476026658,53.1268964450471 -0.360309080127704,53.1267394851753 -0.360496447302485,53.1267249896747 -0.360627770142625,53.1267681392635 -0.360760105597883,53.1267879353351 -0.360916338926929,53.1267658205084 -0.361227547552577,53.1266801405287 -0.362281242778104,53.1264411958677 -0.362776196568292,53.1263193941575 -0.362911420519431,53.1262987849473 -0.363053613681572,53.1262926515405 -0.363251890040381,53.1262666175921 -0.364145483118384,53.1260343531475 -0.364369901227487,53.1259916002684 -0.364525436513658,53.1259488008166 -0.365163944995374,53.1257813281517 -0.365519868517671,53.1258158715556 -0.366281607836124,53.1256708454771 -0.367073136687272,53.1254874876675 -0.368071814986105,53.1252809902759 -0.368171780802988,53.1252085743277 -0.369433155105321,53.1249697163829 -0.369697054366627,53.1249481653162 -0.370731856513369,53.1247339619536 -0.371184351022617,53.1246259237125 -0.371523339370855,53.1245541679849 -0.371359663114547,53.1243757790436 -0.371153966322147,53.1241257261486 -0.371118597075715,53.1240704196094 -0.371075721075693,53.1239789719074 -0.370851169581555,53.123279207231 -0.37070476473508,53.1229212190628 -0.37051800364771,53.122525829996 -0.370386997063709,53.1221941145381 -0.370241517544735,53.1217335930475 -0.370180667268215,53.121606039388 -0.370143839881152,53.1215111689487 -0.370043039727464,53.1210943973469 -0.369906349536635,53.1204407697433 -0.369825384754566,53.1202130921047 -0.369684776929145,53.1199010165377 -0.369583466488124,53.1197324659455 -0.369491014819917,53.1196098721905 -0.369298230104135,53.1193743718571 -0.369139801220105,53.1190971011444 -0.368866362830469,53.1186618773319 -0.36856382703328,53.1181264048419 -0.368289430229706,53.1178763034102 -0.368393469105269,53.1178130210049 -0.368192454472683,53.1176358237881 -0.368075269918599,53.1174931175963 -0.367950719030504,53.1173106758651 -0.367799224071411,53.117010131772 -0.367712614914393,53.1167725786647 -0.367693540406153,53.116684151837 -0.367676306713532,53.1163486001376 -0.367656806346555,53.1162323968846 -0.367446069303382,53.1152873703323 -0.367201795553022,53.114476692621 -0.366996688818525,53.1136989958654 -0.36641267798456,53.1118022149916 -0.366069774165608,53.11075741005 -0.366001253777742,53.1106736973113 -0.365954810716756,53.1106380093397 -0.365891904375744,53.1106011964137 -0.365818281416899,53.1105741234252 -0.36575009075733,53.1105597062742 -0.365519546376731,53.1105322762174 -0.365392188801115,53.1105026673288 -0.365300863128762,53.1104681599848 -0.365170303352606,53.1104060624534 -0.364783877774636,53.110194947292 -0.364057950999099,53.109756999917 -0.363685024376982,53.1095442686205 -0.36363467648069,53.1095336905095 -0.363537946268753,53.1095215768018 -0.363438044128202,53.1095184056926 -0.36330326062675,53.109525541062 -0.363153308120182,53.1095396560443 -0.363009011465099,53.1095637356611 -0.362773552987814,53.1096270043307 -0.36179906204516,53.1098347781674 -0.361646674141535,53.1098740222009 -0.361496035748897,53.1099061018133 -0.361252677883619,53.1099404992742 -0.361132945759869,53.1099469394641 -0.360973004581665,53.1099483328879 -0.36045242993631,53.1099258872791 -0.360208028929893,53.1099099393299 -0.359615589146233,53.1098532467357 -0.359295936543013,53.1098110956616 -0.358893904854896,53.1097390487795 -0.358644910893162,53.1096851977155 -0.358316525811976,53.1096006837849 -0.358180395202798,53.1095655531487 -0.357579308259886,53.1093414780713 -0.357469176668347,53.1092932249332 -0.357266641417006,53.1091969629429 -0.357168498780804,53.1091443808951 -0.35674595446814,53.1089029926026 -0.356380791274357,53.1086848633256 -0.356032959910814,53.1084418977071 -0.35538168009539,53.1080489653734 -0.355055513274075,53.1078260683921 -0.354944975909441,53.1077498559391 -0.35474105089337,53.1075708868452 -0.354185147691164,53.1069096474071 -0.353784463205152,53.1064482713793 -0.353684027068599,53.1063399335687 -0.353258050282546,53.1059573843244 -0.35287378381095,53.1056536000673 -0.352486200096112,53.1052787682789 -0.352299654846766,53.1050774778432 -0.352122543479607,53.104903278347 -0.351766811049317,53.1044785568287 -0.351340848310927,53.1038999866987 -0.351101238469773,53.1035631487533 -0.350829336226785,53.1032141796972 -0.350618582353897,53.1029056018972 -0.350404649778712,53.1025223842034 -0.350351544814073,53.1023877366981 -0.35030260051852,53.1022988936949 -0.350277516930545,53.1022527102331 -0.350021843025517,53.1021044710779 -0.350242163777374,53.1018503972016 -0.350036415856003,53.1017621661262 -0.349888929218177,53.1016737542468 -0.349768857805825,53.1015705328723 -0.349746867123937,53.1015207979994 -0.349733863869664,53.1014711877048 -0.349805955378765,53.1013444765394 -0.349843234005013,53.1012263607917 -0.349741718515503,53.1011467640158 -0.349633371488216,53.1010912480771 -0.349543384497825,53.1010225961223 -0.349464049925858,53.1008300662602 -0.349427307789912,53.1007764409414 -0.349385869957509,53.1007264363631 -0.34926431228041,53.1006267888945 -0.349153712161193,53.1005111168214 -0.349063406180751,53.1002931800955 -0.348689088866183,53.0997701388927 -0.348361606026389,53.0992721016342 -0.348041882283573,53.0987677900268 -0.347839559206435,53.0985906276497 -0.347697815083921,53.0984330901337 -0.347612124733929,53.0981720772712 -0.347499585073665,53.0979530214968 -0.347401807644806,53.0976990298935 -0.347327254517689,53.0974624369358 -0.347236857117328,53.0972858392317 -0.347143592289823,53.0971101905273 -0.347052997966732,53.0970577045753 -0.346955695428707,53.0969457192034 -0.346847484057388,53.0965720514851 -0.346731441270691,53.0964446172185 -0.346667748211831,53.0963907074714 -0.346523913998172,53.0962879616618 -0.346559313865243,53.0961033142846 -0.346509078577289,53.0960099566569 -0.346172584084553,53.095478534813 -0.346005796279096,53.0952712161607 -0.345859945508963,53.0950605940216 -0.3456126988018,53.0947326250956 -0.345546301576741,53.0946337401583 -0.345469654060019,53.0944906747341 -0.345414785985577,53.0944026452537 -0.345209434795604,53.0941094103994 -0.345048058254853,53.0939570777087 -0.344849780927674,53.0938293971888 -0.344723426531645,53.0937367783309 -0.344637710545066,53.0936376242183 -0.344554742136458,53.0934251786944 -0.344513248883391,53.0932196900433 -0.344509359149345,53.0930514822911 -0.34445855240033,53.092896194122 -0.344427740910056,53.0927653587971 -0.344336156549315,53.0926202877359 -0.344296297882821,53.092571201294 -0.344236290177636,53.0925370239408 -0.344003085833456,53.0924277295394 -0.343769020746562,53.092340890296 -0.343657347800823,53.0922926024177 -0.343551876096138,53.0922399075636 -0.343354505910221,53.092127424633 -0.343238512777038,53.0920377351942 -0.343188072194332,53.0919885007285 -0.343102403560159,53.0918883557481 -0.34289931785892,53.0915753711779 -0.34272360834803,53.0913671122057 -0.342650223096089,53.0912581505503 -0.342581364914344,53.0910666575907 -0.342478028891163,53.0908431384179 -0.342304218018492,53.0903517087367 -0.342265072099118,53.090280971963 -0.342143867491065,53.0900932429499 -0.341989072127372,53.089808790353 -0.341796570352923,53.0895732431969 -0.341484617603681,53.0893351324908 -0.341200763376403,53.0891828836512 -0.341089756623159,53.0891175262032 -0.340925016725996,53.0889767330922 -0.340681503362706,53.0887072198082 -0.340015483592435,53.0879311218654 -0.339763380421611,53.0876516005096 -0.339699506744714,53.0875293780465 -0.339664069228937,53.0874776557336 -0.339624293568475,53.0874266811056 -0.339493145401381,53.0873026220286 -0.339356532825731,53.0872054486489 -0.339004455446866,53.0870413683698 -0.338912658576646,53.0869825672577 -0.338828298094546,53.0869256678615 -0.338699799392224,53.0868096433272 -0.338481922476184,53.0866520174753 -0.338415231841466,53.0865998585475 -0.33812310630432,53.0863530283186 -0.337818771199477,53.086113217122 -0.337468032538754,53.0858764420741 -0.337223579227384,53.0856707189899 -0.336980921549174,53.0854982747081 -0.33684923430904,53.0853885847473 -0.33676896270714,53.085340728367 -0.336547925989927,53.0852270934885 -0.336380251901594,53.0851599508013 -0.336101384820122,53.0850742669527 -0.335728326369385,53.0850304052756 -0.334484040804543,53.0849635712127 -0.33354307693575,53.0849324270729 -0.333195979663322,53.0849113897246 -0.332879910559904,53.084899773285 -0.332574458830584,53.0848459741393 -0.3322915730263,53.0848231374743 -0.331578079740947,53.0847421383981 -0.331238748242028,53.0847113178141 -0.330676820237762,53.0846872612065 -0.330197395581912,53.0846499797088 -0.330096078108726,53.084646760397 -0.329820854669488,53.0846581785822 -0.329753707995022,53.0846563374275 -0.329700305312739,53.0846492968529 -0.329651381868768,53.0846378249778 -0.329610365351307,53.0846192746875 -0.329521400652248,53.0845641011652 -0.329472097455314,53.0845274598106 -0.329397157193709,53.0844184680337 -0.329248447467381,53.0843642538114 -0.329079463046771,53.0843313237574 -0.328989490880113,53.0843021996746 -0.328810244342775,53.0841909350286 -0.32844740982123,53.0839979122643 -0.328246321094736,53.0839834039289 -0.328198824529048,53.0839764456253 -0.328058459353034,53.083900777253 -0.327835771731411,53.0837510626922 -0.327533198820991,53.083505855046 -0.32720710171118,53.0832927606341 -0.326946966493443,53.0831470101889 -0.326672778662925,53.0829795813674 -0.326087544527745,53.0826683799341 -0.325918543219612,53.0825599495506 -0.325814284690216,53.0825152529917 -0.325657541795505,53.0824779964804 -0.325596126708756,53.0823665847103 -0.325555210371211,53.0822662467961 -0.325536746907361,53.0822408217269 -0.325486721337028,53.082222951232 -0.325429118127612,53.0822068620543 -0.32505450146101,53.0822421254349 -0.32490220050558,53.0822426793462 -0.324757387785243,53.0822406413921 -0.324600162050973,53.0822158694636 -0.324259810128902,53.082097834496 -0.32414252396629,53.0820431564618 -0.323995015249464,53.0819583932419 -0.323886275156657,53.0819119237587 -0.323856500775522,53.0819115045034 -0.323764895844362,53.0819245952702 -0.323593133659886,53.0819635195869 -0.3235436408655,53.0819700120045 -0.32349432102645,53.0819720135401 -0.323439357918452,53.0819640499577 -0.323384604247354,53.0819506960846 -0.323306846952556,53.0818767110645 -0.323218900845015,53.0818368252065 -0.323129286902094,53.0817987138264 -0.323001869416165,53.0817735505856 -0.322939086631563,53.0817735650804 -0.322814789266139,53.0817852954914 -0.322754540655977,53.0817961302279 -0.322638353506043,53.0818304439142 -0.322362936776347,53.0818472337224 -0.322088673847626,53.0818343805184 -0.321936514109143,53.0818313365492 -0.321810827738578,53.0818376540125 -0.321543045411648,53.0818923874661 -0.321316282392559,53.0819242415955 -0.321188411336622,53.081910754567 -0.320908306179256,53.0818581802951 -0.320811617151919,53.0818469298501 -0.320708829728443,53.0818436826653 -0.320607255974946,53.0818440467927 -0.320514384231228,53.0818517239666 -0.320287653685434,53.081882767475 -0.320160683471377,53.0818872670391 -0.320008287786692,53.0818491663224 -0.319871215302253,53.0817653544119 -0.319746352878693,53.0816746142464 -0.31946224773647,53.0815699421961 -0.319079266643876,53.0814754678954 -0.318958300875508,53.0814396068031 -0.318783334740516,53.0813679310578 -0.318598951558062,53.0813105018449 -0.318409088512604,53.0812799583096 -0.318257591860284,53.0812220950744 -0.317686906230291,53.0810386831271 -0.317386833261321,53.0809238941963 -0.317205158711916,53.0808349547006 -0.316902576499352,53.0807434972902 -0.316644832630696,53.0806544703211 -0.316413030088963,53.0805505308641 -0.316274460082826,53.0805053407943 -0.31554866588577,53.0803162194817 -0.314803408760817,53.0801339187113 -0.314540138042027,53.0800699743216 -0.314330842430028,53.0800014013551 -0.313851232712116,53.0798192608464 -0.313506220601163,53.079746066991 -0.313156446637215,53.0796404498965 -0.313056229003869,53.0796093711501 -0.312959193220082,53.0795693490273 -0.312592673275936,53.0793977936174 -0.312221303087093,53.0792747917318 -0.311818250449641,53.079159337075 -0.311651126578364,53.0791174218253 -0.3114898218755,53.0790809811928 -0.311179319651264,53.0790415248178 -0.310794229929241,53.0790396562652 -0.310429316958495,53.0790569468171 -0.310225198873835,53.0790450621367 -0.310028128943986,53.079007212837 -0.30948740646947,53.0787486914236 -0.309447726286884,53.0786178071988 -0.309392911094387,53.0785684961725 -0.309208769097255,53.078430077998 -0.308992162648355,53.0783191497611 -0.308830072990917,53.078262023291 -0.308714465559237,53.0782406078976 -0.308365646727423,53.0781897253445 -0.307991365993596,53.0780253250183 -0.307581189899855,53.077825272425 -0.307274872442333,53.0777202560325 -0.306968780959756,53.0776440025469 -0.306612777477882,53.0775850132656 -0.306540306014377,53.0775686136542 -0.306402738883322,53.0774983510876 -0.30622040464067,53.0773142075859 -0.306071667686215,53.0772212266736 -0.305889159926887,53.0771952614368 -0.305577784108436,53.0772538330726 -0.30538275702921,53.0772771213391 -0.304919495867584,53.0774044408452 -0.30391198033043,53.0776274527661 -0.303678864124931,53.0776708675374 -0.30356624360557,53.077686338642 -0.30329677535567,53.0776681185505 -0.303076311149016,53.0776182407647 -0.302924792176866,53.077486569369 -0.302839111069925,53.0774242318245 -0.302746012181697,53.0773626874804 -0.302519854071595,53.0772291431986 -0.302371918780459,53.0771190923273 -0.302268266873255,53.0770223462561 -0.302158629486814,53.0768868668937 -0.301981863130635,53.07674944194 -0.301668735783664,53.0765489563032 -0.301640139929531,53.0764811409065 -0.301742102568138,53.0763172240834 -0.30190723809274,53.0760273928851 -0.30223638363557,53.0756671008049 -0.302474905333134,53.0754484188489 -0.302535033938648,53.0753998437535 -0.302665669792953,53.075342388278 -0.302896672427071,53.0752772858351 -0.303114634216225,53.0751995042575 -0.303248692046647,53.0750549167693 -0.30337975940488,53.0749488428373 -0.303476153502239,53.0748136039491 -0.303472807992391,53.0747452504177 -0.303463666681813,53.0746740282234 -0.303384247700641,53.0744931433573 -0.303345691245575,53.0742965730089 -0.303035275738628,53.073914578486 -0.302765708254194,53.0737084234802 -0.302705073349116,53.0736572281996 -0.302582922511216,53.0734613537113 -0.302492965934317,53.0733952704991 -0.302288966995404,53.0732683316377 -0.302176443482745,53.0732065095838 -0.301920623018648,53.0731048055698 -0.301591328261826,53.0730156239401 -0.301267647964602,53.0728932651609 -0.301093787933973,53.0727982094613 -0.301016817628269,53.0727430943984 -0.30094752485904,53.0726836855151 -0.300857407451174,53.0725466848694 -0.300769744331303,53.072459960139 -0.300676102470943,53.0723750378861 -0.300455005650963,53.0722262794486 -0.30037966329429,53.0721298447568 -0.300189545668773,53.0718413213252 -0.300051648903171,53.0716675972961 -0.299825931208033,53.0714863258161 -0.29915959526888,53.0710462027686 -0.29880767069102,53.0708478467922 -0.29850127493912,53.0707059540402 -0.298019186944186,53.0705534576337 -0.297789292303201,53.0704035799579 -0.297543963343681,53.0702643555188 -0.297446965074051,53.0701118846621 -0.297296025668778,53.0697761920068 -0.297251204961304,53.0695895056142 -0.297453982746011,53.0696310551085 -0.297769619717499,53.0696131026865 -0.298310602609047,53.069560535007 -0.300358243114429,53.069337255297 -0.302804235597395,53.0690826716883 -0.306566439684081,53.0686794918093 -0.309666467737198,53.068339683879 -0.313369879899262,53.0679102878281 -0.314067924567504,53.0678464763739 -0.314762879683955,53.0678239595826 -0.315372690047013,53.0678388812093 -0.315398625312869,53.0675209946603 -0.315354354824981,53.0674286938867 -0.315301457065368,53.0673335748454 -0.315082194278732,53.0671371477154 -0.314996545260467,53.0670361726891 -0.314514937221722,53.0663756844558 -0.314033942645279,53.0653530005392 -0.31402698774311,53.065187529747 -0.313938652358166,53.0650010434648 -0.313668200530339,53.0647041256111 -0.313306492542539,53.0643367102298 -0.312965644928164,53.0639677912215 -0.312838000684357,53.0638364701408 -0.312482457834658,53.0635005952949 -0.312131854627591,53.0631171555466 -0.311529969515671,53.0624793048351 -0.311303770484266,53.0621937943327 -0.311070965414612,53.0619640027549 -0.310963677719073,53.0618473490557 -0.310695864945621,53.0615217006426 -0.310453126861498,53.0611622553603 -0.310213765196863,53.0607606141512 -0.310018308266759,53.0604917152196 -0.309742624747575,53.0600625946759 -0.308936255096367,53.0591970449313 -0.30869039508396,53.0589588843805 -0.307952238328911,53.0581465145115 -0.307837078258855,53.0580396323596 -0.307822428056977,53.0580304365538 -0.307289324430328,53.058118215474 -0.306945645533459,53.0581663558426 -0.305858617247739,53.0583360360642 -0.30525639588372,53.0584354051018 -0.304942980312443,53.0584740840733 -0.304409448376913,53.0579234488124 -0.304060186258986,53.057584041856 -0.3035565976304,53.0569951823355 -0.303456474881435,53.0568472562748 -0.304745093892207,53.0565967940573 -0.305552115778787,53.0564509109385 -0.305855943481486,53.0563896258171 -0.306168975000473,53.0563194833632 -0.306328829570888,53.0562777184561 -0.305709397559566,53.0555208578964 -0.305655600977545,53.0554463935814 -0.305656521065102,53.0553852900309 -0.305415031999189,53.0552280728394 -0.305206709429891,53.0550219852615 -0.305014384633493,53.054753121361 -0.304779512370992,53.0545402726235 -0.3046635445215,53.0544136921294 -0.304552306953965,53.0542825947538 -0.304345161750315,53.054009114104 -0.303832810914917,53.0534156363301 -0.302770475511115,53.0522389209848 -0.302519977696261,53.0519296761753 -0.302258308731609,53.0516418426361 -0.302160342097743,53.0515146170554 -0.3020668406389,53.0513864661562 -0.301892491926033,53.0510774080964 -0.301622922731373,53.0507247478514 -0.301527276389561,53.0506137317162 -0.301291175076829,53.0504332109041 -0.301016733583899,53.0502423460116 -0.300802031671516,53.050049547201 -0.300691422143735,53.049865515953 -0.300583856038042,53.0496041442319 -0.300424809168038,53.0493600117291 -0.300188073844296,53.0490833114061 -0.2998549248868,53.0487153552629 -0.29914412230613,53.0479355717181 -0.298937783369074,53.0477214083921 -0.298581556144748,53.0472559601418 -0.298188151978343,53.0468664653005 -0.298022864130687,53.0466689759309 -0.297988243276386,53.0465642226296 -0.297991083791979,53.0464546131933 -0.298004563375569,53.0464152596522 -0.298056013604403,53.046320637003 -0.298161598630422,53.0461756479194 -0.298191526968026,53.0460996812838 -0.298035983233554,53.0459203065381 -0.297838019384467,53.0457187538709 -0.297695711604555,53.0456187510414 -0.297667020830195,53.0454790302574 -0.297668371914219,53.0453666133849 -0.29760362318134,53.0453054684198 -0.297482681857849,53.045234531192 -0.297355800760968,53.0452363094906 -0.297117151066778,53.0452715391753 -0.296935623996374,53.0452617486945 -0.296761564443822,53.0451747708356 -0.29655375116283,53.0449955442577 -0.296121036921478,53.0444310265483 -0.296000072896981,53.0442827924247 -0.295873049547667,53.0441353712456 -0.295579716279255,53.0438201011776 -0.295344339395385,53.0435479031372 -0.294593870920001,53.0426803404476 -0.293953658714393,53.0418556984059 -0.293518630229211,53.0413514436628 -0.29299178573889,53.0408305008391 -0.292815561516181,53.0406464181471 -0.292507311751555,53.0402553383788 -0.291535270479861,53.0391499905175 -0.291131930120473,53.0387135002356 -0.290485248663187,53.0379778130849 -0.290186719333704,53.0376840240427 -0.289801631760803,53.0372748441619 -0.289702491279575,53.0371790463769 -0.289542040683048,53.037050819297 -0.289444446587545,53.0369532463636 -0.289420625340661,53.0366508248444 -0.289327903364461,53.0364705443149 -0.289289936522448,53.0364106788408 -0.289133611268167,53.0361782523142 -0.288786074152029,53.0362533314557 -0.288519197871736,53.0363285819689 -0.288338545733556,53.0363691219823 -0.288150554745346,53.0364086570105 -0.287749570087856,53.0364793682579 -0.287415070719203,53.036563528969 -0.287073765309052,53.036633209739 -0.286794803874354,53.036709181334 -0.286372209669434,53.0367975509467 -0.286370698336141,53.0367984281947 -0.286176133010517,53.0368144976795 -0.285258690009063,53.0370826752079 -0.285004259134132,53.0371446155496 -0.28487647532405,53.0371697348959 -0.284764596856399,53.037169019692 -0.284548692784038,53.0371587137468 -0.284444633061592,53.0371500215615 -0.284351838049314,53.037120820367 -0.284188798128726,53.0370582489718 -0.284117043891315,53.0370256661466 -0.283977853585965,53.0369229947502 -0.283863999073505,53.0368233842554</coordinates></LinearRing></outerBoundaryIs></Polygon>
  </Placemark>
