  <Placemark>
	<Style><LineStyle><color>ff0000ff</color></LineStyle><PolyStyle><fill>0</fill></PolyStyle></Style>
	<ExtendedData><SchemaData schemaUrl="#Wards__December_2019__Boundaries_EW_BFE">
		<SimpleData name="objectid">6915</SimpleData>
		<SimpleData name="wd19cd">E05012688</SimpleData>
		<SimpleData name="wd19nm">Charminster St Mary's</SimpleData>
		<SimpleData name="wd19nmw"></SimpleData>
		<SimpleData name="bng_e">366231</SimpleData>
		<SimpleData name="bng_n">93931</SimpleData>
		<SimpleData name="long">-2.47997</SimpleData>
		<SimpleData name="lat">50.74398</SimpleData>
		<SimpleData name="st_areashape">62193850.9242992</SimpleData>
		<SimpleData name="st_lengthshape">41548.2895626447</SimpleData>
	</SchemaData></ExtendedData>
      <Polygon><outerBoundaryIs><LinearRing><coordinates>-2.38100505663702,50.7107090964807 -2.38118563704888,50.7109738074936 -2.38133338408064,50.7110344571375 -2.38155849492397,50.7111883521554 -2.38185591340205,50.7113735654614 -2.38202869859266,50.7115402171722 -2.38208804526547,50.7117010364309 -2.38205778308762,50.7119862155348 -2.38220330941461,50.7121178934269 -2.38207261717492,50.7122307900958 -2.38187752849878,50.7122799761539 -2.38143683594957,50.7124279603672 -2.38134288272101,50.7125497252054 -2.38140235169268,50.7127257386113 -2.38152596964169,50.7129492800769 -2.38172054886611,50.7135268924485 -2.38173271970103,50.7138029414625 -2.38181337431767,50.7141425957994 -2.38184528912288,50.7144194793078 -2.38197608846407,50.715166315373 -2.38220509892721,50.7161556541144 -2.38217696552664,50.7167025299585 -2.38213586197696,50.7170479780457 -2.38212695936772,50.7171738699976 -2.38213784816932,50.7178231092125 -2.3821257853648,50.7184220777247 -2.38211567833118,50.7185723375033 -2.38204623236638,50.7190949880399 -2.3820552914251,50.7195050921955 -2.38204406832257,50.7197047126114 -2.3820058295372,50.720043859603 -2.38192997806634,50.7204830112776 -2.38191278103841,50.7206233149623 -2.38189815025681,50.7209210301143 -2.38199243569179,50.7213551277829 -2.3820699917159,50.7214987174867 -2.38209389784734,50.7218241747411 -2.38213466009903,50.7221253032426 -2.38199026449805,50.7230124835472 -2.38181244412913,50.723438395171 -2.38177683699746,50.7237712401593 -2.38201541374779,50.7247111033865 -2.38218849051146,50.7252663101829 -2.38230123939059,50.7255420291733 -2.38238457607724,50.7258493114489 -2.38241078483356,50.7261127302212 -2.382485787154,50.7264577988957 -2.38252475172509,50.727053903689 -2.38260655182921,50.7273584938647 -2.38263061812039,50.7277028306423 -2.38270695994906,50.7280398038146 -2.38282302066761,50.7283622612568 -2.38289121642048,50.7289178134898 -2.38289416464002,50.7290931133352 -2.38271565634438,50.729966923116 -2.38235045068744,50.7305391853155 -2.38219714972556,50.7308517399333 -2.3819648924452,50.7313822085922 -2.38183195812395,50.7317720124142 -2.38165156728431,50.7320585841783 -2.38169736853808,50.7326483730964 -2.38194410185248,50.7331924615705 -2.38210958751008,50.7335003721346 -2.3821894900765,50.7337429360617 -2.38229021015012,50.7339305906669 -2.38247958506194,50.7342159475497 -2.38261795013429,50.7344923919337 -2.38263216530593,50.7346740378213 -2.38317176306002,50.7351669043625 -2.38332088714463,50.7353722889443 -2.38338864353067,50.7355142014841 -2.38342731133782,50.7357424258249 -2.38342570531486,50.7360607758544 -2.3834628044587,50.7364402212961 -2.3835412879241,50.7368652910193 -2.38362874147348,50.7371581744879 -2.38371674720586,50.737518482358 -2.38377555064465,50.7381226114987 -2.38384222061138,50.7384739995216 -2.38396608023734,50.7387173163873 -2.38405796411218,50.7388653520055 -2.38436907592999,50.7391305245612 -2.38463887142827,50.7393724588532 -2.38482860860605,50.7395264631634 -2.38495325817551,50.7396942588636 -2.3850454998749,50.7402272542446 -2.38514212536856,50.7404256189756 -2.38528873967037,50.7406778487389 -2.38533198787973,50.7407649115154 -2.38543330987413,50.7410226857418 -2.38556927226466,50.7411868460453 -2.38563076911732,50.7412477763057 -2.38571610141089,50.741294242666 -2.38601484021422,50.7414299933258 -2.38608366615725,50.7415151723897 -2.38616136415776,50.7416704460292 -2.38619492429795,50.7419572121854 -2.38621320846398,50.7422763950594 -2.38627903216874,50.7428769035975 -2.38630348501468,50.7430935770443 -2.38633952125365,50.7431698747278 -2.38649924098365,50.7434508283379 -2.38656772370018,50.7435081386725 -2.38675574259873,50.743620880923 -2.38691922837,50.743677875276 -2.38705541118573,50.7436972003062 -2.38719872158196,50.7437165023605 -2.38733063739413,50.7437286497154 -2.38810362911125,50.7437961985125 -2.38866087982901,50.7438329970508 -2.38970336099183,50.7439159064223 -2.39018156244471,50.743988024355 -2.39048348275602,50.7439969001638 -2.39161194669618,50.7438518719439 -2.39206769581247,50.7437820120089 -2.3925137840427,50.743731062362 -2.39281387237178,50.7436886947176 -2.39301647543605,50.7436853137621 -2.39338585012898,50.7436139418255 -2.39402939122858,50.7434615384733 -2.39546035442891,50.7430646221176 -2.39573370304239,50.7430394197022 -2.39606967909783,50.7430409737992 -2.39631997486362,50.7429843818219 -2.39654308324328,50.7428774477352 -2.39668127827735,50.7429687670306 -2.39733651949241,50.7438549437734 -2.39750269531397,50.7440621400181 -2.39766425886265,50.7442351891028 -2.39799868181884,50.7445622776429 -2.39819446618903,50.7449114168703 -2.39829155433745,50.7451700926407 -2.39870494777368,50.7461111192856 -2.39901630215401,50.7467188677824 -2.39911165960502,50.7469379012891 -2.3991635866141,50.7470385032889 -2.39921971220022,50.7471381016496 -2.3995140722901,50.7475875900981 -2.39961873324845,50.7477185771643 -2.40011269216155,50.7483023208251 -2.4004922454002,50.7482703575677 -2.40144455386553,50.748235609979 -2.40209619878957,50.7481920073516 -2.40284995903604,50.7481588346729 -2.40370732482686,50.7481324912865 -2.40398035153126,50.7480668145937 -2.4042126896378,50.7480534220466 -2.40456582760062,50.7480755704586 -2.4058668679997,50.7482157844243 -2.40626134044808,50.748273833598 -2.40661166822276,50.7482950862615 -2.4076575527122,50.7484307758989 -2.40838683096425,50.7485118291489 -2.40895992112368,50.7485602523541 -2.4095086633633,50.748590687497 -2.41000087259482,50.7486249162055 -2.41035973025915,50.7486587136174 -2.41123113980594,50.7487806015905 -2.41166559415243,50.748851886401 -2.41188134731694,50.7488925679565 -2.41209290752347,50.7489349716538 -2.41230750023336,50.7489899503839 -2.41253942828899,50.7490889188587 -2.41283122427249,50.7492309176893 -2.41349269298077,50.7494920701561 -2.41373589010494,50.7495829053403 -2.41425196660926,50.7497635692001 -2.41492183819181,50.7500085008234 -2.41531748372102,50.7501824864808 -2.41605921401096,50.750542228482 -2.41678680679237,50.7502707313 -2.41697118712872,50.750120835966 -2.41739903233212,50.7499466030851 -2.41780597897987,50.749801302068 -2.41796679131832,50.7497089358668 -2.41815439173175,50.7497631013782 -2.41879017328022,50.7495261759565 -2.41921144741521,50.7494023053219 -2.41944291068809,50.7492908937487 -2.41955249425789,50.7491817194001 -2.41964434144799,50.7491408433068 -2.41974031889775,50.7491045367098 -2.4199283291603,50.7490481206813 -2.42097386470404,50.7486702688517 -2.42103004033942,50.7487698554223 -2.42116002668891,50.7488764573102 -2.42147463772884,50.7490182618067 -2.42162981069244,50.7490923175282 -2.42198288147455,50.7492736272649 -2.42235020694943,50.7494413089085 -2.42275040023645,50.7496503144681 -2.42252506392256,50.7498184377302 -2.42229046864962,50.7500485354882 -2.42200770779178,50.7502905841084 -2.42178275444154,50.7505018566905 -2.42158621643217,50.7507148260743 -2.42116906362073,50.7512971898274 -2.42104945265298,50.7515521338831 -2.42102291182497,50.7517590933255 -2.42103626345695,50.7519829902084 -2.42158917558821,50.7521464081152 -2.42151828021204,50.7524506218399 -2.42152457699489,50.7526826348989 -2.42157286765531,50.7528532733806 -2.42156886091832,50.753031382629 -2.42152880386825,50.7531519960911 -2.42142904412988,50.7534050700766 -2.42136778707516,50.75353385099 -2.42119715557577,50.7537826867292 -2.42120316278597,50.7538267167849 -2.42120457287132,50.753827610956 -2.42114521268447,50.7541542582449 -2.42105271905125,50.7544360751912 -2.42077230426557,50.7549425156978 -2.42091226160322,50.7552073086949 -2.42168123160333,50.7551254127761 -2.42186828281239,50.7551157440516 -2.42205535685192,50.7551087727634 -2.42247823355301,50.755144997303 -2.42319936429102,50.7552538559177 -2.42335836173455,50.7552829447067 -2.42500278027714,50.7555827070346 -2.42612558497495,50.7557333222929 -2.42666177200222,50.7560811636334 -2.42719938546635,50.756430796557 -2.42752030092753,50.7566408856095 -2.42768850491597,50.7567428455959 -2.42808164725467,50.7569382837368 -2.42842563674139,50.757037797341 -2.42881028449318,50.7572368603734 -2.42949220616347,50.7575517870629 -2.43048486180045,50.7580337652633 -2.43149968969768,50.7584715117914 -2.43206354848088,50.7587320204101 -2.43231401991978,50.7588290825208 -2.43315443931461,50.7590993474391 -2.43372065999877,50.7593103946583 -2.43427384419499,50.7594891237819 -2.43472185831195,50.7596465763932 -2.43499203444588,50.7597246810952 -2.43564281266778,50.759876070074 -2.43619661121743,50.7599692931281 -2.43680557874514,50.7600488211588 -2.4370753081873,50.7600910516204 -2.43764911097547,50.7601976772697 -2.43782098309688,50.7602257999012 -2.43817854355877,50.7602595169143 -2.43885574359243,50.7603594544456 -2.4396268020659,50.7604824984849 -2.44030145775402,50.7606094081683 -2.44056575183447,50.7606695411993 -2.44108190484167,50.7608223081736 -2.44137646026698,50.7609425597739 -2.44164374097858,50.7610216482703 -2.44172203451213,50.7610555137855 -2.44193443653894,50.7611661862303 -2.44223817639023,50.761354814679 -2.44238968068904,50.7614783037134 -2.44266890857506,50.7617695123165 -2.44281796187624,50.7619425455722 -2.44286819920074,50.7620133763218 -2.44291283346093,50.7620851276287 -2.44295194261342,50.7621658899492 -2.44316229622714,50.7626642222677 -2.44365705279956,50.7635535317989 -2.44378848382636,50.763667205222 -2.44422691194693,50.7641376960744 -2.44451178865686,50.7644296878559 -2.44469397399039,50.7646430476372 -2.44496613058279,50.7649369744079 -2.44510352883951,50.7650749874526 -2.44592773359927,50.7658577522547 -2.44613695807203,50.7660853899951 -2.44640933818348,50.7664008886248 -2.44670552759287,50.766674940506 -2.44684293536808,50.7668128614694 -2.44735439883942,50.7673585775854 -2.44757246312646,50.7676167468358 -2.44771902809902,50.7678193609445 -2.44800732751299,50.7681590689932 -2.44811125359934,50.7683529474077 -2.4481768461374,50.7685361837646 -2.44821180730523,50.7687805815886 -2.448203728887,50.7691214302969 -2.44814563471843,50.7692817686738 -2.44803464998851,50.7695358080008 -2.4477577505956,50.7700953417056 -2.44758677617838,50.7707524605846 -2.44754797870113,50.7709872535386 -2.44745286550067,50.7712753937228 -2.44739471972226,50.7715777765873 -2.44739802750289,50.7720706043815 -2.44742440809637,50.7723106306095 -2.44755588387873,50.7727066807075 -2.44770266013669,50.773369770359 -2.44779819773468,50.7737246042932 -2.44797039471376,50.7745261341862 -2.44806372417737,50.7750895474191 -2.44827572413072,50.7759071063264 -2.44848488564325,50.7764153242073 -2.4485449750377,50.776620967127 -2.44858230168977,50.7768186968402 -2.44879036542228,50.7772117546937 -2.44881171984293,50.777365494048 -2.44876380386494,50.7775517752175 -2.4487222530164,50.7782434585598 -2.44872333107532,50.7785024604159 -2.44870557057278,50.7785772368617 -2.44857392777634,50.7787521534415 -2.45004711871398,50.7789973862447 -2.45057960420298,50.7790609558277 -2.45166955666794,50.7791223635854 -2.4520667437257,50.7791262184879 -2.45263421248794,50.7791428954892 -2.45403981268049,50.7791329330031 -2.4552343229181,50.7791588399924 -2.45572506495611,50.7791623169973 -2.45570757349462,50.7791075450091 -2.45606183466959,50.7790746938202 -2.45658355473387,50.7790528726469 -2.45696348696448,50.7790262112721 -2.45727651229122,50.7789863265703 -2.45763170079128,50.7789049197218 -2.45793759389063,50.7788533733994 -2.45808939265513,50.7788536761747 -2.45838809844927,50.7787966731529 -2.45875093752746,50.7787682746395 -2.45909235919373,50.7787264747595 -2.45945879634605,50.7786360280204 -2.46063631279841,50.7783741721524 -2.46131611653529,50.7782797838315 -2.46188442375049,50.7782280875718 -2.46251878903374,50.7781158023116 -2.46280321860752,50.7780589345828 -2.46326355142285,50.7779923762389 -2.4635866116606,50.7779632224269 -2.4638024966736,50.7779875360442 -2.46438933413763,50.7779537339223 -2.46462213438246,50.7775381802385 -2.46475010939204,50.7772949365034 -2.46542061989432,50.7772563001029 -2.46616460150768,50.777185811455 -2.46659704361041,50.7771732926091 -2.46678150735828,50.777177947891 -2.46714760927459,50.7771971591057 -2.4677452295239,50.7772487925777 -2.46850032316299,50.7773077935713 -2.47032623856798,50.7773660711101 -2.47064001576563,50.777391775165 -2.47103066605622,50.777177940637 -2.4711542502961,50.7770479829417 -2.4712217085039,50.7769883754343 -2.47150463776004,50.7767731760247 -2.47166498855159,50.7765090261897 -2.47202251382252,50.7759572019624 -2.47223704787311,50.7755705658979 -2.47230513456593,50.7754345386616 -2.47242805911698,50.775101315296 -2.47257801113428,50.7747814677331 -2.47263499161289,50.7745303208671 -2.47261423546382,50.7743046624039 -2.47264913655503,50.7742406914697 -2.47277905791406,50.7740449884354 -2.47285867660604,50.7737893449944 -2.47295878992416,50.7735946618887 -2.47301485357056,50.7733803787863 -2.47302569769008,50.7731924407449 -2.47305201011435,50.7729962583585 -2.47306189048882,50.7725628029382 -2.47310512079311,50.7722128211734 -2.47316958318585,50.7719967053157 -2.47323870877059,50.7718255224457 -2.47329173684119,50.7717390012826 -2.47334758020652,50.7716533679376 -2.47355481273962,50.7713917219965 -2.4735605801013,50.7712568462785 -2.47359672651851,50.7711891838397 -2.47391778659468,50.7706798448422 -2.47399245422108,50.7704906588793 -2.4740737335477,50.7701117523725 -2.47416820422332,50.7697885317964 -2.47430330422157,50.769263676231 -2.47441906556633,50.7687920309215 -2.47448135649477,50.7685013048962 -2.47463230904111,50.7680069506127 -2.47467324118071,50.767846759128 -2.47472831627867,50.7675479715276 -2.47482290279407,50.7672256490558 -2.47487201172242,50.7670302729229 -2.4753865920561,50.7657682971017 -2.4754445704394,50.7656062376083 -2.47554068820662,50.765297394436 -2.47561143993382,50.7650003406852 -2.47564104622681,50.7648535909055 -2.47567284334357,50.7646349101957 -2.47610805762104,50.7646196491051 -2.47671741108344,50.7645874911617 -2.47691585917933,50.764581285703 -2.47724506584103,50.7646033124325 -2.47748335280307,50.7646059329439 -2.47791148331962,50.7646068756358 -2.4790003361161,50.764591619408 -2.47947653585515,50.7645716818776 -2.48049691406749,50.7645144382483 -2.4813898159259,50.7644756939641 -2.48265430534171,50.7644533842398 -2.48308383371681,50.7644426152018 -2.48724543062544,50.7643075257077 -2.48938322516671,50.7642634210713 -2.48978869624205,50.7642554252772 -2.49072918646308,50.7642965105818 -2.49158291447876,50.764313591949 -2.49252281018217,50.7642979373427 -2.49253925278452,50.7642384429986 -2.49334287478717,50.7643376235719 -2.4936722106247,50.7643712904014 -2.4940484883539,50.764421839992 -2.49463608742164,50.764478683509 -2.49519768129154,50.7644861888733 -2.49558911942246,50.764499808786 -2.49631925135475,50.7644922074398 -2.49673069125283,50.7645066376464 -2.49691074210407,50.7645076689449 -2.49709078339753,50.7645077998333 -2.49763512953632,50.7644874976095 -2.49872474687167,50.7645557521457 -2.49967563715054,50.7646388850998 -2.50089464114872,50.7647253542151 -2.50244568383077,50.7648455321622 -2.50329163738308,50.7649209963971 -2.50457301328893,50.7650116536452 -2.50629438580333,50.7651508210793 -2.50631486341018,50.765206470963 -2.50702248001183,50.7653427439776 -2.50784575351184,50.7655460247217 -2.50814117576554,50.7655986787939 -2.50832462200761,50.7656428303006 -2.50844170625507,50.7657232310892 -2.5089109651467,50.7658390445591 -2.50908211168211,50.7659344927963 -2.50940814229091,50.7660490419537 -2.50959011162187,50.7660968831536 -2.50989942971858,50.7661153095283 -2.5103589544935,50.7661204914826 -2.51133344052001,50.7661539807993 -2.51188252863853,50.7661812386113 -2.51240286493358,50.7661771554868 -2.51316890641522,50.7662115453044 -2.51380711583842,50.7662204217028 -2.51458716432821,50.7661037055504 -2.51498668044337,50.7660740722785 -2.51544730050427,50.7660513599303 -2.51606189557442,50.7659757309195 -2.51660045336665,50.7659598605372 -2.5170949833094,50.7659271021071 -2.51752126275329,50.7660025260044 -2.51798923357641,50.7660103373267 -2.51798579262231,50.7660796669042 -2.51788590466945,50.7664137360896 -2.51790726240017,50.7665475944686 -2.51779625871039,50.766637989737 -2.51770962895522,50.7667544374742 -2.5176365947042,50.7669480499852 -2.51762419957538,50.7671064222813 -2.51764977528407,50.7672411612489 -2.51753900910939,50.7673532205635 -2.51740018272642,50.7673700191119 -2.51729594911382,50.7674280189802 -2.51723076238192,50.7675595645004 -2.51715254094036,50.7677919477105 -2.51696025670151,50.7682298127813 -2.51692347104867,50.7683712114405 -2.51694444733858,50.7685977608217 -2.5170115517396,50.7688933300238 -2.51701294969453,50.7691468463945 -2.51703860384401,50.769415629196 -2.51704585353619,50.76981763746 -2.51705455470662,50.7699596428607 -2.51720564434591,50.7705435136789 -2.51793256110087,50.7703639897616 -2.51848565075075,50.7702410640251 -2.51918259427807,50.770048180054 -2.51947545357191,50.7699821468348 -2.51993353189041,50.7698641320234 -2.52020910566085,50.7697684161375 -2.52083179217182,50.7695336901415 -2.52099965926609,50.7694573327925 -2.52133578200231,50.769329068701 -2.52156893662802,50.7692570040038 -2.5218446790044,50.7691874442719 -2.52236672422946,50.769071740554 -2.52350479653796,50.7688913282995 -2.52407637547653,50.7687726975778 -2.52426255650706,50.7686828584891 -2.52438075548428,50.7685987178017 -2.52446681179821,50.7685677644027 -2.5246662243321,50.7685110384988 -2.52503122835741,50.7684365749436 -2.52522772687756,50.7683808494997 -2.52543636387204,50.7682711287136 -2.52577198490861,50.7681104000867 -2.52631868870052,50.7680476992803 -2.52682781110397,50.7679285275716 -2.52762371607505,50.7678394319824 -2.52813966755163,50.7678182167424 -2.52836659155374,50.7678171886706 -2.52859340943009,50.7678170599135 -2.52946848073741,50.7678328682538 -2.52948643498503,50.7677869362778 -2.53092962702617,50.7678766591522 -2.53141926384485,50.7679166819532 -2.53155714003408,50.7679502160547 -2.53264638459283,50.7684568763208 -2.53297133950578,50.7686038195201 -2.53339480884207,50.7688078486305 -2.53373396950957,50.7689492400426 -2.53403867449986,50.7690629188436 -2.53426633565877,50.769125796414 -2.53475815248056,50.7692323226888 -2.53487472880763,50.7692533651701 -2.53523505274339,50.7692714894091 -2.53571480422718,50.7693043479511 -2.53522753510831,50.7688596837212 -2.53538352219136,50.768738409814 -2.53516240552254,50.7684912959797 -2.5342693487827,50.7677822005024 -2.53371825934647,50.7673261352108 -2.5328831064638,50.7665852983023 -2.53260339602177,50.766303385471 -2.5324286838152,50.7661557552828 -2.53276944995955,50.7659473347662 -2.53317208927149,50.7656901728535 -2.53346079055859,50.7655197471363 -2.53384094615652,50.7652805768296 -2.53441922994015,50.7648849666522 -2.5345252482682,50.7647298492837 -2.53485017613997,50.7645080096324 -2.53527757717654,50.764189504006 -2.53544366392324,50.76407366644 -2.53594319719323,50.7637457470756 -2.53698048702864,50.7629487588984 -2.53731516595575,50.7627025941234 -2.53787492826477,50.7623079511876 -2.53822465937068,50.7620194600354 -2.53845094942014,50.7618538952974 -2.53944023860679,50.7611999602787 -2.53976059068949,50.7609503484078 -2.54005605760654,50.760752904637 -2.54035697981227,50.7605320599319 -2.54063352592281,50.7602961332962 -2.54073289281769,50.7603064611179 -2.54192846148462,50.7591192390464 -2.54217338899996,50.7588393147529 -2.54234104521622,50.7586298726548 -2.54286152509073,50.7581517807273 -2.54312811956109,50.757916704239 -2.54343106373405,50.7576311126839 -2.54409385050346,50.7569580740897 -2.54451295517124,50.7565505703867 -2.54456763522612,50.7563776136571 -2.54477438391572,50.7561140440702 -2.54486659251734,50.7561127148007 -2.54480867108677,50.7560069006493 -2.54483762601741,50.7559438340435 -2.54500265346218,50.7558720406419 -2.54525268580873,50.7555516305524 -2.5453205635397,50.7554082788065 -2.54536229105691,50.7553379608107 -2.54547523241665,50.7551800142492 -2.54554504519161,50.7550924821375 -2.5457755594778,50.7549232872702 -2.54587346711486,50.7548094626013 -2.54602072429504,50.7546676272053 -2.54611843297935,50.7545367215106 -2.54643096703889,50.754225006043 -2.54675156034388,50.7540032433512 -2.54711323653519,50.7537767024627 -2.54738439351094,50.7535658686683 -2.54780370980904,50.7533012952521 -2.54785592316152,50.7532785742932 -2.54825540824037,50.7530177794459 -2.54922940207308,50.7524223596983 -2.54984500376936,50.7520939225771 -2.55006792391928,50.7518779160469 -2.55055215885622,50.751590551531 -2.55086033450841,50.7513993124483 -2.5516002982572,50.7509147483572 -2.55198126557994,50.7506530389582 -2.55226505800019,50.7504367398951 -2.55245590645062,50.750267720733 -2.55263202703139,50.7501778834409 -2.55301885807068,50.750047400398 -2.55322085663359,50.7499916027086 -2.55333111457287,50.7499659070622 -2.55356904355375,50.750062769197 -2.55422395876614,50.7504247469235 -2.5546372191573,50.7502465749299 -2.55465032844408,50.7501593085088 -2.55466618547861,50.749948774102 -2.55473615116934,50.7497478714991 -2.55484213353977,50.7495981304895 -2.55490309061875,50.7494853739766 -2.55507619965621,50.7491320465498 -2.55519036550552,50.7488446283351 -2.55528328687651,50.7486679790407 -2.55538491974068,50.748516370618 -2.55561163906336,50.7481510999095 -2.55568368320646,50.7480078128865 -2.55582262033097,50.7477697213642 -2.55613467105686,50.7471899872938 -2.55629992511108,50.7469050200453 -2.55640288964535,50.7467481003623 -2.55694791080877,50.7466860727222 -2.55745434664888,50.7466027407647 -2.55801466170361,50.746520047038 -2.55896991818063,50.746403093432 -2.55949625401695,50.7463231633649 -2.56002466908892,50.7462999478935 -2.56037479426045,50.7463000637093 -2.56052065218399,50.7462912707439 -2.56078681977351,50.7461506437609 -2.56135503150955,50.7458987913047 -2.56182537409546,50.7456429132305 -2.56215594332912,50.7454354444006 -2.56239336820734,50.7452571036706 -2.56260240867801,50.7450797978207 -2.56147007591991,50.7447327539853 -2.56158565882947,50.7444408265114 -2.56174112241786,50.7441712712367 -2.56196904199147,50.7439120650301 -2.56227130881916,50.7437037438496 -2.56216316322039,50.743553230861 -2.56202159489879,50.7434513362731 -2.56156430582395,50.7433708308489 -2.56156413347219,50.7433564478112 -2.56161987002851,50.743044130668 -2.56167538954519,50.7429476687903 -2.56180695687761,50.7428102938945 -2.56192149723718,50.7426658993795 -2.56198653659816,50.7425351390262 -2.56208120030946,50.7422730686881 -2.56217040725525,50.7419164485959 -2.56222897720726,50.741480054452 -2.56224864879891,50.7412299440727 -2.56224560716894,50.7412101801696 -2.56144537191741,50.7410117599138 -2.5613655517202,50.7409814883021 -2.56129297568381,50.7409512716715 -2.56126750699255,50.7408345223477 -2.56138621811138,50.7406873216159 -2.56161242331249,50.7405298033573 -2.56217870960642,50.740240196951 -2.5621778260076,50.7401664816192 -2.56217350006822,50.7401566131992 -2.56191296903,50.7400624850107 -2.5612407634679,50.7400252691544 -2.56111571686873,50.7399944058792 -2.56118345243472,50.7398547321734 -2.561380129734,50.7395929807512 -2.56160453962783,50.7392762559013 -2.5618632357497,50.7391005095236 -2.56209056405702,50.7389205092331 -2.56252971577907,50.7386710711434 -2.5620106840911,50.7383974886619 -2.56187364219539,50.7383208338365 -2.56193782605704,50.7381190550036 -2.56201153064766,50.7380000297614 -2.56215016921273,50.737859025008 -2.5622904694327,50.737505844086 -2.56242494673609,50.7372615623425 -2.56247475206497,50.7371569460582 -2.56252163777676,50.7370524337722 -2.56256280691666,50.7369389590422 -2.56267203335826,50.736586736913 -2.56264133466477,50.7362775336799 -2.56237109871551,50.7357231574763 -2.5622313898141,50.7354135819873 -2.5620707860141,50.7350177113693 -2.56198680587736,50.7347565038335 -2.56186615657038,50.73426244735 -2.56183439347109,50.7339712299777 -2.56192050615808,50.7337082106097 -2.56189834529653,50.7333989649939 -2.56193810542371,50.7330507624592 -2.56192238553594,50.7325670752405 -2.56189416533397,50.7322200990072 -2.56186808663742,50.7320520184261 -2.56180471654525,50.731852651076 -2.56174614603813,50.7315759450872 -2.56175303304085,50.7312045270119 -2.56170671072716,50.7305258096281 -2.56161838616218,50.7302519439531 -2.56158966807892,50.7300974505966 -2.5613983422302,50.7287908363124 -2.56132068500541,50.7278649490054 -2.56129579710012,50.7276788822651 -2.56120393351831,50.7271082657868 -2.56111725837686,50.7262580293428 -2.56107026970131,50.7258840827883 -2.56052279575498,50.7259551344472 -2.55876230584822,50.726122721883 -2.55777553111271,50.7261777974144 -2.55726514452794,50.7261460780718 -2.55702852452769,50.7261499070166 -2.55634736777053,50.7261783356515 -2.55588695448423,50.7261742410826 -2.55549547813018,50.7261419463458 -2.55494752330984,50.7260447666933 -2.55388789297309,50.7258159763072 -2.55321872303931,50.7256618282515 -2.55259036441787,50.7254813209523 -2.55116780255199,50.7251013934731 -2.55046582918191,50.7249275171789 -2.54978921238652,50.7247338272768 -2.54935407975624,50.7245928469411 -2.54798358366989,50.7241856647577 -2.54703070622507,50.7238691042196 -2.54644321753557,50.7236631993363 -2.54538402931713,50.7233435288852 -2.54502714171721,50.7232292261727 -2.54431733686905,50.7229798310032 -2.54380113022071,50.7228149347522 -2.54347000505561,50.722725679573 -2.54300018546486,50.7226424641269 -2.54149607902222,50.722307750479 -2.54096032478348,50.7221681051791 -2.54050972830946,50.7220290513955 -2.5399903091909,50.7218263952782 -2.53888288865422,50.7213675402871 -2.53845285795754,50.7211770490482 -2.53784789363336,50.7209280300128 -2.53735360185066,50.7206838901606 -2.53726818492681,50.7206501216373 -2.53718138632058,50.7206181570817 -2.53603537387013,50.7202421642633 -2.53562095455459,50.7201793412474 -2.53509351035478,50.7200171561335 -2.53430862175744,50.7197500649527 -2.53364426118425,50.7195022846475 -2.5336834348936,50.7194652446472 -2.53361239291641,50.719442106237 -2.53161470257988,50.7187929797175 -2.52929948918732,50.717987035977 -2.52754634759124,50.7173987615932 -2.52664501446183,50.7171132667344 -2.52562848607637,50.7167815354597 -2.52506669495036,50.7165700126943 -2.52363275740984,50.7161520412108 -2.52355728608194,50.7161182178386 -2.52320354837508,50.7160253204694 -2.52057375184951,50.7151765629286 -2.51903490750804,50.7146105759914 -2.51847316348853,50.7144089106332 -2.5178586146625,50.7141733146737 -2.51717045359735,50.713933636803 -2.51705314836367,50.7138225886179 -2.51545892933244,50.7132361222496 -2.51471994026316,50.7130128375347 -2.51400453560498,50.7128738630114 -2.51240716613547,50.7126452696552 -2.51147576506143,50.7125630581376 -2.51067002566335,50.7124488232681 -2.50952114738291,50.7122982351309 -2.50830716695857,50.7121525053493 -2.50749450268557,50.7120553597327 -2.50678139992239,50.7119855547978 -2.50519761650706,50.7119609715565 -2.50460289079097,50.7119743390974 -2.50383094244258,50.7119704895235 -2.50282556305879,50.7119892204254 -2.50192050365908,50.7119868322394 -2.49849041557845,50.7120132529351 -2.49707835662998,50.712015692603 -2.4966194756266,50.7120212466267 -2.49371463133453,50.712034497489 -2.49193457267694,50.7120564145563 -2.49078454956198,50.7120576707494 -2.48753149178286,50.7120956093561 -2.48666749746543,50.7120893339742 -2.48545812419398,50.7121105642717 -2.48330687723247,50.7121267024695 -2.48248799027751,50.7121004302802 -2.48158871954448,50.7121158387133 -2.48024453475901,50.7121097014931 -2.47860462120441,50.7121218450454 -2.47776179232365,50.7121181126841 -2.47664160005477,50.7121245004577 -2.47626238827027,50.7121674063896 -2.47498222698196,50.7121871073865 -2.47347383943215,50.7121914508212 -2.47277855075356,50.7122041633462 -2.47284863972641,50.7122757998099 -2.47290005833289,50.7123142489139 -2.47293609399199,50.712378832108 -2.47305733549501,50.7126013849838 -2.47317178187883,50.7128563291964 -2.47330388528526,50.7131714365105 -2.47342533967091,50.7134145751735 -2.47355788455245,50.7137846096766 -2.47367208690965,50.7141537303208 -2.473736495178,50.7144951831526 -2.47375695017804,50.7148323201263 -2.47372504718136,50.7150501002808 -2.47369168730737,50.7152507156676 -2.47365104936009,50.7154361674472 -2.47375462669536,50.7154465348871 -2.47372239518683,50.7156201756611 -2.47361876303369,50.715604414586 -2.47353567732894,50.7157846450143 -2.4734761414125,50.7159260319194 -2.47338441134362,50.7160946095225 -2.47326565884762,50.7162587123157 -2.47305417652755,50.716504192311 -2.472714857809,50.7168472838058 -2.47254463034837,50.716956845232 -2.4723843186304,50.7170770639114 -2.47255550134975,50.7172013323818 -2.47238705336933,50.7173486439356 -2.47214810447231,50.7175348987028 -2.47199620833938,50.7176442950677 -2.47178244225924,50.7177916993621 -2.47151925840676,50.7179609702336 -2.47119527999978,50.7181474771512 -2.47089810659112,50.7183168831594 -2.47054844794206,50.7184820058131 -2.47010561458296,50.7186734850408 -2.46889340068734,50.7191406403747 -2.46769092714491,50.7195797859333 -2.46707689524608,50.7197999002047 -2.4665558735619,50.7199656080068 -2.46638430354208,50.7199546080131 -2.46618825720005,50.7200425965473 -2.46602755424854,50.720114350962 -2.46584816306583,50.7201744030463 -2.46566042675854,50.7202407812917 -2.46525953341521,50.7203781338292 -2.46483176602596,50.7205264697558 -2.46416693571711,50.7207737421149 -2.46371536829298,50.7209490487756 -2.46293918691336,50.7212408078845 -2.46263134413787,50.7213401129833 -2.46244347086501,50.7214055881812 -2.46206796817398,50.7215374341649 -2.46188032602031,50.7216145944284 -2.46173524282894,50.7216961702081 -2.46157322045559,50.7217894107797 -2.46155772744561,50.721936010687 -2.46135292471802,50.7220025394683 -2.46117391212599,50.7220904520358 -2.46096111246273,50.722210862678 -2.46070628470911,50.7223692875314 -2.46076605323189,50.722401415863 -2.46054521158386,50.7225596160217 -2.46004408242089,50.7228772380825 -2.45982155974128,50.7230193510722 -2.45972918591303,50.7231284964851 -2.45956720758107,50.7232271269574 -2.45948244110906,50.7232545220499 -2.45925166346784,50.723412758892 -2.45911650598523,50.7234951015755 -2.45894346114114,50.7236208355536 -2.45863319957526,50.7234754288313 -2.45799534470612,50.7231434154213 -2.45743174997125,50.7228794325185 -2.45728511784566,50.7228152787647 -2.45709390775649,50.7229590621654 -2.45697271442281,50.7231681084305 -2.45689497502239,50.7233294254727 -2.45679134890399,50.7234592895258 -2.45665854397782,50.7234957709356 -2.45640087618853,50.7233646258727 -2.45626937782879,50.7232472801038 -2.4559075200035,50.7228997903989 -2.45550460097349,50.7225452686521 -2.45540899064462,50.7224665292725 -2.45521327873229,50.7225922563853 -2.45511908067509,50.7226709281521 -2.45503061328198,50.7227503868019 -2.45490452371253,50.722901013777 -2.45488899779853,50.7229019736615 -2.45477118694223,50.7228826550482 -2.45452355988622,50.722762255178 -2.45408732630402,50.7226209230212 -2.45388972159463,50.7225515707428 -2.45369351118942,50.7224813125338 -2.4533053693024,50.7223362848375 -2.4522916268607,50.7221063913992 -2.45184024006106,50.722015545132 -2.45132377123577,50.7219221615111 -2.44881148658977,50.7214292268526 -2.44729895136338,50.7211796325681 -2.44663967488233,50.7211264225899 -2.44622248345075,50.7210434237569 -2.44521373751067,50.7208917530886 -2.44493139964305,50.7208397888127 -2.44444485570533,50.7207714330213 -2.44394910870781,50.7207796156164 -2.44321204039873,50.7207374701002 -2.44300063919084,50.720701414585 -2.44296437418762,50.7206089536993 -2.44301656965187,50.7204342573562 -2.44292163120787,50.7202880794509 -2.44275405375566,50.7202419667346 -2.44231399753651,50.7202966802014 -2.44214988516563,50.720320676752 -2.44205937058345,50.7203336062944 -2.44181585129589,50.7203471158951 -2.44133418075129,50.7203489408716 -2.44114222438276,50.7202687566555 -2.44086857541011,50.7202455190197 -2.44065626578128,50.7202616050464 -2.44044387361692,50.7202812871828 -2.44011020036909,50.7203463770293 -2.43985557979508,50.720384198476 -2.43955241707058,50.7203898368063 -2.43940535556623,50.7204137661019 -2.43925974541223,50.7204430835695 -2.43897867313261,50.7205377297094 -2.43839372234822,50.7206990566205 -2.43806348347678,50.7206823183698 -2.43782937799495,50.7206409440446 -2.43776610977494,50.7205449875884 -2.43737869735179,50.7204717343043 -2.43596798087794,50.7200328167969 -2.43539228432038,50.71982001508 -2.43519179670225,50.7197506404617 -2.43480157578471,50.7196756803619 -2.43437511217932,50.719508164847 -2.43400418687423,50.7193845821532 -2.4336936676961,50.7193515741725 -2.43334958584631,50.7193645393945 -2.43270584926327,50.7194586278863 -2.43222933489408,50.7195493957658 -2.43186131629945,50.7195760207 -2.43160206751789,50.7195805760503 -2.43142728845657,50.7195244944454 -2.43136229585957,50.719391681017 -2.43129947164598,50.7191769582602 -2.43125812484502,50.7189991063073 -2.43117054995058,50.7188743770244 -2.43114503178197,50.7188681781929 -2.43093947071384,50.7188428657399 -2.43062918775334,50.718847607317 -2.43032113226288,50.718929654861 -2.43007700849472,50.7190295360032 -2.42988458248741,50.7190482259805 -2.42975458946121,50.7189335402426 -2.42973490981995,50.7187996596651 -2.42973375717964,50.7186738016199 -2.42959933779155,50.7185348587946 -2.42945573373478,50.7184769516513 -2.42934115933133,50.71848995945 -2.42899308285097,50.7185379882156 -2.4288384708025,50.7185151825431 -2.42879636013529,50.7183930711406 -2.42879666768354,50.7182734108662 -2.42868936998488,50.7181623265919 -2.42852459454384,50.7181134860709 -2.42802783726619,50.7181611584927 -2.42790468143169,50.7181679032293 -2.42755623589131,50.7181754734101 -2.42737341989652,50.7181590622086 -2.42730282481685,50.7180379528801 -2.42744222879707,50.7179429556728 -2.4276400393283,50.7178873915009 -2.42773578335927,50.717820513251 -2.42769520680412,50.7177253658911 -2.42747620817577,50.7176343793222 -2.42707312786049,50.7175414581705 -2.4267890710617,50.7174624843165 -2.42674413993324,50.7171964498771 -2.4267046023792,50.7170481662623 -2.42667988239954,50.7169754359771 -2.42654970891137,50.7168392614286 -2.42636736023594,50.7167193689874 -2.42630308070728,50.7166629655965 -2.42625439113213,50.7166127983672 -2.42612683656965,50.7164432596363 -2.42601591548836,50.7162404866618 -2.42582727904685,50.716057684994 -2.42556219050379,50.7158797472129 -2.4249034027952,50.7155458245296 -2.42460821487811,50.7153319439787 -2.42450939505419,50.7152136331916 -2.42441909207633,50.7150943021452 -2.42435577508753,50.7149758612161 -2.42430086529693,50.714857300659 -2.42423067381775,50.7146112252184 -2.42423662049646,50.7143387103553 -2.42422704728428,50.714054565799 -2.42410604299753,50.7138328582755 -2.42384039683099,50.7135909980291 -2.42367977572976,50.7133659276393 -2.42347169615788,50.7132263453697 -2.42291012482048,50.7129963449799 -2.42237167323214,50.7128175925073 -2.421997054801,50.7127281468276 -2.42157736973503,50.7126918148281 -2.42048513109891,50.7128235053684 -2.4197667989043,50.712639005763 -2.41924221830352,50.7124161361294 -2.41883438074941,50.7122673745558 -2.41850406878787,50.7122343968713 -2.41801410178079,50.7122388497218 -2.41758084564325,50.7122646739542 -2.41729543176644,50.7123430109628 -2.41666250657189,50.7126744028015 -2.41634950633513,50.7126845098672 -2.41611527939506,50.7126224138678 -2.41582220195076,50.7124688270143 -2.41527188376179,50.7122252642789 -2.41430575746658,50.711879788688 -2.41399508295232,50.7118350415402 -2.41385063172455,50.7118355538492 -2.41314693515807,50.711863219544 -2.41260338242144,50.7118957088049 -2.41247360313933,50.7117981743367 -2.41251238969694,50.7116936618888 -2.41265283729599,50.7115565141115 -2.41271970079369,50.7114312243605 -2.41267096560862,50.7113603745697 -2.41260533278898,50.7113066653467 -2.4124733601184,50.7112783630977 -2.41222494040866,50.7113808302066 -2.41211785006782,50.7114468366683 -2.41191519316196,50.7115878886101 -2.41167180866178,50.7117721474836 -2.41162272307936,50.7118344425915 -2.41170623368757,50.7119824862883 -2.41150323473799,50.7119382509995 -2.41125205305681,50.7118726088221 -2.41098126547464,50.711848390145 -2.410415363942,50.7119160097618 -2.41014497685214,50.7119376382111 -2.41007637324247,50.7120250838489 -2.40979795148745,50.7119289678664 -2.40922701340686,50.7119147886776 -2.40906336073354,50.7119899806833 -2.40864534384535,50.712129983858 -2.40847283698765,50.7120064337246 -2.40852127876437,50.7118696129349 -2.40850875422457,50.7117320172243 -2.40837052168921,50.7116417002044 -2.40820667327786,50.7116944160959 -2.40803989670149,50.7117327580776 -2.40781302643359,50.7116957922353 -2.4074568859001,50.7116188216065 -2.40724093822022,50.7115485532104 -2.40703877724629,50.711425103527 -2.40684550073658,50.7111947301112 -2.40672797277003,50.7111888466125 -2.40664467388796,50.71122509711 -2.40662013590608,50.7113312674628 -2.4067259324075,50.7114522659732 -2.40676916285399,50.7115358136005 -2.40680819690193,50.711620185186 -2.4067802793582,50.7116733253682 -2.40674673410198,50.7117237873289 -2.40653588615555,50.7117434013441 -2.40635944785683,50.7116505171959 -2.40616950391673,50.7114676892661 -2.40598831216866,50.7113109914096 -2.40580561178175,50.7111551078641 -2.40578153295133,50.7111524937565 -2.40554785380211,50.7111515083232 -2.40526210150277,50.7111921472676 -2.40506170776446,50.7112728559806 -2.40498408286542,50.7113171772772 -2.40491232041869,50.7113641751104 -2.40479719877284,50.7114886394109 -2.40465045892877,50.7115485732909 -2.40440489368843,50.7114828069866 -2.4041818906131,50.7114062633526 -2.40381310704854,50.7113518009874 -2.40370005932423,50.7113782638628 -2.40337084465651,50.7114711021521 -2.40317547343402,50.7114843634695 -2.40304299160096,50.711559529254 -2.40297199809444,50.7116964246995 -2.40286658776345,50.7117965802974 -2.40273643787201,50.7118168072344 -2.40252238433146,50.711789676212 -2.40215778081543,50.7117190117333 -2.4014735182966,50.7115343721382 -2.40115846813469,50.7114679386546 -2.40098997898066,50.7114703161236 -2.40070713114862,50.711523520039 -2.40049774369219,50.7115503104276 -2.40028367743958,50.7115213766947 -2.40009632231687,50.7114751802519 -2.39995737196151,50.7114630701687 -2.39972854887812,50.7115250775468 -2.39959014769201,50.7115776940941 -2.39945327975792,50.7116321037811 -2.39924592744491,50.7117335032375 -2.39915616328327,50.7118480748545 -2.39917386212098,50.7119244311603 -2.39925242421033,50.7120032762331 -2.39929695779248,50.7120768429051 -2.39923918774275,50.712108506151 -2.39917288520739,50.7121393001705 -2.39891385827185,50.7121654481068 -2.39871470530289,50.7122290598179 -2.3984141954088,50.7123622406984 -2.39835154192661,50.7124929025108 -2.39827534174577,50.7125273250983 -2.39819490873477,50.7125581658733 -2.39793426274793,50.7125590547146 -2.3977662034286,50.7126126694704 -2.39760405253488,50.7127022249802 -2.39756861529352,50.7128615614774 -2.39772747321464,50.7130588042241 -2.39770321181155,50.7132001234626 -2.3975824621447,50.7133245988149 -2.39735681418565,50.7134459257968 -2.39719262025092,50.7134599692456 -2.39717276108252,50.7134591384426 -2.39693237424148,50.7131631898865 -2.39685097021102,50.7130932530529 -2.39676549482543,50.7130252184781 -2.39658219117284,50.7129611124484 -2.39655668841547,50.7129558052364 -2.39631671975457,50.7130546124492 -2.39596865746219,50.7132698499573 -2.39586995892291,50.7133232266733 -2.39549666349954,50.7132327929466 -2.39541904397396,50.713099011727 -2.3951800639277,50.7129685645897 -2.39468149696843,50.7127985392438 -2.39382652698401,50.7125316307603 -2.39339080221617,50.7124179360775 -2.39342080785228,50.7122775884449 -2.39298371931418,50.7121819668703 -2.39277652996319,50.7121232391743 -2.39257481363223,50.7120627840795 -2.3922339036511,50.7119470575263 -2.39182076833677,50.7118242909891 -2.39114388470412,50.7116656365568 -2.39101416548824,50.7115698765253 -2.39078970480051,50.7116524388767 -2.3906615309345,50.7114055473019 -2.39036935277752,50.711011766079 -2.39018369599172,50.7109998005223 -2.38998185833163,50.710909584289 -2.38992026010325,50.710832474822 -2.38986294722584,50.7107508555295 -2.38980154043176,50.7105136292947 -2.3897090598135,50.7102890939232 -2.38940730867237,50.710288302352 -2.38928244533441,50.7102563547674 -2.38915614424232,50.7102199154622 -2.38887623535098,50.7101210573996 -2.38861157944364,50.7099744098215 -2.38842573856332,50.7099255825466 -2.38814097910944,50.7099175396452 -2.38780329911684,50.7098503358365 -2.38744338994517,50.7098344500715 -2.38720351201039,50.7097606276451 -2.38706812581654,50.7096558010822 -2.38683088416273,50.7095756760097 -2.3866788362631,50.7095177429953 -2.38622848146046,50.7093375423398 -2.38587662840345,50.7092640875909 -2.38561335997595,50.7092847362111 -2.38548320079791,50.7093040454911 -2.38535879994034,50.7093278301995 -2.38516956021579,50.7093905776355 -2.38499965515914,50.7094046227512 -2.38482843602714,50.7094150766454 -2.38466125989553,50.7094201231078 -2.38415990947631,50.7094145835579 -2.3834831885663,50.7094401852217 -2.38310517840425,50.7094666004322 -2.38285602103761,50.7094710150405 -2.38243704490527,50.7095002595453 -2.38202778938175,50.7095186829757 -2.38176463473086,50.709539323629 -2.38158770097239,50.7097377772393 -2.38142685770653,50.7099765438682 -2.38131251075169,50.7102035611536 -2.38100505663702,50.7107090964807</coordinates></LinearRing></outerBoundaryIs></Polygon>
  </Placemark>
