  <Placemark>
	<Style><LineStyle><color>ff0000ff</color></LineStyle><PolyStyle><fill>0</fill></PolyStyle></Style>
	<ExtendedData><SchemaData schemaUrl="#Wards__December_2019__Boundaries_EW_BFE">
		<SimpleData name="objectid">82</SimpleData>
		<SimpleData name="wd19cd">E05000128</SimpleData>
		<SimpleData name="wd19nm">Belsize</SimpleData>
		<SimpleData name="wd19nmw"></SimpleData>
		<SimpleData name="bng_e">527236</SimpleData>
		<SimpleData name="bng_n">184686</SimpleData>
		<SimpleData name="long">-0.16643</SimpleData>
		<SimpleData name="lat">51.54673</SimpleData>
		<SimpleData name="st_areashape">780566.42607652</SimpleData>
		<SimpleData name="st_lengthshape">3857.52562128705</SimpleData>
	</SchemaData></ExtendedData>
      <Polygon><outerBoundaryIs><LinearRing><coordinates>-0.162205456789667,51.5423447801894 -0.161895765808574,51.5424082538036 -0.161541742374632,51.5424269815338 -0.161553259698146,51.5426043558927 -0.160854963442686,51.5427183761605 -0.160858563490465,51.5427382101278 -0.160549655895795,51.5427792180792 -0.160206394985719,51.5428169888136 -0.160200534663648,51.5428177961962 -0.160276757979339,51.5437902788509 -0.15954305275301,51.5438147343149 -0.159565213238024,51.5441612901103 -0.160608820860747,51.5448880493722 -0.158048493949275,51.5466491413839 -0.158410168796911,51.546762698985 -0.15851386681603,51.5468038822565 -0.158625393805781,51.5468631690899 -0.159450267268764,51.5472592664449 -0.160139459571459,51.5475848163859 -0.160733778520025,51.54801316026 -0.16163273427581,51.548610881111 -0.161748500607498,51.5487097871921 -0.161794445053837,51.5487500627906 -0.161886802873721,51.5488190252618 -0.16208653170175,51.5489444182413 -0.162191046465835,51.5490008939218 -0.162331283251952,51.5490651220895 -0.162538381748614,51.5491493651358 -0.163203383735937,51.5495068811571 -0.163204810777858,51.5495069034921 -0.163561451394073,51.5497138623353 -0.164057562791704,51.550001305358 -0.1643378702164,51.550166702321 -0.165287430649556,51.5507651823534 -0.166979774990984,51.5519749737065 -0.169463237211066,51.5504769061372 -0.169694020269922,51.5503330693488 -0.169822439476983,51.5502595559032 -0.170046221647892,51.5501478828623 -0.171138530749582,51.5496326120545 -0.171141455520989,51.5496308591149 -0.171143000774266,51.5496308831986 -0.17148072000994,51.5493735474002 -0.171570475176234,51.5492913389211 -0.171688314355111,51.5491582344891 -0.171357509689639,51.5491009369379 -0.170983175900133,51.5487947456439 -0.170823325906423,51.5486825754282 -0.171782540558062,51.5480689400833 -0.172112523637204,51.5478618253934 -0.172298833430294,51.547675846528 -0.17264391074702,51.5471246479578 -0.172664081730986,51.5469477678963 -0.172645188245668,51.5467693811071 -0.172626252011504,51.5466306394112 -0.172652784824134,51.5462920379945 -0.172698697072817,51.5460840936018 -0.172792186679199,51.545908445195 -0.172884250570616,51.5457713429702 -0.173054010419885,51.5456004781284 -0.173582287223637,51.5453020511868 -0.174679058487165,51.5447813341821 -0.174920843305168,51.544685305033 -0.174829964603321,51.5443979180322 -0.174862061719812,51.5441367176673 -0.174896066185953,51.5437209170413 -0.173911982488885,51.5440563081125 -0.173705057026087,51.5440746635309 -0.173041073706405,51.544160520048 -0.172323365600025,51.5433201903349 -0.171805389464851,51.5426799399753 -0.171405835878094,51.5422151310062 -0.171177382465669,51.5419759408497 -0.170896051217447,51.5418367045603 -0.170361855994625,51.541743869113 -0.16988759200655,51.541701321229 -0.169469541646545,51.5417335472613 -0.168674658678681,51.5418137404517 -0.166191723680591,51.5420528463556 -0.164455151859958,51.5422027992589 -0.163350538023559,51.5423087681147 -0.162257449874043,51.5424148181105 -0.162205456789667,51.5423447801894</coordinates></LinearRing></outerBoundaryIs></Polygon>
  </Placemark>
