  <Placemark>
	<Style><LineStyle><color>ff0000ff</color></LineStyle><PolyStyle><fill>0</fill></PolyStyle></Style>
	<ExtendedData><SchemaData schemaUrl="#Wards__December_2019__Boundaries_EW_BFE">
		<SimpleData name="objectid">5608</SimpleData>
		<SimpleData name="wd19cd">E05011337</SimpleData>
		<SimpleData name="wd19nm">Masham &amp; Kirkby Malzeard</SimpleData>
		<SimpleData name="wd19nmw"></SimpleData>
		<SimpleData name="bng_e">416284</SimpleData>
		<SimpleData name="bng_n">475949</SimpleData>
		<SimpleData name="long">-1.75201</SimpleData>
		<SimpleData name="lat">54.179081</SimpleData>
		<SimpleData name="st_areashape">167528865.763689</SimpleData>
		<SimpleData name="st_lengthshape">71733.6971847966</SimpleData>
	</SchemaData></ExtendedData>
      <Polygon><outerBoundaryIs><LinearRing><coordinates>-1.88644848968671,54.2100114856756 -1.88616812696299,54.2099555178742 -1.88576806758652,54.2098921586539 -1.88512451869736,54.2097424043193 -1.88409495175584,54.2094852714418 -1.88229018549452,54.2090198332943 -1.88057584906364,54.208552570021 -1.87905443956207,54.2081772085446 -1.87740759258135,54.207738808425 -1.87571472005275,54.2073164210592 -1.87492123615394,54.2071134488624 -1.87412915782375,54.2069085864844 -1.87244721229792,54.2064485189716 -1.8705799069842,54.2059764601007 -1.86796780216514,54.2054101215655 -1.86379230901865,54.2056957837571 -1.86307176337732,54.2052124062684 -1.86224566276563,54.2046991646977 -1.86165857662867,54.2042312043509 -1.86136487760878,54.2040268271838 -1.86077592659952,54.2036307372405 -1.85956459691166,54.202829435424 -1.85821239330112,54.2019524843681 -1.85722738668061,54.2013015569497 -1.85651149877172,54.2008675605068 -1.85542691222487,54.200228180661 -1.85503231398978,54.1999805402228 -1.85466966558527,54.1998137992676 -1.85385822448237,54.1995045581021 -1.85309912174045,54.1991944772362 -1.85243353494162,54.1988539573329 -1.85229992952453,54.1989302537449 -1.85115526201168,54.1984075610169 -1.84822582014061,54.1972139922359 -1.84822582342523,54.1972130935189 -1.84593942350426,54.1962548634495 -1.84410736861744,54.1955497354814 -1.84350272525097,54.1953359282293 -1.84308764998322,54.1952545284117 -1.84179931921631,54.1950820502198 -1.83936054850431,54.1947732647249 -1.83629382084679,54.1943530702619 -1.8351908214933,54.1942078166537 -1.8330738881911,54.1939289924006 -1.83175345973609,54.1937464793255 -1.82832222954329,54.1884589473429 -1.82781347299227,54.1877141139278 -1.82731249329162,54.186956710831 -1.82678080170228,54.1862063596067 -1.82627524941002,54.1854633204707 -1.82585943425968,54.1848668590891 -1.82548179103854,54.1842992015197 -1.82505826294274,54.1837099140681 -1.82473861405164,54.1832053205253 -1.82457265964991,54.1829543176489 -1.82404107638948,54.1822021571789 -1.82353867306825,54.1814546185844 -1.82299041006314,54.1806827513171 -1.82270899874536,54.1801987834941 -1.8220208279007,54.1791849294847 -1.82165982551121,54.1786783799275 -1.82119404300716,54.1779829958732 -1.82081482716787,54.1774575488668 -1.81943896215462,54.1753696171882 -1.81911473250925,54.1749035457307 -1.81874299616211,54.1744132336717 -1.81854335839782,54.1741693596573 -1.81810896036384,54.1736851508268 -1.81729512681147,54.1727195967953 -1.81647216141382,54.1717710935951 -1.81605626966084,54.1712546509845 -1.81556101017928,54.1706670162936 -1.81530552845242,54.1705785759177 -1.81244047697204,54.1697167517527 -1.80619651634509,54.1678519138704 -1.80546087105415,54.1676403993502 -1.80512551310762,54.1676003254128 -1.80359450685481,54.1674729577694 -1.80270196884136,54.1673815662003 -1.80226397083099,54.1673628796602 -1.80065648588403,54.1672021064239 -1.79867861391055,54.1669902896531 -1.79681538520378,54.1668389208149 -1.79576359727053,54.1667543976963 -1.79420048413883,54.1666196682391 -1.79338142268882,54.166540102502 -1.78930178683649,54.16612406777 -1.78566433986116,54.1657824454837 -1.78419168406267,54.1656531369948 -1.78260097292453,54.1655226998531 -1.78165135675606,54.1649430897887 -1.78010529848171,54.1639220466102 -1.77980763046849,54.1637381258077 -1.77992993105714,54.1626292780783 -1.77997585294956,54.162350745533 -1.77999530496611,54.1621351484259 -1.77998902849329,54.1615797027355 -1.77996118984182,54.1610664452987 -1.77991548391888,54.1607320415784 -1.77983294244079,54.1604155397925 -1.77980735558156,54.1603355288168 -1.77971957187839,54.1601268341402 -1.77960538741852,54.1597060507446 -1.77948947454281,54.159349955383 -1.77938186022251,54.1591196601155 -1.77931567902547,54.1589092970064 -1.779256756168,54.1587590549527 -1.77920217769932,54.1586466464767 -1.77913086486891,54.1585233354378 -1.77899416459229,54.1583263204002 -1.7787535784307,54.1580535524475 -1.77844226370972,54.1578570253813 -1.77783535733587,54.1573823258254 -1.7768690822041,54.1565195381542 -1.77606717737588,54.1558763643448 -1.77479438542972,54.1548144289608 -1.7745521477674,54.1545757919725 -1.77449698614133,54.1540157611361 -1.77453779954398,54.150169299541 -1.77317252637513,54.1498090589608 -1.77184941916533,54.1495899426863 -1.77157066259886,54.1493440423899 -1.77118243863286,54.1489424986527 -1.77083364715672,54.1486021241687 -1.77071799140872,54.148493099768 -1.77045274588215,54.1482715709013 -1.77026821213037,54.1481552269639 -1.7700818787426,54.1480677204393 -1.76889293612551,54.1476826099392 -1.76607996330229,54.1467209448747 -1.7658597853956,54.1463924860101 -1.76476584626967,54.1446467820269 -1.76460062346181,54.1443579602894 -1.76445052928525,54.1441168769291 -1.76448077773928,54.1436342756717 -1.76445778497184,54.1433708884752 -1.76435385565737,54.1422670915275 -1.76422144896337,54.141312384298 -1.76417093696263,54.1410507395032 -1.76369778078828,54.1399865597287 -1.76338264016326,54.1391681503502 -1.76298750993727,54.1383926204814 -1.76229108567697,54.1367924145216 -1.76194807279479,54.1360242605988 -1.7612897909836,54.134453773469 -1.76046155613867,54.1326267899753 -1.75943142172605,54.1305540229487 -1.75914988185726,54.1300169813912 -1.75886383404461,54.1294753474701 -1.75833649423934,54.1285755473272 -1.75826249209546,54.1284136728998 -1.75811119391386,54.1270508304538 -1.75792366526654,54.1256287053229 -1.75792367049704,54.1256278065997 -1.75791068715106,54.1254956145584 -1.75787746251242,54.125156732444 -1.75787165230806,54.1250929295741 -1.75772726192132,54.1238694532902 -1.75754022299357,54.1221084227577 -1.75748252033624,54.1217712877769 -1.75739303743749,54.121627351709 -1.75693043042857,54.1209407023093 -1.7549123174112,54.1178431611488 -1.75465153832684,54.117446312164 -1.75448161261067,54.1172149671817 -1.75424759482543,54.116943959589 -1.75397252688864,54.1168966779638 -1.75366690841882,54.1168322618518 -1.75329433699475,54.1167217961827 -1.75255138890454,54.1166205431614 -1.75222901677191,54.116553393738 -1.75193553681347,54.1165060696552 -1.75135902536777,54.1164788262696 -1.7503628323084,54.1165216926177 -1.74997562631702,54.116560423191 -1.74972619761564,54.1165715858174 -1.74946932675046,54.1165405045304 -1.74927106534021,54.1164538382905 -1.74906171935632,54.1164065923196 -1.74890257229154,54.1164224338192 -1.74872068973496,54.1163807249111 -1.74849897006321,54.116377567462 -1.74827827919645,54.1164337111541 -1.74827782209187,54.1165092722028 -1.7482975221016,54.1165470493817 -1.74818371279696,54.1166366600981 -1.74794648588965,54.1166739006228 -1.74773235973635,54.1166662648587 -1.74761260847963,54.1167369936758 -1.74744388048787,54.1167933344396 -1.74734420018531,54.1168407451103 -1.74724754007866,54.1168890607872 -1.74708628627781,54.1169812655144 -1.74682283119099,54.1170373169025 -1.74617396498839,54.1170845611526 -1.74570233590575,54.1171491564452 -1.74547166842422,54.1171028469447 -1.74521909623834,54.1171319638213 -1.74498250631386,54.1172904940942 -1.74478440313007,54.1174051697777 -1.74445323897475,54.1175383423406 -1.74441800871805,54.1175445570361 -1.74407339803198,54.117607618482 -1.74376152206894,54.1175782048296 -1.74344357542437,54.1175308081423 -1.74309935176645,54.1175309732325 -1.74290321108476,54.1175718854071 -1.74274134086436,54.1175373981776 -1.74236764109685,54.1175923058686 -1.74206036552506,54.1175736797611 -1.7419520934552,54.1175204380424 -1.74172774523082,54.1174319069117 -1.7414618982767,54.1173638611532 -1.74110957077778,54.1174503482749 -1.74062527424151,54.1175822818615 -1.7400096654821,54.1176942544777 -1.73984591564298,54.1176983941338 -1.73963814494553,54.1176421504767 -1.73947258199342,54.1176939941753 -1.73939154830633,54.1177028037516 -1.73922036460475,54.1176655064782 -1.73901258299391,54.1176309149465 -1.73887359737255,54.117588385214 -1.73874691358325,54.1175351007412 -1.73858940676255,54.1175293688188 -1.73846412775916,54.1175138231923 -1.73821590209651,54.1175725840823 -1.73807484860639,54.1176180998369 -1.73806964004566,54.1177241986104 -1.73785936011442,54.1178261687851 -1.73778116972681,54.1178439681148 -1.73770616054342,54.1178572824335 -1.73759005821668,54.1178264809514 -1.73745698166657,54.117827090053 -1.73733274279056,54.1178861189765 -1.73724546894179,54.1178841322881 -1.73715532863551,54.1178767477758 -1.73700431880827,54.1178009463568 -1.73682366160128,54.117825709651 -1.73665506900553,54.11787745389 -1.7364668031889,54.1178887225989 -1.73621188184268,54.1178090990271 -1.73613845922325,54.1177909690897 -1.73596886616208,54.1177618464656 -1.73575812372206,54.1176975926528 -1.73564506050256,54.1176847661648 -1.73553347969474,54.1176772435627 -1.73538942913808,54.1177174497572 -1.73535422596415,54.1177191690821 -1.73531740722232,54.1177172917068 -1.73504708529646,54.117660004081 -1.73472307023798,54.1176161641166 -1.73447665727461,54.1176273026148 -1.73421787677483,54.1176590770722 -1.73411691903928,54.1176669413179 -1.73396115527531,54.1176252676049 -1.73379279681237,54.1176204032511 -1.73354783363082,54.117661192328 -1.73338217098905,54.1177274035518 -1.73308979826398,54.1177456247625 -1.73297543196965,54.1177004473625 -1.73281473209933,54.1177009901138 -1.73245483989651,54.1177639843325 -1.73235062459454,54.1177880117111 -1.73227699960724,54.1178210915813 -1.73220789337857,54.1178577763833 -1.73208503427519,54.1179365687994 -1.73197173579711,54.1179605765646 -1.73165628789145,54.1179968021809 -1.73156757442331,54.1180028940649 -1.73150651599584,54.1179847888051 -1.73139140885601,54.1180348472301 -1.73121847798845,54.1180344618656 -1.73103913194793,54.1180897673515 -1.73090394295133,54.1181829072205 -1.73072196961283,54.1181762116119 -1.73064721512654,54.1181499885093 -1.73048640290569,54.1181675993746 -1.73040368419877,54.1181826884556 -1.73019537876658,54.1182298420058 -1.73029143262023,54.1182785742244 -1.73029093107879,54.1183559326336 -1.73014106629061,54.1183385258382 -1.72992201538209,54.118389248905 -1.72972713155814,54.1184669797127 -1.72963870293096,54.1184290453708 -1.72963616741151,54.1183535675004 -1.72957036434298,54.1183471305832 -1.72933171677104,54.1183465950958 -1.72909823309538,54.1182696099437 -1.72899008890371,54.1181795194647 -1.72882221736591,54.1181189438463 -1.72861109395663,54.1181337428363 -1.72841379877305,54.1181171258599 -1.72812065977755,54.1180203284164 -1.72796325847128,54.1179984100377 -1.72773062721868,54.118023042347 -1.72766467945839,54.11803906615 -1.72761116907663,54.118043437154 -1.72755908741193,54.1180415229123 -1.72751636860947,54.1180351370305 -1.72747960294348,54.118025170547 -1.72730115367564,54.1179429156731 -1.72707693642509,54.1178579515112 -1.72698978854679,54.1178370895973 -1.72688585741844,54.1178170874414 -1.72616773319881,54.1176878741977 -1.72612955696897,54.1176814981404 -1.72596902341336,54.1176567848597 -1.72586979618124,54.1176314019038 -1.72552449611742,54.1175650275449 -1.72523920502987,54.1174466775962 -1.72491194823064,54.117418077792 -1.72413195476468,54.1173956310654 -1.72390288277075,54.1173403000576 -1.72352961469266,54.1173267761553 -1.72302816596467,54.1172798023682 -1.72249899867045,54.117266006914 -1.7223398793115,54.1172566559277 -1.72189308311931,54.1170534682729 -1.72172959317729,54.1170188591296 -1.7216194623908,54.1170213900817 -1.72133229313604,54.1169595408073 -1.72116611922008,54.1168738010416 -1.72097937893757,54.1168832524243 -1.7208322662918,54.1169269373298 -1.72077293811707,54.1168773838892 -1.72071351963083,54.1168413067486 -1.72064634768852,54.1168141971703 -1.72059283790044,54.1167996970128 -1.72054244028813,54.1167914942914 -1.72041092818683,54.1167849000496 -1.72003810549973,54.1167247354895 -1.71992505964246,54.1166920375937 -1.71983971350624,54.1166478138721 -1.71980168290727,54.116619872797 -1.71977891483162,54.1165919671835 -1.71976843631548,54.1165560033119 -1.71977787998707,54.1165209844788 -1.71981337925527,54.1164752449718 -1.71967011151079,54.1163976431976 -1.71918539214294,54.1163595870819 -1.71906059166057,54.116255971461 -1.71896764930749,54.1162162221927 -1.71886536198525,54.1161782476338 -1.71855832114795,54.1161092471921 -1.71828073536803,54.1159935032735 -1.71806276736364,54.1158654100521 -1.717910175006,54.1158246215477 -1.71771170414352,54.1157603645621 -1.71759103895904,54.1157357333056 -1.71716451733234,54.1156916062759 -1.7168360979013,54.1156144640784 -1.71657253093127,54.11546020477 -1.7163802690412,54.1153922762735 -1.71641299477094,54.115309693912 -1.71642267070141,54.1152225636245 -1.71616666639271,54.1150879981261 -1.71602002474102,54.1150445259301 -1.7159549237828,54.1151765387148 -1.71574234476104,54.1151661540611 -1.71558249334507,54.1150623621081 -1.71548861771136,54.1149201807665 -1.71542149541776,54.1148867789512 -1.71535282810025,54.114857865328 -1.71519185888789,54.114917683184 -1.71511544192649,54.1148968370312 -1.71489317548215,54.1147542617524 -1.71477197692405,54.114568888482 -1.71444461093451,54.114358678174 -1.71426948926514,54.1142387654083 -1.71401803799903,54.1141042061172 -1.71381165379246,54.1140740659672 -1.71361436739676,54.1140780900449 -1.71355185778209,54.1140527840682 -1.71349391457397,54.1140238948728 -1.71345334441615,54.113907894786 -1.71327646143665,54.1138247238763 -1.71305645752994,54.1137945509222 -1.71273990406644,54.1137740299432 -1.71244109501514,54.1136313574989 -1.71218932331784,54.113544502987 -1.71172146864371,54.1132809386003 -1.71153952155522,54.1130557941363 -1.71148793372915,54.1130017617777 -1.71117031080066,54.1129183405914 -1.7110043745597,54.1128037467079 -1.71077246797793,54.1127088500387 -1.71030321298312,54.112449769526 -1.71004793099097,54.1124159122084 -1.70995947696375,54.1123860491507 -1.70977031186895,54.1123119180425 -1.70942101993842,54.1121591441021 -1.70918765785829,54.1120750220949 -1.70889981055164,54.1121174547121 -1.70864280509449,54.1121141382765 -1.70843235433239,54.1120183902292 -1.70833355508282,54.1119354009401 -1.7081382510617,54.1118738320077 -1.70795838552202,54.111769172542 -1.70792427790094,54.1116153602236 -1.7077631732819,54.1114792991681 -1.70710914027909,54.1113887615769 -1.70681333190715,54.1112549780944 -1.70653551797219,54.1111806261711 -1.70635147471936,54.1110256401899 -1.7060524159174,54.1109241915149 -1.7057339097147,54.1109692361871 -1.70539005297443,54.1109252692524 -1.70508451161613,54.1108670189357 -1.7048096857149,54.1107989605906 -1.70458505794372,54.1107660646066 -1.70443301476176,54.1108654226905 -1.7043355668037,54.1110198120318 -1.7040782426934,54.1110623071151 -1.70392994648656,54.1110601462685 -1.70380882378579,54.1110850060218 -1.70342977159432,54.1112727543074 -1.70313182761466,54.1114401255844 -1.70282559723452,54.1116901360045 -1.70232811759641,54.1119648307483 -1.70205409844661,54.1122067429508 -1.70152311648718,54.1126494572835 -1.70149736636067,54.1128281906257 -1.70143818516123,54.1129907582257 -1.70112146575143,54.113205697163 -1.70081133040811,54.1133639575812 -1.70074538264858,54.1133970379845 -1.70071964251781,54.1135740635649 -1.70056786854187,54.1138261591274 -1.70017393220388,54.1139384773877 -1.69985024157746,54.1140688488588 -1.69959700314137,54.1141887038245 -1.69932202231678,54.1143497433522 -1.69908530823487,54.114503780538 -1.69873036910796,54.1147158324581 -1.69835263713119,54.1149225255054 -1.69789089778834,54.1150948646365 -1.69763333199798,54.1151660965013 -1.69742214158851,54.1151907235693 -1.69696004865274,54.1154106768162 -1.69680808083328,54.1154776806549 -1.69647232960571,54.1155810586803 -1.6960739835661,54.1156716991462 -1.69572651916744,54.1156860959202 -1.69554591420495,54.1157019021699 -1.69544189267723,54.1157142178963 -1.69516153645397,54.1157620260141 -1.69511106632877,54.1157645935804 -1.69491368465468,54.1157631959663 -1.69480948463958,54.1157826978785 -1.6946592030923,54.1158425151883 -1.69456242031003,54.1158997726761 -1.69438257463054,54.1160180052446 -1.69425641649254,54.1161075325235 -1.69423033637195,54.1161209437518 -1.69395149543143,54.1161849256306 -1.69366973232535,54.116217453591 -1.69340307335114,54.1162886532612 -1.69286925877351,54.1164805554783 -1.69274958799694,54.1165278697501 -1.69259140853338,54.1166146182837 -1.69253307743224,54.1166397166622 -1.6922660992575,54.1167360712804 -1.69195837529786,54.1167820054321 -1.69188787571887,54.11679799785 -1.69184489204199,54.1168113644205 -1.69168232238722,54.1168774359035 -1.69145541876744,54.1169442410969 -1.69130669503255,54.1169798885036 -1.69115966649761,54.1170082630199 -1.69094211052145,54.1170391517182 -1.6904868641406,54.1171619721671 -1.69044535914525,54.1171969062648 -1.69037853559713,54.117328900601 -1.69024853704586,54.1177464482048 -1.69020834368176,54.1177912689722 -1.6901852938426,54.117803788373 -1.69014700276255,54.1178135732583 -1.69009652831661,54.1178161387083 -1.69005368355789,54.1178106369585 -1.68991340744416,54.1177617586361 -1.68984463939987,54.1177481041589 -1.68974368059612,54.1177379607678 -1.68964129410213,54.1177332051208 -1.68946373140903,54.1177453261559 -1.68905006190375,54.1178224263669 -1.68897359180499,54.1178267208032 -1.6888955086077,54.1178274178845 -1.68880071008486,54.1178199849179 -1.68855153986325,54.1177932856827 -1.68831774475661,54.1177684222881 -1.68834105727851,54.1179231098568 -1.68828993215254,54.1179957543716 -1.6881670642629,54.1180646191104 -1.6881592833138,54.1180762789172 -1.6881667545269,54.1181059484037 -1.68824430644958,54.1181762306586 -1.68825778496357,54.1182122940047 -1.68826955597875,54.1182743191612 -1.68826937423148,54.1182985782255 -1.68825212795623,54.1183443555573 -1.68826381822043,54.118417162619 -1.68826315181233,54.1185061104218 -1.68824589037814,54.118570845612 -1.68826642525955,54.1186921928314 -1.68827549197124,54.118711084323 -1.68830274017099,54.1187443990177 -1.6883437303293,54.118778647099 -1.68849750629921,54.1188779667657 -1.68862227996771,54.118976223554 -1.68874680626839,54.1190906522936 -1.6889517922662,54.1193087024517 -1.68907032570648,54.1194150294634 -1.68909912495277,54.1196461018351 -1.68911727297869,54.1196820881544 -1.6891566375799,54.1197316057437 -1.68918858164985,54.1197613374146 -1.68923126657489,54.1197884922584 -1.68936686718151,54.119856227325 -1.68942592052756,54.119938141038 -1.6895336081733,54.1200615101709 -1.68952212845972,54.1201630986388 -1.68957603852343,54.1203258617087 -1.6896394319489,54.1204348303 -1.68968883590977,54.1205760183775 -1.68970073702982,54.1206209731527 -1.68971213310237,54.1207504732224 -1.68976808214089,54.1208260894187 -1.68982543701431,54.1209331559074 -1.68987717876771,54.1209809085543 -1.69014664903299,54.1211470113366 -1.69023519927209,54.1211813810983 -1.69028793484147,54.1212821461414 -1.69029680239341,54.1213279908872 -1.69029950174244,54.121372113077 -1.69028388312211,54.1214196923293 -1.69028040878281,54.1214798814857 -1.69029533701546,54.1215248439792 -1.69032715620997,54.1215716464669 -1.69035596269188,54.1215995731835 -1.69038952914108,54.1216149334504 -1.69051935762164,54.1216458150612 -1.69058970558428,54.1216513872955 -1.69079780492051,54.1216402408377 -1.69084987580649,54.1216439685325 -1.69099200059809,54.1216668851584 -1.69107760470992,54.1216733940806 -1.69116928590301,54.121677223221 -1.69139118182511,54.12167689322 -1.69166029444904,54.1217054350821 -1.69191387134713,54.121753703357 -1.69225270853716,54.1218722704279 -1.69292881633909,54.1220834305944 -1.69435667189063,54.1224636137003 -1.69462824559097,54.1225532519825 -1.69482303849739,54.1227056774968 -1.69523710613298,54.1229925312605 -1.69549119045342,54.1231800574359 -1.69570277253702,54.1233316261198 -1.69596900029615,54.123549729008 -1.69614030290364,54.1237586980041 -1.69620617822054,54.1239629081244 -1.69623063061936,54.124173213206 -1.6961619516053,54.1243528253115 -1.69610673606659,54.1245890744677 -1.69597674118591,54.1247864120409 -1.69578532864369,54.125015130017 -1.69566721279653,54.1252611034161 -1.69559680627781,54.1254865326538 -1.69559679970076,54.1254874313701 -1.6955623799158,54.1255879737141 -1.69558581475812,54.125729992308 -1.69579090797211,54.1259255696591 -1.69609393605609,54.1261339715521 -1.69627972977475,54.1262431562938 -1.69647484157948,54.1263550586271 -1.69760996658122,54.1267992453542 -1.6980159771333,54.1269530044507 -1.69808533507008,54.1270790548138 -1.69871727701676,54.1273070530117 -1.6988675917696,54.1276831710061 -1.69916848557873,54.1283822182264 -1.69927703004432,54.1286036034986 -1.69930575836735,54.1288705223426 -1.69928277717066,54.1290825954666 -1.6991541548304,54.1293168659035 -1.69897225998041,54.1294853246228 -1.6987825214449,54.1297086607138 -1.69864246543964,54.1300228666945 -1.69856953817843,54.1301620371503 -1.69849513020717,54.1302966230153 -1.69836054044286,54.1305003297266 -1.69821267674527,54.1306203544336 -1.69737737393082,54.1310055917444 -1.69726573345275,54.131210253602 -1.69712499922898,54.1314247246616 -1.69628886451538,54.1325423883106 -1.69604371329588,54.1323674663196 -1.69573597977509,54.1321752244797 -1.6955103607124,54.1320560559261 -1.69542641251204,54.1320270923664 -1.69467532945817,54.1319846698664 -1.69414213953707,54.1320822388899 -1.69403013452711,54.1321107057885 -1.69383986344503,54.1321785062172 -1.69374009885546,54.1322240753705 -1.69345434976852,54.1323716869665 -1.69313643864221,54.1325173286213 -1.69300428471872,54.132591565089 -1.69275983765521,54.132750061474 -1.692375529611,54.1329836730951 -1.69225569759529,54.1330462602845 -1.69191483237595,54.1331891447707 -1.69148204388119,54.1333570400796 -1.69010188722867,54.133928701281 -1.68969365195212,54.1340848835796 -1.68954022980518,54.1341330054352 -1.68881836465616,54.134279481327 -1.68816110749957,54.1343748169343 -1.68794363096802,54.1343994110819 -1.68771698310667,54.1344185904666 -1.68756234087687,54.1344271741105 -1.68704502847001,54.1344204406976 -1.68682162530512,54.1344108754837 -1.68632765638451,54.1343709555653 -1.68604023044483,54.1343342673969 -1.68570703585993,54.1342758967519 -1.68488037861284,54.1340948507501 -1.68460402820867,54.134012366414 -1.68433086442343,54.1339092243425 -1.68426351678213,54.133904556019 -1.68419626206569,54.133904379766 -1.684009335111,54.1339272495463 -1.68368322913307,54.1339497546398 -1.68314857388454,54.1340175324878 -1.68236386369313,54.1341619175449 -1.68204817712098,54.1342240680875 -1.6814533908228,54.1343491824038 -1.68118340017221,54.1340303179597 -1.68098137118724,54.1338338263101 -1.68089442549024,54.1337850780067 -1.68046767505836,54.1335710085803 -1.67986505879828,54.1333204413128 -1.67927964053496,54.1330169069122 -1.67855366068877,54.1326977207975 -1.67790393281174,54.1324236581844 -1.67744765439401,54.1322462465563 -1.67726604865994,54.1321855622863 -1.67718054897999,54.1321628721322 -1.67709185200892,54.1321455630455 -1.6769496718473,54.1321263139452 -1.67687336256816,54.1321063426122 -1.67678938374148,54.1320827575266 -1.6765620192698,54.1320003861601 -1.67643646759647,54.1320009469055 -1.6761928499483,54.1320452164792 -1.67595067579744,54.1320823013816 -1.67463462506774,54.1322764192224 -1.67451230390368,54.1322671042256 -1.67376908916546,54.1321887235798 -1.67334431925984,54.1321147970217 -1.67328769477363,54.1321110494661 -1.67312545230638,54.132107914133 -1.67276259523549,54.1321356796353 -1.67244227840449,54.1321932106664 -1.67225381093601,54.1322196520307 -1.67197393801368,54.1322045151965 -1.67181012508415,54.1322085609748 -1.67148749458424,54.1321753372907 -1.67066922567563,54.1321111080731 -1.66965804008927,54.1320616193814 -1.66946199380958,54.132088934327 -1.66934079096737,54.1321137590737 -1.66914145844133,54.1321734098415 -1.6688003901286,54.1323324911148 -1.6680665244066,54.1326333483579 -1.6679622042186,54.1326609138852 -1.6678122037976,54.1326730796014 -1.66746182941267,54.1326532463533 -1.66721854913341,54.1326534742552 -1.66685292996398,54.1326309018852 -1.66651633587323,54.1326236825898 -1.66570460135404,54.1327031963237 -1.66520813944764,54.1327736983667 -1.66463099515587,54.1328035419482 -1.66445782191693,54.1328255215174 -1.66404460039079,54.1328225749162 -1.66384116735005,54.1328103283022 -1.66349862076934,54.1327743326524 -1.66310254739388,54.1327417805872 -1.66267310441801,54.1326696004998 -1.66254475444174,54.1326413889402 -1.66211104214731,54.1325358627381 -1.66158120824435,54.1323807384651 -1.66103133223745,54.1322543059768 -1.66085571181374,54.1322052053681 -1.6606847952478,54.1321517148461 -1.66044523587387,54.1320674820953 -1.65987129404213,54.131876197764 -1.65931444033277,54.1316634846506 -1.65895327067989,54.1314844765555 -1.65865659924741,54.1312724057949 -1.65828674084554,54.1310305677103 -1.65794968879589,54.1308812740732 -1.65769161850383,54.1308248368453 -1.65722836899269,54.1307705106363 -1.65709827660424,54.1307710396505 -1.65700938450626,54.1307788737326 -1.65671057711726,54.1308274396634 -1.65638448625398,54.1308489732669 -1.65606774780185,54.1308381872851 -1.65529488508349,54.1308422706485 -1.65497343216488,54.1308521328615 -1.65447153095466,54.1308488997337 -1.65422192207118,54.1308679512261 -1.6538791232417,54.1308804446262 -1.6535180764212,54.1308569470411 -1.65331048116766,54.1308006444897 -1.65326006322676,54.1307942102526 -1.65322018566996,54.1307949943544 -1.65307917412501,54.130818847478 -1.65288444768669,54.130868601922 -1.65276818418323,54.1308601814244 -1.6526977486838,54.1308635726862 -1.65263193860106,54.1308723678209 -1.65256908787172,54.130889257335 -1.65251072644907,54.1309124499736 -1.65246303669742,54.1309419626562 -1.65237510203502,54.1310163723432 -1.65233975649592,54.1310333409968 -1.65221564283201,54.1310581405386 -1.65213594504462,54.1310677940937 -1.65206867963988,54.1310693975636 -1.65180710729962,54.1310551654443 -1.65168152734038,54.1310592947595 -1.65163109581924,54.1310546572652 -1.651350070081,54.1309828654348 -1.6511993624444,54.1308987821741 -1.65113856844064,54.1308509870963 -1.65107750437694,54.1308202626215 -1.65102718463126,54.1308021478451 -1.65096149477298,54.1307965663409 -1.65090322294058,54.1308089764114 -1.65086936171914,54.1308295438814 -1.65074046545516,54.1308678055359 -1.65063629051216,54.1308773863996 -1.65043149148719,54.1308489406217 -1.65030013430446,54.1308198086414 -1.65025738537191,54.1308169894367 -1.65018075210968,54.1308221587725 -1.65009346111945,54.1308344843133 -1.64986955445338,54.1308877425225 -1.64979743866396,54.1309108939744 -1.64955945223104,54.1310028353128 -1.6489977836973,54.1310092894605 -1.64858571460156,54.1310512165656 -1.64846191727824,54.1310382772826 -1.64826942058199,54.131002675607 -1.64782749983852,54.1309636505551 -1.64763299825338,54.1309711694732 -1.6475564381244,54.1309826257839 -1.64748284549595,54.1310012787771 -1.64734158594199,54.1310538759049 -1.64695350387469,54.1311533702299 -1.64691219813698,54.1311586399555 -1.64673765360847,54.1311635205333 -1.64662133261436,54.1311766563957 -1.6465615531196,54.1311881621208 -1.64645693963974,54.131248951453 -1.64638628210432,54.131278484344 -1.64630041084461,54.1313015924949 -1.64621144665121,54.1313175043529 -1.64614416519873,54.1313209010802 -1.64607989221713,54.1313117279365 -1.64599291859855,54.1312863154667 -1.64596694317879,54.131284441786 -1.64591176648298,54.1312887726335 -1.64584123777399,54.1313029408553 -1.64571076992039,54.1313474818588 -1.64559858434246,54.1314082491132 -1.64553570685461,54.1314278302273 -1.64542223259868,54.1314472635257 -1.64527974658381,54.1314657126951 -1.64518480897247,54.1314717228746 -1.6450914859948,54.1314660578023 -1.64496775755967,54.1314450283353 -1.6448501705936,54.1314141343565 -1.64472503367745,54.1313661466079 -1.64465189193517,54.1313317892665 -1.64451806241378,54.1312378639492 -1.6444027974744,54.1312897253683 -1.64427516554873,54.1313711104272 -1.64415525113296,54.1314354475878 -1.64405531540194,54.1314800759497 -1.64398939320723,54.1315014447416 -1.64392341467396,54.131514727435 -1.64380546670412,54.1315260592145 -1.64373509076873,54.1315222582975 -1.64356856518992,54.1314894210843 -1.64352582990938,54.1314848020655 -1.64347686596599,54.1314855561228 -1.64341557785587,54.1314961570993 -1.6433111993635,54.1315290917878 -1.64321144963381,54.1315665328381 -1.64307306401304,54.1316362947745 -1.64302226103712,54.1316747782908 -1.64298069923205,54.1316953207712 -1.64293008890337,54.1317113436949 -1.6428535338413,54.131721898305 -1.64276014118592,54.1317243171169 -1.64269433940891,54.1317169351043 -1.6424225046449,54.131648743711 -1.64234475128226,54.1316224571943 -1.64228215009016,54.131609692946 -1.6422208828396,54.1316032219515 -1.64217344148024,54.1316030812616 -1.64210612832286,54.1316100696722 -1.64204166250344,54.1316233558239 -1.64195873155747,54.1316563529735 -1.6417855525645,54.1316926761886 -1.64160179738463,54.1317118972114 -1.64150344916592,54.1317475444489 -1.6413681916165,54.131819919156 -1.64128987148072,54.1318448436545 -1.64120557946707,54.1318598669805 -1.64113981176224,54.1318632654164 -1.64108622482754,54.1318586132554 -1.64103433268922,54.1318476767816 -1.64096266940748,54.131817814357 -1.64091859606104,54.1317781497422 -1.64089746353214,54.1317412495908 -1.64073476844454,54.1316302525758 -1.64044459398084,54.131552928484 -1.64025826099183,54.1315200276527 -1.64010377398661,54.1315105822927 -1.63999194266496,54.1315147405197 -1.6399214208703,54.1315280074675 -1.63964691014567,54.1315946638481 -1.63957957323741,54.1316043451775 -1.63943721498429,54.1316075138592 -1.63923230476351,54.1315925260822 -1.63913163847605,54.1317207069787 -1.639047970626,54.1318381574468 -1.63911335174987,54.1318941481604 -1.63923358873049,54.131968182267 -1.63936878268177,54.1320782003834 -1.63951788087427,54.1321855645873 -1.63971364199786,54.1323686298031 -1.6398994520028,54.1324770018749 -1.64009732316371,54.1326061640652 -1.64035385103442,54.132854099329 -1.64049924135537,54.1330261420008 -1.64086625910832,54.1335871641359 -1.64092614563551,54.1337391848817 -1.64096964785519,54.134020626321 -1.64098007268716,54.1342309901909 -1.64105940612427,54.1347911557338 -1.64117029644395,54.1352480006886 -1.64118172862308,54.1353415656629 -1.64117305536331,54.1354547476719 -1.64113061440486,54.1355911890793 -1.64096288703641,54.1358711041886 -1.64088866923856,54.1359608202734 -1.64083003030088,54.1360145543438 -1.64059281839143,54.1361863550084 -1.63979723679587,54.1366891047389 -1.63970938315267,54.1367499391021 -1.63959987618594,54.1368484437591 -1.63954112607878,54.1369148453845 -1.63948237503264,54.136981157105 -1.64029481870961,54.1372001139349 -1.64086725915614,54.1373735170929 -1.64149331415253,54.1375497730064 -1.64166550991976,54.1376302481723 -1.64244545096504,54.1380657159024 -1.64275824308081,54.1379983585402 -1.64291175790272,54.137947599635 -1.64304693242542,54.1378869038387 -1.64316835849014,54.1378251786326 -1.64351310122838,54.1376078679645 -1.64362547055644,54.1375426113901 -1.64367916975737,54.1375202181117 -1.64381107432344,54.1374873643742 -1.64401791497546,54.137457425975 -1.64412515219181,54.1374460623734 -1.64448655869433,54.1374336503015 -1.64480812206215,54.137594616278 -1.64507626522549,54.1377454501616 -1.64531403465373,54.137862142156 -1.64549847278873,54.1379435465278 -1.64577769271933,54.1380539801681 -1.64619281659327,54.1381954494224 -1.64684993733047,54.1384921642046 -1.64705248605131,54.1386113550725 -1.64711182626375,54.138652858538 -1.64726690410224,54.138774605505 -1.64748260833808,54.1389649039036 -1.6476696696895,54.1391101044667 -1.64781078002591,54.1392570570722 -1.64790073577778,54.1393049388013 -1.64808063491082,54.1393872246574 -1.64817220384367,54.1394234300861 -1.64868206570658,54.1395723548806 -1.64938573687827,54.1398161804576 -1.64955950133151,54.1398930556771 -1.65007129469917,54.1402037048673 -1.65036265909079,54.1404939476606 -1.65022173381178,54.1406984812261 -1.64929708019266,54.1419782784721 -1.64682105564224,54.1455039432453 -1.64648710180351,54.1458867033528 -1.64629269073827,54.1458753516204 -1.64581606448331,54.145935948957 -1.64523865384854,54.1459737853055 -1.64518208160294,54.1459619390876 -1.64456350550053,54.1457948000535 -1.64308328647367,54.1454291551916 -1.64288289260271,54.1457619848172 -1.64215182048233,54.1471105829112 -1.64137890426005,54.1485048735559 -1.6411428984636,54.1488799135944 -1.64139974754498,54.1489273976143 -1.64150512906101,54.1489591572793 -1.64154937605864,54.1489808519381 -1.6415873977708,54.1490070208381 -1.64162684998822,54.1490430764021 -1.64166313462538,54.1490952960794 -1.6417052459372,54.1491889518852 -1.6417344150107,54.1493489664704 -1.64171142458157,54.1495412613213 -1.64167100835537,54.1496022369234 -1.64166466371495,54.1496354620768 -1.64168104974617,54.1496822311749 -1.64169929232723,54.1497038485548 -1.64178452287771,54.1497598066371 -1.64204528847626,54.1498810659069 -1.64213389000697,54.1498975013399 -1.64228987488296,54.1499168317691 -1.6424414086597,54.1499253667527 -1.64272010400784,54.1499288875431 -1.64279803848081,54.1499381028673 -1.64285915172035,54.1499508623744 -1.64288821066612,54.149962628262 -1.64291406021989,54.149980674851 -1.64294283932171,54.1500104090892 -1.64296552019765,54.1500446180244 -1.64297444975084,54.1500778884387 -1.64296004942357,54.1501525086581 -1.642871672108,54.150286119169 -1.64283227070386,54.1504054994245 -1.64283044695424,54.1504415231937 -1.64283931470849,54.1504819805859 -1.64285727829732,54.1505215661693 -1.64287551565517,54.150544082092 -1.64290136555313,54.1505621286904 -1.6431392644241,54.1506715472984 -1.64321704829222,54.1507131071833 -1.6432565644316,54.1507420651434 -1.64334456145277,54.1508438520384 -1.64351327105103,54.1509845128225 -1.64370990033305,54.1510786243331 -1.64380917532627,54.151116653268 -1.64412369507343,54.1512128187235 -1.64418456447165,54.1512543280942 -1.64420127328326,54.1512786367651 -1.64421111763961,54.1513820798854 -1.64420304885845,54.151425182522 -1.64416401416765,54.1515167117512 -1.64403788429825,54.151754524586 -1.64399556654689,54.1518756931503 -1.64395776889164,54.1519996610951 -1.64389063863156,54.1523203075492 -1.64388663870054,54.1524335023742 -1.64389985971934,54.1524964344615 -1.64393576380605,54.152593576204 -1.6440247350587,54.152759247116 -1.64386834299613,54.1529628286235 -1.64360726935521,54.1532280052478 -1.64331444612317,54.1532793418136 -1.64283613901933,54.1533489059382 -1.64252734281865,54.1531142985981 -1.64216658945505,54.1528588719115 -1.64182310011511,54.1529153552981 -1.64176650479466,54.1529197699108 -1.64165016698653,54.1529130452909 -1.64155240552918,54.1528893942555 -1.64150812338922,54.1528712935132 -1.64145022234531,54.1528369796566 -1.64139089088344,54.1527927781965 -1.64131201562813,54.1527017981773 -1.64116468326417,54.1525709913745 -1.64106884987741,54.1524997274116 -1.6409896204351,54.1524500750848 -1.64084784304465,54.1523777755114 -1.64043438234838,54.1522048464388 -1.64033176803318,54.1522171192326 -1.64014088132853,54.1521599463368 -1.63983208889325,54.1521024212627 -1.63945610563273,54.15201953742 -1.63928058459087,54.1521412049647 -1.63916766964021,54.1522639582129 -1.6390453745195,54.1524200162605 -1.63888362607009,54.152539927857 -1.63870194540943,54.1526436967947 -1.63848335947774,54.1526071028134 -1.63808021375035,54.1524827135652 -1.63798543057818,54.1524653587712 -1.63789063966354,54.1524489017098 -1.63746702774317,54.1523991118125 -1.63697001401997,54.152326638567 -1.63694229038082,54.1523355397493 -1.63675786699561,54.1524203397104 -1.63652040983922,54.1526074949822 -1.63644200963725,54.1526512839326 -1.636386669982,54.1526708838292 -1.63627621041811,54.1526993021546 -1.63605240427892,54.1527255810906 -1.63568286278542,54.1527864602258 -1.6354770222314,54.1528658029732 -1.63535052246206,54.1529670373506 -1.63532357859364,54.1530738741266 -1.63535385229088,54.1531197882207 -1.63535046751116,54.1531602091168 -1.63533957984173,54.1531781454019 -1.63530873849874,54.153196920108 -1.63526729821758,54.153214853912 -1.63516750554811,54.1532361163243 -1.63511080647543,54.1532377414343 -1.63505113408249,54.1532330682187 -1.63499468833426,54.1532203188688 -1.63493969678557,54.1532002968829 -1.63488328189471,54.1531695774863 -1.63473377898578,54.1534603205129 -1.63464151656603,54.1536730687832 -1.6345137155355,54.1539360238007 -1.63444396259874,54.1542018497941 -1.63428360237413,54.1545060357662 -1.63422113604503,54.1548186050019 -1.63405309367405,54.1551200711661 -1.63347287173288,54.1551030365603 -1.6330000783615,54.1550727586743 -1.63267726702985,54.1550430262766 -1.63266953496745,54.155046595861 -1.63263849011942,54.1550879210816 -1.6325991976344,54.1552055016897 -1.63256662743947,54.1554337039021 -1.6325346852881,54.1555764640742 -1.63241583308972,54.156024529104 -1.63241809807283,54.156125254723 -1.63255303141006,54.1569713961568 -1.63207055630712,54.1569771142771 -1.6316828701141,54.1570145662908 -1.63150833462306,54.1570059467532 -1.6313796116736,54.1570136404167 -1.63110874722282,54.1569903508774 -1.63073784379444,54.1570287489748 -1.63028750565531,54.1570552227388 -1.6298599298341,54.1570916479489 -1.62919490962843,54.1571372256461 -1.62883160907002,54.1571864232753 -1.6286212221063,54.1572477703338 -1.62863761164829,54.1572928344804 -1.6287956326454,54.1576096721305 -1.62883903004375,54.157726607042 -1.62887907263946,54.1578659935371 -1.62890389320563,54.1579991328835 -1.62891826142446,54.1581150806638 -1.62892886163766,54.1582993894075 -1.62882893917929,54.1588563135028 -1.62880581158809,54.1592121271348 -1.62866900500361,54.1594453091476 -1.62861278678134,54.1599008399446 -1.62865615544608,54.1600213688311 -1.62863866311407,54.1600995717697 -1.62864377674273,54.1602056068799 -1.6285747562412,54.1605675684673 -1.62852662163004,54.1606410953582 -1.62850030070884,54.1606616787963 -1.62846652956163,54.1606822392934 -1.62827736391871,54.160768899038 -1.62823270132069,54.1607930199363 -1.6280918990631,54.1609498186102 -1.62802369860108,54.1610503270877 -1.62789096625859,54.1611658205849 -1.62774292532807,54.1612704846752 -1.62768265443569,54.161331395189 -1.62764388711518,54.1613879691505 -1.62759066510447,54.1615216767686 -1.62758093361667,54.1615791491574 -1.62756065207057,54.1616159236353 -1.62749744557743,54.1616661328269 -1.62737906247845,54.161716081767 -1.62732844171324,54.161728504062 -1.62727167579055,54.1617364146159 -1.62721192751108,54.1617389262589 -1.62714922110884,54.1617333410799 -1.62707119074615,54.1617187248318 -1.6269930440366,54.161731061926 -1.62694434414115,54.1616985661769 -1.626885498842,54.1616003608954 -1.6267746035631,54.1614913033594 -1.62646827051274,54.1613231499606 -1.62637251333693,54.1612437888398 -1.62626132722292,54.1611814494055 -1.62617303345512,54.1611146889364 -1.62605494637145,54.1609632909346 -1.62598868280173,54.1608480807452 -1.62586936664169,54.1608333357597 -1.62575327389167,54.1607970365675 -1.62538006390403,54.1607509548273 -1.62524480916059,54.1607954587321 -1.62505867980387,54.1608946106818 -1.62503713315554,54.1609035292235 -1.62474350740094,54.1610212145489 -1.62442719505331,54.1611200505318 -1.62415979196631,54.1612279327218 -1.62410829897505,54.1613230105718 -1.62395416653583,54.1614439135228 -1.62371019299877,54.1616552825616 -1.62364550719227,54.1617009025082 -1.62355932421495,54.1617500493809 -1.62347157415244,54.1617911054459 -1.62324268318271,54.1618703554317 -1.62319956191666,54.1619052613151 -1.6231593263484,54.1619419727512 -1.6230741929841,54.1620424255462 -1.62289522927821,54.1621856216133 -1.62288129494708,54.162204445968 -1.62286398733648,54.1622609955726 -1.62278161260104,54.1623911067135 -1.62275842772454,54.1624134952537 -1.6226813865813,54.1624707568249 -1.62266543497284,54.1625309046516 -1.62230546145328,54.1625414584789 -1.6222733933058,54.1625269829591 -1.62222471916366,54.1624917900984 -1.62219134737793,54.1624539498384 -1.62217349643413,54.1624035795637 -1.62183939656,54.1624294868804 -1.62165224820465,54.1624585502437 -1.62145147559713,54.1624722958 -1.62127287206098,54.1624088424515 -1.62099245408817,54.1622668123826 -1.62091462986309,54.1622297308818 -1.62088415496085,54.1622206505663 -1.62081685826689,54.1622060630853 -1.62069595984539,54.1621984960347 -1.62052413045283,54.1622231130504 -1.62035877252559,54.1622306788389 -1.62029741427918,54.1622295870749 -1.62030993663899,54.1620337603662 -1.61988044925232,54.1621069812112 -1.61955551645026,54.161972983293 -1.61937238173846,54.161908525129 -1.61932497993803,54.1619002888589 -1.61925134088211,54.161902752735 -1.61907480455072,54.1619588883053 -1.61904547210538,54.1619767657845 -1.6190284889165,54.1619973766288 -1.61902058806816,54.1620189148713 -1.61901551546603,54.1620764012815 -1.6190191956761,54.1621707523918 -1.61911124211597,54.1623229747244 -1.61924292342056,54.162490505151 -1.61936798521878,54.1627192017526 -1.61942950688516,54.1628541663352 -1.61979940697915,54.1637738384902 -1.61987098121577,54.1639834972046 -1.61996408917348,54.1641860365543 -1.62018831040328,54.1647853031987 -1.62019686336769,54.1648581063894 -1.62019160156922,54.1649362566713 -1.6201521208025,54.1650556290442 -1.62013644169859,54.1652650137951 -1.62016083594656,54.1654421785633 -1.62034387083265,54.1663621590691 -1.62040101122948,54.166480038854 -1.62041574437414,54.1665537592754 -1.62045116563448,54.1668648312663 -1.62044142970252,54.1669214043099 -1.62041940351918,54.1669825213097 -1.62038362830659,54.1670417077307 -1.62027853677078,54.167154584444 -1.62008244507593,54.167316680142 -1.62004226443236,54.1673605787162 -1.62000659518846,54.1674080854929 -1.61994735032856,54.167520207529 -1.61991490923908,54.1675461612735 -1.61978086467092,54.1676347768804 -1.61959571446493,54.1679532407944 -1.61948205009906,54.1681604292008 -1.61942362532057,54.1683481149616 -1.61923836847024,54.1683331545847 -1.61908061924597,54.1683344542459 -1.61917673078291,54.1687059158023 -1.61929901171909,54.1690747636271 -1.61934399217808,54.1691828120994 -1.61955205436323,54.1692041325936 -1.61977277251957,54.1691949448605 -1.61986771786273,54.1691979401286 -1.6199281701173,54.1692852819013 -1.61999031983953,54.1693528623794 -1.62005969762795,54.16947257738 -1.62005935987399,54.1695095041202 -1.62001747833907,54.1695731630262 -1.62000624272925,54.1696279347333 -1.62001361466016,54.1696504198332 -1.62004838186182,54.1697017414643 -1.62009534901386,54.1697584929528 -1.62015016874856,54.1697990965414 -1.62024013748395,54.1698354087432 -1.62041441256748,54.1698781854818 -1.62066497616577,54.1699481545977 -1.62070914285146,54.1699797398708 -1.62077135229109,54.1700410317291 -1.6208167649192,54.1701022707837 -1.62085706223472,54.1702121005081 -1.62082150886244,54.170260505698 -1.6206714626793,54.1702474556135 -1.62047544451454,54.1702342607865 -1.61968834929534,54.1702084233862 -1.61957237110354,54.1701712199383 -1.61948981428716,54.1701529905306 -1.61937504458973,54.1701355573072 -1.61924194509807,54.1701198636021 -1.61911489265263,54.1701058964155 -1.61894946657373,54.1701035767764 -1.61855910299499,54.1700879685107 -1.61833983692839,54.1701034479093 -1.61807006320909,54.1701314347076 -1.61790733776996,54.1701650623553 -1.61779206439501,54.1702024331586 -1.61789794713394,54.1703483199473 -1.61831292833369,54.1710389395464 -1.61840114232266,54.1711013025596 -1.61854839857802,54.1712536097954 -1.61917292324975,54.1711324914903 -1.61956534216995,54.1711040791886 -1.6199423524786,54.1710756179864 -1.61995449467009,54.1712670302486 -1.62009195811584,54.171813912372 -1.62007120623577,54.171900998392 -1.62006920641052,54.171954001704 -1.62008979602628,54.1720502923037 -1.62018493193111,54.1721988394203 -1.62027020031572,54.1724184240313 -1.62030786866349,54.172484130722 -1.62045775697216,54.1726814574819 -1.62065925188537,54.1730918824743 -1.62069488954001,54.1732141862559 -1.62071072956081,54.1733329236752 -1.6207946249125,54.1737034473815 -1.61922030285362,54.1738170885548 -1.6191538948273,54.1738689898892 -1.61912906059554,54.1739049405738 -1.61911344080098,54.1739417282877 -1.61911429666403,54.1740136084456 -1.61915508215591,54.1740838180512 -1.61916752195606,54.1742286008125 -1.61902343496868,54.1742389272047 -1.61877342469128,54.1742713816707 -1.61869046413891,54.1742962767547 -1.6186319003403,54.1743329287233 -1.61860542740774,54.174382260652 -1.61860353130033,54.1744235843979 -1.61863843718808,54.1746250417929 -1.61867566925517,54.1747383666158 -1.61863811022054,54.1749908071608 -1.61909752018355,54.1750165172174 -1.61909225953135,54.1754110181372 -1.61870921821045,54.1754178945121 -1.61850769580531,54.1756850916424 -1.61841202573176,54.175759361927 -1.61828066765802,54.1758821268833 -1.61814964983629,54.1759679659226 -1.61806667719118,54.1759937583842 -1.61790719194251,54.1760157155037 -1.61781495687526,54.1760459712039 -1.61778258215049,54.1760638387243 -1.61772223286581,54.1761293256283 -1.61766917637479,54.1762396694599 -1.61765964116123,54.1762737809687 -1.61765140596766,54.1763312562872 -1.61768811642712,54.1765147504647 -1.617684537182,54.1765605606841 -1.61762927589787,54.1767455600842 -1.61763325197965,54.1768075677103 -1.61762690864649,54.1768380953185 -1.61757243884309,54.1769232774753 -1.61751354600625,54.1769949682937 -1.61751026510779,54.1770220014657 -1.61753284866663,54.177066098025 -1.61756618655851,54.1771084320999 -1.61761042468034,54.1771328306684 -1.61766530807322,54.1771536689341 -1.61777086715881,54.1771719732756 -1.61793175796099,54.1771760766552 -1.61805400140782,54.17720701123 -1.61809664046284,54.1772269127263 -1.61815456600953,54.1772603389642 -1.61823371634526,54.1773207869023 -1.6184905719121,54.1775490010306 -1.61874252986982,54.1779668671629 -1.61875402409734,54.1780495619946 -1.61879134865426,54.1781530037134 -1.61887765518994,54.178273671396 -1.61893542529817,54.1783242579455 -1.61902061783454,54.1783874197231 -1.61919736617339,54.1784948953196 -1.61952365331492,54.1786604333879 -1.61984057813902,54.1788555019676 -1.62023078446257,54.1790769442327 -1.62146051303657,54.1796344437875 -1.62170935858314,54.179899463676 -1.62218952002555,54.1798442741854 -1.62252979951501,54.1798210804182 -1.62351813204864,54.1798115886071 -1.62381684180853,54.1798170117697 -1.62421659085232,54.1798389222642 -1.62465584960659,54.1798781145651 -1.62493473666983,54.1798825754847 -1.62507879315916,54.1798776315744 -1.62518612906483,54.1798680816408 -1.62529200723885,54.179852148831 -1.62540870403068,54.1798273539174 -1.62581874686365,54.1797163165029 -1.6265414475748,54.1794219707647 -1.62698908875657,54.1792309926031 -1.62757352504287,54.1789704448691 -1.62832928260919,54.1785790650973 -1.62873710747423,54.1783889464191 -1.62870196563627,54.1785469691118 -1.62855512606348,54.1788637665941 -1.6284574104004,54.1789983259276 -1.62840015468766,54.1790583472162 -1.62825354053193,54.1791800873975 -1.62817492185578,54.1792274633202 -1.62797331267607,54.1793257639341 -1.62786092277592,54.1793919043035 -1.62731782764519,54.1798170909803 -1.6272405452104,54.1798843268577 -1.62699173129085,54.1801180590697 -1.62676587684715,54.1803690211221 -1.62657276144,54.1805473088422 -1.62638145149767,54.1806931677361 -1.62600545092094,54.180922999113 -1.62588367780618,54.1810061798423 -1.6257941984377,54.1810804751117 -1.62572766462669,54.1811459467789 -1.62555255650609,54.1813718177716 -1.625493524439,54.1814597744205 -1.62542028572764,54.1815961138678 -1.62533704529115,54.1818187654572 -1.62522667094455,54.1819963200842 -1.62514150934499,54.182095875255 -1.62505954919091,54.182176482599 -1.6249514753047,54.1822668920318 -1.62477811785903,54.1824659035103 -1.6245511723623,54.1826529774603 -1.62395150828424,54.1832200208313 -1.62369927252381,54.1834924588562 -1.6235161664199,54.1837480407082 -1.62357974478147,54.1838282030548 -1.62379512573143,54.1840679560517 -1.62383298609565,54.1841282715442 -1.6238959558567,54.1842759062953 -1.6239534547942,54.1843578460448 -1.62401577178772,54.184410151837 -1.62410106584144,54.1844643248047 -1.62419712263505,54.1845158368426 -1.62448736040069,54.1846237476835 -1.62455753206673,54.1846599050726 -1.62476930840743,54.1847962314988 -1.6248592169851,54.1848432320651 -1.62528091266517,54.1849865889465 -1.62558807388483,54.185081881231 -1.62571769963274,54.1851379879934 -1.62590367552907,54.1852500647983 -1.62598459438084,54.1852853559321 -1.62604420011867,54.1853026109834 -1.62622919920512,54.1853409196223 -1.62652617501606,54.1853750826566 -1.62687075260401,54.1853986101098 -1.62745755368808,54.1854192903829 -1.62762902560817,54.1854306005684 -1.62806371115236,54.1854795596438 -1.62840071823841,54.1855021606669 -1.62861954019233,54.1855307763437 -1.62868221846457,54.1855435477145 -1.62909654891609,54.185650840472 -1.62922347656195,54.1856844742336 -1.62929060687126,54.1857080400628 -1.62936077653966,54.1857450933603 -1.62949319521676,54.1858569992457 -1.62954499945914,54.1858850106145 -1.62959085910774,54.1858995273441 -1.62964433925637,54.1859095747125 -1.6297377600469,54.1859179471248 -1.62988024784752,54.18592107937 -1.630021276263,54.1859179176989 -1.63019450655017,54.1859022759684 -1.63097149522743,54.185891177407 -1.63113749601729,54.186006688263 -1.63169017904973,54.1864136745265 -1.63197363608805,54.1865916273148 -1.63203535327554,54.1867131082111 -1.63193539766314,54.1869285252101 -1.63206842202524,54.1871302773559 -1.63228293545341,54.1873043353632 -1.63232278435936,54.1874842402579 -1.63199554969529,54.1875829727588 -1.63176475565782,54.1876775067717 -1.63158139960533,54.1877938371963 -1.63148727377714,54.1878645293388 -1.63122631428268,54.1880830481007 -1.63099047674113,54.1884175452619 -1.63079775809067,54.1885490307079 -1.63074193609721,54.1886171432335 -1.63053087477029,54.1889211676228 -1.63012298828867,54.1894618743411 -1.63034457691744,54.1895371256218 -1.63072046773207,54.1896524715596 -1.6309758659479,54.1897197383772 -1.63120074418901,54.1897662479521 -1.63141954502962,54.1898001591106 -1.63161712690828,54.1898187313063 -1.63183769103616,54.1898247956287 -1.63209360209022,54.1898201843876 -1.63234818038195,54.1898092801721 -1.63259661357739,54.1897929661698 -1.63284966799733,54.1897685789919 -1.63303371636501,54.1897457780823 -1.6335325521469,54.1896619389306 -1.6340987146153,54.1895800093773 -1.63449787692169,54.1895075438918 -1.63528228268103,54.1893499901026 -1.63559978503415,54.1893239959616 -1.63578366507794,54.1893200585425 -1.63592464094649,54.1893240780852 -1.63603500067833,54.1893324978175 -1.63633344875934,54.1893756253347 -1.6366148269559,54.1894348741338 -1.63694205616357,54.1895248070081 -1.6374280968093,54.1896746058928 -1.63785619876252,54.189789098678 -1.63808235836626,54.1898634511931 -1.63864892267498,54.1900826686896 -1.63878787597263,54.1901450788147 -1.63886408619195,54.1901866366053 -1.63908483326699,54.1903607914163 -1.63924659081877,54.1904457310449 -1.63938864145606,54.1905009626434 -1.63955833881064,54.1905445959665 -1.63977718860497,54.1905740007421 -1.63988906027239,54.1905833192889 -1.64010515042452,54.1905812688777 -1.64017246590314,54.1905850636806 -1.64023061993556,54.1905961080926 -1.64026878922795,54.190609699184 -1.64031153918966,54.1906340850146 -1.640366359175,54.1906800707976 -1.64041934183089,54.1907485119896 -1.64045553488562,54.1908151065694 -1.6404746743658,54.1909104903676 -1.6404653000994,54.1911027345382 -1.64043427511034,54.1913291456669 -1.64042075516224,54.1916499480042 -1.64037277471859,54.1918790038255 -1.64036841034754,54.1920326285451 -1.64037847451051,54.1921108250483 -1.6404082895548,54.1921990535641 -1.64056094735893,54.1924456878319 -1.64061524008523,54.1925528570319 -1.64063770855941,54.1926140201047 -1.64064474548733,54.1926769337527 -1.64063656476527,54.1927460913349 -1.64061757026446,54.1928090173039 -1.64058335607252,54.1928637213351 -1.64053390885799,54.1929120915943 -1.64041697716463,54.192975533598 -1.64012784985364,54.1930779958537 -1.63999724963724,54.1931145329199 -1.63983755645292,54.1931544871073 -1.63967791757555,54.1931881519766 -1.63917456008253,54.1932657125821 -1.63897354334449,54.1932911669216 -1.63871584477647,54.1933101610089 -1.63781471389783,54.1933119514458 -1.63737473491354,54.1933232081347 -1.63724131292043,54.1933353855052 -1.63709859396199,54.1933556205725 -1.63695427420283,54.1933857339131 -1.63682976769578,54.1934186927754 -1.63674369977672,54.1934489812264 -1.63661287593956,54.193510581125 -1.63616467874487,54.193767179848 -1.63609528220677,54.1938127928138 -1.63603965905417,54.193858446399 -1.63597007306618,54.1939256217852 -1.63593760517731,54.1939677512049 -1.63591270481364,54.1940117009033 -1.63589690120037,54.1940557679273 -1.63589499915799,54.1940997870391 -1.63591269834992,54.1941851948974 -1.63599245337753,54.1943562334409 -1.63603019128568,54.1944192399618 -1.63610733925998,54.194527288942 -1.63592146331184,54.1945833314314 -1.63583389232157,54.1946118181326 -1.63575693470647,54.1946403368192 -1.63571216196099,54.1946735343511 -1.63567658967115,54.1947093659517 -1.63563912287217,54.1947883170443 -1.63563273321652,54.1948251355018 -1.63563943160759,54.1949257839561 -1.63562492321718,54.1950093869772 -1.63535764880366,54.1952538605663 -1.63531145329026,54.1952761826889 -1.6351716493291,54.1953234686266 -1.63513303571819,54.1953458127131 -1.63506053116991,54.1953995014676 -1.63502498931071,54.195431738967 -1.63491810407882,54.1955580994822 -1.63484483096207,54.1956990267042 -1.63479707907918,54.195725835858 -1.63474326867667,54.1957517288388 -1.63449416594976,54.1958399224166 -1.63395580220753,54.1960558100626 -1.63378071373873,54.1961055931583 -1.63360582137634,54.1961185397437 -1.63316698518021,54.1961684199218 -1.63307037388025,54.1961753134075 -1.63288797181513,54.1961801503167 -1.63287997617223,54.1962124701386 -1.63287633006423,54.1962817308089 -1.63288372953867,54.1963167936145 -1.63292595017758,54.1963870026047 -1.63293482429155,54.1964265617068 -1.6329341089599,54.1965074212164 -1.63291491969865,54.1965910105939 -1.63288354252804,54.1966807613962 -1.63285861974098,54.1967265069852 -1.63272454065759,54.1968114535545 -1.63261955712114,54.1968929843987 -1.6323871012243,54.1969982955115 -1.63221760051111,54.1971011036104 -1.63212815405695,54.1971692041104 -1.63184964509995,54.197294140351 -1.63147723456025,54.1974475394806 -1.63142036180911,54.1974762067683 -1.63117358814046,54.1976416691664 -1.63108082727705,54.1977267401248 -1.63102203847328,54.1978003249191 -1.63089234154189,54.1979032518964 -1.63088408823004,54.1979643218265 -1.63088637399737,54.1982330603545 -1.63090606841892,54.1984200908111 -1.63090269135519,54.1984587147715 -1.63082539436805,54.1985384413651 -1.63081123546993,54.1985815250653 -1.63080126609437,54.1986650515074 -1.63080395570187,54.1987036940162 -1.63091233619521,54.1987526319172 -1.63093658046415,54.1989539623546 -1.63088775687664,54.1991003524841 -1.63086710732665,54.1991910351509 -1.63086347657235,54.199244033395 -1.63086918152082,54.1992988567297 -1.63088400199523,54.1993520012602 -1.63097082699507,54.1994232459901 -1.6309882807998,54.1995212322211 -1.6310442828051,54.1996049602984 -1.6309838720488,54.1996758439304 -1.63089921603043,54.1997160159635 -1.63080686569701,54.1997543678615 -1.63039934954027,54.1999013679068 -1.6302011196003,54.1999501762218 -1.62991114317812,54.1999835190826 -1.62983684378139,54.2002366591001 -1.62982553965984,54.2002996060075 -1.62979157181721,54.2004944688881 -1.62979081020736,54.2005798209121 -1.62980673589206,54.2006931662817 -1.6298584236435,54.200906260842 -1.62985494040881,54.2009566541046 -1.62978893314302,54.2011442307477 -1.6297571306277,54.2012664142722 -1.6297395913343,54.2013481208408 -1.62973779466517,54.201379561622 -1.62974662930041,54.2014092384622 -1.62976033217894,54.2014317422507 -1.6298090727873,54.2014651345512 -1.62985492721917,54.2014823463751 -1.62996499897633,54.2015123326433 -1.63006740200808,54.201537803499 -1.63024341560106,54.2015716763118 -1.63028307589749,54.2015888681025 -1.6303408850536,54.2016402579075 -1.63048901601343,54.2018815895899 -1.63052044526806,54.2019715328303 -1.63052885651993,54.202048826207 -1.63052346666632,54.2021431485732 -1.6304995506531,54.2022455899135 -1.63046033330981,54.2023487932628 -1.63040568955218,54.2024528480953 -1.63033740994902,54.2025551544776 -1.63024900998172,54.2026600036968 -1.63014853239435,54.2027585274929 -1.63007137736708,54.2028212735465 -1.6300173715004,54.2028534521618 -1.62973118902606,54.2029693754116 -1.62949725971909,54.2030791690934 -1.62931999442102,54.2031847334716 -1.629250510026,54.2032375294305 -1.62918094514554,54.2032993096253 -1.62903087526405,54.2034588651421 -1.62887723411588,54.2036641418549 -1.62870989568113,54.2038604806936 -1.62863078677997,54.2039716474374 -1.62849052523056,54.204221078561 -1.62818005878373,54.2046613592645 -1.62808154281598,54.2048641983966 -1.62805457807155,54.2049674386711 -1.62801271887032,54.2055335223543 -1.62802494864748,54.2057061550345 -1.62807238131711,54.2058859933648 -1.62811907869211,54.2059787693466 -1.62812623268571,54.2060407851976 -1.62811220535279,54.206068594271 -1.62795112773171,54.2062559676556 -1.62795965590367,54.206319784293 -1.62805116144878,54.2063775682377 -1.62766723149589,54.2067897679617 -1.62752854054385,54.2068765808572 -1.62745450737496,54.2069140879518 -1.62738215943457,54.2069471083921 -1.6272684260484,54.2069853915599 -1.62707815851999,54.2071707854227 -1.6269789354841,54.2072963538226 -1.62690895632202,54.2074030548834 -1.6268589898389,54.2075054158182 -1.62678820161004,54.2077019603799 -1.62675879598439,54.2077387062683 -1.62670464366885,54.2077861575973 -1.62663522828291,54.2078300575873 -1.62657216109468,54.2078568160881 -1.62642772590932,54.2078932069509 -1.62634767036195,54.207925303298 -1.62623361912092,54.2079986247491 -1.62612546557158,54.2080908312123 -1.62598130355463,54.2082647770751 -1.62580806801098,54.2084385418856 -1.62572429653217,54.2085461881121 -1.62567603748627,54.2086269001084 -1.6254330065759,54.2092220079834 -1.62537081986392,54.2093188491376 -1.62532274589291,54.2093788972448 -1.62520053773058,54.2095007989187 -1.62506308593413,54.2096027976665 -1.62504290185628,54.2096260945602 -1.62499299970028,54.2097203682698 -1.62494975687234,54.2097633600095 -1.62491888331878,54.2097803353185 -1.62472059543827,54.2098435104026 -1.62467896892285,54.2098613500483 -1.62465276639833,54.2098792376326 -1.6246295070862,54.2099070176053 -1.62461390130532,54.2099411115242 -1.62461018843179,54.2100021950856 -1.6246485402046,54.2101785033326 -1.62484351735836,54.2106491857379 -1.62484183033143,54.2106680482583 -1.62480748825903,54.2107470065779 -1.62468944543885,54.2109110590111 -1.62459390305753,54.2111309757238 -1.62454251502473,54.2112215607433 -1.62437762133131,54.2114771996584 -1.62426914451366,54.2116036357743 -1.62424731083897,54.2116413033426 -1.62421427311536,54.2117436251092 -1.62416928446661,54.2117973930822 -1.62405830199777,54.2118653306101 -1.62403037861395,54.2118913892626 -1.62400244480468,54.2119326317754 -1.62397885808016,54.2119963486674 -1.62396691538277,54.2121283857786 -1.62398308047231,54.212213880269 -1.62403790088515,54.2124144083521 -1.62403111535871,54.2124934522364 -1.62399009887977,54.2126111127221 -1.62391389574095,54.2127330673227 -1.62389817577651,54.2127797383824 -1.62390031160981,54.2128786654965 -1.62389229909873,54.2129118842379 -1.62382063474471,54.2130491257826 -1.62379189540765,54.2131650278991 -1.62379281844212,54.2132306185561 -1.62381076319631,54.2132872777353 -1.62384264134702,54.2133269091133 -1.62396912437542,54.2134045715835 -1.62400253705566,54.2134424111541 -1.62401569727268,54.2135108250535 -1.62399979113433,54.213745274352 -1.62405230012134,54.2138802972782 -1.62409484293339,54.2140825844903 -1.62408995567792,54.2141194959281 -1.62407283290612,54.214153584131 -1.62399362982439,54.2142575594807 -1.62396867849946,54.2143042017873 -1.62393715091589,54.2143930518133 -1.62393188054751,54.2144721902577 -1.62395417493891,54.2145513237899 -1.62402670472133,54.2146674523435 -1.62419973124269,54.2150365403673 -1.62430596333151,54.2151590619945 -1.62431124298183,54.2152462300939 -1.62432935869543,54.2152840210621 -1.62434583215804,54.2153218078163 -1.62436947259685,54.2154199039674 -1.62439602865692,54.2155448728505 -1.62439717239627,54.2155862058883 -1.62438761725615,54.2156221151125 -1.62436732324442,54.2156571820756 -1.62432405576212,54.2157019700147 -1.62425299492438,54.2157583521169 -1.624169733187,54.2158075091255 -1.62409112987149,54.2158449999054 -1.62362666051965,54.2160062644595 -1.623457140218,54.2160865973803 -1.6234033779381,54.2161035008942 -1.62336348635099,54.2161105635244 -1.62319158203263,54.216119011636 -1.62311636782788,54.2161313553616 -1.623028814128,54.216151747202 -1.6229226226553,54.2161918463366 -1.62283625997327,54.2162481798055 -1.62279591468643,54.2162912696495 -1.62276337485596,54.2163378879814 -1.62274758215955,54.2163782693876 -1.62274069694283,54.2164680947892 -1.62275044161606,54.2167449420231 -1.62274492267647,54.2168374660535 -1.62267759754106,54.2171634885665 -1.62265398851689,54.2172290925721 -1.62261516405731,54.2172855746048 -1.62247745092426,54.2174127268051 -1.62238305701009,54.2175175516593 -1.62220754160913,54.2177551857776 -1.62215759185665,54.2178530523017 -1.62210543509949,54.2180262931973 -1.62205856802534,54.2181186880142 -1.6219869748285,54.2182326592324 -1.62187830831441,54.2183769720301 -1.62174548043055,54.2184808680523 -1.62150497800274,54.21862027469 -1.62102118162509,54.2188578389616 -1.62137069423256,54.219215716007 -1.62148783803502,54.2193203055208 -1.62194628346687,54.2196722330363 -1.62218369459934,54.2198725259086 -1.62268050475445,54.2202200787888 -1.62309252235483,54.2206042017603 -1.62351763801955,54.2212454149473 -1.62360718739093,54.2213544979752 -1.623782001444,54.2215293455279 -1.62399961611652,54.2217116030616 -1.62408468495538,54.2217990188473 -1.62425317937891,54.2220017881945 -1.62433643787989,54.2221215431792 -1.62448002429872,54.2223520860999 -1.62469239176599,54.2227796070924 -1.624900719317,54.2233186150814 -1.62501540487687,54.2236973144209 -1.62519612775877,54.2242272515402 -1.62539980150168,54.2247788216624 -1.62544185125241,54.2248696978457 -1.62557339452946,54.2250912174323 -1.62565263315536,54.2253070953557 -1.62576189221398,54.225615699903 -1.62583142674803,54.2258981252975 -1.62589765954796,54.2265463087263 -1.62591253212547,54.227098195926 -1.62593436118113,54.227411919915 -1.62592452864134,54.2274783765179 -1.62588208986864,54.2275842644954 -1.62588319225203,54.2276301803703 -1.62593398718216,54.2277893668794 -1.62597204090739,54.2281552529647 -1.62598254784743,54.2283503428874 -1.62596937946414,54.2284500331265 -1.62594382049414,54.2285632512943 -1.62587760599282,54.2287669991715 -1.6258723743356,54.2288280785365 -1.62591377560542,54.2291733994545 -1.62577862634536,54.2295315608553 -1.62573649912112,54.2296167852539 -1.62558422934811,54.2298257466743 -1.62547361336627,54.2300158793035 -1.62541699454681,54.2301649402647 -1.62538494964582,54.2303238699696 -1.62538790409088,54.230332863722 -1.62582616786056,54.2303872329459 -1.62611138211576,54.2304006948618 -1.62659159732289,54.2303896019692 -1.6270287123411,54.2303891552134 -1.62733717340149,54.2303775288136 -1.62782089666172,54.2303278073183 -1.6284552979463,54.2302309293067 -1.62939194023532,54.2301241937662 -1.62950556330631,54.2301191518084 -1.63007934179029,54.2301109374301 -1.63036783983577,54.2300965468491 -1.6305704629052,54.2300818920308 -1.63089139592107,54.2300469349519 -1.63126003566218,54.2299950513447 -1.63278869580629,54.229718397112 -1.63294549491466,54.2296793414049 -1.63300553162342,54.2296552653856 -1.63321055846863,54.2295543607168 -1.63326282504512,54.2295365502705 -1.63331350139506,54.2295268208295 -1.63340713202724,54.229522612327 -1.6336447738384,54.2295377094737 -1.63370461127086,54.2295360935129 -1.63376450431348,54.2295281892913 -1.63386133583195,54.2295051222473 -1.63401668683429,54.2294578850322 -1.63416752371876,54.2294062301771 -1.63449377212513,54.2292841272807 -1.63463686050056,54.2292360433023 -1.63494659458173,54.2294229637324 -1.63517701699649,54.2295540282825 -1.63548392695948,54.2297175787801 -1.63634540620084,54.2301444357693 -1.63657286530681,54.2302682115754 -1.6366903547259,54.2303413415716 -1.63686875023129,54.2304641602116 -1.63706681573139,54.2306085110074 -1.63736385428261,54.2308466893894 -1.63816431862261,54.2314144088853 -1.63847449411005,54.2315546014 -1.63891714256421,54.2318057902868 -1.64024676618174,54.2327336558447 -1.64095660768986,54.2331419669142 -1.64109094342681,54.2332142437054 -1.64134918361542,54.2333363938621 -1.64152960779037,54.2334034164937 -1.64187396162877,54.2334996763298 -1.64206973001146,54.2335622512544 -1.64221658770076,54.2336202790313 -1.64235401731001,54.2336862747081 -1.64246708055304,54.2337468074824 -1.64268071487317,54.2338795156434 -1.64291083782556,54.2340509958042 -1.64312109680482,54.2342232256573 -1.64330281272061,54.2341411036834 -1.64382992016452,54.2345794977884 -1.64436166771499,54.234994452605 -1.64429830813491,54.2350517685433 -1.64447979093788,54.2351735966455 -1.64458837050471,54.2352270160122 -1.64501783077578,54.2354169589073 -1.64516128313029,54.235504622146 -1.64533964968604,54.2356363231084 -1.64595639606214,54.2361738033976 -1.64632672227101,54.2364615917445 -1.6468050765956,54.2368539171054 -1.64707907690404,54.2371054819482 -1.64735465183022,54.237543933564 -1.6475974030428,54.2378565015672 -1.64753723893068,54.2378949605701 -1.64742630109582,54.2379539357998 -1.64734313840006,54.2379896322607 -1.64726156107797,54.2380173363967 -1.64689416200745,54.2381106022727 -1.64629736785561,54.2382831589116 -1.64598036816935,54.2383847462779 -1.64572332798785,54.2384864179746 -1.64556492862382,54.2385326736174 -1.64517162864599,54.2385917163822 -1.64481503810712,54.2386626356203 -1.64466608778287,54.2386837606285 -1.64383143461113,54.2386813016176 -1.6435136521642,54.2386965365133 -1.64320191922255,54.238728858928 -1.64266568059835,54.2388153236365 -1.64241532328701,54.2388451312399 -1.64197305738673,54.2388896424875 -1.6416936420972,54.2389148696817 -1.64109338224361,54.2389580999263 -1.64005533419555,54.2390538425412 -1.63911109764316,54.239126495946 -1.63846763248944,54.2391910582617 -1.63775368765018,54.2392428270988 -1.63717476449706,54.2393040719824 -1.63680782850322,54.2393263286643 -1.63670334499496,54.2393394917143 -1.63660196201678,54.2393598511536 -1.63641885827102,54.2394230918553 -1.63637862976029,54.2394517220091 -1.63637092911218,54.2394642774526 -1.63638272676321,54.2395182215369 -1.63642200636876,54.239583119416 -1.63650298007088,54.2397980986889 -1.63660126819563,54.239957513866 -1.63686491304407,54.2403465369992 -1.63691316208051,54.2404419205489 -1.63703336646509,54.2407280862738 -1.63722329849082,54.2411132929296 -1.63732689370368,54.2413751498901 -1.6373852515107,54.2415443277664 -1.63742991560662,54.2417025934539 -1.6374738787827,54.2419409106088 -1.63770678564586,54.2425051328248 -1.6380096250029,54.2431315576846 -1.63805310566563,54.2432520837877 -1.63809241507209,54.2433286620163 -1.63817412728466,54.2434466064371 -1.63822735512476,54.2435087603441 -1.63831258393553,54.2435862848948 -1.63844830082736,54.243691902075 -1.63861292209533,54.2438056024944 -1.6387533931323,54.2438886825929 -1.63888165407656,54.2439646278402 -1.64000011984857,54.2445143284517 -1.64072001804607,54.2448507934039 -1.64086967500841,54.2449259022862 -1.64128066476049,54.2451400615135 -1.64163793083126,54.24534875921 -1.64193886145508,54.2455032904407 -1.6423576688816,54.2456924016949 -1.64298633653369,54.2459315476613 -1.64341596210049,54.2461143079487 -1.64350325353393,54.2461451143185 -1.64371277512718,54.2462194966167 -1.6439437621716,54.2463136186002 -1.64425701884348,54.2464636883852 -1.64441423699445,54.2465585807774 -1.64446448377567,54.2466009563717 -1.64461495233641,54.2467748044613 -1.64529477557483,54.2473079793169 -1.64559060759807,54.2475290631496 -1.64569419340703,54.247622807848 -1.64590851904149,54.2478616209722 -1.64597401331553,54.2479265034243 -1.6462771455406,54.2481826465206 -1.64634266393707,54.2482448335441 -1.64650217065519,54.2484286778794 -1.64658284725641,54.2485088782976 -1.64706330810939,54.2488634714896 -1.64725204602631,54.2490330249979 -1.64733575796976,54.2491285076374 -1.64742649842459,54.249275222968 -1.6474751794343,54.2493239727451 -1.64792678890878,54.2496362504903 -1.64821838772869,54.2498230835677 -1.64829158771383,54.2498754076261 -1.6484074896564,54.2499656815771 -1.64848208578389,54.2500323856333 -1.64856716400697,54.2501314653547 -1.64862784789508,54.2502125040252 -1.64875561348154,54.2501724444053 -1.64895863932685,54.2501209225805 -1.64909702987146,54.2500961673738 -1.64921369890963,54.2500812322614 -1.64926599613498,54.250076892237 -1.64969273664531,54.2500709421865 -1.65028990908763,54.2500367328213 -1.65104539978418,54.2500002834498 -1.65172700684997,54.2499770930534 -1.65180614982526,54.2500456047752 -1.65289926788909,54.2500065236007 -1.65582824307947,54.249917780034 -1.6568479542926,54.2494677631629 -1.65887766644425,54.2486170009204 -1.65985857410517,54.2482153649354 -1.66039786495401,54.2479526420792 -1.66073463521249,54.2478673357864 -1.66166190904435,54.2476452296877 -1.66196640930204,54.2475598286529 -1.66240549023047,54.2475421888046 -1.66287884458413,54.2474643554526 -1.66369436535814,54.2473830714663 -1.66421053663712,54.2473144265498 -1.6642798925462,54.2476552300457 -1.66440299790895,54.2479997759488 -1.66453167518367,54.2484063323245 -1.66472924795426,54.2488212555169 -1.66480451799588,54.2490110411525 -1.66504923900099,54.2496830570169 -1.66519412396389,54.2501679142132 -1.66542871842483,54.2507635321125 -1.66545243943854,54.2508660231509 -1.66546386178006,54.2509712661776 -1.66545966929927,54.2511141109733 -1.66542994856895,54.2511903989612 -1.66540514464366,54.2512217767457 -1.66529997926523,54.2513168125568 -1.66527041424303,54.2513580604314 -1.66525470228898,54.2514074325461 -1.66524957280684,54.2514783980646 -1.6652635667696,54.2516411497367 -1.6652980797587,54.2517391788553 -1.665335971826,54.2517949887982 -1.66538464710749,54.2518472345884 -1.66544410950167,54.2518960069952 -1.66553730658943,54.251951072212 -1.6662004772529,54.2521299048416 -1.66655899450951,54.2522064564961 -1.66681963022128,54.2522440127504 -1.66764828715408,54.2522552801902 -1.66773891975182,54.2522519364139 -1.66784175209838,54.2522423359222 -1.66797236266549,54.2522247258484 -1.66859340910942,54.2521032508251 -1.66873033288228,54.2520712811983 -1.66884563373243,54.2520374555824 -1.66894259197189,54.2520026808587 -1.66917838269943,54.2518873343623 -1.66929693764177,54.2518418373625 -1.67028064352863,54.2516576441658 -1.67054812483119,54.2515981763095 -1.67098032051643,54.2514806665283 -1.67133734767538,54.2513630405743 -1.67145132936983,54.2513193255746 -1.67167001644683,54.2512209981301 -1.67215241258111,54.2509635493925 -1.67227436965126,54.2508712475744 -1.67231320749281,54.2508246325798 -1.67233495672842,54.2507788699465 -1.67235427691051,54.2506720043106 -1.67234332812197,54.2505047690106 -1.67232237122894,54.250434631168 -1.67224851800127,54.2502690226471 -1.67215899373276,54.2501331104701 -1.67210433573071,54.2500682726132 -1.67197640073462,54.2499411507726 -1.67183149396612,54.2498320426107 -1.67168468612915,54.2497552734053 -1.67140014327692,54.2496385072012 -1.67083308721922,54.2493574490877 -1.67068463641972,54.2492968467757 -1.67036166696278,54.2491917439619 -1.67024701979351,54.2491447097748 -1.67011859119906,54.2490805683069 -1.67000850331406,54.2490172847653 -1.66992303896005,54.2489604475823 -1.6697538023634,54.2488252144856 -1.66968677864274,54.2487567476849 -1.66960781008333,54.2486630002163 -1.66955013864354,54.2485801837688 -1.66952287420348,54.2485244033355 -1.66951268309164,54.2484695692383 -1.66951928020701,54.2484039091659 -1.66954440217458,54.2483321003521 -1.66958964319906,54.2482441739645 -1.66966268400586,54.2481293689498 -1.66995104077595,54.2477660969987 -1.67003760608598,54.2476845726489 -1.67009630163448,54.247638911344 -1.67023204408146,54.2475467391267 -1.67038166398654,54.2474599062241 -1.67053105502144,54.247385740979 -1.67068657375192,54.2473205768382 -1.67084047269176,54.2472679866777 -1.67101583150837,54.2472217440715 -1.67134624631755,54.2471524727136 -1.67156285107496,54.2471225141437 -1.67190417925452,54.2470488680665 -1.67215772319928,54.2470037348852 -1.67282608783162,54.2469031218527 -1.67299808133351,54.2468820244402 -1.6731348233889,54.2468706239289 -1.67367673084123,54.246840642727 -1.67399626837331,54.2468019732565 -1.67408677678134,54.2467968269392 -1.67417278566106,54.2468006520989 -1.67432758933258,54.2468253289522 -1.67466146099217,54.2469107747178 -1.67488183313351,54.2469805503534 -1.67498890063573,54.2470257614013 -1.67510043987375,54.2470817673164 -1.67540294703456,54.2472623639162 -1.67587930022457,54.2475737059168 -1.6759676857526,54.2476458205901 -1.6763908409336,54.248288641952 -1.67677491106002,54.249028392741 -1.67682630565334,54.2491229595332 -1.67706423013472,54.2495073326182 -1.67723041315409,54.2498591683337 -1.67732259861367,54.2500292255233 -1.67764981571815,54.2505828380857 -1.67778872921103,54.2508788954207 -1.67784292762216,54.2510201896077 -1.67787730904287,54.2511388791575 -1.67794080174894,54.2514518055674 -1.6779605355159,54.2516801600767 -1.67799101294091,54.2521053069588 -1.67800403082528,54.2524001295722 -1.67799956099413,54.2527793625397 -1.67798065106621,54.2530300749698 -1.67800416599052,54.2531793730776 -1.67802205306368,54.2532387196631 -1.678099028778,54.2534132284159 -1.67834314820705,54.2537868332808 -1.67845361317627,54.2540001543956 -1.67851532699497,54.2541522502212 -1.67858689762885,54.254420183975 -1.67867818829148,54.2549192579445 -1.67877778843199,54.2553427916484 -1.67885707229947,54.255807690846 -1.67890049888273,54.256131345154 -1.67894995771258,54.2562976933778 -1.6790117813525,54.2564363118676 -1.67920223890494,54.2568133661644 -1.67937584516416,54.2571930706894 -1.67946660705495,54.2573703992621 -1.67956976331882,54.2575162252241 -1.67970986869965,54.2576631367517 -1.67980597707243,54.2577388629385 -1.67991439579348,54.2578101298277 -1.68002304502818,54.2578679190306 -1.68012246094761,54.2579087040536 -1.68023572129833,54.2579431455786 -1.68040122494576,54.2579813192119 -1.68050093465209,54.2580004507883 -1.68065577716151,54.2580260173055 -1.6810434079543,54.2581123950749 -1.68136534925252,54.2581662550137 -1.6814711146048,54.2581880970348 -1.68163043905732,54.2582236472759 -1.68179885693743,54.2582779983394 -1.68233504895618,54.2586316990607 -1.68269104427936,54.2588338915208 -1.68278736873877,54.2588989236902 -1.68296283371091,54.2590251698559 -1.68311845097573,54.2591486684319 -1.68325296676268,54.2592344656745 -1.68338139229922,54.2593057809209 -1.68354815439425,54.2593789938937 -1.68379938322652,54.2594461384345 -1.6840060072373,54.259520443681 -1.68409778301618,54.2595683017334 -1.68416952763027,54.2596206009833 -1.68424720944371,54.2596908839217 -1.68432945152749,54.2597773521844 -1.68439638640123,54.2598629715542 -1.68446158068998,54.2599610750265 -1.68451764790887,54.2600609511826 -1.68455387499059,54.2601402009971 -1.68459897935298,54.2602670021594 -1.6845989724994,54.2602679008668 -1.68460672464445,54.2604629786318 -1.68459152751161,54.2608457761257 -1.68455400848784,54.2611350748689 -1.68446906515044,54.2616012473657 -1.68517516087562,54.2616093784681 -1.68518290836161,54.2616058046528 -1.68521100823605,54.2615393910827 -1.68522733464539,54.2614064609522 -1.6852138873418,54.2613606035232 -1.68517287601965,54.2613109913002 -1.68517146568796,54.2612966125178 -1.68521624737796,54.2612500089678 -1.68522411941788,54.2612302629161 -1.6852184509786,54.2611601673629 -1.68516025980433,54.2609398011325 -1.68515133834454,54.2607150714318 -1.68519466961001,54.2606594795511 -1.685270274383,54.2606039708254 -1.6852904291699,54.2605833589343 -1.68530134580701,54.2605627229791 -1.68531869223339,54.2604953826404 -1.68533178240878,54.2603884091157 -1.68543862311774,54.2602700897332 -1.68543862995305,54.2602691910258 -1.68562425152532,54.2600934844383 -1.68591735602348,54.2598974824873 -1.68607830480454,54.2597369848934 -1.68631540510783,54.2598320297372 -1.68647211485034,54.2598297411983 -1.68668008782684,54.2597268670546 -1.68711195884581,54.2594565585551 -1.68725568860662,54.2593293485179 -1.6873655981041,54.259205644807 -1.68761595186953,54.2591883223113 -1.6879035225471,54.2591197934948 -1.68819553918304,54.2590657413489 -1.68853440379021,54.2591268128558 -1.68886886465695,54.2591510342178 -1.68900374621179,54.2591730344479 -1.68912950158708,54.2591967186252 -1.6893070468669,54.2592510835236 -1.68954618921927,54.2592939257079 -1.6896438004212,54.2591890561678 -1.68974609646235,54.259049966131 -1.68993584693689,54.2589282616164 -1.69008665501812,54.2588684509971 -1.69039756995751,54.2587577486025 -1.69069001727317,54.258662360943 -1.69107154283266,54.2585528261435 -1.69123082251703,54.2585954607805 -1.69178285343787,54.2586696462565 -1.69187190645431,54.2586761626617 -1.69210859375126,54.2586408268771 -1.692375178217,54.2584994587464 -1.69266631410317,54.2583582414344 -1.6936822968375,54.2579752888111 -1.69382229845783,54.2579379079687 -1.69406028638153,54.257914161618 -1.69411566654622,54.2579044185441 -1.6943063725264,54.2578563843804 -1.69450169361648,54.2578002748538 -1.69466466813416,54.2577710369491 -1.69475391869141,54.2577335267706 -1.69484179011559,54.2576942164914 -1.69521164865321,54.2574991937329 -1.69570969400913,54.2573926334213 -1.69604150354798,54.2573629209002 -1.69641044348292,54.2572918803127 -1.69646349704386,54.2573747628323 -1.69709382931998,54.2572459773465 -1.69734627692262,54.2571477780179 -1.69797381994867,54.2569668692745 -1.69819152042293,54.2568083847071 -1.69849515705138,54.2566320543297 -1.69882207720728,54.2564208316008 -1.69917365339557,54.2564037383122 -1.6995973763619,54.256402995051 -1.70008839052322,54.2564248800793 -1.70095550367174,54.2564512876008 -1.70113185777036,54.2564607084843 -1.70132894479667,54.2565959659214 -1.70169815311067,54.2569069390281 -1.70175772956732,54.2569466192189 -1.70180363459183,54.2569691934589 -1.70203942929543,54.2570552196619 -1.70217394296507,54.2571283273608 -1.70223968262834,54.2571734130544 -1.70231290596827,54.2572337909803 -1.70239974906896,54.2573185506634 -1.70247131264864,54.257398690059 -1.70251078466786,54.2574535941919 -1.70253352767405,54.2574940811228 -1.70255137897097,54.2575812762189 -1.7025478431304,54.2576505394288 -1.70250437330887,54.2579226678407 -1.70250224068333,54.2580081070534 -1.70252433783964,54.2581384397059 -1.70261036935818,54.2583364041863 -1.70266350660628,54.2584272800961 -1.70272130331345,54.2585037914441 -1.70289816271501,54.2586732289842 -1.7029528595224,54.2587407480641 -1.70305010549929,54.2588757571917 -1.70326636850745,54.2591279494352 -1.70331650408958,54.2591963558669 -1.70333714365211,54.259318687946 -1.70349459232797,54.259407124285 -1.70363973049057,54.259712150759 -1.70388259676458,54.2603157976762 -1.70388259033045,54.2603166963851 -1.70396622732529,54.2604265142778 -1.70403021864299,54.2604869583869 -1.70429155971659,54.2606502206692 -1.7044901432089,54.2607927544112 -1.70456974000764,54.2608306846966 -1.70468036294106,54.2608129851163 -1.70473988624145,54.2606486217373 -1.70477081727921,54.2606064689415 -1.70484196776504,54.2605329689128 -1.70488066902447,54.2605016170678 -1.70492067921977,54.2604819482321 -1.70505455650477,54.2604336684708 -1.70525193056199,54.2603200444141 -1.70551213788008,54.2601984873587 -1.70551577566018,54.2601319196001 -1.70554249482094,54.2600412395861 -1.7055906525663,54.2599613929037 -1.70566940874647,54.2598861134636 -1.70572953663463,54.2598494229838 -1.70583124305047,54.2598037592817 -1.70592820766184,54.2597662596523 -1.7061420775853,54.2596993944821 -1.70628059561866,54.2596386359649 -1.70648407556708,54.2595195443029 -1.70693909096438,54.2592151694923 -1.70698237783142,54.2591792463917 -1.70701326246198,54.2591433821777 -1.70706456865748,54.2590473708795 -1.70709309313473,54.258933334333 -1.70710113287265,54.2588703711869 -1.70708836192922,54.2587256868733 -1.70698876117468,54.2584926522886 -1.70678748879036,54.258086865334 -1.70758356969831,54.2579440513319 -1.70773540749515,54.2575373234162 -1.70786972570068,54.2572096182347 -1.70798564016592,54.2568710864138 -1.70798387953454,54.2566903998453 -1.70801471162718,54.2564460913257 -1.70832014885829,54.2564567123221 -1.70879121025019,54.25604167788 -1.70907822744093,54.2558276360771 -1.70928709644597,54.2555863611591 -1.70987058236921,54.2557756330743 -1.71021528817121,54.2558707994265 -1.71137869224858,54.256110868929 -1.71190715513474,54.2562621739674 -1.71226415702301,54.2563555672002 -1.71267036382035,54.2564347902616 -1.71294953184796,54.2564740881531 -1.7131748932233,54.2564979829633 -1.71362604417845,54.2565206161356 -1.71374576615393,54.2565208998181 -1.71397923576225,54.256507077587 -1.71412059708466,54.2564894430204 -1.71463369583616,54.2564115905889 -1.71480882858515,54.2563966403703 -1.71490703660678,54.256396872121 -1.71503595366815,54.256403465491 -1.71520314314731,54.2564210199051 -1.71537647269411,54.2564474841243 -1.71550209672534,54.2564729370585 -1.71562774177555,54.2565136637319 -1.7157592894938,54.2565795612513 -1.71615943650709,54.2568609137341 -1.71658466664883,54.2570839227974 -1.71730963177378,54.2572464467743 -1.71738434438979,54.2570920850084 -1.71751052852833,54.2570546444294 -1.71806102350986,54.2569120856913 -1.71829186882489,54.256819183782 -1.71813775493661,54.256683964477 -1.71805590139763,54.2565310335346 -1.71806714812719,54.2564591825042 -1.71810951940139,54.2563145382142 -1.7181422856287,54.2562418395484 -1.71903799149881,54.2561217347883 -1.71963546500278,54.2556180042047 -1.71968933828361,54.2551381683561 -1.72021914826492,54.2550926766585 -1.72299278407831,54.2548545973967 -1.7237686427581,54.2552015649287 -1.72422339631147,54.2553849927332 -1.72439090529039,54.2558105293901 -1.72423258400389,54.2560761136077 -1.72425328833537,54.2561786754846 -1.72521454723074,54.2561323493132 -1.72618947747514,54.2560850569979 -1.72613280875773,54.2558513281315 -1.72645200229723,54.2558484574053 -1.72677441418009,54.2558375073105 -1.72711556887982,54.2557860771163 -1.72749218342408,54.2556925884875 -1.72806399802261,54.2555716860191 -1.72841754829089,54.255501503093 -1.72852115928918,54.2553722670408 -1.72964173980159,54.2551303083671 -1.73026889776219,54.2549816671829 -1.73037811068178,54.2549432767885 -1.73048116795998,54.254917451066 -1.73058721429914,54.2548988198976 -1.73066710878634,54.2548927088278 -1.73074378724989,54.2548946772306 -1.73094316110558,54.2549256690563 -1.73102135180391,54.2549285384728 -1.73110434803116,54.2549125507834 -1.73128752391891,54.2548266164987 -1.73131834514774,54.2548159031066 -1.73202358457364,54.2547051620811 -1.73216489129977,54.2546937957359 -1.73228765144033,54.2546931691755 -1.73291988075951,54.2547170305834 -1.73320246476916,54.2546987873731 -1.73412092195835,54.2546100679557 -1.73506717770073,54.2544880691171 -1.7354867716589,54.2543973464675 -1.73585354265074,54.2543936566245 -1.73624105241596,54.2542929770864 -1.73669415777701,54.2542453595982 -1.73712246883609,54.2542355108575 -1.73716425662815,54.2541718116122 -1.7372337974473,54.2541018826141 -1.73736004926075,54.2540293816867 -1.73757094396763,54.25393990448 -1.73763406084048,54.2539050014742 -1.73770344667662,54.2538593310185 -1.73781297971999,54.2537688234285 -1.73794280289097,54.2536315508922 -1.73816495476935,54.2534424579313 -1.73823755124481,54.2533689410466 -1.73833341958008,54.253257650169 -1.73847142439418,54.2530468104165 -1.73870033329669,54.2527686932894 -1.73872360266079,54.2527310082374 -1.7387345740082,54.2526968896443 -1.73873474469183,54.2526698466571 -1.73869696130206,54.2525610513164 -1.73871725558413,54.2525134766118 -1.73876355013774,54.2524767401091 -1.73888365308627,54.2524150054297 -1.73892056785184,54.2524007102659 -1.73912504642357,54.2523435606452 -1.73918975797733,54.2523158482834 -1.7392605087951,54.2522737739241 -1.73931151915217,54.2522316559946 -1.73933780234197,54.2521975713221 -1.73937848940996,54.2520664839605 -1.73947141041386,54.2519399112714 -1.739498015547,54.2518546146634 -1.73950300187003,54.2518061089824 -1.73949402986478,54.2517638615105 -1.73946974202756,54.2517223898244 -1.73943919104635,54.2516908776954 -1.73939179711591,54.2516611266279 -1.73921430201922,54.2515735926462 -1.73900916543757,54.2514949822126 -1.73892058687694,54.2514345045401 -1.73881687610694,54.2513255656626 -1.73877104780444,54.2512886297652 -1.73868702045164,54.2512291494491 -1.73861048204463,54.251185857746 -1.73854623820309,54.2511596629048 -1.73847726087357,54.2511415444474 -1.738060231543,54.2510731650092 -1.73803269738542,54.2510650194601 -1.73791038623154,54.2509964700593 -1.73767640035349,54.2508584970619 -1.73756020944933,54.2507826836521 -1.73744423126008,54.2506934841517 -1.73727167020662,54.2505475572615 -1.73720918047126,54.2504844388831 -1.73717865496733,54.2504493322017 -1.73715743956116,54.2504025660267 -1.73715605293994,54.2503818987358 -1.73714605645875,54.2502623813404 -1.73715575439358,54.250189626811 -1.7371792123229,54.250122203287 -1.73720879145631,54.2500674623537 -1.7372584848402,54.2499732325951 -1.73733291133008,54.2498502160378 -1.73738549890046,54.2497784540783 -1.73743335632569,54.2497345338407 -1.73753368179483,54.2496574852071 -1.73762925213587,54.2495921058338 -1.73765389761561,54.2495768848845 -1.73766010121743,54.2495562342466 -1.73768022490766,54.2495355240019 -1.73777579473472,54.2494701445105 -1.73789912471201,54.2493769723112 -1.73801946969384,54.2492757086738 -1.73812600405784,54.2491770194134 -1.738247926599,54.2490658758133 -1.73834045735368,54.249000489278 -1.73846226744976,54.2489072233305 -1.73848240120213,54.2488848054159 -1.73860585256161,54.2487718682348 -1.73869512283372,54.2487217480045 -1.73879827813399,54.2486770482543 -1.7388048101864,54.2486041973666 -1.73898515295905,54.2484788036417 -1.73909003294406,54.2484008648418 -1.73934171681981,54.2483996123092 -1.73936694224914,54.2482917618136 -1.73982019085802,54.24796830701 -1.73986182288005,54.2479477326482 -1.74038798182526,54.2474770860136 -1.74090764281345,54.2470926753935 -1.74123110518819,54.2469019084151 -1.74191319131123,54.2465412010701 -1.74282904903361,54.2460847639373 -1.74372505326118,54.2456229770459 -1.74464235450915,54.2451720095326 -1.74658363606596,54.2441532991736 -1.74749787112516,54.2437175770948 -1.74855237464242,54.2431598613869 -1.74987612719589,54.2424679254763 -1.75017318463922,54.2423211041229 -1.75085964583172,54.2419648477644 -1.75369457766577,54.2405363711478 -1.75485654407593,54.239941083384 -1.75596308880438,54.2393636421036 -1.76044131406826,54.2399675753545 -1.76476349540876,54.2405377953521 -1.76867791661721,54.2410414020027 -1.77134427125962,54.241382597416 -1.77716010517567,54.242143060907 -1.78390213744545,54.2430711211388 -1.78736605269245,54.2435382737401 -1.78900061494296,54.2437730350889 -1.79301545881682,54.2442778250169 -1.79566063054834,54.2446364153139 -1.79804087327574,54.2449244244198 -1.79980757051063,54.2451475802571 -1.80274178248261,54.2454382107278 -1.80423260278762,54.2455754059089 -1.80652417202818,54.245802007304 -1.81119033781277,54.2462381393982 -1.81308170052216,54.2464252660058 -1.81493315821371,54.246598915491 -1.8182477693064,54.2469535401533 -1.82008543445619,54.2471386759133 -1.82333272922554,54.2474867656166 -1.82194231058491,54.2460666024508 -1.82052310508258,54.2445959757392 -1.81996830794119,54.2440712607299 -1.81957092139034,54.2437191919682 -1.81912737911787,54.2433922994918 -1.81871450006237,54.2430564669067 -1.8177166761346,54.24210322989 -1.81718811101429,54.24158482935 -1.81675704705949,54.2411922684312 -1.81630354356147,54.2406982355869 -1.81745742773104,54.2400115856665 -1.81817296516118,54.2395192310576 -1.81848866782127,54.2392725396927 -1.81887379757609,54.2389145421399 -1.81920062754982,54.2385510656477 -1.82040363998193,54.2374500898386 -1.82100153371522,54.2368516144891 -1.82214123944214,54.2358304907054 -1.82235528576258,54.2356493168012 -1.82257387785315,54.2354698558502 -1.82315696731768,54.2350959624915 -1.82373719231622,54.2346492876138 -1.82500813153152,54.2337919365706 -1.82594518400978,54.2331237585325 -1.82689891960685,54.2324816521749 -1.82806531469834,54.231639393989 -1.8295841854067,54.2315912321188 -1.83337826182823,54.2314993972284 -1.83557366261214,54.2314538871871 -1.8374053337556,54.2314312081984 -1.83862930091599,54.2306824555773 -1.83917955609282,54.2304036783071 -1.83982519777594,54.2300513508743 -1.84042912925939,54.2297879135479 -1.84108835196108,54.2294841144212 -1.84182264510136,54.2291920896337 -1.84255867795495,54.22887221049 -1.84345263986371,54.2285588206531 -1.84439887876914,54.228196076415 -1.84517130609328,54.2279418164037 -1.84669966333479,54.227372163983 -1.84739988817322,54.2271753887251 -1.8481168693062,54.2269947120758 -1.8498209983478,54.2265484196262 -1.85096029412087,54.226243364985 -1.85192767488752,54.225947971405 -1.85305454536522,54.2256428816129 -1.85410168406816,54.2253143247563 -1.85770384500182,54.2242113556774 -1.85872636508487,54.223886323889 -1.86034921585172,54.2233957622281 -1.86081442947631,54.22325155657 -1.86216560029451,54.2228001911271 -1.86315370991154,54.2226889159836 -1.86507187444516,54.2223873010218 -1.86572089714413,54.222290090965 -1.86846595451834,54.2218914057364 -1.87090110535337,54.2215075127645 -1.87470768920113,54.2209561765076 -1.87635555073878,54.2207116045442 -1.87797270120254,54.2204975264491 -1.87901904076697,54.2203305647445 -1.87944557848316,54.2202770827276 -1.88160965237805,54.2186183261549 -1.88163002180138,54.2184808818654 -1.88172867358706,54.2182940091547 -1.88218491632342,54.2174766752129 -1.88309778589217,54.2156872877986 -1.88364174511449,54.2147243926898 -1.88412067365248,54.213996020649 -1.88482482704041,54.2127834116271 -1.88644848968671,54.2100114856756</coordinates></LinearRing></outerBoundaryIs></Polygon>
  </Placemark>
