  <Placemark>
	<Style><LineStyle><color>ff0000ff</color></LineStyle><PolyStyle><fill>0</fill></PolyStyle></Style>
	<ExtendedData><SchemaData schemaUrl="#Wards__December_2019__Boundaries_EW_BFE">
		<SimpleData name="objectid">3835</SimpleData>
		<SimpleData name="wd19cd">E05009349</SimpleData>
		<SimpleData name="wd19nm">Langley St Mary's</SimpleData>
		<SimpleData name="wd19nmw"></SimpleData>
		<SimpleData name="bng_e">501750</SimpleData>
		<SimpleData name="bng_n">179319</SimpleData>
		<SimpleData name="long">-0.53539</SimpleData>
		<SimpleData name="lat">51.503651</SimpleData>
		<SimpleData name="st_areashape">2019238.38437949</SimpleData>
		<SimpleData name="st_lengthshape">8625.67267726261</SimpleData>
	</SchemaData></ExtendedData>
      <Polygon><outerBoundaryIs><LinearRing><coordinates>-0.528748047317975,51.4970680031781 -0.528520595956562,51.4973771828298 -0.528493004004629,51.497429875835 -0.52847246794245,51.4974404961344 -0.528359772901054,51.4974948180566 -0.528412247307682,51.497521546938 -0.528423620502153,51.4975261839897 -0.528226473631885,51.4978752976734 -0.527989161043597,51.4984460433036 -0.527860332539269,51.4988202857784 -0.527787901649928,51.4991916409502 -0.52774213036864,51.499495008259 -0.527743474034805,51.5002125832176 -0.527799144589747,51.500718684819 -0.527878795472488,51.5011072339218 -0.527978671698592,51.5015869232752 -0.528086845871798,51.5015810888438 -0.528522919197719,51.5015523997817 -0.528907480085539,51.5015112866233 -0.528691871736935,51.5021227624095 -0.528445951572001,51.502778806609 -0.528325513906571,51.5032053883267 -0.528208797449756,51.5036085529083 -0.527874353255699,51.5043714524924 -0.527407417064068,51.5056685672996 -0.527234080550033,51.5057715716557 -0.527104817195169,51.5058931084889 -0.527023603212506,51.5059982575726 -0.52696750262132,51.5061315002183 -0.526794958338078,51.506386530271 -0.526671542923481,51.506595430521 -0.526185234671023,51.507420155635 -0.526184538054905,51.5074417221981 -0.52616903223992,51.5079217604519 -0.526173255363036,51.5080117108057 -0.526225805449943,51.5082129334417 -0.526330822420284,51.5085775288197 -0.526306289131935,51.5088919511302 -0.526347520312732,51.5089985456438 -0.52644084968591,51.5090959958637 -0.526573310863798,51.5091884541172 -0.526694634272471,51.5093131349835 -0.526838617907212,51.5094094234887 -0.526981060815463,51.5095056025316 -0.527389406370718,51.5096204017322 -0.527667911380954,51.5096977021583 -0.52772941490719,51.5097137561676 -0.527799383571077,51.5097326131148 -0.527836476577697,51.5097429672466 -0.527948279860348,51.5097614507782 -0.528006958351872,51.5097325211851 -0.528020483957332,51.5097147120608 -0.528050417780397,51.5096781399459 -0.528090740617539,51.5096804443148 -0.528127917743757,51.5096881925944 -0.528115963270441,51.5097015262831 -0.528106974031576,51.5097113021269 -0.528109565854195,51.5097230208028 -0.528116902057821,51.5097644649014 -0.528110767114848,51.5098183253457 -0.528163863111014,51.5098261834214 -0.528239911175177,51.5098370261633 -0.528318739542566,51.5100268855151 -0.528513837782312,51.5100563011208 -0.528854281302536,51.5100884383897 -0.529177990943266,51.5100610340033 -0.529384574969109,51.510043846659 -0.530240737034229,51.5099969540037 -0.531069283265157,51.5099515958943 -0.532377384453547,51.5098762757192 -0.532568553873335,51.5098912525199 -0.532809965694939,51.5099104524252 -0.533405630571396,51.5098945285139 -0.533953874643374,51.5098753113519 -0.534077683931933,51.5098346083181 -0.534461755462506,51.5098106404663 -0.534697254653854,51.5097920075519 -0.535760686671762,51.5097503492719 -0.5362703440364,51.5097189477056 -0.537416011840641,51.5096729938598 -0.538506578150589,51.5096371307577 -0.539201731062243,51.509619711162 -0.539714008407283,51.5095991149436 -0.540370461872053,51.5095731168948 -0.540937578372649,51.5095504993459 -0.541373141329277,51.5095397295052 -0.541609602803241,51.5095353857275 -0.541616757572331,51.509534575379 -0.54172349772707,51.5095332043228 -0.54177041353963,51.5095077170132 -0.541830734740725,51.5094680132567 -0.54198677467951,51.5093665711607 -0.542067500219712,51.5092758799091 -0.542252996309906,51.5090632432477 -0.542308084112983,51.5089605473493 -0.542531019793908,51.5089741015954 -0.542552508277601,51.509022912306 -0.542530846016822,51.5091170337892 -0.542492707094585,51.5092730683573 -0.5425095120326,51.5094683503344 -0.54309265101088,51.5094387292652 -0.543091674404414,51.5094692822948 -0.543552048696408,51.5094480243065 -0.544973142044658,51.5093937259604 -0.54868406020638,51.5092076299161 -0.550388308809208,51.5091297955903 -0.551316942405515,51.5091115908537 -0.55163555446005,51.5091056328292 -0.552017734008534,51.5090959644721 -0.552121680977607,51.5090927513732 -0.552993230574926,51.5090990032391 -0.553949082325138,51.5091332546925 -0.554644774460458,51.5091885681846 -0.555170794048039,51.5092327999291 -0.555913741936742,51.5092967787768 -0.556481315439178,51.5093496061777 -0.556841540478039,51.5093953876783 -0.557248051325777,51.5094391301238 -0.557489217957682,51.5094663656512 -0.55752666340713,51.5094695225468 -0.557563905383177,51.5094753745949 -0.558353662397483,51.5095659827156 -0.558903986786009,51.5096158899769 -0.559320282662492,51.5096659483206 -0.560127411460513,51.5097522626874 -0.560549243000479,51.5098114641055 -0.561772426189151,51.5099595042204 -0.562917930730267,51.510099388877 -0.563246454049694,51.5101448528971 -0.563714465256742,51.5102018207806 -0.56397106484503,51.5101995666075 -0.564092534720732,51.5098665469637 -0.564150877147443,51.5097080527242 -0.56417005355518,51.5096462587012 -0.564202623204934,51.5095288917869 -0.564235508363939,51.5094015509071 -0.564252058832089,51.5093325327364 -0.564268656788977,51.5092167688944 -0.564284379849548,51.5091287723269 -0.564285625522081,51.50908923332 -0.564288617391357,51.5089490302626 -0.564291704325217,51.5087152483275 -0.564292254757572,51.5082827668593 -0.564243351861794,51.5082812695604 -0.564195872150427,51.5082797896475 -0.564125353625429,51.5082780279242 -0.564040428902232,51.5082733940964 -0.563905146982117,51.5082681432923 -0.563761224694661,51.5082618874074 -0.563666295089502,51.5082580292197 -0.563620151662715,51.5082556671067 -0.563569822764065,51.5082541520782 -0.563574573383356,51.508193889954 -0.563538614615883,51.5081925507426 -0.563504081880878,51.5081912298692 -0.563465154323865,51.5081898543073 -0.563469623923176,51.5081422640835 -0.56347741191827,51.5080308890689 -0.563481563711645,51.5079895876631 -0.563484037490701,51.5079563559629 -0.563493484233924,51.5078413153595 -0.563631585702687,51.5078475003737 -0.563667544180764,51.5077130958287 -0.563700709772585,51.5075767705483 -0.563733697597236,51.5074423305365 -0.563749772369769,51.5073921855429 -0.563919583766185,51.5073987572988 -0.563932604630815,51.5073512725692 -0.563945455663878,51.5073091783542 -0.563966226431384,51.5072419211661 -0.563995066894133,51.5071523776263 -0.564030173064801,51.5070449327159 -0.56405573603562,51.5069651478183 -0.563980880008535,51.5069615353869 -0.563893080347029,51.5069577645598 -0.563747707924791,51.5069523900671 -0.563795325846863,51.5068136338544 -0.563608261859918,51.5068041540323 -0.563573730218797,51.5068028322768 -0.563573758540395,51.506801933408 -0.563422743555001,51.506794691927 -0.563268786808371,51.5067865150309 -0.563276653705212,51.5067668339691 -0.563314300371486,51.5066693081111 -0.56330711315443,51.5066674226168 -0.563175284336622,51.5066432451029 -0.563083492018847,51.506630435331 -0.563020271801956,51.5066233687432 -0.562982621705508,51.5067209843963 -0.562970053230182,51.5067540916229 -0.562946247532235,51.5067780718265 -0.562903131039815,51.5067739480308 -0.562773816153827,51.5067642746181 -0.562787752701495,51.506732981692 -0.56282241100059,51.5066398246455 -0.5628523897957,51.5065556896801 -0.562753693901827,51.5065320072367 -0.562546466379741,51.5064800273738 -0.562568186582481,51.5064317491817 -0.562258530675121,51.5063803120309 -0.562196820526147,51.506370566738 -0.562165954542671,51.5064376109825 -0.562095687910219,51.5064241648678 -0.561933834439521,51.5063952128947 -0.561764764282064,51.506365273959 -0.561589903490602,51.5063343646042 -0.561337653930637,51.5062898312046 -0.561160091082889,51.5062579897665 -0.56084909860561,51.506203835716 -0.560903594942468,51.5060732560125 -0.560700194349496,51.5060357026988 -0.560619952649218,51.506022133375 -0.560591234838407,51.5060172860526 -0.560512390810321,51.506004633009 -0.560498509653518,51.5060341288349 -0.560422514745948,51.5060215097704 -0.560352339033195,51.5060089629234 -0.560259150948358,51.5059915486835 -0.560257639828705,51.5059942268999 -0.560250570963517,51.5059923426659 -0.560094307815194,51.5059670526418 -0.560045485279865,51.5059592627177 -0.559920817528117,51.5059379559984 -0.559881907104644,51.5060301608995 -0.559750050839457,51.506006968276 -0.559747228675654,51.5060060353323 -0.559742464989891,51.5060176631045 -0.559612096162807,51.5059962861084 -0.559484462721509,51.5059748526113 -0.559361191344234,51.5059544616462 -0.559429407611824,51.5058033752494 -0.559247510302505,51.5057696792346 -0.559167151424634,51.5057561074636 -0.559100420185628,51.5059090103839 -0.559024454284277,51.505895492442 -0.558833944071833,51.5058598916241 -0.558773807897816,51.5058492655125 -0.558706455065611,51.5058376506451 -0.5587006643308,51.5058366803274 -0.558692051465603,51.5058347770402 -0.558564591024902,51.5058116370382 -0.558554553659687,51.5058097153493 -0.558442915554095,51.5057858711866 -0.558391331153251,51.5057753489971 -0.55831405339765,51.5057582185076 -0.558225315242259,51.5057391496694 -0.558198170398968,51.5057334218566 -0.558077921333606,51.5057076731394 -0.558085733441509,51.5056897901518 -0.558001100029578,51.5056761650666 -0.55788356402867,51.5056585397322 -0.557731665164367,51.5056305134617 -0.557641387815843,51.5056150212321 -0.557612670601367,51.5056101731781 -0.557574035640473,51.5056034057118 -0.557533856608482,51.5055966192584 -0.557467928992671,51.505585022081 -0.557339130722473,51.5055591666322 -0.55732766746891,51.5055572282114 -0.557217428215492,51.5055342983715 -0.55716156793263,51.505523723076 -0.557080017508621,51.5055065392403 -0.557049904320826,51.5055007755682 -0.556962533439719,51.5054835201007 -0.556956862340795,51.5054825511662 -0.556843654861914,51.5054595844792 -0.556737752347596,51.505438505034 -0.556689571615456,51.5055493841495 -0.55668951472747,51.5055511809862 -0.556650627871312,51.5056423969673 -0.556434655664583,51.5056343476777 -0.556424679617449,51.505634224994 -0.556303748886458,51.5056300409863 -0.556274919415994,51.5056287871939 -0.556223196241502,51.5056263534946 -0.556152562744569,51.5056245854919 -0.556148287708783,51.505624532908 -0.556064738031857,51.5056217067615 -0.556028781567038,51.5056203661386 -0.556007167289106,51.5056201002538 -0.555932405362638,51.5056173821145 -0.555903547438491,51.5056170270983 -0.555778311862435,51.5056136888054 -0.555775462799997,51.5056136537522 -0.555716348027016,51.5056120272053 -0.555657352810046,51.5056104020995 -0.555536393749416,51.5056071161676 -0.555533543247331,51.5056070810908 -0.555448540636628,51.5056051358431 -0.555409733705599,51.5056037599513 -0.555297415843294,51.5056014784342 -0.555294565341871,51.5056014433516 -0.555117404715826,51.5055983635894 -0.555088545374029,51.505598008355 -0.555076404068676,51.5057561662606 -0.555061040547847,51.5059222848424 -0.555048325199441,51.5060948186673 -0.554839081949033,51.5060580824091 -0.554845526064367,51.5059484885983 -0.554852852131703,51.5058522994987 -0.554857296102139,51.5057121166329 -0.554867442251882,51.5055269657201 -0.554867727113316,51.5055179797423 -0.554868125731378,51.5054604508676 -0.554871202257978,51.5053634010468 -0.554873427043526,51.5052932192723 -0.554873484003707,51.5052914224362 -0.554875677436261,51.5052222294151 -0.554876987798407,51.5051808931958 -0.554878013301966,51.5051485429546 -0.554879665472741,51.5050964239201 -0.554880263675686,51.5050775530956 -0.554881059622943,51.5050074436492 -0.554884737117649,51.5048914331092 -0.554886446252493,51.5048375163374 -0.554882171294124,51.5048374637071 -0.554425120117662,51.5048003731587 -0.554241373267223,51.5047765342803 -0.554231284431462,51.504824954331 -0.554229688942768,51.5048303281924 -0.55421149460926,51.504902020895 -0.5541790171994,51.5049258934719 -0.554151015944021,51.5050371092188 -0.554112296520822,51.5050330363115 -0.554072003093363,51.505029843221 -0.554067728118213,51.5050297905611 -0.553969780771778,51.5050276847667 -0.553923674126201,51.5047546418336 -0.553925383671175,51.5047456734055 -0.553890853956468,51.5047443487925 -0.553714465635834,51.504761953006 -0.553487438957387,51.5047879224288 -0.553262977298017,51.5048229125209 -0.553048723357997,51.5048544320427 -0.552885198591362,51.5048784863219 -0.552747847822851,51.5048938726996 -0.552521299595711,51.504900967964 -0.552364445546829,51.5048945384263 -0.552173488420806,51.5048733050308 -0.552002349763552,51.5048640029539 -0.551882048184551,51.5048400446789 -0.551814814359386,51.5048248312897 -0.551825446469819,51.5048977785427 -0.551832204699308,51.5049131441529 -0.551847400106397,51.5049322098318 -0.551857065884142,51.5049458137719 -0.551889454674485,51.5049696766788 -0.552164837911046,51.5051456743251 -0.552150353292987,51.5051490916425 -0.552092185427757,51.5051663531432 -0.551975876647721,51.5051999780724 -0.551958366340017,51.5052051555808 -0.551843538987965,51.5052370002183 -0.551818846074669,51.5052438875319 -0.551709773710026,51.5052740954248 -0.551666124743002,51.505197054886 -0.551553950908228,51.5051902772427 -0.551557629409114,51.5051642524673 -0.551567041267981,51.5051409960967 -0.551582523803773,51.5051061274803 -0.551601176187992,51.5050650052388 -0.551146607413673,51.5050396184446 -0.551130407178623,51.5051419007694 -0.551097473346578,51.5051352015636 -0.550935575812698,51.5051080323419 -0.550848094424756,51.5050943670045 -0.550700510370116,51.5050691716758 -0.550697568925722,51.5050682370414 -0.550572709062858,51.505053210809 -0.550546906015193,51.5050501954649 -0.550519616080152,51.5050453633161 -0.550436586547813,51.5050299550883 -0.550372059461781,51.5050192695785 -0.550369237603858,51.5050183355129 -0.550313351391178,51.5050086558904 -0.55025167479975,51.5049980055124 -0.550182928562986,51.5049854702494 -0.550178682211989,51.5049845185865 -0.550115665473947,51.5049711548215 -0.550051224272918,51.5049577734275 -0.550036941160817,51.5049549002516 -0.550024082548067,51.5049520446684 -0.550022599462028,51.504953823892 -0.549981112238107,51.5049434236306 -0.549939623620249,51.5049330224374 -0.549898286018047,51.5049216339515 -0.549816734809294,51.504900849104 -0.549812145453386,51.5049106811404 -0.549244333756491,51.5047778104694 -0.54933397017967,51.5045855514805 -0.549222227786954,51.5045652923121 -0.549091926216507,51.5045421068846 -0.549030250485624,51.5045314558389 -0.54896005216124,51.5045198001921 -0.548835421606152,51.5044975837893 -0.548806612065914,51.5045853261713 -0.548774752614376,51.5046830095062 -0.548731754183797,51.5046752859661 -0.548691576131872,51.5046684964996 -0.548657218473221,51.5046617789782 -0.548533985044473,51.5046404778602 -0.548417996559633,51.504619267094 -0.548403554106129,51.5047557306487 -0.548401498756038,51.5047754827167 -0.547824051578415,51.5046730503572 -0.547825991230707,51.5046568928479 -0.547826105714726,51.5046532982746 -0.547828131221112,51.50463444506 -0.547828932578439,51.5046092839451 -0.547829132917599,51.5046029936664 -0.547840873917787,51.5044619115631 -0.547841160108853,51.5044529255789 -0.547857123692203,51.5042687456312 -0.547857438505613,51.5042588607786 -0.547651483757776,51.5042536160727 -0.547470026555857,51.5042513709014 -0.547418277152298,51.5042498313315 -0.547414736091788,51.5042677674688 -0.547406186353602,51.504267661672 -0.547354318829266,51.5042661206128 -0.54735486277746,51.5042490466105 -0.547343343104589,51.5042489040566 -0.547354339163518,51.5039037476293 -0.547351517427943,51.5039028134874 -0.547352175857355,51.5038821458087 -0.546968676861241,51.5038414403145 -0.546430838568932,51.5038087121105 -0.546099346597887,51.5038135963042 -0.54539943528136,51.5038004299869 -0.54524954200891,51.5038030676587 -0.545096423687462,51.5038137554886 -0.54493030736075,51.5038296755495 -0.544756713382808,51.5038490986763 -0.544442317041101,51.5039027347954 -0.544052585405691,51.5039717063031 -0.543866007717213,51.5040368150056 -0.543628753112334,51.5041561312736 -0.543337421846661,51.5040752055338 -0.542606470038166,51.5037729786544 -0.542565504133073,51.5037499956631 -0.54249628161867,51.5037041883403 -0.542438869173137,51.5036531331609 -0.542307342513763,51.5035309477818 -0.542229810910574,51.5034328963357 -0.542196977281773,51.5033785502522 -0.542153107918086,51.5033051887282 -0.542128049214492,51.5031897198278 -0.542142785516811,51.5030892182403 -0.542174973284606,51.502985337394 -0.542201116733766,51.5028884835652 -0.542232008609585,51.5028214441188 -0.542335632161562,51.502556546479 -0.542483473959604,51.5021681396957 -0.542579598403971,51.5018626952934 -0.542743543526542,51.501241565227 -0.542929418756612,51.500699817666 -0.543117613147401,51.5003119132332 -0.54320685384815,51.5001322396139 -0.543120840786617,51.5001212840399 -0.542529967024303,51.5000357367213 -0.541567063214281,51.4999158989355 -0.541251369107477,51.4998733193776 -0.540882476591169,51.499830077477 -0.539454272862373,51.4996620935794 -0.539201765450787,51.4996310826831 -0.538954842222157,51.499603736742 -0.538729473110951,51.4995784562196 -0.538552853114585,51.4995591759358 -0.538450902516336,51.4995489166336 -0.538386269945637,51.4995418188403 -0.538311458411446,51.4995372909898 -0.538190689252221,51.4995285954903 -0.538107327447811,51.4995239609925 -0.537999328717776,51.4995208170335 -0.537869865588424,51.4995165072012 -0.537760385030268,51.4995151430049 -0.537681182687567,51.4995141560301 -0.537606198683542,51.4995150200217 -0.537513995992936,51.4995156684675 -0.537425954109443,51.4995199647012 -0.537356673323371,51.4995244956188 -0.537219449797433,51.4995362689909 -0.537131233762577,51.4995459572882 -0.537047411692738,51.4995556994024 -0.536954774271443,51.4995662316747 -0.536920362699729,51.499472310162 -0.536905835924181,51.4994325739073 -0.536893727485003,51.4994026675618 -0.536892445608998,51.4993981563504 -0.536880394862645,51.4993701381958 -0.536871165466584,51.4993430535445 -0.536852590097984,51.4992924805851 -0.536847495670735,51.4992735387208 -0.536838178545806,51.4992491497476 -0.536831540273028,51.499230188631 -0.53681858183643,51.4991859775815 -0.536809093499544,51.4991669809231 -0.536799921726225,51.4991380994268 -0.536797273089603,51.4991317736178 -0.536776082356906,51.4990738860917 -0.536758931539918,51.4990233299674 -0.536744491368378,51.4989808979747 -0.536735377214907,51.498950219634 -0.536728767811886,51.4989303596397 -0.536727399603706,51.498928545025 -0.536726234315086,51.4989204392598 -0.536715723220124,51.4988888442691 -0.536703759041253,51.4988581303808 -0.536665619384026,51.498743396403 -0.536661747938466,51.4987307625553 -0.536660669000712,51.4987199610868 -0.536647966900295,51.4986640668534 -0.536639629950793,51.4986091253846 -0.536638204207688,51.4986091076029 -0.536625088135756,51.498525340289 -0.536622756143443,51.4985091296336 -0.536618881761752,51.498492899741 -0.536616552651885,51.4984765991986 -0.536615644963031,51.4984604063068 -0.536613285628431,51.4984450945356 -0.536609409814849,51.4984288646241 -0.53660707780345,51.4984126548665 -0.53660617155887,51.4983964619923 -0.536603810790109,51.4983811502024 -0.536599934984781,51.49836492029 -0.536432291498657,51.498291810143 -0.53614110887432,51.4981631311018 -0.534416808873314,51.4972109876287 -0.534163322158193,51.497570195138 -0.534013943487676,51.4977795863867 -0.533719742898911,51.4981932106517 -0.533614116535711,51.4983420179565 -0.53361109348877,51.4983473737287 -0.533582453484758,51.4983847724206 -0.533576522714655,51.4983918902912 -0.533568991893053,51.498400785712 -0.533557098770798,51.4984123242716 -0.533517102540642,51.498400136893 -0.532964588962966,51.4982457957407 -0.532878868262644,51.4982222490327 -0.532793176491858,51.4981978042945 -0.532727469041495,51.4981799014161 -0.532643292412122,51.4981563738524 -0.532556175185156,51.4981319111052 -0.532374878858857,51.4980810077657 -0.532252102441323,51.4980462097377 -0.532147766448189,51.4980179351784 -0.532126358140306,51.4980113744344 -0.531975049632401,51.4979699253045 -0.531718038019227,51.4978983863624 -0.531355296966464,51.4977976540087 -0.531345291333354,51.4977948319259 -0.531312454810359,51.4977853412111 -0.531262514467816,51.497772130199 -0.531212483494956,51.4977580197014 -0.531166790025064,51.4977457601645 -0.531131129614996,51.4977354247261 -0.531095469193079,51.4977250901758 -0.531059661857193,51.4977156512044 -0.531024002908787,51.4977053166507 -0.530988313693599,51.4976958791369 -0.530952654778582,51.4976855445618 -0.530916876380778,51.4976752075799 -0.530814084538272,51.4976469502698 -0.530795617205267,51.4976413253519 -0.530691281703427,51.4976130494947 -0.530592736909517,51.4975857444259 -0.530184484069193,51.4974709542654 -0.530088762403655,51.4974444934572 -0.529988823041832,51.4974162711705 -0.52980456034726,51.4973654174724 -0.529768873090608,51.497355980509 -0.529733213336463,51.4973456446508 -0.529697555039444,51.4973353088001 -0.529661895319387,51.4973249729206 -0.52962466434825,51.4973155165593 -0.529457624090857,51.4972684733516 -0.529354834141702,51.4972402156772 -0.52934907401968,51.497238345889 -0.529279122767953,51.4972194886211 -0.529222057216876,51.4972025913668 -0.529119267578553,51.4971743334886 -0.529082065796369,51.4971639780915 -0.528756628370304,51.4970708076128 -0.528748047317975,51.4970680031781</coordinates></LinearRing></outerBoundaryIs></Polygon>
  </Placemark>
