  <Placemark>
	<Style><LineStyle><color>ff0000ff</color></LineStyle><PolyStyle><fill>0</fill></PolyStyle></Style>
	<ExtendedData><SchemaData schemaUrl="#Wards__December_2019__Boundaries_EW_BFE">
		<SimpleData name="objectid">6389</SimpleData>
		<SimpleData name="wd19cd">E05012162</SimpleData>
		<SimpleData name="wd19nm">Hartpury &amp; Redmarley</SimpleData>
		<SimpleData name="wd19nmw"></SimpleData>
		<SimpleData name="bng_e">376525</SimpleData>
		<SimpleData name="bng_n">228570</SimpleData>
		<SimpleData name="long">-2.343</SimpleData>
		<SimpleData name="lat">51.95512</SimpleData>
		<SimpleData name="st_areashape">72736845.302521</SimpleData>
		<SimpleData name="st_lengthshape">62417.1336854504</SimpleData>
	</SchemaData></ExtendedData>
      <Polygon><outerBoundaryIs><LinearRing><coordinates>-2.35137852244174,52.0213590290394 -2.35157404095137,52.0210239914379 -2.35171424647488,52.0208679860034 -2.35207411052282,52.020682649508 -2.35222222636802,52.0206012220587 -2.3526210663497,52.0203609392882 -2.35280413300995,52.0202928889511 -2.35323227271693,52.0202493586743 -2.35356837953928,52.0201917227179 -2.35373420571173,52.0201471816255 -2.35397112000696,52.0200664738499 -2.35405539608751,52.0200266713269 -2.35415235038352,52.0199489908703 -2.35432990846454,52.019731839158 -2.35440965298341,52.0196811747242 -2.35470395724104,52.0196712993794 -2.35583947815225,52.019707507198 -2.35624879598059,52.0196855055747 -2.35654088701296,52.0195785592634 -2.3568123270262,52.0194438104984 -2.35702334368392,52.0192201714892 -2.3573056383362,52.0191662836165 -2.35771499274582,52.0191497593873 -2.35810086727878,52.0191117335285 -2.35841754139413,52.0189848433526 -2.35852505818075,52.0189521576578 -2.35863271013814,52.0189212696185 -2.35896149749415,52.0188519560777 -2.35917938317954,52.0187676995334 -2.35939463549413,52.0187148205392 -2.35982784220127,52.0185867612341 -2.36014350019748,52.0185138891191 -2.36027711853923,52.0184550565723 -2.3603585125927,52.018431437349 -2.3604240124912,52.0184185631697 -2.36047935857512,52.0184130008504 -2.36059011426719,52.0184099649905 -2.36088850964217,52.0183721972532 -2.36147284654489,52.0181825483801 -2.36165189839204,52.0181559326311 -2.36189808328206,52.0181551753847 -2.36204947241661,52.018125047812 -2.36208777648239,52.0181815559573 -2.36307674606578,52.0181218811214 -2.36342341145441,52.0180955534157 -2.36439727926228,52.0177896363426 -2.36464860468508,52.0176970870802 -2.36484664303809,52.0176713057871 -2.36501219017152,52.0176096715529 -2.36518521879121,52.0175668901122 -2.3651977478148,52.0174823616439 -2.36553693078075,52.0174380737677 -2.36570294505254,52.0174339622639 -2.36657587236287,52.0174384357171 -2.36776851025575,52.0173394376085 -2.36853328762152,52.017298394067 -2.36867310791795,52.0172943604666 -2.36883316299813,52.0172668942712 -2.36910067061014,52.0171860591743 -2.36921830726176,52.0171434447302 -2.36926640418732,52.0171333175123 -2.36933771080546,52.0171259027591 -2.36945715094923,52.0171273249225 -2.37040654704835,52.0170371530902 -2.37051151546586,52.017046709708 -2.37055822951112,52.017043866199 -2.37061342193242,52.0170347041723 -2.37069920918044,52.0170056712612 -2.37177366133473,52.0167109707994 -2.37318194844515,52.0164403680576 -2.37326702398797,52.0164995104525 -2.37533338622269,52.0159903111506 -2.37592295105988,52.0157474532454 -2.377184381749,52.0151643914205 -2.37879693151796,52.014407610102 -2.37985037552788,52.0138872069897 -2.37995348642695,52.013848225017 -2.38006548912684,52.0138235941769 -2.38058808569931,52.0137652782398 -2.3817415580643,52.0135259576985 -2.38240511193146,52.0134159435889 -2.38267703598942,52.0133512421905 -2.38279747724374,52.01330222419 -2.38459424731304,52.0128082094022 -2.38698268471681,52.0121665271175 -2.3894784952912,52.0124846588604 -2.39077645278256,52.0126232698776 -2.39122561412764,52.0126613267387 -2.39165606429518,52.0127300931133 -2.39206884023882,52.0127835478221 -2.39289223171328,52.0129587700424 -2.39303339231102,52.0127803308627 -2.39317413554892,52.0127052581849 -2.39310816424087,52.0126622450635 -2.39322669027231,52.0123823131944 -2.39329007416565,52.0123083070695 -2.39332919435094,52.0122758182081 -2.39342620623687,52.0122143740439 -2.39371655064188,52.0120884660269 -2.39407530338838,52.0117905612699 -2.39403750602212,52.0116315053715 -2.39403436115664,52.0116153368302 -2.39404694165444,52.0113788123451 -2.39404519044191,52.0111792784239 -2.3942661662272,52.0107883560846 -2.39443274368038,52.0105234518581 -2.39462696418225,52.0100687121694 -2.39470244251785,52.009868019181 -2.39476426833233,52.0094397895141 -2.39474052511443,52.0092259474768 -2.39476698672588,52.0089291544169 -2.39481484580013,52.0085656870288 -2.39475878016772,52.0081595138071 -2.39469700928041,52.0079241376977 -2.39470453012424,52.0077820980407 -2.39470599056577,52.007620213376 -2.39485849440756,52.0070677304093 -2.39488192892399,52.0067547684504 -2.39494342932216,52.0066178503995 -2.39496935591868,52.0064245144132 -2.39554250094199,52.0058300805442 -2.39556109098668,52.0057859753461 -2.39556505779682,52.0057454248486 -2.39555747026149,52.0057157885576 -2.39539468048959,52.0054259241116 -2.3953334884169,52.0052562507095 -2.39505104606514,52.0049506086389 -2.39496990401182,52.0048340329058 -2.39489871635553,52.004688571082 -2.39488335167332,52.0042660828623 -2.3949821749839,52.004235190272 -2.39510158739613,52.0037321641857 -2.39512873874803,52.003678143022 -2.39518940180939,52.00361052658 -2.3954886913462,52.0033613538425 -2.39582509067249,52.0026895155974 -2.3958493504265,52.0026211221721 -2.39587856637632,52.0024744248705 -2.39587871410846,52.0021642380762 -2.39636499305492,52.0016285156288 -2.39662529708969,52.0012509384729 -2.3967781930384,52.0010742520256 -2.39706611671756,52.000860168044 -2.39744516830981,52.0005612855373 -2.39790659926683,52.0003564998543 -2.39830539088575,52.0001583074435 -2.39892511098219,51.9997371739138 -2.39942395452845,51.9993246275015 -2.39951519127826,51.9986041763238 -2.39949355165982,51.9979668007373 -2.39933339888799,51.9973245023758 -2.39923581092176,51.9969921770302 -2.3991723623912,51.9965823460657 -2.3990184898963,51.9961459478794 -2.39874895380315,51.9961405694073 -2.39867023171437,51.9961336451517 -2.39828527534156,51.9960864110842 -2.39805481877488,51.9960458443048 -2.39731901231295,51.99585589139 -2.39639654261763,51.9956333052355 -2.39581116996157,51.9954779795605 -2.3950559113008,51.9952314503637 -2.39480043975556,51.9951586028728 -2.39462969796602,51.9951205262545 -2.39441521987589,51.9950798986556 -2.39425625140921,51.9950560730426 -2.39420817775967,51.9950517394853 -2.39419712746888,51.9949556019591 -2.39364917060571,51.9949295717924 -2.39276662871045,51.9947644375584 -2.3930873692736,51.993965834421 -2.39358681515459,51.993952481377 -2.39384889282025,51.9927791697222 -2.39409068289033,51.9924573880754 -2.3942237982594,51.992190798916 -2.39417686657102,51.9919878215723 -2.39332661016897,51.9923493861942 -2.39296364609954,51.9924782325692 -2.39271962970685,51.9925599412045 -2.39210953617931,51.99274452706 -2.39168089956687,51.9928619027831 -2.39138306744726,51.992942080337 -2.39088022537342,51.9930605989108 -2.39039155467612,51.9931521029073 -2.38951315023705,51.9932926229511 -2.38905054702489,51.9933579697192 -2.38836961491329,51.9934357195866 -2.3874978293056,51.9935095992478 -2.38569436213983,51.9936333581125 -2.38466980545283,51.9937337838239 -2.38332827638287,51.9938838629088 -2.38245707606213,51.9940287142564 -2.3819640919775,51.9941246934852 -2.381468375614,51.9942243649008 -2.38046814855067,51.994449615707 -2.37971821184514,51.9946363902282 -2.37913266522277,51.9948082475648 -2.37874186159872,51.9949326469082 -2.37816417794098,51.9948122639153 -2.37772045361241,51.9946985490517 -2.37746345165835,51.9946256690845 -2.37700097555503,51.9945381680313 -2.37652811355563,51.9944146537823 -2.37631626649406,51.994341627648 -2.37611310376989,51.9942586851452 -2.3759112552145,51.9941603690014 -2.37572838882153,51.9940629799826 -2.37549138022386,51.9939244169284 -2.37497873807467,51.9935799112894 -2.37449445665235,51.9933233980748 -2.37434394996699,51.9932609585579 -2.3742708567461,51.9932368328884 -2.37372071423863,51.9931028573887 -2.37331799536991,51.9930214427884 -2.37262105464844,51.9929237917409 -2.37221720994904,51.9928801280335 -2.37184558523559,51.9928408556719 -2.37147781543233,51.9927593242665 -2.37121952122839,51.9926873345575 -2.3708105253304,51.9925429226545 -2.36901759131011,51.9918293121576 -2.36885222083066,51.9917390486782 -2.36872928040162,51.9916539548238 -2.36862809059973,51.9915706807776 -2.36825305515615,51.9911277413306 -2.36797235485473,51.9906340819079 -2.36758695943416,51.9899942386809 -2.36716420709362,51.9894102380607 -2.36713343082784,51.9893761785373 -2.36705716012228,51.9893143972224 -2.36701323415446,51.9892875687205 -2.36693427968321,51.9892500639582 -2.36600245362323,51.9889194090105 -2.36599955704158,51.9889176207378 -2.36609003201658,51.9887626497112 -2.36556159644121,51.9884235452353 -2.36604077606622,51.987903248299 -2.36625799330356,51.9877569609133 -2.36666652474689,51.9874832522031 -2.36750934819572,51.9867254221712 -2.36772583589501,51.9864909596493 -2.36782184232675,51.9864852668473 -2.36803813054184,51.986212153377 -2.36833677368399,51.9858794606552 -2.36840184201572,51.9858199342476 -2.36855382866006,51.9857007230699 -2.36927078267815,51.9852381847575 -2.37024102693532,51.9847576795642 -2.37037185785316,51.9847240119287 -2.37103598938988,51.984397353664 -2.37232248115689,51.9837774159314 -2.37257767033872,51.9836399890197 -2.37349334090917,51.9829142592069 -2.37375901481543,51.9826382874936 -2.37417021064363,51.9821766072816 -2.37446150215817,51.9818349397396 -2.37465634982758,51.9816329846026 -2.37485559841861,51.9814264307445 -2.37538147839328,51.9809428098474 -2.37531276529629,51.9809088736272 -2.37543036081376,51.9808590632797 -2.37582702821405,51.9804154895668 -2.37623219158119,51.979768664307 -2.3765385659186,51.9793109048073 -2.3767535091476,51.978902063442 -2.37693656936775,51.9785139961423 -2.37713443045924,51.9781446674154 -2.37729689618194,51.9777207130808 -2.37737594436756,51.977599118606 -2.37744377841033,51.9775287040547 -2.3775189964907,51.9774655456479 -2.3776275231116,51.9773950896458 -2.37808722372973,51.9771733146832 -2.37853413923043,51.9770020028953 -2.37871416278991,51.9769403052217 -2.37879548466015,51.9769040007334 -2.37888819562856,51.97685157147 -2.37899821115487,51.9767730204117 -2.37910795542236,51.9766764930532 -2.37915711410718,51.9766268999977 -2.37922336006519,51.976539411536 -2.37931722916784,51.9762829449759 -2.37943077583901,51.9761108150646 -2.3793600654571,51.9758395084353 -2.37911163693922,51.9753755274084 -2.3789394010745,51.9749786229434 -2.37935493276391,51.9748892016644 -2.37955488218402,51.9749424873462 -2.38008792392489,51.9751368019349 -2.38018103433224,51.975302783521 -2.38027935149223,51.9753888435185 -2.3804022685984,51.9758145776479 -2.38086166032122,51.9760702465968 -2.38093616902571,51.9761086553743 -2.38100193694741,51.9761354070407 -2.38105450699408,51.9761487196631 -2.38110114212236,51.9761557597033 -2.3811681292069,51.9761564421566 -2.38128448023088,51.976146178643 -2.38138038024679,51.9761305885227 -2.38143271414709,51.9761160375073 -2.38147913589068,51.9760979110903 -2.38154725017736,51.9760617373614 -2.38165080627211,51.9759157037421 -2.38184456379538,51.9757478952493 -2.38174968561979,51.9748652903319 -2.38162871544325,51.9741608258577 -2.38152527573704,51.9739804081371 -2.38153301153007,51.9738734232697 -2.38206621010726,51.9733942418222 -2.38211164237427,51.9732601704073 -2.38217476819025,51.973145815042 -2.38224507161059,51.9730286501136 -2.38240320853986,51.972795252227 -2.3825209367231,51.9727786921354 -2.38271619269762,51.9727888435695 -2.38277565494999,51.9727661797681 -2.38283508655064,51.9727399215173 -2.38312630247591,51.9725735913282 -2.38320422344238,51.9724914552412 -2.38383805264475,51.9728940429851 -2.3839824386201,51.9729349176967 -2.38412835472759,51.9729721927258 -2.38457598221712,51.9730462339535 -2.38493353560318,51.973156610347 -2.38592053356645,51.9733232575461 -2.38687281288944,51.9735134693636 -2.3869706521527,51.9733755383943 -2.38720488910629,51.9730196437124 -2.38767594439959,51.9722745882404 -2.38772901259854,51.972011866914 -2.38794698313364,51.9716362506673 -2.38839574819536,51.9718432976996 -2.38853880198409,51.971896845212 -2.38863518932958,51.9719252896168 -2.38879705091921,51.9719607077326 -2.38996746494296,51.9721303106672 -2.39024581076529,51.9721582409667 -2.39117907828716,51.9725093704828 -2.39157323089297,51.9726446820957 -2.39161858682134,51.9726705965135 -2.39169335246712,51.9727242773972 -2.3917506576708,51.9727852970723 -2.39177424749386,51.9728202728417 -2.3918233476807,51.9729450456963 -2.39187508660785,51.9730284637403 -2.39196017931181,51.9731100634013 -2.39200703199703,51.9731422653545 -2.39207288004315,51.9731779985738 -2.39215914757385,51.9732154619229 -2.39305092216994,51.9734840238507 -2.39313714397658,51.9735160939598 -2.39322922211942,51.9735589298219 -2.39329799204199,51.9735991471127 -2.39335077466899,51.9736367214207 -2.39339632289782,51.9736842070599 -2.39343313193433,51.9737345081277 -2.39344942618424,51.973772204284 -2.39345250379686,51.9737946647208 -2.39344545946524,51.9738126644701 -2.39342524282026,51.9738343036462 -2.39338761462898,51.9738551018994 -2.39328158413149,51.9738914093543 -2.39315670856155,51.9739277796248 -2.39302601584377,51.9739578765107 -2.39299840715587,51.9739714512533 -2.39296657200399,51.9739958254602 -2.39294794704934,51.9740210546628 -2.39294223936088,51.9740409379885 -2.39294981328438,51.9740696751981 -2.39297917455451,51.9741055296551 -2.39301733898022,51.9741323675206 -2.39308453624745,51.9741573103144 -2.39316023212416,51.974166045748 -2.39339164427025,51.9741508913014 -2.39359410727623,51.9741610011102 -2.39367570965536,51.9741724128158 -2.39415707739006,51.9742858527047 -2.39450266792857,51.9743423095677 -2.39468391942026,51.9744243943289 -2.39486218554698,51.9745082860861 -2.3948987686289,51.974532431411 -2.39495897756713,51.9745816645612 -2.39500161501788,51.9746390465424 -2.39502242299869,51.9746849071843 -2.3950300773843,51.9747226321066 -2.39502610968729,51.9747765740661 -2.3950177524487,51.9748089600063 -2.39496782045581,51.9749322664389 -2.39496542197359,51.9749871921199 -2.3949744924604,51.9750222159525 -2.39499363006416,51.9750554087602 -2.39502161795631,51.9750849755594 -2.39513445491564,51.9751672890863 -2.39524851869198,51.9752253295091 -2.39534786987323,51.9752618484693 -2.39586429334628,51.9753878363425 -2.39681936516387,51.9758844578698 -2.39691134145097,51.9759147975926 -2.3969638520775,51.975920912388 -2.39701617983557,51.9759198369346 -2.39707288437177,51.9759115567601 -2.39712376239013,51.9758960154535 -2.39755422694399,51.9756797442677 -2.39760650537585,51.9756597934282 -2.3976674761455,51.9756452067987 -2.39772993439412,51.975636007797 -2.39779689649701,51.9756339834946 -2.39786538737216,51.9756418420735 -2.397958899845,51.9756693895421 -2.39839469316281,51.9758926215911 -2.39864837429785,51.9761003804281 -2.39906845344259,51.9761888398317 -2.39962945978166,51.9759127973243 -2.39968444345673,51.9758729720968 -2.39970895492271,51.9758486209375 -2.39975861820658,51.97571003356 -2.40007844330866,51.9754859495684 -2.40033266469951,51.9754302580101 -2.40052978076067,51.9753244249992 -2.40060682583536,51.9753088830784 -2.40064751720609,51.975308744665 -2.40067961351341,51.975314028168 -2.40073943807465,51.9753326999443 -2.40094021540855,51.9754758282561 -2.40098278831765,51.9755116366596 -2.40101194049384,51.9755232218589 -2.40104403699544,51.9755285061582 -2.40113570980145,51.9755245985489 -2.40119383022696,51.9755136143156 -2.40125330216734,51.9754927391576 -2.40165004615759,51.9752405242649 -2.40170950867085,51.9752187487179 -2.40179533722851,51.975205872129 -2.40185213566938,51.9752083754121 -2.40191476847506,51.9752189468767 -2.40196596718934,51.9752394454668 -2.40200689856802,51.9752663598944 -2.40202012796951,51.9752824936671 -2.40200654438174,51.9753877020388 -2.40199518237742,51.9754191997162 -2.40199822421383,51.9754371664531 -2.40202471251558,51.9754595457829 -2.4020495035554,51.9754666519274 -2.402106342534,51.9754736485538 -2.40221701081903,51.9754732703161 -2.40251211846856,51.9754264206627 -2.40275218728066,51.9754130156598 -2.40316657479345,51.9755230511452 -2.40337274464202,51.9754504387757 -2.40347287999826,51.975426725652 -2.40360948195625,51.9754001919058 -2.40379281581149,51.9753779903542 -2.40460838347195,51.9754102431018 -2.40479124920841,51.9755093842994 -2.40505750195301,51.9754976817906 -2.40527866170094,51.9754771458855 -2.40535297010371,51.9754912716269 -2.40540416252825,51.9755108687542 -2.40548616753302,51.9755664038421 -2.40559222806134,51.9757071535737 -2.4056129909947,51.9757466298812 -2.40564526625833,51.9757716856981 -2.40568037392422,51.9757913390533 -2.40570949467069,51.9757993276845 -2.40578529132785,51.9758053580927 -2.40606160070773,51.9757639579556 -2.4063235419166,51.9757531665489 -2.40641632008269,51.9757123991816 -2.40662023991015,51.9757233791501 -2.40667015719855,51.9757744398822 -2.40703609724235,51.975835193232 -2.40728815933501,51.9758469045876 -2.40773511385551,51.9755360718857 -2.40782014343744,51.975435108894 -2.40817324075804,51.9752054935682 -2.40829915212677,51.9751124773913 -2.4084073290501,51.9750096363289 -2.40846632901422,51.9749375256734 -2.40851081476316,51.9748662736516 -2.40853938474313,51.9748005603717 -2.40855633734005,51.9747375837675 -2.40856296701966,51.9746746430035 -2.40855938246546,51.974597266982 -2.40827632341969,51.9742116649462 -2.40820816458608,51.9740815714098 -2.40817522390172,51.9739701419855 -2.40815815154691,51.9738614428637 -2.40816018345788,51.9737679582673 -2.40818381951702,51.9736347609008 -2.40879643358554,51.9729727169394 -2.4089655463845,51.9726817185699 -2.40955727778005,51.971956825301 -2.40987506802679,51.9713605172461 -2.40990029087237,51.9712570645776 -2.40975740296145,51.9710795043906 -2.40973224439024,51.9710319550192 -2.40968928208457,51.9709404242834 -2.40960399142583,51.9706952519386 -2.40958272909342,51.9706009492681 -2.40957164725156,51.9704912413405 -2.40957488640271,51.9703725853408 -2.40958719821762,51.9702880530025 -2.40960568705372,51.9702358562396 -2.40964430881174,51.970167321382 -2.40969466812847,51.9700961392013 -2.4099281979618,51.9698426656406 -2.41011096824818,51.9694590393117 -2.41021835742662,51.9691008426289 -2.41036573407495,51.9688242995215 -2.41056747331681,51.9685996980499 -2.41073241840174,51.9683285757548 -2.41077266675677,51.968280707433 -2.41083485273302,51.9682301560575 -2.4109086265256,51.9681867550453 -2.41104939505294,51.9681332327411 -2.41208042550343,51.9678688769264 -2.41218328525336,51.9678172832888 -2.41227445384086,51.9677603378267 -2.4129873172753,51.967391926295 -2.41326670909586,51.9672353580556 -2.41389809606915,51.9667269206002 -2.41445292646682,51.9664292535943 -2.4152310130902,51.9658897313244 -2.41534973401597,51.9658281916923 -2.41541216057461,51.9658046014264 -2.41549774048322,51.9657799412741 -2.41562710432126,51.9657534190436 -2.41618839109654,51.9657019988806 -2.41640089675022,51.9656985506586 -2.41653760169712,51.9656872813716 -2.41664378425526,51.9656716245947 -2.41675566085466,51.9656487584819 -2.41692108294906,51.965602331763 -2.41730547557624,51.9654606625847 -2.41667371351746,51.9651329423877 -2.41696647165986,51.9649970813912 -2.41741481279002,51.9648543760312 -2.41765568831314,51.964766245404 -2.41789208826547,51.964674623753 -2.4183328096032,51.9644878088054 -2.41765558647468,51.9636577222936 -2.41756684800304,51.9635096416687 -2.41748004293054,51.9634146737845 -2.41744568619489,51.9633204188507 -2.41718338866232,51.9629743126631 -2.41691185582509,51.9627190190998 -2.41672062699506,51.9625047875873 -2.41657330491614,51.9623146674913 -2.41649756969711,51.9623131383336 -2.41655883171868,51.9620090283582 -2.41665190484115,51.961848707701 -2.41673252400622,51.9615876725166 -2.41678282638973,51.9615254746234 -2.41683063605093,51.9614920490389 -2.41691752899638,51.9614548895182 -2.41747544962585,51.9613440627689 -2.41750726793894,51.9613331644571 -2.41754918058995,51.9612979613364 -2.4176995120741,51.9610240944785 -2.41778736732364,51.9606129289385 -2.41785715194751,51.9606072875256 -2.41798633782864,51.9602535002377 -2.41791615720023,51.9602294814429 -2.41800026474131,51.9600349453985 -2.4179990636021,51.9595962324503 -2.41804444510775,51.9593020651727 -2.41807257060911,51.9592039928352 -2.41818314883666,51.9590435185075 -2.41848280170211,51.95871249282 -2.41815439948398,51.9587648946623 -2.41800634442454,51.95880496909 -2.41775608288242,51.9588220369178 -2.41754938191393,51.9588137824652 -2.41697027215443,51.9588230269901 -2.41628419663491,51.9589172258344 -2.41592277065273,51.9588510025089 -2.41543291274485,51.9589229308933 -2.41477910149956,51.9590420852145 -2.41431710005886,51.9591165181008 -2.41409037391478,51.9591487752044 -2.41394628296619,51.9586818022725 -2.41443228158273,51.9586729006095 -2.41437855137987,51.958050921316 -2.41423691027668,51.9573681316686 -2.41421316204668,51.9573169818135 -2.41418505603336,51.9572747464372 -2.4141043395563,51.9572004271664 -2.41403412093038,51.9571584298694 -2.41282150571206,51.9568021710814 -2.41238139125352,51.9567228192728 -2.41170727810814,51.9565354380209 -2.4115001855044,51.956483131756 -2.41107006464648,51.9563938537616 -2.41059309651643,51.9562722897118 -2.41048451423709,51.9561675053026 -2.41032643701424,51.9560691861104 -2.41030451787193,51.9560601844886 -2.41026956296622,51.9560558118543 -2.4102375862872,51.9560622151488 -2.41015931232441,51.9560967332907 -2.41002463006559,51.9561691088438 -2.40977936590845,51.956561941882 -2.40955045296757,51.9569852782541 -2.40910223178995,51.9569904330178 -2.40824406580504,51.9570402425762 -2.40828911020636,51.956715519344 -2.40842591024242,51.9560703152476 -2.40841074871392,51.9558411668374 -2.40813637193819,51.9557512475116 -2.40777988078574,51.9556032786366 -2.40770809280509,51.9555460021629 -2.40755408780847,51.9554062290118 -2.40752299623569,51.9553515078038 -2.40750948696756,51.9553039165733 -2.40750742041432,51.9552347139613 -2.40742460787189,51.9549275118605 -2.40732500845771,51.9543829877431 -2.40689861457967,51.9543709804814 -2.40659356728954,51.9544304594183 -2.40660035837117,51.9547037695164 -2.40661464780549,51.9548377350606 -2.40663177557747,51.9549671072548 -2.40667588715406,51.9551746740081 -2.40657561166948,51.9555094738962 -2.40628951799327,51.9557288777869 -2.40598661130153,51.9560266259021 -2.40583156009649,51.9561027522781 -2.40577659791651,51.9561415917047 -2.40572754033853,51.9561831070995 -2.40568999892271,51.9562245818663 -2.40556378245213,51.956424647097 -2.40550087985338,51.9565542952517 -2.40545426608812,51.9567072562495 -2.40544601076136,51.9567631016768 -2.40544168611764,51.956922209623 -2.40547066977798,51.9570758990829 -2.40558833782252,51.9573775886712 -2.40559483475106,51.957445877828 -2.40555512595913,51.9575664569826 -2.4054480756902,51.9579498161785 -2.40530565283644,51.9581364542351 -2.40509161115813,51.9584446800494 -2.40484362834043,51.958701789713 -2.40475162100861,51.9588378284646 -2.40466850868692,51.958975725549 -2.4045502624673,51.9592629473777 -2.40441293414025,51.9595231812075 -2.40386375982242,51.9597939063877 -2.40353204476879,51.9598013363113 -2.40312623322129,51.9598287936591 -2.40274114299285,51.9598922211862 -2.40232145576726,51.9599916293436 -2.401837538525,51.9600741772723 -2.40186785759899,51.9593988746506 -2.40186412783391,51.9589817417526 -2.40181994649675,51.9587508035927 -2.4021480105497,51.9584970229924 -2.40108449610159,51.9583712217092 -2.40020761930012,51.9582779430212 -2.3999460580879,51.9583202674499 -2.39924550577501,51.9584224167309 -2.3982758516212,51.9585425491845 -2.39803510714432,51.958632437762 -2.39777569601899,51.9587555552468 -2.39760940368902,51.9588792566866 -2.39744528008328,51.9590857319358 -2.39722728033649,51.9594415944999 -2.39687360827479,51.9594490795253 -2.39656357290945,51.959438440168 -2.39687478975134,51.9592431547327 -2.39678128142311,51.9591985284282 -2.39685475275334,51.9591209819388 -2.39673129793762,51.9588237968774 -2.39634883462897,51.9585184953336 -2.39603724338596,51.9581671142855 -2.39588300444368,51.9580112376212 -2.39476901215505,51.9575995420908 -2.39447508769538,51.9574405366818 -2.39452134837427,51.9574071253837 -2.39439993480782,51.9573265482947 -2.39438279319355,51.9572052635874 -2.39393961049087,51.9567725256146 -2.39386567607159,51.955318021905 -2.39386150800707,51.954677891522 -2.39384556434374,51.9543506818202 -2.39380042053604,51.9541826618992 -2.39369805795073,51.9539609944567 -2.39370310060841,51.9537011269265 -2.39367436491821,51.953406318004 -2.39268705752268,51.9529915726729 -2.39318305951392,51.9524729103014 -2.39336423414369,51.9522277339501 -2.39348187248684,51.9520295087173 -2.39352449513682,51.9519098220784 -2.39273188912972,51.9517920281757 -2.39209693812992,51.9517302389914 -2.39146199894815,51.9516694353435 -2.39063780739602,51.9516020659117 -2.39030019395382,51.9516004900222 -2.39029136215035,51.9520896607568 -2.39031623465088,51.9522738383778 -2.39026269300428,51.9524772404937 -2.38897485775569,51.95263969897 -2.38855443803802,51.9526500762637 -2.388366624675,51.9526300228127 -2.38822125604598,51.9526484797436 -2.38814104865703,51.9526271726443 -2.38771573234207,51.9525845324254 -2.38770077504842,51.9525333483109 -2.38756521483121,51.9525068296003 -2.3873965942457,51.9523607865791 -2.38708884092251,51.952107431545 -2.38603563222585,51.9512863986387 -2.38573943809475,51.9510221259502 -2.38566083711574,51.9510196872771 -2.38511328431802,51.94960367017 -2.38485938039535,51.9490083985186 -2.38357223481666,51.949749817497 -2.38230112296987,51.9505055511867 -2.38201574671296,51.9506647610568 -2.38173326093164,51.9504579582915 -2.38212040192566,51.9497940870471 -2.38205585019454,51.9497223904162 -2.38194703381672,51.9497640896614 -2.38181584806475,51.9497429424948 -2.38162689109322,51.9497561386693 -2.38091212194097,51.9495435440582 -2.38077236292377,51.9495296143504 -2.38065176561745,51.9493843948386 -2.38072507968705,51.9492727027708 -2.38119949558315,51.9486012713922 -2.3814883307943,51.9481724047318 -2.38069686682434,51.9480086835441 -2.38089133741309,51.9476132888568 -2.3813015369392,51.9470815629159 -2.38147684885679,51.9469883262805 -2.38194758419051,51.9467495089436 -2.3821354935185,51.9466005033275 -2.38197753503781,51.946504840802 -2.38156099444234,51.9457643887179 -2.38144027708426,51.9457737680861 -2.38140953871018,51.9459258598453 -2.38057484928236,51.9461353813679 -2.37980422419723,51.9463751611257 -2.37966052927517,51.9464052854408 -2.37964745431254,51.9464053276067 -2.37957060743963,51.9460980865577 -2.37950188436554,51.9460569619004 -2.37920233815939,51.9460839934368 -2.3790458484036,51.9461475052784 -2.37881174117071,51.946338809965 -2.37843478482129,51.9466753746367 -2.37803830594137,51.9464167977135 -2.37761755910761,51.9462105188583 -2.37667648052161,51.9457082131918 -2.37639192694921,51.9456057582992 -2.37632297460303,51.9455367690146 -2.37632254538625,51.9454854470441 -2.37635084773338,51.9452264948288 -2.37627921137806,51.9448364527788 -2.37611897892185,51.944810898597 -2.37604735763914,51.9445945100581 -2.37561370279323,51.9442325889098 -2.37542209840896,51.9441127569867 -2.37529431624316,51.9441374334537 -2.37516150195278,51.9440911179166 -2.37501633268289,51.9441311285388 -2.37374621614586,51.9442970465263 -2.37374558608891,51.9447411593143 -2.37305703828562,51.9448700783637 -2.37294285357578,51.9444371157736 -2.37293517320675,51.9442195338545 -2.37289482441824,51.9440839386227 -2.37237331481261,51.9440019990121 -2.37206118360458,51.9439130128766 -2.37204373719009,51.9437324042519 -2.3720231730213,51.9435373338149 -2.37203240085864,51.9432459950672 -2.37216260347052,51.9428032708474 -2.37226383880528,51.9420198022817 -2.37147999068469,51.9420637150364 -2.37070676656769,51.9421452499353 -2.37022545220624,51.94216384213 -2.3696463699713,51.94216656133 -2.36923502550563,51.9422047041523 -2.36878329568438,51.9422915091226 -2.36847959789988,51.942336502826 -2.36844369056888,51.9420381148539 -2.36834911635106,51.9420312199981 -2.36834877114374,51.941461275203 -2.36829473084453,51.9410720723563 -2.36818409887665,51.9407145954052 -2.36822658086181,51.9405706494024 -2.36865310396588,51.939897710339 -2.36881861894478,51.9396777880468 -2.36899615102023,51.9395045667556 -2.36893367358788,51.939330390502 -2.36925363528276,51.9391504303907 -2.36934172340355,51.9390692587763 -2.37027242477508,51.938512476853 -2.37037418929422,51.938315312659 -2.37051689437982,51.9381673657648 -2.37064931896282,51.9379943737785 -2.37075891967837,51.9378752934816 -2.37103776906209,51.9376424271207 -2.37108796056521,51.9375622727103 -2.37111013751072,51.9374300749529 -2.37113880724773,51.9373724601349 -2.37120917732379,51.937266984906 -2.37137044151858,51.9370723292984 -2.37142200494439,51.936969610541 -2.37145795113774,51.936747485833 -2.37148773146123,51.9366502285185 -2.37146265496204,51.9364309936942 -2.37156057906555,51.9363074549101 -2.37178124840404,51.9360891521172 -2.37179407732393,51.9360450689593 -2.37183266040382,51.9357941730937 -2.37188549789754,51.9356716755706 -2.37195451480491,51.935577080355 -2.37197155644881,51.9355204011456 -2.37199484218308,51.9353485607406 -2.3719852706075,51.9352497203095 -2.3720880398307,51.9350165086817 -2.37213051100305,51.9348734601269 -2.37225443900126,51.9347336602897 -2.37231657048421,51.9346768374469 -2.37238158766161,51.9346209036233 -2.37256229839821,51.934488114602 -2.37201161519677,51.9340403526775 -2.37128175595684,51.9335463243022 -2.37090170602943,51.9333120292659 -2.37014160825545,51.9328567374749 -2.36975866047628,51.9326331442763 -2.36816668302933,51.9318236153392 -2.36763409239838,51.931614863229 -2.36689777080155,51.9313923624824 -2.36638915230026,51.9312546270538 -2.36609068920636,51.931226792663 -2.36577957311708,51.9312358495647 -2.36544887718038,51.9311667673065 -2.36529714235484,51.9311178026833 -2.36500072306512,51.9309721229087 -2.36500071577607,51.9309712238431 -2.36419430897041,51.930709374679 -2.36352127686004,51.9303904820332 -2.36323351427466,51.9302313784069 -2.36295437887836,51.9300712585102 -2.362477675932,51.9297535528622 -2.36157331719967,51.9290559654322 -2.36148694923489,51.9289924134516 -2.36123823220988,51.9288106244403 -2.36119853094022,51.9287496263028 -2.36113990037529,51.9286904835046 -2.3610638855114,51.9286466739945 -2.36092821000715,51.9285949573949 -2.36080271292952,51.9285413231599 -2.36056194309422,51.928437796452 -2.3604118470606,51.9283969097948 -2.35890264145455,51.9280796498248 -2.35784400150161,51.9279191961128 -2.35692948490959,51.9277565886579 -2.35523035716591,51.9275108660679 -2.35530200661428,51.927382117379 -2.35532463628707,51.9273019629854 -2.35537177586976,51.9271975572615 -2.35540629229827,51.9271498149664 -2.35549149222197,51.9270668651173 -2.35550584536112,51.927047047265 -2.35552001219609,51.9269884910544 -2.35553576101576,51.9269632762637 -2.35556026149482,51.9269380350308 -2.35563405656776,51.9268838821831 -2.35564259825006,51.9268721718491 -2.35565955839867,51.9268029107482 -2.35568260628513,51.9267758766035 -2.35583283839406,51.9266530919102 -2.355996040213,51.9265024932062 -2.35607274743452,51.9264528257839 -2.35611310211601,51.9264158519292 -2.35615057950779,51.9263635159878 -2.35625226663809,51.9261672640224 -2.35628344795238,51.9260619162787 -2.35633334097784,51.9259422208859 -2.35642798087327,51.9257647755809 -2.35647617192495,51.9256118280559 -2.35659422688691,51.9254540861621 -2.35659508993877,51.9253812776754 -2.35662610600679,51.9252706264295 -2.35663158214337,51.9252202748828 -2.35666152195205,51.9251400972247 -2.35669274570333,51.9250555118963 -2.35680009278827,51.9248330838182 -2.3568998770381,51.9245793091275 -2.35700007145,51.9243775754319 -2.35704023861251,51.9243019511148 -2.35710346578626,51.924216369445 -2.35726840094798,51.9239236564148 -2.35731986712392,51.9238065610637 -2.35734710817017,51.923764233428 -2.35740475123063,51.9237002405402 -2.35750459618188,51.9236361194015 -2.35756084209638,51.9235775243532 -2.35757220739373,51.9235441432555 -2.35755204843685,51.92337612128 -2.35753105189127,51.9232988853331 -2.35758856483723,51.9232186236031 -2.35759416886286,51.9231997309557 -2.35758966022558,51.9231754762671 -2.35754551211042,51.9231117926219 -2.357546787484,51.9230911158383 -2.35758136206896,51.9230514622409 -2.35769425204192,51.9229846048876 -2.35768059034601,51.922909952242 -2.35769409592177,51.9227687936052 -2.35777755187195,51.9226642753087 -2.35786987899061,51.9225749192907 -2.35788558807915,51.9225299293019 -2.35789828448686,51.9224831511824 -2.35790875035362,51.9221558520381 -2.35792549793207,51.9220758049284 -2.3578424052019,51.9218638413785 -2.35772038139068,51.9216861528027 -2.35768067168853,51.921637735841 -2.35756789523232,51.9215374095783 -2.35750798193489,51.9214962449319 -2.35744954395885,51.9214595694545 -2.35738396338766,51.9214444885545 -2.35740917750187,51.9213283719351 -2.35711309280162,51.9212133209533 -2.35672835592075,51.9211066281472 -2.35634636084757,51.9209674765191 -2.35585809238343,51.9208215450161 -2.35567029888856,51.9208005409132 -2.35540368676631,51.9207275515712 -2.3552551532265,51.9206983390325 -2.3548722033919,51.9206347788202 -2.354678790585,51.9206308675178 -2.35450460377983,51.9206781320324 -2.35422958403579,51.920648400195 -2.35419094677377,51.9207357036309 -2.35407578824553,51.9208799541347 -2.35404841861114,51.9209061030861 -2.3538664717082,51.9208814830302 -2.35380689408828,51.9208978414464 -2.35374891192638,51.9209186887141 -2.35366711516391,51.9210519630206 -2.35347178340815,51.9211703873235 -2.35322938358586,51.9212340340762 -2.35296255443881,51.9213166292287 -2.35273159818031,51.9213568713249 -2.35268598447569,51.9214721489227 -2.35266206149209,51.9215710932501 -2.35252830717894,51.9215768868917 -2.35254365751133,51.9216847008593 -2.35260545675792,51.9217681980497 -2.35254783181171,51.9218348849117 -2.3524008400192,51.9218191460777 -2.35241923660938,51.9219485238218 -2.35239201305308,51.9219935466408 -2.35235745644061,51.9220359858374 -2.35221096323943,51.9220840630452 -2.3520666024012,51.922036856574 -2.35191987433265,51.9218709207041 -2.35188667705216,51.921719116074 -2.3518674810466,51.92167144502 -2.35179695448757,51.9215907607432 -2.35167925759214,51.9215956072057 -2.35163912725515,51.9216766223471 -2.3516542528986,51.9217404848205 -2.35154221960431,51.921733628675 -2.35139592991995,51.9218077699297 -2.35125820252539,51.9218576182427 -2.35114760147503,51.9218498586405 -2.35102455647522,51.9217378716404 -2.35093436699001,51.9215492950153 -2.35080702313329,51.921439117919 -2.35074325610638,51.9212873152962 -2.3507182157926,51.9212433469427 -2.35056093848697,51.9212150531728 -2.35051377790947,51.92113250045 -2.35032002591779,51.9209001890825 -2.35021634838109,51.9208420739508 -2.34996022879805,51.9208068828996 -2.3496752982331,51.9208284047101 -2.34941059460401,51.9208148099892 -2.3491688776181,51.9207660025683 -2.3490051852897,51.920667617075 -2.34881596529881,51.9206322248807 -2.34851722203943,51.9205576087129 -2.34840363587377,51.9205354743911 -2.34815474734263,51.9205047525753 -2.34786788733362,51.9204470879679 -2.34766290188578,51.9204503908772 -2.34743497179311,51.9204942987379 -2.34743354068411,51.9204952020629 -2.34720840383807,51.9205282257754 -2.34705407661272,51.9205089068888 -2.34692118879164,51.9204399987951 -2.34683961288322,51.9204177684835 -2.34675520104527,51.9204009401511 -2.34666793086661,51.9204020957866 -2.34658069527754,51.9204077467279 -2.34650823104193,51.9204322287476 -2.34644155493033,51.9204611882343 -2.34632868263737,51.920531719483 -2.34619933225188,51.9205329996557 -2.34611764966434,51.9205125673488 -2.34586407525003,51.9204332269819 -2.34566178098753,51.9204122501309 -2.34556441941183,51.9204107391412 -2.34549439429449,51.9203938667092 -2.34542301051383,51.9203716054611 -2.34539529831993,51.9203537104112 -2.34545844587507,51.9202555514072 -2.34550093901048,51.9201061300796 -2.34530874119426,51.9200725392286 -2.34529544428913,51.919855059493 -2.34533889616256,51.9192678114618 -2.34535194139556,51.9188739022946 -2.345350445889,51.9186788589119 -2.34419272992116,51.9186328195592 -2.34358340768633,51.9174918212601 -2.34314217132746,51.9168214974937 -2.3440887861922,51.9166397695556 -2.34503518523564,51.9164464389112 -2.34485064197145,51.9160801626077 -2.34568704071458,51.9155517019185 -2.34728103918312,51.9144968817033 -2.3468117060406,51.9139641745162 -2.34633997597863,51.9134925934295 -2.34728611892796,51.9132758766611 -2.34785671872344,51.9131698327787 -2.34798415117009,51.9131092327147 -2.34771583181275,51.912621864161 -2.34756604422653,51.9122401188632 -2.34732411242415,51.9114119197083 -2.34712791972506,51.9108559345796 -2.3470303520189,51.9106386121815 -2.34695958877193,51.9105084890994 -2.34687560542108,51.9103738204792 -2.34676688644507,51.9102177425503 -2.34657759656667,51.9099961958074 -2.34630807216219,51.9097371346547 -2.346172093241,51.9096206853222 -2.34576265335599,51.909309003298 -2.34544411541275,51.9090968242143 -2.34518555079785,51.9089366906522 -2.34522162492262,51.9089051250719 -2.34548354076314,51.9087523601576 -2.34617671056266,51.9083358624124 -2.34674522654312,51.9079826476926 -2.34698092109735,51.9078191711561 -2.34709680496577,51.9077550105716 -2.34720817736661,51.9076962569211 -2.34730431791732,51.9077139494386 -2.34779504271182,51.9074553383372 -2.34806449705647,51.90733409573 -2.34825266628092,51.9072255864886 -2.34821822726607,51.9070962546259 -2.34820862944817,51.9069866240009 -2.34813102458695,51.9069013735638 -2.34779029786432,51.9066398302075 -2.34772011956684,51.9066004881801 -2.3473699635604,51.9064208563933 -2.34723453163719,51.9063897971033 -2.34714725400503,51.9063864594897 -2.34691762964436,51.906388036806 -2.34680407985965,51.9063659007406 -2.34675996247166,51.9063021227184 -2.34670612520441,51.9059255754572 -2.34672240293777,51.9057673311587 -2.34672039678853,51.9056935414045 -2.34667735018931,51.9053952516441 -2.3466152668411,51.9052551252853 -2.34657115151034,51.9051914370847 -2.34646707097151,51.9050757031029 -2.34640998993775,51.9050246369189 -2.3463442639563,51.9049870791399 -2.34619100748032,51.9049129268216 -2.34615901099546,51.9048977408356 -2.34608583733853,51.9048422281858 -2.34586046728164,51.9046477522637 -2.3457099460841,51.9045394343346 -2.34555378805279,51.9044616942048 -2.34540657866724,51.9044099044491 -2.34523874463479,51.9043097269379 -2.34509239681291,51.9041825210766 -2.34501780664484,51.9041296184168 -2.34477829504627,51.9039811126133 -2.34467154034248,51.9038906424758 -2.34464500533442,51.9038529687666 -2.34455644746398,51.9036661790563 -2.34451817899223,51.9036141576692 -2.34445969059261,51.9035666901676 -2.34439403399039,51.9035219409578 -2.34405550136256,51.9033529608804 -2.34366260602855,51.9031113321525 -2.34347852380258,51.9029851328283 -2.34342433896453,51.9029358549184 -2.34326025220435,51.9027600705897 -2.34323955677832,51.9027178857769 -2.3432232890465,51.9026747880235 -2.34321348437665,51.9025363052841 -2.34316800583702,51.9022928503149 -2.34296095285637,51.9020138238008 -2.34292287531636,51.9019707905604 -2.34272563017788,51.9018463367486 -2.3426829748483,51.9017844401033 -2.34269239401078,51.9016837418019 -2.34265817306806,51.9015803844568 -2.34262697568305,51.9012918559829 -2.34261353603268,51.9012424588594 -2.34255603327059,51.9011347646564 -2.34225054967327,51.9009117529211 -2.34190882094013,51.9006970241128 -2.34177452596495,51.9006236200031 -2.3416972557156,51.9005950815221 -2.34156053598475,51.9005810978938 -2.34134426317623,51.9006167806767 -2.34123996789205,51.9006593298222 -2.34102992442283,51.9007580040226 -2.34043067892585,51.9010825173857 -2.34017454238987,51.9012351646213 -2.33982572939646,51.9014304145777 -2.33953214548804,51.9016236166841 -2.33939029088697,51.9017077088053 -2.33925834843273,51.9017395495007 -2.33904483622707,51.9017608389177 -2.33878644708198,51.9018065268616 -2.33844053236693,51.9018147148347 -2.33829061276565,51.9017827878572 -2.33821927539292,51.9017623201493 -2.33807937975106,51.9017087918541 -2.33801369931417,51.9016757229905 -2.33795528036811,51.9016362522649 -2.33780165784888,51.9015099564103 -2.33769515233326,51.9014500397226 -2.3375815776286,51.9014225019892 -2.33742173041585,51.9014247593737 -2.33712160124385,51.9013375339582 -2.33708949050669,51.9013222559149 -2.33706467625097,51.9013052486333 -2.33714404829501,51.9012304168734 -2.33718139043284,51.9011601994074 -2.33714465758649,51.9011198568442 -2.33699310190042,51.9010609678868 -2.33681223033774,51.900976006054 -2.33661370231606,51.9008534328744 -2.33599788107579,51.9005351164969 -2.33587388431417,51.9004752481717 -2.33575012775419,51.900431559303 -2.33536844698045,51.9003184057368 -2.33516013390218,51.9002488898869 -2.33492558584587,51.9001803475634 -2.33480329631773,51.9001564275119 -2.33467056765615,51.9000983810263 -2.33459045116894,51.9000733515951 -2.33450015682435,51.9000493392013 -2.33419196248057,51.9000358350809 -2.33413946896746,51.9000189059122 -2.33409427786913,51.9000010577508 -2.33407914518895,51.8999157102237 -2.33402189801882,51.8998394716687 -2.33390103310263,51.8997975690461 -2.33385280170721,51.8997734375052 -2.33381053237302,51.8997456035798 -2.33371986736257,51.8996712562264 -2.33359751845234,51.899639245847 -2.33371188118628,51.899386254986 -2.33398871539251,51.8988883161932 -2.33419261795152,51.8985586689242 -2.33425720241579,51.8984451405871 -2.3343874960141,51.8981759252193 -2.33453086261132,51.8979247390646 -2.33462588754364,51.8977958435653 -2.33505064359513,51.8972597291133 -2.3351469703643,51.8971290312409 -2.33536096078909,51.8967723879997 -2.33542397581455,51.8966580542595 -2.33554279487854,51.896410442463 -2.33573109377674,51.8961284750351 -2.33579285598098,51.8960393132844 -2.33595728155855,51.8958661747421 -2.33603221714223,51.8957760751852 -2.3362580925657,51.8954724280791 -2.33643388748764,51.8952821778197 -2.3367522058357,51.8948910770166 -2.3369174942517,51.8946424314223 -2.33696923093942,51.8945748690887 -2.33721244894798,51.8944447370423 -2.33737566096192,51.8943192389859 -2.33731234183794,51.8941998740781 -2.33726839727397,51.8941559567127 -2.3374377633614,51.8940681924942 -2.33757651415972,51.8939725157739 -2.33772777651103,51.8937877277339 -2.33807516253715,51.8934091226189 -2.33821816891652,51.8933062427393 -2.33838713202674,51.8931655354145 -2.33867537781569,51.8928427381019 -2.33884571403216,51.8926939368983 -2.33923159004752,51.8925921523148 -2.33942869195972,51.8925294728398 -2.33951422708168,51.8924959686867 -2.33966027108083,51.8923993692861 -2.33984568902449,51.8923287226539 -2.34000064784055,51.8922545692636 -2.34013631570701,51.8921327425394 -2.34019676918342,51.8920624571021 -2.34038241684391,51.8918164439871 -2.34061105442241,51.8916944372331 -2.34081974402186,51.8916120368254 -2.34105722023938,51.8915024966148 -2.34120004489689,51.8913771422804 -2.34135605982412,51.8912534568422 -2.34150274893524,51.891053486776 -2.34157915852106,51.8909705703575 -2.34165847007915,51.8908911510581 -2.34183753368732,51.890742320995 -2.34206586901879,51.890581571618 -2.34218456391209,51.8905138119531 -2.34230472432129,51.8904496434178 -2.34252059876753,51.8903681181288 -2.34261610865063,51.8903237061476 -2.34270297166937,51.8902767128075 -2.34283445655693,51.89017386086 -2.34283623713962,51.8900300402086 -2.34279165564959,51.8899024434325 -2.34273882866984,51.8898405772967 -2.34260997760274,51.8897070251487 -2.34236716357758,51.8894910208352 -2.34229244457172,51.8894175326264 -2.34222500656391,51.8893403386261 -2.34213358917881,51.8891662279492 -2.34209171841962,51.8890008722689 -2.34207910018342,51.8888696774111 -2.34210254296509,51.8887068270365 -2.34214937200604,51.8885628751669 -2.34189004492056,51.8884746448375 -2.34153480847962,51.8883776136528 -2.34135424734265,51.8883278029573 -2.34128147784682,51.8883055430508 -2.34096396834909,51.8882066931337 -2.34081391198713,51.8881666805269 -2.34066843463688,51.8881301591625 -2.34006009625425,51.8880060829919 -2.33992321173679,51.8879651329136 -2.33978773878727,51.887920582172 -2.33949193109211,51.8878071935139 -2.33913062582216,51.8876823983569 -2.33849245587378,51.8874450553978 -2.33784004063535,51.8872563780633 -2.33757439316939,51.8870898659147 -2.33748536493443,51.8870397862118 -2.33695880091888,51.8867778455942 -2.33671951069718,51.8866428064111 -2.33657487388238,51.8865253814746 -2.33654179382362,51.8863789643306 -2.3364947620969,51.8863053931022 -2.33645420565011,51.8861364360927 -2.33640964006493,51.8860080285151 -2.33638815886619,51.8858426123671 -2.33630106303118,51.8854733446708 -2.3362520608994,51.8847506310267 -2.33624995890538,51.8846615617472 -2.33627605995395,51.8844511565379 -2.33626370090248,51.8843522282532 -2.33624691132994,51.8842534034581 -2.33611962161043,51.8839390807555 -2.33612848833723,51.883762880992 -2.33612051035804,51.8836729293517 -2.33610388067736,51.883579495951 -2.33605148690427,51.8833809109828 -2.33598510361203,51.8832336896916 -2.33600697962294,51.8830510707499 -2.33600487210991,51.8829611913093 -2.33599547701701,51.8828740300326 -2.3359493443065,51.8827275599762 -2.33595677309686,51.8825513642053 -2.33600669265573,51.8822419269721 -2.33609733776654,51.8819323740799 -2.33616426406787,51.8817514234723 -2.33622897141357,51.8815870164418 -2.33626700800353,51.8814903731738 -2.33601213349629,51.8814138018413 -2.33585218816065,51.8813935852091 -2.33567164110835,51.8813410692834 -2.33548193966171,51.8812336599893 -2.33530272875092,51.8811514772489 -2.33480317418373,51.8809830195634 -2.3345293443684,51.8809019143582 -2.33409983331831,51.8807611180579 -2.33322036350411,51.8804992646689 -2.33275012790648,51.8803738592315 -2.33220996544327,51.8802027187645 -2.33049385488486,51.8797625382449 -2.33054431274901,51.8797012741041 -2.33067879433051,51.8796154148833 -2.33057217018606,51.8795474025598 -2.33047169274645,51.8795009451274 -2.33016716116488,51.879379557769 -2.32975358108191,51.8792511947472 -2.32951362442189,51.8792132171313 -2.32939226240141,51.8793079367121 -2.3293387313066,51.8793422429563 -2.3288426014966,51.8794237205474 -2.32852165570969,51.8794488870773 -2.32830946452747,51.8794404918152 -2.32824772179977,51.879531448079 -2.32809996640232,51.8797854260878 -2.32803087497871,51.8798871893436 -2.32788418243146,51.8800899302815 -2.32764090736801,51.8803864205685 -2.32751891702463,51.8805934959775 -2.32744041536905,51.880785259649 -2.32719369809909,51.881631135407 -2.32692170502874,51.882181179429 -2.32672520137314,51.8823391147031 -2.32659217609172,51.8824131897407 -2.32627234783863,51.8825957356991 -2.32588219178561,51.8826777156803 -2.32580521452265,51.8826842211214 -2.32564776830948,51.8828104966184 -2.32557274159899,51.8828880951678 -2.32550070322491,51.8829646972712 -2.32552818324027,51.8829547336566 -2.32532022338877,51.883119798565 -2.32519206703939,51.8832883285786 -2.32513033364441,51.8833819795611 -2.32513595065598,51.8835627231243 -2.32512168267471,51.8835942214532 -2.32502533307439,51.8837383046529 -2.32483977299225,51.8839869899737 -2.32475465927073,51.8840780088846 -2.32442994186117,51.8843828064595 -2.32412085898092,51.8846300343124 -2.32411787606793,51.884631839854 -2.32392462572049,51.8848284120347 -2.32359171851507,51.8851952501445 -2.32332087594042,51.8853308230008 -2.32298069785151,51.885503529213 -2.32287072886487,51.8855541661083 -2.32263291998671,51.8856357164385 -2.32243560367096,51.8856677178449 -2.32219416039802,51.8858275659741 -2.32210443480135,51.8858781475314 -2.32190724994195,51.885945202914 -2.3218542904734,51.8860613892619 -2.32175310547976,51.8861344732855 -2.3216433325946,51.8862129735679 -2.321566547629,51.8862473398804 -2.32141553194234,51.8862711235819 -2.32104938529344,51.8862649336914 -2.3209378489571,51.8863147647623 -2.32073111361677,51.8866560830939 -2.32058707306952,51.8868353469606 -2.32022223035753,51.8874342551046 -2.32009706920795,51.8876072648597 -2.31992114560224,51.887801895043 -2.31980622376519,51.8879829667431 -2.31980459311455,51.8881582463393 -2.31981714629605,51.8884917747738 -2.31981721013595,51.8885007629537 -2.31977647789644,51.8885008738315 -2.31953678058224,51.8885052114608 -2.31937226387256,51.8884678172796 -2.319176541882,51.8883209382063 -2.31862327697265,51.8879637096662 -2.31816741857185,51.8876062147387 -2.31804489200797,51.8875255605022 -2.31791783836692,51.887448603785 -2.31778957515134,51.8873869295915 -2.31736235900784,51.887182158627 -2.31706031792051,51.8873996863487 -2.31688524983239,51.8875134135568 -2.31675484745806,51.8875731789708 -2.31628781666281,51.8872768287465 -2.3159089945216,51.8871213585986 -2.31588187069153,51.8871825527172 -2.31575148540319,51.8874499510084 -2.31573558418139,51.8874715659786 -2.31570557671179,51.8875318695979 -2.31567518682169,51.8875544225962 -2.31561309941811,51.8876014193044 -2.31556876590327,51.8877031085346 -2.31553432067069,51.8877796025326 -2.31549786906316,51.8879631556952 -2.31530839415571,51.8880904022468 -2.31514380523331,51.8882302546365 -2.31499311708636,51.8880966407764 -2.3148622130869,51.8880682283802 -2.31471411481175,51.8880821081663 -2.31461705522925,51.8881309054283 -2.31446979217136,51.8882644194465 -2.3142851351715,51.8884473798235 -2.31412988359256,51.8884837484597 -2.31404387323743,51.8884507213857 -2.31396050188163,51.8883664525673 -2.31378749955802,51.8881421122931 -2.31367214781683,51.8880588277754 -2.31353256153118,51.8880565039449 -2.3133150458561,51.8881146107888 -2.31310470990214,51.8881717989934 -2.31296111109832,51.8881955511515 -2.3129161166078,51.8882028620456 -2.31255468049677,51.8882560468972 -2.3121131003595,51.8884828316158 -2.3119335977711,51.8885813729056 -2.31184077339684,51.8886193709762 -2.31179153421625,51.8886365801746 -2.31174659364467,51.8886519797348 -2.31150702007185,51.8886741874466 -2.31130636480989,51.8886594390079 -2.31107198791195,51.8886016341312 -2.31091316402164,51.8885373378201 -2.31072639907382,51.8884172960084 -2.31030391141321,51.8882521257222 -2.31010447343155,51.8882049241741 -2.30994286963272,51.8881541159668 -2.30992227403827,51.8881209123705 -2.30990084482516,51.8879663676298 -2.30987249790456,51.8878512992913 -2.3098052915392,51.8877993436666 -2.3097413488433,51.8878040059935 -2.30957585936279,51.8878152287464 -2.30942642500727,51.8878614633291 -2.30937039653449,51.8879542826356 -2.3093842105541,51.8882734270867 -2.30916833384346,51.8883620825897 -2.3090696839971,51.8883893081395 -2.30898410504979,51.8884012180258 -2.30887229199985,51.8884131968241 -2.3087356871658,51.8884090621562 -2.30827642105778,51.8884003806984 -2.30815165275243,51.8884276731143 -2.3081097488422,51.8884493552701 -2.30786933654254,51.8885768134298 -2.30772734414652,51.8886257236851 -2.30735443612829,51.8887022032078 -2.3072978496449,51.8887140360184 -2.30727467609708,51.8887239841013 -2.30701824437839,51.8888397068402 -2.30673696231993,51.8889304160428 -2.30637017422993,51.8890617066726 -2.30574974169191,51.8892791363992 -2.30544117266061,51.8894102726154 -2.30501477371796,51.889532814668 -2.30470439269493,51.8896091234762 -2.30452894432376,51.8896724978719 -2.30433759920205,51.889741306031 -2.30403610027103,51.8898383540345 -2.30384901176764,51.8898990602295 -2.30365048911333,51.8899876607859 -2.3035665199505,51.8900256294777 -2.30340555291589,51.8900691907425 -2.30295147312289,51.8901926959581 -2.30231323657999,51.8903507397472 -2.30205088285587,51.8904440855208 -2.30185523591931,51.8905335747806 -2.30179315948893,51.8905849689551 -2.3016688930685,51.8906886557054 -2.30156307505982,51.8907383638711 -2.3014748086327,51.8907791284429 -2.30093529963333,51.8909396069867 -2.30063620519604,51.8909862141318 -2.30047507449176,51.8910064010573 -2.30026018755114,51.8910321179259 -2.29999186383137,51.8911119909113 -2.29971807730254,51.8912349327432 -2.29962537423419,51.891275618085 -2.29940086912769,51.8913868377908 -2.29916486577374,51.8915168731783 -2.29910273741251,51.8915790516673 -2.29900749760546,51.8916709767884 -2.29887439849238,51.8917630880167 -2.29867417026048,51.8918139325599 -2.29843181677244,51.891854097144 -2.2982227922137,51.891897773104 -2.29802992394103,51.8919566871557 -2.29788516564196,51.8920434340113 -2.29779846660515,51.8921047749956 -2.29756270439644,51.8922725579619 -2.29731965692588,51.8924440434166 -2.29702167003294,51.8926425432718 -2.29691186785322,51.8927435815934 -2.29692243092047,51.8928010814389 -2.29712668620963,51.8929237075552 -2.29723329768804,51.893010715893 -2.29726128907962,51.8930582841695 -2.29721071902739,51.8931114439607 -2.29698147466005,51.8931605616229 -2.29629649277164,51.8933070940195 -2.29608442042951,51.8933076284731 -2.29604508550772,51.8933023347294 -2.29593162320203,51.8932846437716 -2.29569887325019,51.8932563764144 -2.29549975599417,51.8932406978225 -2.29529204875915,51.8932672867249 -2.29518345568866,51.8933161867142 -2.29516637053594,51.8933782507902 -2.29518707998604,51.8934303315857 -2.29519599164925,51.8934554769508 -2.29529621362737,51.893664746317 -2.2953641315216,51.8938263686877 -2.29531659931278,51.8939046877904 -2.29526741200138,51.8939318663461 -2.29518021533318,51.8939365800124 -2.29485887712696,51.8939022415496 -2.29451278551849,51.8938752451928 -2.29440253913579,51.8939096775192 -2.29427518324652,51.8939846905374 -2.29420716378198,51.8940271070879 -2.29409102413685,51.8940399816501 -2.29392686688436,51.8940574699286 -2.29377985697427,51.8940218840959 -2.29363716958452,51.893969208775 -2.29349722604885,51.8939147282155 -2.29312388854752,51.8939354349004 -2.29302231604033,51.8939590586404 -2.29253198337011,51.8940825234365 -2.29233490775748,51.8941603144087 -2.29219138134921,51.8942181979033 -2.29204179377268,51.89422845719 -2.29203017692402,51.894229384264 -2.29196407221723,51.8943455897462 -2.2918885655751,51.8943610576057 -2.29162258312564,51.8943635161506 -2.29125041941142,51.8943257883388 -2.29000611740471,51.8942731371806 -2.28995563002817,51.8943406749017 -2.29031190273855,51.8946086413699 -2.29056336055691,51.8948246422853 -2.29073396511521,51.8949141947115 -2.2914812266847,51.895200963591 -2.29191589596019,51.8954344845515 -2.29204721577194,51.8955259299245 -2.29232000176317,51.8956843483082 -2.29252691987497,51.8957557411181 -2.292837956245,51.895991453508 -2.29286129461046,51.8960057765289 -2.29296189082336,51.8960522657442 -2.29320970743453,51.8961658915103 -2.29338704094832,51.8961834255874 -2.29404116064762,51.8962015654981 -2.29507381595966,51.8963311075472 -2.29593395769712,51.8965195897023 -2.29601255391451,51.8965364702242 -2.29582927847227,51.8967274870778 -2.29551594488738,51.8970393665561 -2.29556192876902,51.8973998681935 -2.29560656047561,51.8975543578129 -2.29567288335962,51.8976909051466 -2.2958388820171,51.8979700287204 -2.29592246987636,51.8980894548364 -2.29616036107069,51.8984583719745 -2.29622639061635,51.8985498871651 -2.2963039915904,51.8986333747036 -2.29638158633487,51.8987158722899 -2.29642787302261,51.8986842958668 -2.29647915401721,51.8987560750193 -2.29653298639522,51.8987604328869 -2.29706191221195,51.8994127381111 -2.29711821581924,51.8995735793814 -2.29715455370946,51.8997955022856 -2.29712709410392,51.9004644932236 -2.29711618440685,51.9010264789992 -2.29711631496242,51.9010462535369 -2.29708729118998,51.9010427314249 -2.29711014617549,51.9012009606784 -2.29714883608614,51.9015613895548 -2.29716007771215,51.9019389662848 -2.29716756420683,51.9022014997164 -2.29715913330775,51.9026851897028 -2.29719952789546,51.9028496664481 -2.29721151492027,51.9029044651951 -2.29717081562186,51.902911759175 -2.29714029779996,51.9029181282869 -2.29701867812182,51.903211549553 -2.29670330331232,51.9036556570419 -2.29638879790613,51.9042327000343 -2.29628595105254,51.9045027027461 -2.29627451510833,51.9045314947689 -2.2953216930135,51.9044152465127 -2.2956704929798,51.9039666539665 -2.29592564784401,51.9036576184935 -2.29625644452624,51.9033340087806 -2.29638909763066,51.9031681970677 -2.29652439967585,51.9029682225079 -2.29594100111798,51.9028941905544 -2.29551893294812,51.9028053679465 -2.2952569564373,51.902750298484 -2.29523817536942,51.9027737151585 -2.29515605049949,51.9028781877458 -2.29464780948935,51.9031725772816 -2.29442043814118,51.9032962893091 -2.29365673769437,51.9036543226879 -2.29382351203235,51.9038121027564 -2.29387773586187,51.9038937620659 -2.29394222035989,51.9039682945661 -2.29403160829034,51.9040759325889 -2.29403031171976,51.9040975079969 -2.29402482713834,51.9041568453961 -2.2940948223983,51.9041944217 -2.29413715478076,51.9042167869823 -2.29431020242017,51.9044537381768 -2.2943774997114,51.904518286946 -2.29459059799321,51.9046481747508 -2.29472371837318,51.9047718819093 -2.2948989358985,51.904899976962 -2.29501047690054,51.9048394741485 -2.29516215039593,51.904922775315 -2.29527452865583,51.9049899067012 -2.29536227184923,51.9050651891412 -2.29552750569695,51.9052239587464 -2.29560653770546,51.9053046557297 -2.29560512821311,51.9053091538881 -2.29565342673313,51.9053638622961 -2.29553186072252,51.9054306819506 -2.29508405446298,51.9056422271725 -2.29479847437171,51.9057553004408 -2.29447058428171,51.9058496923364 -2.29401919268923,51.9059541899896 -2.29398988235488,51.9059255001678 -2.29393426203364,51.9058690120971 -2.29390673314086,51.9058744737862 -2.29385584983959,51.9058826911951 -2.29353357069804,51.9059374277293 -2.29272104668348,51.9061678513095 -2.29220705914307,51.9062680033485 -2.29212452843109,51.9063122520132 -2.2918163093498,51.9062995360063 -2.29164667942221,51.9063673701192 -2.29162968794037,51.9064456116965 -2.29139524413875,51.9066098731712 -2.29088394489782,51.9068862771915 -2.29030688648406,51.9073372160094 -2.28979920741767,51.9077313545017 -2.28889341906545,51.9083963034773 -2.28812477839244,51.9091264354162 -2.288158397312,51.9091542169961 -2.28788986953364,51.909447089482 -2.28722663772805,51.9098523831889 -2.28508390862713,51.9112359788976 -2.2848166200292,51.9112752777727 -2.2856270002425,51.9120644719922 -2.28594848096748,51.9125357626356 -2.28616733746818,51.9128903627039 -2.28620449846957,51.9130224021727 -2.28622903952785,51.913224671434 -2.28624704588444,51.913774899429 -2.2862237252434,51.9139906782713 -2.28616827653783,51.9144134497866 -2.28606057248474,51.915082630889 -2.28583574892372,51.9162996720506 -2.28578697367344,51.9168680388858 -2.2858125939956,51.9170135884656 -2.28597646576335,51.917409665933 -2.28621097555178,51.9181500023449 -2.28651261990098,51.918945812885 -2.28677598015375,51.9194316182653 -2.28698258694692,51.9199093817524 -2.28729471793483,51.9209731965266 -2.2865626864535,51.9215611120798 -2.28452504210182,51.9231062121756 -2.28410741876184,51.9232924716771 -2.28379906843313,51.923277037611 -2.28361011835363,51.9232972674105 -2.2836653081211,51.9235129442633 -2.28367855747472,51.9235416750276 -2.28370641101753,51.9235856505474 -2.2837532134866,51.9236304785002 -2.28381020109446,51.9236743836487 -2.28386134840976,51.9237048210421 -2.28457614732898,51.9240609170745 -2.28497143679812,51.9242479046486 -2.28560052209053,51.9243955829176 -2.28618679881395,51.9246549075359 -2.28673752102841,51.9248280286667 -2.2868366779847,51.9248655376077 -2.28694340563509,51.9249434752817 -2.28699303338168,51.9249793068461 -2.28699309059174,51.9249882948958 -2.28699388640242,51.9251133211203 -2.28717141219496,51.9251245719791 -2.28745414847016,51.9252200553146 -2.28767579401887,51.9253246766296 -2.28788301992375,51.9254429044974 -2.28805398205512,51.9255719147429 -2.28826483242272,51.9257890004757 -2.28844078303415,51.9260232484307 -2.28852439634812,51.9261237102218 -2.28865196375889,51.9262915643618 -2.28881541605247,51.9263891335179 -2.28891482339911,51.9264652885318 -2.28907170684599,51.9266609332233 -2.28901219033542,51.9266916398757 -2.28902390740601,51.9267050926117 -2.28911780074324,51.9268190111567 -2.28914122784287,51.9268450193525 -2.28919054280492,51.9268314155683 -2.28965479899057,51.9273346854854 -2.29028450645652,51.9280200050019 -2.29048528408799,51.928252391396 -2.29091882480259,51.9287295765891 -2.29103443787432,51.9288444288514 -2.29116754136459,51.9289753256316 -2.29167692248544,51.9294775777632 -2.29206071841175,51.9298982570436 -2.29299767150316,51.9308534302258 -2.29395259745592,51.9318741652564 -2.29415015868534,51.9320670052801 -2.29434627006134,51.9322580513681 -2.29440397875613,51.9324098064925 -2.29452858091838,51.9325578885643 -2.29458820846457,51.9327833409211 -2.29493716795148,51.9329838900521 -2.29532562120891,51.9332265826614 -2.29530837964617,51.933249096413 -2.29443836281001,51.9343418063253 -2.29404428693095,51.9348040619016 -2.29315276850402,51.9359381592679 -2.29268970111716,51.9365300109371 -2.29217878054437,51.9371606287061 -2.29160022575921,51.9378884832693 -2.29156560339866,51.9379318016624 -2.29165317198737,51.9379900067995 -2.29181753374822,51.9382026177341 -2.29197005156038,51.9384009653721 -2.29217520300292,51.9386333376125 -2.29226448388226,51.9387149074917 -2.29232057560757,51.9388388941805 -2.29230413154132,51.93900431575 -2.29229713356873,51.9390537674482 -2.2922845302759,51.9391266025273 -2.29226449361903,51.9391626941254 -2.29221125674903,51.9392581005548 -2.29210999710342,51.9393464355145 -2.29207815381064,51.9393743775923 -2.29204583267354,51.9395516136197 -2.29206548252322,51.9398833151343 -2.29208841228197,51.9402959020241 -2.29209514743406,51.9404289984385 -2.29212459026097,51.9404936401388 -2.29213638141957,51.9405178784616 -2.29224584033543,51.940789137276 -2.29223639218545,51.9409051071055 -2.29213976146532,51.9410420556802 -2.29188661088284,51.9412548037616 -2.29166861062518,51.9415062022009 -2.29158487500914,51.9416160645023 -2.29149212980044,51.9416676167301 -2.2914084816177,51.941790960188 -2.29126501036271,51.9418632202432 -2.29115661245514,51.9419804239452 -2.29065536107878,51.9422990340179 -2.29027708824036,51.9425300643312 -2.29002060140286,51.9426925726543 -2.28975414561484,51.9428720928441 -2.28955117593939,51.9429823384069 -2.28944653124478,51.942993381187 -2.28908840619104,51.9429628034821 -2.28894357948178,51.943744405868 -2.28892541276941,51.9438676777134 -2.28895889643798,51.9438702917813 -2.28888949837031,51.944160778612 -2.28874984812851,51.9444011933696 -2.2885260071662,51.9446633866485 -2.28827047332278,51.9449598117853 -2.28822924502821,51.9451163056679 -2.28804903195441,51.9453738965706 -2.28785524463682,51.9455533239282 -2.28760085444861,51.9455970894832 -2.28729642729569,51.9455439043186 -2.28713765302639,51.945513731634 -2.28669483424194,51.9454284360947 -2.28668052451162,51.9454609182982 -2.28667769800419,51.9454690140931 -2.28577791167425,51.9453749404606 -2.28517556713853,51.9451391155321 -2.2848197809121,51.9450059650679 -2.28456706414116,51.9448384988152 -2.28416592171911,51.9446829860591 -2.28384672644379,51.9445875845088 -2.28355933346199,51.9444560627514 -2.28316708992118,51.9443221863719 -2.28274348024204,51.944274669318 -2.28266046428844,51.9442541966088 -2.28252939962377,51.9442419281682 -2.28230799743004,51.944208305137 -2.28183883339092,51.94501314535 -2.28148034118981,51.9456199807869 -2.28146301329548,51.9456496833468 -2.28138589331584,51.9456516650909 -2.28139439413138,51.9458422818653 -2.28143142249288,51.9459518478925 -2.28156625438697,51.9461062104682 -2.28165709846854,51.946208456862 -2.28176211026969,51.9462549442278 -2.2817825872617,51.946268376675 -2.28205691012574,51.9463999340982 -2.28215945374461,51.9465120390843 -2.28227720708119,51.9467356501317 -2.28236804700346,51.9468369978218 -2.2823827883472,51.9468540392987 -2.28243971457646,51.946883563724 -2.2827418247965,51.9470456121021 -2.28287338047186,51.9471351772711 -2.2829060770218,51.9472420560495 -2.28287176193084,51.9473563775119 -2.28280247366124,51.9474410320461 -2.28280129851761,51.9474832792911 -2.28281466577278,51.9475299851073 -2.28283972712765,51.9475667757756 -2.28291423350387,51.9476259178944 -2.28344232004529,51.9480886124472 -2.2834467478262,51.9480868036466 -2.28351694175924,51.9481468548429 -2.28359413908862,51.9481565557991 -2.28362175320671,51.948160084592 -2.28369082945896,51.9482713698627 -2.28375846058616,51.9483818503176 -2.28376945660879,51.9485094543128 -2.2838240872337,51.9486316503485 -2.28386840142926,51.9487349063525 -2.28379124247819,51.9487314980428 -2.28377528169913,51.948730637478 -2.28370298162254,51.9488135025525 -2.28371185731708,51.9488323561396 -2.28376193642303,51.9489365863505 -2.28375856981906,51.949088493465 -2.28370852541843,51.9492388049253 -2.28360624382224,51.9493999384841 -2.28379765599061,51.9495253101618 -2.28388234149882,51.9495809216554 -2.2839565714766,51.950264915445 -2.28400873070523,51.9509282976378 -2.28380373399888,51.9511814516003 -2.28355245113322,51.9514958361863 -2.28330418613353,51.9518138083884 -2.28077322307393,51.9524285584363 -2.28007224237663,51.9527233347339 -2.27991858922603,51.9528063923936 -2.27988378850647,51.9528244513934 -2.2798008164785,51.952832738694 -2.27832331728881,51.9529692688751 -2.27730964656411,51.9530679273547 -2.27688893082404,51.9530356614547 -2.27626434077463,51.9529777179029 -2.27468148890324,51.9527989635755 -2.27431624974673,51.9527935241109 -2.27287182367245,51.9528660930224 -2.27222306160363,51.9529170321117 -2.27169071268075,51.9529542153041 -2.27053409753525,51.9529865426228 -2.26931217334908,51.9530523541312 -2.2677250920155,51.953126983329 -2.26754501218162,51.9531885132341 -2.26754074663636,51.9531975110436 -2.26753675939118,51.9532739195201 -2.26754495035286,51.9534213987409 -2.26758761692335,51.9537377773389 -2.26760290499262,51.9538680715454 -2.26761041754537,51.9539210849488 -2.26772977896044,51.9539181170775 -2.26789456555044,51.9542315211643 -2.26795643155567,51.9543456210522 -2.26796308535641,51.9547393806915 -2.26787226241599,51.955367145758 -2.2678499032319,51.9555217944732 -2.26816189250125,51.9565991310066 -2.26829582696034,51.9571095371917 -2.26830600812338,51.9575913722997 -2.26835495393058,51.9584786686647 -2.26847515294104,51.9586347892372 -2.26858091738031,51.9587847411444 -2.26880314624398,51.9589666980758 -2.26899774823336,51.9591434148898 -2.26916729473402,51.9592634709372 -2.26941849981204,51.9594139907933 -2.26993096822915,51.9596906473961 -2.27066670752945,51.9600593679858 -2.2716022134722,51.9605013269167 -2.27148520618233,51.9606392102575 -2.27098369105499,51.961230185752 -2.2707163673202,51.9615355982445 -2.27077419679596,51.9619535155207 -2.27093692210582,51.963132777302 -2.27081968642698,51.9634737979675 -2.27060121290543,51.96418276602 -2.27037499170049,51.964801867882 -2.27010293361642,51.9655630914713 -2.26988558854781,51.9662037440038 -2.26987753572033,51.966562579332 -2.26986446541744,51.9665644066443 -2.26979749830674,51.9665645604242 -2.26971943236377,51.9673774710587 -2.26965316407953,51.9677354513969 -2.26971039893866,51.9678136089479 -2.26976599923944,51.9678790965446 -2.26976968210665,51.9679932411029 -2.26986389064586,51.9681728820242 -2.26991085898262,51.9682401875687 -2.27005290198727,51.9683908664036 -2.27051266083744,51.9688259259055 -2.27055558557873,51.9689390809737 -2.27064599552518,51.968964939391 -2.2709573723039,51.9689525361949 -2.27164056948621,51.9690400341223 -2.27199762032116,51.9690985314867 -2.27204855671561,51.9691065036435 -2.27245655058413,51.9691738699337 -2.27266827208866,51.9692740489442 -2.2730647083814,51.9693550127188 -2.27337651228938,51.9694127119446 -2.27364603633848,51.969445341284 -2.27405811020639,51.9694722457313 -2.27479776131677,51.969485798448 -2.27503667632116,51.9695175970864 -2.27532645925095,51.9695456814708 -2.27549682638929,51.9695551695313 -2.27569776018119,51.969558293749 -2.27585208373119,51.9695543360739 -2.27609643653451,51.9695330892394 -2.2766086266194,51.9695040207329 -2.27667977303585,51.9694607082497 -2.27696953452514,51.9694851931516 -2.27694094277462,51.9695589658414 -2.2777256968127,51.9698214626921 -2.27805524799323,51.9699141624858 -2.27844429031847,51.9699807436842 -2.27841555079979,51.9700302486441 -2.27883095845551,51.9701290346932 -2.27935614848592,51.9702986562503 -2.28007916061684,51.970471310606 -2.28056169086482,51.9705735260325 -2.2812534352896,51.9706196009951 -2.28151696223558,51.9706315537307 -2.28205120364172,51.9706338681425 -2.28220894997731,51.970716182079 -2.28247378221077,51.9707065575 -2.28305578699128,51.9706503282966 -2.28378762249005,51.9706009245571 -2.28438317575145,51.9706192595624 -2.28526407736099,51.9706449886234 -2.2868450337968,51.9706627129284 -2.2879572559245,51.9706743743418 -2.28829064497739,51.9706681642951 -2.28879954843492,51.9705743340221 -2.28999293321347,51.9703106422088 -2.29011652582476,51.9702869678743 -2.29253148828574,51.9698196977007 -2.29300707419585,51.9697546951711 -2.293303425393,51.9696649705779 -2.29363836477792,51.9694743896961 -2.29375451179764,51.9694138770372 -2.29428026881284,51.9692398947343 -2.29478281757846,51.9690597663114 -2.29485102831625,51.9690290349019 -2.29498736065474,51.968953998513 -2.29504218770236,51.9688774600949 -2.29500670954599,51.9687930582558 -2.29520310832043,51.9687817786932 -2.29566366055135,51.9686412106566 -2.29589579876573,51.9685345635681 -2.29624484667037,51.968265740708 -2.2965290959743,51.9681086250362 -2.29664203233688,51.9680174673775 -2.29692148466366,51.9677884566249 -2.29708528417999,51.9676755979903 -2.29724199899539,51.9675988000696 -2.29750479564471,51.9675019596345 -2.29768053576741,51.9674529769094 -2.29791167354872,51.9673965735357 -2.2981529521846,51.967349222175 -2.29876390990549,51.9672883475038 -2.29892529243835,51.9672645669552 -2.29923502038002,51.9672053546089 -2.29933813101882,51.9671718344465 -2.2993859986349,51.9671510395823 -2.29956150878868,51.9670498330686 -2.29970506868185,51.9669811564897 -2.29987060318773,51.9669142209635 -2.30009280250429,51.9668318606413 -2.30020466057599,51.966796520644 -2.30043302609069,51.9667752646008 -2.30080667241646,51.9669253120246 -2.30147085684173,51.9672158211597 -2.30198840505057,51.9675444587503 -2.30252329014403,51.9678622628874 -2.30284060328236,51.9680925381709 -2.30370324728325,51.9686558651093 -2.3038994386922,51.9688279357334 -2.3046848405726,51.969590187949 -2.30508902890061,51.9699379800309 -2.30529148985622,51.9701657596202 -2.30538551980277,51.9705098612288 -2.30562873652282,51.9705344870545 -2.30578799670461,51.9708333857768 -2.30706930814133,51.9706637633799 -2.30762804462682,51.9706317434703 -2.30816675971163,51.9706384227605 -2.30839634662485,51.9705829925607 -2.30897153960417,51.9706057517596 -2.30946536146718,51.9706466995995 -2.30932358568999,51.9709923157295 -2.30925399519139,51.9712406676356 -2.30918728478438,51.9714890119333 -2.30904774963899,51.9721618886348 -2.30893258506663,51.9721361246214 -2.30875904057866,51.9723136515572 -2.30865627085018,51.9723976027068 -2.3085243649951,51.972486034867 -2.30837647023587,51.9725709133302 -2.30818348668688,51.972662201634 -2.30792697069089,51.9728184627303 -2.30848423986371,51.9732170742304 -2.30926405805773,51.9737724851566 -2.30880095841686,51.9739633561736 -2.30874187026259,51.9740462945238 -2.30862421179958,51.974095140985 -2.30873146047917,51.9742260894403 -2.30879468068596,51.9743257840229 -2.30880953807277,51.9743742817013 -2.3087766069753,51.9744381858822 -2.30910127738734,51.9746621324196 -2.30932930533744,51.9747963581703 -2.3095661240746,51.9749342456936 -2.3104223459286,51.9753877872585 -2.31121469296714,51.9758541673811 -2.31155937521956,51.9760177423183 -2.31261970069138,51.976504974576 -2.31267077228364,51.9765129279293 -2.31308321858077,51.9765801427227 -2.31334398383372,51.9766028173175 -2.31359706523381,51.9765563021167 -2.31420359088152,51.9764818766298 -2.31437670499319,51.9764670328117 -2.31474462986255,51.9763985451836 -2.31553585169405,51.9762840697126 -2.31573824152147,51.9762844245576 -2.31615710962141,51.9762230774799 -2.31694434459508,51.9761742183998 -2.31798194294066,51.9761030143822 -2.31797445641197,51.9760796653297 -2.31826388893156,51.9760312436872 -2.31847591439481,51.9759686499924 -2.31994989614235,51.9758370129757 -2.32042860301388,51.9758023629121 -2.32076041942552,51.9757897735999 -2.32099045263722,51.9757954377632 -2.32183608355929,51.9757562733207 -2.32240424511933,51.9758095464917 -2.32264749673903,51.9758170583776 -2.32279302307138,51.9758057835252 -2.32284525498172,51.9757912581965 -2.32293381666721,51.9757541628756 -2.32303413315528,51.975732315331 -2.32314165663064,51.9757113469921 -2.32340056221967,51.9756755803808 -2.32353424448446,51.9756365623163 -2.32361423631657,51.975626454846 -2.32369570170639,51.9756208378454 -2.3237904103795,51.9756205771004 -2.32394324694965,51.9756246498425 -2.3240772649404,51.9756323706345 -2.32445175946423,51.9756789765392 -2.32467010977619,51.9756792720732 -2.32484911315386,51.9756661939634 -2.32522151184684,51.9756220206028 -2.32575851377087,51.9755989621959 -2.32577345723449,51.9756402675184 -2.32578523115158,51.9756582114218 -2.32581892307824,51.9756859819535 -2.32586852640988,51.9757065183138 -2.32592971657942,51.9757189324743 -2.32618608389639,51.975730805368 -2.32652714313543,51.9757846874796 -2.32653883120796,51.9757909468963 -2.32656514420703,51.9758107384483 -2.32659896565423,51.9758564849172 -2.32665140307241,51.9760522864022 -2.32667401979198,51.9761583762139 -2.32677365065845,51.9762407928262 -2.32681176104979,51.9762820336314 -2.32686621331762,51.976358282944 -2.32688241981589,51.9763914954446 -2.32674184973775,51.976473770359 -2.32665641077105,51.9765441165138 -2.32647313696837,51.9765644001943 -2.32641933014977,51.9765771333104 -2.32637854358746,51.9765808420051 -2.32633195556565,51.9765791731105 -2.32628976384641,51.9765712010264 -2.32618309801391,51.976528352945 -2.3261393456634,51.9765203842367 -2.32609133087339,51.9765205173954 -2.32605933183158,51.9765277970943 -2.32603614921368,51.9765422424087 -2.32595401537168,51.9766548255981 -2.32592210873869,51.9766746878476 -2.32588141540776,51.9766748006281 -2.32582448141697,51.9766533863929 -2.32573547824108,51.9766293645801 -2.32564504683774,51.9766071439473 -2.32560274737103,51.9766009692076 -2.32550229521702,51.9766039436981 -2.32541800554724,51.9766176598276 -2.32536562020078,51.9766276921406 -2.32532496337276,51.9766493766307 -2.32534725839762,51.9767113345681 -2.32534742074932,51.9767338052172 -2.32533461011671,51.9767716817992 -2.32531299038459,51.9768032009691 -2.32524353077192,51.9768591208544 -2.32515503227743,51.9769052068891 -2.32510867903296,51.9769358953143 -2.3250595209238,51.9769773779251 -2.32501616406833,51.9770242372565 -2.32498729285089,51.9770657536723 -2.32495866500666,51.9771242569209 -2.32488233019931,51.9772422161043 -2.32484661235036,51.9773330973628 -2.32488415308723,51.9774948740105 -2.32502098562706,51.9776922402618 -2.32505062916354,51.9777578633253 -2.32507438519913,51.9778225145504 -2.32509863302683,51.9779554749891 -2.32505799433567,51.9779798566194 -2.32496226712567,51.9780224560122 -2.32493471773033,51.978047699623 -2.32491893510353,51.9780729107145 -2.3249160497258,51.9780890979103 -2.3249220419295,51.9781043614805 -2.32493967216967,51.9781186946949 -2.3250461563473,51.9781525561339 -2.3250826776176,51.978173128077 -2.32509737215635,51.9781964576406 -2.32509623723567,51.9782387056773 -2.32508769461035,51.9782692895487 -2.32487008308334,51.9783733480676 -2.32477379449987,51.9785381008587 -2.32464305725565,51.9785869995381 -2.32458656847773,51.9786276030845 -2.32457082351472,51.9786582967069 -2.32456808196602,51.9786942581997 -2.32458591965492,51.9787373529543 -2.32465215047697,51.9788324472533 -2.32467434845483,51.9788809227289 -2.32468629633279,51.9789231355327 -2.32468498601666,51.9789411156632 -2.32466175928192,51.9789664371805 -2.32462993093799,51.9789809060837 -2.32457898404411,51.9789909340737 -2.3245295057635,51.9789883742502 -2.32449451470365,51.9789803816545 -2.32428396807973,51.9788658207344 -2.32411752318199,51.9787907772004 -2.3240973286208,51.9788204949177 -2.32405849869742,51.9788961043666 -2.32404430900132,51.9789428829429 -2.32402935912914,51.9790841315597 -2.32401089035602,51.9791533930115 -2.32394370023403,51.9793253457961 -2.32384960660157,51.9796124244624 -2.32377012473665,51.9796944376277 -2.32374427016487,51.9797385518931 -2.32372275773975,51.9797853505851 -2.32369296049979,51.9798987761543 -2.32367002089196,51.9799473760555 -2.32363983824392,51.9799906040134 -2.32356746122952,51.9800591146508 -2.32339360514159,51.9801728465495 -2.32333581589329,51.9802333176726 -2.32331419308764,51.9802648364677 -2.32329979244046,51.9802990317885 -2.32329861560029,51.9803358871365 -2.32332249311604,51.9804176157668 -2.32331985694195,51.9804517787406 -2.32330409046567,51.9804796859485 -2.32327508718687,51.9805031358686 -2.32320970265051,51.9805258766016 -2.32298574486106,51.9805507603515 -2.32292609010972,51.9805689007024 -2.32287246920705,51.980591519032 -2.32282900346195,51.9806239968062 -2.32282188594592,51.9806527792986 -2.32284443086717,51.9807497918017 -2.3228446435374,51.980779452365 -2.32283455578474,51.9807956592775 -2.32279834914175,51.9808191288558 -2.32266029129015,51.9808528543072 -2.32261394367657,51.9808853399087 -2.32259655135847,51.9809042632275 -2.32259676386545,51.9809339237911 -2.32261880611302,51.9809608289761 -2.3226266694309,51.9810363098087 -2.32256947836851,51.9811974478819 -2.32247273109674,51.9813001813063 -2.32256412986796,51.9814563281929 -2.32260437994746,51.9815947287488 -2.32258163646999,51.9816711926386 -2.3225644097604,51.9816964073625 -2.32253398957016,51.9817234555646 -2.32244690727791,51.9817677374607 -2.3224194306029,51.9817867783133 -2.32239918353397,51.9818093049087 -2.32239787076244,51.9818272850124 -2.32242275623331,51.9818487887636 -2.32252480995669,51.9818664853909 -2.32256429042031,51.9818807590167 -2.32259780624678,51.9819004417646 -2.32260384325671,51.9819219971865 -2.32258952229701,51.9819507994216 -2.32257211812951,51.9819679245763 -2.32246351122484,51.9820410284746 -2.32252258154112,51.9821587036432 -2.32258267154216,51.9822178628878 -2.32260058254254,51.9822879224708 -2.32260249765002,51.9823373530487 -2.3225895294125,51.9823706461458 -2.32256068900234,51.9824003864034 -2.32254325164627,51.9824131078772 -2.32249385484532,51.9824222325148 -2.32248083207658,51.9824312564818 -2.32244914508463,51.9824825765012 -2.32244928026408,51.9825014517276 -2.32246101604495,51.9825140032759 -2.32262172823948,51.9825917612101 -2.3226628555601,51.9826347932244 -2.32267327376468,51.9826644257736 -2.32266024452692,51.9828901594949 -2.3227415894663,51.9834689676447 -2.32276734340373,51.9838123430833 -2.32282749151855,51.9840801210851 -2.32291107928495,51.9843514310589 -2.32292198313098,51.9844655538986 -2.32288730034566,51.9847021328784 -2.32276490067017,51.9850962503236 -2.3227820650101,51.9852463989197 -2.32264019098063,51.9855704599883 -2.32263307400222,51.9855992424807 -2.32267745301003,51.9856934987574 -2.32268381908979,51.9857608936684 -2.32266665679549,51.9858121748218 -2.3226335717167,51.9858698814427 -2.32259892982029,51.9859113231928 -2.32247735829179,51.9860195166542 -2.32232913167039,51.9864631402495 -2.32229868438213,51.9868894524439 -2.32226848729815,51.9871493899331 -2.32223541377489,51.9874101435727 -2.32215593372012,51.9878977114138 -2.32231622053171,51.9885338287872 -2.32233093394786,51.9887442063641 -2.32232845383512,51.9888170191803 -2.32228406707943,51.9889232034902 -2.32227317964546,51.9890293858804 -2.3222808057194,51.9890716107543 -2.32227514109677,51.9891021865184 -2.3222594223976,51.9891372844134 -2.32221459127373,51.9891814503395 -2.32217832460722,51.9891977289299 -2.32215063315242,51.9892040966681 -2.32207346380107,51.9891926225325 -2.32200567192994,51.9892835907197 -2.32196496984355,51.9893007804857 -2.32192418416482,51.9893062849296 -2.32182161220167,51.989419909216 -2.321807301193,51.9894505095197 -2.32180746824231,51.9894738783377 -2.32181935987576,51.9895080015081 -2.32185028700824,51.9895510608258 -2.32187517008387,51.9895716665007 -2.32197009598251,51.9896145505762 -2.321950152878,51.9896803101392 -2.32195760022829,51.9896973680549 -2.32203658876631,51.9897447902887 -2.32204097538228,51.989753766526 -2.32203527561586,51.9897627703881 -2.32196699570957,51.9897854284516 -2.32188862268703,51.9898242924193 -2.32178678383618,51.9898389530865 -2.3216934263815,51.9898140410767 -2.32161654619112,51.9898600917398 -2.32146760933946,51.9900053018469 -2.32136386421163,51.9901736685195 -2.32120676127025,51.9904033912426 -2.32116516660074,51.9904808045358 -2.32107473783471,51.9906645045922 -2.32106909142354,51.9906977766258 -2.3210666580696,51.9907607019197 -2.32108613720603,51.9908487348366 -2.32110085352653,51.9910600115731 -2.32107623008872,51.9912947649988 -2.32094731613968,51.9915882280911 -2.32078045461994,51.9918817936625 -2.3206637549562,51.9920699696939 -2.32065696637927,51.9921284122742 -2.32065490428586,51.9922435586582 -2.32066273005202,51.992330725222 -2.32068651162481,51.9923989717756 -2.32073078505017,51.9924780387762 -2.3210261581474,51.9928440480057 -2.32185516581212,51.993911667202 -2.32223956822328,51.9942981033077 -2.32232621357719,51.9943905354618 -2.32240112761688,51.9944883034752 -2.32245126386337,51.9945636683302 -2.32249712613369,51.9946625049515 -2.32251060822368,51.9947172965362 -2.32251864413126,51.9948332243816 -2.32271585798549,51.9953227291374 -2.32293311587394,51.9957599563859 -2.32312887300206,51.9960453385574 -2.32321742169587,51.9962014925718 -2.32325586422723,51.9962868664488 -2.32332897104896,51.9965167678487 -2.32334261033745,51.9965932207561 -2.32335689475911,51.9967594661925 -2.32344682211538,51.9971071582755 -2.32349412982853,51.9974064308588 -2.32282606278096,51.9974774775105 -2.32299444041301,51.9978124606654 -2.3233352159666,51.9984057449193 -2.3234343596335,51.9986149907107 -2.32346856482114,51.9987119708471 -2.3234912371964,51.9988252518019 -2.32349589634588,51.9988719792609 -2.32350210090636,51.9989330825695 -2.32350401127107,51.9989816148785 -2.32348092067232,51.9992280489184 -2.32351319420691,51.9994572532353 -2.32401578018036,51.999468452958 -2.3247182975318,51.9995240406125 -2.32565689497966,51.999590655032 -2.32561846896526,51.9997077002413 -2.32561869658456,51.999739158888 -2.32562758523459,51.9997723908353 -2.32573512568499,51.9999284902345 -2.3256530375821,52.0000699247325 -2.32564558119597,52.0002344327073 -2.32570404428068,52.0002639318534 -2.32576013434753,52.0003636378492 -2.32578966649524,52.0006270035027 -2.32579310979835,52.0007042930222 -2.32560879647432,52.0007937881072 -2.32553317482426,52.0008164684075 -2.3255100122142,52.0008354079828 -2.3254970824979,52.0008579137768 -2.32550009549791,52.0008758826924 -2.32551186316041,52.0008920291949 -2.32556605610102,52.0009287309476 -2.32558808490862,52.0009521289406 -2.3256014040172,52.0009835511315 -2.32559899828617,52.0010491732067 -2.32556184298699,52.0011427542324 -2.32555974538359,52.001267787158 -2.32548598404232,52.0013318086145 -2.32547460700053,52.0013695909978 -2.32549522071601,52.0013964984661 -2.32553908855379,52.0014170497318 -2.32555227097997,52.0014295968604 -2.32555525146987,52.0014430713243 -2.32554522393305,52.0014682663479 -2.32552068545846,52.0014961979108 -2.32550035823585,52.0015088378174 -2.3253447679034,52.0015515138908 -2.32527653627558,52.0015832516607 -2.32534191624537,52.0017547470254 -2.3253452612331,52.0018185549987 -2.32533574839052,52.0019148457184 -2.32530877584896,52.0020048039221 -2.32526847370655,52.0020786190183 -2.32524110250847,52.0021137492583 -2.3251425087186,52.0021823328212 -2.3250875495864,52.0022392010282 -2.32508043429191,52.0022518043292 -2.32507900423869,52.0022697846369 -2.32508499993711,52.0022850480496 -2.32514070647651,52.0023316339672 -2.32521882068411,52.0024536587414 -2.3252309862662,52.0025247222219 -2.32521966727484,52.0025705935014 -2.32520818558928,52.0025939952383 -2.32509687784209,52.0027147466048 -2.32503765497407,52.0027967039169 -2.32505990556674,52.0028506613661 -2.3249205627991,52.0031144044885 -2.32489216424868,52.0032233309676 -2.32487065536342,52.0032719267287 -2.324846237534,52.003316935972 -2.32479414187585,52.0033548307736 -2.32475215003649,52.0033944958186 -2.32472041251196,52.003440423441 -2.32470475028865,52.0034837002057 -2.32470059161261,52.0035232607396 -2.32470967818414,52.0035672783312 -2.32473620628961,52.0036148422998 -2.32478911063831,52.0036722215625 -2.324933971278,52.0039550427517 -2.32499149911036,52.0040537545633 -2.32525207816279,52.0044424070336 -2.32542170592886,52.004727855428 -2.32569401881708,52.0051100935759 -2.3257159969554,52.0051262108619 -2.3257978351213,52.0051646340641 -2.32582420233461,52.0051897282388 -2.32583179594685,52.0052265589709 -2.32581902307767,52.0052706370414 -2.32582345773096,52.0052859047346 -2.32589521801831,52.0053424220489 -2.32600877571502,52.0055308615357 -2.32606749572717,52.0055945158886 -2.32610858930114,52.0056294564143 -2.32622278711981,52.0057074276012 -2.32664102527228,52.0059201879292 -2.32681616242949,52.0059701256189 -2.32689494337059,52.0059842875 -2.32713752708064,52.0060752935634 -2.32732869137247,52.0061322868818 -2.32776426041933,52.0063154230896 -2.32794215810976,52.0063481833435 -2.32800786709095,52.0063650781997 -2.3280691378436,52.0063828835909 -2.32819333975242,52.0064319723479 -2.32834412096351,52.0063209960583 -2.32835134111159,52.0063227731691 -2.3284172736605,52.0063702271318 -2.3284407614029,52.0063953287582 -2.32845709327545,52.0064276412668 -2.32846788787685,52.0065076064549 -2.32848109891535,52.0065237486122 -2.32856300774135,52.0065711578556 -2.32864616895403,52.0065925871271 -2.3287470762612,52.0066426394963 -2.32882013223994,52.0066622097163 -2.32896245231079,52.0066096789585 -2.32917008028045,52.0067160586011 -2.32931179562029,52.0067615025936 -2.32942304043216,52.0068286026801 -2.32948252208451,52.006798775138 -2.32954792892807,52.0067743227811 -2.32961914666874,52.0067561468051 -2.32970205734251,52.0067433307193 -2.32990303015044,52.0067283860897 -2.3303565879888,52.0067909288541 -2.33089799025562,52.0069072434032 -2.33139833690687,52.0069939195107 -2.33176026643996,52.0070755905188 -2.33195443825075,52.0071316687452 -2.33218638194657,52.0071786517717 -2.33247488988587,52.0071913190044 -2.33304516579699,52.0072634984684 -2.33312993060763,52.0073064028041 -2.33322824142857,52.0073942095311 -2.33339063156902,52.00748902449 -2.33353812728108,52.007535435096 -2.33369840846055,52.0075403739278 -2.33374951921326,52.00754831794 -2.33378889322351,52.0075607897835 -2.33381084874788,52.0075733110676 -2.33382117884471,52.0075894608018 -2.33382274663247,52.0076065336005 -2.33380709254691,52.0076497225103 -2.33380867369614,52.0076685934442 -2.3339340203195,52.0076763265927 -2.33417291437916,52.007672052415 -2.33436817797483,52.0076804854527 -2.33445573998922,52.0076955172853 -2.33491943000852,52.0077454301487 -2.33526046252419,52.0077615365624 -2.33538687615282,52.0077189307307 -2.33545956221564,52.0077043425247 -2.3355367670571,52.0076996277367 -2.33566353482973,52.0077046595968 -2.33580788769664,52.0077159320164 -2.3362731429785,52.007782014279 -2.3363373139126,52.007785426216 -2.33644360161945,52.0077824258268 -2.33654691856641,52.0077677493146 -2.33667346428073,52.0077431180598 -2.33712874912853,52.0076330557676 -2.33737576560592,52.0075586429646 -2.33768537975149,52.0074542991377 -2.33796020288705,52.0073878952386 -2.33816610296364,52.0072614671831 -2.33840001286852,52.0071699227509 -2.33852487112948,52.0071129371274 -2.33864707636634,52.0070865198663 -2.33891058970591,52.0070659862454 -2.33909148754319,52.0070969238318 -2.33914691062846,52.007103055822 -2.33918039728384,52.0070993637993 -2.33919198677053,52.0070912412901 -2.33918718354708,52.0070436170345 -2.33919436757549,52.0070247208878 -2.33920880768894,52.0070120956204 -2.33923204236729,52.0070030404308 -2.33965559547,52.0069397979998 -2.33977619700086,52.006907990576 -2.34001709632308,52.0067723800647 -2.34006787008635,52.0067515605527 -2.34015082088438,52.0067288497816 -2.3402496703334,52.0067114865763 -2.3403225475398,52.0067067811696 -2.34037205736159,52.0067093342474 -2.34042895503803,52.0067199559015 -2.3404932556809,52.006740442453 -2.34058684172107,52.0067896068452 -2.34087756008056,52.0068877261261 -2.34125565561344,52.0077667635478 -2.34131514196762,52.007912290604 -2.34133745851637,52.007987727531 -2.34135554319965,52.0080595812889 -2.34128803709277,52.0081866023641 -2.34128465561794,52.0083106501591 -2.34153981663139,52.0085338080354 -2.34190293576953,52.0087674369726 -2.34244647899247,52.0089680919493 -2.34305432222654,52.009203701176 -2.34335337102305,52.0090689026902 -2.34363990456977,52.0089942725646 -2.34382244347961,52.0088616114264 -2.34400097266794,52.0087703079205 -2.34427188252974,52.0089456853703 -2.34480782301524,52.0094997700424 -2.3449329587113,52.0096665842101 -2.34506094676397,52.0098137062224 -2.34519600088047,52.0099580210915 -2.34530321013335,52.0100584649325 -2.34539848629688,52.010138181171 -2.3455171016205,52.0102223223895 -2.34568693255131,52.0103270755109 -2.34660566428836,52.0108053338486 -2.34710055387814,52.0111086665189 -2.34741327987046,52.0112353771313 -2.34757395944639,52.0112898202357 -2.34768640559922,52.0113209468207 -2.34785864070225,52.0113626827863 -2.3481665579757,52.0114264868235 -2.3483548560716,52.0114636799902 -2.34855762823191,52.0114927409024 -2.34864357077195,52.0114987779588 -2.34882570372699,52.0115000351789 -2.34896417391407,52.0114942317019 -2.34927131702695,52.011458265596 -2.34979055319839,52.0119072139055 -2.3503831054977,52.0124052877277 -2.35091159630853,52.0129135268235 -2.3510621305943,52.0131594463377 -2.35113045346207,52.0131394679352 -2.35116395766713,52.0131375697382 -2.35123105609553,52.0131454593379 -2.35130113102132,52.0131650245019 -2.35136408091663,52.013195396319 -2.35141690424843,52.0132365846586 -2.35147130271281,52.0133101253924 -2.3519000523946,52.0133528858076 -2.35254266829771,52.0135353102849 -2.35242508211814,52.0137838286896 -2.35225893584242,52.0141520363835 -2.35211838191218,52.0146127467342 -2.35196542911842,52.0151778470121 -2.35185579553368,52.0156906858909 -2.3514773820655,52.0159417805689 -2.35080269934036,52.0163177964099 -2.35046746605282,52.0164841803648 -2.3501201817605,52.0167998929005 -2.34958687423776,52.0175594593466 -2.34937645462213,52.0178477992326 -2.34986727152043,52.0185718723409 -2.35021187288474,52.0190338313133 -2.35048626557867,52.0194592367831 -2.3506784022649,52.0197985101835 -2.35082486617981,52.019889753784 -2.35097946189255,52.0200988085137 -2.3511161652893,52.0204319547892 -2.35130962694062,52.020755044168 -2.3513042332681,52.0210023268678 -2.35137852244174,52.0213590290394</coordinates></LinearRing></outerBoundaryIs></Polygon>
  </Placemark>
