  <Placemark>
	<Style><LineStyle><color>ff0000ff</color></LineStyle><PolyStyle><fill>0</fill></PolyStyle></Style>
	<ExtendedData><SchemaData schemaUrl="#Wards__December_2019__Boundaries_EW_BFE">
		<SimpleData name="objectid">5341</SimpleData>
		<SimpleData name="wd19cd">E05011070</SimpleData>
		<SimpleData name="wd19nm">Sherrards</SimpleData>
		<SimpleData name="wd19nmw"></SimpleData>
		<SimpleData name="bng_e">523439</SimpleData>
		<SimpleData name="bng_n">214555</SimpleData>
		<SimpleData name="long">-0.21061</SimpleData>
		<SimpleData name="lat">51.816002</SimpleData>
		<SimpleData name="st_areashape">3068170.11707926</SimpleData>
		<SimpleData name="st_lengthshape">7417.170607764</SimpleData>
	</SchemaData></ExtendedData>
      <Polygon><outerBoundaryIs><LinearRing><coordinates>-0.225910030528694,51.8138102584693 -0.225591137204642,51.8136183715613 -0.22518163156326,51.8133703696384 -0.224980993421536,51.8132315072402 -0.224626394471251,51.8129896367441 -0.224071296699759,51.812572135013 -0.223618469882378,51.8122065177695 -0.223349265503737,51.8119713269869 -0.222887309490836,51.8115066824495 -0.222641304252689,51.8112322865996 -0.22248799647627,51.8110734585859 -0.222297190946941,51.81083414693 -0.222166490039577,51.8106540852911 -0.221972888675877,51.8103400262143 -0.22191315874254,51.8102348438225 -0.221813225502541,51.810048056006 -0.221645275209163,51.8096354978526 -0.221517656395266,51.8092649020138 -0.221411689572149,51.8088244250737 -0.221384727556957,51.8086981616551 -0.221319705752083,51.8082871590674 -0.221267009406131,51.8078942311729 -0.221238490251405,51.8077346826259 -0.221224137195475,51.807692214447 -0.221159244517139,51.8074996624519 -0.221087111974288,51.807342149777 -0.22100363666646,51.8071780835903 -0.220914687831117,51.8070436907687 -0.220825268852592,51.806918189488 -0.220723505364937,51.8067782080927 -0.220633287426659,51.8066760681227 -0.220493648143814,51.8065382099678 -0.220356030334055,51.806421958257 -0.220073626250609,51.8061892540397 -0.219870712960434,51.8060395599513 -0.219640187815431,51.8058895372201 -0.219468802043507,51.8057835600624 -0.219305450071493,51.805698290326 -0.21911777814862,51.8056019547098 -0.218728382940667,51.8054351390856 -0.21833543952211,51.8052825624393 -0.217962980848487,51.8051654448475 -0.2177115400211,51.8051032009415 -0.217448521683883,51.8050433878756 -0.217110224250901,51.8049789258056 -0.216813346019351,51.8049285766803 -0.216622736818424,51.8049068074014 -0.216328032586572,51.8048771659613 -0.215967785967288,51.8048537213351 -0.215908490004882,51.8048501248403 -0.215536047906632,51.8048417761714 -0.215093120449788,51.804855728944 -0.214555904595762,51.804904207271 -0.214077109996156,51.8049814382288 -0.21377478442508,51.8050326711325 -0.213388949218058,51.8051059177929 -0.213184402415957,51.8051432626552 -0.210402650866943,51.8057232144893 -0.208640693277918,51.8060785274429 -0.208199295607955,51.8061652930495 -0.207781493963894,51.8062390210282 -0.207446241915544,51.8062788577419 -0.207184502802768,51.8062955421237 -0.206792740430107,51.8062976582426 -0.206575468083806,51.8062907479945 -0.206213748346496,51.8062681488822 -0.20619059544288,51.8062668972996 -0.205984018268269,51.8062466646074 -0.205780367890806,51.8062219819815 -0.205377248344458,51.8061456205338 -0.205172131612946,51.8060885519873 -0.204915390753403,51.8060154128397 -0.20452618143161,51.8058809195535 -0.204337786589072,51.8058033396643 -0.204129855043382,51.8057057738413 -0.203912347576248,51.8055963753225 -0.203921892963575,51.8055758456657 -0.203949438678777,51.8055025521292 -0.203916772580212,51.8054848827454 -0.203881342509183,51.8054645652267 -0.20385713521039,51.8054507109028 -0.2038358457086,51.805438699565 -0.20382605667662,51.8054322573642 -0.203796291519129,51.8054138238839 -0.203766526415206,51.8053953894992 -0.203738315287343,51.8053769797492 -0.203724054466605,51.8053686717074 -0.203715662048965,51.8053631491447 -0.203687332082321,51.8053447375695 -0.203657602679367,51.8053254054007 -0.203633694086671,51.8053070613668 -0.203605554381384,51.8052868542691 -0.203599840570049,51.80528317104 -0.203580127499625,51.8052675878225 -0.20355622040208,51.8052492437998 -0.203544947333571,51.8052409804921 -0.203533674232417,51.8052327180823 -0.203504051913779,51.8052106907983 -0.203478816759081,51.8051896288511 -0.2034590680761,51.8051749442815 -0.203440985427662,51.805157497625 -0.203419910079644,51.8051400960578 -0.203393226532215,51.8051163152445 -0.203370860204765,51.8050952980164 -0.20335686247945,51.8050833980328 -0.203345339816754,51.805081423546 -0.203291924769503,51.8050743146691 -0.203249777934151,51.8051870281967 -0.203228716673194,51.8052415426602 -0.203224414208272,51.8052414769104 -0.202907614327267,51.8052564114182 -0.20281891764891,51.8052613483332 -0.202745331895611,51.805397763363 -0.202895194333124,51.8054216287497 -0.202885541620084,51.8054448533725 -0.202900052006124,51.8054468735765 -0.202949008883569,51.8054548128229 -0.20295701388531,51.8054369564471 -0.203111141859122,51.8054617859777 -0.203125616614641,51.8054647039176 -0.203067846085871,51.8055672899659 -0.203042626163322,51.8056181448795 -0.203033223159911,51.8056350806873 -0.203017397877655,51.8056330412972 -0.202997185466073,51.8056300356443 -0.202943627298363,51.8056265203069 -0.202892949807376,51.8056257456967 -0.202757157411213,51.8056119830112 -0.202739778145985,51.8056099198303 -0.202699247800839,51.8056066035346 -0.202668925421948,51.8056052407891 -0.202618234657952,51.8056017691416 -0.202613932168954,51.8056017033668 -0.202556070113979,51.8055981220608 -0.202502512004348,51.8055946065281 -0.202482228292753,51.8055933972118 -0.202457607855441,51.8055930207937 -0.202405412094088,51.8055913235582 -0.202337355400532,51.8055884854816 -0.202276588914374,51.8055857579379 -0.202274869779422,51.805592923495 -0.202263025910699,51.8055990350339 -0.20215458165016,51.8055892866568 -0.202152719801487,51.8056000450503 -0.202087710354393,51.8055927583007 -0.202073711321966,51.8055808581576 -0.202007054129437,51.8055789395993 -0.201933069634223,51.8055778081493 -0.201899686772781,51.8055781968125 -0.201779304905491,51.8055799515902 -0.201225329456261,51.8055768713976 -0.201122808639711,51.80578215053 -0.199610342198098,51.8087982491275 -0.198465612324416,51.8110575241052 -0.198375644143183,51.8112378263219 -0.196787511493287,51.8143886262341 -0.195997263056982,51.8159726170383 -0.195412686659762,51.8171326609721 -0.195373552305155,51.8172048760591 -0.195409527434009,51.8172117208845 -0.195533363835192,51.817235196211 -0.19598017034386,51.8173103726213 -0.196653896083984,51.8174070974081 -0.19698414926834,51.8174562107777 -0.197260841112536,51.8175045020341 -0.197726963378523,51.817602441814 -0.198079095808357,51.8176879349933 -0.198457871974179,51.8177953210619 -0.198709569115152,51.81788547711 -0.198954965360921,51.8179927056225 -0.199014781452168,51.8180196908347 -0.199039016793381,51.8180299506547 -0.199191589653557,51.8180979109107 -0.199360388119944,51.8181939877726 -0.199519646980704,51.8182773320508 -0.199819438900741,51.8184725898089 -0.200086523239105,51.8186871233259 -0.200324894602195,51.8188957333443 -0.200466918169509,51.8190454250522 -0.200702246776434,51.8193304879528 -0.200947995147896,51.819645375555 -0.201150079147845,51.8198911845254 -0.201309232755003,51.820082489063 -0.201416826202315,51.8202226634 -0.201513328010667,51.8203499927267 -0.201616370538987,51.8204963001273 -0.201698970793121,51.8206091232106 -0.201741997747476,51.8206942827875 -0.201768746085361,51.8207135699389 -0.201828190647735,51.8208250504751 -0.201875212646344,51.8209571064066 -0.201907651806039,51.8210888502468 -0.201930286178543,51.8212475013176 -0.201933934592752,51.8213752079604 -0.201926124412703,51.8214992342343 -0.201909017057906,51.8216374112457 -0.201871942263704,51.8217662934749 -0.201774870601949,51.8219446884134 -0.201635620609889,51.822163790983 -0.20154030217501,51.8222980750923 -0.201381309567415,51.8224629387659 -0.201183791361449,51.8226127393026 -0.200981245680619,51.8227445737512 -0.200570251781692,51.8230061739975 -0.200297900787111,51.8232142488182 -0.20006018647891,51.8233877947753 -0.200046759214261,51.8233974778837 -0.200200319773796,51.8234771375833 -0.200511103712989,51.8236526945626 -0.200752467700063,51.8237508664386 -0.201124042924519,51.8238931916461 -0.201486003280783,51.8240246706983 -0.201875461944221,51.8241564800222 -0.202231052965035,51.8242643973676 -0.202639491459727,51.824355232534 -0.203021255585091,51.8244248931662 -0.20423923376116,51.8245603639011 -0.207299456693317,51.8248570557203 -0.207559130539391,51.8248951741408 -0.207759327676249,51.824930587967 -0.208196928540134,51.8250226569007 -0.208483397483465,51.8251152083559 -0.2087755758457,51.8252509052908 -0.208948828384726,51.8253443376847 -0.20973920071063,51.8259786187928 -0.210223221294467,51.8264365338055 -0.210354934617442,51.8261894425942 -0.210474679001281,51.825948461724 -0.21078914008754,51.8254101984915 -0.210942469509004,51.8251670294631 -0.211162805083929,51.8248421773606 -0.211340798168376,51.8245984839398 -0.211688366608907,51.8241784796003 -0.21198722344623,51.8238494270789 -0.212224598537895,51.823607534784 -0.212673583674703,51.8231880818377 -0.212885738087746,51.8229998308403 -0.213103655739295,51.8228079830864 -0.213456013911767,51.8225201920276 -0.214089564774223,51.822058681361 -0.214375816234114,51.8218660711698 -0.214903457601753,51.8215108206177 -0.217016377752909,51.8201068255762 -0.217229451677949,51.8199671259348 -0.218729436619932,51.8189800835323 -0.219508514614787,51.818465825023 -0.22044920249958,51.8178632130316 -0.221278644030964,51.817323634171 -0.22177310850293,51.8170002091162 -0.223076075715006,51.8161485441477 -0.223832047660748,51.8156294882338 -0.223978469939298,51.8155228360577 -0.224124735232444,51.8154171695748 -0.224785845312344,51.8149127672494 -0.224854637362862,51.8148607672244 -0.224980976107245,51.8147476077855 -0.225188361879439,51.8145627656394 -0.22546557315885,51.8143025649444 -0.225556203302007,51.8142122384644 -0.225757823283604,51.8139913494248 -0.225910030528694,51.8138102584693</coordinates></LinearRing></outerBoundaryIs></Polygon>
  </Placemark>
