  <Placemark>
	<Style><LineStyle><color>ff0000ff</color></LineStyle><PolyStyle><fill>0</fill></PolyStyle></Style>
	<ExtendedData><SchemaData schemaUrl="#Wards__December_2019__Boundaries_EW_BFE">
		<SimpleData name="objectid">5188</SimpleData>
		<SimpleData name="wd19cd">E05010913</SimpleData>
		<SimpleData name="wd19nm">Southmead</SimpleData>
		<SimpleData name="wd19nmw"></SimpleData>
		<SimpleData name="bng_e">358478</SimpleData>
		<SimpleData name="bng_n">178494</SimpleData>
		<SimpleData name="long">-2.59961</SimpleData>
		<SimpleData name="lat">51.503841</SimpleData>
		<SimpleData name="st_areashape">2737744.45354682</SimpleData>
		<SimpleData name="st_lengthshape">9350.84900881261</SimpleData>
	</SchemaData></ExtendedData>
      <Polygon><outerBoundaryIs><LinearRing><coordinates>-2.60362492599569,51.4927417436809 -2.60359321370202,51.4928497750623 -2.60331871528419,51.4932262083454 -2.60321244370258,51.4933633871208 -2.60305549322794,51.4935845144365 -2.60286880605787,51.4937391858012 -2.60264741742849,51.4938833379105 -2.60255461412724,51.4939431428266 -2.60196188601897,51.4943265104985 -2.60132363522432,51.4947623342085 -2.5994003657438,51.4959589954648 -2.59836450677425,51.4966107729241 -2.59789726819094,51.4969035905136 -2.59751588791417,51.4971501244661 -2.59737858964645,51.4972326237362 -2.59713574367027,51.4973822688932 -2.5970985282538,51.4974067283975 -2.59703416086359,51.497443910709 -2.59680556481464,51.4975844038618 -2.59652837355246,51.497760289974 -2.5957909298781,51.4983206369643 -2.59555872669066,51.4985222706326 -2.59508626594843,51.4989733990631 -2.59473430114971,51.4992737087923 -2.59333897778151,51.5003183757057 -2.59249976006567,51.5009313553452 -2.59223258815257,51.5011035869278 -2.59205666368581,51.5012042534002 -2.59177057233901,51.5013558142767 -2.59091177897052,51.5017989907238 -2.59017919139079,51.5021830058106 -2.5888037889384,51.5028957410806 -2.58809388644063,51.5032634501754 -2.58769001044078,51.5034489412243 -2.58769156269152,51.5034588215265 -2.58772861148266,51.5035314472362 -2.58781354349582,51.5036416767883 -2.58784539794464,51.5037628688461 -2.58784885157428,51.5038095944537 -2.58783605371032,51.5039319095548 -2.58777985827341,51.5040419483877 -2.58774660099638,51.5041436907279 -2.58773842751455,51.5042930402078 -2.5877148934062,51.5043749585289 -2.58771424473637,51.5044351876323 -2.58778861970489,51.504721655416 -2.58786343316181,51.504940702689 -2.58787662419529,51.5049595135382 -2.58791014879239,51.5049890096549 -2.58793621802727,51.5050023627401 -2.58817940839813,51.5050865379839 -2.58825156773624,51.5050996597358 -2.5882907160116,51.5051138453702 -2.58832125061164,51.5051325691281 -2.58836212315594,51.5051791078023 -2.58841141365477,51.5053164824473 -2.58851215312534,51.5055282075918 -2.58854492493552,51.5056098433592 -2.58853741193733,51.5064820872359 -2.58847066345111,51.5065570320505 -2.58846589353428,51.5068501879216 -2.58839150564225,51.5073459478687 -2.58830846913555,51.5073832194935 -2.58826842873546,51.5074104771163 -2.58822573294949,51.5074529402782 -2.58801472396581,51.5076265885402 -2.58802045399858,51.5077300235662 -2.58854591380378,51.5076931380549 -2.58899965407468,51.507907584397 -2.58962923083298,51.5082326079865 -2.58980265962611,51.508276680807 -2.58996892616492,51.5083180928364 -2.59015818171712,51.5083549838828 -2.59050312478559,51.5084053824716 -2.59122288651368,51.509682173326 -2.59115442109694,51.5097346570329 -2.59098867036773,51.5098433646699 -2.59092585163216,51.5098914137919 -2.59086751950256,51.5099465429136 -2.59076829013587,51.510072893094 -2.5905369629575,51.5104570920335 -2.59043351446291,51.5105880473645 -2.5902684344998,51.5107488883134 -2.59022566827808,51.5107859604933 -2.58994291591329,51.5109888347328 -2.58927385736453,51.5115092660551 -2.58922809852546,51.5115355654953 -2.58912912507536,51.5115720200948 -2.58853155901435,51.5117143591995 -2.58817953065177,51.5117980205147 -2.588066272598,51.5118417377595 -2.58784153037536,51.5119561314851 -2.58718239393091,51.5122444895538 -2.58701176723655,51.5123082703703 -2.58689260578105,51.5123457237127 -2.58681073004749,51.51236321421 -2.58659344877215,51.5123930690321 -2.58649863471106,51.5124115224408 -2.58631906989443,51.5124547619894 -2.5861668642336,51.5125004701529 -2.58609519013745,51.5125259991152 -2.58587642031997,51.5126619339684 -2.58585206151078,51.5126710459752 -2.5858031216288,51.5126811783786 -2.5857498728956,51.5126796473495 -2.58572093421584,51.5126743988041 -2.58510600523732,51.512475213558 -2.58480142801055,51.5125540433749 -2.58470103524486,51.5125914017899 -2.58439727811579,51.5127250608512 -2.58414785425598,51.5128243777461 -2.58393488315013,51.5128479129112 -2.58376346320347,51.5128595547696 -2.58328678889375,51.5128790081693 -2.58316752930462,51.512909267108 -2.58308729769161,51.5129438258588 -2.58297576757321,51.513011801429 -2.58258504115278,51.513332057414 -2.58254254329244,51.5133907899937 -2.58249088887234,51.5137462161987 -2.58238664531861,51.5141612334761 -2.58235852530975,51.5142108144805 -2.58232156774934,51.5142568435432 -2.58226593342129,51.5143011679511 -2.58216866185878,51.5143601726862 -2.58210611487165,51.5145330790595 -2.58200913005175,51.5146144649595 -2.5820034677501,51.514627078195 -2.58503046598327,51.5144474912889 -2.58577629613354,51.5144015103731 -2.5858799368719,51.5143946989337 -2.5866607930325,51.5143746054939 -2.58691141540969,51.5143679553052 -2.58746613539867,51.5143552831524 -2.58792570035574,51.5143439857386 -2.58842126404084,51.5143325055136 -2.58894426103911,51.5143199859498 -2.58930568728557,51.5145204244444 -2.58934338051895,51.5145409104525 -2.58934626571494,51.5145435925757 -2.58936378698648,51.514556988498 -2.59025082670324,51.5152854111231 -2.59025517501586,51.5152907833856 -2.59031608329528,51.5153147468029 -2.59042908791239,51.5153609205396 -2.59044639698056,51.5153671256585 -2.59048076180109,51.5153507713891 -2.5905854475213,51.5153052963304 -2.59059252966416,51.5153016656401 -2.59061699687617,51.5152916537913 -2.59062407900272,51.5152880222003 -2.59063270590787,51.5152843828093 -2.59063552128711,51.5152816719438 -2.59064273467642,51.5152789388723 -2.59064992330224,51.515274407559 -2.59066277032526,51.5152662527403 -2.59070994557253,51.5152390462298 -2.59074420410653,51.5152145125633 -2.59075706130599,51.5152072559689 -2.59076426301318,51.5152036237671 -2.59077290011328,51.5152008834991 -2.59077714353294,51.5151981654193 -2.59079001238606,51.5151918079461 -2.5907986509234,51.5151890676692 -2.59080432973467,51.5151872415225 -2.5908072894597,51.5151863273917 -2.59086610645739,51.5151680520651 -2.59101974140214,51.5151223294282 -2.59121629714537,51.5150602089195 -2.59127228538621,51.5150437460707 -2.59130530619106,51.5150336908656 -2.5914044837976,51.5150125137434 -2.5914073239064,51.5150116011029 -2.59141313393945,51.5150106725494 -2.59141598571209,51.5150106581329 -2.59142179574485,51.515009729579 -2.59142606100722,51.5150088088343 -2.59143032628107,51.5150078889885 -2.59143329621692,51.5150078739742 -2.59143613631317,51.5150069604339 -2.59144183985798,51.5150069315997 -2.59144764988972,51.5150060030446 -2.59145050166206,51.5150059886272 -2.59158588878325,51.5150008099753 -2.59181879585996,51.5149564829593 -2.5918274459742,51.5149546417367 -2.59183750956753,51.5149518941813 -2.59184757315963,51.514949146625 -2.59186757193331,51.5149427529782 -2.59187053017992,51.5149418388305 -2.59188058208285,51.5149381921492 -2.59194943853233,51.5149153705277 -2.59203696210543,51.5148842745541 -2.59205687758738,51.5148715888281 -2.5920626291699,51.5148661664313 -2.59207124419098,51.5148616278257 -2.59208550287329,51.5148525665495 -2.59210274460499,51.5148443893565 -2.59211124145501,51.5148398513466 -2.59213412682056,51.5148271505794 -2.59218435391921,51.5148062214856 -2.59224023627892,51.5147816670214 -2.5923660504262,51.5147073188147 -2.59239176401653,51.5146928053247 -2.59223747661347,51.5145694454392 -2.59219522194941,51.5145363994922 -2.59192448546588,51.5143301178203 -2.59192298877897,51.5143247312004 -2.59152165029887,51.5140435102343 -2.59145759810827,51.5139970890938 -2.5913295906818,51.5139023606054 -2.59130631900191,51.513885398221 -2.59120448187287,51.5138113021485 -2.59108799718907,51.5137255932659 -2.59101102215511,51.5136720472207 -2.59092658656819,51.5136112562981 -2.59085967225747,51.5135639509149 -2.59085679725839,51.513562167962 -2.59077968128779,51.5135068240723 -2.59074621843128,51.5134827213218 -2.59064294489774,51.5134077327043 -2.59057603119246,51.5133604280148 -2.59036953100986,51.5132139550718 -2.59036665749304,51.5132121720966 -2.59036950771268,51.5132121577207 -2.59037234771883,51.5132112442123 -2.59041413375695,51.5132083367912 -2.59074998961992,51.5132147330481 -2.59078455091943,51.5132136594272 -2.59106819743626,51.5131978449931 -2.5911647295106,51.5131928624772 -2.59117626597559,51.5131937033941 -2.59132757910836,51.5131983323652 -2.5916967930249,51.5132207372636 -2.59176305225159,51.5132177056496 -2.59188407067756,51.5132134979284 -2.59192871996178,51.5132114746771 -2.59221889968399,51.5131407896618 -2.59245450655283,51.513085661797 -2.59250610992011,51.5130611299037 -2.59255476680824,51.5130384103698 -2.59257189985817,51.513031131988 -2.59253971098874,51.5129862585476 -2.5925103270048,51.5129468550025 -2.59249709510413,51.5129253479228 -2.59246180914057,51.5128706917481 -2.5924059996053,51.5127909704352 -2.59237515424677,51.5127488766902 -2.59235166066884,51.512714836568 -2.59229890195284,51.512641302294 -2.59226952864057,51.5126027968863 -2.59225188014605,51.5125795137444 -2.5922446115693,51.5125687639332 -2.59221087983513,51.5125239880796 -2.59220496494558,51.5125168263452 -2.59221073959634,51.5125132022062 -2.59231777774659,51.5124299593887 -2.59235479256678,51.5123983097559 -2.59235762080051,51.5123964979826 -2.5923876697683,51.5123773786114 -2.59242054665643,51.5123565364801 -2.59244186531876,51.5123330570832 -2.59244608354166,51.5123285407306 -2.59244746329572,51.5123249379225 -2.59246347634754,51.5122223798928 -2.59246180429734,51.5122035109405 -2.59245261690793,51.5121640042402 -2.5924245767722,51.5121183013571 -2.59253324943279,51.5120511410029 -2.59259367652648,51.5120382502524 -2.59265113240403,51.5120253745119 -2.5926539722902,51.5120244609566 -2.59272149246484,51.5120088375987 -2.59276175715785,51.5119987463736 -2.59280044205991,51.5119859655912 -2.5928244598399,51.5119507858283 -2.59282586294584,51.5119489803627 -2.59288006926562,51.5119055578166 -2.5928915235327,51.5119001065329 -2.5929505589176,51.5118899193078 -2.59294453868824,51.5118746682162 -2.59295599292811,51.5118692160282 -2.5929760264379,51.5118565296453 -2.59299026060432,51.51184567099 -2.59300166803169,51.511836624111 -2.59301587877368,51.5118239672107 -2.59303585372638,51.5118067861123 -2.59305162081708,51.5117950205073 -2.59311858921646,51.5117370600308 -2.59314558694444,51.5117117534202 -2.59316554866104,51.5116936740915 -2.59319133198821,51.5116845543778 -2.59320862941059,51.5116808709314 -2.59322010699017,51.5116772169653 -2.59322581011634,51.5116771880739 -2.5932589685461,51.5116779192716 -2.59326621488814,51.5116778825599 -2.59332384719449,51.5116784897454 -2.5933873110438,51.5116799656336 -2.59339301417015,51.511679936734 -2.5934348440076,51.5116806239403 -2.59351269699066,51.5116829260194 -2.59351697361513,51.5116829043438 -2.59358330075655,51.5116852647927 -2.59364676606348,51.5116867405319 -2.59364962934545,51.5116876251962 -2.59372320428426,51.5116899488218 -2.59377645066958,51.5116914772006 -2.59391524417952,51.5117204372807 -2.59406733931138,51.5117853769041 -2.594073184059,51.5117871456107 -2.59423985473064,51.5118582135694 -2.59428324965516,51.5118786681635 -2.59428908269185,51.5118795377385 -2.59430061887927,51.5118803783676 -2.59437131826788,51.5118899077914 -2.59437856464216,51.5118898710087 -2.59442751261041,51.5118896225363 -2.59447801552379,51.5118902644288 -2.59450247778408,51.5118892419543 -2.59461475055195,51.5118796818926 -2.59476584693127,51.511868127977 -2.59477735964254,51.5118671703213 -2.59479325541976,51.5118652921215 -2.5950883680934,51.5118458136487 -2.59509698225434,51.5118412757793 -2.59510120160904,51.5118367593453 -2.59520764033813,51.5118173410223 -2.59533120081771,51.5117897456605 -2.59544319115973,51.5117586132012 -2.59543727442288,51.5117514516652 -2.59551775535078,51.5117275801653 -2.59555076106721,51.5117166257772 -2.59556366352768,51.5117129643469 -2.59567423876593,51.5116827371645 -2.59567850364193,51.5116818171919 -2.59579640736468,51.5116578450669 -2.59579925892522,51.5116578305587 -2.59591846943773,51.5116338525697 -2.59592000232893,51.5116329455921 -2.59604800314939,51.5116179109188 -2.59604942964879,51.511617903658 -2.59618180308009,51.5116010500332 -2.5964247258477,51.5115521702072 -2.59663306571062,51.5115115559933 -2.59664929096467,51.5115348456117 -2.59665363821559,51.5115402167206 -2.59665656041146,51.5115455950899 -2.59666390092784,51.5115527492997 -2.59667125466553,51.5115608026175 -2.59667414154218,51.5115634845373 -2.59667996095682,51.5115724439487 -2.59668152915381,51.5115742334112 -2.59669173260774,51.5115912612694 -2.59670647397999,51.511610063456 -2.59689427544117,51.5115344963653 -2.59739432762237,51.5113242065377 -2.59752331752994,51.5112669166639 -2.5976465212758,51.5112123528206 -2.5977410689466,51.5111651267194 -2.59783838374381,51.5111205830544 -2.59795873545358,51.5110659435728 -2.59807625870615,51.511013206695 -2.59821515561829,51.5109504714385 -2.59829110884111,51.5109168239455 -2.59832974403074,51.5109004459564 -2.59844445034356,51.5108504197761 -2.59847881032146,51.5108340635877 -2.59864783265736,51.5107585001123 -2.59866073603633,51.5107548383702 -2.59873104322549,51.5107347025959 -2.59882867661093,51.5107054380522 -2.59899946832785,51.5106560238366 -2.59898783780411,51.5106479925505 -2.59887732286723,51.5105649587824 -2.59885838715147,51.5105524707594 -2.59891433160949,51.5105333074991 -2.59899461922233,51.5105041315346 -2.59903908819645,51.510488622693 -2.59907206851309,51.51047586921 -2.599115121614,51.5104611768395 -2.5991495505517,51.5104502133752 -2.59918536902379,51.5104365461751 -2.59919824718414,51.5104310870649 -2.59927568295385,51.5104019255182 -2.59938757254063,51.5103635986188 -2.59953388925143,51.5103143089686 -2.59970341919393,51.5102684952191 -2.59990626365633,51.5101361254032 -2.59999794368772,51.5100970023079 -2.60056184030083,51.5104600613192 -2.60065635859808,51.5104200239838 -2.60080253327125,51.5103599462056 -2.60086278831393,51.5103344675805 -2.60104194060451,51.5102616356028 -2.60134718685579,51.5101377272347 -2.60157658319092,51.5100457602109 -2.60164254156273,51.5100202521652 -2.60176721335621,51.5099692731603 -2.60178870462148,51.5099592746729 -2.60195203368693,51.5098937148262 -2.60206675954294,51.5098454832072 -2.60208394961498,51.5098426983176 -2.60217692404541,51.5099015489056 -2.60220316775797,51.5099184929286 -2.60226274688217,51.509958638709 -2.6022976150226,51.50998093162 -2.60237755608241,51.5100335565966 -2.60240956238749,51.5100549668032 -2.6024138745857,51.5100576412533 -2.60253311603559,51.510135233698 -2.60256944774912,51.5101603064183 -2.60257531648662,51.5101638720301 -2.60257819177333,51.5101656546899 -2.60258105518103,51.5101665391409 -2.60258697147298,51.5101737002849 -2.60258984676063,51.5101754829444 -2.60260887875065,51.5101951614397 -2.60261755074609,51.5102041058554 -2.60265705314365,51.5102443537063 -2.60267749977272,51.5102631257463 -2.6028380966302,51.5103144365123 -2.60285755627601,51.5102586041547 -2.60288433279748,51.5102171163728 -2.60303335755888,51.5101480328366 -2.60315063666963,51.5100862131967 -2.60326938993904,51.5100190834693 -2.60340375172298,51.5099374893023 -2.60342662153392,51.5099238885598 -2.603529441891,51.5098559405409 -2.60363796433068,51.5097788850821 -2.60364219322793,51.5097752675343 -2.60369926328898,51.5097336236266 -2.60371502873405,51.5097218568546 -2.60378342035191,51.5096648732484 -2.60381619702611,51.5096368374266 -2.60385890457595,51.5095961665903 -2.60388304430494,51.5095708727418 -2.60392131992587,51.5095275281094 -2.60398229602599,51.5094489189485 -2.60405467805137,51.5093613519355 -2.60410561792757,51.509296367373 -2.60411557253991,51.5092855296641 -2.60412830712337,51.509269283522 -2.60414817009452,51.5092440116669 -2.60418505599054,51.5092033707336 -2.60423346362805,51.5091535915184 -2.60430180627361,51.5090930121477 -2.60431039537705,51.5090866755042 -2.60435879164419,51.5090450760356 -2.60441303417458,51.5090052447507 -2.60443008225125,51.5089916729524 -2.60453443216149,51.5089228180402 -2.60460584020031,51.5088784032393 -2.60471593902954,51.5088130234992 -2.60498186686948,51.5086543443136 -2.60531519926852,51.508471855912 -2.60550539238594,51.5083630057839 -2.60551683142613,51.5083566544201 -2.60562700297832,51.5082967582368 -2.6057243564835,51.508246816186 -2.60595485352515,51.5081403637969 -2.60636342628105,51.5079791470061 -2.60653978872479,51.5079116263242 -2.60655988790611,51.5079043309098 -2.60671906144743,51.5078486751204 -2.60680516358137,51.5078194646966 -2.60688544470162,51.5077902843362 -2.60697581105589,51.5077601534626 -2.60705326445639,51.5077327850383 -2.607116260407,51.5077081888832 -2.60717651256821,51.5076827077453 -2.60720508213201,51.5076690760684 -2.60727100113356,51.50764086897 -2.60730534379629,51.507623612546 -2.60733824807592,51.5076054635063 -2.60734119516266,51.5076036508297 -2.60740548323561,51.507569069893 -2.60741989279187,51.5075627029597 -2.60747709151583,51.5075309451909 -2.6075013487576,51.5075146392127 -2.60759716485053,51.5074566129859 -2.60761706194686,51.507443027044 -2.60766575408975,51.5074149080876 -2.60773434322243,51.5073732040495 -2.60780290976593,51.5073297008775 -2.60786864730829,51.5072880115421 -2.60792435807344,51.5072516764745 -2.60799292428522,51.5072081740942 -2.60806000278009,51.507160184507 -2.60810284965268,51.507130298268 -2.6082270194505,51.5070424613398 -2.60834837069659,51.5069572455577 -2.60846692066149,51.5068757298281 -2.60858545826229,51.5067933148887 -2.60876951750903,51.5066620187706 -2.60893652810333,51.5065442056253 -2.60901361938636,51.5064898712148 -2.60952178823028,51.5061284803843 -2.60958740285396,51.5060778009781 -2.60964718610355,51.5060262526948 -2.60965001342374,51.5060244405837 -2.6097013373779,51.5059800377842 -2.60975686673165,51.5059303098743 -2.6097781752681,51.5059068273147 -2.60979805743005,51.5058833521682 -2.60980368806935,51.5058779297515 -2.60983066145101,51.5058427322934 -2.6098390460329,51.5058301041038 -2.60986457048884,51.5057931167597 -2.61000991939599,51.5055657482896 -2.61014253477135,51.5053546262049 -2.61024000755552,51.5052075988583 -2.61034017385514,51.5050487811661 -2.61044467496555,51.5048855367591 -2.61050383206328,51.5047872486751 -2.61057868892414,51.5046726094936 -2.61061115806346,51.5046221020871 -2.61064361657448,51.504570695571 -2.6106816799664,51.5045120693088 -2.61071134713644,51.5044651712916 -2.61075089547877,51.5044109422405 -2.61077783135869,51.5043730481937 -2.61078773587971,51.504358613709 -2.61081741674202,51.5043216045134 -2.6108316688641,51.5043035525551 -2.61086847497293,51.504257516472 -2.6109139046516,51.5042078406306 -2.61095648307264,51.5041581796255 -2.61099910821338,51.5041120232725 -2.61103607009368,51.5040776726589 -2.61105318378945,51.5040605049212 -2.61110729669685,51.5040116820211 -2.61115423480747,51.5039682905231 -2.61120984442327,51.5039248538149 -2.61132391592924,51.5038379645541 -2.61132972434343,51.5038370351213 -2.61138684138126,51.5037997928522 -2.61141685580098,51.503778962084 -2.61144676406173,51.5037590301186 -2.61151831401006,51.5037173075728 -2.61152975260027,51.5037109556348 -2.61153976489844,51.5037046111328 -2.61156264206419,51.5036919072517 -2.61157407920187,51.503685555317 -2.61158551777723,51.5036792033737 -2.6116084054973,51.5036673985848 -2.61163129464688,51.5036555937841 -2.61164415805429,51.5036492344045 -2.61165418233253,51.5036437880875 -2.6116770714597,51.5036319832781 -2.61168994687538,51.5036265229871 -2.6117128225239,51.5036138190849 -2.61172427308522,51.5036083662219 -2.61174716072571,51.5035965605077 -2.61175859925719,51.5035902085479 -2.6117700618298,51.503585654774 -2.61178292520027,51.5035792953796 -2.61178729526672,51.5035774742713 -2.61181018432986,51.5035656694366 -2.61182162284572,51.5035593174709 -2.61183307194111,51.5035538646051 -2.61184452246256,51.5035484108316 -2.61185739783697,51.5035429505226 -2.61186883634121,51.5035365985525 -2.61188171170971,51.5035311382409 -2.6118931622323,51.5035256853618 -2.61190461129958,51.5035202315901 -2.61191604979223,51.5035138796155 -2.61193046956905,51.5035084112406 -2.61194049379774,51.5035029657989 -2.6119533691371,51.5034975045806 -2.61196481844103,51.5034919617854 -2.61197769378673,51.5034865014635 -2.61198913226176,51.5034801494819 -2.6120134580851,51.5034692353679 -2.6120249085781,51.5034637824763 -2.61203778390946,51.503458322148 -2.61205065923791,51.5034528618183 -2.61207510316997,51.5034419470753 -2.61208799050571,51.5034373849359 -2.61212376676877,51.5034210187999 -2.61213664206547,51.503415557562 -2.61214809253179,51.5034101046586 -2.61315158097701,51.5030317300216 -2.6136963217267,51.5028247409913 -2.61400739354241,51.5027062558651 -2.61462795077647,51.5024665049957 -2.61463372274834,51.5024628790233 -2.61466668257625,51.5024492234494 -2.61469966651356,51.5024373642535 -2.61473122419626,51.5024255134231 -2.61474837481298,51.5024200303925 -2.61478280911544,51.5024099618832 -2.6148172540411,51.502400792464 -2.61491494700141,51.5023778077068 -2.61506034738184,51.502368955591 -2.61515120730138,51.5023765687781 -2.61528825049557,51.5023911310702 -2.61573447695942,51.502465195934 -2.61576106926042,51.5024021334061 -2.61576811153816,51.5023958041412 -2.61595742698435,51.502004598039 -2.61605807326476,51.5017774569989 -2.61626261312578,51.5013439226984 -2.61653466863324,51.5007903896868 -2.61662556510019,51.5005893668313 -2.61667552350264,51.5004533712153 -2.61670561447242,51.5003327603523 -2.61670510476774,51.5002949193803 -2.61670554491648,51.5001070475355 -2.61651957199537,51.4993517824063 -2.6162911322977,51.4985473898796 -2.61629940097527,51.4984115226762 -2.61633444326267,51.4983322362216 -2.61638335081583,51.4982241111026 -2.61574516727864,51.4978992748941 -2.61569865130625,51.4978761482257 -2.61581072644014,51.4977397360812 -2.61585738830683,51.4976765681625 -2.61586871608695,51.4976621266866 -2.61587411213582,51.4975245661817 -2.61582067281173,51.4974105973378 -2.61571385384461,51.4971782533943 -2.6156126553282,51.4970457472901 -2.61560520566891,51.4970305052365 -2.61557891409327,51.4970009800747 -2.61553779578295,51.4969463626482 -2.61530891716129,51.4966373538971 -2.61523730389519,51.4964524665756 -2.61513073289196,51.4961320286588 -2.61511476905121,51.4960134579571 -2.61501025442762,51.4959609711097 -2.61494794092925,51.4959288472949 -2.614061151262,51.4961933647372 -2.61349713183936,51.496347421215 -2.61328301264741,51.4963853955965 -2.61226018083,51.4968169077082 -2.61163288456976,51.4970899398742 -2.61148586147631,51.497189584823 -2.61113902589283,51.4973317111633 -2.61103398315266,51.4972306826157 -2.61099022197913,51.4971912695065 -2.61086924096467,51.497079536663 -2.61096364570361,51.4970332014914 -2.61103667231574,51.4969959664772 -2.61099867254664,51.496961107251 -2.61011234827087,51.496176218165 -2.6100949239104,51.4961610276469 -2.61009050510407,51.4961592532192 -2.61008478122473,51.4961574846805 -2.61005587216302,51.4961540393237 -2.60968506515349,51.4961101239448 -2.60966324610532,51.4960949562066 -2.60956267548777,51.4961152549565 -2.60966271951875,51.4960554068751 -2.60971699129445,51.4960191693165 -2.60974690593596,51.4959911480646 -2.60977376676882,51.4959567604728 -2.60984164346807,51.4958539325705 -2.60992208226457,51.4957312641664 -2.60994042797538,51.4956997072984 -2.61002093832851,51.4955823416724 -2.60999183805514,51.4955645152948 -2.60998169550909,51.4955609723185 -2.60995581690126,51.4955620060574 -2.60992677652227,51.4955486733336 -2.60988542522418,51.4955740575345 -2.60988393932953,51.4955695712795 -2.609967421169,51.4954612690141 -2.60998163519897,51.4954405207993 -2.60999844856672,51.4954098701465 -2.61001530963844,51.4953738270045 -2.61013931167903,51.495276011121 -2.61026757905895,51.4951773636707 -2.61025681223473,51.49512708134 -2.61030844890703,51.4951070366244 -2.61036430083693,51.4950824759683 -2.61038578415293,51.4950724761496 -2.61040301623146,51.4950642967637 -2.61040584287358,51.495062483741 -2.61041868019142,51.4950543272242 -2.61043870295147,51.4950416384281 -2.61045716957368,51.4950280585717 -2.61046575300007,51.4950216316873 -2.61058695311635,51.4949275155466 -2.61068110025343,51.4948533152766 -2.61068531550331,51.4948487993471 -2.61070812875583,51.4948316010939 -2.61070951737347,51.4948288972944 -2.6107109299611,51.4948279907831 -2.61071386415262,51.494825278936 -2.61071527675204,51.4948243733237 -2.61071667878866,51.4948225677112 -2.61071664282713,51.4948198713294 -2.61071804343512,51.4948180666235 -2.61071943203979,51.4948153619248 -2.6107193960781,51.4948126655429 -2.6107192522314,51.4948018800154 -2.61070754136475,51.4947875580921 -2.61083670364475,51.4947473343109 -2.61089685400006,51.4947245484257 -2.61095998523659,51.4947025562226 -2.61111634173815,51.4946532007109 -2.61126969466437,51.4946011649736 -2.61129984742123,51.4945911198036 -2.61132325692655,51.494511894531 -2.61131609520584,51.4945092352893 -2.61130250270521,51.4944697549518 -2.61129052632574,51.494435658429 -2.61128168808169,51.4944141310384 -2.61125786620587,51.4943557372076 -2.61124292122224,51.4943216570496 -2.61121276820007,51.4943227124435 -2.61117395621032,51.4942267328559 -2.61113371654523,51.4941217718285 -2.61116542697587,51.4941216065965 -2.61115642131267,51.4940964843422 -2.61114143744972,51.4940506281236 -2.61113398976077,51.4940353857702 -2.61112353415274,51.4940084736548 -2.6111144805527,51.4939797559208 -2.61110558250011,51.4939537339452 -2.61110228998523,51.4939294810751 -2.61110075603342,51.4939213984595 -2.61109756963763,51.49389624588 -2.61109573726979,51.4938656931064 -2.61109546139607,51.4938450202443 -2.61109667003704,51.4938288336303 -2.61110183134238,51.4937883563964 -2.61114066531432,51.4937791651901 -2.61114202987727,51.4937746631978 -2.6111045840781,51.4937721617371 -2.61110591410178,51.4937649633556 -2.61109438187665,51.4937641251841 -2.61098769677492,51.493761893601 -2.61102587923995,51.4934902277223 -2.61116418893365,51.4934949002401 -2.61131554948466,51.4934986063163 -2.61132993072195,51.4934994296164 -2.61143224342184,51.4935033911792 -2.61148559035147,51.4935049104788 -2.61150436765072,51.4935057117375 -2.61157065930831,51.493507164407 -2.61161676256616,51.4935087214171 -2.61165278219937,51.4935112301515 -2.61165879149522,51.4934275116373 -2.61166144796638,51.4934041260135 -2.61166515875111,51.4933618589023 -2.61168166541878,51.4931927790801 -2.61169067780266,51.4931117414679 -2.61169816073363,51.4930317009025 -2.6117270304822,51.4930324485901 -2.61170259910246,51.4929283044419 -2.61170135045422,51.4928348247635 -2.61168555545843,51.4928349071395 -2.61164660234248,51.4928351102835 -2.61161488224489,51.4928343774398 -2.6115400401331,51.4928329693788 -2.61145355992311,51.4928316228423 -2.61143622086102,51.4928317132344 -2.61141033181767,51.4928318481945 -2.61138146218735,51.4928310995293 -2.61135270922714,51.4928303502488 -2.61130222555837,51.4928297151227 -2.61127491055841,51.4928298574849 -2.61126909150123,51.4928298878123 -2.61126329601002,51.4928227265636 -2.61118977233252,51.4928222105642 -2.61108752114117,51.4928227433535 -2.61107313866701,51.4928219191312 -2.61106731961061,51.4928219494485 -2.6110644811343,51.4928228633933 -2.61106305661775,51.492822870815 -2.61103570444334,51.4928202268295 -2.61105982114791,51.4927940328435 -2.61109982875793,51.4927749475105 -2.61110825839191,51.4927569258563 -2.61111366962659,51.4927263353354 -2.6111473764571,51.4926623375822 -2.61118116716569,51.4926046316783 -2.61118516623377,51.4925839365352 -2.61118923686183,51.4925596452925 -2.61118018351336,51.4925309275556 -2.6111576087728,51.4924590434381 -2.61115285400139,51.4924231118463 -2.61115468486083,51.4923466964852 -2.61074271430353,51.4923488424337 -2.60965624822191,51.492322134238 -2.60821015179093,51.4923305412375 -2.60716672708306,51.4923970720656 -2.60670398727785,51.4923680051528 -2.60635599407902,51.4924120533924 -2.60534927247663,51.4924253433525 -2.60482374555887,51.4924442348623 -2.60457929448267,51.4924778558177 -2.60428351716254,51.4925459886789 -2.60410130459766,51.4926071528112 -2.6039161828258,51.4926548487906 -2.60362492599569,51.4927417436809</coordinates></LinearRing></outerBoundaryIs></Polygon>
  </Placemark>
