  <Placemark>
	<Style><LineStyle><color>ff0000ff</color></LineStyle><PolyStyle><fill>0</fill></PolyStyle></Style>
	<ExtendedData><SchemaData schemaUrl="#Wards__December_2019__Boundaries_EW_BFE">
		<SimpleData name="objectid">3585</SimpleData>
		<SimpleData name="wd19cd">E05009098</SimpleData>
		<SimpleData name="wd19nm">Bedlington Central</SimpleData>
		<SimpleData name="wd19nmw"></SimpleData>
		<SimpleData name="bng_e">425487</SimpleData>
		<SimpleData name="bng_n">580425</SimpleData>
		<SimpleData name="long">-1.60196</SimpleData>
		<SimpleData name="lat">55.117569</SimpleData>
		<SimpleData name="st_areashape">4162835.68990273</SimpleData>
		<SimpleData name="st_lengthshape">13303.8601431084</SimpleData>
	</SchemaData></ExtendedData>
      <Polygon><outerBoundaryIs><LinearRing><coordinates>-1.5936589396498,55.1385028450574 -1.59457807757329,55.1386614139322 -1.59493207724623,55.1387120013666 -1.59509355163542,55.1387314039775 -1.59524697263969,55.1387543730411 -1.59563573252713,55.1387826156082 -1.59612639066428,55.1388129924772 -1.59652478360719,55.1388223991792 -1.59747206936308,55.1388461997435 -1.59819180212512,55.1388620545697 -1.5985750675672,55.1381884911937 -1.59887402301786,55.1374733268921 -1.59903735378077,55.1369849917225 -1.59922430696677,55.1364878416917 -1.59935353252589,55.1359562738924 -1.59945838916363,55.1355073625188 -1.59959617223283,55.1342884185357 -1.59959457463712,55.1336602981922 -1.59967730248159,55.1326046672682 -1.59981765115757,55.1320579536531 -1.6002065939896,55.132061927638 -1.60040098757782,55.1320715497003 -1.60046207251161,55.1320798350164 -1.60071396318581,55.1321462415033 -1.60101903164583,55.1322227019532 -1.60163229561525,55.1323739260952 -1.60236590473879,55.1325685686082 -1.602356295139,55.1325856050842 -1.60233878397464,55.1326169896334 -1.60233403084897,55.132626855928 -1.60229243399349,55.1327004738117 -1.60225896410693,55.1327632479617 -1.6022509501849,55.1327757984779 -1.60222380233219,55.1328269142682 -1.60221578995418,55.1328394647872 -1.60219181728018,55.1328834049017 -1.60218391561028,55.1328977529653 -1.60215836248105,55.1329444726466 -1.60214871852037,55.1329651024655 -1.6021263593684,55.1330027594905 -1.60210714865971,55.133035935637 -1.60209120766145,55.1330655280982 -1.60207841356472,55.1330906396786 -1.60205605427312,55.1331282966905 -1.60204655669318,55.1331471306935 -1.60204326170161,55.1331534082722 -1.60202088446554,55.1331928615053 -1.60200981627516,55.1332134875558 -1.60198584224554,55.1332575174852 -1.60196980664347,55.1332835170488 -1.6019506990269,55.1333193874882 -1.60193791370038,55.1333436004903 -1.60191555569693,55.1333812574809 -1.60190276137018,55.1334063690335 -1.60188039267152,55.1334449245023 -1.60187722621782,55.1334512024852 -1.60186761769859,55.1334682397934 -1.60184210931546,55.1335103775546 -1.60182934168109,55.1335327942758 -1.60180852465785,55.1335714446684 -1.60179261892573,55.1335974436885 -1.60178143816914,55.1336162721318 -1.60177510677274,55.1336288280984 -1.60175432633843,55.1336637952798 -1.60173995221,55.1336915964862 -1.60171602310824,55.1337310454178 -1.60170165945064,55.1337579480642 -1.60168092364092,55.1337884233264 -1.60166812003215,55.1338144333814 -1.60165219621234,55.1338422295096 -1.60163614219366,55.1338700252101 -1.60162337344077,55.13389253177 -1.60161546238203,55.1339077774353 -1.60159784813266,55.1339364665965 -1.60158834841179,55.133955300494 -1.60159764224155,55.1339571281195 -1.60156768378005,55.1339785898715 -1.60217180173379,55.1341153153838 -1.60245199365391,55.1341719269879 -1.60279773206081,55.1342566898334 -1.60314345336877,55.1343431589229 -1.60317221129873,55.1342992343283 -1.60319130059541,55.1342651600113 -1.60322485613591,55.1342068780977 -1.60322805008307,55.1341978154444 -1.6032472516374,55.1341655377676 -1.60326637647287,55.1341278700967 -1.60329190162683,55.1340839349461 -1.60330467599056,55.134060619523 -1.60332072004867,55.1340337221896 -1.60333214980831,55.1339897411086 -1.60333860558095,55.1339646088159 -1.60335006204123,55.1339179329499 -1.60336954408376,55.133844242865 -1.60337775243269,55.1338119302579 -1.60338756696617,55.1337742322427 -1.60341364432271,55.1336746015821 -1.60344302075685,55.1335551300186 -1.60344957983736,55.1335326929292 -1.6034675094918,55.1334590876362 -1.60347731494536,55.1334222881763 -1.6034870935826,55.1333881834631 -1.60350500491313,55.1333163750933 -1.60351157271328,55.1332930393773 -1.60352305458264,55.1332435787195 -1.60352623855271,55.1332355035565 -1.6035425258109,55.1331708768315 -1.60354414083359,55.1331645937428 -1.60356208261793,55.1331026672812 -1.60357998478113,55.1330317565626 -1.60359958596237,55.1329590559862 -1.60361746217503,55.1328907501958 -1.60363061130608,55.1328297067096 -1.6036321891219,55.1328270169688 -1.6038012231115,55.1328643987264 -1.60381218908081,55.132867129294 -1.60407514957905,55.1329263762404 -1.60410017335897,55.1329327459722 -1.60411582095312,55.1329327968595 -1.60412126308275,55.1326965531093 -1.60415819434725,55.1326103427577 -1.60424413919677,55.1324848552342 -1.60427171809408,55.1323897219744 -1.60426252864737,55.1323645387074 -1.60320650314379,55.1321076800444 -1.60301863797891,55.1320657448551 -1.60301891438253,55.132037896579 -1.60302498255692,55.1319084669343 -1.60304148562493,55.1318222801359 -1.60305318071717,55.1317513501343 -1.60306028051559,55.1316614493372 -1.60306526156575,55.1316417028348 -1.60307195769903,55.1315923155604 -1.60307709919666,55.1315563994082 -1.60308055946533,55.1315204768749 -1.60309741649856,55.1310856480883 -1.60309910281824,55.1310721782924 -1.60311164444974,55.1310722191862 -1.60313054137184,55.1310704845135 -1.60315241178268,55.1310687586335 -1.60315409299161,55.1310687641147 -1.60323250616001,55.1310636299778 -1.60324536211511,55.1310321402691 -1.60326625555293,55.1309854950347 -1.60326992943109,55.1309280132586 -1.60327205068797,55.1308705273201 -1.6032727367409,55.1308013576951 -1.60327158665861,55.1307609280625 -1.60326752094549,55.1307015349124 -1.60325764421403,55.1305892109907 -1.60322540964054,55.1303581442417 -1.60321644254124,55.1303105030773 -1.60320160848432,55.1302287061477 -1.60315761779839,55.130074857547 -1.60312716045207,55.1299777380805 -1.60311496521425,55.1299426630825 -1.6030982402339,55.1298949966077 -1.60308902381025,55.1298725080243 -1.6030798073971,55.1298500194401 -1.60307073006627,55.1298266336144 -1.60305841101639,55.1298040450508 -1.60303835595792,55.1297662495304 -1.60302448506546,55.1297437457608 -1.60300905271529,55.1297221354894 -1.60297802537287,55.1296825078822 -1.60285864840126,55.1295419774775 -1.6028462573148,55.1295266654598 -1.60294218206597,55.1295027236113 -1.60303966748701,55.129477798326 -1.6031323583164,55.1294538457818 -1.60323462569474,55.1294290257937 -1.60333521337457,55.1294042002465 -1.60399551793633,55.129240158404 -1.60412605294426,55.1292073441079 -1.60426436435877,55.1291726688123 -1.60440591560859,55.129137196057 -1.60442002692691,55.1291354447372 -1.60443258727069,55.1291336892735 -1.60446873354043,55.1291266198031 -1.60451422423221,55.129115988113 -1.60452679188035,55.1291133340708 -1.60454883569545,55.1291071173451 -1.60455830142075,55.1291044523224 -1.6045662146045,55.1291017831533 -1.60457243934865,55.1291000070907 -1.60458036141232,55.1290964393569 -1.60458659503659,55.1290937647298 -1.60459451866592,55.1290901970002 -1.60459919087609,55.1290884158924 -1.60460867434681,55.1290839546368 -1.6046181400536,55.129081290508 -1.60463693243009,55.1290768594906 -1.60466841370889,55.1290706734002 -1.60468098290036,55.1290680193472 -1.60472503335084,55.1290591791879 -1.60474693076385,55.129054758238 -1.60475794741547,55.1290520991352 -1.60477052547236,55.1290485465092 -1.60480511906518,55.1290414727964 -1.60482713460833,55.1290379508083 -1.60483179950283,55.129037067362 -1.60483659142223,55.1290361843279 -1.6048522640806,55.1290335403337 -1.60486639308343,55.1290299927333 -1.60488051320884,55.1290273436951 -1.60489787427979,55.1290238074824 -1.60491355580323,55.1290202649165 -1.6049292284501,55.1290176209124 -1.6049497018823,55.129013195304 -1.60497172626946,55.1290087747261 -1.60499052900315,55.1290034459943 -1.6050094498848,55.1289990162357 -1.60502670009037,55.1289936815612 -1.60504562253145,55.128989251802 -1.6050676573332,55.1289839326482 -1.60508645847378,55.1289786038965 -1.6051085021248,55.1289723870701 -1.60519340598525,55.1289511025867 -1.60519806929303,55.1289502191213 -1.60521219823472,55.128946671481 -1.60523112063226,55.1289422416932 -1.60524836191642,55.1289378055512 -1.60527039665303,55.1289324872595 -1.60529242981549,55.1289271689586 -1.60531446454905,55.1289218497603 -1.60534582585965,55.1289147654133 -1.60536162702835,55.1289121217709 -1.60536629919142,55.1289103397352 -1.60537096249048,55.1289094562632 -1.60537730689726,55.1289085791405 -1.60538987598909,55.1289059250147 -1.6054024450881,55.128903269989 -1.60541500374577,55.1289015144193 -1.6054339261076,55.1288970837016 -1.60543703843951,55.1288961960976 -1.60544807272369,55.128891739805 -1.60545910856468,55.1288872844151 -1.6054684528668,55.1288837212348 -1.60550944463613,55.1288702889559 -1.60552202256692,55.1288667362527 -1.6055330568243,55.1288622808511 -1.60554563475039,55.1288587281454 -1.60556287596241,55.1288542919592 -1.60558179827599,55.1288498621172 -1.60562884816609,55.1288383355767 -1.60568859722611,55.128824156182 -1.60570116626995,55.1288215020242 -1.60571542371255,55.1288179547424 -1.60572800160797,55.1288144020181 -1.60573577720607,55.1288126309207 -1.605745233925,55.12881086437 -1.60575314853718,55.1288081951293 -1.60577830274448,55.1288010896665 -1.605781415061,55.1288002020537 -1.60578297486659,55.1287993085136 -1.60579400179863,55.1287957507588 -1.60580022487064,55.1287939746287 -1.60580656925806,55.1287930965851 -1.60580968158217,55.128792208073 -1.60581603481361,55.1287904323637 -1.60581914713729,55.1287895438514 -1.60584273266445,55.1287842304798 -1.60586630934189,55.1287798147689 -1.60588989485686,55.1287745013882 -1.60590245501987,55.1287727457735 -1.6059150224735,55.1287700906902 -1.60592604053455,55.1287674314873 -1.60595272950224,55.1287621281432 -1.60596219347222,55.1287594639054 -1.60597153041672,55.1287567992556 -1.60598099595234,55.1287541350215 -1.60598890897774,55.1287514648619 -1.60599683240176,55.1287478979402 -1.60600306431491,55.1287452223375 -1.606014091203,55.1287416654614 -1.60602200422363,55.1287389952997 -1.60603134115921,55.1287363306454 -1.60603769437161,55.1287345549246 -1.60604236648289,55.1287327728632 -1.60605027949097,55.1287301035982 -1.60604574006594,55.1287184107968 -1.60596626837498,55.1285033611644 -1.6059188812727,55.1283783393156 -1.60585312361563,55.128201962692 -1.60583486280803,55.1281524953365 -1.6056016573567,55.1281077213567 -1.60537464883372,55.1280638656133 -1.60513356541059,55.1280181665919 -1.60501457639817,55.1279953219401 -1.60496923792167,55.1279906836179 -1.60500608301484,55.1279125582444 -1.60506573714116,55.1277375756793 -1.60515934167324,55.1274763745301 -1.60281250626701,55.1269223697479 -1.60221958007053,55.1267892762299 -1.60151397959128,55.126623380512 -1.60153001707608,55.1265839057215 -1.60084150841815,55.1264280327781 -1.60040494057378,55.1263303878368 -1.60023607437184,55.1262921028161 -1.60010457504766,55.1262665171317 -1.60011452544572,55.1262153443938 -1.60022051985491,55.1259595774887 -1.60030687521495,55.1257927705092 -1.60049008044334,55.1255085101288 -1.60069808078847,55.1252530768651 -1.60097217926745,55.1249682152372 -1.60109248364535,55.1248581148928 -1.6012236144505,55.1247515526429 -1.60134991253162,55.124675607542 -1.60147122742429,55.1246068329496 -1.60164476314615,55.1245130757136 -1.60180079094417,55.1244245607018 -1.60193162404582,55.1243603087333 -1.60211425931323,55.1242872418591 -1.60252990503786,55.1241196228733 -1.60275486665446,55.1240413035106 -1.60299870302758,55.1239630462143 -1.60322525468194,55.123893714436 -1.60342638324547,55.1238458593977 -1.60379714592142,55.1237706191379 -1.60691617496984,55.1232712868323 -1.60954707035106,55.1228259171538 -1.6102646727648,55.1227114335419 -1.61109270801604,55.1225406134931 -1.61141663742394,55.1224527125767 -1.61177667113953,55.1223478580678 -1.61201414514886,55.1222694716855 -1.61225804739938,55.1221813142229 -1.61279962411485,55.1219520754135 -1.61354664816441,55.1215590914377 -1.61375959560555,55.1214357972834 -1.61396804440187,55.1212827530384 -1.61424600878891,55.1210662363523 -1.61458160249724,55.12074470653 -1.61567081384346,55.1193229368952 -1.61590737057506,55.1190136663409 -1.61607886111822,55.1187895333204 -1.61642293201934,55.1183889710703 -1.6166891052158,55.1180905727942 -1.61685510912202,55.1179527513407 -1.61700358613919,55.1178363455542 -1.61717237163107,55.117718295256 -1.61742945896154,55.1175582119907 -1.61900468745282,55.1167832082761 -1.61927246568473,55.1166527962049 -1.6195337373004,55.1165404196103 -1.6197764358511,55.1164100180392 -1.62011514696162,55.1162277205877 -1.62067963816802,55.1158853215191 -1.62113540848998,55.1156117539629 -1.62139553995784,55.1154544534757 -1.62156094745082,55.1153632455003 -1.62194677688506,55.115185671093 -1.62244093071952,55.1149795936505 -1.62265176155321,55.1148958015583 -1.62274776459996,55.1148583679343 -1.62291632986952,55.1147743549082 -1.62298721423305,55.1147413346988 -1.62307052319269,55.1147065574147 -1.62314622392009,55.1146699584916 -1.62322193781754,55.114618088783 -1.62326774380062,55.1145715165232 -1.62328567193737,55.1145068907431 -1.62327670119677,55.1144573646668 -1.62327707237268,55.1144178391663 -1.62325570639224,55.1143530921148 -1.62322933342478,55.1143260608516 -1.62321540552022,55.1143089489849 -1.62320759788742,55.1143008401951 -1.62313921356853,55.1142467284616 -1.62306434276522,55.1142087669365 -1.62254026475868,55.1139150966567 -1.62246068332305,55.113883408574 -1.62234196468638,55.113835339213 -1.62221208897977,55.1138052925425 -1.62200534560283,55.1137848887076 -1.62151808001467,55.1137555303207 -1.62122843592337,55.1137267833848 -1.62092996685459,55.1136198527067 -1.62090166359774,55.113633239296 -1.62051749799334,55.113813511316 -1.61979850471974,55.1140817638999 -1.61963805019835,55.1141414530807 -1.61904048133021,55.1143346197151 -1.61891311995992,55.1143665627461 -1.61880488760692,55.1143850899901 -1.61869026713184,55.1143955115872 -1.61856798708519,55.1143960281445 -1.61843636550694,55.1143866334817 -1.61831113702288,55.1143709702687 -1.61818440794959,55.1143499106903 -1.61805765464704,55.1143180708619 -1.61799516379996,55.1142972131802 -1.6177501051739,55.1141877444504 -1.6176440045698,55.114131623322 -1.61735263786891,55.1139447511745 -1.61716747732041,55.1138030391817 -1.61716748589683,55.1138021406093 -1.6171254175538,55.1137678713418 -1.61687153138083,55.1136089635756 -1.6167461885443,55.1134297088905 -1.61671235787145,55.1133586336322 -1.6166848501972,55.113288475985 -1.61668948138388,55.1131284958344 -1.61666841459795,55.1128714138269 -1.61659877727434,55.1126115737246 -1.61647386468997,55.112239086131 -1.61645907574979,55.1121501033111 -1.61645746406478,55.1121429121294 -1.61644570160132,55.1120620235478 -1.61646252103276,55.1117897891849 -1.61645594359598,55.1116532208353 -1.61643761588898,55.1115964775936 -1.61640219256321,55.1115298884121 -1.61635740449507,55.1114695580937 -1.61628594989789,55.1114001603639 -1.61614197034562,55.1112109643317 -1.61611086646037,55.1111794241959 -1.61604870841306,55.1111244296578 -1.61597087885662,55.1110729782285 -1.61587260401947,55.1110241571063 -1.61576326631918,55.110983296711 -1.61564128950267,55.1109532666545 -1.61553328792621,55.1109349588381 -1.61500889210607,55.1108596362258 -1.61483973499679,55.1108438291801 -1.61478024992825,55.1108337589663 -1.61408638724183,55.1106140712586 -1.61349649201094,55.1105097881792 -1.61336339505238,55.1104940936247 -1.61329901595735,55.11049568534 -1.6132252732857,55.1105035365573 -1.61308702866119,55.1105390302481 -1.61301465249257,55.1105657508861 -1.61285233097081,55.1106586619403 -1.61272920280194,55.1107481938854 -1.61261537944005,55.1108511408692 -1.61241625152223,55.1110078066121 -1.61212100567667,55.1112269597991 -1.6119120546655,55.111436595487 -1.61177410501378,55.1116014501105 -1.6117294121266,55.1116921298572 -1.6117013545244,55.1118267925091 -1.61165968676113,55.11208547146 -1.61165610769113,55.1121348686303 -1.61165067067286,55.1122157027637 -1.61165781540699,55.1122786994169 -1.61168851797564,55.1123515623928 -1.6117328819542,55.112468488645 -1.6118862525342,55.1126469392815 -1.61199448774537,55.1128017995435 -1.61203921661476,55.1128809964509 -1.61207742220199,55.1129800261981 -1.61206499089379,55.113463384475 -1.61200693812297,55.1137857938083 -1.61200692942804,55.1137866923798 -1.61196231466793,55.1138558114358 -1.61189513591343,55.1139993326082 -1.61187920025092,55.1140298251631 -1.61185536365625,55.1140620897097 -1.61181891256687,55.114102398704 -1.61172439112698,55.114146205747 -1.61154798088367,55.1142372737211 -1.61140111377944,55.1143473000879 -1.61124300801679,55.1144834333098 -1.61110094155462,55.1145782029546 -1.61093717045224,55.1146585308359 -1.61079395179279,55.1147119734574 -1.61068075728709,55.114748443094 -1.61049992470495,55.1148018548669 -1.61032080794235,55.1148515885081 -1.61000348273084,55.1149179469512 -1.60962362684651,55.1149679345658 -1.6088825195271,55.1150815303932 -1.60850847781999,55.1151710598851 -1.60721729442052,55.1154373893708 -1.60689344083538,55.1155225838 -1.60670967428105,55.1155579240037 -1.60652782978983,55.115555538881 -1.60636215150973,55.1155127814246 -1.60626064661697,55.1154639421359 -1.60616726904436,55.1154034517782 -1.60569061488511,55.1150829063267 -1.60510141737307,55.114588524674 -1.60454491123641,55.1142668178377 -1.60405849808442,55.1139947451277 -1.60386233676425,55.1138593554465 -1.60377981503399,55.1137997962975 -1.60373015543099,55.1137501361537 -1.60357663348784,55.1135771544957 -1.60352556539024,55.1135132055492 -1.60349806026258,55.1134321755176 -1.60347072002251,55.1133476423788 -1.60347165392767,55.1129397084198 -1.60346333582763,55.1126700881086 -1.60346002634452,55.1125343385359 -1.60344067987644,55.1124255755434 -1.60340131214319,55.1121199217234 -1.60336934319463,55.1118762764696 -1.60329505794972,55.1116119216112 -1.60319848678787,55.1113923215484 -1.60302800168912,55.1111976338783 -1.60293018773027,55.1111038873583 -1.60282767586734,55.1110146166243 -1.60271216327771,55.1109593512853 -1.6025965862123,55.1109104629857 -1.60231700531241,55.1108089351963 -1.60222352010931,55.1107610173419 -1.60207466330625,55.1107578357368 -1.60188009058556,55.1107769630766 -1.60170748008244,55.1107970596958 -1.60156658216397,55.1107732421055 -1.60141763298198,55.1107790430136 -1.60126389235575,55.1107857257491 -1.6011747029023,55.1107737554494 -1.60105900073875,55.1107374432323 -1.6009137978546,55.1106785746329 -1.60076885583426,55.1105935655729 -1.60061605908581,55.1105185023377 -1.60046899395466,55.1104910690959 -1.60036876508752,55.1104844517903 -1.60020876445255,55.110483926564 -1.59975900585318,55.1104824490382 -1.59949848181215,55.1105049496965 -1.59884052740089,55.1106177711908 -1.59854396273764,55.1106510213938 -1.59836053203468,55.1106540090781 -1.59819429210133,55.1106570541133 -1.59739086836148,55.110595918582 -1.59695695185775,55.1105612439338 -1.59666424871314,55.1105189517988 -1.59621391615507,55.110561478001 -1.59584674866538,55.1105979902046 -1.59556861435679,55.1106618367495 -1.59488717992085,55.1107817457264 -1.59391320425646,55.1109834129886 -1.59344734283198,55.1110141980084 -1.59319727679865,55.111087925685 -1.59244436577939,55.1112957091894 -1.59113888455966,55.1115690086139 -1.59065315387124,55.111696737568 -1.58934991683158,55.1119125319905 -1.58840907280205,55.1120917178591 -1.58838860605028,55.1120961398486 -1.58808059329386,55.1121723557935 -1.58771273629132,55.1122736107517 -1.58756761767043,55.1123584615458 -1.58680276757053,55.1126533076621 -1.58646435141772,55.1127815194783 -1.58621569911339,55.1128786834729 -1.58601863427343,55.1129867120633 -1.5858270733797,55.1131622246518 -1.58564100626678,55.1135686279807 -1.58558699333646,55.1136421082249 -1.58551428431126,55.1136984559796 -1.5855127246291,55.1136993492639 -1.58547894588924,55.1137783770788 -1.58550939007604,55.1141711441545 -1.58545376591491,55.114387543903 -1.58522438067711,55.1148944135976 -1.58507414158766,55.1151724757124 -1.58471361956022,55.1157715169213 -1.5845347666208,55.1162399291113 -1.5844238132763,55.1165055484859 -1.58423007194565,55.1170377823979 -1.58411492885043,55.1174075944247 -1.58396686670024,55.1176236784989 -1.58372289177932,55.1178762666438 -1.5835886356561,55.1179701337663 -1.58344805427914,55.1180630805418 -1.58294217586731,55.1183147732504 -1.58266331601375,55.1184405741483 -1.58229041049413,55.1185722517541 -1.58176812560256,55.1187348569685 -1.58136988208465,55.1188907895442 -1.58112401442097,55.1190130176794 -1.58089186936173,55.1191704175892 -1.58073199736704,55.1193145003449 -1.58064572221404,55.1194670104582 -1.58065193485105,55.119614358913 -1.58073043851205,55.1197593508719 -1.58095038591105,55.1198661102421 -1.58132713294946,55.1199743061627 -1.58175591882995,55.1200513274608 -1.58213249791374,55.120027464823 -1.58223642228175,55.1199917980207 -1.58256380047396,55.1198635583142 -1.58314869968301,55.1197101461126 -1.58392988941916,55.1195267686986 -1.58432403818378,55.1194661267442 -1.58476482898092,55.1194451696536 -1.58530631172823,55.1194003014234 -1.58565859758414,55.119449113478 -1.58588821376186,55.119521761963 -1.58610145441521,55.1196779001952 -1.58628071923576,55.1199319303937 -1.5862749781782,55.1201871286187 -1.58626293179136,55.1202894977081 -1.58616246612371,55.1206036639006 -1.58614111123702,55.1206935144482 -1.58616961730001,55.1208247683564 -1.58647690733821,55.1217387933593 -1.58653058858006,55.1219986846524 -1.58652838892364,55.1222115827699 -1.58654169966056,55.122287178164 -1.58655669223741,55.1223626894122 -1.5866371105763,55.1226127896669 -1.58664913008487,55.1226631373686 -1.58668676146997,55.1228249662362 -1.58668803584312,55.1230020321381 -1.58658417484313,55.1231940133049 -1.58623416783444,55.1235217041079 -1.58591684486727,55.1237263438989 -1.58558579950293,55.1238950921005 -1.58531211434235,55.1239803992598 -1.58516724519946,55.1240365005374 -1.58502714015391,55.1240945049356 -1.58477653526285,55.1242104341537 -1.58391644139642,55.1244384653782 -1.58354711105355,55.1245198519173 -1.58316062205858,55.1245850076061 -1.58296991684755,55.1246840715728 -1.58274379181599,55.1248567660604 -1.58272428660106,55.1249294646727 -1.58269810803569,55.1250345706597 -1.58276977078015,55.1252297548091 -1.58284790049916,55.1253998965879 -1.58287876272491,55.1256021280458 -1.58289685775825,55.1258259656209 -1.58302496781824,55.126014245575 -1.58324842041676,55.126247678456 -1.58338824325405,55.1263668261738 -1.58372498556909,55.1262627814478 -1.5842392861327,55.1261181066309 -1.58461982597392,55.126016993466 -1.58490726597873,55.1259784448857 -1.58500759711493,55.1259787869396 -1.58514710248345,55.1259792627888 -1.58525531934914,55.1259796318039 -1.58538688109343,55.1259980476609 -1.58551207056961,55.126020034238 -1.58561207587088,55.126051816724 -1.58574336828914,55.1260962823878 -1.58590548476069,55.1261857690144 -1.58638977603626,55.1265162980966 -1.58648265647951,55.1266370801416 -1.58683291528818,55.1271890403771 -1.58711546195185,55.1276249734934 -1.58722225590397,55.12776367969 -1.58730781224373,55.1278304469856 -1.58741534763146,55.1278973786321 -1.58762303493655,55.1279825263606 -1.58810235768116,55.1281835804845 -1.5883412825793,55.128286889985 -1.58828741994988,55.1283316238445 -1.58828277319431,55.1283307104223 -1.58801541564889,55.1285526822363 -1.58792687139104,55.1286251476469 -1.58790794600773,55.1286421514012 -1.58775756767855,55.1287674088768 -1.58760915982879,55.1287139041283 -1.58764173343641,55.1287526432593 -1.58767585808618,55.1287913867405 -1.58767415896747,55.1288057548688 -1.58764386218755,55.1288470656044 -1.58757588637308,55.1289061251853 -1.58738590072483,55.1290725705736 -1.58721202886684,55.1292059230609 -1.58715344431765,55.1292569287347 -1.58695273270306,55.1294098635309 -1.58693370576645,55.1294241719066 -1.58692889259896,55.1294395170007 -1.58694126846739,55.1294557291999 -1.5869566257631,55.1294836296302 -1.58695813069162,55.1295007035052 -1.58695318985554,55.1295159583073 -1.58694685287031,55.1295285134891 -1.58689618207654,55.1295768510294 -1.58686294982995,55.1296018915628 -1.58682012976778,55.1296412734046 -1.58670161935776,55.1297351960402 -1.58676544634161,55.1297777240195 -1.58681999275014,55.1298048599016 -1.58679954316616,55.1298191634226 -1.58715064359796,55.1299919373409 -1.58736589459456,55.1300969646687 -1.58743459039546,55.1301313343184 -1.58779347365129,55.1303149131958 -1.58800094043504,55.1304226079007 -1.58799143616435,55.1304288640575 -1.58800543938694,55.1304378947173 -1.5880459488573,55.130459591849 -1.5881176939967,55.130499362097 -1.58816925033138,55.1305282835362 -1.58826285752844,55.130567228226 -1.58847056964847,55.1306514768888 -1.5884926817954,55.130638975 -1.58850360770507,55.130645300313 -1.58853483441198,55.1306642709993 -1.5887367659121,55.1308456087359 -1.58897856205746,55.130973091625 -1.58935006704624,55.1313014304589 -1.58930886336121,55.1313471959321 -1.58929619080208,55.1313597298411 -1.58929139819599,55.1313606122508 -1.58928672497487,55.1313623927571 -1.58906160748704,55.1314361940013 -1.58906784199978,55.131446096884 -1.58768199472675,55.1318466460205 -1.58782888164688,55.1318983492325 -1.58817098003673,55.1320307545775 -1.58799445005154,55.1321199899063 -1.58769639039559,55.1322690924415 -1.58737161870756,55.1324377756034 -1.58701682221697,55.1326208205866 -1.58665005428023,55.1325980148184 -1.58634912755303,55.1325735448346 -1.58624732203359,55.1325642153468 -1.58589935138998,55.1325369791994 -1.58564713849708,55.1325163575469 -1.58553897691241,55.1325088021007 -1.58551702262761,55.1325060324132 -1.58548101843038,55.1324987227799 -1.58538397063919,55.132479526969 -1.58531196391324,55.1324649085177 -1.5847043534521,55.1326839171282 -1.5847291895548,55.1327082565091 -1.58488446223084,55.1328615027218 -1.58500089957159,55.1329688913352 -1.58501178828056,55.1329788103011 -1.58486368059983,55.1330447815649 -1.5847061579564,55.133108027211 -1.58439017765075,55.1331752238113 -1.58422386502888,55.1331881321021 -1.58380300117395,55.1332308045581 -1.58407731418443,55.133253300486 -1.58431513136994,55.1333035196431 -1.5851933715391,55.1336129352231 -1.58588235767847,55.1338785847564 -1.58634407060331,55.1339753796293 -1.58638161816773,55.133983591948 -1.5861338698745,55.1345803218106 -1.58576674297801,55.1350525841721 -1.58495044339392,55.1361739775932 -1.58482496384173,55.1363262668385 -1.58479427740127,55.1364044072085 -1.58480746149222,55.1364924889263 -1.58490383742796,55.1365772604373 -1.58538678039974,55.136749680953 -1.58578100586047,55.136847145457 -1.58617119127445,55.1368853049685 -1.58664435857562,55.1369408139844 -1.58680422392317,55.1369521375243 -1.58681392481464,55.1369270171044 -1.58697218321191,55.136943724717 -1.58716431224522,55.1370244180594 -1.58738898714338,55.1371347770645 -1.58773830356401,55.1373363796632 -1.58783216738586,55.1373645468848 -1.58790094327767,55.1373800514613 -1.58866516958242,55.1376567192048 -1.58867926628297,55.1376567668719 -1.58871224537839,55.1376568783821 -1.58915934691514,55.1378084117483 -1.5895803262765,55.1378969710237 -1.58973695536203,55.1379217541543 -1.59002381798331,55.13794706594 -1.59013023980057,55.1379617984315 -1.59022731987137,55.1379791933371 -1.59049492595814,55.1380411816297 -1.59114336736627,55.1381466711544 -1.59262625040583,55.1383951841588 -1.59253112872267,55.138502665911 -1.59252784849484,55.1385071469786 -1.59274447025773,55.1384961934255 -1.59312284558252,55.1384642216464 -1.59328770335569,55.1384432130712 -1.59340547898957,55.1384355212773 -1.5936589396498,55.1385028450574</coordinates></LinearRing></outerBoundaryIs></Polygon>
  </Placemark>
