  <Placemark>
	<Style><LineStyle><color>ff0000ff</color></LineStyle><PolyStyle><fill>0</fill></PolyStyle></Style>
	<ExtendedData><SchemaData schemaUrl="#Wards__December_2019__Boundaries_EW_BFE">
		<SimpleData name="objectid">6461</SimpleData>
		<SimpleData name="wd19cd">E05012234</SimpleData>
		<SimpleData name="wd19nm">Sandstone</SimpleData>
		<SimpleData name="wd19nmw"></SimpleData>
		<SimpleData name="bng_e">349766</SimpleData>
		<SimpleData name="bng_n">372593</SimpleData>
		<SimpleData name="long">-2.75429</SimpleData>
		<SimpleData name="lat">53.247971</SimpleData>
		<SimpleData name="st_areashape">46857827.6655319</SimpleData>
		<SimpleData name="st_lengthshape">48064.1209118281</SimpleData>
	</SchemaData></ExtendedData>
      <Polygon><outerBoundaryIs><LinearRing><coordinates>-2.64487914421982,53.2830200951687 -2.64500056685743,53.2831173876598 -2.64512942688656,53.2832075403112 -2.64533888507258,53.2834759927295 -2.64578146283839,53.2840722589842 -2.64584270095809,53.2841555887167 -2.64630237857062,53.2847040421841 -2.64683202603779,53.2854050609059 -2.64692406356651,53.2855375580472 -2.64705505596349,53.2856698433025 -2.64712030056385,53.2857234954172 -2.6472535555622,53.2858090395301 -2.64783693547263,53.286095313645 -2.64806480931527,53.2861893269723 -2.64832111471695,53.2862741996991 -2.64865549769327,53.2863614319551 -2.64895484396727,53.2864218050566 -2.6493171112588,53.2864719490412 -2.65014470810051,53.2865420173145 -2.65182466857655,53.2866344661702 -2.65341423540035,53.2867012501587 -2.65702903460669,53.2868781845646 -2.65716111410908,53.2868774566403 -2.6574055414394,53.2868716165076 -2.65764528186563,53.286858612415 -2.65784601214155,53.2868422275315 -2.65800175109998,53.2868198010943 -2.65811692731779,53.2867975983588 -2.6583409153677,53.2867334575324 -2.65885111378954,53.2865499248249 -2.65941614412825,53.2862250005686 -2.66007378956117,53.2858833861485 -2.66053318647326,53.2856148468823 -2.66193110362012,53.2846398051248 -2.66260656347876,53.2842854953367 -2.66290973185967,53.2840968945542 -2.66321120316641,53.2839028200655 -2.66436871141363,53.2831027024884 -2.66463478554173,53.2829474632963 -2.66477463940367,53.2828747929369 -2.66494441519644,53.2827938672842 -2.66515153216719,53.2827045558154 -2.6653124359388,53.2826416524229 -2.66568264898854,53.2825272566147 -2.66583502479902,53.2824886629552 -2.66599059078875,53.2824563417037 -2.6661087593446,53.2824367202152 -2.66622705364859,53.2824252751071 -2.66644292931474,53.2824141832206 -2.66658233128714,53.2824160994959 -2.66676849365974,53.28242674115 -2.66700139006757,53.2824524866384 -2.66713530445443,53.2824751020588 -2.6673113759038,53.2825127570682 -2.66743938581939,53.2825452903041 -2.6678779746569,53.2826839189927 -2.6691397106516,53.2829869728375 -2.66986120215428,53.2831834133984 -2.67052649071998,53.2834233002951 -2.67143755444934,53.2837435771486 -2.67170954611527,53.2838714514411 -2.67184416565438,53.2839461796643 -2.67197302159491,53.2840318131697 -2.67212633320642,53.2841468743925 -2.6722571668389,53.2842638597272 -2.67237315139132,53.2843882068481 -2.6724773385483,53.2845251112933 -2.67255575811327,53.2846514675229 -2.67263965922537,53.2848352149859 -2.67270656568355,53.285086546059 -2.67271846270089,53.285174545349 -2.67273773111215,53.2858252286683 -2.67266840821731,53.2864737141892 -2.67263294196653,53.2872694757945 -2.67258151633948,53.2880023327831 -2.67260175644393,53.2881487858618 -2.67262536846787,53.2882187467078 -2.67267506484748,53.2883272013316 -2.67274282164415,53.2884356450083 -2.67281774338428,53.2885277819401 -2.67291062225449,53.2886135281211 -2.67302291794554,53.2886911664918 -2.67322547980021,53.2887906721763 -2.67382435089045,53.2890003616579 -2.67478351973351,53.2893185456829 -2.6765108124843,53.289830972063 -2.67699008787015,53.2899694332482 -2.67746898035841,53.2900835401048 -2.67788426974578,53.2901647577696 -2.67814144354721,53.290204635453 -2.67846620546475,53.2902478123878 -2.67944767195935,53.2903617525166 -2.68052174300971,53.2904571846186 -2.68107443823285,53.2904899796339 -2.68136915094572,53.2905333209168 -2.68160995630711,53.2905858654251 -2.68196402671559,53.290674606708 -2.68221237522377,53.2903549814011 -2.68232673769139,53.2901888896343 -2.682300412487,53.2901360205892 -2.68230249172801,53.2900802935188 -2.68234488067475,53.2900081597152 -2.68235664025482,53.2899002568229 -2.68243307437945,53.2897990830182 -2.68257285159974,53.2897219000379 -2.68278681172832,53.2895885776804 -2.68298205242799,53.2894139355619 -2.68301769848715,53.2893921636974 -2.68312198386951,53.2893466361663 -2.68317688992858,53.2893148698749 -2.68322280543575,53.2892777625196 -2.68327436153038,53.289214474072 -2.68338697241373,53.2891248645871 -2.6834560185124,53.2890337073761 -2.68346879523968,53.2889896010756 -2.68346494869233,53.288934715975 -2.68348070831854,53.2888914914982 -2.68351159982878,53.2888508762136 -2.68355005563347,53.288819203872 -2.68359621311831,53.2887973725736 -2.68364248552975,53.2887827290506 -2.68378176563426,53.288767554024 -2.68382952298979,53.2887529028261 -2.68386503866624,53.2887230441003 -2.68391276826277,53.2886139462791 -2.68394517143184,53.2885751191093 -2.68401627568654,53.2885198947246 -2.68435708795873,53.2883454044344 -2.68513894833142,53.2879004105992 -2.68535825875,53.2877320054633 -2.68553402770818,53.2876482317586 -2.6856157080189,53.2875974391326 -2.68578464575734,53.2873807965157 -2.68599375375594,53.2872321291601 -2.68623010439007,53.2870932799018 -2.68630903236036,53.2870559815242 -2.6863906529205,53.2870015050325 -2.6864364012759,53.2869545121489 -2.68648333137512,53.2868886419704 -2.68651970668611,53.2868201366717 -2.68658174813363,53.2866633274476 -2.68664818245679,53.2866952966441 -2.68669956028516,53.2867138725753 -2.68676275358113,53.2867288757425 -2.68683042060553,53.2867374727938 -2.68688747524723,53.2867398403925 -2.68693982371789,53.2867341476874 -2.68699220999682,53.2867230622759 -2.68705032770904,53.2866992739518 -2.68710972794843,53.2866629862876 -2.68713632750174,53.286640367164 -2.68728289651939,53.2864256479664 -2.68745239732013,53.2865217249572 -2.68763989686447,53.2866141042812 -2.68790811637297,53.2867806939501 -2.68817700363688,53.2869885267238 -2.68855590574742,53.287230862333 -2.68879589835843,53.2874182810418 -2.6891419583203,53.2873875287342 -2.68935189144766,53.2873827223021 -2.68944526822555,53.2874055472602 -2.6896276053242,53.2874611085018 -2.68969389219213,53.287476002364 -2.68976751074228,53.2874854622713 -2.68982154019422,53.287484252165 -2.68987086428759,53.2874749800701 -2.68991860039919,53.2874594275672 -2.68995592046839,53.2874421383404 -2.68998988107126,53.2874158813699 -2.69008255616363,53.2872957371681 -2.69013572229551,53.2872487008879 -2.69019958078381,53.287205197459 -2.69049420224376,53.2870606104188 -2.69067474378598,53.28699747067 -2.69080789289164,53.286978727956 -2.69088100236966,53.2869567378088 -2.6909791746366,53.286901352489 -2.69104724963823,53.286935106639 -2.69106518254981,53.2869350028558 -2.69111287400419,53.2869167543451 -2.69117049844033,53.2868625024356 -2.6911869240734,53.286853421112 -2.69132863374787,53.2868058717331 -2.69137354711188,53.2867993212319 -2.69142746715993,53.2867990090243 -2.69150861487303,53.2868075253641 -2.69185839099141,53.286823471756 -2.69230027944046,53.2868757278973 -2.69247518153785,53.2868387678445 -2.69257659642043,53.286800436897 -2.69277023747989,53.2867139429092 -2.69290111158382,53.2866465952433 -2.69293673436207,53.2866239224572 -2.69304182761095,53.2865379418403 -2.6931353032584,53.286475393531 -2.6932364979889,53.2864235834719 -2.69333035214068,53.2863843968761 -2.69349309480805,53.2863375317877 -2.69354480015339,53.2862922993408 -2.69343043287644,53.2861725467424 -2.69292295806124,53.2856828589271 -2.69271885716739,53.2854899376538 -2.69238703585288,53.2850091144302 -2.69090959914482,53.282972732552 -2.68886853143204,53.2811282991275 -2.68830157063263,53.2807540517072 -2.68803799774939,53.2806817922016 -2.68774917910599,53.2806313355134 -2.68757413821568,53.280658403491 -2.68745035563457,53.2806123871718 -2.68726713153006,53.2805918747552 -2.68568690053008,53.2802548944581 -2.68531996349396,53.2801985900225 -2.68530956237687,53.280197750826 -2.68615952196694,53.2797074255647 -2.68689646610638,53.27927265069 -2.68816948631639,53.2785101941636 -2.68842202991432,53.2784512260766 -2.6887283936653,53.2783865545333 -2.68905611956609,53.2781590156704 -2.68940220474361,53.2778585800065 -2.68987621266913,53.2774936006062 -2.69013642449176,53.2773510106062 -2.69056168683287,53.2771229036839 -2.69062376225973,53.2770695250567 -2.69183070626528,53.2760297311354 -2.6922579976738,53.2759283146835 -2.69375750535166,53.2756409430761 -2.6944811254173,53.2755064329523 -2.69595811768727,53.2753189132647 -2.69600006512971,53.2753132771526 -2.69666703528988,53.275383164927 -2.69783921351947,53.2754446165085 -2.69797001947542,53.2754591286173 -2.69862805784584,53.2755343602462 -2.69864880597276,53.2757068674388 -2.69875070533856,53.2760631204675 -2.69885953727587,53.2762989157339 -2.69939283404035,53.2762687432707 -2.69967384659462,53.2763040315266 -2.69996647738546,53.2765880835655 -2.70011047907489,53.276592630807 -2.70048733198472,53.2768924531969 -2.70049197923421,53.2768969186158 -2.70147084421735,53.2765082609552 -2.70191305444726,53.2768652069055 -2.70299855708087,53.2776696590874 -2.703011944726,53.2776641886411 -2.70502621946833,53.2767659772009 -2.70504159792016,53.2767838597938 -2.7052678982667,53.2770477107319 -2.70549746544612,53.2772396517392 -2.70576512159597,53.2780982470905 -2.70573686009434,53.2784760228579 -2.70581364045248,53.2791344512209 -2.7068402120997,53.2788128626689 -2.70752732079503,53.2785570819146 -2.70825813669388,53.2783127207268 -2.70862918904547,53.2781694316161 -2.70924457349362,53.2777504242049 -2.70952764184367,53.2775438513588 -2.70986785589194,53.2774428882694 -2.71011996851433,53.2773605100288 -2.71078777967383,53.2770248464764 -2.71099083293467,53.2769742118922 -2.71109275784466,53.2769691110044 -2.71115414495494,53.2769651505081 -2.71125710443466,53.2769330844695 -2.71135934316299,53.2769468538428 -2.71145198676146,53.2769265312033 -2.71212260631095,53.2767678749716 -2.71248538630187,53.2766713522495 -2.71273626009826,53.2765151987483 -2.71284488596779,53.2763707666792 -2.71317033366719,53.2759266011261 -2.71375882731729,53.2752416431331 -2.71412937902674,53.2748043944966 -2.7144317936576,53.27441877453 -2.71415868926213,53.2743161667598 -2.71437362575056,53.2740748536915 -2.71450941118553,53.273765716775 -2.7146804058732,53.2734995033535 -2.71445729822491,53.2734289481765 -2.71456442350228,53.2731954686517 -2.71472214192206,53.2726749301562 -2.71482887078393,53.2724252770454 -2.71493580197264,53.2722691718975 -2.7148677559905,53.2720592076138 -2.71498176198472,53.2719713556558 -2.71514166260218,53.2718481822739 -2.71512065711349,53.2717601513625 -2.71508208499842,53.2716049179761 -2.71529636776231,53.2712368982005 -2.71552569298729,53.2705118467091 -2.71555592250917,53.2701682940974 -2.71549949892391,53.2700248499479 -2.715357473043,53.2698710450205 -2.71523378022875,53.2696453295698 -2.7151301258719,53.2694571460794 -2.71508898859786,53.2692371353674 -2.71512744148274,53.2686679745356 -2.71503092807529,53.2685444509084 -2.71487139233045,53.2684151032955 -2.7147735132305,53.2683059655355 -2.71458215632508,53.2680698706032 -2.71449317021286,53.267945401661 -2.71520919944306,53.2675465183923 -2.71573734938625,53.267482243327 -2.71663214455881,53.2674615956627 -2.71714604186214,53.2674396365404 -2.71767361196529,53.2673411190763 -2.71840871041179,53.2670050055148 -2.7194767931988,53.265791332906 -2.71682729714567,53.2641677077639 -2.71531599580248,53.2632643857749 -2.71487050287275,53.2629829954072 -2.71531440062814,53.2627179306418 -2.71544923786941,53.2626280672154 -2.71577208465332,53.2622944411153 -2.71598807984627,53.262127795081 -2.71621695227134,53.2620068118796 -2.71668842934534,53.2618691841978 -2.71705381869292,53.2617591512134 -2.7171753859346,53.2617629141093 -2.71770327449198,53.2617759153925 -2.71898956935167,53.2618670202076 -2.7205655707265,53.2617136384301 -2.72233863082648,53.2615115043386 -2.72423769363521,53.2611305578548 -2.72539610007379,53.2617275871004 -2.72636900563756,53.2622519574943 -2.72841425952698,53.2633290021205 -2.73068654838819,53.2645349243041 -2.73256642714605,53.2654852138383 -2.73353664026512,53.2658423936882 -2.7340518655073,53.266072063259 -2.73458488042696,53.2662071735523 -2.7372236942244,53.2670772293199 -2.73879670305249,53.267609560747 -2.73929212838402,53.267734997873 -2.73977812209396,53.267915399017 -2.7401008443384,53.2681119980617 -2.74182904682226,53.2692914290976 -2.74237899657558,53.2697005752363 -2.74351376078946,53.2691650160499 -2.74388618509628,53.2689406398435 -2.74579614819814,53.2690068977175 -2.74743890625952,53.2690631171841 -2.74893036666321,53.2691203537603 -2.74945258398675,53.2691422365073 -2.74979236024787,53.2691095479669 -2.75050513324279,53.2690564492429 -2.75115346001207,53.2690928978914 -2.75152421873936,53.2691139281047 -2.75205336078229,53.2691007084027 -2.75317075283288,53.2691242129099 -2.75391020430556,53.2691330221916 -2.75563660854297,53.2691715249472 -2.75698955399702,53.2691970961654 -2.75780071181332,53.2691919463699 -2.75812773861681,53.2692006527405 -2.7582997673073,53.2691761942441 -2.75839546956875,53.2691630048636 -2.75906975803448,53.2689690130731 -2.75981437147115,53.2686838056289 -2.76001517832359,53.2685953581846 -2.76021457664384,53.268504222668 -2.76058139153264,53.2683103834031 -2.76063778858054,53.2683603479698 -2.76144733047244,53.2679318321363 -2.76249792269814,53.2673992351802 -2.76301101733177,53.2671668000722 -2.76372948579627,53.2668466877914 -2.76406927272073,53.2666431253462 -2.76445197655632,53.2664132268098 -2.76458259654035,53.2663413961424 -2.76503468358704,53.2661344152934 -2.76532024756962,53.2660031784247 -2.76550694812931,53.2657978980168 -2.76572172870667,53.2657318174247 -2.76626346858249,53.2655962378564 -2.76625663681271,53.2654631919019 -2.76609845738044,53.2653348034901 -2.76594372649837,53.2652333508395 -2.765911807192,53.265211089485 -2.76617735958376,53.2651365047466 -2.76645403279222,53.2650960853983 -2.76668523431155,53.2650361880721 -2.76687743171357,53.2649657568941 -2.767280068355,53.2648426590606 -2.7674201368528,53.2647950285732 -2.76767293993383,53.2646783747107 -2.76796034407403,53.2645749784209 -2.76843033091351,53.2644442536731 -2.76871183225677,53.2643426905061 -2.76874015783189,53.2643299269204 -2.76875122129298,53.2640305170962 -2.76883769762922,53.2638348635214 -2.76888871530813,53.2637572505537 -2.76891973269138,53.2637291927038 -2.76895819815382,53.2637028837444 -2.76908953884626,53.2636651927856 -2.76922525402159,53.2636301692863 -2.76959862972155,53.263551285954 -2.76970468571677,53.2635236426777 -2.76978810772629,53.2634952464607 -2.76993694946271,53.2634340764215 -2.77000678455507,53.2633994772128 -2.77029556626518,53.2632016176322 -2.77010862431049,53.2628145196819 -2.76988844103474,53.2621597490735 -2.76968014417434,53.261581286587 -2.76949969355843,53.2610457779881 -2.76932799167766,53.2606666687404 -2.77106860488881,53.2605925251168 -2.77354811364168,53.2605045796477 -2.77427066848417,53.2605097772127 -2.77562266550885,53.2605791763783 -2.77835544006969,53.260736703339 -2.77930218536985,53.2607808463994 -2.7792853695575,53.2613373080984 -2.77884799022189,53.2616872226211 -2.77899617999346,53.2620871412242 -2.77912165848534,53.262223814581 -2.77922255208048,53.2624155561774 -2.77910803062609,53.2624666284561 -2.77911948994829,53.2626004526133 -2.77926685115365,53.2627101128366 -2.77912554431501,53.2629330921802 -2.77905601025561,53.2629838705673 -2.77908442564552,53.2630645630084 -2.77897978617694,53.2630814221399 -2.77886118954363,53.2631531892892 -2.77879190003419,53.2632174458908 -2.77869452379277,53.2633889138303 -2.77871353370673,53.2634418098077 -2.7786214753775,53.2637426492139 -2.77865979909134,53.2638718943056 -2.77859255111151,53.2640484681137 -2.77857467936028,53.2645475133919 -2.77856240016762,53.2646131946524 -2.77839786457074,53.2647149168667 -2.77827535443974,53.2647417763219 -2.77826638193201,53.2647445315709 -2.77821899626235,53.2647762933573 -2.77826256441407,53.2650241255105 -2.77801841083641,53.265125557573 -2.77792274349244,53.2652214374201 -2.77813952753993,53.2652667539747 -2.77816738733363,53.265316895584 -2.77810262436286,53.2653856158461 -2.77810378573561,53.2654495014628 -2.77820571214912,53.2655279176658 -2.77819131027314,53.2657284096533 -2.7782680541893,53.2658223568336 -2.77836742810933,53.2661749669054 -2.77845423844685,53.2664144284468 -2.77849337816657,53.2665885109275 -2.77857687997058,53.2668091223721 -2.77878635451196,53.2669551339117 -2.77899792731699,53.2670464024947 -2.77913908409291,53.2673033922083 -2.77911995280054,53.2674069512662 -2.77912576998032,53.2674752101501 -2.7791876290045,53.2674981713227 -2.7791967731079,53.2675861789516 -2.77911119175318,53.2679103403893 -2.77901127543611,53.2680243122293 -2.77894322128801,53.2681568576261 -2.77897372021583,53.268351753731 -2.77884987372323,53.2685502644134 -2.77883362004382,53.2686421224687 -2.77881194925895,53.2688507501382 -2.77883470539216,53.2689531367542 -2.77895905216183,53.2691895678798 -2.77899982410542,53.2692900399164 -2.77898836058807,53.2694006474832 -2.77893396111179,53.2695430788022 -2.77886360242153,53.2696307065961 -2.77879494180497,53.2697300063029 -2.77877266010121,53.2698236106988 -2.77875580717137,53.2698894116404 -2.77880463703628,53.2699367212505 -2.77892912419333,53.2700176853021 -2.77894843824637,53.2700939443687 -2.77892834589273,53.2702262664212 -2.77907898043785,53.2705075472918 -2.77911010178197,53.270736498656 -2.77913126473786,53.2709889692134 -2.77917615573708,53.2712340962606 -2.77920840487479,53.2713552024433 -2.77923234520978,53.271434216933 -2.77922978330743,53.2715447672398 -2.77922523513128,53.2715394053284 -2.77918551754044,53.2717482398321 -2.77917353186571,53.2718300948854 -2.77920906982503,53.2718873763655 -2.77932592354837,53.2719629982334 -2.77938855998116,53.2720282799546 -2.7794793540678,53.2722343750445 -2.7795208748252,53.2722943131488 -2.7796223977151,53.2723494554206 -2.77979212802156,53.2724498933577 -2.78018425460348,53.2727385803819 -2.78022399754914,53.2727823541144 -2.78034068350809,53.2729298676166 -2.78055467201225,53.2730705428939 -2.78064845782137,53.2731148617892 -2.78082030150409,53.2731613655635 -2.78110475956491,53.2733015795172 -2.7813666358788,53.2734373571907 -2.78144712876195,53.2734916477519 -2.78153277351237,53.2736655133805 -2.78165969336187,53.2740413040532 -2.78200181963175,53.2740552377374 -2.7822115660284,53.2742067219839 -2.78237317188298,53.2743557358715 -2.7825141582397,53.2743575079269 -2.78258495543867,53.2743750162004 -2.78271295959432,53.2744038312644 -2.78281882367369,53.2744525628277 -2.78294343031587,53.2745390034071 -2.78321549790864,53.2747376153415 -2.78328741455038,53.2748162241387 -2.78342647802842,53.2749627786815 -2.78370287865495,53.275147970999 -2.78399043682134,53.2755370827109 -2.78422137939917,53.2756164427379 -2.78427467226559,53.2756637207666 -2.78467928783614,53.2754030590331 -2.78494005971394,53.2752279049003 -2.78508929685588,53.2751064151796 -2.78541789262093,53.2746251840859 -2.78552278357693,53.2744590531824 -2.78563806543662,53.2741248065897 -2.78580938387824,53.2738999153505 -2.78604409796232,53.2737742666359 -2.7867269880681,53.2735666717945 -2.78758277631065,53.2732949357252 -2.78885939548973,53.2727534247392 -2.79028035071421,53.2722298154584 -2.79130284182264,53.2718158606346 -2.79177807334281,53.2716473569307 -2.79212122619635,53.2715506311776 -2.79216617652741,53.2714676578461 -2.79238363686724,53.2713934231611 -2.79291044359943,53.2712532383649 -2.79297581780018,53.2712249459186 -2.79303213914939,53.2711886261773 -2.79306903665853,53.2711515357322 -2.79310362745965,53.2710767183373 -2.79319733945891,53.2709564853637 -2.7932605957982,53.2708940583815 -2.79333614950323,53.2708414339342 -2.79343119324751,53.2707931743342 -2.7935235543886,53.270760208473 -2.79358027603719,53.2707454523049 -2.7938644745341,53.2707103119059 -2.79394057727954,53.270687339155 -2.79452006703793,53.2704820943446 -2.79483691515281,53.2703477926996 -2.79497819400418,53.2702794532992 -2.79518754048185,53.2701684232316 -2.79590974598505,53.2697402547124 -2.79665050028726,53.2693397259191 -2.79665198304109,53.2693397160173 -2.79677193965341,53.2692553401601 -2.79752099980786,53.2688170970761 -2.79834356099736,53.2686218912593 -2.79894637727811,53.2682250567033 -2.79922876366819,53.2680145886844 -2.79956655505182,53.2677920664704 -2.80000697793646,53.2674520315729 -2.80015494987826,53.2673458969316 -2.80114892580298,53.266701005775 -2.80179258392821,53.2663227538418 -2.80220344140149,53.2661680308338 -2.80241141804327,53.2660650845429 -2.80330081723965,53.2656015972599 -2.8041397858929,53.2649288777895 -2.80443536895265,53.2646995274145 -2.80502080542598,53.2642586551273 -2.80517306331203,53.2640662154526 -2.80634065464888,53.2631701946193 -2.80698874839381,53.2626390234961 -2.80760702020297,53.2621135331039 -2.80814871304231,53.261663954915 -2.80883691606295,53.261033650856 -2.80895214350114,53.2610220862127 -2.80983583814985,53.2603446196316 -2.81063029887475,53.2597081919174 -2.81095036633951,53.2594309393031 -2.8111595359464,53.2591589336157 -2.8113472015735,53.2589392859084 -2.81252104239675,53.259018464772 -2.81333180687101,53.2590875271258 -2.81375004817662,53.2590864724825 -2.81439731824919,53.2590658792999 -2.81480199863409,53.2590667104639 -2.81491510545432,53.2590219039597 -2.81493461465582,53.2587871335096 -2.81497497927134,53.2585441321487 -2.81523238744884,53.2576588198253 -2.81525918139867,53.2574887017945 -2.8153036291133,53.257382357451 -2.8153401128013,53.2573316937352 -2.81538262062053,53.2572792818023 -2.81555829116282,53.2571387896804 -2.81605069838014,53.256860345372 -2.81645765935851,53.2566642602379 -2.81687262005039,53.2564924730225 -2.81692179296569,53.2564786562361 -2.81704698708228,53.2563617829815 -2.81710872502322,53.256293961745 -2.81716737226989,53.25622616075 -2.81718743318988,53.2561828883113 -2.81720166915933,53.2561387568683 -2.81720198691731,53.2560776469187 -2.81719614352558,53.2560110967387 -2.81718119940024,53.2559339145969 -2.81716030607834,53.2558558752001 -2.81709767988612,53.2557151262054 -2.81701823742404,53.2554055461671 -2.81682642100472,53.2549322822005 -2.81670508266351,53.2547002724672 -2.81659175107856,53.2544214780444 -2.81653282792234,53.2542349624355 -2.81652081561125,53.2541558733172 -2.81654715570675,53.2539687731008 -2.81654933677575,53.2537655734157 -2.81659728330924,53.2536097789616 -2.81661786930202,53.2533543309472 -2.81657244181102,53.2530912473938 -2.81647432751523,53.2528195380966 -2.81624500115693,53.2523483267511 -2.81617562512555,53.2521707789526 -2.81609722599086,53.2520643758455 -2.81595694487513,53.2517066836516 -2.8159086456689,53.251532586233 -2.81593726822705,53.2514587005944 -2.8160462148911,53.2512745410133 -2.81656569663762,53.2514022784465 -2.81666524749608,53.2514384413256 -2.81686761005594,53.2508069213845 -2.81682951168639,53.2505392939816 -2.81685395400895,53.250486106241 -2.816743240229,53.250337597923 -2.81676101684789,53.2502458145012 -2.81698914936616,53.2498703235296 -2.81716686897657,53.2495212377376 -2.81706994994571,53.2493960007147 -2.81729318169208,53.248757148295 -2.817296200667,53.2486043573178 -2.81699514197401,53.2485372238277 -2.81679039115594,53.2484855160268 -2.81663857643756,53.2484622922833 -2.81630850917372,53.2484420854051 -2.81476056890073,53.2482216262902 -2.81396951072019,53.2480733584196 -2.81358743136883,53.2480795601006 -2.81336475224689,53.2481116336635 -2.81278624526509,53.2481919621261 -2.81246315061482,53.2483047875751 -2.81250986054916,53.2483961319005 -2.81241536179011,53.2484695664789 -2.81223847420843,53.2483880950955 -2.81226283553602,53.2483304152736 -2.81227541750743,53.2482835998657 -2.812234620995,53.2477085614245 -2.81222324677783,53.2471863437383 -2.81222026827421,53.2470291000786 -2.81223944415926,53.2469390139721 -2.81222900169564,53.2467791253119 -2.81227504649008,53.2460461423524 -2.81232284127799,53.2455622528019 -2.81242934936845,53.2447012487825 -2.81245287588647,53.2445995406473 -2.81234042364526,53.2444357632546 -2.81237068707622,53.2442917731372 -2.81241526579032,53.2441926183312 -2.8123222292293,53.2439514250057 -2.81235247280469,53.243884718668 -2.81240807911732,53.2438132560267 -2.81245974532082,53.2437751607131 -2.81271801853799,53.2437185838041 -2.81312286540438,53.2436574114934 -2.81330497240598,53.2436175284224 -2.81342231735197,53.2435637078415 -2.81357113050826,53.2435077847808 -2.81364436186426,53.2432583585629 -2.8136847742762,53.2431807093045 -2.8136608792567,53.2430218113513 -2.81363390945856,53.2429483055134 -2.81354322517877,53.2427466382307 -2.81352860078559,53.2426856292794 -2.81351842344676,53.2426245899922 -2.81353345797359,53.2423880528889 -2.81354571321518,53.2423241647547 -2.81366656379792,53.2422208045163 -2.81379321384428,53.2419412679133 -2.81322554505707,53.2418786405544 -2.81176119189314,53.2417007976734 -2.81137685270249,53.2416629738227 -2.81154851474137,53.2412338689188 -2.81186554308535,53.2405602384204 -2.81195778191177,53.2404463812904 -2.81228182915316,53.2400728518127 -2.81232848536637,53.2400051347776 -2.81237513995236,53.2399374186331 -2.81249995400939,53.2397234982987 -2.8125933079967,53.2395053884266 -2.81262867894055,53.2393963201565 -2.8126774243565,53.2391973867351 -2.81269215288693,53.2391073307872 -2.8126946506871,53.2389257863576 -2.81267577324142,53.2387964191111 -2.8126826670872,53.2386840409102 -2.81275949688089,53.2384677513878 -2.812926643873,53.2381997126776 -2.81316037753402,53.2376443698175 -2.81310284447553,53.2375287462092 -2.81312798660318,53.2371142065437 -2.81313334104922,53.2370054335142 -2.81278001062032,53.2370177273675 -2.81230052163244,53.2370156016752 -2.81134196779848,53.2370338098453 -2.81032680370466,53.2370766574104 -2.80991524790649,53.237100122581 -2.80938820506974,53.2371180787057 -2.8085411393294,53.2371723512133 -2.80807833059839,53.2371835763755 -2.80750986731701,53.2372260690761 -2.80709375599508,53.2372504533494 -2.80616473579609,53.2373287187677 -2.80410173147083,53.2374190309363 -2.80298132713951,53.2375164455221 -2.80185161676426,53.2375986342849 -2.80143874659692,53.2376382539458 -2.80090596769911,53.2376670852479 -2.80049859766011,53.237677009804 -2.79937421007277,53.2377267887284 -2.79744926466693,53.2378286416682 -2.79719174396397,53.2378384517318 -2.79659537782809,53.2378361461231 -2.79600668790584,53.2378481643281 -2.79527173541032,53.2378872161976 -2.79443563794317,53.2379682754241 -2.79422327780666,53.2379885615284 -2.79313397009509,53.2381459753058 -2.79257539493807,53.2382503377109 -2.79173348183518,53.2384186762842 -2.79041129328825,53.2386305413272 -2.78872864249302,53.2388718260713 -2.78830853594774,53.2389222314301 -2.7879569050238,53.2389542110461 -2.78749676791216,53.2390247384808 -2.78675072486176,53.2391950146363 -2.78616897974861,53.2393445215885 -2.78482710565849,53.2397057206119 -2.78421197436702,53.2399083688076 -2.78255236784475,53.2404352747221 -2.7823830292679,53.2405190608685 -2.7821978689972,53.2406362909981 -2.78171306020529,53.2406763148482 -2.78128329225817,53.2406926099943 -2.78073907981531,53.2406728093099 -2.78036088872578,53.2406447305369 -2.77995678391647,53.2405843784831 -2.77898637005418,53.2404505306759 -2.77883605651971,53.2405890055258 -2.77869279570328,53.2406259772244 -2.77799212759479,53.2402421537477 -2.77608279969017,53.2390635229059 -2.77531899068605,53.2385876232198 -2.77510602908701,53.2384109852544 -2.77495823196414,53.2382717557926 -2.77473402657701,53.2380538521969 -2.7745063087494,53.2378054171471 -2.77433289782562,53.2376636574249 -2.77389016794768,53.2373707853349 -2.77356260988659,53.2370726719011 -2.77275444027749,53.2363731906099 -2.77251476621257,53.2362075044011 -2.77217601981735,53.2359525945906 -2.77163775925403,53.2355183458256 -2.77141569011736,53.2353282802131 -2.77111038485221,53.235015637209 -2.77051615998653,53.2343803586113 -2.77025134800095,53.2340656539646 -2.76986162827442,53.2336394250051 -2.76978513774673,53.2335482563284 -2.76955495482894,53.2332486045102 -2.76946471260829,53.23314125865 -2.76926895966365,53.2329223531572 -2.76915907584657,53.2328079443037 -2.76819940933219,53.232427620644 -2.76759476891959,53.2322067619781 -2.76706263383425,53.2320268609191 -2.76686964949427,53.2319553112308 -2.7665328198778,53.2318037177351 -2.76593888794111,53.2315935660154 -2.76580015035719,53.2314605575996 -2.76556136774726,53.2313416721918 -2.76517169395838,53.2310798799825 -2.76537121644552,53.2309293334701 -2.76544111247574,53.2308174527703 -2.76546764860605,53.230788525516 -2.76550773020718,53.2307711935044 -2.76555099650728,53.2307592335789 -2.7656263203683,53.2307857091506 -2.7656543482367,53.2308475367144 -2.76571533191295,53.2309010643134 -2.7657824668402,53.2308907479651 -2.76581280692064,53.2308258498158 -2.76581677934734,53.2307089996553 -2.76583797512693,53.2306368817668 -2.76598255866548,53.230599108807 -2.76639686169107,53.23039245358 -2.76642021362244,53.2303581549271 -2.76643602942896,53.2303238148115 -2.76640600531989,53.2302332442141 -2.76631965611329,53.2301771841359 -2.76622149082323,53.2301373757471 -2.76620980551386,53.2297311708579 -2.76626764357697,53.2296983576816 -2.76639551096158,53.2296445157763 -2.76646255836256,53.2296225174012 -2.76656244127244,53.2295994090244 -2.76660119479853,53.2295838829885 -2.76663529963707,53.2295638931867 -2.76668335391766,53.2294880976279 -2.76651050006061,53.2293740919961 -2.76651167023045,53.2292734356265 -2.76648998962148,53.2291450680893 -2.76649087983603,53.2291118126859 -2.76653118975105,53.2290242939681 -2.76656492573098,53.2289836379783 -2.76671081314286,53.2288461057772 -2.76672981299528,53.2288172266783 -2.76671278398951,53.2287903770311 -2.76664250869003,53.2287143533783 -2.76666086767155,53.2286495329017 -2.76677075907456,53.2285922114052 -2.76677970314793,53.228504984151 -2.76674476599695,53.2284782496504 -2.76663133969472,53.2284204770709 -2.76661002400168,53.2284026404431 -2.76648577032747,53.228236289983 -2.76632842917379,53.2280637724689 -2.76628656067208,53.2279876559482 -2.76628535325933,53.2278366904009 -2.76626339589049,53.2277828224308 -2.76623554534075,53.2277308800271 -2.7661136569366,53.2276139395023 -2.76601873729615,53.2274994324558 -2.7659897827328,53.2273854895456 -2.76598165072066,53.2272687179583 -2.76597044832002,53.2272292487671 -2.76595483238534,53.2271915158467 -2.7658690749802,53.2270851271903 -2.76587793910268,53.2269934086585 -2.76575818035161,53.226919589066 -2.76574280484787,53.2268954244817 -2.76573184268735,53.2268693438513 -2.76575603996315,53.2267092287692 -2.76574509544978,53.2266841368244 -2.76572639308841,53.2266465135809 -2.76574854419388,53.2263784842857 -2.76573309957618,53.2262671503691 -2.765765817625,53.2260862220797 -2.76576942719929,53.2260322797203 -2.7657397167747,53.2259659702056 -2.76538642158271,53.2256428372477 -2.76534934755442,53.2255791808283 -2.76531533310298,53.225513797736 -2.7652522468765,53.2253416617313 -2.76523223346108,53.2253066527515 -2.76513782946784,53.2251374135001 -2.76505511219407,53.2248682593266 -2.76496799720967,53.2246018291206 -2.76496651597327,53.2246018386223 -2.76483743928327,53.2244202404234 -2.76488006992407,53.2242895732416 -2.76258684397512,53.2243761519573 -2.76255444279613,53.224067133131 -2.76250135332773,53.2237754112085 -2.76244029970295,53.2236265361554 -2.76237523607816,53.2235092284778 -2.76229699521875,53.2234009023869 -2.76222966904632,53.2233231502441 -2.76214591972648,53.2232455030268 -2.76202437406866,53.2231465288872 -2.76178163744868,53.2229754490195 -2.7616030244832,53.2228687524137 -2.76133243046579,53.2227284034176 -2.76120679146727,53.2226492251545 -2.7611672312542,53.2226189237967 -2.76095406114268,53.2224224912887 -2.76077648872411,53.2222906236772 -2.76060687785583,53.2221828793483 -2.76031960434106,53.2220346368557 -2.7605895139217,53.2218782576382 -2.76040100490216,53.2217212978869 -2.76018646846542,53.22161482732 -2.75988108458617,53.2215456898497 -2.7598997807387,53.2212408391284 -2.7600891890121,53.2203515845779 -2.76012485772624,53.22016884112 -2.76016906236679,53.2199518946096 -2.7602433506539,53.2194948170094 -2.76030026870551,53.2192427418357 -2.76008404167341,53.2191237007274 -2.75974101617172,53.218956850597 -2.75934824793582,53.21884702118 -2.7592095188081,53.2187948842064 -2.75918792408911,53.2187607831751 -2.75886938148345,53.2187844681678 -2.75859332761949,53.2188437385715 -2.75848336665158,53.2188893699731 -2.75838352382054,53.2189205588864 -2.75825818069897,53.2189483160333 -2.7581101771587,53.2189654329121 -2.75792620804719,53.218973790924 -2.75782284707166,53.2189735498285 -2.75776442956706,53.2189730221548 -2.75766541826698,53.2189673607321 -2.75756344111855,53.2189545286013 -2.75740711381105,53.2189267646623 -2.75707797261999,53.2188605575396 -2.75666992274831,53.2186536722221 -2.75622687198793,53.2184083652147 -2.75596234560369,53.2182734470838 -2.75559894362271,53.217957538614 -2.75538910331462,53.2178636107738 -2.75553905625733,53.2177888819744 -2.75554201976359,53.2177888631977 -2.75572251571988,53.2177517729929 -2.75588616184834,53.2176833374224 -2.75604816907956,53.2176131141997 -2.75629413407019,53.2174649838618 -2.75645505376982,53.2174172333943 -2.75657871726221,53.2172942323653 -2.75677646219584,53.2172129971862 -2.7568503168388,53.2171576213284 -2.75691824594101,53.217102372029 -2.75700501967351,53.2170092605908 -2.75715471485702,53.2169202424837 -2.75722938381126,53.2168271173962 -2.75762462611694,53.2166511686887 -2.75777786345851,53.2165881876702 -2.75802241613656,53.2166198837898 -2.75819691724498,53.2164883802053 -2.75841798730051,53.2163719478403 -2.75845744645122,53.2162359110531 -2.75864852556007,53.2161133784628 -2.75888855421658,53.2160498446561 -2.7590710136987,53.2160405949454 -2.75923687374006,53.2160143768537 -2.75961841795992,53.2158258367296 -2.75955894104819,53.2157651080676 -2.75988257848811,53.2156047938708 -2.76021216091397,53.215697141007 -2.76082379139625,53.2159862893028 -2.76105429390139,53.2160683922365 -2.76128312089308,53.2161325327216 -2.7615866392535,53.2162726709932 -2.76315614485463,53.2153466445909 -2.76334013749002,53.2152501199404 -2.76348290172161,53.2151126118117 -2.7636835649595,53.2150232592051 -2.7637837134795,53.2149335613573 -2.76390130166096,53.2148941659175 -2.76399983746172,53.2147901901055 -2.7642114917815,53.2147358135928 -2.76436483583457,53.2145963488443 -2.76464532992096,53.2145388344053 -2.7647578473097,53.2144644240772 -2.76481899423343,53.2143687748132 -2.76510661660768,53.2142886572959 -2.76535035009036,53.2141846465212 -2.76560932542935,53.2140976129872 -2.76591215573241,53.2140327626406 -2.76614683594107,53.2139197321013 -2.76666991589229,53.2138606538042 -2.76717767619807,53.2137872928632 -2.76835119306933,53.2135900319013 -2.76856837134625,53.2135068550143 -2.76897848751337,53.2132417146045 -2.76933821251023,53.2128447972456 -2.76941138532324,53.2127526626277 -2.76927483264859,53.2126492103323 -2.76929968749045,53.2125340231348 -2.76941372243069,53.212379528349 -2.76910031959364,53.2124391541882 -2.76890233301019,53.2125042346901 -2.7687138223676,53.2125953157698 -2.76862472299538,53.212556349085 -2.76860697070272,53.2124818758323 -2.76852454848011,53.2124779135083 -2.76843361236345,53.212419098973 -2.76834539774671,53.2123396881565 -2.76822650984996,53.212312596235 -2.76812303065703,53.2123878506389 -2.76799091890851,53.2124498992736 -2.76792185517357,53.2124404597453 -2.76785415984988,53.212424630025 -2.76778517865471,53.2123298171164 -2.76770477197229,53.2122728210362 -2.76756165744425,53.2122234180822 -2.76745417734884,53.2122474752611 -2.7674435491179,53.2123230302638 -2.76740439951525,53.2123915793908 -2.76729858814489,53.2124192204112 -2.76724140368851,53.2124043105989 -2.76718711829153,53.2123857882761 -2.76715898777208,53.2123176721558 -2.76731514863749,53.2122609512037 -2.76732010737318,53.2121998107144 -2.76723553016836,53.2121581189829 -2.76709761380782,53.2121509180559 -2.76699602237331,53.2121659505637 -2.76695716708976,53.2121679974339 -2.76691810890895,53.2121655528611 -2.76681273707953,53.2121347778768 -2.76686090999313,53.2120597904703 -2.76685856389265,53.2120112780859 -2.76675773252587,53.2119858663922 -2.76661053388171,53.2119634476851 -2.7666646012068,53.2118867145336 -2.76675613866358,53.2118133360088 -2.7667827633813,53.2117070335639 -2.7667515305635,53.2116380383951 -2.76662940627829,53.2115884993497 -2.76661396639802,53.2114842661295 -2.76653367106062,53.2114263696562 -2.76624353107323,53.2114471063824 -2.76614025056754,53.2114504659411 -2.76614560986338,53.2113354047167 -2.76610206337286,53.2112404274139 -2.76592507154496,53.2112226929595 -2.76586057445139,53.2111367475421 -2.7657193713148,53.2111943593476 -2.76554534127284,53.2111765154189 -2.76541525668611,53.2111027629792 -2.76549221924993,53.2109665726135 -2.76550366481234,53.2109368432978 -2.76462654892011,53.2107887130897 -2.76430781107597,53.2107979463578 -2.76419483495504,53.2107627242148 -2.76391451665888,53.2106620750539 -2.76370300751121,53.2106400648621 -2.76354690534715,53.2105331375465 -2.76346682657184,53.2104941093001 -2.76327899540697,53.2104566707188 -2.76316804393441,53.2104519884746 -2.76311230904039,53.2104280819661 -2.76299108789405,53.2103524732796 -2.76284325449429,53.2103704931321 -2.76274867398645,53.2103630108255 -2.76272950117712,53.2103748156731 -2.7626125455419,53.2104492525899 -2.76257627215523,53.2104297149736 -2.76247935044106,53.2103737199838 -2.76228177526214,53.2103785781597 -2.76222425696862,53.2102539431435 -2.76209543878733,53.2102511728462 -2.76205493218007,53.2102505328684 -2.7620634980445,53.2102253159373 -2.76208916685289,53.2101550569615 -2.76179579984214,53.2100769526538 -2.76166832117671,53.2100660840854 -2.76154450201905,53.2100039696472 -2.761395191479,53.2100291874935 -2.76136234331938,53.2100356878201 -2.7613412137689,53.2100277344027 -2.76120098131162,53.2099729138782 -2.76109668434719,53.2100023366628 -2.76100328056495,53.2099705813021 -2.7608926655648,53.2098103391467 -2.76094108920216,53.2097561119051 -2.76081966257542,53.2096616298343 -2.76052926247591,53.209583412728 -2.76038114614299,53.2095852564362 -2.76026615068897,53.2096030645558 -2.76017652142079,53.2096171151973 -2.76006849929972,53.2096034259475 -2.76007767486909,53.2095287798447 -2.76010589646503,53.2094351406785 -2.75993584023798,53.2093832037596 -2.75980884293909,53.2093156262819 -2.75964851761983,53.2093112563575 -2.75956911118934,53.209309964503 -2.7595629805042,53.2092983213856 -2.75950252867611,53.2091818820501 -2.75941511563306,53.2091536829225 -2.75931626655274,53.2091489200293 -2.75926815491086,53.2090530714174 -2.75908961154676,53.2090307532691 -2.75889984394755,53.2088899757128 -2.75875174422787,53.2088927153171 -2.75856241808645,53.208769906245 -2.758520825796,53.2086236016391 -2.75846007348959,53.2084900904214 -2.75828669621981,53.2084175040736 -2.75815610647612,53.2083140017993 -2.75775747043872,53.2082158889834 -2.75769268944778,53.2081057672587 -2.75777271709301,53.2080584392799 -2.75777883747757,53.2079784205713 -2.75769024086948,53.2078828290626 -2.75754917069327,53.2078639551489 -2.75749190785832,53.2077599861646 -2.75728888705408,53.2077073571884 -2.7571715915408,53.2076784474743 -2.75701820728358,53.2077243541108 -2.75694878919426,53.2076942403352 -2.75688801992139,53.207643404054 -2.7569006920344,53.2075148174723 -2.75681519811482,53.2074200137344 -2.7567263266805,53.2073927200361 -2.75659327944087,53.2074016519419 -2.75648424412113,53.2074212154533 -2.75635516573963,53.2074031629396 -2.75616409030479,53.207348659365 -2.75592022814833,53.2073600911818 -2.75577498564244,53.2073565184734 -2.75545702858085,53.2073315748797 -2.75523159769558,53.2073662527386 -2.75515601684525,53.2072382254383 -2.75505392760199,53.2072244941604 -2.7549840729665,53.2072536933522 -2.75488182737771,53.2072309756972 -2.75486858914788,53.207159078168 -2.75468857647027,53.207136852764 -2.75456157889018,53.207068461026 -2.75446858020616,53.2070591653186 -2.75445403717735,53.2069972502172 -2.7544088041768,53.2068959902434 -2.75429598420093,53.206861566992 -2.75398902776406,53.2068653057628 -2.75371126342678,53.2068230286738 -2.75361153687819,53.2068524159251 -2.7535471977075,53.2068582142554 -2.75348455759062,53.2067849218358 -2.7533044054072,53.206754607815 -2.7531638307474,53.2066791109807 -2.75307589261083,53.2066203561115 -2.75291215774275,53.2066744102721 -2.75267905737274,53.2066165718535 -2.75255267818475,53.2065832213643 -2.75244124671454,53.2065433959901 -2.75236683973145,53.2064818593883 -2.75232570899735,53.2064452738935 -2.75229224726044,53.2064167283047 -2.75255416287073,53.2062379528636 -2.75270887056467,53.2060069228889 -2.75243950867241,53.2059294526421 -2.75239269080303,53.2058219114065 -2.75231759608147,53.2057280276421 -2.75204488921986,53.2058825176256 -2.7518041782077,53.2060737401551 -2.75153921761044,53.2062479505378 -2.75134635380893,53.2063517012707 -2.75115483955387,53.2064409753242 -2.75100911052843,53.2065012038834 -2.75086168066417,53.2065488619502 -2.75049772222195,53.2066249329079 -2.75027403823155,53.2066748671723 -2.75006200087202,53.2067130465141 -2.75006201654497,53.2067139444179 -2.74848533347197,53.2070483546943 -2.74746975763763,53.207285767565 -2.74633685144366,53.2075706365685 -2.7443496993015,53.2079947289487 -2.74312925945601,53.208245964505 -2.7425144748777,53.2083684166978 -2.74168749214009,53.2085138423336 -2.73961654544398,53.2087657476913 -2.73842399835082,53.2088972425368 -2.73790684882383,53.2089552622871 -2.73706970004397,53.2090350281333 -2.73634287932101,53.2090835530328 -2.73538381081318,53.2091308104703 -2.73547469878968,53.2093630886926 -2.73544577878293,53.2094261722258 -2.73541303326434,53.2094389552452 -2.73527272233849,53.2094640838126 -2.73482094414398,53.2094830449228 -2.73454969970012,53.2095620894888 -2.73431429123722,53.209715411034 -2.73415485085131,53.2098494817202 -2.7339661400458,53.2099324204292 -2.73369595605076,53.2099871035672 -2.73341408954055,53.2100517431826 -2.73311505244349,53.2100796435651 -2.73239499485345,53.2102656854832 -2.73225156309926,53.2102818434493 -2.73215845487795,53.2102662405215 -2.73184779948996,53.2104893038501 -2.73136882770806,53.2108553850193 -2.73127572006066,53.2108397813958 -2.73111824981748,53.2109090439738 -2.73080501868193,53.211155485443 -2.73068850950654,53.2112667329757 -2.73057522514046,53.2113788586285 -2.73028734065555,53.2117150082499 -2.72941415728702,53.2124107817507 -2.72889287830731,53.2128400165741 -2.7277311893106,53.2137451276509 -2.72700649987184,53.2142826248294 -2.72675155644258,53.2145250152425 -2.72641814512018,53.2147347237226 -2.72640075760934,53.2147725726763 -2.72428299169608,53.2148411732708 -2.72347413163778,53.2149225594122 -2.72294721248634,53.2149338432811 -2.72276609195997,53.2149421308795 -2.72235433452878,53.2148555707197 -2.72234943663152,53.2149167983735 -2.72220180901278,53.2150444007448 -2.72204578530382,53.2152088987668 -2.72192956070664,53.2155080417206 -2.72178080651536,53.2158334423749 -2.72186513803255,53.2158626763595 -2.72176459344839,53.2159414677748 -2.72092033496284,53.2160562102505 -2.7204757525765,53.2160669852078 -2.72006723342291,53.2160856289889 -2.71956002447358,53.2160212928165 -2.71900298447146,53.2160264513774 -2.71850564329975,53.2160204634682 -2.71817137623387,53.2159973155606 -2.71767424540782,53.2160039028802 -2.71722691313858,53.2161162298171 -2.71670416990437,53.2162011497275 -2.71642015387378,53.2162370948345 -2.71576046525025,53.2169071300717 -2.71529253682731,53.2174078778874 -2.7150932115188,53.2175843993948 -2.71473540365104,53.2178616211717 -2.7144121684331,53.2182356875448 -2.71408773532514,53.2185378685144 -2.71399257051314,53.21862580198 -2.71391659682267,53.218623290514 -2.7137607137149,53.2185796651003 -2.71373212586554,53.2185924568389 -2.71368375069985,53.2186140863769 -2.71362810585736,53.2186389684911 -2.71349005667543,53.2187007133534 -2.71333696606171,53.2187694156645 -2.71324308286006,53.2188122167787 -2.71309463255166,53.2188799112086 -2.71297359166403,53.2189350996102 -2.71293290427858,53.2189543457173 -2.7127493527769,53.219041342291 -2.71265393795717,53.2190857791009 -2.71249124497992,53.219209631488 -2.71230505963155,53.219425222248 -2.71225551891409,53.2195085768632 -2.71223540365994,53.2195419564447 -2.712071450645,53.2198430785981 -2.71202064417743,53.2199386837249 -2.71201015776386,53.2199584323254 -2.71200168984175,53.2199743575219 -2.71193110076339,53.2201071964467 -2.71192516026655,53.2201183783155 -2.71190369297067,53.2201587773515 -2.71189317709755,53.2201785620721 -2.71188838409261,53.2201875887092 -2.71187102731594,53.2202202595966 -2.71179060407689,53.2203715936415 -2.71169860449095,53.2205447411867 -2.71168691003314,53.2205711488483 -2.71152928228799,53.221001495558 -2.7114170716392,53.2213345794182 -2.71137206242972,53.2215200219551 -2.71136562782811,53.2215565737806 -2.71134153028893,53.221693332807 -2.71129157262576,53.2219146710426 -2.71123746434124,53.2221114939525 -2.7111693456249,53.2222781073578 -2.71116246496125,53.2222949578756 -2.71114577332944,53.2223362271686 -2.71113703719736,53.2223531876291 -2.71111204738273,53.222401679647 -2.71102895860719,53.2225389521491 -2.710963582237,53.2226495923658 -2.71088498118279,53.2227784242693 -2.71086018796375,53.2228098538813 -2.71079919730195,53.2228977256147 -2.7107131754381,53.2230216846266 -2.71066100593249,53.2230968471596 -2.71057359747296,53.2232221446996 -2.71047756655588,53.2233504958745 -2.71043145038264,53.2234131454648 -2.71035870174745,53.2235246831881 -2.7102171400509,53.22375122279 -2.71020343788256,53.2237731657009 -2.71015618203002,53.2238412243646 -2.71002787998774,53.2240545068429 -2.71002104253722,53.2240658557443 -2.7099795945021,53.224131902166 -2.70994832911848,53.2241887191486 -2.70991388597398,53.2242526563672 -2.7098193242174,53.2244402808187 -2.70970849157282,53.2246358763977 -2.70966203342805,53.2247205957428 -2.70963457364106,53.2247630075493 -2.70960970571324,53.2247900326988 -2.70957299092931,53.2248253083414 -2.70954340871872,53.2248480467951 -2.7094420068084,53.2249209217959 -2.70921758401798,53.2250546649175 -2.70903512050717,53.2251805174799 -2.70895396184461,53.2252366420062 -2.70891247118346,53.2252639455984 -2.70887192385418,53.2252939403035 -2.70884236995904,53.2253183864154 -2.70879804648393,53.2253555049781 -2.70871392228647,53.2254315129865 -2.70855158546212,53.2255760148049 -2.70853102193367,53.2255943128442 -2.70838198153069,53.2257213505984 -2.7083172688633,53.2257764962795 -2.70820872999619,53.2258690090025 -2.70819537688877,53.225880396527 -2.70817564246467,53.225897215375 -2.70816821257884,53.2259035518316 -2.70808290806225,53.2259762404411 -2.70791879836338,53.2261161225374 -2.70789526741301,53.2261361729656 -2.70787811501341,53.2261515291993 -2.70781520307366,53.226207851366 -2.70773093164241,53.2262833022135 -2.70771946208357,53.226293563863 -2.70770846498685,53.2263034092112 -2.70770059720384,53.2263104493826 -2.70762594960927,53.2263772764775 -2.70754486605469,53.2264498767229 -2.70750941013962,53.2264816656102 -2.70742624711249,53.22654355417 -2.70738158170386,53.2265691682336 -2.70734118423064,53.2265901725504 -2.707315899652,53.2266011093744 -2.70733288920487,53.2268228584079 -2.70738391902317,53.2271376219912 -2.70741708697432,53.227422917513 -2.70742602632529,53.2275198563443 -2.70744005824955,53.2277075543744 -2.70744811240229,53.22774175488 -2.70745908656229,53.2278621430546 -2.70747400558581,53.2280400377442 -2.70747566596515,53.2280589588336 -2.70747630840601,53.2280661192953 -2.70750185450512,53.2283560533705 -2.70750729323792,53.2284178477876 -2.70750832543177,53.2284295633845 -2.7075145574795,53.2285185539572 -2.70752087519727,53.228538292386 -2.70752826664663,53.2285686315224 -2.70755146432861,53.2286490357791 -2.70754513856054,53.2286577702127 -2.7075271577947,53.2286716499057 -2.70742930449404,53.2288268878626 -2.70731853517612,53.2289254967213 -2.70686551563678,53.2291592254003 -2.70664067377094,53.2292387400481 -2.70651072718432,53.229447996485 -2.70640200810665,53.2294837768656 -2.70635201303999,53.229537991977 -2.70626712662685,53.2295735420883 -2.70615665488009,53.2296829322401 -2.70602006727099,53.2298491824905 -2.70604448646033,53.2298768958854 -2.70609158891983,53.2299170560533 -2.70634253968551,53.230057556549 -2.70658221557795,53.2301433953055 -2.70683777939958,53.2302038873919 -2.70710495905917,53.2304144747774 -2.70719360607725,53.2305244829752 -2.70741485337681,53.230675940602 -2.70749146707766,53.2311420634589 -2.70759442953715,53.2312960201676 -2.70800048590938,53.2314860110088 -2.7080674618292,53.2315476198337 -2.70803706922582,53.2317042545913 -2.70843226476231,53.2318645627916 -2.70857689404077,53.2320057799668 -2.70870728582819,53.2320103968542 -2.70884469355018,53.2320733845109 -2.70887881387906,53.2321423775845 -2.70916127762802,53.2321928204683 -2.70938227362624,53.2323281900403 -2.70951942659246,53.232383090094 -2.70962138052978,53.2323860782471 -2.70963281678595,53.2324426250028 -2.70970232958659,53.2324781576762 -2.70980846353193,53.2324649450109 -2.70985926091483,53.2324592501566 -2.70988561550743,53.2325067217482 -2.70990865582516,53.2325479225278 -2.71014442123149,53.2326724195199 -2.71021353443997,53.2326836901475 -2.71032028275785,53.232700129126 -2.71035112492545,53.2327574582411 -2.71036347805587,53.2327798509846 -2.71078590084083,53.2329571538108 -2.71085918425627,53.2330411897964 -2.71085179288369,53.2331391865656 -2.71101820475354,53.2333270004966 -2.71107514492578,53.2335054917684 -2.7112156701853,53.2336664998247 -2.71139112884696,53.2336771364741 -2.71146079617546,53.2337216526618 -2.71157175157368,53.2337308759935 -2.71172622536361,53.2338315916284 -2.71182933383845,53.2339037668891 -2.7118455372408,53.2339719671536 -2.71184057504259,53.2340375979264 -2.71170869935867,53.2342191025045 -2.71176649498301,53.2345378678114 -2.711464860538,53.2346879444934 -2.71052668979912,53.2353003030331 -2.70955998794666,53.235914622541 -2.70905659765548,53.2361908947991 -2.7076169574448,53.2365652833847 -2.70676041000919,53.2367771405758 -2.70595439582624,53.237049800894 -2.70507500402999,53.2374208412918 -2.70201484609635,53.2387521742967 -2.70165622728156,53.2388135950719 -2.70140202746912,53.2388465428396 -2.69810508597533,53.2389962794424 -2.694526078659,53.2391232133597 -2.69064358854241,53.239293224773 -2.69071147682435,53.240713946391 -2.69085248732762,53.2422098194001 -2.69088981920193,53.2432217452822 -2.69094706043526,53.2432393863857 -2.69096804012141,53.2432455553806 -2.69122006029655,53.2433510340306 -2.69186297373022,53.2436304699242 -2.69307158606567,53.2441502392488 -2.69347337241184,53.2442485525781 -2.69386833822973,53.2442993658707 -2.69406848863564,53.2443521203988 -2.69467801847307,53.2445139229348 -2.69573406082568,53.2446741081607 -2.69629505942596,53.2447076795109 -2.69735010115909,53.2448057602487 -2.69720720867579,53.2450448257985 -2.69707394074881,53.2453287673963 -2.69733241764451,53.2457380269234 -2.69772301243894,53.2459820620832 -2.69757681556304,53.2460260516195 -2.69745563787196,53.2460357463647 -2.69734880871639,53.246008512962 -2.6970719164039,53.2467678677561 -2.69687860214855,53.2470449703783 -2.69675611851487,53.2471643963467 -2.69659058627121,53.2473037540482 -2.69643634359214,53.2474079983694 -2.6963605163674,53.2474408822658 -2.69634932253457,53.2482265418605 -2.69633177948975,53.2487129899148 -2.69631427731474,53.2490196189321 -2.69490952471061,53.249269542997 -2.69442818300862,53.2493434284059 -2.69403668035778,53.2494175974708 -2.69278598141576,53.2496514132292 -2.69314511363084,53.2502641786949 -2.69358013620872,53.2510220831004 -2.693612861594,53.2518444209345 -2.69361491313957,53.2518794562363 -2.69302963603693,53.252015855184 -2.69227705400298,53.2521919545913 -2.69223492405298,53.2522766713187 -2.69175271455596,53.25248265033 -2.69089277169602,53.2536183939167 -2.69035898003812,53.2543513596959 -2.69028975177437,53.2543346864337 -2.68896201577855,53.2562111744544 -2.68901185172035,53.2562360487462 -2.68890570466045,53.2564443377061 -2.68944566582537,53.2567432525907 -2.68962773191334,53.2571583622203 -2.68974938138044,53.2573599439028 -2.68918393350722,53.2573362504723 -2.68866395421583,53.2573500358881 -2.68843583158971,53.2573288857216 -2.68843688177767,53.2573019198925 -2.68825375019436,53.257288598157 -2.68790158207126,53.2572007645768 -2.6873613542999,53.2569773293069 -2.68716154283289,53.2569488242818 -2.68612365497302,53.2568199091764 -2.68606285514543,53.2568589005229 -2.68540412355821,53.2567206996556 -2.68388697423122,53.2564318657727 -2.68334490879894,53.2563711688593 -2.68277154624615,53.2563241285359 -2.68224246513996,53.2565194653461 -2.682063624744,53.2565815952356 -2.68175990822833,53.2566175706471 -2.68161383256916,53.2565796738172 -2.68152571392296,53.2565954541178 -2.68148221344343,53.2565957026693 -2.68122390323819,53.2565648269487 -2.6810457570733,53.2565775272524 -2.68080054312143,53.2566239484231 -2.68071782490536,53.2566063580966 -2.68042165255339,53.2564561775568 -2.67886757385798,53.2565728700639 -2.67806429631202,53.2567734329341 -2.67792305785443,53.2566583113826 -2.67755668156377,53.2564293525441 -2.67751302476076,53.2564197153732 -2.67718690101788,53.2563676489191 -2.67688515040985,53.2563406060683 -2.67598293579888,53.2564436737017 -2.67567899419182,53.2561838027958 -2.67545040353868,53.2558507136523 -2.67522010959987,53.255699249371 -2.67498096127615,53.2555504406712 -2.67422764380774,53.2552113315062 -2.67360745559511,53.2549514451069 -2.67337710790957,53.2551730022585 -2.67262128433161,53.2558136823901 -2.67177327241391,53.2554643087621 -2.67017680264115,53.2548854013282 -2.66899056707318,53.2543697729396 -2.66845659809578,53.2550145739244 -2.6678319190889,53.2558109437814 -2.66768786511751,53.2557982722828 -2.6673256077965,53.2562173612572 -2.6669587574088,53.2567228341531 -2.6662199088696,53.2576986671754 -2.66513048359485,53.259166301921 -2.66483379057031,53.2596560978622 -2.66469453708092,53.2599535155684 -2.66465071832,53.2601245013219 -2.66399663811655,53.2606755997021 -2.66391513649256,53.2607362630044 -2.6638321102285,53.2607943288605 -2.6635953855525,53.2609043832532 -2.66345280363573,53.2609878527167 -2.6632321227915,53.2610645678159 -2.66296176886866,53.261126372364 -2.66218865817444,53.2612564834722 -2.66203534900243,53.2614217866212 -2.66211620711426,53.2617107872248 -2.66195082725563,53.2619670092297 -2.6611405782149,53.2625989379301 -2.66043291339312,53.2630874093792 -2.66018309448416,53.2632155016995 -2.65986865885051,53.2634419936377 -2.65985244142807,53.2634564612779 -2.65973533299792,53.2635415817255 -2.65942219504036,53.2637482950151 -2.65912030930916,53.2639072275417 -2.65899499527707,53.2639492584897 -2.65876084702526,53.2640279262438 -2.6585541705452,53.2640443462399 -2.65840990550137,53.2641161357649 -2.65817605424669,53.2643188124681 -2.65782180692723,53.2644816256643 -2.65792376113578,53.2645844050093 -2.65766263429081,53.264661422711 -2.65731572780105,53.264819700227 -2.65716184161686,53.2648529007076 -2.65701010852634,53.2648330698993 -2.65693279894866,53.2647813752552 -2.65657562036563,53.2647536910461 -2.65619202105023,53.2647683866022 -2.65596461700916,53.2648037875534 -2.65546735931386,53.2649360191028 -2.65513289971698,53.2651247748246 -2.6544904124228,53.2653638394936 -2.65343099838225,53.2657921050408 -2.65205282380352,53.2663632807093 -2.65200332564879,53.2663599570933 -2.65119123913603,53.2662035467373 -2.65094500007108,53.2661796426947 -2.65057187714551,53.2660954155452 -2.65038240545988,53.2660569120943 -2.64966861619652,53.2665444539325 -2.6495640397366,53.266569288608 -2.64953674304368,53.2667419745998 -2.64954066931401,53.2670008480465 -2.64957299662662,53.2671598195987 -2.64967492423603,53.2672536192829 -2.64965422640209,53.2673723513038 -2.64967485167962,53.2675421697723 -2.64965408555017,53.2676564086216 -2.649660323939,53.2678721363192 -2.64962704975106,53.2684494181192 -2.64924495764085,53.2684595910799 -2.64920595062005,53.2684633985836 -2.64915059664029,53.268473585681 -2.64907896675404,53.2684946446007 -2.64902082422901,53.2685165296896 -2.64894368227618,53.2685654760138 -2.64888909208067,53.2686259821317 -2.64886871690771,53.2686683292741 -2.6488460446341,53.2687548108238 -2.64885626532815,53.2688338346944 -2.64889487883247,53.2689100079492 -2.64893443057337,53.26895023047 -2.6489876201266,53.2689930743501 -2.64903301119385,53.2690188872837 -2.64909782537194,53.2690455821122 -2.64922135548828,53.2690799548221 -2.64964073410559,53.2691477590835 -2.64960759468991,53.270231058655 -2.64964760430087,53.2704969242649 -2.64958428056239,53.2707642529504 -2.64956993779899,53.2709108075944 -2.64958567530904,53.2709539455544 -2.64960696243331,53.2709798898636 -2.64966163954511,53.2710227253131 -2.64967561857366,53.2710558988124 -2.64965972209718,53.2710919303063 -2.64943254414037,53.2712424334297 -2.649406017296,53.2712704356265 -2.64936920019992,53.2714189106728 -2.6492571438906,53.2716442691038 -2.64918737864456,53.271886471029 -2.64925549050074,53.2719265375933 -2.64950933084489,53.2720500623637 -2.64975149208076,53.2721044549643 -2.64981553634716,53.2721697949513 -2.65013374680574,53.2725914008321 -2.65023642993502,53.272831762036 -2.650534504175,53.2730098587843 -2.65082846129866,53.2732096341859 -2.65082401539573,53.2733076092918 -2.65084312885394,53.2735807779803 -2.65083208907223,53.2745300599223 -2.65087721923562,53.2753352548893 -2.65101423684787,53.2761578295602 -2.65116263943542,53.2771349950573 -2.65138219462211,53.2783589842069 -2.65153938003543,53.2789370219397 -2.65173295316709,53.2799229277635 -2.651754837511,53.2801826014103 -2.65177379661111,53.2804368995255 -2.65173575330342,53.280894599127 -2.65166471338385,53.2812563261744 -2.65166336696062,53.2812653196969 -2.65154459507059,53.2816435729305 -2.65154307704035,53.2817388361418 -2.65152441523239,53.281796449755 -2.65149955747751,53.2818370237976 -2.6514537338394,53.2818813070701 -2.65137963425529,53.281936618685 -2.65121762725885,53.2820336583037 -2.65113276962707,53.282072763967 -2.6509060521176,53.2821593742047 -2.64998779863694,53.2824331729333 -2.64980649271925,53.2824485417276 -2.64966559415755,53.2824538037001 -2.64954108895242,53.2824472950064 -2.64933509765942,53.2824169672593 -2.64927788802942,53.282403799748 -2.64912284360023,53.2823651054658 -2.64907923640832,53.2823599518261 -2.64900875316932,53.2823603362746 -2.64887563008079,53.2823808323608 -2.64852618166908,53.2823827374094 -2.64843013150466,53.2823769704563 -2.64830527082576,53.2823551849554 -2.64816659192369,53.2823110087534 -2.64811699450885,53.2823022927491 -2.64805996228584,53.2823008065009 -2.6480135233495,53.2823046540508 -2.64794770905491,53.2823193901165 -2.64777620554894,53.2823778363558 -2.64754587112078,53.282422223944 -2.64737950074161,53.282427622726 -2.64714889389941,53.2824540387157 -2.64705447641618,53.2824581459172 -2.6469644694196,53.2824595342062 -2.64687734966994,53.2824474270484 -2.64684581757718,53.2824475984619 -2.64677553784826,53.2824614601662 -2.64663663948229,53.2825008563356 -2.6463195104398,53.2825547892257 -2.64625701594225,53.2825928710452 -2.64613393517208,53.2826807061339 -2.64609969263016,53.2826979663906 -2.64605783998062,53.2827107744292 -2.64595605437604,53.2827266035731 -2.64570453389169,53.2827522314048 -2.64558326647172,53.2827717605864 -2.64546066425915,53.2827930937561 -2.64527680558759,53.2828363268476 -2.64504551232147,53.2829158513056 -2.64487914421982,53.2830200951687</coordinates></LinearRing></outerBoundaryIs></Polygon>
  </Placemark>
