  <Placemark>
	<Style><LineStyle><color>ff0000ff</color></LineStyle><PolyStyle><fill>0</fill></PolyStyle></Style>
	<ExtendedData><SchemaData schemaUrl="#Wards__December_2019__Boundaries_EW_BFE">
		<SimpleData name="objectid">3700</SimpleData>
		<SimpleData name="wd19cd">E05009213</SimpleData>
		<SimpleData name="wd19nm">Mount Charles</SimpleData>
		<SimpleData name="wd19nmw"></SimpleData>
		<SimpleData name="bng_e">202113</SimpleData>
		<SimpleData name="bng_n">52257</SimpleData>
		<SimpleData name="long">-4.78219</SimpleData>
		<SimpleData name="lat">50.336899</SimpleData>
		<SimpleData name="st_areashape">1421390.22613967</SimpleData>
		<SimpleData name="st_lengthshape">6161.40816302582</SimpleData>
	</SchemaData></ExtendedData>
      <Polygon><outerBoundaryIs><LinearRing><coordinates>-4.79266550215752,50.3311552847688 -4.79240797159644,50.3311975335015 -4.79180550989452,50.3312992353077 -4.79180273269513,50.3312993020173 -4.79176648614624,50.3313055680254 -4.791711158057,50.3313203862889 -4.79153484755374,50.3313803754771 -4.79128148774221,50.3314700929271 -4.79112997861158,50.33152229145 -4.79085600568211,50.331596405953 -4.79075353171471,50.3316213483753 -4.79068559240911,50.3316364680525 -4.79062587672068,50.3316495929869 -4.79055505485833,50.3316629836458 -4.79048251801946,50.3316728182332 -4.79043339457154,50.3316748971507 -4.79038284179437,50.3316743126858 -4.79033768412217,50.3316709000986 -4.79028541642842,50.3316667595601 -4.79020760775993,50.3316578358993 -4.79016250275697,50.3316553215053 -4.79010364993531,50.3316594328989 -4.79001974234715,50.3316650434305 -4.78997499452363,50.3316706143191 -4.78991096677975,50.3316793456643 -4.7897234911833,50.3317189172745 -4.78952378288246,50.331763277999 -4.78943055386377,50.3317799034263 -4.78933625258019,50.3318019507631 -4.78928648881281,50.3318148352647 -4.78914272796047,50.3318569540243 -4.78896995128216,50.331906153695 -4.78882316081542,50.3319420489732 -4.78869283172832,50.3319721546471 -4.78851207542412,50.3320295481573 -4.78830779952786,50.3320929009708 -4.78818895671492,50.3321272263378 -4.7881515826718,50.3321380149756 -4.78790776341965,50.3321969203099 -4.78762122186432,50.3322722280654 -4.7874907332852,50.332299637619 -4.78738670033788,50.3323237148909 -4.7872926185855,50.3323475534263 -4.7872609137771,50.3323582058169 -4.7869058209819,50.3324620433762 -4.78686705838163,50.3324728639884 -4.78682130078751,50.3324829545822 -4.78652045484701,50.3325297350122 -4.78648137680063,50.3325351686079 -4.78644369801481,50.3325387695956 -4.78632199171053,50.332547982179 -4.78595642188007,50.3325936150592 -4.7857773719024,50.3326069891901 -4.78551793000458,50.3326168044369 -4.78548682579776,50.3326139526755 -4.78546012359339,50.3325893231716 -4.78544165347614,50.3325627881816 -4.78542754084198,50.3325136660513 -4.78525784054844,50.3324709710517 -4.7850127410667,50.332412996954 -4.78484051538093,50.3323766558354 -4.78481780578473,50.3323727041361 -4.78471183772907,50.3323617538104 -4.78469607064248,50.3323576357516 -4.78460069650354,50.3323356399155 -4.78458071027824,50.3323307233994 -4.78434234582416,50.332316559923 -4.78431429188168,50.3323163334074 -4.78429328537903,50.3323177352958 -4.78427660308593,50.3323217321563 -4.7842299336887,50.332340026631 -4.78418047166354,50.3323600961844 -4.7841597277439,50.3323659884786 -4.78413882627678,50.3323691868707 -4.78406587700373,50.3323700358033 -4.78375968050002,50.3323728737596 -4.78363167447656,50.3323714430751 -4.78359687795616,50.332376773227 -4.78357458710234,50.3323800047951 -4.78355068824352,50.3323814767238 -4.78351959443506,50.3323768261034 -4.78349142532371,50.3323766012477 -4.78338576267132,50.332372837006 -4.78337314914828,50.3323731390943 -4.78334530512881,50.3323765036136 -4.78326678105807,50.3323810818526 -4.78320392904009,50.3323861842485 -4.78311702199221,50.3323900636177 -4.78288270027035,50.3323974737989 -4.78284491497868,50.3323992780956 -4.78281968059758,50.332401680477 -4.78278632294263,50.3324078745565 -4.78271683318385,50.3324203300172 -4.78263210129578,50.3324376462014 -4.7825904555225,50.3324467363394 -4.78257383560598,50.3324498319368 -4.78254443460801,50.3324523349172 -4.78252748825344,50.3324518411276 -4.78249932922056,50.3324498176413 -4.78247832264463,50.3324512201019 -4.7824559791713,50.3324535531904 -4.78243497259213,50.3324549556432 -4.78234324552332,50.332471539566 -4.78232223893205,50.3324729419986 -4.78209416347587,50.3324900922108 -4.78205914521234,50.3324936281609 -4.78185415785999,50.3325192186506 -4.78176605946045,50.3325285217662 -4.7817339975014,50.3325310873331 -4.78158268073826,50.3325392057742 -4.78139577854686,50.3325391822305 -4.78138304988104,50.3325394868578 -4.78128426323925,50.3325562388926 -4.78126475087459,50.3325594044219 -4.78116399772213,50.3325663113525 -4.78106067854138,50.3325768776943 -4.78079245003859,50.3326048782428 -4.7807325320522,50.3326126067658 -4.78055404063728,50.3326375600896 -4.78051362627525,50.3326439223462 -4.78048310949368,50.3326491491696 -4.78046220762812,50.3326523469072 -4.78043141702048,50.3326548825967 -4.78023000613611,50.3326722907318 -4.78020493899053,50.3326755880662 -4.78018264773991,50.3326788189904 -4.78008582655173,50.3327054150453 -4.78005818026989,50.3327141702859 -4.78004017212998,50.3327172987267 -4.78001637641544,50.3327205656066 -4.77986493437359,50.332750356123 -4.77983431259643,50.3327537871389 -4.77955975723693,50.3327945258931 -4.77939438638353,50.3328497384325 -4.77937770206077,50.3328537346342 -4.77935974626121,50.3328577612407 -4.77934146285897,50.3328581984842 -4.77932318085966,50.3328586356912 -4.77908910219163,50.3328444492185 -4.77906932741752,50.3328431239341 -4.77905404263245,50.3328452875758 -4.7790360213575,50.3328502152213 -4.7790154338044,50.3328588005235 -4.77898260093802,50.3328739743929 -4.77896463343005,50.3328797993654 -4.77894528822291,50.3328838591303 -4.77892988834015,50.3328860255077 -4.77891588667612,50.3328863603027 -4.77890039224047,50.3328849326421 -4.77878586227589,50.3328741818451 -4.77859647001463,50.3328553296278 -4.77856547085128,50.3328542717133 -4.7785444639519,50.332855673468 -4.77851821687048,50.3328625958411 -4.77835567425477,50.3329186388 -4.77820943864362,50.3329661987001 -4.77817778377048,50.332977746986 -4.77811387203577,50.3330143462751 -4.77809739716202,50.3330219344793 -4.77795683065135,50.3330693576441 -4.77794314336336,50.3330750810479 -4.77788870096144,50.3331051590042 -4.77786400544173,50.3331148317653 -4.7777743328259,50.3331448522088 -4.77752973594356,50.3332145462678 -4.77725017141256,50.3332886717157 -4.77721969590047,50.3332965943611 -4.77719638287153,50.3333061439899 -4.77699842511195,50.3333828154254 -4.77697382741353,50.333394194752 -4.7769574059701,50.3334026801395 -4.77694403274192,50.3334137912606 -4.77692936593658,50.3334285295826 -4.77688951466039,50.3334664413878 -4.77687725856222,50.3334748281385 -4.77683640671302,50.3334955874355 -4.77677223136497,50.3335276964565 -4.77673532494839,50.3335465633041 -4.77630966343407,50.3332356045108 -4.77627405242351,50.3332031827352 -4.77608175231145,50.3330152432326 -4.77582380073688,50.3327605275005 -4.77568660436889,50.3326253172712 -4.77557594869667,50.332510066717 -4.77547878920933,50.3324116692473 -4.77542834298851,50.3323652127259 -4.77530682421223,50.3322584043016 -4.77509987527159,50.3320834027258 -4.77502871182912,50.3320194556526 -4.77476284795651,50.3317739190423 -4.77450729263018,50.3315362296412 -4.7742739550157,50.3313178824889 -4.77415821049717,50.3312126432284 -4.77414447232269,50.3312174678774 -4.77412655714999,50.3312241903764 -4.77361580931706,50.3312858401467 -4.77299992982687,50.3313527837945 -4.77207706063101,50.3314566331748 -4.77172774929058,50.3314910434754 -4.77152548490967,50.3315156512552 -4.77123192583962,50.331542434734 -4.77118578920187,50.3315480315655 -4.7711609030956,50.332036206872 -4.77110323984585,50.3329784826958 -4.77108028854277,50.333452133934 -4.77108641542165,50.3336310315496 -4.77109608579277,50.3337971649997 -4.77112754634147,50.334023119707 -4.77117748842183,50.3342540290077 -4.77126367613704,50.3345263398696 -4.77137497032633,50.334845712273 -4.77149227201892,50.3351946174502 -4.77163619115157,50.3355428877489 -4.7717613753556,50.3358340523579 -4.7718376362956,50.3360093881917 -4.77188525381003,50.3361027653239 -4.77192620261905,50.3361791260116 -4.77197461611333,50.336236423182 -4.77203733435811,50.3363005735288 -4.7721129917575,50.3363680124123 -4.7722366279549,50.3364892523452 -4.77196304339088,50.3365928982588 -4.77177120410422,50.3366775076054 -4.77165438202065,50.3367469292874 -4.77152813680774,50.3368236799812 -4.77144333253546,50.3368877512615 -4.77136049404989,50.3369616676449 -4.7712664453375,50.3370620201558 -4.77115383946204,50.3371780124703 -4.77097720457897,50.3374044318482 -4.77079482181188,50.3376515816113 -4.77057697516448,50.3379644130735 -4.77052056701566,50.3380584714123 -4.77045686729625,50.338170599511 -4.7703168282432,50.3384465042498 -4.7699366267023,50.3386021466062 -4.76983097216286,50.3386226495872 -4.76977670445089,50.338632035847 -4.7696407572297,50.3386397722311 -4.76943710139257,50.3386410279472 -4.76921799249121,50.3386435510155 -4.76903276712205,50.3386488635995 -4.76903957270294,50.3387180347551 -4.76906808150534,50.3387479302664 -4.76915460940982,50.3388348961342 -4.76931884685266,50.3389767530825 -4.76941569283263,50.3390697677641 -4.76943522077033,50.3390926828115 -4.76945172041218,50.3391093760642 -4.7694666122884,50.3391243085822 -4.76947995787218,50.3391365802797 -4.76949624852945,50.3391496813205 -4.76964003012832,50.3392785369394 -4.76983849906517,50.3392836993596 -4.76995524564355,50.339284513357 -4.7702039725155,50.339283082047 -4.77041324785731,50.3392807915468 -4.77060975226318,50.3392761074386 -4.77078224921504,50.3392710958039 -4.77094214400037,50.3392645862163 -4.77100388910088,50.3392622155202 -4.77101099930241,50.3393843458534 -4.77101445665835,50.3393959536071 -4.77102368913694,50.339409222716 -4.77103698290196,50.3394205959534 -4.77105449484556,50.339432768142 -4.77106469863097,50.3394388197166 -4.77154778492758,50.3395991501303 -4.7717684502744,50.3396730233496 -4.77183021969044,50.3396949315292 -4.77182389312671,50.3397076721132 -4.771821742929,50.3397185140541 -4.77181985423804,50.3397338464673 -4.77182501380525,50.3397508098345 -4.77198832744283,50.3400437616137 -4.77188932451975,50.3400829932562 -4.77181953051306,50.3401143329609 -4.77179652688218,50.3401292703028 -4.77176735343352,50.3401596412471 -4.77175294832426,50.3401789592851 -4.77166826210933,50.3401476164648 -4.77161968171125,50.3401352857221 -4.77158162961598,50.3401325959388 -4.77154228062138,50.3401335342556 -4.77150197373584,50.3401398916303 -4.77142577669926,50.3401587940737 -4.77142544989989,50.3402029557809 -4.77142091156229,50.3402444302937 -4.77141496813215,50.3403353976019 -4.77141050015303,50.3403561868378 -4.77140599045605,50.3403742803027 -4.77139987145967,50.3403906130974 -4.77138984932453,50.3404115347685 -4.77135812910373,50.3404698443005 -4.7713296924496,50.3405128772145 -4.77129847278412,50.3405558874252 -4.77126832748757,50.3405934757807 -4.77123931033092,50.3406265414212 -4.77120308650141,50.3406552821735 -4.77115958405451,50.3406823974111 -4.77109952085942,50.3407117074147 -4.77104201423178,50.3407391564919 -4.77100356548673,50.3407535623796 -4.77095655313297,50.3407681724166 -4.7708568800594,50.3407939290028 -4.77076704885211,50.3408195417339 -4.77033069532839,50.340930660735 -4.76983761700987,50.3410548200652 -4.76943864453164,50.3411551527974 -4.76912869891265,50.3412399638641 -4.7690235620951,50.3412694471075 -4.76894217227085,50.341294766445 -4.7688597478667,50.3413282042591 -4.76865393208096,50.3414140414927 -4.76869478519627,50.3414409453879 -4.7687049354709,50.3414460989238 -4.76881154375052,50.3415155902815 -4.76886698670665,50.3415502404467 -4.76890502058296,50.3415745137682 -4.76897648318193,50.3416195729014 -4.76901450654201,50.3416456445808 -4.76909488688517,50.341698585078 -4.76913127149809,50.3417184009154 -4.76913847670922,50.3417227259582 -4.76919386787907,50.3417564776846 -4.76922746409873,50.3417781580689 -4.76924648121527,50.3417902946696 -4.76927420151623,50.3418086087058 -4.76930047757024,50.3418259685728 -4.76934108072771,50.3418465833555 -4.76935999336165,50.3418569233858 -4.76937163796993,50.3418638403018 -4.76933736454585,50.3419042250448 -4.76933554987892,50.341944735028 -4.76933480988085,50.3419798231797 -4.76930958247262,50.342054164277 -4.76928659971307,50.3420933804677 -4.76926839408859,50.3421190835718 -4.7692108536354,50.3421699137561 -4.76917216442895,50.3422041079054 -4.76916675483859,50.3422087334928 -4.76920040364135,50.3422313121552 -4.769289285946,50.3422849503821 -4.7693153531137,50.3422987173912 -4.76933767076949,50.3423197682316 -4.76936581612503,50.3423433788235 -4.76940889452056,50.3423846180426 -4.769462402055,50.3424337927342 -4.76948919947783,50.3424601322293 -4.76950259822597,50.3424733024237 -4.76953320808804,50.3424914579301 -4.76957263255504,50.3425156983505 -4.76960312596157,50.3425338566145 -4.76962977877194,50.3425557036386 -4.76964621673371,50.342573297283 -4.76965987685446,50.3425909580191 -4.76966771981885,50.3426042596872 -4.76967561651448,50.3426184605112 -4.76968200840423,50.3426326962941 -4.76968263550159,50.3426434730992 -4.76966635655882,50.342702313848 -4.76966441472218,50.3427167482191 -4.76966776745892,50.3427265605366 -4.76968051488834,50.3427524261103 -4.76970869397056,50.3428263946175 -4.7697241710749,50.3428494074739 -4.76973819845614,50.342873353513 -4.7697544275236,50.3428873548731 -4.76979437363871,50.3429205763695 -4.76981957419551,50.342943356601 -4.76984024282428,50.3429599507646 -4.76986863804027,50.3429898493544 -4.76988188166155,50.3430003254942 -4.76990207855345,50.3430088368528 -4.76991629234518,50.343012095369 -4.76993457837877,50.343011659586 -4.76996692137665,50.3430117874356 -4.7700007571911,50.343013678774 -4.77003058365259,50.3430183642671 -4.77006056685051,50.3430257428303 -4.77009203610409,50.3430367731727 -4.77018034722558,50.3430805322445 -4.7710242673081,50.3427752539101 -4.77153321390651,50.3425849708558 -4.77198269444915,50.342458244728 -4.77243908839407,50.3423547335989 -4.77352966268669,50.3421101010415 -4.77515994045091,50.3417680454107 -4.77519374879759,50.3417933162233 -4.77537309805433,50.3419275206157 -4.77577205194926,50.3417057674398 -4.77601864106041,50.3416197531986 -4.77653567868594,50.3415210741059 -4.77698833180668,50.341449109545 -4.77718652146495,50.3414254895546 -4.77755130226593,50.341388895728 -4.77809431029653,50.3413480408908 -4.77851416200048,50.3413416020099 -4.77960248205394,50.3413470542043 -4.78000695742472,50.3413670557243 -4.78022374507255,50.3413483819283 -4.78041773815622,50.3413005759465 -4.78070484294234,50.3412099861021 -4.78088362547017,50.3411418604908 -4.78116094461671,50.3410048318482 -4.7820030122717,50.3405745234694 -4.78369997529535,50.3399815632171 -4.78443755248686,50.3397111120264 -4.78561063845843,50.3394131360792 -4.78662981888081,50.3392241431105 -4.78688629340431,50.3391630488264 -4.78706198612646,50.3391156719035 -4.78724397989816,50.3390789343336 -4.78727034410314,50.3390720072972 -4.7874501492779,50.3390236316332 -4.78737683320798,50.3389471534173 -4.78733404814685,50.3389131077286 -4.7872756074082,50.3388749415881 -4.78724019126556,50.3388460254791 -4.78721039814721,50.3388161640615 -4.78717639778601,50.3387639225642 -4.78709729781873,50.3386381233428 -4.7870565856513,50.3385662585703 -4.7870305025445,50.3385047446981 -4.78701168217724,50.3384485419988 -4.78699200178509,50.3383518929477 -4.78695351706283,50.3381755694755 -4.78692743957328,50.338114145404 -4.78684280866932,50.3379650972763 -4.78704118409604,50.3378955041682 -4.78718534242258,50.3378380913923 -4.78725518649907,50.3378058408731 -4.78730572677818,50.3377803489774 -4.78736234660691,50.337763703837 -4.78743345258006,50.337753006175 -4.78752587146769,50.3377480922538 -4.78762833796745,50.3377465336062 -4.78774502779791,50.3377464337071 -4.78852489643876,50.3377439138098 -4.78870594777072,50.3377386717232 -4.7889757996179,50.3377142113542 -4.7891561554635,50.3376990931496 -4.78931583089204,50.337688966753 -4.7894197905072,50.3376891697438 -4.78950852821966,50.3376906374641 -4.78961018387622,50.3376989886212 -4.78975459372476,50.3377171061236 -4.7899006562387,50.3377396787212 -4.79016766005186,50.337787226332 -4.7903436518531,50.3378162752902 -4.79046990025952,50.3378349169375 -4.79057326169039,50.3378486216814 -4.79067930530326,50.3378586656293 -4.79078496925147,50.3378642227568 -4.79090197506423,50.3378695065731 -4.79104976309121,50.3378740520595 -4.79119318458818,50.3378733059409 -4.79127052806723,50.3378741463985 -4.7913377197001,50.3378698352183 -4.79141170773182,50.3378608640476 -4.79147853070305,50.3378502667403 -4.79154482843207,50.3378306894245 -4.79161535417604,50.3378101110009 -4.79167725761298,50.3377887501306 -4.79173506447246,50.3377666789379 -4.79180222335015,50.3377380873026 -4.79188286677029,50.3376983810073 -4.79195248708165,50.3376643356882 -4.7919931873685,50.3376390771282 -4.79223254157932,50.3374542828706 -4.79258922375599,50.3372092065514 -4.79270496214141,50.3371218036268 -4.79279358592082,50.3370522294548 -4.7928819044422,50.3369754681098 -4.79299504718574,50.3368675343132 -4.79314273746287,50.3367263071196 -4.79325865656717,50.3366183063156 -4.79332510305994,50.3365519623143 -4.7933953074659,50.3364548621069 -4.79346537820254,50.3363317767594 -4.79357484212607,50.3361375111394 -4.793606478418,50.3360782984713 -4.79362532563074,50.3360400760507 -4.79367833105788,50.335865152421 -4.79371195771156,50.3357213594904 -4.7937212854925,50.3356887621264 -4.79373457758474,50.3356506731992 -4.79374887907806,50.3356080632599 -4.79375669413681,50.3355970846629 -4.79376660151038,50.3355743645891 -4.79380803386943,50.335490545433 -4.79386785497367,50.3353587135271 -4.79392156784039,50.3352215421742 -4.79395161939453,50.3350148859786 -4.79396858052284,50.3347293192489 -4.7939748690167,50.3346212550985 -4.79391449253239,50.3345263946747 -4.79377692021211,50.3343363584067 -4.79378696549467,50.3341975390019 -4.79374138400064,50.3339953984821 -4.79357193015772,50.3337655718057 -4.79345148230808,50.3336047098109 -4.7931059110747,50.3331992616366 -4.79294152213567,50.3329845992969 -4.7929054125018,50.3328964400186 -4.79273229748458,50.3321971911697 -4.79270400206376,50.3319064183382 -4.79266550215752,50.3311552847688</coordinates></LinearRing></outerBoundaryIs></Polygon>
  </Placemark>
