  <Placemark>
	<Style><LineStyle><color>ff0000ff</color></LineStyle><PolyStyle><fill>0</fill></PolyStyle></Style>
	<ExtendedData><SchemaData schemaUrl="#Wards__December_2019__Boundaries_EW_BFE">
		<SimpleData name="objectid">6805</SimpleData>
		<SimpleData name="wd19cd">E05012578</SimpleData>
		<SimpleData name="wd19nm">Lavenham</SimpleData>
		<SimpleData name="wd19nmw"></SimpleData>
		<SimpleData name="bng_e">591399</SimpleData>
		<SimpleData name="bng_n">249522</SimpleData>
		<SimpleData name="long">0.793736</SimpleData>
		<SimpleData name="lat">52.110901</SimpleData>
		<SimpleData name="st_areashape">46765625.8284379</SimpleData>
		<SimpleData name="st_lengthshape">58748.2948790423</SimpleData>
	</SchemaData></ExtendedData>
      <Polygon><outerBoundaryIs><LinearRing><coordinates>0.765394224234617,52.1403205424095 0.765889861820448,52.140040005123 0.765972678734045,52.1400092918608 0.766033271930687,52.1399952832755 0.766097021763653,52.1399874940503 0.76668539409896,52.1399763844501 0.766766271519436,52.1399843762092 0.766826142969003,52.1399820717452 0.766885393878876,52.1399716906112 0.766945366121074,52.1399496040236 0.766990608519784,52.1399251669608 0.76703101960365,52.1398927511741 0.767401807411652,52.1397446023533 0.767682009170983,52.1396418247793 0.767849811815902,52.139566859365 0.767984429595026,52.1394989654354 0.768179073608329,52.1393846192946 0.768532910569267,52.1392450468805 0.768916799576785,52.1390732102898 0.769373091634642,52.1387009778381 0.769586120340061,52.1385062700526 0.769733953920341,52.1383912232165 0.770560299740846,52.1376946285489 0.770757425976144,52.1375506408762 0.771047156453459,52.1374133758381 0.771239114146158,52.1373045716461 0.771396442356399,52.1371776109082 0.771532269362634,52.1371060888415 0.771591119166319,52.1370660460222 0.771682708276808,52.1369865723945 0.77172505378413,52.1369388254299 0.771783441014621,52.1368447593125 0.772664540798857,52.1358996185798 0.773028835131176,52.1355294449664 0.773052212222465,52.1354111168537 0.773055429663462,52.1353930600785 0.773086310105987,52.1353024273071 0.773093471370908,52.1349928894874 0.773015762037443,52.13447128106 0.773005516699545,52.1344013945505 0.772615905794363,52.1343638075225 0.772419201788657,52.1343260873831 0.772315266183927,52.1342997623624 0.77221388261928,52.1342679812902 0.77209127336147,52.1342223154802 0.772029634315039,52.1341940953463 0.77187826726809,52.1340636940465 0.771771094080291,52.1339852083388 0.771594669552149,52.1338742753739 0.771131752526164,52.1335272399731 0.770894463061552,52.1333771898299 0.770826317475781,52.1333392321526 0.77024767043956,52.1331037011712 0.770134170422854,52.133041635054 0.770067089060516,52.132995561617 0.770005439618052,52.132945763206 0.769609621346762,52.1325243206574 0.76922026656519,52.1322321907571 0.769060019305362,52.1320749320695 0.768862595050656,52.1319321226093 0.76877488703733,52.1318603698112 0.767760527353076,52.1308445992827 0.768049488772515,52.1306255450104 0.768087041569172,52.1304772163192 0.768076918808187,52.1299369350902 0.768082626450821,52.1297219237564 0.768073600295856,52.1295530214098 0.768046570956891,52.1293521751394 0.767964339366481,52.1289683167133 0.767822982883911,52.1286451848256 0.767723274752478,52.1284982804281 0.767607451262848,52.1283498675344 0.767489230082472,52.1281647374557 0.767443492289883,52.1281090800959 0.767352844618591,52.1280150084158 0.766914415435942,52.1276610885179 0.766838724956603,52.1275711601842 0.766709229595735,52.1272720231464 0.766664089270795,52.1270859872326 0.766556780816115,52.127004892939 0.766407114268397,52.1268779504481 0.766274857624401,52.1267947443293 0.765745493246963,52.1265517409238 0.765233686791079,52.1262633696739 0.765163167463244,52.1262101813754 0.765052751631694,52.1261021861049 0.764785850487746,52.1258737005948 0.764653975571229,52.1256798084695 0.764642258411014,52.1256540100853 0.76462769884301,52.1256076002087 0.764624864191914,52.1255618137578 0.764632190451176,52.1255166892142 0.764662981287474,52.1254458395507 0.76468692371435,52.1252896491078 0.764867892897129,52.1250272831513 0.764888397265232,52.1250043253911 0.76495085518569,52.1249507139345 0.765071432737625,52.1248687683939 0.765197004823194,52.1247741177249 0.765668251001076,52.12462181855 0.765826007698785,52.1245488888457 0.765922788703107,52.1243900905447 0.765944180610262,52.124358121227 0.7660119162536,52.124271120255 0.766104699259283,52.1241664488006 0.766235987682594,52.1240455005855 0.766435744109853,52.1238960627176 0.766477083916984,52.123855533903 0.766558480374688,52.123802376406 0.766605540567686,52.1237841891973 0.766691717893751,52.1237595997468 0.766987597021955,52.1236294830853 0.767323082086473,52.1234561783674 0.767612445593344,52.1233162332536 0.767823135803567,52.123131472442 0.768289876608249,52.1226950726199 0.768442389350747,52.12258630023 0.76859329414174,52.1224982435795 0.768660235682474,52.1224471328055 0.768762797436452,52.1223332388839 0.769012322114137,52.121809334634 0.769050877457865,52.1217472918661 0.769168207491976,52.1215898964938 0.769343465383691,52.1212827027735 0.769592727168743,52.1209917519116 0.769786539236629,52.120676929576 0.769878346292865,52.1204616023784 0.769980605938561,52.1202497166872 0.77015775467285,52.1199712474768 0.770260014936068,52.1198545730908 0.770294510781055,52.1198222949259 0.770364682821338,52.119774792612 0.770413065150998,52.1197313997123 0.770444228262798,52.1196920070281 0.770468064587466,52.1196509887982 0.770493599631126,52.1195693827376 0.770717002742905,52.1191900289937 0.770742050298807,52.1191471835761 0.770832300970421,52.1189534705217 0.770838462618602,52.1189110699497 0.770839568171191,52.1188337235227 0.770829835704638,52.1187952929954 0.770746815421763,52.1187055394636 0.770319583059768,52.1184358816235 0.770170561978452,52.1183656600746 0.770073602650473,52.1183094098149 0.769955862527796,52.1182249674485 0.769814344620691,52.1180853408347 0.769594352853759,52.1178845342036 0.769001872714638,52.117280614428 0.76889929663752,52.1171589532343 0.768551820781359,52.1159835821403 0.76846902287096,52.1158020267272 0.768375394245005,52.1155875504173 0.7682941473074,52.1154329310425 0.768184566874284,52.1151728862895 0.768070986135851,52.1149435043782 0.768038475919008,52.1147959213829 0.768036677444057,52.1145297496424 0.768173056437735,52.1144914828209 0.768354384797069,52.1144944167033 0.768453324066061,52.1144642217468 0.76891423218651,52.1138885997154 0.769044656999094,52.1137776469863 0.769150875472868,52.1137463810718 0.769238179259654,52.113600389046 0.769359049184216,52.1134518995289 0.769843676907943,52.1129988888578 0.770028356982132,52.1127976526368 0.77018310566534,52.1126536701807 0.770496765824045,52.1124368145585 0.770258735246126,52.1120844902158 0.770071482075581,52.1117488631914 0.769863575147035,52.1114588549005 0.769670447567041,52.1112187569213 0.769475101522703,52.110917573641 0.769258753428765,52.1106330669219 0.768931630623928,52.1101856440509 0.76880718311918,52.1099925712137 0.769044127735282,52.1098088981329 0.769121774894359,52.1097423411285 0.769193871573818,52.1096795099953 0.769293725807974,52.1095709838034 0.769498044637757,52.1092379328383 0.769540409625095,52.1091209573848 0.769606948740139,52.1090151014713 0.769769071069761,52.1088970193639 0.769897368459288,52.1088238763737 0.770000680242068,52.1087459263167 0.769694636659485,52.108498592356 0.769226889818956,52.1080923258737 0.768953190753612,52.1078945780016 0.768867257411005,52.1078273685718 0.768759763973763,52.1076706690446 0.768754924868956,52.1076644892407 0.768696825314219,52.1075975251087 0.768625276888168,52.1075272804868 0.768513343619758,52.1074660757715 0.76879055261953,52.1073668688805 0.769056151785907,52.1072221727382 0.769255038211385,52.1070600722823 0.76944009177645,52.1068884965615 0.769630912236787,52.1067400712828 0.769826580601151,52.1066212904817 0.770116227317828,52.1064625394194 0.770192362398853,52.1064202917637 0.770425189061017,52.1063104364463 0.770488552503388,52.1062738838925 0.770693638344149,52.1060720754822 0.770778722972338,52.1059585908057 0.771187829716073,52.1055146302959 0.771212484860485,52.1054888765443 0.77144816999907,52.1052854487264 0.77154385682646,52.1052031815962 0.771579728542548,52.1051699711443 0.77162532326258,52.105126552165 0.771851614204968,52.1048901690942 0.772052349074483,52.1046417088574 0.772120592156897,52.1045654809274 0.772376532097885,52.1043121259661 0.772511759248327,52.1042073492938 0.772558451984825,52.104160308573 0.772730696681981,52.1039476711934 0.77283913692437,52.1037876922395 0.772857566429008,52.1037315164136 0.773028865731344,52.1035269929475 0.77329533714264,52.1032320305437 0.773406716953076,52.1031214305224 0.773641394834218,52.1029486797654 0.773798260987893,52.1028415044978 0.773956750948831,52.1027352800481 0.77441781652135,52.102446522511 0.775139028552567,52.1019727226521 0.775301451628157,52.101883395602 0.775527230756114,52.1017576020894 0.776415235740451,52.1012420144552 0.776764832992747,52.1010162014031 0.776842731676145,52.1009541277728 0.776982420643405,52.1008284722562 0.777111002778738,52.1006887834575 0.777169298854193,52.1006154838636 0.777204471777891,52.1004994830982 0.777204449322871,52.1004293564956 0.777212213256324,52.1003896137267 0.777226911858546,52.1003452126638 0.777287912464485,52.1002456858145 0.77741838674192,52.1001365201391 0.777536156518945,52.1000573227094 0.777612377950148,52.0999683161229 0.777675767185622,52.0998588436937 0.777799289479045,52.0997327586247 0.777899120964783,52.0996710664638 0.778105114896588,52.0995546346423 0.778204060094745,52.0995019537244 0.778295067154733,52.0994629462593 0.778386416895837,52.0994275270699 0.778579326482756,52.0993834186878 0.778713983155582,52.0993415829772 0.77881147153679,52.0992654705104 0.779302296502223,52.0988465245275 0.779546730828907,52.0986203956633 0.780852004591019,52.0976785664089 0.78142503526107,52.0972423858288 0.78209377374073,52.0967967497713 0.782404755772837,52.0965609514213 0.782474452911634,52.0964370312361 0.782518088087459,52.0964108266173 0.782563390252312,52.0963881790479 0.782646834035024,52.0963690356098 0.783181913741546,52.0968474730978 0.78334784914583,52.0970045772234 0.783589905029748,52.0972568939323 0.783686241957745,52.0973500102676 0.78384268015756,52.0974937626643 0.78390728978062,52.0975452815178 0.784761815023689,52.0972220099521 0.785276642111422,52.0970021541857 0.785441304422706,52.0969262456036 0.785369211111501,52.096660024799 0.785404925153691,52.0964603943922 0.785484396904641,52.0962597294887 0.785507074268809,52.0961773782369 0.785522419159261,52.096095199431 0.785504653120305,52.0959975299637 0.785452688781873,52.0957973651576 0.785375953055786,52.0955725218413 0.785323226648973,52.0955243193135 0.785099974740429,52.0953631776917 0.785046151689775,52.0953185965057 0.78553528287157,52.0949437168565 0.785699482127512,52.0948373403007 0.785573055977805,52.0946361489985 0.785172803409422,52.0941402393191 0.784694981430365,52.0937845306233 0.784576674207449,52.0936884287853 0.784473408905941,52.0936018604229 0.784094192845596,52.093304147199 0.783974868355406,52.0931935931363 0.784190159124242,52.0929682318547 0.784531188797977,52.0927245243722 0.784800333011156,52.0925211755749 0.784936702277787,52.0924145575285 0.785256065343291,52.0921497822384 0.785821199080855,52.0916139672506 0.786038020247397,52.091390273824 0.786169100386697,52.0912684060114 0.786300239939004,52.0911475259077 0.786460978390672,52.0910322382635 0.786644668713782,52.0908641714047 0.786309941093747,52.0906697951028 0.786006146884488,52.0905042664391 0.785172767537624,52.0899456843092 0.784786465450461,52.0897444307857 0.784626473382795,52.0896842885374 0.78436377697979,52.0894980943124 0.78404002822192,52.0892458219418 0.783905600694943,52.0891032575887 0.783722893097102,52.0890068779757 0.783680459000557,52.0889575322136 0.783576115005667,52.0888070647037 0.78317900704982,52.0888533983448 0.782864599846875,52.0888689175402 0.782573341223166,52.0888560169696 0.782376443854577,52.0888120266552 0.781948178490156,52.0887097555784 0.78128208371071,52.08854018194 0.780992340075635,52.0884355361934 0.780787206340315,52.0883306905832 0.780544996471543,52.0882374181185 0.780229547892233,52.0881432662638 0.77959983878306,52.0879701271996 0.779254358620603,52.0878613971025 0.778998659336441,52.0877640347991 0.778803297626908,52.0876264992682 0.778668385308175,52.0874525626765 0.778521093247691,52.0872905166093 0.778318920195658,52.0870452505281 0.778101390777545,52.0868337025283 0.777462523646943,52.0864197261436 0.777125757044265,52.0862145837621 0.776837571608501,52.0860648464573 0.776133288141135,52.0856533942218 0.775808407765652,52.0854766478935 0.775302576753472,52.0851827893458 0.77666157214746,52.0844520056427 0.77651077930582,52.0842100215179 0.77791435052613,52.0836589768351 0.778612465832799,52.0834059661887 0.778789200517501,52.0833370644971 0.77898102026332,52.0832533310042 0.779361122356236,52.0830735401748 0.779542226794426,52.0829820562431 0.779584576714981,52.0829585799779 0.779686082402202,52.0829012518513 0.779821402435896,52.0828225363839 0.780010422551855,52.0826706274442 0.780168781136789,52.0824708012009 0.780358972647629,52.0821713253275 0.780440916415184,52.0820588045948 0.780523308736229,52.0819515783919 0.780678076636782,52.0817869902612 0.780747431186163,52.0817062341918 0.780924090160678,52.0814718108925 0.780773870353283,52.0810283347775 0.78070799339713,52.0809076151492 0.780518573905501,52.0807258866418 0.780417689279231,52.0806518457464 0.780248576970227,52.0805605352039 0.780130707864214,52.0805210597658 0.779886813117784,52.0803999557951 0.779620143475252,52.0802435142072 0.77954951646108,52.0801876402217 0.779487493388069,52.0801288651914 0.779394970878352,52.0800014907184 0.779230977945262,52.0798065732447 0.77911368995459,52.0796331207942 0.779111467329797,52.0796205861274 0.779446162924446,52.0794175008956 0.779551164350679,52.0793448951071 0.779647560334279,52.0792751893751 0.779793275396516,52.0791547817038 0.77995111641025,52.0789235899026 0.780005308430892,52.0788080378658 0.780014778626771,52.0787493746423 0.780014182481293,52.0786217198935 0.780006769312442,52.0785508670861 0.779896904127753,52.0782161260038 0.77987273705522,52.0781312836619 0.779846597734099,52.0779934423268 0.779848117345675,52.0778998125824 0.77988644391308,52.0778116968711 0.780024437273118,52.0776600932039 0.780195457821872,52.0775229032932 0.780242462704607,52.0775047110627 0.780419012326286,52.077456489343 0.780607162847996,52.0774322693076 0.780905630945796,52.0774423059074 0.781578829278941,52.077519917064 0.781814104347511,52.0774774985307 0.782230646757136,52.0772518826752 0.782359202723479,52.0771363717405 0.78253267590743,52.0770387694005 0.78259265553654,52.076995096398 0.782644094235481,52.0769534228882 0.782587683670116,52.0769151953613 0.782812869134511,52.0767803193679 0.78309821486083,52.0766279270955 0.783214284039299,52.0765226001922 0.783316243601903,52.0763781364468 0.783458484683111,52.0762254379823 0.783675894138333,52.0759676598483 0.782814480898097,52.0758683448253 0.782377934237185,52.0758417946594 0.781900466002599,52.0757919334752 0.781824476711542,52.0756497855499 0.781213453514397,52.0743907566098 0.781098610897671,52.0742100562852 0.781008951375319,52.0739873126831 0.780807831498311,52.0735936785832 0.780240555015825,52.073600775138 0.779818754625259,52.0736233167476 0.779055939413183,52.0736071504419 0.778764492812878,52.0735915486879 0.778446016576852,52.0735630973017 0.778296042712968,52.0735449668565 0.778059598596445,52.0734965992173 0.777936480153674,52.0730894322344 0.777806712083336,52.0728793208686 0.77773321784196,52.0726356052168 0.777678627703573,52.0725567840783 0.777575592703216,52.0724477282749 0.777406182428351,52.0723762000661 0.777195486378078,52.0723199408393 0.776652949219241,52.0722077578742 0.775966105555552,52.0720755976725 0.775276537828052,52.0719227293109 0.77514416698697,52.0718817930128 0.774939292493633,52.071779629032 0.774842485909166,52.0717242791262 0.774746960659839,52.071666290886 0.774622680238993,52.0715676221225 0.774000977165207,52.0710498305448 0.773900558191335,52.0709613884542 0.773804528394332,52.07087194359 0.77366342093229,52.0707133417328 0.773661979763829,52.0707133756674 0.77360501975129,52.0701013661662 0.773549104486289,52.0696944111924 0.773500394122593,52.0692134717343 0.773435703502412,52.0687347970995 0.773301863811092,52.0685535466199 0.773042811531701,52.0682583642785 0.772961589239686,52.0681029375288 0.772811675858481,52.0677088943821 0.772993632862924,52.0676299876626 0.773247231085057,52.0676024395209 0.773559265798588,52.0675510377655 0.774226655309202,52.0673959636933 0.773892051316019,52.066988288993 0.772876588024519,52.067319773153 0.772858101593879,52.0673049241161 0.772626425434142,52.0670513534006 0.772658824279951,52.066630629683 0.772707549593552,52.0663335960664 0.772694480532122,52.0661945458999 0.772572913194238,52.0659509690922 0.77211403901454,52.0652342338516 0.772060966084819,52.0651077238583 0.772486884576762,52.0648927087671 0.772810808612822,52.0647519295876 0.773082970476011,52.0646223481016 0.77314632067729,52.0645380518523 0.773228080005593,52.0643509162847 0.773237965524454,52.0638038624661 0.773211824382301,52.0634519481096 0.773116925196549,52.0627922792781 0.773069761449734,52.0621962199709 0.773066057242958,52.0619714464783 0.773033846819035,52.0618049755315 0.773031404575565,52.0617888503333 0.773033465618713,52.0615153912037 0.772692317009104,52.0611448190639 0.772361468618317,52.0608666093204 0.772153034386659,52.060680820458 0.772115845308177,52.0606475307803 0.771744492490364,52.060352291312 0.771049200717412,52.060243678601 0.770660737307989,52.0601906910946 0.770488730924588,52.0601695629407 0.770156376150488,52.0601504081869 0.770154814393539,52.0601504449186 0.770060656678144,52.0601373751749 0.769983480972141,52.060114914393 0.769735505110237,52.0600227460901 0.769655216120322,52.0599985614317 0.769573266412127,52.0599941949084 0.769268486171878,52.0599968655092 0.769149585715611,52.0599843767922 0.769093377211728,52.0599722118279 0.769018455095844,52.05975091142 0.768751326965808,52.0594657995712 0.768945326831399,52.059206709227 0.769119413978979,52.0589543802631 0.768934124534422,52.0586484636886 0.768943500864879,52.0585394537338 0.768972452971153,52.0584182966329 0.768972386952793,52.0583705567378 0.768967947138713,52.0583221102644 0.768930648985568,52.0580964191842 0.766953904130203,52.0578155193188 0.76608999291289,52.0577395197271 0.766097647075494,52.0581008607872 0.765561299825737,52.0581089610996 0.765020396272089,52.0581387428672 0.764383908377387,52.0582256998034 0.763815923575333,52.058313653868 0.762481878607346,52.0586111684313 0.761066420745843,52.0589600250323 0.760804470586526,52.0590192118634 0.759497968891459,52.0592899722415 0.759047317633433,52.0593634650818 0.758059836400529,52.0595799847229 0.757652615951924,52.0596497571373 0.757165776733315,52.0597744382887 0.756841510128692,52.0598395697658 0.754929171157811,52.0600831005924 0.754442388285341,52.0601385400612 0.753715407577124,52.0602022905149 0.753717044600115,52.0605143219085 0.752886659491225,52.0602504337547 0.751477543137433,52.0597555122176 0.750975687483933,52.0595657517578 0.750444143586416,52.0593919666484 0.74971285461885,52.0590780913348 0.749554095896541,52.0588435427471 0.749306445641412,52.0585894007322 0.74906507689748,52.0583180286468 0.7487996214493,52.0580813830697 0.74850592800006,52.0578588823046 0.748382514719042,52.0577511763706 0.748265153999698,52.0576460252259 0.748128284343329,52.0574836987131 0.748134890311061,52.0573522785737 0.74817015494871,52.0569529847995 0.747546158204,52.056936074144 0.74556794806584,52.0569597243687 0.743872143199732,52.0569515898021 0.743537539768949,52.0569423010176 0.743606902587039,52.0579542137665 0.743676797330789,52.0580956292463 0.743634256870094,52.058282729121 0.743439734032313,52.0587495649578 0.743400908265274,52.0588304864493 0.743217562914556,52.0591009717465 0.742278903994426,52.0589258414326 0.741572341564759,52.0587750607264 0.741193262433347,52.0586839959811 0.740581886083576,52.0585867371824 0.740153271654455,52.0584960122287 0.740615068508426,52.0571758544023 0.740673884574703,52.057063810399 0.740879142753992,52.0569133837725 0.741051488052016,52.056773522717 0.741490756859323,52.0563235617351 0.741775713309172,52.056093868342 0.741984953869934,52.0558416620287 0.74222299868796,52.0555825811071 0.742318201132181,52.0554696881541 0.742824832642871,52.0548337522187 0.743037334715964,52.0545878513617 0.743370582254478,52.0541474546731 0.743698491799697,52.0537378395762 0.74381118849314,52.0535768865491 0.743982584006235,52.0533021815132 0.744065840833102,52.0529945563339 0.744127491418477,52.0528347921925 0.744238242699549,52.0526892590336 0.744349739128334,52.0525813788181 0.744430117384717,52.0524877999273 0.744536208211701,52.0524349795252 0.744765662320681,52.0522991769294 0.745212411585115,52.0520666924012 0.745272171044569,52.0520193570166 0.745323342871328,52.051973210135 0.745370145430453,52.0519028902285 0.746418942737494,52.0512857673416 0.746313574250517,52.051209105288 0.746208105339141,52.0511288499438 0.746071675338044,52.0510222535886 0.745991213600244,52.0509477076539 0.745868010408516,52.0508175162123 0.745779576273699,52.0507071034625 0.74566149871006,52.0505408297147 0.74562730584342,52.050459810656 0.745594833123581,52.0503813584499 0.745569681847718,52.0503046241716 0.745562376633269,52.0502580423761 0.745564562049892,52.0502211284638 0.74558422801594,52.0501613308007 0.745610066661845,52.0500590430071 0.745623506995057,52.0500173718314 0.745685409964857,52.0499089381012 0.745723819419345,52.0498684826041 0.745768217747464,52.0498080184008 0.745931402420409,52.0495920313567 0.746161024624823,52.0492925878262 0.746323990613122,52.0490711211819 0.746512744454577,52.0488662249319 0.746563401287218,52.0488137058359 0.746631165908333,52.0487518870163 0.746692035298394,52.048699219642 0.746739651738515,52.0486657429122 0.74678309808147,52.0486368574081 0.746843683239878,52.0486030781886 0.746918809245849,52.0485671611347 0.747308601214844,52.0484303096202 0.747549573341927,52.0484121013827 0.747745509907576,52.0483949433167 0.747863006624857,52.048361633625 0.747836054543508,52.0483496752916 0.747824059639969,52.0483440752629 0.747678322074861,52.0482760345333 0.747301937752635,52.0479178990014 0.74704605695394,52.0476459619181 0.746945767890115,52.0475088531749 0.749088743392517,52.0467537935759 0.749955213041419,52.0464700437436 0.750591565799734,52.0462402121845 0.751107383396284,52.0460411551883 0.751284790229522,52.045984863519 0.751651547388144,52.0457829028419 0.752163138268277,52.04554069342 0.75237058179246,52.0453803038836 0.752616263360507,52.0451299218432 0.752886632865243,52.0448762650582 0.753637686407683,52.0441401606186 0.755305048411047,52.042485961798 0.755779312622962,52.0419936753895 0.756203255158162,52.0415826725016 0.755960584340051,52.0414319102156 0.755838416676037,52.0413654505013 0.755712087919149,52.0413036719779 0.755423601900027,52.041189944453 0.755183963193248,52.0411353131919 0.754970451027661,52.0410772822851 0.754408787575245,52.0408620520147 0.754228610309401,52.0408005429537 0.754140764748313,52.0407720287358 0.753785888925985,52.0406931164747 0.753654352993683,52.0406404491174 0.753435358934339,52.0405655505076 0.754070999396439,52.0405623749858 0.754289749656989,52.0405374798386 0.754428730850839,52.040545017798 0.755421024792999,52.0406027222596 0.75576843597359,52.0406071803963 0.756632824806066,52.0406966393663 0.757153931531688,52.0407744383699 0.758018872966602,52.0409196163552 0.759041281727487,52.0410638868415 0.759290355593957,52.0411057019673 0.759541091465591,52.0411510749895 0.760393126647288,52.0413460781796 0.760757669202607,52.0414391288278 0.761635835553395,52.0416092353421 0.762481237051489,52.0417197741886 0.762862700296105,52.0417575776807 0.763627863031137,52.0417953677867 0.763854252228878,52.0418026420162 0.764595846948601,52.0418131065285 0.765728388516814,52.0418513369851 0.766072918651396,52.0418810063782 0.766471370451533,52.041884233632 0.766829927952107,52.041858727572 0.767162983561453,52.041819433788 0.767302855353399,52.0417945681208 0.767441295280298,52.0417679390493 0.767791585809353,52.04167869905 0.768594895818645,52.0415087690959 0.768838596562001,52.0415587823599 0.769006087381715,52.0415800184902 0.769007648495541,52.041579981782 0.769599758479051,52.0416523690984 0.770605591273591,52.0418562674709 0.770644746517754,52.0418049974106 0.771856457367571,52.0420382062272 0.773857548723733,52.0423948656703 0.77746631743787,52.0430858953101 0.777186016932115,52.0435997701504 0.777087860046565,52.0438745973306 0.776953427228666,52.0441772529095 0.776800686944208,52.0444174031401 0.776640984507257,52.0445937929787 0.776896748129741,52.044649799717 0.777261014481421,52.0447141255062 0.777620283483438,52.0447928630902 0.778006349021385,52.0449042332294 0.778268624212711,52.0449934391091 0.778395655670004,52.0450425886552 0.778612003145928,52.0451687512185 0.779047313601491,52.0453914322877 0.779282255005888,52.045534236059 0.779865056479916,52.0459243496054 0.780454073375246,52.0462962412988 0.780723194725869,52.0464490246596 0.780872706724549,52.0465076216555 0.781026201594265,52.0465606393178 0.781583227914917,52.0466050244936 0.782473518082852,52.0466846902563 0.782802681717733,52.0467236648719 0.783083718680483,52.0468106191129 0.783228395173119,52.0468629430313 0.784068436254728,52.0471884254981 0.784328142826903,52.0471894784898 0.784697608587507,52.047174449027 0.785910559233661,52.0470702378863 0.786327106330897,52.0470388042545 0.786574002415309,52.0470446511934 0.787239476503851,52.0470729580243 0.787271528972197,52.047073997197 0.787928170349246,52.047078234101 0.788379525717306,52.0470882266223 0.788836867978563,52.0471016730128 0.789764833884573,52.047152519148 0.791504865145648,52.0472237627623 0.792222434488176,52.0472696874329 0.792771418814504,52.0472773482962 0.792822501736462,52.0472788339993 0.793479103747381,52.0473055182222 0.794232541395201,52.0473191117407 0.794875398258112,52.0473587006591 0.795366624752209,52.0473542344733 0.795553777050399,52.0473623791569 0.79573245224859,52.0473734219278 0.795935855209175,52.0474549958157 0.796113331772125,52.0474930387504 0.796590706923829,52.0474304550464 0.797494365989837,52.047373029088 0.797887876381368,52.0473213330877 0.798403378840269,52.0472839099565 0.798678571548816,52.0472306177293 0.798956915010087,52.0471565712927 0.799296555375086,52.0470819655891 0.799546129603451,52.0470382710397 0.799709087675179,52.0470325982806 0.799806872472801,52.0471039992342 0.799978480720946,52.0473751300035 0.800104473861117,52.0474764288169 0.800254692424289,52.0475708578273 0.800431795158468,52.0476971038678 0.801355672652639,52.0481031870599 0.801356065804309,52.0481094713366 0.80130803450208,52.0481798438059 0.801146850051788,52.0482619884786 0.80106693431765,52.0483609908973 0.801041207003622,52.0484380257134 0.800992342095995,52.0486604542245 0.800968654438646,52.0487239539039 0.800872446963629,52.0489124428303 0.800832535849783,52.0490203837203 0.800778487912577,52.0491349544337 0.800763338664361,52.0491965431367 0.800738462507259,52.0495217952561 0.800699561780336,52.0495766659001 0.800656336657395,52.049631639371 0.800499981937133,52.0497891917389 0.800222085177372,52.0499648284093 0.799919639301385,52.0501672118432 0.799557785847712,52.0504447324268 0.799520957465445,52.0506020491938 0.799601910292431,52.0507080148589 0.799637554869212,52.050741423598 0.799731305494466,52.0508174155035 0.799927669152504,52.0509476103759 0.79996486126235,52.0509826891853 0.799996169103965,52.0510179087853 0.800081459727188,52.0511912930217 0.800116950238352,52.0512452940191 0.800198342723813,52.0513332673039 0.800386708302256,52.0514547507757 0.80044259635065,52.0514848899354 0.800605944991831,52.0515313545023 0.801100192376821,52.0516436737281 0.801467974314699,52.0517626866518 0.802106829541955,52.0519255071732 0.802200045519529,52.0518756373256 0.80247659039248,52.0516802479763 0.803099226257739,52.0512804399828 0.803407081077501,52.0511184684077 0.803704656178288,52.0510016954958 0.803944539999124,52.0508951962555 0.804565961886195,52.0505224713999 0.80461185497585,52.0504179832139 0.804605529480677,52.0502939690868 0.804580418635619,52.0502406215583 0.804408266531936,52.0499614187564 0.804390559474182,52.04981888469 0.804393387300507,52.0497468902597 0.804401860360924,52.0496728736666 0.80454696143576,52.0493339670926 0.804680135103387,52.0491329957711 0.804718590675814,52.0489539704648 0.804722467537002,52.0486894556169 0.804764104923454,52.0485401139065 0.804873501218125,52.0484242229898 0.805082397546276,52.0482878904747 0.805187019312205,52.0482359486634 0.805297637281527,52.0481856617144 0.805624240971328,52.0480681022435 0.806389675002039,52.0477585588651 0.806433183868661,52.0478483300559 0.806448628929322,52.0481177789118 0.806420405848893,52.0486211329271 0.806794104438492,52.0486275111995 0.807224139558153,52.048600178737 0.80808213579328,52.0485815207645 0.808009408313653,52.0491669443659 0.808022347921353,52.049348341889 0.808092503188119,52.049513900117 0.808132008873793,52.0495857846006 0.808225670140892,52.0497310919214 0.808391698053861,52.0499582885182 0.808654615563407,52.0499412297693 0.808889972864782,52.0498797830418 0.808966017621609,52.0501621713068 0.808967873300583,52.0502377406293 0.808992723068914,52.0502389466023 0.809021849042201,52.0502373525273 0.809138846166784,52.0501967100209 0.809223567008865,52.050151532975 0.809255000848097,52.0501867462682 0.809309864806279,52.0501314919005 0.809503866915518,52.0500396522153 0.809716473177216,52.0499644505538 0.809767700849831,52.0501061842158 0.809896207747937,52.0503639443679 0.810006981790802,52.0506419077815 0.810175445051847,52.0509077050366 0.810368547031598,52.0508014994484 0.810504394345001,52.0508504044283 0.811136728451936,52.0507462126654 0.811223816606227,52.0509015647374 0.811303909682621,52.0511083313035 0.811401443372003,52.0512921150141 0.811486192834239,52.0513871935393 0.811780173606157,52.0516769652526 0.812091556658765,52.0520599150118 0.812303682602441,52.052371420262 0.812672401354835,52.052621552369 0.812872945154388,52.052725643103 0.813082907851705,52.0527709771155 0.813308543514226,52.0527862659445 0.813326419664775,52.0529999126471 0.813341176158583,52.0530031566282 0.813582165290029,52.0530081880302 0.813691508804859,52.0530064750206 0.813934620505637,52.0529763911831 0.814276282979258,52.0529106849283 0.814692241791595,52.0528673881775 0.81470139595651,52.0528752608312 0.814756249970514,52.0529576548805 0.814751657135525,52.0530701517783 0.81477886471418,52.0532025664451 0.814931132122404,52.0535353671028 0.815111881389731,52.0536955807219 0.815231045203783,52.0538978152095 0.815373233827065,52.0540014080794 0.815429778657079,52.0541106438403 0.815443482960183,52.0542138015899 0.815527930821755,52.054372720283 0.815327535183959,52.0543649237106 0.814605257792447,52.0542922790447 0.813753897450501,52.0542326033161 0.8136168975885,52.0545119872092 0.814825107193676,52.0545865113035 0.815301871633412,52.0546281623299 0.815662667597742,52.0547058491972 0.815898207214116,52.0547866207728 0.816152915721128,52.0548470623992 0.816414018834807,52.0548695895931 0.817017383237029,52.054860554045 0.817556223947011,52.0548449658572 0.817787382223774,52.0548331416888 0.818246313492711,52.0547996837515 0.818485024194143,52.0547912730756 0.818722460893184,52.0547855904548 0.819073485949488,52.0547996658618 0.819429485886489,52.0548468880612 0.81966349888746,52.0549033226369 0.820047273908644,52.0550668491854 0.820393779711122,52.0552401679095 0.82029921881234,52.0552685063912 0.819122086220469,52.0558731872236 0.818763903172163,52.0559996320509 0.818570854467122,52.0560150409724 0.81839884568323,52.0559939828932 0.818152628443394,52.0559080774466 0.818024507345042,52.0558886666702 0.817662960948611,52.0558451693571 0.817080767339311,52.0557970597937 0.816817115020157,52.0557341359916 0.81655187620835,52.055645985039 0.816268684799336,52.0555745365187 0.815560928927683,52.055453898299 0.814931740162443,52.0554005181008 0.814726113544721,52.0553784595086 0.814319666915986,52.0553189428616 0.81389642154613,52.0553155696062 0.813361739555571,52.0552806924891 0.812782740767268,52.0553062103944 0.812499432127217,52.0553246643981 0.812357307171596,52.0553388478972 0.812111856056034,52.0553797736772 0.81211089073272,52.0554103655674 0.8121250537461,52.0554730536964 0.812141728413454,52.055506820872 0.812184762481278,52.0555408579754 0.812236501186252,52.0555755856559 0.812305661074792,52.0556080995108 0.812848922021904,52.0558253829025 0.813000517762077,52.05596381863 0.81317472054043,52.056111694229 0.812797794166397,52.0563823319063 0.812554079804601,52.0565428861204 0.812453782779741,52.0566657597601 0.812593104366009,52.0567236602237 0.812875344919516,52.0568967378599 0.813420906343663,52.0571733036845 0.813736074708071,52.0573591683582 0.814102421269047,52.0575248393991 0.814198425069437,52.0574982693087 0.814662504709721,52.0577776758295 0.81492233913893,52.0578964391902 0.815301025585055,52.058118544316 0.81597711555305,52.0584980707729 0.816007002348162,52.0585792634311 0.815951480216541,52.0586489216616 0.815857084007538,52.0587240051532 0.81557204857731,52.0589008379897 0.815784160421807,52.059002758889 0.816035973412747,52.0590875463616 0.816295774957242,52.0591119029746 0.81693932125218,52.0592530440335 0.817323270073477,52.0593023006906 0.817629017685887,52.0593857954925 0.817915209375261,52.0594815343936 0.818022189231697,52.0593961680096 0.818223256398625,52.059207942618 0.818444431954442,52.0590353286106 0.818743740794369,52.0586918151166 0.819294476774376,52.0581462801693 0.819561899790953,52.0579689613878 0.819933655738912,52.0581264825833 0.820570633086894,52.0583485890605 0.821057487559847,52.0584808727526 0.821617638461927,52.0586652550823 0.822350980396399,52.0587250948907 0.822228031611136,52.0589042634279 0.822509182085055,52.0589676544737 0.823073732219595,52.0591052609987 0.822780959558451,52.0594126660039 0.822926061604105,52.0594703259792 0.823192625715385,52.0595331665994 0.823508212733292,52.0596084079559 0.823879108828256,52.0597289851412 0.823948900804175,52.0597255130144 0.824011140076584,52.0597186263428 0.82407906281748,52.0596855293846 0.82417860355274,52.0595968291067 0.824355602099434,52.059397392253 0.82492364498199,52.0595672729736 0.825309229329168,52.0597108701969 0.825406412591859,52.0596096380969 0.82559842324756,52.0593927560074 0.825692156952437,52.0592826156039 0.825835579378509,52.0590830817608 0.825930299213501,52.0589657253801 0.826132941503785,52.0587306047875 0.826239650988827,52.0586183548317 0.826733723697157,52.0587503520568 0.826889181616003,52.0587852820044 0.827044463600122,52.05881931663 0.827452802474262,52.0588851279463 0.827660970512245,52.0589241857663 0.827865040674419,52.0589669381221 0.828226516228025,52.0590544608594 0.828513290318115,52.0587669672381 0.828620196855368,52.0586807834137 0.828689329773005,52.0586440582 0.828915176464468,52.058546027401 0.82925193292298,52.0584955902516 0.8295649089817,52.05846289658 0.829968871816942,52.058459484069 0.830078660436867,52.0586034886849 0.830413470098545,52.0588913338141 0.83055982178252,52.0591531396816 0.830649738891502,52.0592130158738 0.830815495193278,52.0592737671973 0.831323205495907,52.0594118012541 0.83144596776651,52.0594394189071 0.831711243899502,52.0594797937984 0.831938870568896,52.0595030917647 0.83218808198105,52.0595690265431 0.832445870075854,52.0596545348841 0.832647015168355,52.0596965399518 0.833035228369075,52.0597672220286 0.833222246581195,52.0597950899668 0.833619137497839,52.0598412860569 0.83395222971193,52.0598944094167 0.834311018731583,52.0599847662795 0.834758127140144,52.060111566826 0.835462272543449,52.0602871119587 0.835573052917598,52.0603761527172 0.835633290953909,52.0604763004675 0.835673321589536,52.0607397607344 0.835649888054008,52.0608977566304 0.835625592350967,52.0609756634378 0.835510337417944,52.0612527525758 0.835529685041769,52.0614195186848 0.835731619173911,52.0617510074729 0.835856936551833,52.061909917625 0.836024017703106,52.062059639682 0.836199931538513,52.0621418070815 0.836267640881016,52.062150965167 0.836402091025432,52.062154020948 0.836545491899267,52.0621388793465 0.836624934079798,52.0621243786742 0.836837543957973,52.0620490381245 0.837104146538771,52.0619733858514 0.837637896741155,52.0619236644352 0.837927115445149,52.0619751366204 0.838341013104449,52.0620595676901 0.838375984558913,52.0620362473581 0.838841694324289,52.0621788581595 0.8390104764596,52.0622395251934 0.839174984989465,52.0623029912719 0.839499097357341,52.0624436185352 0.839762420748891,52.0625002064389 0.839990066459002,52.0625234885437 0.840153421439992,52.0625914769582 0.840287975338256,52.0626890208679 0.840483249111825,52.0628011941548 0.841054852865235,52.0630482348515 0.840739490894128,52.0632275687502 0.840504549200991,52.0633888692265 0.840198058616291,52.0635715841783 0.839939433588617,52.0637730144509 0.839436950345897,52.0640864165018 0.839628355952935,52.0644352359143 0.83973154746983,52.0645901796733 0.839861969964845,52.0647362853438 0.840063768759423,52.0648582812638 0.840061324776788,52.0648880107536 0.840054549612435,52.06491964249 0.839839943437332,52.0651702704159 0.83972417168612,52.065323300511 0.839793759553422,52.0653638796834 0.839660209319435,52.0655344215721 0.839526681902544,52.0656617164639 0.8393534259477,52.0658511968902 0.838861846592844,52.0662686285062 0.839257494960578,52.0663624873926 0.83922704338774,52.0666429300514 0.83919708631941,52.067251619804 0.839199607958623,52.067636461513 0.839189764625316,52.0680558557499 0.839182230268348,52.0683959848628 0.83912978648912,52.0687659676358 0.839085148972505,52.068820989372 0.839038552040668,52.0688697637623 0.838928589393891,52.0689533333444 0.838706804621094,52.0690684580784 0.838521944869857,52.0691682165625 0.838125813058368,52.069433195167 0.83778261364569,52.0692921254561 0.837630834027629,52.0692229554988 0.837563253714858,52.0691913166395 0.83726293930806,52.0690358155484 0.837044502466208,52.0692038129133 0.836926807668239,52.0692812731677 0.836854933288732,52.069345131437 0.836714690784978,52.069480675877 0.836500011669537,52.0697080116528 0.836335662489516,52.0698315488459 0.836498736407388,52.0699175307393 0.836624976705254,52.0699748198556 0.83696757794933,52.070131102778 0.837688135183476,52.0703332136705 0.837385844052824,52.0706058180026 0.837095633543608,52.0708393802209 0.837245205326252,52.070941960985 0.83747131412042,52.071056093622 0.837568170900502,52.0711337790872 0.83765146237106,52.0712271665813 0.837887779703518,52.0716387419792 0.837895082070604,52.0718013016927 0.837872294821334,52.072016824234 0.837801960792768,52.0722415837598 0.837763445050872,52.0724178346473 0.837708467202752,52.0727708842737 0.837527740477294,52.0735792068473 0.837441849002031,52.0736289280177 0.837240310469084,52.0737183873429 0.837165331645231,52.0737561565922 0.836616500448858,52.0740769553804 0.836384087189792,52.0742318010952 0.835937784138847,52.0744674108593 0.835842554541374,52.0745065661544 0.83547866499065,52.0746376029269 0.834981199892416,52.0748483666125 0.834621688445868,52.0749801937568 0.833988927050194,52.0752436588238 0.834038883288751,52.0747424726317 0.833971332937145,52.0745974553839 0.83388311699711,52.0744719070671 0.833718264634354,52.0741034687606 0.833663607084978,52.0740004897333 0.833609172867789,52.073902898707 0.833488635032995,52.073726789203 0.833344484312809,52.0735711178045 0.833208660792615,52.0734538163326 0.833139932743749,52.0734060196349 0.832921051379196,52.073269227436 0.832507526740896,52.0730534105594 0.832118223294865,52.0728513949714 0.831732340319228,52.0730037185886 0.831050864725382,52.073234982091 0.830474548385192,52.0734224470938 0.829828030648989,52.073652954115 0.829310617717316,52.0738263200466 0.828904558155325,52.0735437783029 0.828447902883344,52.0732678453437 0.827710294165499,52.0728664883791 0.827391167539277,52.072666369048 0.82671780954214,52.0731196682279 0.82651421605814,52.0732702068617 0.82628211802962,52.0734305088857 0.825951843877806,52.0736767826951 0.825377364916402,52.0740556835853 0.825146694515291,52.07421585998 0.825036572188029,52.074299419018 0.8248489360294,52.0744703405374 0.82478232726552,52.0745474614999 0.824664926531661,52.074698716807 0.824518466876195,52.0749234052906 0.824449412525747,52.0749160703342 0.824304049606572,52.0752019597789 0.824258519647239,52.0753137286887 0.825112658603309,52.0755270100086 0.824571787130402,52.0760211728722 0.824856623102787,52.0761411142131 0.825662661760053,52.0764689191317 0.826250153337295,52.0767354306517 0.826750255947512,52.0769824575284 0.827073930194229,52.0771150381435 0.82710547879627,52.0771286660144 0.8278860830617,52.0773562794876 0.828527090345878,52.0775666503388 0.828459105634431,52.0776923565672 0.828983798171324,52.0779567661835 0.829111399057426,52.0781057379492 0.829412979542993,52.0784195593567 0.829576288821732,52.0783473052185 0.829828064357355,52.0781973131092 0.829981996425571,52.0780929170768 0.830192024995287,52.0779754851563 0.830651771463041,52.077744071412 0.830744773328184,52.077692386851 0.830905208687971,52.0775976334576 0.830972244276559,52.0775501683242 0.831109621911367,52.0774371778285 0.8311935113326,52.0773803176234 0.831371963202966,52.0772698461385 0.831621354073322,52.0771298864962 0.831765876659386,52.0770841555204 0.831816431616569,52.0770748478346 0.832260634946207,52.0770371957527 0.832560475221577,52.0770003155236 0.832840855762138,52.0769791878262 0.833362696305549,52.0769684345308 0.83386110024412,52.0774177680079 0.834124255022056,52.0776318039106 0.834355853819726,52.0778321235571 0.834506992833811,52.0780065962707 0.835124713733749,52.0786329616965 0.835206740830648,52.0787289884483 0.835332941757442,52.0789238406549 0.835079030347656,52.0790171635622 0.834793117444329,52.0790878801915 0.834448998248182,52.0792086370188 0.834108590230048,52.0792968460747 0.833504269764396,52.0795029801495 0.833234655129251,52.0796011725327 0.832750451572815,52.0797467824687 0.832599868900449,52.0797881653203 0.83240758622635,52.0794960889352 0.832197311642366,52.0791251458312 0.831970304315523,52.0786989503795 0.831519929068256,52.0787781077043 0.831282553886888,52.0788323645354 0.831046902160202,52.0788910743945 0.830598611619617,52.0790260111588 0.83009647179951,52.0791639486795 0.830122351266712,52.0794340427639 0.83018434299649,52.0797689026182 0.830255782175461,52.0800666730459 0.830278842137945,52.0803853851328 0.83011958150053,52.0805673215774 0.829738688585391,52.0810297017966 0.829014652925875,52.0818133849631 0.828617828075057,52.0822563645062 0.828365553000755,52.0821895963504 0.8275903869114,52.0819123150692 0.827252272197591,52.0817594034416 0.827080434193843,52.0816969947775 0.826140105605007,52.0813921996114 0.825806146957773,52.0813049083556 0.825495327443254,52.0812142732004 0.825192218131025,52.0811523132048 0.824994447283014,52.0811174966425 0.824592085696612,52.0810561165621 0.824389106497391,52.0810322124162 0.82416788572777,52.0810186353423 0.82308454191741,52.0809680907759 0.822626930963116,52.0809332024997 0.821885689493081,52.0813088874049 0.821490511408476,52.0815234349702 0.821363287637341,52.0816109961059 0.821188985548865,52.0817878850165 0.821240372293045,52.0818145259354 0.821514907978504,52.0819329245086 0.821609022284763,52.0819900998639 0.821528643529772,52.0820819333831 0.821433477217349,52.0822388557856 0.821324134841526,52.0823332714625 0.821122860927114,52.0824280000011 0.820890267694339,52.0825585426654 0.820801252037684,52.0825363990946 0.820405968370018,52.0826808163029 0.820124364080777,52.0827747691642 0.820163439031163,52.0828160911886 0.820278996014366,52.0828888480265 0.820927726180727,52.0832457164524 0.820879092652217,52.0832837442117 0.821331000601826,52.0835292513442 0.820831461229409,52.0838946441566 0.821549697370647,52.0841949111377 0.821983727817024,52.0843877089374 0.82250310394141,52.0845920360046 0.822839348988795,52.0847152458288 0.823018903596842,52.0848539874288 0.822903412989239,52.0849196909548 0.822761438484636,52.0850291857383 0.822653616912666,52.085101987233 0.822317456491462,52.0853042435628 0.822121587936804,52.0854618709613 0.822030113882827,52.0855153094985 0.821934082067029,52.0855670602499 0.821658546437681,52.0856887426928 0.821382929696602,52.0857862412819 0.821287061473234,52.0857471791128 0.820722778122095,52.0853882905787 0.820172327142275,52.0850615246784 0.819803275783897,52.0852062108136 0.819685228327999,52.0852791652534 0.819399512246664,52.0854704055498 0.818979018004756,52.085723221391 0.818706557379965,52.0857315384723 0.818444821140267,52.0857476906326 0.817651092857748,52.0858252072596 0.816355592663486,52.0859299103453 0.815912928380226,52.0859476839983 0.8150677461285,52.0860874611645 0.814846663941626,52.0861242117448 0.8143429846029,52.0861937869863 0.814215482476068,52.0862085206815 0.814080056882165,52.0861910771131 0.81396450073499,52.0861183142625 0.813879138429728,52.0860376371847 0.813775641820424,52.0858772852537 0.813588743709446,52.0856443913279 0.812967255717313,52.0849549801249 0.812974737179787,52.0848424162069 0.813017622183085,52.0847110245901 0.812969322494476,52.084662638577 0.812664871147116,52.0843938892024 0.812486480833967,52.084273084896 0.812183972664662,52.0840140880389 0.81167317573925,52.0835280982558 0.811388503517186,52.0837362871136 0.811245210959705,52.0838252088177 0.81067052334915,52.0841357092715 0.810185362821018,52.0843828432568 0.809627993922612,52.0846416773226 0.809315168758841,52.0847966771312 0.80914738102205,52.0848923848587 0.808581863273323,52.0852305267404 0.808287666731507,52.0853813941306 0.807753060167936,52.0856082076671 0.8074731513995,52.085731759433 0.806931138305795,52.0860037009745 0.806550516345056,52.0862888773209 0.806466121392692,52.0863403371358 0.806384448731223,52.0863872371381 0.806222666580637,52.0864388323809 0.806146030283634,52.0864739235257 0.806071238281304,52.0865134664908 0.806007160415258,52.0865626442562 0.805892556620657,52.0866678689296 0.805841918032725,52.0867221207536 0.805790283178176,52.0868295328763 0.805869378431674,52.0870426191862 0.805967055521591,52.0872506780323 0.806011052272622,52.0873935730517 0.806026003076883,52.087468739909 0.806007206830201,52.0876103434761 0.805889785301272,52.0879027347598 0.805788127545484,52.088074273131 0.805494961866522,52.0884050143952 0.805379311854769,52.0885147592079 0.805293675367776,52.0886174956502 0.805169910199259,52.0887149362599 0.804824778330471,52.088938933907 0.80461268733154,52.0890483658523 0.804557920486476,52.0890829361787 0.804541505455788,52.0890995105568 0.804526311992363,52.0891834865184 0.804505810052577,52.0892289289451 0.804444493682486,52.0893221841295 0.804405226586064,52.0893716696873 0.804246061900583,52.0895112199118 0.804032830741442,52.0897195773423 0.80379368504812,52.0900022762265 0.803505402209899,52.0902942352353 0.803591768100814,52.0903910794323 0.803804189207887,52.0905650314011 0.804067516741931,52.0908078092134 0.804270760476564,52.0910215389194 0.804654787669014,52.0909278838227 0.804839970979648,52.0912508310746 0.804885812257993,52.0913540324658 0.804925656876761,52.0914537810511 0.804953679976061,52.0915512038907 0.804997064354759,52.0917533631585 0.805015209330779,52.0918564163025 0.805028145196981,52.0920395204302 0.804937301590268,52.0922665441361 0.804789153271488,52.0922556853448 0.804534154329823,52.0922168014272 0.803756281031486,52.0920599052275 0.803694281418867,52.0923284978139 0.803682286922963,52.0925095890278 0.803653424404377,52.0925848994129 0.80361568257115,52.0926568246328 0.803525138338784,52.0927966293504 0.803399968281122,52.0930369648963 0.803281153698208,52.0930965240934 0.803404328226951,52.093687976046 0.803819912555012,52.0936556094176 0.804064587667731,52.093621914908 0.804353346641866,52.0935943625859 0.804553319589454,52.0936156761255 0.80461020769796,52.0937088154519 0.804629976699845,52.0937667847878 0.804655103123234,52.0938659853807 0.804690786857946,52.0940144729266 0.804783393814043,52.0941875890381 0.804921848594269,52.0942759993361 0.805474077451538,52.0943510508141 0.805950340929566,52.0944260212386 0.805957005480907,52.0947181539942 0.805973450986328,52.0947231565588 0.806153099613475,52.0947485470415 0.806575400675872,52.0948230015645 0.806762607607042,52.0948518084303 0.807120685489779,52.0948793300937 0.807324516985006,52.0948699785148 0.80782016169484,52.0948356002188 0.808482638750692,52.0947586721773 0.808884491340187,52.0947643774311 0.808896825753203,52.0948208155048 0.808904381002675,52.0949869655363 0.808915857418235,52.0950757004607 0.808999425835995,52.095453300394 0.809030261100923,52.0956431712389 0.80903936204138,52.0957400550411 0.809011820110244,52.0959071317741 0.809010160637287,52.0963442152438 0.808991073372515,52.0965749254909 0.809068796155545,52.0968824460845 0.809092442630516,52.0969789830726 0.809249624879159,52.0970643347244 0.809779099309198,52.097379963328 0.81018798345614,52.0976138632669 0.810549449576305,52.0978345970645 0.811013252738381,52.098105034632 0.811234603934491,52.0982571827375 0.811327286843536,52.0983601643234 0.811544657252471,52.0988910099657 0.811562813636841,52.0989939710838 0.811599149414769,52.0992710107394 0.811619197244277,52.0997273554778 0.811623655451524,52.1000546050896 0.811672943527276,52.1005355171421 0.811701350700194,52.1006157563966 0.811810668400831,52.1008452005376 0.811880164414342,52.1010215599378 0.812123741377122,52.1009698938715 0.812235283925642,52.1010949908554 0.811886263675664,52.1012103115958 0.811846712441931,52.1012553105169 0.811906005447966,52.1013384090929 0.811880110286375,52.1013669884413 0.811846472916192,52.1013911677185 0.811724141127804,52.1013949864132 0.811450796916899,52.1015534533494 0.811334578223903,52.1015166671993 0.811274593413844,52.1015162997662 0.811077132096721,52.1015335981506 0.81093834979382,52.1015324142663 0.810763608429997,52.1015644543559 0.81068764004783,52.1015626701395 0.810442029309491,52.1015361616875 0.810390446290798,52.1015985300311 0.810313393123286,52.1018360171645 0.810294109481852,52.1018778350034 0.810126613909869,52.1019312791387 0.809995576490078,52.1019613763772 0.809787605188228,52.1020202811096 0.809626843902029,52.1020889390206 0.809557718710638,52.1021040729228 0.809342443830532,52.1021406738391 0.809108443380809,52.1021111895348 0.808941910701093,52.1021340404853 0.808919419893613,52.1021957136918 0.808968986298081,52.1022161098629 0.809011581126162,52.1022213879615 0.809163476968317,52.1022204637141 0.809258775493399,52.1022730359555 0.809268818246253,52.10231595217 0.809138725260885,52.1024549052326 0.808944171452077,52.1026123869907 0.808864518705455,52.1025999009497 0.808819019719517,52.1025254627529 0.808817292911673,52.1023581847 0.808802939846633,52.1023405454857 0.80878310418571,52.1023257340825 0.8085824947984,52.1023179289946 0.808584977951489,52.1023574290023 0.808604014117882,52.1024514687245 0.808575976934655,52.1025168705186 0.808552789774093,52.1025425975007 0.808523606830472,52.1025648718401 0.80844765373739,52.1025882600748 0.808285133270108,52.102628995808 0.808205787793103,52.1026443733919 0.808113939691361,52.1026007087568 0.808119920162409,52.1025789884027 0.808134500011538,52.102556163762 0.808169638881568,52.1025328491336 0.808340145514936,52.1024352810827 0.80835196115949,52.1023665795978 0.808304177025621,52.1023515349204 0.808247219956943,52.1023744702687 0.808136706373109,52.102428442015 0.808086204452849,52.1024602141225 0.807982979770542,52.1025381970104 0.807877471519449,52.1026009499693 0.807652803367198,52.1026989095065 0.80756454021539,52.1027352675666 0.807130481426806,52.1028696822005 0.806869445940211,52.102967607288 0.806479238946016,52.1031963675874 0.806384235690172,52.1033343917386 0.806352434833859,52.1034089632103 0.806328012755817,52.1034859670086 0.806333213723451,52.1036377880491 0.8064053086663,52.103646859374 0.806628369972976,52.103663124114 0.806919989183257,52.1036570767694 0.807275084553315,52.1036360299058 0.807740178204231,52.1036466157239 0.807765785682913,52.1038222254091 0.80787058655782,52.1042118169181 0.807900551717406,52.104293908486 0.807981475658559,52.104466401215 0.808121679472132,52.1048137918527 0.808200014782521,52.1050619588738 0.808493589819006,52.105433565104 0.808590773257844,52.1056309340896 0.808620509359579,52.1057093445571 0.808664333021891,52.1058720226428 0.808715776112742,52.1059930712979 0.80887662956607,52.1061133095968 0.809046143582089,52.1061146636694 0.809209553540919,52.1060649142445 0.809507557019265,52.1059265435077 0.809663198015788,52.1058949609474 0.8097470482316,52.1059262271235 0.809761904491834,52.1059537451538 0.809856276963192,52.1062231065572 0.810012390596004,52.1064766105914 0.810114319030514,52.1067511867343 0.810511232439856,52.1068603986693 0.810694320299041,52.1069396465848 0.810896075554954,52.1070112550994 0.811102140327969,52.1070594747925 0.811344889330335,52.1070878491366 0.811614641794057,52.1071281648888 0.812351222143087,52.107204090996 0.813486317740414,52.1072786799272 0.813650027339947,52.1073044400677 0.813983311867631,52.1073782976776 0.813790737146631,52.1076590043295 0.813712307639098,52.1077597765793 0.813624709855737,52.1078985282353 0.813459466700476,52.1083360108976 0.813262366246093,52.108755283215 0.81316629024509,52.1090157033303 0.81313867752637,52.1092484152583 0.813142818675713,52.1094766836001 0.813086994507942,52.1097280503771 0.813076942806894,52.1098686365904 0.813102718796886,52.1099777090361 0.81323557287218,52.1102533429793 0.81338221244455,52.1104017860801 0.813209594307147,52.1104680344975 0.812967928849942,52.110434243696 0.81254204256106,52.1103283384116 0.81213226518004,52.110269788533 0.81193510845848,52.1102466221209 0.811800945937613,52.1104359326056 0.811598176337724,52.1107636314469 0.811282197274908,52.1114529430434 0.811214775756591,52.1115642392496 0.811145506395939,52.111671083705 0.810992566819545,52.1118645283714 0.81083890348674,52.111952707333 0.810828024551633,52.1120114066867 0.810859386837614,52.1120925648538 0.810924604123727,52.1122006968713 0.810964309776562,52.1123436032576 0.810974502088689,52.1124117799266 0.810975790391516,52.112480079062 0.8109523908657,52.1126172978752 0.810898528915442,52.1126914973877 0.810809277949292,52.1127583606395 0.810580583937605,52.1128600166838 0.810504840543769,52.112886997471 0.810429919557603,52.1129040685812 0.810119000629881,52.1129546400102 0.80975335954754,52.1130389706954 0.809303584653978,52.1131566847865 0.809871535882039,52.113849101464 0.810286984229019,52.1142997027655 0.811746351877955,52.1139761959226 0.812860871463236,52.1143695576347 0.813362614567373,52.1145662569062 0.813708882524686,52.1147306129325 0.813910621973039,52.114801318604 0.814171338025762,52.1149057697534 0.8143888475964,52.1149725015616 0.814645824771348,52.1150634645699 0.814799290678435,52.1151345123506 0.814904110192474,52.115175164195 0.815068161613714,52.1152287867551 0.815237596623717,52.1152741882002 0.815396130947187,52.1153090613804 0.815434721432784,52.1155276048887 0.815475059687547,52.1156821825616 0.815497152417051,52.1157995237761 0.815516793262791,52.1159734766523 0.815586365358638,52.1163108576667 0.815717183321798,52.1163473810482 0.815769789969877,52.1163946748062 0.816803596568648,52.1171739257592 0.81736613235993,52.1175697398264 0.816685214302865,52.1177298700994 0.815636521057289,52.1187280063836 0.815335616180238,52.119054458732 0.815208842452595,52.1191509924149 0.815155497712956,52.1191856223209 0.814992810434791,52.1192704256637 0.814563226326436,52.1194551082914 0.812947870978436,52.1201808430693 0.813032785777415,52.1203451459061 0.813064720764593,52.1203893378886 0.813180824182198,52.1205152247218 0.813333648800951,52.120644640694 0.813005399705269,52.1207459803056 0.812430167132032,52.1208676881661 0.812271977946566,52.1209074267209 0.812152101232642,52.1209300672895 0.811795507627753,52.120975437783 0.811597647559619,52.1210107267938 0.811381208681058,52.1210302760119 0.811213814793973,52.1210405626933 0.810682562722606,52.1210037839454 0.809802302338493,52.1208745384825 0.808153926283564,52.1206827648103 0.80794874198271,52.1206265160439 0.807848417088194,52.1205865602628 0.807825211333716,52.1206600276731 0.807806682913649,52.1206910384284 0.807776770733717,52.1207268152755 0.807617683178855,52.1208672648124 0.807331721477253,52.1210360014738 0.807128391341828,52.121172109983 0.806991648656259,52.1212752543584 0.806862463269745,52.1213817250812 0.8067561099257,52.1214777619005 0.806545571813499,52.1216851586153 0.806497523073826,52.1217582289523 0.806443837300877,52.1218566076857 0.806410097620852,52.1219465100368 0.806445974715854,52.1221704246735 0.806498919919118,52.1223841336968 0.806515431656747,52.1225069143006 0.806492269991915,52.1226271322554 0.806388698612454,52.1229093016016 0.806376650638754,52.1229725239393 0.806373546124236,52.1230400290869 0.806389549933138,52.1231547295771 0.806461921397079,52.1233535902618 0.80649459246408,52.1234076564015 0.806511232293909,52.1234864690656 0.806473307858076,52.1236267285749 0.80645813105762,52.1237340802307 0.806278915893502,52.1241601949765 0.805913229006182,52.1248281049259 0.805882377456871,52.1248719957839 0.805823479380755,52.1249354340612 0.805553368365581,52.1251460445917 0.805472091166626,52.1252252995839 0.805437302117933,52.1252755766811 0.805406246465801,52.1253392513161 0.805384985011133,52.1254207649319 0.805387334889027,52.1255501752691 0.805376540912869,52.1256583216119 0.805391414688574,52.1258720376695 0.805383548917645,52.1259558386061 0.805391417481435,52.1259871189828 0.805414403731246,52.1260289187491 0.805465542508971,52.1260969303604 0.805589808849275,52.1262378242961 0.806162283156483,52.1267224631107 0.80647268198199,52.1270568119221 0.806566030037337,52.127171468297 0.80665233585672,52.1272890802344 0.806877908687441,52.1276461263665 0.806870901113765,52.1276975408701 0.806819833834549,52.1278606802047 0.806802520291675,52.1278880653212 0.806757674873496,52.1279412793158 0.806700708462796,52.1279875899622 0.806668386357327,52.1280081386895 0.806319605783924,52.1281558007387 0.806157049639628,52.1282415769434 0.806000818113623,52.1283379008095 0.805926270472896,52.1283594554831 0.805750855905063,52.1283825119533 0.804609810606514,52.128873771401 0.804542479348993,52.1288951534581 0.804375470977456,52.1289350906348 0.804160184371252,52.1293457856446 0.804072804520492,52.1295601357084 0.804035552170221,52.1295942873534 0.803968718658271,52.1296255471764 0.803895048401473,52.1296380890143 0.803744563377393,52.1296380723407 0.803280990487682,52.1303775288984 0.803082271062702,52.1304478872826 0.802980236213362,52.1304980548255 0.802914312176191,52.130541878537 0.802143739930906,52.1309765620965 0.801682416264939,52.1312168822435 0.801425640640796,52.131387515349 0.801214143617084,52.1314636591653 0.801047889211906,52.1314927842207 0.801003554859579,52.1315082225735 0.800932450110483,52.1315386827573 0.800805295454427,52.1316091352067 0.800738297371358,52.1316359012611 0.800713702109459,52.1316625581815 0.800682225315151,52.1317658010678 0.8006207461346,52.1318114064072 0.800565303993945,52.1318360991224 0.800455954201532,52.1318638712636 0.800234051052812,52.1319374725646 0.800127146505451,52.1319561956905 0.800065302018579,52.131972948976 0.799958641990407,52.1320186388693 0.799937533773082,52.1320317273167 0.799818639190234,52.1322108599231 0.799985439415203,52.1321673379972 0.800247503236384,52.1321269477877 0.800364542595203,52.1321295614254 0.800395607800064,52.132136915558 0.800427300968405,52.1321523460441 0.800456064227878,52.1321921208751 0.800589323750938,52.1329641357867 0.801014364002688,52.1334720824341 0.801076793168014,52.1336297346437 0.801100893218291,52.1336643158921 0.801167246633108,52.133719380744 0.801212554069568,52.1337443774479 0.801294833308122,52.1337747890162 0.801436238983846,52.1338622347069 0.801553675793619,52.1339863022506 0.801707936879547,52.1340923226131 0.801864001863174,52.1342270703859 0.801872382242922,52.1342665208672 0.801814930166398,52.1343532985984 0.801784812643774,52.1343630050777 0.801769430190626,52.1343732606418 0.801764379920364,52.1343868661418 0.801780805376511,52.1344143468736 0.801969088386965,52.1345267510877 0.802000571902613,52.1345637637871 0.802003260502981,52.1345835696842 0.801938406170401,52.1347136786993 0.80195700070941,52.1347545942084 0.801989823318505,52.1347879786583 0.802044881994994,52.1348262287071 0.802147636210414,52.1348814169642 0.802368060429338,52.1349472032418 0.802437228053949,52.1349779257414 0.802470818125609,52.1350005034484 0.802498681750639,52.1350259134859 0.802605745749835,52.1351708159381 0.802750433614552,52.1353104187998 0.802795154190123,52.1353471165615 0.802991204335028,52.1354449488472 0.802945401682578,52.1355522183567 0.802900543555035,52.1356054318016 0.80289161329481,52.1356263224564 0.802891859780406,52.1356532893196 0.802909406957353,52.1357005222127 0.802939075316343,52.1357546606258 0.802988267163063,52.1358165159969 0.80322657081025,52.1359807740881 0.803425316960423,52.1360965237026 0.803693104669979,52.136217912758 0.803797964048681,52.1362585739425 0.803981786445138,52.1363477048921 0.80404718869904,52.1363875066671 0.804111766947554,52.1364391056465 0.804169682993552,52.1364997646552 0.804180699599281,52.1365120896189 0.804218928199777,52.1365624267727 0.804270036331925,52.1366547143793 0.804408820013756,52.1371892386741 0.804448708682031,52.137288985977 0.804473366266856,52.1373783971916 0.804538713127433,52.1378372576513 0.804620125720365,52.1381797554299 0.804613550119322,52.1382131781244 0.804596400257251,52.138243255076 0.804546925322539,52.1382939718007 0.804443553363744,52.1384861350471 0.804386253519838,52.1386674030374 0.804459038141837,52.1389876291803 0.804559223892952,52.1396057865624 0.804562372074615,52.1397019121652 0.804572645200009,52.1397484194608 0.804588638447151,52.1397938922358 0.804650549064224,52.1398950032422 0.805283883419398,52.1400183908165 0.805962439170815,52.140163265561 0.806551335662779,52.1402544378956 0.806692048206677,52.1402843540263 0.806696605725762,52.1402878419421 0.806505537096888,52.1404785884544 0.806897807292209,52.1406050092647 0.80713214327886,52.1407055198764 0.807370914693389,52.1408995187223 0.807760875824178,52.1411960067426 0.809157377771708,52.1423211038141 0.80947163564145,52.142551868984 0.809576496742154,52.1425692397104 0.809757682863217,52.1425909939051 0.809875203087438,52.1426007798733 0.809985050875565,52.1426035566634 0.810443754741765,52.1425998140031 0.810547762541389,52.1426036279246 0.810775752779913,52.1426260642611 0.810981472369288,52.1426661121769 0.811047743043349,52.14267352257 0.811148741494523,52.1426774077221 0.812473587564132,52.1425927627915 0.812955559450956,52.1425623827215 0.813317794166199,52.1425348581917 0.813580550490145,52.1425294866929 0.814075007064794,52.1425365651725 0.815163826403098,52.1426022742935 0.817281036964596,52.1426586808906 0.817817825023101,52.1426872977071 0.818279299566592,52.1427275119097 0.81839070361362,52.1428255447972 0.818417061877328,52.1429642715839 0.818408543745303,52.1430373904559 0.818393752480455,52.1430817988278 0.818344911671397,52.1431881579437 0.81827236215786,52.1433122566373 0.818196125846988,52.1434237664277 0.818103652491465,52.1435797190493 0.818019316368289,52.1437023015739 0.817981661815872,52.143777824767 0.817764090221548,52.1444071643254 0.817663635205275,52.1445741856333 0.817478305385129,52.1447656234654 0.817075213633827,52.1450720412741 0.816840277506124,52.145333082847 0.816637777272829,52.145668871169 0.81653132753778,52.145811669896 0.816413068451098,52.1460213722519 0.816127850265622,52.1464139788247 0.815916618474553,52.1467490749308 0.815474309384197,52.1474773707079 0.815401512061918,52.147551934455 0.815324864214041,52.1476113050779 0.815246204690646,52.1476617339743 0.815182475547334,52.147694723476 0.815039660775258,52.1477484820375 0.814772228775051,52.1478196903396 0.814538517332173,52.147867526838 0.814396551220498,52.147888897136 0.814033564449528,52.1479281299855 0.813818210950858,52.1479440592732 0.813804170388415,52.1482546643287 0.812821810758208,52.1482547295902 0.811688186913465,52.1482682850352 0.811731705402984,52.148656635443 0.81175467507072,52.1487208205063 0.811802421368116,52.1488051837834 0.811950883888188,52.1490264106698 0.812093170326789,52.1492892330136 0.812227929364029,52.1494785094805 0.812375426400836,52.1496862734532 0.812480075475987,52.1497917560582 0.812506084306221,52.1498333915366 0.812526319520695,52.1498293133002 0.812664522061275,52.1497729702742 0.812976044216221,52.1496341836757 0.814188118169252,52.1492662179198 0.81452524499552,52.1491646669429 0.814640857630794,52.1491897780812 0.814667123556264,52.1492583796989 0.814830680978205,52.149579130567 0.815136007444544,52.1500853904367 0.815294695632758,52.1500977844369 0.81543665939665,52.1504945719162 0.816118744910391,52.1503676945925 0.816211744528623,52.1504985360329 0.816248505342691,52.1505939476594 0.816298010435,52.1509389959988 0.816274720258575,52.151032155804 0.816200817267238,52.1512515855787 0.816045755506568,52.1515277964631 0.815968246934613,52.1516672048433 0.815313821266441,52.1526262248155 0.815298550822785,52.1526841299909 0.815305149730627,52.1527199345738 0.815324161057891,52.1527671312703 0.815244499814222,52.1527789233449 0.814970525693551,52.1528385998267 0.814703963068466,52.1528782295913 0.81458706640061,52.1529016982684 0.814453160694873,52.152934564271 0.814189090043764,52.1530136909751 0.813847656605054,52.1530703897208 0.813706783991723,52.1530845398305 0.813604103771765,52.1531040727581 0.813480542157739,52.1531384885334 0.81293973826033,52.1532566719401 0.812805463340754,52.1533066274625 0.812729168141928,52.1533489053578 0.812589444979262,52.1534520344321 0.812517835502814,52.1534978867298 0.812417084520755,52.1535461418969 0.812170201212721,52.153689588077 0.812036545077987,52.153749416865 0.811849012909447,52.1538132273871 0.812101869554629,52.1540895932709 0.812230502109616,52.1542043923392 0.812299329137631,52.1542539977305 0.812360093105369,52.1542885105205 0.812499777718484,52.1543472148746 0.812617469285825,52.1543821682813 0.812908268414776,52.1544265672637 0.813106814791521,52.1544685817944 0.813355952189931,52.1545462512398 0.813627754535224,52.1546602407805 0.813833995793593,52.1545681091635 0.813893706014387,52.1546107384475 0.81405280519743,52.1547230108173 0.815370054410539,52.1555782247934 0.815459045515208,52.1555518253083 0.815548716977468,52.1556297903929 0.815690957922014,52.1557288878075 0.815822376389836,52.1557023732832 0.816195567670104,52.1555450241903 0.816378445519997,52.1554552454405 0.816694636624834,52.1552525048082 0.817100826966117,52.1554784459947 0.817740522347396,52.155860637519 0.817647624346373,52.1559186894118 0.817341909422014,52.155917004127 0.817153330198424,52.1558936389954 0.817097243943305,52.1559084653063 0.817051022311152,52.1559401376714 0.816620725202973,52.156420719002 0.816745543897808,52.156497754636 0.816663046205017,52.1565582542974 0.816539761531987,52.1565971623483 0.816455498991411,52.1566297431284 0.816375917464846,52.1566658084318 0.816301009163556,52.1567071571012 0.816184615325276,52.1567845594022 0.816044067289321,52.1568517501611 0.815943885578016,52.1569090752189 0.815821818875253,52.1569902090015 0.815611750165814,52.1569053191587 0.815575077257379,52.1568801216832 0.815543581984392,52.1568681968844 0.815503822566275,52.1568628528078 0.815467227950789,52.1568637266142 0.815439880695262,52.156869773746 0.814966289968274,52.1570582872207 0.814609356484166,52.1568239697523 0.814174528178222,52.1571167445016 0.814483430242372,52.157214652908 0.81480235570051,52.1573338087845 0.814910477480754,52.1574022535807 0.814951009450554,52.1574408445159 0.815001852585464,52.15750526332 0.815088100896121,52.1576435480996 0.815213594743497,52.1579184527059 0.81533955147556,52.1581987411976 0.815589501793642,52.1588465736643 0.8155869523388,52.1588520286505 0.813109916787373,52.1597114912765 0.812522715180756,52.1599287751842 0.811540651808279,52.1602876330558 0.812172388384717,52.1605891281684 0.812320197818628,52.1606827024849 0.812375580415883,52.1607273232952 0.81255894957648,52.1609450174972 0.812588711938948,52.1609982513975 0.812606057935864,52.1610419815735 0.8126415560748,52.1612569090329 0.8126703196279,52.1613191572128 0.812706632028948,52.1613615365748 0.812727068693217,52.1613835248605 0.81281283336627,52.161445312714 0.812906018036324,52.1615329956259 0.813074332901952,52.1616495448913 0.813239152320671,52.1617355186786 0.814289421821636,52.162159180108 0.814728773177362,52.1623079173773 0.81465220341664,52.1625084375445 0.814452269361945,52.1631175571771 0.814240461608663,52.1636073855792 0.814195635327145,52.1639402980709 0.814193248739894,52.1640878017135 0.814205799666124,52.164540807626 0.814188338697209,52.1654926993262 0.814191653445699,52.1655681412895 0.8142411449554,52.1656568667755 0.81426628573282,52.165801105451 0.81427047826786,52.1658675350893 0.81427005201706,52.1659295810627 0.814239151122967,52.1659959497551 0.814230480139724,52.1660438969322 0.814230254484291,52.1660861576349 0.814240141453935,52.1661281779101 0.814287961329546,52.1662133459999 0.814697544767748,52.1670723328742 0.814740318439285,52.1672169590989 0.814780917184979,52.1675811884925 0.814805742667799,52.1676516222387 0.814934784349788,52.1678886805788 0.814977786405758,52.1680368985529 0.814989750500945,52.1681328120514 0.815000580846248,52.1682585119212 0.814992584753913,52.1683171413278 0.814681898552302,52.1689792526993 0.814539530343622,52.1689475870412 0.814386213837965,52.1689296686494 0.814400358151744,52.1689913659977 0.814330873869113,52.1691648342318 0.814065987326711,52.1696261700268 0.813983094128214,52.1697477229475 0.813962112150349,52.169787871781 0.813920914980528,52.1698994392748 0.813871444452042,52.1701110894816 0.813720751733583,52.1704348398904 0.813897419631185,52.1705933543124 0.813969172451507,52.1706410903088 0.814066020924016,52.1706909253993 0.814169470353268,52.170732600777 0.813841252111637,52.1708842816635 0.813685349987264,52.170940146378 0.813348623952821,52.171050672856 0.813024545604898,52.171130417936 0.812470582011329,52.1713225427181 0.812260948242312,52.1713850818693 0.81201100737627,52.1714567627997 0.81170231073224,52.1715261577093 0.810886014124369,52.1716624940903 0.810796987900002,52.171688890257 0.810056847253757,52.1719448682531 0.809840038515893,52.1720084723965 0.809669669105578,52.1720664750069 0.809606383188856,52.1720841658804 0.809490940259735,52.1721085832507 0.809396672405103,52.1721207186511 0.809046188342713,52.1721299664481 0.808890788983159,52.1721480522577 0.808812876076967,52.1721651917552 0.808658068109668,52.1722156295366 0.808531635442723,52.1721115634676 0.808496906964343,52.1720944086729 0.808438817867851,52.1720778110614 0.808403493303157,52.1720741565696 0.808267282796803,52.1720962802897 0.808206103072827,52.1720995357015 0.807971583839698,52.1720907342119 0.80788887689528,52.1721025931442 0.807774758643655,52.1721250896199 0.807684234298739,52.1721507105844 0.807577140220353,52.1721928182844 0.807474638967433,52.1722599901856 0.807431056314418,52.1722879999253 0.8072446345776,52.172324802929 0.807122234828476,52.1723555879245 0.806954127564402,52.1724036429396 0.80670975173891,52.1724949586429 0.806600620042187,52.1725488023241 0.806487139796568,52.1726063457421 0.806217512095537,52.1727602070157 0.806101734361081,52.1728502600925 0.806039003735754,52.1729227778288 0.805902300801075,52.1731670682329 0.80589251586784,52.1731744928505 0.805820064916772,52.1732094821867 0.805696441739368,52.1732438902271 0.805279285151631,52.1732861789268 0.805186966463322,52.173306356587 0.805138539480512,52.1733263886387 0.8050668219368,52.1733730466514 0.804994445124778,52.1734782494915 0.804857111621669,52.1735956962726 0.804818911461295,52.173617282698 0.804731717533124,52.1736499249194 0.804711479078247,52.173652203945 0.804564093112745,52.1735658034938 0.80336747188887,52.173819106719 0.802168746409614,52.174110118989 0.801950102960746,52.1741467806262 0.801781685642595,52.1741670538786 0.801514786688129,52.1742246405626 0.800067316650645,52.1744460188003 0.799973414184349,52.1744410554407 0.799748142481162,52.174393359136 0.799674704704545,52.1743897074579 0.799628149719789,52.1743935105198 0.799576087088618,52.1744037367957 0.799527372954882,52.1744192776465 0.799409429395084,52.1744751214014 0.799367836443106,52.1744868977022 0.799322838517715,52.1744924605122 0.799277388176595,52.1744908422348 0.799198713373001,52.1744729309422 0.798984291071062,52.1744366631564 0.798644455140586,52.1743584179783 0.798547619890174,52.1743777982376 0.798489270219835,52.1743800811938 0.79840103634113,52.1743731843518 0.798252562782236,52.1744998779726 0.7982059054365,52.1745270578592 0.798163028073548,52.1745433589858 0.798056532522718,52.1745702498031 0.797913498222928,52.1746221925801 0.797664334409605,52.1746838445738 0.797588702172722,52.1747144085706 0.797392290122566,52.1748017808473 0.797057207267833,52.1749626572567 0.796993296053762,52.1750396936562 0.796908797052674,52.1751154196316 0.796850577471491,52.1751428731619 0.796731727447995,52.1751843512105 0.79662377928339,52.1752111852226 0.796096483053294,52.1752939040485 0.79606432894987,52.1752946663519 0.796002693185909,52.1752907326006 0.795900711848034,52.1752742700766 0.795467033871664,52.1751478043209 0.794702263954995,52.175384488757 0.793823199195245,52.1755950168067 0.79368536097931,52.1756145549746 0.793612549166722,52.1756189767124 0.79351146800027,52.1756168752937 0.793078522206743,52.1756406153033 0.792185757831363,52.1762642109062 0.791216840756901,52.17641939654 0.789401547534002,52.176747433489 0.789168690028295,52.1768599279791 0.788377675467351,52.1772410406991 0.787153564783887,52.1778311634815 0.78703487421917,52.1778735271242 0.786981472052225,52.1778855771559 0.786919173100123,52.1778942419446 0.786798061037636,52.1778998007167 0.786627947198977,52.1779164068531 0.786440459103882,52.1779136446773 0.7862901320583,52.1778956180441 0.786045250819907,52.1778159935488 0.785475875666027,52.1777395360666 0.785069469227218,52.1777212629961 0.784763301904229,52.1776915414777 0.784049160873208,52.1775933216404 0.783946126166142,52.1775831678898 0.783688385174553,52.1775775630394 0.783539508815455,52.1775846730648 0.783320110726427,52.1776078316186 0.783051239775092,52.1776132779476 0.782768577828345,52.1776064614094 0.782502541464646,52.1776109402955 0.782234351862454,52.1776253581845 0.78054532479631,52.17705005854 0.779948434248189,52.1768608527929 0.779853240604733,52.1768352260276 0.779713648963784,52.1768016551979 0.779667638309977,52.1767910521716 0.779526994122444,52.1767637983974 0.778451914563898,52.176602127578 0.777936206969618,52.1765890120634 0.777385338791472,52.1765516387658 0.777383772936133,52.1765516756399 0.777133497196149,52.1765476793846 0.777131707607387,52.1765441251873 0.777163453633319,52.1764651602757 0.777178558831223,52.176403669572 0.777188017151863,52.1762496191627 0.777332413092046,52.1757022026463 0.776813119723065,52.1749517648726 0.776533277103076,52.1745213241593 0.776494894540199,52.1745150350846 0.77578309759887,52.1744552802713 0.77556820644532,52.1744324672104 0.775195057259429,52.1744538349962 0.774990121910936,52.1744514644216 0.774022662882907,52.1745606230346 0.773270089345126,52.1746673280622 0.77267038723309,52.1747848188978 0.772248452978658,52.1748208093223 0.771934824439064,52.1748587493174 0.771517948548583,52.1748830207493 0.768688900604055,52.1749998144636 0.768661141533237,52.1749761920037 0.768610617032992,52.1749161523022 0.768565321982782,52.1748470902744 0.76853966806451,52.1747874559594 0.768519683592714,52.1746773417195 0.768518759935752,52.1744740884097 0.76849689217179,52.1744035762154 0.768495439073752,52.174356859819 0.768515113000794,52.1742735960445 0.767046909480196,52.1742334296613 0.76678835017498,52.1741909473678 0.766586689984218,52.1741480282135 0.76595546240201,52.1739694475079 0.765738782334255,52.1738963117152 0.765498074160803,52.1738363256566 0.765427484072362,52.1738298897974 0.765315282243697,52.1738370153729 0.76505033772657,52.1739034636883 0.76483687981109,52.1729857734258 0.764733656899337,52.1724764541532 0.764631888069712,52.1719671906251 0.764599376766221,52.1716801663163 0.764573780080803,52.1715260405107 0.764537945240218,52.1713740414313 0.764461947168489,52.1711150084365 0.764213023012419,52.1699768916532 0.76390821443795,52.168905804484 0.763847903300155,52.1684755844997 0.763714997796262,52.1679597672029 0.763588321577322,52.1673089463199 0.76356043202545,52.1668122448578 0.763484459682793,52.1666468023756 0.763455642977207,52.1665592806846 0.763434274544017,52.1664285201945 0.763361521406122,52.1661262552237 0.763298944965431,52.1659667920977 0.763262235002208,52.1658452905954 0.763230689077453,52.1657156678413 0.76321177693654,52.1655272202961 0.763096698295062,52.1651800956385 0.763016028799593,52.1646351829532 0.762965684885177,52.1640814686342 0.762955281324292,52.1638668388692 0.762937986354308,52.1637278018311 0.762902384755387,52.1635560182035 0.762774745450288,52.1632181778869 0.762725575331673,52.1631329314602 0.762627193103324,52.1630084697254 0.762167648971816,52.1623888200433 0.762043013991525,52.1621713817403 0.762007930287955,52.1620993801639 0.761955598077844,52.1619396755271 0.761714343887509,52.1618930911064 0.7616531728332,52.1618495708177 0.761621469845017,52.1618107553714 0.761600011595518,52.1617699013927 0.761592111072539,52.1617377203043 0.761591442852072,52.161703572135 0.761613807616741,52.1616383170998 0.76163544051756,52.1616099400416 0.761810226121272,52.1614340375311 0.761866336550826,52.1613491120477 0.761891979658943,52.1612900735302 0.76190927155136,52.161214956713 0.761901375426832,52.1609219617417 0.761887750039799,52.1608206877919 0.761872073642697,52.1604721331933 0.762017942340709,52.1604426440552 0.76179766376085,52.15948465012 0.761752959315443,52.1592338727318 0.761698352649794,52.1588250947944 0.761542544383184,52.1579384132695 0.761475826687695,52.157096396675 0.761447755780685,52.1569487104336 0.761394650021122,52.1567763470636 0.761232288931592,52.1563736877247 0.761002194356501,52.1560355485926 0.760821209884688,52.1558266211798 0.760664132364694,52.155674762385 0.760131112214918,52.1552609101633 0.759801784377329,52.1549943175057 0.75941895686571,52.1547163891843 0.758841823269705,52.1543432113685 0.758719442448108,52.1542570691035 0.758614588962088,52.154167818756 0.758543084244783,52.1540992753463 0.758478483447768,52.1540234685559 0.758398588519908,52.153914754092 0.758335538313921,52.1538172439251 0.758232695175717,52.1536200598328 0.758029160639298,52.1533774919256 0.757930038849683,52.1531234903884 0.757793125512498,52.1528236229898 0.757673280068651,52.1524936872082 0.757458260901065,52.1515229752363 0.757417704050787,52.1512451282165 0.757412484596087,52.1512074901184 0.75745082542744,52.1509053216804 0.757425493965315,52.1507782491521 0.757414711930294,52.150652544172 0.757416283322673,52.1505590063451 0.757450049744163,52.1503720228873 0.757523015444684,52.1501815154695 0.757554530467429,52.1497689224544 0.757571160152745,52.1496830334666 0.757595859600343,52.1496087340131 0.757774258261881,52.1492538407924 0.757859335925413,52.149046777712 0.757912164271377,52.1489322614226 0.758039117690368,52.1487143281233 0.758179902615936,52.1485563977472 0.758357062290692,52.1482069274414 0.758607604415266,52.1479312605076 0.75871818896005,52.1478756292591 0.75881104181079,52.1477457016715 0.758869485641016,52.1476499336241 0.758933091298383,52.1475206893433 0.75899581455631,52.1473537962533 0.758961023802413,52.1471926912697 0.758947253127702,52.147063549652 0.760161467372249,52.1464164040062 0.760220116448082,52.1464429016137 0.760230014460497,52.1464372758391 0.760262538558048,52.1463960562625 0.760271268924196,52.1463715776873 0.760272824756367,52.1463265883142 0.760345378289443,52.1461530809695 0.76035961829161,52.1460988042364 0.760366460438225,52.1460438022798 0.760359347513257,52.1458586738836 0.760432243312839,52.145548501856 0.76044692754043,52.1455247822845 0.760475830374357,52.1454971343811 0.760513862285701,52.1454728681834 0.760591248857787,52.1454476814702 0.760668246901105,52.1454395853155 0.760998743588856,52.1453482341832 0.761543994833081,52.1452526627968 0.762200203625072,52.1452751420576 0.762198981101902,52.1452553912427 0.762176848487767,52.1452054727543 0.76214127851202,52.1451487662876 0.761685655510159,52.144472382155 0.761255737127381,52.143854731839 0.761187416331028,52.1437439502821 0.761888865123929,52.1433857901756 0.762107664192465,52.1432367262987 0.762707759038121,52.1429177973334 0.762813483842119,52.1428559824967 0.763015667031247,52.1427208822221 0.763415959484206,52.1424102278887 0.763579265671871,52.1420735696536 0.763702332787781,52.1419609983519 0.763794333236389,52.1418644400213 0.764382367444445,52.1411644889595 0.764653289530768,52.1408649512441 0.764707261556502,52.1407926598993 0.76480136416544,52.140706749713 0.764857391980388,52.1406676750964 0.76494355152224,52.1406189032941 0.765160549610087,52.1404644795702 0.765394224234617,52.1403205424095</coordinates></LinearRing></outerBoundaryIs></Polygon>
  </Placemark>
