  <Placemark>
	<Style><LineStyle><color>ff0000ff</color></LineStyle><PolyStyle><fill>0</fill></PolyStyle></Style>
	<ExtendedData><SchemaData schemaUrl="#Wards__December_2019__Boundaries_EW_BFE">
		<SimpleData name="objectid">3029</SimpleData>
		<SimpleData name="wd19cd">E05008330</SimpleData>
		<SimpleData name="wd19nm">Amesbury West</SimpleData>
		<SimpleData name="wd19nmw"></SimpleData>
		<SimpleData name="bng_e">414202</SimpleData>
		<SimpleData name="bng_n">141331</SimpleData>
		<SimpleData name="long">-1.79823</SimpleData>
		<SimpleData name="lat">51.17104</SimpleData>
		<SimpleData name="st_areashape">14923198.3213272</SimpleData>
		<SimpleData name="st_lengthshape">21389.948201528</SimpleData>
	</SchemaData></ExtendedData>
      <Polygon><outerBoundaryIs><LinearRing><coordinates>-1.84680301000847,51.19185402999 -1.84669084351165,51.1915921988344 -1.84618483349545,51.1905501886149 -1.846028497718,51.1902325630651 -1.84573987938123,51.1896747433826 -1.84537339996374,51.1888694276106 -1.84479183623014,51.1877536873958 -1.84446029038777,51.1872002118243 -1.84401944529137,51.186384904178 -1.84309208547125,51.1847722920905 -1.84283197068574,51.1842476737736 -1.84275286776793,51.1839536100309 -1.84297687269855,51.1837146981727 -1.84314743001262,51.1836168502195 -1.84357889839255,51.1833881929613 -1.84416410522626,51.1829393146114 -1.84472937088567,51.1824886992755 -1.84534183905415,51.18202906313 -1.84593721704533,51.1815263424957 -1.84629143049786,51.1812848982997 -1.84684798786647,51.1808513407154 -1.84743741785459,51.1804258243581 -1.84806962638653,51.1800094388133 -1.84872900387536,51.1796137622098 -1.84972965922109,51.1789864981709 -1.85079463196191,51.1783404291405 -1.85264393600219,51.1771422973785 -1.85325047153655,51.1767212657377 -1.8535485304302,51.1765337558033 -1.85310827403931,51.1764451088382 -1.85268512438522,51.176355493416 -1.85096935482026,51.1760556850513 -1.85007306489276,51.1758747522065 -1.84963123649037,51.1758013723117 -1.8474465499067,51.1754648604636 -1.84483166164979,51.1750127639029 -1.84459870497627,51.1749468320226 -1.84449004088277,51.1749224156387 -1.84432559693237,51.1748961285536 -1.84395525414304,51.1748596781192 -1.84358363232207,51.174783581213 -1.84317328158748,51.1747201066897 -1.84299178500515,51.1746794111388 -1.84277166390711,51.1746206847087 -1.84205997806655,51.174416474665 -1.84120955618853,51.1741895995601 -1.84032069197635,51.1739285957306 -1.83993496083393,51.173809318458 -1.83950048926828,51.1736990526254 -1.83906749547261,51.1735716167458 -1.83863582918223,51.1734703409906 -1.83826585155662,51.1733340892738 -1.83790726530743,51.1732121460103 -1.83711711517583,51.172928690298 -1.83693425727781,51.1728762964312 -1.83661689037639,51.1728066354605 -1.83624258326831,51.1726973405323 -1.83580669421041,51.172593261829 -1.83493600759026,51.1724446118883 -1.83363383543283,51.1721828898841 -1.83272337309243,51.1720125950802 -1.83228166612829,51.1719228805659 -1.83088532346182,51.1715872799265 -1.82934315965875,51.17127122857 -1.82806407405127,51.1709708237195 -1.82632900945347,51.1705915238515 -1.82552728311298,51.1704050632655 -1.82464968060141,51.1702320586609 -1.82382090580446,51.1699979013413 -1.82338368637419,51.1698848758345 -1.82262948969174,51.1696112683712 -1.82223388210698,51.1694740306637 -1.82205962343211,51.1694008618364 -1.82176547341946,51.169254785616 -1.82115177874034,51.1689130610594 -1.82099474535192,51.1688390176201 -1.82059761793056,51.1687008728732 -1.82027627764241,51.168574528732 -1.8201792251878,51.1685429170111 -1.81998341610115,51.1684939845985 -1.81986199301072,51.1684524466897 -1.81981774181164,51.1684290057094 -1.81963798456885,51.1683163611398 -1.81955665607205,51.16827488437 -1.81910674110777,51.1680979083552 -1.81884409623429,51.1679815391555 -1.81804676199845,51.1677770553524 -1.81744195838321,51.1677356643484 -1.8170716818619,51.167672161581 -1.81668012646781,51.1675924431215 -1.81618545900388,51.1675538242307 -1.8156863761714,51.1675287708296 -1.81527741946475,51.1674957659235 -1.81517769187883,51.1677527999342 -1.8146727526767,51.1677762760577 -1.81420642837201,51.1677863273881 -1.81329955692518,51.1677893849053 -1.81286776516129,51.1677752133415 -1.81245147023932,51.1677781454562 -1.81203252536484,51.1677657888429 -1.81155763707407,51.167765028065 -1.81108143160913,51.1677399917127 -1.81020904967631,51.1677295961489 -1.80980997991235,51.1677307482672 -1.8095253647838,51.1677159042401 -1.8094625067079,51.1677167015161 -1.80932803128376,51.167726371959 -1.80925499794849,51.1677352428166 -1.80920889141224,51.1678205687907 -1.80926928503976,51.168103926681 -1.8092772444502,51.1682334791562 -1.80927121779786,51.1683224661598 -1.80926112789977,51.1683386310931 -1.80922388085311,51.1683628421332 -1.80917949485871,51.1683735569854 -1.80909926018987,51.1683842144683 -1.80901774527688,51.168390374655 -1.80894486655216,51.1683902561473 -1.80883474396863,51.1683846835195 -1.8086460051126,51.1683690941201 -1.8083985894529,51.1683408224583 -1.80805410248737,51.168288121074 -1.80760828970408,51.1681848213756 -1.80749114436488,51.1681666497151 -1.80738387164767,51.1681565861328 -1.80733386312194,51.1681583016454 -1.80729655993512,51.1681672298756 -1.80727080361674,51.1681788737754 -1.80724925465736,51.1681996048133 -1.80723202505085,51.1682310399579 -1.807221447836,51.1683640672653 -1.807255383998,51.1684558164689 -1.80724951234402,51.1684782808317 -1.80723235354364,51.1684926364644 -1.807205067495,51.1685033786266 -1.80717072782327,51.1685088056532 -1.80709067324502,51.1685041799502 -1.80699060060753,51.1684922394862 -1.80691343642955,51.1684732346215 -1.80680628657225,51.1684335039197 -1.80640767428054,51.168351941978 -1.80619469690613,51.1682949566291 -1.80598479783895,51.1682352792416 -1.80577204373876,51.1681251653699 -1.80548502827185,51.1680356936557 -1.80531384017416,51.1682503504081 -1.80523443301734,51.1684291106257 -1.8048231984685,51.1682648182719 -1.80466955372002,51.1680649046183 -1.80446733163601,51.1678631132792 -1.80416675600213,51.1679139422355 -1.80407770330559,51.1680018912924 -1.80364093277985,51.1677988078574 -1.80348738838616,51.1679110100762 -1.803425799893,51.1679459663817 -1.80328534865428,51.1680014661764 -1.80313931751426,51.1680380784014 -1.80303053475111,51.1680504813942 -1.80293045755054,51.1680404248972 -1.80288332528821,51.1680313563909 -1.80283481142176,51.1680141953399 -1.80279763489862,51.1679934564576 -1.80278202306813,51.1679763506205 -1.80277934526869,51.1679403875522 -1.80281666401259,51.167899997376 -1.80294563418244,51.1678264092254 -1.80322684079944,51.1676434945379 -1.80331857640847,51.1675906099812 -1.80340883915545,51.1675511166445 -1.80355489518341,51.1675082114348 -1.80361798582489,51.167480449464 -1.80427635744741,51.1670355771552 -1.80458317312151,51.1668454200919 -1.80480697585486,51.166681283253 -1.80486156562336,51.1666274365463 -1.80490471667401,51.1665734808946 -1.80496809595828,51.166476499168 -1.80502711514467,51.1663786109556 -1.805048792173,51.1663274071587 -1.80507489177347,51.1662338686202 -1.80509978390744,51.1660909766395 -1.8051116796149,51.1659821333191 -1.80510955470271,51.1658140248741 -1.80512324578554,51.165614390222 -1.80512756276988,51.1652601187556 -1.80513959594706,51.1651181046201 -1.80513698581732,51.1650659603954 -1.80509635358952,51.1648851136597 -1.80503970197277,51.1647285118507 -1.80490911834078,51.1645152421365 -1.80478295701114,51.1642317727599 -1.8047303905569,51.1641417894006 -1.80465654915394,51.1640355003093 -1.80458675568507,51.1639481858794 -1.80449999370993,51.1638581455407 -1.80439862676496,51.1637923532524 -1.80433590916719,51.1637606954836 -1.80424593148889,51.1637344765621 -1.80418582813201,51.1637262853049 -1.80410295321473,51.163721652901 -1.80404576707797,51.1637206583321 -1.80377108289449,51.163733684491 -1.803610973205,51.1637289218259 -1.80343074039906,51.1637142375453 -1.80325929011447,51.1636860831147 -1.80305784758981,51.1636398984275 -1.80271217014908,51.1635440290426 -1.8025551154827,51.1634862327637 -1.80241235918581,51.1634211776063 -1.80220682086814,51.1633129578562 -1.80201283125431,51.163206554734 -1.80143936295894,51.1628585003273 -1.80127538968402,51.1627376725135 -1.80116865333661,51.1626332135107 -1.80113874489335,51.1625963049815 -1.80111324302237,51.1625486169786 -1.80110217650342,51.1624622091332 -1.80108802401881,51.162435216857 -1.80105806043797,51.1624108935791 -1.80101098098343,51.1623910372936 -1.80091380402405,51.1623674990555 -1.80069512718827,51.1623284720846 -1.80051365598121,51.1623020943029 -1.80022339443014,51.1622935087926 -1.80016331756353,51.1622799217939 -1.80014346431398,51.1622628083129 -1.80013773951227,51.1622502131827 -1.80013245626031,51.1621629158868 -1.80011967114106,51.1621197436069 -1.80010129564754,51.1620882488462 -1.8000785169038,51.1620657368912 -1.80000568894039,51.1620287548461 -1.79993433992181,51.1620043615476 -1.79985435627077,51.1619862461446 -1.7997799980299,51.1619762305059 -1.79971844922663,51.1619761253429 -1.7996598284122,51.1619805203126 -1.79959976467327,51.1619912045709 -1.79954817184213,51.1620063984468 -1.79951237207915,51.1620234177409 -1.7993860443582,51.1621157934152 -1.79929868708164,51.1621668845394 -1.79924430268488,51.1621730840803 -1.79920859062721,51.1621694269549 -1.79916137940305,51.162153164745 -1.7991086835532,51.1621234094334 -1.79907438916246,51.1620918872224 -1.79899940679071,51.1619263504261 -1.79893953736915,51.161865029388 -1.79890966284799,51.1618478976033 -1.79879824369583,51.1618189396897 -1.79871826040238,51.1617738552437 -1.79868984320936,51.1617468372716 -1.79867994599454,51.1617180544815 -1.79868144993584,51.1616973805859 -1.79869293821351,51.1616857141611 -1.79878324260122,51.1616346285456 -1.79880057446942,51.1616076900361 -1.79878810841417,51.1615185819086 -1.79879674518841,51.1614844365735 -1.79880828400206,51.1614610831661 -1.79896947124002,51.1612419250656 -1.79897663904983,51.1612203625672 -1.79897821818237,51.1611826091627 -1.79895985407624,51.1611484174977 -1.79887296329039,51.1610646659745 -1.79885585497187,51.1610403641828 -1.79875829656642,51.160806379091 -1.79871707702714,51.1607406847063 -1.79868001414981,51.1607226412995 -1.79858986699967,51.1607108002483 -1.79856424404711,51.1606918781516 -1.79856146612125,51.1606801872165 -1.79858181773781,51.1606091152009 -1.79857195201965,51.1605731396518 -1.7985250665464,51.1605092329823 -1.79843367185412,51.1604587343335 -1.79804535136409,51.1603078506128 -1.79799690262149,51.1602781021031 -1.79796413303041,51.1602492789174 -1.79784899822375,51.1600998534104 -1.79784328747732,51.1600845614479 -1.79784338527799,51.1600620876057 -1.79785771508579,51.1600477294243 -1.79787779332104,51.1600396729436 -1.79798372746089,51.1600272702271 -1.79803238164137,51.1600093752382 -1.79808978549031,51.1599590427352 -1.79811421872452,51.1599258238678 -1.79813015807434,51.1598934886772 -1.79813898403012,51.1598431623823 -1.79813487109154,51.1597856219 -1.7981122677624,51.1597235553018 -1.79806971046233,51.1596406888087 -1.7979830249103,51.159511089708 -1.79798176949752,51.1594742297309 -1.79800330223897,51.1594571872096 -1.79803198874641,51.1594491455398 -1.79805627182695,51.1594500865995 -1.79818766512302,51.1594934625456 -1.79825905229422,51.1595079692585 -1.79840622869941,51.1595279998016 -1.79847346146212,51.1595218227498 -1.79850074783115,51.1595101826075 -1.79852655191067,51.159486854647 -1.79854108825283,51.1594518202494 -1.79853984378293,51.1593852952844 -1.79852047230952,51.1592575207812 -1.79853205748435,51.159223380522 -1.79855500416569,51.1592063394307 -1.79858217696425,51.159193800761 -1.7987352971201,51.1591751857698 -1.79885263689566,51.1591421262687 -1.7989243549958,51.1591071899563 -1.79892308470976,51.159073925913 -1.79892167045875,51.1590739234864 -1.79883890362533,51.1590188557555 -1.79883496696573,51.1589478310058 -1.79884940899918,51.15890740293 -1.79898621685329,51.1586801127051 -1.79902795073521,51.1586262468385 -1.79905091391879,51.1586056106305 -1.79916559311921,51.1585329917126 -1.79925461643963,51.1584495408866 -1.79929922668064,51.1583848029772 -1.79932378247439,51.158322817369 -1.79933268060755,51.1582554105707 -1.79933012641427,51.1581915801108 -1.79929636939116,51.1580637811052 -1.79929372204802,51.1580215261827 -1.79931148111603,51.1578678353543 -1.79929918982138,51.1577382746763 -1.79930359064846,51.157702323611 -1.79931511906144,51.1576807685521 -1.79937982584302,51.1576035695622 -1.79940580062842,51.1575406871456 -1.79941049610484,51.1574632945788 -1.79939927054288,51.1574147322826 -1.79950721535329,51.1572351257854 -1.799707015471,51.1569980537809 -1.79989779651808,51.1568562546729 -1.80001271500127,51.1567539693941 -1.8000888673211,51.1566740927939 -1.80017083990135,51.1565564690338 -1.8002588341443,51.1563821322518 -1.80028055782108,51.1563201415951 -1.80028922729485,51.1562779050696 -1.80028837380055,51.1561474656391 -1.80027188229949,51.1560071999356 -1.79838692672912,51.1554176738366 -1.79781864954807,51.1552341168202 -1.7972517984558,51.1550488518979 -1.79609675449059,51.1546556218887 -1.79570978284174,51.1545326900303 -1.79532433019308,51.1544133554938 -1.79453162657773,51.1541997252278 -1.79423811393767,51.1546173136267 -1.79336650191935,51.1544926237063 -1.79170925040244,51.1541866512704 -1.791293335422,51.1541328729479 -1.79079299816323,51.1541086074859 -1.79041867162973,51.1540611929879 -1.79017141969357,51.15401661173 -1.78991146514398,51.1539658044038 -1.78948866015136,51.1538724536255 -1.78874165233217,51.1537029141224 -1.78838589334791,51.1536438404153 -1.78796432116813,51.1535918375572 -1.78786151012417,51.1535682791233 -1.7875873261613,51.1534850781855 -1.78723315773357,51.1533881577721 -1.78689909787885,51.1532769789654 -1.78591244316998,51.152979333885 -1.78554118029046,51.152884264551 -1.78515142199568,51.1527612926084 -1.78471993365994,51.1526893935429 -1.78433289956902,51.152589796131 -1.78364697022529,51.1521982944347 -1.78334761592286,51.1520052753966 -1.78306705181678,51.1517772300462 -1.7828051788425,51.1515106540955 -1.7824386224092,51.1513211031391 -1.78202621238311,51.1511566364998 -1.78161784638288,51.151360928126 -1.78058975707519,51.1510667564178 -1.78007141459822,51.1509444247843 -1.77902912452774,51.1506412232012 -1.77836493672091,51.1505014392069 -1.77753673585542,51.1502976048217 -1.77725809099832,51.150243137825 -1.77691530649723,51.1501911548575 -1.77691473977407,51.1503090073623 -1.77690830235586,51.1504465351592 -1.77689345573661,51.1505679555499 -1.77688841992389,51.1507081837471 -1.77688355026076,51.1508385227041 -1.77687295444658,51.1509581537047 -1.77684070721191,51.1511190056794 -1.77678119458392,51.1513113590998 -1.7767331511074,51.1514965424329 -1.77663721283702,51.1518110843274 -1.776550022174,51.152120248432 -1.77645397889086,51.1524563647775 -1.77631430791595,51.1529649972644 -1.77622882557922,51.1531878650271 -1.77616657529552,51.1533603456261 -1.77594507542335,51.1539192527123 -1.77574966361892,51.1544215750258 -1.77559183877463,51.1548294886503 -1.77538475139409,51.1553551611724 -1.77527016852339,51.1556939375821 -1.77519297913357,51.155979747339 -1.7751407272784,51.1561549432488 -1.77505741354349,51.1565118482064 -1.77502352794726,51.1567410168013 -1.77501875970311,51.1568247009889 -1.77502813281781,51.1569586630455 -1.775031457158,51.1571484393163 -1.77504907408821,51.1573570302779 -1.77515074863698,51.1579075661619 -1.77523255715135,51.1584463767243 -1.77539288331805,51.1593035690651 -1.7754645570081,51.1595501095679 -1.77549084491794,51.1597462224433 -1.77549895237628,51.1598496177417 -1.77529435731174,51.159855518212 -1.77529351312423,51.1600300033763 -1.7752317666494,51.1603877588886 -1.77519093051586,51.160542301006 -1.77514617576971,51.1606295034625 -1.77495048042678,51.1608907238676 -1.77475050222419,51.1611349450793 -1.77467849201062,51.1612256908896 -1.7746266907358,51.1613064978722 -1.77458763260084,51.1613855300257 -1.77455872354892,51.1614627850689 -1.77454112411355,51.1615419493153 -1.77453202868167,51.1616668863357 -1.77453309823369,51.1617379054731 -1.77454555305505,51.1618197343682 -1.77457228833164,51.1618989839241 -1.77461474498973,51.1619943551201 -1.77464597786493,51.1620456550067 -1.77475527287859,51.1622176560673 -1.77479213142486,51.1622761586278 -1.77492660029155,51.1625578794126 -1.77544204937179,51.1636199054221 -1.77551115465963,51.1638134025912 -1.7755280141734,51.1638871495885 -1.77553328354292,51.163968065373 -1.77553150848809,51.1640426749742 -1.77551531245523,51.1641488102846 -1.77550651325914,51.1641883479527 -1.77546891339277,51.1642826661579 -1.77544574564878,51.1643428518572 -1.77535351281422,51.1644937884652 -1.7753246279126,51.1645413778066 -1.77520498447827,51.1647273219827 -1.77493114037108,51.1648814165344 -1.77485653746871,51.164921726016 -1.77474471763805,51.1649772459955 -1.77468453629507,51.1650104820212 -1.77465578998249,51.1650293047777 -1.774579690691,51.1650866908283 -1.77451942516043,51.1651369163106 -1.77444469628918,51.1652032952272 -1.77439008669798,51.1652544307428 -1.77432105626592,51.1653370908874 -1.77429236276371,51.1653693982316 -1.77428086307312,51.1653819614396 -1.77421774540938,51.1654124040074 -1.77413604115242,51.165458093706 -1.77406000906667,51.1655010966523 -1.77395677324339,51.1655611275826 -1.77389219252585,51.1656014557791 -1.77383043720487,51.165642778527 -1.77369420447922,51.1657225218702 -1.7735120954579,51.1658273479909 -1.77331839853214,51.1659385331054 -1.77320086980377,51.1660030308594 -1.77312910273274,51.1660415462924 -1.77297859121435,51.1661230595601 -1.77283659377484,51.1661991956727 -1.7727390679026,51.1662485386696 -1.77260721124231,51.1663246941738 -1.77254264590398,51.166361425699 -1.77251249662657,51.1663775484619 -1.77249116713962,51.1663505387902 -1.77245987209875,51.1663118227074 -1.77243854267256,51.1662848130261 -1.77238884440278,51.166223497261 -1.77227366279037,51.166097419776 -1.77223235412675,51.1660568866407 -1.77206705368841,51.1659316107019 -1.77179063013431,51.1657188289474 -1.77169947037906,51.1656485335103 -1.77166236617427,51.1656160985719 -1.7716093525116,51.1656537513145 -1.77156346394825,51.1656815292992 -1.77139702926444,51.1657872809958 -1.77131091823358,51.1658410503162 -1.77117891654093,51.1659225974 -1.77104548032102,51.1660078273964 -1.77100961829019,51.166034725546 -1.77099956447065,51.1660409985732 -1.77079587567482,51.166168252245 -1.77079445534643,51.166169147778 -1.77065097410551,51.16625885282 -1.77059927828676,51.1662920125205 -1.77055197115845,51.1663197873249 -1.77051033946988,51.1663448764941 -1.77036541945235,51.166438982699 -1.77025647153385,51.1665079885572 -1.76998379785376,51.1666819408936 -1.76988918041257,51.1667383891833 -1.76979443512143,51.1667966346673 -1.76970547658508,51.1668530939273 -1.76957780557954,51.1669401310825 -1.76954042519365,51.1669634307412 -1.76937835384476,51.1670673896859 -1.76915026487325,51.1672144595844 -1.76905976253924,51.1672727128365 -1.76895365002257,51.1673399246439 -1.76886326142288,51.1673990780781 -1.76890020159564,51.1674405020904 -1.76896705103682,51.167514438517 -1.76896703761531,51.1675171352249 -1.76896985910932,51.167518938313 -1.76901679672266,51.1675891495695 -1.76920086840167,51.167662327819 -1.76940650679436,51.1677382449688 -1.76963058412168,51.167829570034 -1.76986894129733,51.1679190352784 -1.76987179100225,51.1679388172271 -1.76999164756104,51.1679777079205 -1.77000607009746,51.1679705443486 -1.77002313758095,51.1679768705375 -1.7701202481034,51.1680130197054 -1.77012448864136,51.1680139272383 -1.77025302265237,51.1680627224165 -1.77026302807978,51.1680663379851 -1.77030292950941,51.1680816983266 -1.77036437508514,51.1681042927809 -1.77048856020458,51.1681504723606 -1.77060709250507,51.1681947532941 -1.77061851394498,51.168198371605 -1.77067983810689,51.1682218648661 -1.77072550918175,51.1682390338805 -1.77072704242052,51.1682390368815 -1.77073415787338,51.1682309606062 -1.77078842296402,51.168250844049 -1.77083127249547,51.1682662099779 -1.77087835962931,51.1682833817027 -1.77105398988358,51.1683475510963 -1.7710554975194,51.1683286760066 -1.77118271633989,51.1683576912399 -1.77121557825505,51.168365845628 -1.77123537907988,51.1683919542247 -1.77128662904505,51.16844967754 -1.77138921075673,51.1685244907144 -1.77146465728996,51.1686019475952 -1.77147023200954,51.1686433104862 -1.77146290197204,51.1686711636331 -1.77140824511019,51.1687303878259 -1.77135642260835,51.1687888091345 -1.77126440121554,51.1688920090701 -1.7711651909487,51.168994295678 -1.77107742809588,51.1690948969705 -1.77086166077544,51.1693488789587 -1.77074806267736,51.1694746001716 -1.77061847140761,51.169638855311 -1.77049756207132,51.1698122057455 -1.77022739711196,51.1697613347136 -1.77010747038123,51.1697359287075 -1.76970026055,51.1696397504476 -1.76940320243423,51.1695429774673 -1.76897774410327,51.1693938125245 -1.76853949017306,51.1692337420905 -1.76840092086075,51.1691867227232 -1.76826949375138,51.1691505051543 -1.76809533713614,51.1693812810964 -1.76802034502526,51.1694970975592 -1.76797983604041,51.1695797213655 -1.76792636936807,51.1697064572567 -1.76789156205421,51.1698043744133 -1.76787556668989,51.1698429979997 -1.76786682727456,51.1698690506054 -1.76786670588813,51.1698933218648 -1.7678694514499,51.169933780104 -1.76786205915773,51.169973319045 -1.76785320828657,51.1700219353263 -1.76784289094643,51.1700803465019 -1.76783980855023,51.1701306818133 -1.76783242662198,51.1701684232493 -1.76783505525792,51.1702322544427 -1.76784688395564,51.1704373294178 -1.76786251431329,51.1707314077039 -1.76787384482196,51.1707530049169 -1.76787810537833,51.1707736898099 -1.76788346544893,51.1708339304633 -1.76787484314068,51.1708599823984 -1.76787461384978,51.1709058291017 -1.76788650133322,51.1710992171238 -1.7679102514966,51.1714912975389 -1.76792475277493,51.1717278411335 -1.76793748349669,51.1717764102335 -1.76794277184428,51.1718510336045 -1.76793541975337,51.1718824824198 -1.76793670994689,51.1719311178791 -1.76795891901084,51.1723483667739 -1.76796540188903,51.1724670412264 -1.76797340874701,51.1725876061369 -1.7679688712029,51.172646029644 -1.76796745511,51.1726460268395 -1.76791165308045,51.1726495122568 -1.76788433330927,51.1726647402172 -1.76733072824076,51.1729711739067 -1.76743421878198,51.1731476641818 -1.76750800387432,51.1732745624144 -1.76748499232177,51.1733005866563 -1.76740006698884,51.1733966057212 -1.76739864636609,51.1733975021112 -1.76730361325329,51.1735097722491 -1.76726055414701,51.1735591298027 -1.76721737171701,51.1736093854064 -1.76732856806385,51.1736842191537 -1.7671263140292,51.1737989729016 -1.76693837769591,51.1739037771434 -1.76680070742429,51.173980812816 -1.7667991694759,51.1739817089652 -1.76649080213779,51.1741591770958 -1.7664864257147,51.1741618651051 -1.76631148776019,51.1742613007809 -1.76617511732035,51.1743374390986 -1.76610202035416,51.1743786451787 -1.765971436862,51.1744530872108 -1.76583659730542,51.1745292290904 -1.7656300756472,51.1746465785293 -1.76528131815638,51.1748563252422 -1.76513644245968,51.1749342446282 -1.76509859819613,51.1750708990649 -1.76475231842038,51.1753723425205 -1.76471926576892,51.1754010427839 -1.76470919992711,51.175409112764 -1.76477201258677,51.1754425006684 -1.76465609632248,51.1754611459107 -1.76336613773987,51.1756671942163 -1.76334748297418,51.1756707524808 -1.76312414864791,51.1757062596954 -1.76311694869036,51.17570714345 -1.76164096126033,51.1759387773469 -1.76119425742731,51.1760152672367 -1.76117066719428,51.1761527587504 -1.76115169420048,51.1762183435351 -1.76114449253762,51.1762426003352 -1.76113453051914,51.1765051646831 -1.76112166475715,51.1767821059637 -1.76111712435398,51.1768162567991 -1.76110850635769,51.1768405107066 -1.76109394080335,51.1768746410992 -1.76107377591545,51.1769196378158 -1.76103187019619,51.1769950644165 -1.76100149229768,51.1770534340221 -1.76097543256885,51.177120802731 -1.76094061225534,51.1772170092085 -1.7608592030444,51.1774505711341 -1.76057553328691,51.1783644963699 -1.76049722865906,51.1785900631686 -1.76044920994294,51.1787293020518 -1.76041151118132,51.1788344927563 -1.76038262185079,51.1788784823643 -1.76035244277846,51.178920670907 -1.7602680565944,51.1791812843763 -1.76053445744609,51.1793984766854 -1.76058292608511,51.1794463102898 -1.76063121304418,51.1795066389204 -1.76066508780341,51.1795939062867 -1.76068619850161,51.1796631687722 -1.76068552565098,51.1797936058501 -1.76068496455556,51.1799023775968 -1.76068471878385,51.1799500217164 -1.76066961488707,51.1801109934427 -1.76063330885142,51.1804948619691 -1.76058397516638,51.1808885915434 -1.76052186395249,51.1815637573797 -1.76045960652486,51.1822668801187 -1.76043427698559,51.1824663961256 -1.76041472735278,51.1826426407168 -1.76039673516891,51.1827918294823 -1.76038601299313,51.1829492141156 -1.7603737063927,51.1831163941846 -1.76037585469405,51.183248634472 -1.76038386720067,51.1833646155626 -1.76039335851567,51.1834455404126 -1.76041435400452,51.1835373665204 -1.76044123699686,51.1836084383288 -1.76047658043421,51.1836858209925 -1.76052476028335,51.1837677241317 -1.76060437247503,51.1838848397998 -1.76069529707614,51.1840045863087 -1.76083108713502,51.1840255400366 -1.76107133939588,51.1840574936198 -1.76153742035647,51.184105188662 -1.7624874006609,51.1841305806356 -1.76357152592578,51.1841992961226 -1.76462864171508,51.1842445741342 -1.76472719912266,51.1845594953429 -1.76479451220477,51.185405814208 -1.76516924801101,51.1854173527789 -1.76551115553575,51.1854351180171 -1.76576717368486,51.1854545081016 -1.76625482868757,51.185508520004 -1.76642211124163,51.1855322267399 -1.76684233046515,51.1856013837834 -1.76786477917306,51.1857212659797 -1.76782430526564,51.1858173741388 -1.76967723827332,51.186089008364 -1.77074243123088,51.1862520086601 -1.77095677381724,51.186302769077 -1.77110695459514,51.1863264356351 -1.77121555357096,51.1863374346071 -1.77143590351955,51.1863423597305 -1.77154469963482,51.1863371784249 -1.77167358693668,51.1863248442963 -1.77180239664941,51.1863044187974 -1.77199289772978,51.1862616401864 -1.77265017487295,51.1861550427387 -1.77295225457814,51.1861169741239 -1.77344054796584,51.1860433055388 -1.77377705699952,51.1859845350343 -1.77426404634318,51.1858874882738 -1.77603974786223,51.1855725772962 -1.77626027102867,51.185540636019 -1.77643645656465,51.1855050147168 -1.77660971318168,51.1854648915246 -1.77674450256408,51.1854264941155 -1.77700105131734,51.1853360986893 -1.77724468325372,51.1852331827497 -1.77751847115704,51.1854342586817 -1.77803557574787,51.1853030034606 -1.77834968581056,51.1851642602488 -1.77891302832453,51.1849342044523 -1.77889616448425,51.1848586607141 -1.77889219641339,51.1848002208683 -1.77889976490535,51.1847219365769 -1.7789230156121,51.1846455702069 -1.77896051815432,51.1845737249574 -1.7790138105387,51.1845055045066 -1.7790813650626,51.1844399186225 -1.77916174297664,51.1843816386548 -1.77920763849436,51.1843556552826 -1.77991488720187,51.1851699068677 -1.78019915678958,51.1858753980476 -1.78055137261529,51.186135045339 -1.78114184943137,51.1865299801745 -1.7812344810981,51.186600271566 -1.78136844055987,51.1867129800953 -1.78151370803488,51.1868543861911 -1.78164042131258,51.1870030393194 -1.78173420480253,51.1871299654673 -1.78183078417642,51.1872892601324 -1.78215049494633,51.1877673773754 -1.78336601392958,51.187614920833 -1.78341901378741,51.1876087261291 -1.78457043108865,51.1873870093152 -1.78489404993379,51.1873336666034 -1.78534509809976,51.1872768716196 -1.78660476087545,51.1871659046202 -1.78674335827323,51.1871967210178 -1.78871231128161,51.1871832083171 -1.79035383751378,51.187100756228 -1.79099491357446,51.1871010022145 -1.79188627810378,51.1871133764733 -1.79232840718346,51.1870961812006 -1.79353077631429,51.1869975334687 -1.79408056203467,51.1869391702387 -1.79428371290131,51.186939527049 -1.79466138950214,51.1869572699082 -1.79514209272915,51.18696710063 -1.79558272745839,51.1869939399404 -1.79604731087238,51.187074845479 -1.79885701942592,51.1872073534036 -1.79959526111083,51.1872185058977 -1.79988282541312,51.1872324818315 -1.80120746536298,51.1873120466476 -1.80145770164958,51.187337641348 -1.80175517308804,51.1873804844029 -1.80186525743335,51.1874049417567 -1.8020110139417,51.187447438864 -1.80209536485576,51.1874754485113 -1.80294813259143,51.1878014950497 -1.80361700743053,51.1879824957815 -1.80374572049284,51.1880105793874 -1.80405178728039,51.1880308671888 -1.80461539162596,51.1880812499853 -1.80492864905246,51.1881033458874 -1.80584859794176,51.1881426276206 -1.80675724367308,51.1881198552278 -1.80768310420622,51.188127668981 -1.80814530746659,51.1881077500912 -1.8086004391668,51.1880860194215 -1.80908422446449,51.188039162953 -1.81004311812394,51.1879894794878 -1.81140433255994,51.187906184548 -1.81418078836762,51.1877667815427 -1.81510685568001,51.187691832954 -1.81599986554633,51.1876517945518 -1.81689586659945,51.1876010569922 -1.81737660524083,51.1876054019574 -1.81830271187609,51.187518741417 -1.81957651825803,51.1874272119347 -1.82009048897571,51.187350600263 -1.82099327501258,51.1873745424873 -1.82187914793612,51.1873488292075 -1.82379966465016,51.1876367823594 -1.82506965125428,51.1878050753212 -1.82559172541851,51.1878624851419 -1.82830762202173,51.1882360425341 -1.82851893004205,51.1883613952021 -1.8286703494706,51.1884434207773 -1.82884170299271,51.1885263743939 -1.82929458277721,51.1887311852088 -1.82999581735686,51.1890963673632 -1.83027705888113,51.1892648776043 -1.83039133287708,51.1893433422119 -1.83060105589934,51.1895180411485 -1.83069380555996,51.1895784048037 -1.83076514802653,51.189620847771 -1.83097946902516,51.1897326267848 -1.83109937907022,51.1897867364932 -1.83154093422626,51.1899645532841 -1.83206665233871,51.1901972353368 -1.83223100554049,51.19026228513 -1.83253392552718,51.1903777827785 -1.83290133338869,51.1905077551116 -1.83355879051404,51.1907254255337 -1.83470361342661,51.1906901840226 -1.83599021566651,51.1906632230853 -1.83923327631094,51.1905237897217 -1.84010771079617,51.1904746432788 -1.84327251891174,51.1902316108334 -1.843340277141,51.1905005788557 -1.84336650361038,51.1907694904897 -1.84351016001491,51.191028671064 -1.84360362217906,51.1913381250657 -1.84370607759063,51.191920064361 -1.84452029171101,51.1919265395632 -1.84680301000847,51.19185402999</coordinates></LinearRing></outerBoundaryIs></Polygon>
  </Placemark>
