  <Placemark>
	<Style><LineStyle><color>ff0000ff</color></LineStyle><PolyStyle><fill>0</fill></PolyStyle></Style>
	<ExtendedData><SchemaData schemaUrl="#Wards__December_2019__Boundaries_EW_BFE">
		<SimpleData name="objectid">7214</SimpleData>
		<SimpleData name="wd19cd">E05012987</SimpleData>
		<SimpleData name="wd19nm">Mundens and Cottered</SimpleData>
		<SimpleData name="wd19nmw"></SimpleData>
		<SimpleData name="bng_e">534450</SimpleData>
		<SimpleData name="bng_n">225694</SimpleData>
		<SimpleData name="long">-0.04664</SimpleData>
		<SimpleData name="lat">51.913559</SimpleData>
		<SimpleData name="st_areashape">51461219.2560185</SimpleData>
		<SimpleData name="st_lengthshape">44182.3486150154</SimpleData>
	</SchemaData></ExtendedData>
      <Polygon><outerBoundaryIs><LinearRing><coordinates>-0.069599889552193,51.9663365710694 -0.069648029708827,51.9665037563486 -0.069712791511919,51.9668258341086 -0.069802379144198,51.9671456220309 -0.069925007934882,51.9674425784956 -0.069984153700794,51.9675577152727 -0.070003948808347,51.9676389452731 -0.070036805773901,51.9678211620578 -0.070098818419367,51.9683779110706 -0.070234540530082,51.9690797002226 -0.070282496456165,51.9692513773995 -0.070331809319085,51.9693915235032 -0.070381083895649,51.9695325672648 -0.07047353723813,51.9697526181385 -0.0705319946668,51.9700179572256 -0.070582780938297,51.9704953247796 -0.070717173846814,51.9711305686399 -0.070723259253223,51.9712934684792 -0.071545304821726,51.9713042367449 -0.072770375544639,51.9712550732223 -0.073584659077211,51.9712117629265 -0.07422733738976,51.9711980033144 -0.074656833944219,51.971164483687 -0.074741044835903,51.9708970733408 -0.074776853785493,51.9706386712008 -0.074938605183529,51.9702285164053 -0.075146457962734,51.9698965153136 -0.075199829904785,51.9697715343635 -0.075245840430329,51.9696166782245 -0.075318963215652,51.9695405629721 -0.075513376587979,51.9694547447504 -0.07650967725802,51.969272264437 -0.077715517712946,51.9690932864159 -0.077869392717493,51.9690345800432 -0.078149642966068,51.9686426263351 -0.078081745093692,51.9684958876467 -0.07787878699869,51.9682039215715 -0.077719661491833,51.9679423364806 -0.077963144807066,51.9677978937352 -0.077957921293728,51.967782526412 -0.077873105583683,51.967655288643 -0.077619721008822,51.9675208038483 -0.077299054651478,51.9672925384124 -0.077182309293673,51.9671962421074 -0.077464210947372,51.96707400342 -0.078619768265644,51.9666720651564 -0.079213153762427,51.9664820883432 -0.079366862562371,51.9666653750572 -0.079770351705687,51.9673058956651 -0.079931472133233,51.967282453075 -0.080120089912116,51.9672306928853 -0.080114833087113,51.9671487126008 -0.080071672797197,51.9668305893128 -0.080071539780831,51.9664942895793 -0.080084570837621,51.9662570885951 -0.080175137962879,51.9660787757208 -0.08023600092307,51.9660168414084 -0.080302663871757,51.9659567991383 -0.080568844745203,51.9657920458002 -0.08078556673928,51.965624687352 -0.081028857972506,51.9654506604583 -0.081134220785135,51.9653696736967 -0.081344049659593,51.9651950109461 -0.081454460063544,51.9650970265895 -0.081651829625896,51.9648403548389 -0.081793320687788,51.9647311904075 -0.082259571582251,51.9645157551451 -0.082701955466503,51.9642127314436 -0.082907839441125,51.9640290114508 -0.083091058279736,51.9638953542185 -0.083375976214395,51.9637353939288 -0.08395061382075,51.9633338357237 -0.084182189463534,51.9631946701311 -0.084351469082317,51.9630472097384 -0.084555573042153,51.9628373890308 -0.085092861074839,51.9623543124972 -0.085280048649904,51.9622314134964 -0.085913803373227,51.9616725917088 -0.086103989824711,51.96168467261 -0.08742629922734,51.9618733634957 -0.087612955002766,51.9617289674173 -0.087690220573533,51.9616591147567 -0.087941379703545,51.9614007004217 -0.088038958488665,51.9612286973877 -0.088405410257617,51.9606555439903 -0.088480680211205,51.9605282152277 -0.088731685690563,51.9600026286053 -0.088713610789571,51.9598099595801 -0.088679112985864,51.9597661602813 -0.088638698364953,51.959723254052 -0.088578091736206,51.9596782216044 -0.088510170491462,51.9596330703776 -0.088363630363268,51.9595515835038 -0.08861848825256,51.959310217423 -0.08888215328053,51.9590986595172 -0.089371371991475,51.9586516394045 -0.089675307778952,51.9584524192739 -0.089924046104182,51.9582163454121 -0.08997055464663,51.9580822573282 -0.090011643402239,51.9580388752537 -0.090450946906977,51.9576701487678 -0.090620784712325,51.9575424657423 -0.090815833366718,51.9574737126345 -0.091055016664696,51.9574281486737 -0.091252349448813,51.9572379830375 -0.092524630363728,51.9562380228165 -0.09287377995714,51.9564819904279 -0.093333271693219,51.9562529180105 -0.093983463110647,51.9559864792933 -0.094068293403124,51.9560121239333 -0.094193518476906,51.9560105550135 -0.094301763463003,51.9558945449997 -0.095479405826398,51.9554765300267 -0.097463360591177,51.9544394829936 -0.098245454183955,51.9551480849757 -0.099872078420792,51.9548515343885 -0.100736863642866,51.954704575144 -0.101113568250921,51.954607182079 -0.101551825666198,51.9546034624952 -0.103312121295563,51.9542065387676 -0.104329851443737,51.95398911273 -0.104453121338286,51.9542410948305 -0.107011864409475,51.9539594485411 -0.106974395615537,51.9536045704667 -0.106980497147924,51.9533205103158 -0.106998724206565,51.953269562983 -0.106985925082222,51.9529528373895 -0.106993085733092,51.9527119444675 -0.106911941345745,51.9519787152422 -0.106860954361294,51.9517054240876 -0.106740414580025,51.9512520327593 -0.106605586840496,51.9506509847102 -0.106352921354408,51.9496380297851 -0.106285909630037,51.949468848788 -0.106255608267736,51.9492201613515 -0.106257438272397,51.9490061507071 -0.106246373730738,51.9488873115573 -0.106246571539111,51.9487802497342 -0.106263053107388,51.9486654486849 -0.106280515967738,51.9485956120876 -0.106462176828314,51.9482568423371 -0.106622501198338,51.9480426839195 -0.106733574305133,51.9478583881682 -0.1069458813459,51.947484063061 -0.107068052724215,51.9472442098761 -0.107102374044142,51.9471529787013 -0.107218941817758,51.9466333718793 -0.107262390396564,51.9463256404498 -0.106887522824708,51.9462107507183 -0.106251692992786,51.9459343460759 -0.105949814746187,51.9458099294692 -0.105652343619944,51.9456891789196 -0.10521994119625,51.9455221166848 -0.104939934593829,51.9453656878576 -0.104049892995297,51.9448369786702 -0.103750583515771,51.9446208146245 -0.103226666417155,51.9441753948206 -0.102976603459218,51.943997778101 -0.102569570016556,51.9437817634579 -0.102323254800409,51.94368870702 -0.101946792517585,51.943507342977 -0.101656882259603,51.9433786138519 -0.101548903734815,51.9432823928439 -0.101617165061984,51.9432511310726 -0.101348700211785,51.9430975753708 -0.100921458823144,51.9429144007094 -0.100670717996939,51.9427871991858 -0.099456406688494,51.9421534379014 -0.099041349659963,51.9419237063376 -0.098345188502322,51.9415617817835 -0.097483238537053,51.9410955019044 -0.097032026689773,51.9408616727379 -0.096465396696866,51.9404982345926 -0.095818824264737,51.9401361973325 -0.095168631931888,51.9397551298951 -0.094579151893288,51.9394191801459 -0.093748004135828,51.9390514459872 -0.093273461168162,51.9388171352507 -0.092333541512168,51.9382714339324 -0.091712021538884,51.937936748689 -0.091247791681732,51.9376324771104 -0.090632117682744,51.9372960823819 -0.090332501624309,51.9371913486645 -0.090073876718025,51.9371493968216 -0.089949964890523,51.9371213164121 -0.089823330432027,51.9370895966414 -0.089497505737029,51.9369863229439 -0.089295161390287,51.9368508024942 -0.089209366819123,51.9367810895687 -0.089126721622715,51.9367078317491 -0.088942252135053,51.9364961893336 -0.08881890620151,51.9363872111448 -0.088689611204846,51.9362799346564 -0.088408600217523,51.9360793092395 -0.087950446657167,51.9358389490864 -0.086877137675328,51.935251393722 -0.086653975076429,51.9351291038769 -0.086062963028085,51.9347616220324 -0.085509130087666,51.9344450833612 -0.085297333735336,51.9343292693256 -0.084898304551794,51.9341348066374 -0.084164485743664,51.93380903843 -0.083847143972814,51.9336762189993 -0.083498208202573,51.933502341967 -0.082675256085536,51.9330474572129 -0.081850908338698,51.9325609913568 -0.080924699583998,51.9320729480865 -0.080579315253604,51.9318838382625 -0.080252768009383,51.9317283858739 -0.079783092072426,51.9314869035745 -0.079468125530446,51.9313018819019 -0.079105308749217,51.931077513637 -0.078671572805902,51.9308429062987 -0.078280529272916,51.9306674275638 -0.078071774252087,51.9305849101155 -0.077856873397608,51.9305058879172 -0.077443044712234,51.9303866690093 -0.077117307855496,51.9302492003448 -0.076925777759788,51.9301004398311 -0.076677919435804,51.9298778516556 -0.076549679516942,51.9297804666515 -0.076416974829912,51.9296865137031 -0.076123531002391,51.9295064201633 -0.074978271196401,51.9289076840624 -0.074388938035936,51.9285743278349 -0.07361517543123,51.9281651343623 -0.072968057862168,51.9278541988613 -0.072181213500012,51.927515800526 -0.071792701319543,51.927316069546 -0.071325313216604,51.9271240353044 -0.070867623355485,51.926977195565 -0.070482742091073,51.926793702201 -0.070317134001485,51.9267208680536 -0.069805547496842,51.9265083258756 -0.068913244425185,51.9260854719982 -0.068009302247698,51.9256938841201 -0.067505520653804,51.9255039343684 -0.06637516726886,51.9250349014429 -0.065279799286859,51.9246005939 -0.064578843629831,51.9243282817555 -0.06355084254518,51.9238841877535 -0.062663591615183,51.923480247675 -0.062293856652342,51.9233168432701 -0.061540463150584,51.9230490430722 -0.061123041412707,51.9228793661613 -0.059946129018771,51.9223807368855 -0.060141569411741,51.9220638377903 -0.060353460611595,51.9215682261614 -0.060484029723559,51.9213068920879 -0.060521495695038,51.9210773749415 -0.060180179396066,51.9207309543678 -0.059967665651915,51.9204981266303 -0.059865262251023,51.920378584349 -0.059687610492183,51.9201131594018 -0.059513448745253,51.9197334433473 -0.059432699816216,51.9193814263245 -0.059367438700607,51.919173589183 -0.059174675906717,51.9188889460972 -0.058918627936903,51.9185538154339 -0.058384760603787,51.9180521988835 -0.058189879263372,51.9178169618533 -0.057723925573419,51.9172922798516 -0.057653250285999,51.9171768559751 -0.057588287146221,51.9170652112919 -0.057538947784953,51.9169610163623 -0.057496806913099,51.9168595470504 -0.057472110418746,51.9167566580015 -0.057456164711127,51.9166566092314 -0.057457390448105,51.9164920298362 -0.057490559049856,51.9162957036919 -0.057442898575461,51.9161887497267 -0.05733863980245,51.9160764563123 -0.057178149152931,51.9156835679989 -0.057068832445476,51.9154551347098 -0.05706480640528,51.9152122579602 -0.057240738520358,51.9146720083871 -0.057432903767864,51.9144306621999 -0.057955928949716,51.9138008492101 -0.05832623768425,51.9134400020259 -0.058553327102059,51.9131641704483 -0.058592224758814,51.9131044914278 -0.058727409374298,51.9129053532666 -0.058306329130685,51.9127895431618 -0.057632902203091,51.9126930297964 -0.05765239485785,51.9115684780007 -0.057740775954979,51.9113037535537 -0.057737020690379,51.9110878506076 -0.058145352505997,51.911026266408 -0.058481780156996,51.910944617334 -0.058894377052178,51.9108173876195 -0.059019017664647,51.9110991108568 -0.05930046733931,51.911110943105 -0.059401662797869,51.9108212577553 -0.059434346530743,51.9105690984305 -0.05961768825395,51.9100254613122 -0.059785152064497,51.9095803577793 -0.059928041786735,51.909302147237 -0.060051281171127,51.9091405671409 -0.060126823084943,51.9090760980805 -0.060208148621401,51.9090109149966 -0.060641980380506,51.908693448318 -0.060953329479708,51.9084503744415 -0.061173751950984,51.9082616273469 -0.061395597855169,51.9080062908053 -0.061449590488267,51.9078993042015 -0.061538267880669,51.907696610164 -0.061574311328194,51.9076028125872 -0.061578615454237,51.907569622192 -0.061610806649269,51.9074316219942 -0.061677133743607,51.9072078830514 -0.061839027010055,51.9066881620614 -0.06195748595513,51.9064005564264 -0.062289609682878,51.9056767855893 -0.062629586883816,51.905174288565 -0.06286120490825,51.9049280988146 -0.063436739523376,51.904491594708 -0.063670014256233,51.9043739833126 -0.063807642719661,51.9043510766408 -0.064708217771219,51.9043694853082 -0.065117381776889,51.9044877739015 -0.065931454171303,51.9045919502061 -0.06688060771229,51.904729803441 -0.067944849648898,51.9049316574138 -0.0682719444576,51.9049990549417 -0.068434469658195,51.9047337414404 -0.068813643302368,51.9045034476644 -0.069336027789265,51.9042540162093 -0.069395496992672,51.904189277688 -0.069485770823831,51.9037106217172 -0.069501114034865,51.9033889552334 -0.069534334328925,51.9032906138122 -0.069560897032767,51.903246910406 -0.069634264331355,51.9031627131073 -0.069826458465063,51.9029878702124 -0.069980652850188,51.9028159107773 -0.070337470886853,51.9025277106862 -0.070874766203938,51.902133694826 -0.071406860013502,51.9014185705081 -0.07173792498944,51.9009194978013 -0.072361340198928,51.900209461347 -0.072816018902882,51.8997088141854 -0.07299446508429,51.8994428558052 -0.073128957711364,51.8991537041581 -0.073337706992428,51.8987255292061 -0.073252665642703,51.8985730219119 -0.073008361497185,51.8981679934714 -0.072986152286818,51.8980399772807 -0.072954108507458,51.8976347392348 -0.072983889332301,51.8975156646654 -0.073093506311993,51.8972980226731 -0.073123116310383,51.8971492790643 -0.073105814856391,51.897043817469 -0.073143679751764,51.8968393835678 -0.073227327013653,51.8965143394662 -0.073339859516272,51.8962284230392 -0.073378675030238,51.8960689530854 -0.073394785745968,51.8959640385334 -0.073409394125629,51.8957232657117 -0.073385184783314,51.895473856094 -0.073374478475124,51.8954187536733 -0.07328271596808,51.8951853187266 -0.074038400729929,51.895051068278 -0.074498510498909,51.8949965694529 -0.074738377598345,51.8945545180594 -0.07497102529703,51.8942813531261 -0.075267991255213,51.894064975288 -0.075510040238825,51.8938072453372 -0.075792642658171,51.8936914061205 -0.075961231469338,51.8935879952542 -0.076160797452082,51.8934438271206 -0.076221388892686,51.8933522248754 -0.076694720712339,51.8935658243067 -0.076879806498137,51.8936570376297 -0.077058797725416,51.8937534555703 -0.077253109049893,51.8938672024587 -0.077439883418098,51.8939863102314 -0.077768490376245,51.8942218133682 -0.078015493716431,51.8944264065043 -0.078278258116117,51.8946717106356 -0.078730618564855,51.8952428364832 -0.078804168953889,51.8953250336867 -0.078880637559199,51.8954062902384 -0.07915424361432,51.8956364861508 -0.079388144967257,51.8955386307774 -0.07936197360701,51.8954357221593 -0.079287459451366,51.8953760737265 -0.079494843058653,51.8951833941377 -0.07970484424455,51.8949629790775 -0.080033700965017,51.8946446282538 -0.080412697474162,51.8942434012656 -0.080916564391239,51.8938110372863 -0.081266688570283,51.8935415743185 -0.08175815398653,51.8932312635113 -0.08211964941559,51.8929646801627 -0.082461317808003,51.8926204612427 -0.082957342907433,51.8923039279436 -0.083578499726812,51.8919498755775 -0.084457659591068,51.8914740752386 -0.08523557686827,51.8911216666653 -0.085920115401608,51.8908459438663 -0.086154496756357,51.8908713310656 -0.086823403879491,51.8904865746263 -0.087356062938474,51.890194890347 -0.087416131648151,51.8901149602197 -0.087448283169588,51.8900434750108 -0.087471645150005,51.8899701402176 -0.087479952085259,51.8899127413063 -0.08747406984786,51.8898452239519 -0.087457667023682,51.889785625892 -0.087437627784701,51.8897439477399 -0.087396566771262,51.8896865557329 -0.087145048956827,51.8894496358258 -0.086888380791161,51.8892296223946 -0.086646241431876,51.8889073622359 -0.086585395784098,51.8888362534339 -0.086394036061372,51.8887206815135 -0.086195056575,51.8885475413229 -0.085827320777292,51.8883445972706 -0.085601473742445,51.8881863012393 -0.08521654977293,51.8877393660126 -0.084730668159476,51.8873394206539 -0.084449563610878,51.8870803482597 -0.084504864961542,51.8870111299157 -0.084517777511178,51.8869807746818 -0.084522941907359,51.8869269207624 -0.0844997823342,51.886857233589 -0.084349017642378,51.8866776839455 -0.083865745704417,51.8861491356698 -0.083573718767751,51.8858062789969 -0.083521171917021,51.8857092343615 -0.083505988652874,51.8856577458346 -0.083499878207107,51.885528105362 -0.083516061825531,51.8854546543614 -0.083550368016694,51.8853635185812 -0.083593229390833,51.8852797140972 -0.083744841578656,51.8850276864217 -0.083715240567568,51.8848023737903 -0.083653392324335,51.8846169883561 -0.083686022728588,51.8844637969288 -0.083695871307399,51.8843336079462 -0.083483369603447,51.8837267620726 -0.08377899489651,51.8835759654508 -0.083907662142655,51.8834549024042 -0.084016008616086,51.8834341933018 -0.08398263723811,51.8833652380189 -0.08396863772039,51.8832859019224 -0.084414234133426,51.8830566390757 -0.084581550740664,51.8829478907749 -0.084701909689662,51.882886922398 -0.084829527904447,51.8828242745073 -0.085233410399489,51.8826545605138 -0.085292735160754,51.8826258605661 -0.085430278077837,51.8824338316897 -0.085705924682238,51.8821352760942 -0.085893765383166,51.8819549428591 -0.086282336951083,51.8818380150808 -0.085894013400176,51.8815709989794 -0.085410623327197,51.8812520027329 -0.084889910174347,51.8811292708499 -0.08453201366443,51.881071304773 -0.084156375998492,51.8809177590743 -0.083952784809858,51.8808541241986 -0.083433102960233,51.8807045232475 -0.083415643702582,51.8806727750809 -0.083396490395212,51.8806104338552 -0.083391827256519,51.8805482396278 -0.083403201685816,51.8804863965507 -0.08343333221039,51.8804257573005 -0.083499680348145,51.880336042607 -0.083571622344802,51.8802500149739 -0.083732109840775,51.8800988158732 -0.083775137114074,51.8800419825577 -0.083809773085831,51.8799796190386 -0.083908305988413,51.8797132427874 -0.084039841716103,51.8794905530278 -0.084318652247573,51.878911484747 -0.084328245491639,51.8788577028781 -0.08433193333292,51.878804724086 -0.084290312532512,51.8786565263287 -0.084098521936274,51.8783126054871 -0.084011861807116,51.878130502818 -0.083979779398343,51.8775859264816 -0.083952000132255,51.8773516537675 -0.083967686415503,51.8771882974475 -0.083864994292247,51.8771749379596 -0.083847272714315,51.8770451091461 -0.083834166502091,51.8769109492981 -0.08392142369441,51.876532017952 -0.083957140155787,51.876136875021 -0.083951593343276,51.876095432137 -0.083921632377146,51.8760140375672 -0.083897215353177,51.8759740858297 -0.083830640106499,51.8759001852792 -0.083606264194024,51.8757427180467 -0.083463231637338,51.8756217250918 -0.083010060559736,51.8755855756766 -0.08288984043864,51.8755422643731 -0.082820115316684,51.8755086753332 -0.082608740520071,51.8753892645238 -0.082432222321787,51.8753036836608 -0.082086345661609,51.8750318619207 -0.081935267491976,51.8748945544264 -0.081991050363726,51.8747461460029 -0.082095606721361,51.874608510365 -0.082230290765795,51.8743454214325 -0.082492520095253,51.8738856485862 -0.082620803013565,51.8738068324689 -0.082776984997836,51.8735845465933 -0.082973487284655,51.8733351386679 -0.083017256521932,51.8732296841368 -0.0830221443936,51.8731146956035 -0.083120203091561,51.8729606826674 -0.083114686383862,51.8728509190554 -0.083240263788885,51.8726299315085 -0.083399584080406,51.8722998197555 -0.083562050537991,51.8720308882174 -0.083689572233635,51.8717668716705 -0.083936352504991,51.8713598838016 -0.083908468630926,51.8711958178566 -0.083940597076733,51.8708483516172 -0.083924045887906,51.8707248336478 -0.083867786759103,51.8704082900817 -0.083935928893019,51.8701378227153 -0.083872743999132,51.8696431713664 -0.083769619791611,51.8690596808097 -0.083759243750267,51.8688274887846 -0.083567750774033,51.8686157193201 -0.08345305361484,51.868510469946 -0.083331177466767,51.8684051035023 -0.083024244708021,51.8681761710244 -0.082929837599713,51.8675964175212 -0.082878269790049,51.8672035372488 -0.082797302374287,51.8665781555767 -0.08283723375921,51.8660500338115 -0.08291612726246,51.8655603943302 -0.083303303481984,51.8656422159292 -0.084079856902878,51.8657231858945 -0.084120567361367,51.8659630639805 -0.084829190771515,51.8660024693309 -0.084977003905114,51.8660102689787 -0.085017092731759,51.8658868646192 -0.085060667849794,51.8657490430858 -0.085112229824614,51.8654935864939 -0.085144320449051,51.8652172270236 -0.08515540736094,51.8649898795759 -0.085183254986376,51.8648473067805 -0.085214009160653,51.8647039728803 -0.085304117681268,51.8644967898183 -0.084849583117533,51.8644615226697 -0.084029530512404,51.864277367349 -0.083671259978178,51.8641608691151 -0.083325723295625,51.8640914133225 -0.082782523584044,51.8639531119033 -0.082580737364545,51.864361639313 -0.082641338274699,51.8644714025308 -0.08235994157912,51.8646341141298 -0.082129499286196,51.8644855340672 -0.08208136566536,51.8645585541293 -0.082073873258416,51.8646672075552 -0.082060889531329,51.8646993580744 -0.082026607184817,51.8647536365831 -0.082000846420528,51.8647792869235 -0.081466711916412,51.8649064110413 -0.080708000927828,51.8650567488903 -0.080149649468945,51.8649676311312 -0.079446648772879,51.8646953666289 -0.079405173277064,51.8646794072275 -0.078594565034076,51.8644791855888 -0.078368138831358,51.8644727906319 -0.078151298965244,51.8644493820371 -0.078071477944681,51.864448078082 -0.077949105236577,51.8644560566978 -0.077827987451045,51.8644711586681 -0.077650509095582,51.8645105098082 -0.077562122377289,51.8645387318771 -0.077477973980887,51.8645715174668 -0.077435007612564,51.8645905928852 -0.077248412653339,51.8647089037643 -0.076514745453513,51.8650215285086 -0.075867611365404,51.8651413862286 -0.075627202989487,51.8651931907883 -0.0755214244973,51.8652220251868 -0.075443093482608,51.8652531069459 -0.075352463593811,51.8653001681116 -0.075236027868956,51.8653738665058 -0.074699973055705,51.8655790497403 -0.073292395430624,51.8658212924499 -0.072519431350239,51.8658949317343 -0.072286394550502,51.8658749320199 -0.072270198124546,51.8659484723753 -0.071442620696412,51.8659744634817 -0.070598646677472,51.8659750096409 -0.069788471087421,51.8659329531047 -0.068754464027478,51.8658601573971 -0.068772884575269,51.8658047239411 -0.068231227597169,51.8657679633452 -0.068204035030905,51.8658268486862 -0.067835108439829,51.8657920231051 -0.066193847931695,51.8657210071224 -0.065811047262486,51.8657416838776 -0.06552403942809,51.8656929154379 -0.06490222687204,51.8656961741076 -0.064475580204878,51.8656864580286 -0.064441630654341,51.8656319620729 -0.064327069196427,51.8656615411644 -0.064224529999373,51.8656481667697 -0.064095395993431,51.8656433451338 -0.063919573102328,51.8656800069868 -0.063810128914355,51.865690791424 -0.063689696097099,51.865689707652 -0.063477087111236,51.8656682290633 -0.063220058243873,51.8656325340232 -0.063035634596039,51.8655989330564 -0.062897370560956,51.8655696869532 -0.062692245441442,51.8655105734255 -0.062585347862217,51.8654620667671 -0.062306673730736,51.8653225419128 -0.062142623528524,51.865252416676 -0.061745459574345,51.8651001515336 -0.061610023054605,51.8650385882017 -0.061358917845389,51.8649014027721 -0.061060042237681,51.8646887252967 -0.060597865652549,51.864594806549 -0.060432029153085,51.8646693836653 -0.060152440668852,51.8647853261055 -0.058954126640494,51.864652200956 -0.057542506596788,51.8644446125484 -0.057052901874629,51.8643816009846 -0.056747006405364,51.8643351958499 -0.056684297525106,51.8642730296141 -0.056659714477514,51.8642348667638 -0.056636641524478,51.8641311041107 -0.056615247315976,51.8640884096624 -0.05657373841873,51.864040078384 -0.056526370253769,51.8639943470803 -0.056388803906817,51.8638824001089 -0.056127347812274,51.8636802169001 -0.055974757668785,51.8635473452373 -0.055851527148426,51.863475188846 -0.055600297280605,51.8633720606222 -0.055169900888169,51.863249877522 -0.05484944827506,51.8631358044114 -0.054555406069507,51.8630508435458 -0.054421467470151,51.8630243565993 -0.054084797494792,51.8629837283101 -0.053897400502043,51.8629500637115 -0.053707440121002,51.8629091643764 -0.053606889984034,51.8628832288682 -0.053521054236399,51.8628548390467 -0.05342811067239,51.8628191404251 -0.053234737976027,51.8627241555227 -0.053056422586455,51.8626160254818 -0.052878418586575,51.8624646591213 -0.052567914055766,51.862256352352 -0.052478816749152,51.8621343250562 -0.052277518928292,51.8619511980489 -0.052100102696602,51.8618556670042 -0.051526982309111,51.8615062747754 -0.051319020283742,51.8613445209634 -0.051176081062587,51.86129091241 -0.050786361238211,51.8612008508798 -0.050405963644576,51.861130631154 -0.050037288774645,51.8610247342565 -0.049539652845115,51.8610821104036 -0.048671087316088,51.8611162506552 -0.047718623086693,51.8611769510496 -0.04720068100469,51.861197121828 -0.045976455392786,51.8614303936331 -0.045181698761287,51.8616041758655 -0.044738504693647,51.8617092727566 -0.044447689341113,51.861785346198 -0.043965676481841,51.861882512047 -0.042659837637229,51.8621854118579 -0.042292259047133,51.8622889700446 -0.042133428964754,51.86233406243 -0.041717950996684,51.8624044583788 -0.040860227242689,51.8625907381791 -0.04085867139179,51.862590712269 -0.040236524337769,51.8627376700804 -0.039720911348389,51.862838754143 -0.038761798532281,51.8630511981744 -0.038356860141115,51.863143333242 -0.037433329644135,51.8633716422328 -0.036431645646661,51.8635959419041 -0.036190816906033,51.8637555351714 -0.035958012869876,51.8639315334954 -0.035755007404361,51.8640584948016 -0.035675944991013,51.864105809576 -0.035007251229353,51.8644516242093 -0.034878875158219,51.864531286489 -0.034836818577316,51.8645620480522 -0.034610487623689,51.8647570303771 -0.034259667424878,51.8650083651486 -0.034173766057732,51.8650806451089 -0.034021166702797,51.8652489003433 -0.033843271203254,51.8654644673684 -0.033524093074332,51.8657891457522 -0.033486840334075,51.8658442600578 -0.033428194028474,51.8659890027183 -0.033385352896466,51.866040427555 -0.033225381823906,51.8661770935717 -0.033058330220074,51.8663442966542 -0.032971537041048,51.8664039761078 -0.032858494175136,51.8664641149212 -0.032471178583995,51.8666510068189 -0.032401123735199,51.8666920873436 -0.032277542671937,51.8667960990535 -0.032173201737345,51.8669229968404 -0.031974732145216,51.8672775580932 -0.031759185682448,51.8675239571842 -0.031209684309015,51.8680650244446 -0.031116349242785,51.8681399645274 -0.031053888702083,51.8682072409501 -0.03101348528994,51.8682685945768 -0.030933328905748,51.8684723081581 -0.030839969008987,51.8686163795435 -0.030505672576119,51.8689515849095 -0.030370099777864,51.8690968367437 -0.030227713216125,51.8695296453333 -0.030042873964096,51.8697361008417 -0.030000762145083,51.8698693432598 -0.029906008020811,51.86997662193 -0.029804994500127,51.8700270704563 -0.02957169426692,51.8700815971272 -0.029436148204606,51.8701575374646 -0.02894556205001,51.8705467550207 -0.028775306320154,51.8706878288481 -0.028539926524775,51.8709213032571 -0.028362848328522,51.8711170091123 -0.028238696150089,51.8712993075549 -0.027960730751986,51.8715752184671 -0.027501459011183,51.8719460764989 -0.027126042484728,51.8722590077115 -0.026910498983749,51.8724712362858 -0.026742040217534,51.872568196818 -0.026327297026348,51.8728516986404 -0.026171628520408,51.8729902258298 -0.02603161993862,51.8732333865214 -0.025776238514032,51.8734934895832 -0.024791172421535,51.8740920331824 -0.024243363835945,51.8745576727965 -0.023366717239436,51.8753351223379 -0.022468135573708,51.8761122875309 -0.021757411569205,51.8768799291296 -0.021546874142469,51.8771434738742 -0.021441408265149,51.8773602402778 -0.020963324248167,51.8777613224114 -0.020843015509422,51.8779859298901 -0.020344294830337,51.8785565683377 -0.020067030442142,51.8787488675439 -0.019718585898749,51.8790397547712 -0.019351817348918,51.8793195444487 -0.019231240339029,51.8794190979308 -0.01929880578347,51.8795335959244 -0.01896445621432,51.8796043798569 -0.01888273085219,51.879678517552 -0.01871248568379,51.8798150809884 -0.018522516594678,51.8800051615121 -0.018330867563942,51.8802006969431 -0.017935900944887,51.8806256404984 -0.017943823642308,51.880775093822 -0.017921952627368,51.8809428328707 -0.017938998928267,51.8811490751876 -0.017915187165937,51.8812628430176 -0.017893423083774,51.8815915909914 -0.017897321584456,51.8819333559732 -0.017847503602612,51.8821726318385 -0.017772377868963,51.8823935030297 -0.017741226382531,51.8826060345776 -0.01764364017255,51.8829425837026 -0.017580957576065,51.8832454700353 -0.017545174414241,51.8833644305548 -0.017505081558466,51.8834833184505 -0.017400915743155,51.8837378609435 -0.017297804785561,51.8840337731331 -0.017119375312852,51.8844894222265 -0.016974004288753,51.8847872288367 -0.016899928439757,51.8850521668419 -0.016802570108047,51.8852825506463 -0.01679124652821,51.885308429366 -0.01663201636948,51.8863839732628 -0.016629976683996,51.8865637335613 -0.016601752964213,51.8868402313513 -0.016615435866957,51.8873215920836 -0.016638284448541,51.8874640141132 -0.016673417303562,51.8875886648922 -0.016640723144105,51.8876727070421 -0.016629453594443,51.8878280397305 -0.016558347815284,51.8880579665458 -0.016527990180808,51.8881869070069 -0.016503216434507,51.8883196266257 -0.016477299759468,51.8885790832493 -0.016442339947267,51.8886791788566 -0.016349729886092,51.8889348134903 -0.016211903552279,51.8893928531442 -0.016089430350645,51.8896327017 -0.015977070382195,51.8898061066372 -0.015875780275832,51.889929446493 -0.015766887735201,51.8900921216433 -0.015715798195133,51.8901965302098 -0.015658659863293,51.890337603538 -0.015627767274967,51.8904459486703 -0.015570703236199,51.890783988579 -0.015535844474696,51.8909497104577 -0.015497790568267,51.8911199636082 -0.015400698365257,51.8914771050915 -0.015367586319293,51.8917337423554 -0.015380900112082,51.8918939847192 -0.015397082672922,51.8920543644837 -0.015439795971581,51.8922735345786 -0.015501675588239,51.8923187177224 -0.01553321625553,51.8928569247778 -0.015336932013671,51.8933221586344 -0.015273052869863,51.8933849076221 -0.015049351338522,51.8938766482305 -0.015096560447393,51.8941597215034 -0.015110066414024,51.8943128640904 -0.015119384921399,51.8944658461171 -0.015111771418525,51.8946060477546 -0.015098451139668,51.8947424662909 -0.015065167916247,51.894872346111 -0.014945964738366,51.8952686694223 -0.014905332345501,51.895497311606 -0.014912875206395,51.8958211584904 -0.015004848682183,51.8960429580434 -0.014987816493183,51.8962962703022 -0.014984127538892,51.8965785748517 -0.014963191527385,51.8968551948849 -0.014986789809548,51.8969805497502 -0.014978687211968,51.8970991669908 -0.014967555437093,51.897218542437 -0.014931683997066,51.8973744489549 -0.014816333870032,51.8975172366078 -0.014690468530396,51.8977354511807 -0.014650301866961,51.8978201759559 -0.014611652492852,51.8979058255443 -0.014545012293859,51.8981996535325 -0.014474152844064,51.8984205934676 -0.014360245274678,51.8985985558476 -0.014392347332816,51.8987267510769 -0.014417952467491,51.8990023586763 -0.014431960406451,51.8994431800241 -0.014320566636618,51.8996292751228 -0.01429320293121,51.8996899438274 -0.014253442388364,51.8998007457319 -0.014239486295754,51.8998536393335 -0.014221850108248,51.8999899848551 -0.014205338597878,51.9000355542794 -0.01416852031173,51.9001122441224 -0.013973847106937,51.9004066078875 -0.01395354542357,51.9004701824012 -0.013934804928423,51.9005336933392 -0.013922837846876,51.9006719320485 -0.013909475335426,51.9009423867977 -0.013909720016443,51.9010700453546 -0.013957427162524,51.9013064707467 -0.014006167990635,51.9018810161008 -0.015284991417942,51.9019583266378 -0.015195814765357,51.9025296469277 -0.015125509374752,51.9030698214293 -0.014717340749096,51.9030952986877 -0.014228946235826,51.9030618873296 -0.013354100899479,51.9030534146937 -0.012954280182133,51.9030880172433 -0.012894101920251,51.9033001469305 -0.012867716796906,51.9034363453875 -0.012844166705148,51.9035734900371 -0.012849232354843,51.9036896326276 -0.012889813381617,51.9041201155144 -0.012927167779959,51.9041971590332 -0.013477045903867,51.905046350771 -0.013923195166919,51.9057094097887 -0.014060007409759,51.9056730625982 -0.014160026792966,51.9058105849989 -0.014283447373634,51.9059475130125 -0.014370749009861,51.9060119139705 -0.014644862968592,51.90619192752 -0.014964217219441,51.9063654224601 -0.015215336433158,51.9065396532158 -0.015413268009104,51.9068001863617 -0.015504343961392,51.9069095979669 -0.015635906832428,51.9070250866384 -0.015829227919896,51.9072244118413 -0.012692097326664,51.9075473375143 -0.011990786791735,51.9075921278961 -0.010219936303312,51.907792427126 -0.008224283242498,51.9080095712848 -0.007700162394574,51.9080591324022 -0.00685247497009,51.9081607469931 -0.006596818822191,51.9081870715879 -0.006344357970362,51.9082088645942 -0.005845858358253,51.9082049139989 -0.00548689920094,51.9081358131051 -0.005203395093786,51.9080357168015 -0.004996800827634,51.9079746812953 -0.003883663341571,51.9080286230614 -0.003867573137418,51.9080292484779 -0.002425219100627,51.9079679175728 -0.001575955497395,51.907937317689 0.000113569371998,51.9078438905447 0.001726027863298,51.9077805162598 0.002750157030935,51.9077280324787 0.00325562778781,51.9076869772165 0.003732990199889,51.9075988417053 0.004330528033007,51.9074691031852 0.005016806933189,51.9072406709253 0.005676777641624,51.9070757009906 0.007120548349521,51.9067516385326 0.008156674889948,51.9065468871346 0.008472072847927,51.9064480118967 0.008617871967227,51.9063924842481 0.009995885709082,51.9060946797618 0.011287195891535,51.9057749680439 0.012094162677809,51.9057782538292 0.01308916976509,51.9057594401004 0.012988577365088,51.9061100523773 0.014395289743213,51.9062937351915 0.014543069718075,51.9063469416973 0.015105731024196,51.9064433873375 0.014938280106384,51.9067969445748 0.014752094293872,51.9072488995735 0.014422430438362,51.907907377101 0.014140267199096,51.908553354252 0.013951280924161,51.909334379654 0.01370040362903,51.9101282408733 0.013338120052969,51.9109697646493 0.013062513149726,51.9115032552623 0.012753358651119,51.9119059782651 0.012558284742534,51.912160217419 0.011974661065426,51.9128302218809 0.011419987883803,51.9134026395859 0.010647594217258,51.9140129351129 0.009180235787575,51.9149228520257 0.008066844341222,51.9156495246325 0.007360263216452,51.9160437305533 0.006820509685185,51.9163640692711 0.006305230937324,51.9167118562364 0.006526223844923,51.9169383156314 0.006627834721751,51.9170633385322 0.006722061723658,51.9171894754963 0.006833710951228,51.9174106065765 0.006812325171331,51.9175817761001 0.006818379572303,51.9177498699738 0.006930583377093,51.918244278739 0.007161585298532,51.9185982198695 0.007384252392397,51.9189937454504 0.007447969431921,51.9191185147198 0.007560476834338,51.9194232344322 0.007766734099229,51.9198108589115 0.007820191023948,51.9199313976827 0.007879954137767,51.9200346589815 0.007954452677879,51.9201376688613 0.008487757993996,51.9206501524031 0.008833895232361,51.9210416798507 0.008926880449704,51.921300884301 0.009040992196891,51.9215444456771 0.009061371099483,51.9216088242793 0.009076842655948,51.9216948609304 0.009080895888888,51.9217856776502 0.009073282173278,51.9218757052661 0.009038597581251,51.9220120412159 0.009054719352416,51.9221449039707 0.009072516466073,51.9222830417725 0.009109134549609,51.9224533105507 0.00915174070554,51.922623388075 0.00920077829621,51.9227790616631 0.0092557238431,51.9229327468956 0.009525558679919,51.92330948407 0.009579132186018,51.9233705981519 0.009606140924803,51.9234195801761 0.009626201849692,51.9234794688612 0.009629565617561,51.9235225617914 0.009617953825378,51.9235874864931 0.009591287705513,51.9236428684371 0.009526882769096,51.9237635312149 0.009465669451207,51.923858968271 0.009410723290005,51.9239309246637 0.009081962512,51.9243511420778 0.008828736302534,51.9246099627554 0.008733623371727,51.9247922795562 0.00873337284222,51.9249505928971 0.008798255735274,51.925262416869 0.008826355118802,51.9255991414754 0.008788681075988,51.9257975579634 0.008714256059681,51.9259544395176 0.008550445007266,51.9261613911881 0.008350419559143,51.9267312459476 0.008152068134077,51.9270457638759 0.007943885707771,51.9275969676004 0.008032599713818,51.9280532105264 0.008056763688516,51.928301812402 0.007971234045668,51.9285029332765 0.007896290146478,51.9287128621802 0.007771106488499,51.9290063544311 0.0076636118894,51.9293012515488 0.007463882449245,51.9295852268372 0.007118145801452,51.930150461816 0.00700182437867,51.9304761642853 0.006889571817825,51.9307640404929 0.006883540282478,51.9310537016302 0.006950931480909,51.9313250301141 0.007017206525908,51.9318994206667 0.007322575261911,51.9318969104205 0.007910943405194,51.931912046725 0.008449092802292,51.9319091585815 0.008469253689075,51.9322963607979 0.008097334549036,51.9323395636313 0.00797165639445,51.9323587874784 0.007829502246675,51.9324979460657 0.007768007801933,51.9326841826667 0.007814821023521,51.9328866409467 0.007827446965523,51.9331373278796 0.007813560348891,51.9332481381766 0.007758597918201,51.9335512194679 0.007602114175032,51.9335628779716 0.007337288739631,51.9335952622052 0.007074928268771,51.9335511920202 0.007067898568848,51.9335576046686 0.00704313713244,51.9336209547449 0.006957775972181,51.9339901784586 0.006934656235532,51.9340580847345 0.006910256104671,51.9341322165953 0.006611703698084,51.9350059792653 0.006517126543048,51.9352332323922 0.006353792722086,51.9357450124089 0.006218912102058,51.9360476571651 0.005753776662433,51.9359593933274 0.005198222628863,51.9358339229682 0.004515663367569,51.9356630572222 0.003427346120706,51.9353659572861 0.002620067796412,51.9351737396688 0.001796255689375,51.9350006769449 0.000954194760032,51.9348432909376 0.000070509451609,51.9346316787857 -0.00069643316009,51.9344612275214 -0.001118270759119,51.9343317487039 -0.00153307617491,51.9341634031803 -0.002125823022526,51.9340826683527 -0.002897907926983,51.9340256509706 -0.003237441842624,51.9339451095854 -0.003920144598278,51.9337723101806 -0.004264627661259,51.933680163452 -0.004979791340827,51.9334296982251 -0.006030394018135,51.9330959131911 -0.006880269028702,51.9327254580081 -0.007597046744544,51.9325055690511 -0.008323236435667,51.9334494573921 -0.008882834858403,51.9340847852604 -0.009471176636069,51.9347295860263 -0.010056149241009,51.9354156793554 -0.010491065778214,51.9359095513187 -0.010750139359108,51.9361377725216 -0.010858742224077,51.936182757872 -0.011096400602286,51.9362686694323 -0.011262779180777,51.9363227217672 -0.011471587513034,51.9363720961722 -0.011589894279714,51.9363929729126 -0.011834533533061,51.9364213768248 -0.013474802278354,51.9365362689356 -0.014828595067802,51.9367174143567 -0.016224639339036,51.9370260106598 -0.017265699849004,51.937303441631 -0.021248248933942,51.9383793649873 -0.022107634658885,51.9386213373037 -0.023489462692646,51.9391246861206 -0.024064714234028,51.9393771551319 -0.024638336108235,51.9396313915578 -0.02561436635759,51.9401683582453 -0.026517337203077,51.9407769983696 -0.026944050289585,51.9411321424204 -0.027310615852414,51.9415322128485 -0.028032181247002,51.9425604038975 -0.028200007003405,51.9428473769498 -0.028475250906354,51.9436387596262 -0.029042151164863,51.9455725706383 -0.029257617653457,51.9465320441548 -0.029495241128714,51.9477140208961 -0.029613156810322,51.9485756708065 -0.029727228092639,51.949757376852 -0.029718687826816,51.9502499542442 -0.029722777681807,51.9509522899839 -0.02978878308116,51.9514057511538 -0.029874581121618,51.9520042760384 -0.029984020345215,51.9524934334653 -0.030049104344994,51.9530008166797 -0.03006244661523,51.9533939752138 -0.030108109327481,51.9543083515702 -0.030132557354101,51.9543136685457 -0.030164799794742,51.9546318553963 -0.030210978512624,51.9552045297791 -0.030242565577758,51.9555492783456 -0.030255126371274,51.9556862143641 -0.030260974917462,51.9557499317797 -0.030282834002866,51.9559880503242 -0.030332337500242,51.9564187039653 -0.030336963156049,51.9564486083585 -0.03035955196082,51.9565945064448 -0.030384212629379,51.9568208740872 -0.030410388011044,51.9570611509553 -0.030449599333865,51.9574610589419 -0.030506761176094,51.9580304753754 -0.030340217040066,51.9580298717212 -0.030293857369205,51.9580249597518 -0.030235602126598,51.9580257835764 -0.030118268324544,51.9580130299044 -0.03011099628203,51.9580129082341 -0.030103803127137,51.9580109894509 -0.030095116120548,51.9580099448892 -0.030073536661277,51.9580041885353 -0.030059229247539,51.9579985538514 -0.029999051368552,51.9579768649841 -0.029917806952382,51.9579377384746 -0.029873746025851,51.9579136215764 -0.029866671242457,51.9579090071105 -0.029838174878768,51.9578950420237 -0.029825282484851,51.9578903302057 -0.029783657061902,51.9578770446233 -0.029747296967302,51.9578764361656 -0.029738531093893,51.9578771886902 -0.029731180172943,51.9578788641089 -0.029722414298806,51.9578796166323 -0.029713608973,51.957881267711 -0.029620876840804,51.9579048938894 -0.029325582122654,51.9579673928513 -0.028988813317284,51.9580462818807 -0.029004247633478,51.9581256712942 -0.029017647240366,51.9581519728834 -0.029018904323924,51.9581564900089 -0.02902243878215,51.958175432719 -0.029025933777546,51.9581952739846 -0.02902871839512,51.9582312892504 -0.029027865937439,51.9582506980508 -0.028825996243273,51.9582737554438 -0.028764437129051,51.9582835153893 -0.028696941906474,51.9582958735617 -0.028475114349608,51.9583425153447 -0.028305434776306,51.9583815773901 -0.02820603425141,51.9584045512538 -0.028058854958184,51.958441651802 -0.02796026365182,51.958466077758 -0.027841112883521,51.9584946553329 -0.02767789485544,51.9585323859636 -0.027586654259073,51.958555136313 -0.027544120506257,51.958562516697 -0.027464304430438,51.9585797267422 -0.028213947289964,51.9596602408688 -0.028383257913604,51.9599804987362 -0.028659370326356,51.9604212968843 -0.028737103954751,51.9608047464122 -0.028679262408989,51.9614278349622 -0.028635174122771,51.9623308207142 -0.028479678336546,51.963319138856 -0.028482782176507,51.9637786488166 -0.028383130886956,51.9644244102744 -0.028290762382681,51.9652348923173 -0.028254695716032,51.9658565474529 -0.028264008977563,51.9663413320881 -0.028181880281142,51.9668858040486 -0.028564922438199,51.9668823290917 -0.029556178878906,51.9668836388829 -0.030381894657394,51.9669100390032 -0.031330462366551,51.9669241044002 -0.031616860482759,51.9668992263429 -0.031647721143949,51.9668934495175 -0.031768628140725,51.966657157056 -0.031870226821754,51.9663657049256 -0.032233584713001,51.9663457085851 -0.032920860406077,51.9662771843218 -0.033789328702317,51.9662233688941 -0.034013781746871,51.9665822946702 -0.034026697619234,51.9665861062747 -0.034163391260914,51.9665919835113 -0.034769132537256,51.966554450821 -0.03524248613531,51.9665497646008 -0.035643396955496,51.9666014005793 -0.036046685362803,51.9665685738942 -0.036331395505039,51.9664806392731 -0.036332954925538,51.9664806652785 -0.036684797306327,51.9666223647699 -0.036966294944085,51.9666765003187 -0.037108001325667,51.9665979567366 -0.037214511385802,51.9663937816174 -0.037416233680495,51.9662739866869 -0.037448518799304,51.9663014931094 -0.037641856924596,51.9665079700093 -0.037959965751382,51.9668585600462 -0.038363514388841,51.9668500013296 -0.038603218286252,51.9668278343947 -0.038833795881767,51.9669486293267 -0.039130349980869,51.9671252684097 -0.039303611284673,51.9672585927116 -0.039715852474623,51.9674524389449 -0.039887961579877,51.9675434917917 -0.040004155647078,51.9676506034524 -0.040189789752764,51.9677013380773 -0.040304252764067,51.9677463936928 -0.040608874812776,51.96780450133 -0.041415646376666,51.9677648847414 -0.041788931979208,51.9677513156795 -0.042104633165115,51.9677233033639 -0.042176123744629,51.967685837492 -0.042240415906488,51.967645554253 -0.04226983968958,51.9675075140586 -0.042374605312774,51.9674391368705 -0.042580303559278,51.9673958107324 -0.042889791397851,51.9671770253976 -0.043511073249866,51.9666838443538 -0.044314129873474,51.9660596453069 -0.044947801725874,51.9655485938627 -0.045560836408955,51.9650425900063 -0.045914858995966,51.9647706887958 -0.046149509703382,51.9646630217647 -0.046320839579555,51.9646065335734 -0.046588194709786,51.9645498397544 -0.047041176960428,51.9643783715756 -0.047566417030645,51.9641487688497 -0.048167792961452,51.9639097279333 -0.048236887724566,51.9637615571483 -0.048348998562878,51.9636591363802 -0.048519819334706,51.9635810617708 -0.048590919030315,51.9635192232629 -0.048682091292358,51.9634649991786 -0.049449185497423,51.9630964615006 -0.049639298292132,51.963043875627 -0.050376000194262,51.9629049613703 -0.050468641706213,51.9628831220106 -0.050628018812679,51.9628003606404 -0.050863535973659,51.9627413325786 -0.051145788776869,51.9626092729069 -0.051589909629447,51.9623369577124 -0.051883521132465,51.9621449450798 -0.052360664708428,51.9618830622905 -0.053158067350355,51.9613539994053 -0.053406178718121,51.9612367429602 -0.053496251389768,51.9611744059536 -0.053583485712817,51.961108336985 -0.054024276394112,51.960746061854 -0.05413582319034,51.9606921703867 -0.054333748799938,51.9604562291166 -0.054481674100277,51.9603355173105 -0.054552017060474,51.9602908323545 -0.054737598805869,51.9602067001296 -0.054935906763468,51.9600975171712 -0.055088576289678,51.9599004706036 -0.055153748045939,51.959772906678 -0.055272993977268,51.9596409323104 -0.055602756813433,51.9594862746203 -0.055812767179712,51.9593090521109 -0.055912213139273,51.9591991342551 -0.056120236986103,51.959067725652 -0.056281186055562,51.9589120764129 -0.056451899609981,51.9587692634523 -0.05674594112053,51.9585663691538 -0.057024920702758,51.9584424227851 -0.05722029633269,51.9584006987283 -0.057555650718014,51.9582856816042 -0.057876838486492,51.9581624295684 -0.058196588511825,51.9580390630331 -0.058514774775178,51.9578824988239 -0.058824635478229,51.957751865556 -0.059126645995412,51.9577028170579 -0.059257554864037,51.9577031774155 -0.059626517124297,51.9577209447061 -0.060141870324407,51.9577168513085 -0.061861406862122,51.9577361800068 -0.062317120575618,51.9577319936431 -0.062635153745019,51.9577147540806 -0.062735831909752,51.9576759569325 -0.063002921064538,51.9574905825766 -0.06330144010346,51.9573192982135 -0.063640812424742,51.9571773617373 -0.0640796559931,51.957057825368 -0.064501232403506,51.9569685686139 -0.06515584711192,51.9569433693338 -0.065367281110905,51.956901806706 -0.065539997620923,51.9568453137192 -0.065614198743527,51.9569446079736 -0.065705682316899,51.9572554413459 -0.065963623873445,51.9577191340894 -0.066119911064675,51.9579770932721 -0.06624346900768,51.9581508233425 -0.066439917144169,51.9584543895967 -0.066655702213359,51.9587492835993 -0.066940585948886,51.9593681268741 -0.067005865956091,51.9595409884136 -0.067077877555572,51.9596940941465 -0.067131916955145,51.9598604783904 -0.067140601120146,51.9600628859067 -0.067150930760687,51.9601602323235 -0.067200776349344,51.960354325204 -0.067407147984774,51.960904456373 -0.067445985756877,51.9611173372943 -0.067483086201181,51.961203346087 -0.067657818725682,51.9617080103596 -0.067642961409861,51.9618830622874 -0.067647839645789,51.9619397764419 -0.067662793057669,51.9619994425967 -0.06768483010249,51.9620618318109 -0.067762332742726,51.9622213198213 -0.067887031465608,51.9625362914417 -0.06796083328494,51.9626814247206 -0.068039442308892,51.9628849794089 -0.068122365452753,51.9632253351836 -0.068233492385519,51.9635517707233 -0.068279991436196,51.963723424045 -0.068386386013863,51.9642602266292 -0.068443356430869,51.9644256699202 -0.06848376064226,51.9644991471557 -0.068607545641984,51.9647017347683 -0.068857874443897,51.9650762989267 -0.069087929676008,51.9654451365875 -0.06936453516139,51.965850784514 -0.069511227973716,51.9661292578168 -0.069599889552193,51.9663365710694</coordinates></LinearRing></outerBoundaryIs></Polygon>
  </Placemark>
