  <Placemark>
	<Style><LineStyle><color>ff0000ff</color></LineStyle><PolyStyle><fill>0</fill></PolyStyle></Style>
	<ExtendedData><SchemaData schemaUrl="#Wards__December_2019__Boundaries_EW_BFE">
		<SimpleData name="objectid">722</SimpleData>
		<SimpleData name="wd19cd">E05000941</SimpleData>
		<SimpleData name="wd19nm">Kew</SimpleData>
		<SimpleData name="wd19nmw"></SimpleData>
		<SimpleData name="bng_e">334808</SimpleData>
		<SimpleData name="bng_n">415639</SimpleData>
		<SimpleData name="long">-2.98735</SimpleData>
		<SimpleData name="lat">53.633209</SimpleData>
		<SimpleData name="st_areashape">4057560.37230039</SimpleData>
		<SimpleData name="st_lengthshape">8410.52768116849</SimpleData>
	</SchemaData></ExtendedData>
      <Polygon><outerBoundaryIs><LinearRing><coordinates>-2.99733351114873,53.6268856831321 -2.99694107115208,53.6270399210904 -2.99594688241676,53.6273969539193 -2.99372060335681,53.6282712148922 -2.99338948219511,53.6280806786769 -2.99250581852173,53.6276035835747 -2.99310331188609,53.627420609568 -2.99292316825772,53.6272828228319 -2.99246026072215,53.6270807981713 -2.99179822124403,53.6268345948924 -2.99155529223664,53.626725183412 -2.99121663198225,53.6266641919899 -2.99064265220651,53.6263660317927 -2.99036265834594,53.6262280807662 -2.99008131678344,53.6260911280923 -2.98883680124568,53.6255063773166 -2.98831481536421,53.6252338355519 -2.98779024150599,53.6249783864646 -2.98714385265239,53.6246844021567 -2.98656674188249,53.6244474431695 -2.98577485819903,53.6240718917598 -2.98495649922128,53.6236669890008 -2.98422289671284,53.623330575239 -2.98182313089385,53.6222051359481 -2.98018291261071,53.6231948346521 -2.97795555476757,53.6246197440411 -2.97521218991159,53.6263589268743 -2.97327012913744,53.6275837269361 -2.97194150485239,53.6283918616469 -2.97112541834774,53.6289414260458 -2.97012416344502,53.6295886379553 -2.96976349546552,53.6298180097969 -2.96830947807445,53.6307044003422 -2.9677687350303,53.6310638135083 -2.96913832965376,53.6324927186472 -2.96926431296675,53.6326471547864 -2.96946745282591,53.6328657535388 -2.96951666746741,53.6329021966077 -2.96965201145356,53.6330026405252 -2.97017819750634,53.6332581552438 -2.97029553966376,53.6336932014709 -2.97031990782233,53.6338313875444 -2.9703330630328,53.6339481883217 -2.97031159612949,53.6344579557097 -2.97033648172578,53.6347543806632 -2.97039075435498,53.6350110283157 -2.9704679137498,53.6352108785856 -2.97053570423399,53.6353936421609 -2.97067034831515,53.6356586230035 -2.97137891127322,53.6366155340584 -2.97225150699579,53.6378605439511 -2.97257322487389,53.6383694077274 -2.97282029561492,53.6387880301059 -2.97287978011043,53.6388747096162 -2.97309112621743,53.6391875880667 -2.97325734486992,53.6394415263125 -2.9732887402115,53.6394888964424 -2.97346610552146,53.6394416235035 -2.97363474248574,53.6394105971354 -2.97371023958311,53.6394018944058 -2.97374197050253,53.6394043316326 -2.9738530619591,53.6394303851734 -2.97457340938559,53.639578265041 -2.97535751515381,53.6397381109177 -2.97542895853524,53.6397537029106 -2.9755000909085,53.6397558182014 -2.97554397878242,53.6397554600992 -2.97558462703964,53.6397497370969 -2.97564179418882,53.6397357914017 -2.97568549687228,53.6397273468807 -2.97571685632646,53.6397136126581 -2.97577313143843,53.6396610342923 -2.97586205492702,53.6395803339651 -2.97590502923839,53.6395403545597 -2.97593387294996,53.6395473081392 -2.97604347006103,53.6395788530562 -2.97611046663724,53.6395962777526 -2.97621549064156,53.6396241754513 -2.97631748057286,53.6396503001291 -2.97635085420827,53.6396590134236 -2.9764223808446,53.6396781986575 -2.97651832488399,53.6397016768817 -2.97655949134683,53.6396537158104 -2.97657634522451,53.6396598683171 -2.97660076159091,53.6396695526614 -2.97661599437636,53.6396757184044 -2.97663120490783,53.6396809863731 -2.97663583945129,53.6396818464687 -2.9766570768874,53.6396888620085 -2.9766723714077,53.63969233158 -2.97671644664644,53.6397054507158 -2.97672411542638,53.6397080837258 -2.9767499651788,53.6397150615686 -2.97676515646266,53.6397194299259 -2.9767865194538,53.639726444417 -2.97680783939826,53.6397316615502 -2.97681847862223,53.6397333723308 -2.97682298917264,53.6397342334322 -2.97683366991973,53.6397377406793 -2.97684730184266,53.6397394270055 -2.97685644545725,53.6397411491039 -2.97686257562478,53.6397419978693 -2.97691109863663,53.6397478915664 -2.97695247203935,53.6397736121399 -2.97695398991874,53.6397744985896 -2.97696616628023,53.6397779936036 -2.97704390663574,53.6398016201589 -2.97705307104774,53.6398042409253 -2.9770727922433,53.6398103699298 -2.97708043879629,53.6398121051446 -2.97716422699854,53.639838377856 -2.97718405147086,53.6398436080441 -2.97725262970776,53.6398647035747 -2.97729217544038,53.6398760618174 -2.97737143253803,53.6399005746157 -2.97740031828069,53.6399093243069 -2.97750540624397,53.6399399160158 -2.9775145707144,53.6399425367466 -2.97761500497138,53.6399713696018 -2.97763485032927,53.6399774974989 -2.97772925774055,53.6400045818348 -2.97776579022477,53.6400150657108 -2.97783430459163,53.6400333758866 -2.97788602868544,53.6400482297413 -2.97788752428803,53.6400482175085 -2.97794084720919,53.6400621585106 -2.97798336525423,53.6400725942593 -2.97805803082659,53.6400926507977 -2.97808839164789,53.6401004894035 -2.9781583826301,53.6401178893604 -2.97819636934276,53.6401265644006 -2.97828319239741,53.6401492169887 -2.97830438875539,53.6401544357666 -2.97841854063181,53.6401832446893 -2.97852352752386,53.6402093438682 -2.97854636585314,53.6402154471188 -2.97854788224877,53.6402163326617 -2.97862701589081,53.6402354543225 -2.97865889485136,53.6402441792107 -2.97872738916147,53.6402615901887 -2.97877154802683,53.6402729110795 -2.97877306594148,53.6402737966072 -2.97882622382527,53.6402859417605 -2.9789130267469,53.6403076961043 -2.97892971409823,53.6403120528375 -2.97903470009004,53.6403381506784 -2.97903621652113,53.6403390371138 -2.97913515623809,53.6403624887182 -2.9791533600475,53.6403677309553 -2.97919448626514,53.6403772788213 -2.97924001698507,53.6403885883044 -2.9793176764491,53.6404086195389 -2.97934965886078,53.6404164445435 -2.97938149647441,53.6404233727715 -2.97944999137005,53.6404407833329 -2.97948498591169,53.6404494833772 -2.97956264768575,53.6404696043199 -2.97962950229759,53.640486130264 -2.97970865774193,53.6405061489882 -2.97983798051254,53.6405383368739 -2.97992621706422,53.6405627743973 -2.97996272975436,53.6405723598138 -2.98011954726519,53.6406124099127 -2.98023509198267,53.6406420146598 -2.98061100847485,53.6407404736542 -2.98062468255336,53.6407439560135 -2.98063997777792,53.6407474250744 -2.98067649078817,53.6407570102714 -2.98104771404181,53.640852000869 -2.9811283888438,53.6408729050444 -2.98120910545625,53.6408956065289 -2.98129798537242,53.6408831955721 -2.98131051856797,53.6409019632269 -2.98133512450526,53.6409197329353 -2.98139462299171,53.6409417095974 -2.98171426834871,53.6410280457794 -2.98178293215817,53.6410526426524 -2.98183518277288,53.6410900445087 -2.98187244658125,53.6411265815815 -2.98190198119416,53.6411631812214 -2.98193195272492,53.6412186477891 -2.98194353343109,53.6412607870911 -2.98194455632989,53.6413048099109 -2.98193489614236,53.6413453259565 -2.98191042436533,53.6413977350259 -2.98198673593728,53.6414240666805 -2.98203690337212,53.6414362349763 -2.98248883272749,53.6415529333539 -2.98255431703117,53.6415694689331 -2.98266535668621,53.6415982095161 -2.98268969201621,53.6416042996762 -2.98287224385919,53.6416513236964 -2.98314777702093,53.6417228325737 -2.98320247696367,53.6417367608185 -2.98330146255625,53.6417620063245 -2.98337198069547,53.6416732740089 -2.98343514620355,53.6415954746569 -2.98353564968396,53.6416216063371 -2.98377601789034,53.6416825305139 -2.9838810556845,53.6417105103898 -2.98406360778331,53.641757532597 -2.98454164958972,53.6418865895767 -2.98446938466231,53.6419698548835 -2.98440620164195,53.6420468459804 -2.98442137212281,53.6420503155884 -2.9845492059818,53.642082510677 -2.98460704462427,53.6420973103955 -2.98466026927569,53.6421121489841 -2.98467244843379,53.642115642297 -2.98476077461808,53.6421382787657 -2.98492360739966,53.6421791719902 -2.98498595569515,53.6421948323574 -2.98505597228627,53.6422131260779 -2.98517917348653,53.6422444607617 -2.98533587638096,53.6422845050813 -2.98556872937648,53.6423437799052 -2.98571333750302,53.6423839234265 -2.98578181713121,53.6424004325866 -2.98581681603359,53.6424091298709 -2.98592636275145,53.6424378798063 -2.98603138067254,53.6424648710797 -2.98607252985287,53.6424753143786 -2.98621404268967,53.6425109894552 -2.986332734549,53.6425414612966 -2.98658080255231,53.6426059109858 -2.98673127303044,53.6426407034724 -2.98677240310106,53.6426502487347 -2.98694426041167,53.6426928615522 -2.98695342604802,53.6426954815587 -2.98706904211191,53.6427223835458 -2.98712835713254,53.6427362710338 -2.98719685887058,53.6427536780588 -2.98719525862772,53.6427545892257 -2.98727147237265,53.6427764250057 -2.98726548849444,53.6427818657383 -2.98757181838147,53.6428790809022 -2.98774778604337,53.6429000924257 -2.98797171257865,53.6429666253668 -2.98807982950617,53.6429980808159 -2.98814224320663,53.6430164355666 -2.98808199323902,53.6430906187976 -2.9880599082649,53.6431168608646 -2.98796280142918,53.6432309763551 -2.98805098662249,53.6432527118261 -2.98808446847737,53.6432605230317 -2.98816363449519,53.643280536143 -2.98821829447274,53.6432926647564 -2.98828645206415,53.6434232963077 -2.98827292361179,53.6434261046856 -2.98830939472405,53.6434976908539 -2.98832197381255,53.6435182542215 -2.9883643475334,53.6435862869533 -2.9887349006891,53.6435175360563 -2.98907121196481,53.643477912372 -2.9893248970093,53.6434569431035 -2.98921719575156,53.6435711472739 -2.9890990395218,53.6436970294453 -2.98957341342221,53.6436679437043 -2.98975762770728,53.6436574331446 -2.99050227233203,53.643676427637 -2.99104015652806,53.6437124074034 -2.99160299232509,53.6437805275838 -2.99261951948638,53.6439743676423 -2.99288657081523,53.6440125871511 -2.99303824828394,53.6440292992474 -2.99340642423475,53.6440558950614 -2.99411788674694,53.6440742439124 -2.99533118536452,53.6440803252237 -2.99537345767342,53.6440799733339 -2.99639417378246,53.6440642829578 -2.99749305676245,53.6440947486382 -2.9983324778442,53.6441497469109 -2.99866415923702,53.644167644518 -2.99893032355133,53.6441681168757 -2.99920693744323,53.6441568198071 -2.9996510782566,53.6440676507013 -2.99999709793624,53.6439272721867 -3.0002139282887,53.6438194243207 -3.00023181508628,53.643805795473 -3.00083132788075,53.6433207483183 -3.00117384234269,53.643027543636 -3.00162638518903,53.6427199381594 -3.00182974290301,53.6426175916397 -3.00309214703542,53.6418303503295 -3.00535770550756,53.6404145438839 -3.00800675167139,53.6387913899798 -3.0099890261874,53.6375629931649 -3.01017699960203,53.6374553708705 -3.008364586554,53.6361016534128 -3.00731318129039,53.6352035596969 -3.00488278829468,53.6333535753985 -3.00430981688856,53.6329169981618 -3.00359959570364,53.6323656502359 -3.00346695028566,53.632256235719 -3.00225475055614,53.6313306921711 -3.00221892227869,53.6313498630675 -3.00219808942903,53.6313599224037 -3.00215467742809,53.6313800557016 -3.00206787609412,53.6314212200164 -3.00204102017563,53.6314349243266 -3.00201414293953,53.6314477299536 -3.00198564490176,53.6314605491569 -3.00193778787167,53.6314825164372 -3.00191685280646,53.6314935644227 -3.00191535750978,53.6314935769525 -3.00179196636585,53.6313902842467 -3.00173477998759,53.6313395429682 -3.0016205772279,53.6312398566167 -3.00148448175725,53.6311160017284 -3.00143045625918,53.6310670315411 -3.00139647073607,53.6310376620285 -3.00140396772744,53.6310331058598 -3.00144270307427,53.631010317233 -3.00146507157066,53.6309966506414 -3.00149045341097,53.6309838576617 -3.00151282187798,53.6309701910612 -3.00154121332598,53.6309528803804 -3.00156202484392,53.6309419224806 -3.00218357071997,53.6306212169506 -3.00225819678659,53.6305819514121 -3.00243307943695,53.630495927277 -3.00244209430236,53.6304922571725 -3.0024840084887,53.6304721363221 -3.00247931200471,53.6304685811737 -3.00252419689193,53.6304475374448 -3.00270064126582,53.6303642853734 -3.00253081016627,53.6302164526415 -3.00245407604067,53.6301667744557 -2.99945851810443,53.6282521379507 -2.99808158268202,53.627379150946 -2.99768547687824,53.6271244694062 -2.99761945814157,53.6270845835059 -2.9975594834648,53.6270419514662 -2.99733351114873,53.6268856831321</coordinates></LinearRing></outerBoundaryIs></Polygon>
  </Placemark>
