  <Placemark>
	<Style><LineStyle><color>ff0000ff</color></LineStyle><PolyStyle><fill>0</fill></PolyStyle></Style>
	<ExtendedData><SchemaData schemaUrl="#Wards__December_2019__Boundaries_EW_BFE">
		<SimpleData name="objectid">5374</SimpleData>
		<SimpleData name="wd19cd">E05011103</SimpleData>
		<SimpleData name="wd19nm">Goose Green</SimpleData>
		<SimpleData name="wd19nmw"></SimpleData>
		<SimpleData name="bng_e">533778</SimpleData>
		<SimpleData name="bng_n">174852</SimpleData>
		<SimpleData name="long">-0.07587</SimpleData>
		<SimpleData name="lat">51.456841</SimpleData>
		<SimpleData name="st_areashape">1155529.85995632</SimpleData>
		<SimpleData name="st_lengthshape">5309.57378919114</SimpleData>
	</SchemaData></ExtendedData>
      <Polygon><outerBoundaryIs><LinearRing><coordinates>-0.066657699013615,51.4623907974872 -0.06695207929216,51.4623399152953 -0.067726089836484,51.4622501943173 -0.067974997456347,51.462219236908 -0.068587965712201,51.4621231674761 -0.06876734569583,51.4621027488888 -0.068902356384096,51.4620762048861 -0.069171141203977,51.4620186013995 -0.069304057005323,51.4619713450967 -0.069596014932686,51.4623547364605 -0.069507178068381,51.462378445744 -0.06947509145805,51.4623878065706 -0.069406609073998,51.4624073555878 -0.069335241693493,51.4624277563174 -0.069294382265686,51.4624396695107 -0.069272491110987,51.462446501309 -0.069262295570007,51.4624490302777 -0.069244869429792,51.4624541379665 -0.06919239017844,51.4624685566219 -0.069234482495596,51.4625286760216 -0.069261714207258,51.4625668840112 -0.069274074338815,51.4625805733866 -0.069291867400633,51.4626033415567 -0.069315051179056,51.4626333919462 -0.069324602239413,51.462646135744 -0.069342315270192,51.4626680041993 -0.069378545972755,51.4626982695439 -0.069280994874861,51.4627568964963 -0.069287738239798,51.4627686956459 -0.069316750360545,51.462832195739 -0.069343028846648,51.4628901660293 -0.069369540498787,51.4629454440911 -0.069394470676986,51.4630015944779 -0.069412892012874,51.4630432535177 -0.069411467766729,51.4630432300519 -0.069411354035945,51.4630459251409 -0.069434083191938,51.4630867558652 -0.069436702751478,51.4630921938495 -0.06945800770317,51.4631330011038 -0.069460818764664,51.4631367326973 -0.069440501759875,51.4631399942118 -0.069449598003721,51.4631635192552 -0.069474358061399,51.4631899993298 -0.069467045910534,51.4631916765341 -0.069482658241,51.4632323899944 -0.069498548077063,51.4632299548213 -0.069529709121548,51.463276318368 -0.069543081005316,51.4633026108071 -0.069516800176214,51.4633093703318 -0.069530361628545,51.463331170358 -0.069535561514054,51.463342943164 -0.069554475923836,51.463372923164 -0.069561143681414,51.4633865178269 -0.069575856945745,51.4634119330732 -0.069581253500035,51.4634219114416 -0.069595930305304,51.4634482253719 -0.069606597356282,51.4634682699585 -0.069634797864248,51.4635172816648 -0.069658798630856,51.46356172954 -0.069685690103731,51.4636080236049 -0.069709766801128,51.4636506741451 -0.069744212676715,51.4637204669171 -0.069780045474021,51.4637939687029 -0.069815038354405,51.4638170210146 -0.069820201888229,51.4638296924953 -0.06989423313657,51.4638165269489 -0.069897118115676,51.4638156760817 -0.06996529923373,51.4638033134155 -0.069997235137226,51.463797546222 -0.070039330361876,51.4637901486749 -0.070108934236336,51.4637778093588 -0.070155341056853,51.4637694935659 -0.070200281930446,51.4637621419284 -0.07029020290498,51.4637465417592 -0.070393983273926,51.463982087975 -0.070499988439616,51.4639622569736 -0.070962900949125,51.463875480495 -0.071231462345558,51.4638205655623 -0.071572595436523,51.4637532687461 -0.072038583978658,51.4636638416853 -0.072307147304995,51.4636116212846 -0.072125530465646,51.4630681365253 -0.072325018018036,51.4630156788636 -0.07269189958796,51.4629174262537 -0.072974071708397,51.4628491555638 -0.073112117080807,51.4628181619823 -0.073297925135231,51.4631242807252 -0.073375104041688,51.4631039722399 -0.073453667811471,51.4630845866596 -0.073479790701866,51.4630787229436 -0.073523458873395,51.4630677537583 -0.073536540669853,51.4630643725842 -0.073625261947381,51.4630433553114 -0.07370382551065,51.4630239695602 -0.073794046557644,51.4630011782406 -0.073798354224669,51.4630003506645 -0.07381443884468,51.4629961195342 -0.073866722264105,51.4629834932673 -0.073952597620852,51.4629624289659 -0.074034045798134,51.4629421911214 -0.074067516877072,51.4629337510908 -0.074116954542477,51.4629210779389 -0.074169357164169,51.4629084543957 -0.074192632812808,51.4629025437255 -0.074204252439962,51.4629000377332 -0.074375659963447,51.4628632069295 -0.074422212595846,51.4628513855247 -0.074454222910103,51.4628438206659 -0.074528478153501,51.4628252619521 -0.074601153306335,51.462807576515 -0.074622968225208,51.4628025410444 -0.074678255479924,51.4627890644863 -0.07476416789025,51.4627671018119 -0.074787127111789,51.4628025413441 -0.074807316390184,51.4628361367872 -0.074830593361231,51.4628302260122 -0.074887378988202,51.4628149762983 -0.074897574313164,51.4628124468371 -0.074944126764042,51.4628006252223 -0.074971749140559,51.4627929881338 -0.075061969122218,51.4627701958219 -0.075140569438975,51.4627499104254 -0.075242445113843,51.4627237140932 -0.075347206960325,51.4626966657918 -0.075453547218962,51.4626687449334 -0.075530762194958,51.4626475372351 -0.075548149930179,51.4626433272693 -0.075572874042392,51.4626707047462 -0.075636228174818,51.4627391719707 -0.075658571996281,51.4627215585708 -0.075716755350229,51.4626730676779 -0.075780939571673,51.4626201797637 -0.07580782139484,51.4625962577164 -0.07573501607894,51.4625465141115 -0.075764707949138,51.4625263243986 -0.075797323855866,51.4625043841209 -0.075835821255316,51.4624780457779 -0.075850626363064,51.4624675001459 -0.07590697076679,51.4624288684214 -0.075914470064021,51.4624226983522 -0.075972578651195,51.4623760037789 -0.075975499821617,51.4623742531701 -0.076018726279413,51.4623399006319 -0.076045528448573,51.4623178657249 -0.076061990425341,51.4623046503087 -0.076112638160129,51.4622631371598 -0.076163207884059,51.4622235112112 -0.076185551247656,51.4622058977029 -0.07620931738055,51.4621883075494 -0.076251045162989,51.4621557279953 -0.076254041845212,51.4621521809442 -0.076257083795965,51.4621504332106 -0.076309076053243,51.4621108305535 -0.076332879874406,51.4620923417064 -0.076352262785346,51.462077376527 -0.076356722899924,51.462072954211 -0.076402794348052,51.4620386482363 -0.076425137528241,51.4620210346793 -0.076404003098693,51.4620098989827 -0.076425153887852,51.4619867819975 -0.07643111085733,51.4619805865761 -0.076507854658353,51.4620044121992 -0.076590377985079,51.4620291411006 -0.076628673236864,51.4620414577368 -0.076667163509613,51.4620519780878 -0.076739559880536,51.4620747438826 -0.076804992069694,51.4620937981814 -0.076866153082568,51.4621127823433 -0.076900254235246,51.4621232314806 -0.076981347646149,51.462145239675 -0.077032294098636,51.4620966293615 -0.077083207362525,51.4620516147304 -0.077121741413741,51.4620243772799 -0.077188267247242,51.462017377178 -0.077238452376319,51.4620235946117 -0.077270828707474,51.462041207837 -0.077316061755436,51.4621624203596 -0.077362535219424,51.462290844814 -0.077523584804447,51.4627404850667 -0.077608560160336,51.4629441603339 -0.077692449348645,51.4631398176554 -0.077744117567527,51.4633169641923 -0.077775770566523,51.4634874001224 -0.077778473413871,51.4635954182462 -0.077755956512504,51.4639250826623 -0.077845120445035,51.4639274446223 -0.077946144403202,51.4638876563348 -0.078042661818996,51.463850580933 -0.078099751043606,51.4638281430463 -0.078175882223638,51.4637988240471 -0.078189037926824,51.4637936458918 -0.078235930208202,51.4637737376597 -0.078271089642687,51.4637590300107 -0.078325632005553,51.4637293577483 -0.078335979748057,51.4637232342396 -0.078344940923646,51.4637161896031 -0.07835378272535,51.463709142109 -0.078362857138925,51.4636994014676 -0.078498066697489,51.4637726417415 -0.078620492081808,51.4638393799219 -0.078818974732499,51.4638785950192 -0.078888773628794,51.4636891454393 -0.078998887751566,51.4634328391925 -0.079100472482295,51.4632411236832 -0.079164107546392,51.4631333837103 -0.079275510272875,51.462948122197 -0.079384465746902,51.4627871839446 -0.079503317573206,51.4626308124964 -0.079670563508972,51.4624186850741 -0.079923776786933,51.4621152766128 -0.08005105284846,51.461961740504 -0.080201500152918,51.4617736115191 -0.0804759200934,51.4614426785922 -0.081045749962175,51.4607639844478 -0.081788558359498,51.4598714531951 -0.082756613475989,51.4587209860189 -0.082924203625041,51.4585339426806 -0.08313261307145,51.4583017167723 -0.083135610402619,51.4582981695602 -0.083137072159255,51.458297294187 -0.083436933588808,51.457978458911 -0.083756647806332,51.4576644430893 -0.084193820866755,51.4572633427944 -0.084343433769417,51.4571255407211 -0.084468919789116,51.4570169215632 -0.084804060817612,51.4567139429793 -0.085679767820356,51.4560484056834 -0.085422819943542,51.4559605986528 -0.085418398895445,51.4559641226681 -0.085282304883834,51.4559151497036 -0.085187311421098,51.4558794345746 -0.085117842048525,51.4558549242845 -0.084981557884647,51.4558076556031 -0.084907818049454,51.4557830762805 -0.084833998142477,51.4557575961766 -0.084764452726442,51.4557348819554 -0.084692017958391,51.455710323688 -0.084683172152495,51.4557146737251 -0.084578647497859,51.4558046662167 -0.084365746384436,51.4559064624457 -0.084336325900835,51.4559203655322 -0.084238293512984,51.4559601182185 -0.084034039950755,51.4556456244514 -0.083754338469008,51.455245387755 -0.083579115331771,51.4550284629635 -0.083474922710173,51.4549404524126 -0.083149814797928,51.4547291660961 -0.082878845660181,51.45456560493 -0.082585844912961,51.454412380501 -0.082124237630892,51.454196160472 -0.081857013837603,51.4540821045806 -0.081547819960964,51.4539727557043 -0.081183697336844,51.4538687088516 -0.080813088450001,51.4537835241749 -0.080412052724104,51.4537023353669 -0.079904256732447,51.4536256880008 -0.079452297654949,51.4535561578614 -0.078955487092841,51.4534949707131 -0.078572693424753,51.4534599248284 -0.078244074893109,51.4534347573449 -0.078038437268844,51.453431384352 -0.077795161479724,51.4534651528233 -0.077470796738726,51.4535110751073 -0.077384944404646,51.4532947986417 -0.077333874558008,51.4531742995788 -0.077091630983518,51.4526694738931 -0.076790758553622,51.4520548129711 -0.07663782843202,51.4517546337426 -0.076462579415632,51.451440602145 -0.076328506245103,51.4512396249669 -0.076151051369509,51.4510092569941 -0.075979562248957,51.4507752996149 -0.075595403658874,51.4503273867674 -0.075479591478139,51.4502059132824 -0.075203969362917,51.4503263507837 -0.075090676914172,51.4503848147234 -0.074910191123593,51.4505032182602 -0.074654136648873,51.4506690177463 -0.074297452095217,51.4509391583362 -0.073621155407766,51.4514469619262 -0.073332058412717,51.4516814407458 -0.073018037425694,51.45192719611 -0.072899815010107,51.4520349334401 -0.07279308037366,51.4521770226896 -0.072625899503128,51.4524215968785 -0.07256788102527,51.4525340103982 -0.072501488196051,51.452710026807 -0.072400711865678,51.4530177260065 -0.072355594612756,51.4532013747866 -0.072301774529691,51.453487370489 -0.072228791083741,51.4539888180705 -0.072177965325903,51.4543755535978 -0.072117799553774,51.4546093013326 -0.0720567960665,51.4548601163341 -0.071729311639535,51.454810674796 -0.071172242351598,51.4547430681403 -0.070692628108775,51.4546821290549 -0.070366877380792,51.4546254297917 -0.070093835814994,51.4545795781143 -0.069903053109217,51.4545305844115 -0.069688101191968,51.454472202927 -0.069529799603434,51.4544381287436 -0.069418898945635,51.4544057337651 -0.06892569946247,51.4550774543803 -0.068597364301922,51.4555234460979 -0.068221163667359,51.4560460548839 -0.067539992388524,51.457008741645 -0.067349301020796,51.4572637080928 -0.066818870900917,51.4579977358319 -0.066547937295561,51.4583791298354 -0.066286156274656,51.4587488954034 -0.066180771464181,51.4588919000157 -0.066098092153925,51.4589750440595 -0.06600908588569,51.4590365969062 -0.06603361668672,51.4591385926545 -0.066045231958766,51.4592709419993 -0.06609255870516,51.4596170409235 -0.066121107637461,51.4597587498865 -0.066153172054695,51.4599184082046 -0.066201753231873,51.4602348593333 -0.066240704779866,51.4604702389351 -0.066289441228087,51.4607156694861 -0.066352295128019,51.4610314576869 -0.066420891214364,51.4613518361428 -0.066657699013615,51.4623907974872</coordinates></LinearRing></outerBoundaryIs></Polygon>
  </Placemark>
