  <Placemark>
	<Style><LineStyle><color>ff0000ff</color></LineStyle><PolyStyle><fill>0</fill></PolyStyle></Style>
	<ExtendedData><SchemaData schemaUrl="#Wards__December_2019__Boundaries_EW_BFE">
		<SimpleData name="objectid">5836</SimpleData>
		<SimpleData name="wd19cd">E05011577</SimpleData>
		<SimpleData name="wd19nm">Meads</SimpleData>
		<SimpleData name="wd19nmw"></SimpleData>
		<SimpleData name="bng_e">558221</SimpleData>
		<SimpleData name="bng_n">97131</SimpleData>
		<SimpleData name="long">0.241623</SimpleData>
		<SimpleData name="lat">50.752209</SimpleData>
		<SimpleData name="st_areashape">13315510.9222723</SimpleData>
		<SimpleData name="st_lengthshape">20335.762815157</SimpleData>
	</SchemaData></ExtendedData>
      <Polygon><outerBoundaryIs><LinearRing><coordinates>0.283751708104382,50.7685466115538 0.283680266819148,50.7685659934258 0.28353263878501,50.768591363458 0.283376540744844,50.7686204949774 0.283047609671857,50.7686808847672 0.2830054343284,50.7686889039729 0.282443473210188,50.7687980025263 0.282204540000965,50.7688431407697 0.281834962339824,50.7689142134194 0.281721592598861,50.7689443052893 0.281564819543544,50.7689860352529 0.281271150656207,50.7690430320615 0.280392601398918,50.7692068656239 0.280177282034204,50.769239848779 0.279958819615775,50.7692971696188 0.279707498069136,50.7689720073901 0.279712709160412,50.7688145562054 0.279789390959828,50.7686142561883 0.279797618001341,50.7685790286008 0.279790046437224,50.7685387152693 0.279757635645006,50.7684565374415 0.279708377348405,50.7683765777045 0.279676621847978,50.7683367371414 0.278964678474518,50.7676068812975 0.278724212438035,50.7672689166803 0.278530996559166,50.7670298324586 0.278348141463749,50.7667680666896 0.278044198678474,50.7665266497572 0.277813168463081,50.7663828034189 0.277600160719316,50.7662897663065 0.27736943848878,50.7661522071178 0.277275471525485,50.7660857073189 0.276935095388909,50.7658234196626 0.276833741344707,50.7657516682326 0.276707838547253,50.7656704162247 0.276506396680618,50.7655529636812 0.275883585523281,50.7651954820237 0.27555025707752,50.7650202698219 0.27515244009198,50.7648293206928 0.274800375930856,50.7646751519134 0.273357525415456,50.7664490713877 0.27223669880183,50.76799092029 0.272001763958015,50.7682949129911 0.271974714555252,50.7683207059769 0.271934854094086,50.7683475571114 0.271892014067494,50.7683708704745 0.27184330616582,50.76838890353 0.271757768425717,50.7684094519591 0.27158225759406,50.7684749116666 0.271523371465713,50.768490445551 0.271451694843184,50.7685026309402 0.271371154566537,50.7685104937223 0.271304562762337,50.7685117907625 0.271216273449986,50.7685045190421 0.270817277980874,50.7684367612438 0.270619031646157,50.7684118487799 0.270494401000412,50.7683881999915 0.270398364750779,50.7683657931597 0.269988620358865,50.7682522958765 0.267597529543564,50.7677546538973 0.267043634843949,50.7676512316476 0.266382595876745,50.767530108611 0.266358064821786,50.7675233919541 0.264691418165049,50.7670466752692 0.264037768497758,50.7669038158874 0.263383713843353,50.7667815507208 0.262631036758132,50.7664957524573 0.26163257567793,50.7661104164587 0.261523150543607,50.7660478006187 0.261478722276849,50.7660090993643 0.261415792274565,50.7659382984062 0.261350220629267,50.7658442613547 0.261311014134787,50.765765896836 0.261280563557872,50.7656629959515 0.26101675483471,50.7649567084931 0.260792602856955,50.7643962125946 0.260461386834249,50.7637029202173 0.260309677582403,50.7634396238383 0.260295576221989,50.7633823525934 0.260302329288629,50.7633453561527 0.26029423850203,50.7633230351478 0.260254296149224,50.7632608692644 0.260206072332655,50.763201561185 0.260160067792086,50.7631592042537 0.259993974702701,50.7630365431758 0.259863834417454,50.7629563437828 0.259646447984512,50.7628004189612 0.259580739151432,50.7627324581351 0.2595374616348,50.7626568692234 0.259526597858159,50.7626085264674 0.25952475122472,50.762541036127 0.259537521510143,50.7624517740725 0.259561939367141,50.7623712767337 0.259590403415072,50.7623140791138 0.259635613609265,50.7622501730395 0.259689540694966,50.7621924819783 0.259786567494992,50.7621168724513 0.260327180261674,50.7618590396253 0.260452762792315,50.7617864727129 0.260585657875365,50.7617200570115 0.260726066924963,50.7616615882935 0.2608711566188,50.7616129184694 0.261062953108549,50.7615605564827 0.261238218483669,50.7615193938987 0.261682586482599,50.7614433398809 0.26193775718387,50.7614105171367 0.262626925878736,50.7614115337755 0.262851167968114,50.7613847037505 0.262937706748926,50.7613875196127 0.263025937624697,50.7613939001793 0.263436408713868,50.7614659568782 0.263915546263126,50.7615799285759 0.264479590701435,50.7616894622767 0.264425726502093,50.7616320633325 0.264191204588062,50.761533125759 0.263948900636395,50.7614182440116 0.263910978640306,50.7613956029992 0.263853820846915,50.7613571497836 0.263815217866641,50.7613228324355 0.263782209872215,50.7612857091513 0.263736510698982,50.7612181716233 0.263603985717363,50.7610885699586 0.263567248561754,50.7610614097274 0.263390054065602,50.7609461623523 0.263107487493078,50.7607915090569 0.26258964808559,50.7605488080909 0.262482518404943,50.7604753585491 0.262421303083365,50.7604109088172 0.262146202224209,50.7602048577817 0.261987177569391,50.7601414058405 0.261869135373587,50.7601059315074 0.26164444091296,50.7600626349327 0.261557441982167,50.760052633643 0.261339986745452,50.7600406661455 0.260883683686555,50.7599900808219 0.260296956810754,50.7599672878733 0.260160993671364,50.7599699232622 0.260124415961674,50.759975127433 0.260066939383595,50.7599906282662 0.259995168588155,50.7600297833487 0.259869870331222,50.7600790570157 0.259031517937078,50.7602184832517 0.257488494507544,50.7605083087037 0.256637154469321,50.760703716543 0.255557815792829,50.760964759625 0.255263004086627,50.7610558804831 0.255065609014733,50.7611110393514 0.254875062831716,50.7611578827007 0.254681380565175,50.7612002911689 0.254474748569652,50.7612384535735 0.252625909204333,50.7615377218411 0.251555313540534,50.7617454192959 0.251104937617665,50.7618477158044 0.250824901961069,50.7619205565505 0.250512892448777,50.7620092998823 0.250301938736617,50.7620745121063 0.249903098653429,50.7622153712637 0.249722246651158,50.7622889938277 0.249467236666431,50.762410801915 0.249209200730355,50.7625597316117 0.249070325262187,50.762650526074 0.248854151029291,50.7628166301566 0.248290537412381,50.7633059317185 0.247180490588381,50.764377797897 0.247082773923656,50.7644687854411 0.246857940851622,50.7646619379115 0.246739710845404,50.7647982777752 0.246688371334349,50.7648810888938 0.246619217102253,50.7650362643652 0.246574522037582,50.7651675014231 0.245089427233568,50.764688810343 0.241216000517312,50.7634016703098 0.239472632143095,50.7627983960584 0.235909447644123,50.7615869438794 0.235077352913862,50.761295301832 0.234812862962864,50.7612212471485 0.234629475298763,50.7611807041325 0.2342329632431,50.7611036938121 0.230926097506375,50.7605365366276 0.230446509167039,50.7604701844937 0.230161461768217,50.7604405714804 0.229923940491119,50.7604244337619 0.229576141861102,50.7604175977973 0.22935522271369,50.7604236209682 0.226718723851889,50.7605630184154 0.222954393174873,50.7604252595978 0.22068266940314,50.760362451687 0.217694633182622,50.7602061388767 0.21577727250949,50.7601427884768 0.214741465595505,50.7601292000791 0.213613782558497,50.7601209446924 0.214431310207914,50.7594758422766 0.216478006787557,50.7579574148135 0.216905549361723,50.7576434876878 0.217437252666196,50.7572826214685 0.217484216598755,50.7571360668844 0.215763049855462,50.7557297125928 0.215275464785376,50.7553441649975 0.214536988132249,50.7548688815266 0.213417584038285,50.754220997536 0.212907798681336,50.7538745243649 0.213138149030436,50.7537073173829 0.212753622473715,50.7534016242888 0.212437152952177,50.7530640687544 0.21210626191605,50.7527825316931 0.210960174769768,50.7521396268416 0.210583639402369,50.7519408630382 0.209782800258249,50.7515539489766 0.209381082631183,50.7513340802601 0.210924285743829,50.7499053119381 0.211239579498077,50.7495863421317 0.211471117802148,50.7493256051276 0.211661497896239,50.7490621425991 0.211750945857933,50.7489164936024 0.213425153474686,50.7458204498022 0.213559982022584,50.7456137849737 0.214102182150198,50.7451159743494 0.21424434468697,50.7450053779381 0.214411401950416,50.7448204876856 0.214481995980895,50.7448155508958 0.214620882107604,50.744633084199 0.214674545816315,50.7445393628747 0.214723840544669,50.7444422186727 0.214891787831476,50.7440361227206 0.215032241046221,50.7435279572545 0.215268100722814,50.7422805034325 0.215441596721267,50.741449820413 0.215511551734454,50.7411615760905 0.215546036341366,50.7409612228134 0.215559650636078,50.7408584628099 0.21556847060841,50.740654101231 0.215563212767568,50.7405427077695 0.215533139954347,50.7403264974694 0.215499587835122,50.7399152405048 0.215488908716537,50.7397211401411 0.215090346851356,50.7398635849427 0.214014932300464,50.7403832158636 0.213802076564693,50.7404987517992 0.213613816801478,50.7406229005532 0.2134784583177,50.7407288714734 0.213381866065955,50.740814325796 0.213259531373669,50.7409561040576 0.213210619873518,50.7410316616946 0.213137697203142,50.7411680065011 0.212916339983665,50.7415247594445 0.212797163437685,50.7418525995328 0.212770981661941,50.7418971542123 0.212719605993609,50.7419799508439 0.212634258061973,50.7420957605507 0.212541897218456,50.742209096853 0.21247037394148,50.742285981907 0.212263829260348,50.7424761140338 0.212133719286348,50.7425720935191 0.212049769051353,50.7426258363456 0.211843515023364,50.7427304537454 0.211200365862369,50.7429783196927 0.210866614723307,50.7416418776993 0.210365629469777,50.7399424795659 0.209942887933216,50.7384000248702 0.20969188885157,50.7375836016858 0.209557774983968,50.7370793472706 0.209615088277092,50.7370864075767 0.209738320192082,50.7370926877505 0.209875473358762,50.7370900067386 0.210021667847094,50.7370659284557 0.210108144889015,50.7370242478727 0.210186412701298,50.7369743765023 0.210328079532461,50.7369191657175 0.210534633802331,50.7369254479997 0.210641664790607,50.7369326100555 0.210851458106652,50.736928217501 0.21111926854541,50.7369372223044 0.211230205513821,50.7369677299479 0.211402931937596,50.7370026505247 0.211508120746941,50.7370170328928 0.211815942839473,50.7370365823735 0.211944508538147,50.7370279190053 0.212061401165967,50.7369892933469 0.212248581539039,50.7369414369621 0.212423074642155,50.7369187972527 0.212600751463499,50.7369071773853 0.212761591368247,50.736903989395 0.212911983744261,50.7369097776074 0.213116495113033,50.7369205191152 0.213231002987914,50.7369049890247 0.213345287668235,50.7368802172855 0.213535906274129,50.7368737556113 0.213824010274995,50.7368899237439 0.213966772775991,50.7368880937271 0.214091828157673,50.7368741342633 0.214214366445663,50.7368527844857 0.214457750543624,50.7368045584358 0.214721934926279,50.7367754535373 0.214927904859473,50.7367690486727 0.215079328499783,50.7367582476418 0.215256355067165,50.7367475893964 0.21535189513659,50.7367166692622 0.2154098799368,50.7366593820489 0.215484662973736,50.7366060746384 0.215588392503154,50.7365576942999 0.21572032124596,50.7365269366255 0.215855194774123,50.7365348507574 0.215947718326573,50.7365820639261 0.216073205951667,50.7365950039742 0.216112919920768,50.7365235835003 0.216109894639267,50.7364453846781 0.216151139314145,50.7363733684679 0.21624282816632,50.7363362520285 0.216342744417446,50.7363122001851 0.216776189968017,50.736260283295 0.216958733485087,50.7362464505866 0.217079458949227,50.7362167858402 0.217141852463145,50.7361430718772 0.217143596204817,50.7360662573611 0.217187826906516,50.7360019907161 0.217304121546671,50.7360072615656 0.217446533231194,50.73604997195 0.217560243541021,50.7360404337014 0.217667586088924,50.7360110049498 0.217838243851573,50.7359376051955 0.217918625706717,50.7358753935729 0.218032358303557,50.7358249409497 0.218143814307662,50.7358402953099 0.218200697712042,50.7358995712487 0.218252213153129,50.735998810508 0.218333784294614,50.7360916496785 0.218433400011529,50.7361164568931 0.218548346389216,50.7361000857333 0.218640433605344,50.7360540557905 0.218717094660801,50.7359887035902 0.218887775500493,50.7357937845487 0.218921733827612,50.7357146388986 0.21900793197363,50.7356510836161 0.219122534885551,50.7356634540972 0.219226272482186,50.7357191033716 0.21931665902195,50.7357576484227 0.219443631774076,50.735787339272 0.219640124780464,50.7358195016308 0.219754078168801,50.7358310114497 0.220168849592319,50.7358537005618 0.220263345679503,50.7359015023372 0.220425435933883,50.7359380151789 0.220572972042047,50.7359314002297 0.220762170230942,50.7358848226833 0.220967910171798,50.7358185296832 0.221125702250619,50.7358205057111 0.221279566390874,50.7358532887268 0.221433369777725,50.7358653146466 0.221582983274261,50.7358642710538 0.22170033693966,50.7358553788302 0.221839729560586,50.7358312263727 0.22200376909468,50.7358097877773 0.222115089753329,50.7358108765101 0.222300820801321,50.7358228322647 0.222446817392341,50.7358238261944 0.222563698678749,50.7358067576029 0.222746989386751,50.7357471133013 0.222922195691025,50.7356843580734 0.223040368384306,50.7356673363228 0.223145563872775,50.7356893259247 0.223288616375995,50.7357376921691 0.223416704440823,50.7357301314335 0.223552378748101,50.7356945265781 0.223752462590238,50.7357171698618 0.224092877642238,50.7357331060009 0.224235092225291,50.7357703435614 0.224328488955596,50.7358322475921 0.224425914063755,50.7358687926492 0.224675647578387,50.7358080302213 0.224892445093942,50.7357529865015 0.225080015665328,50.7357173246543 0.225232869848499,50.7356988471643 0.225387569655897,50.7356882129484 0.225513342914113,50.7356775731911 0.225665311110475,50.7356215802369 0.226157344067517,50.7355066041476 0.226829512690755,50.7353588824293 0.22724573018299,50.7352537324312 0.227384499255988,50.735225196156 0.227570752156785,50.7352027675788 0.227711972296617,50.7352025960121 0.227848972728791,50.7352204209083 0.227978730765964,50.7352606351515 0.228186250704035,50.7353408070042 0.228302510336633,50.7353683366022 0.228456152152263,50.7353945668085 0.22859289662254,50.7353869787746 0.228679915222429,50.7353114385543 0.228789854970037,50.7352804748085 0.228987437153984,50.7352942888862 0.229131561449007,50.735273490857 0.229297592785205,50.7352923148245 0.229397564256747,50.7352528979422 0.22948023075189,50.7351943759947 0.229580002046202,50.7351594058024 0.229723681121757,50.7351537164271 0.229986694681836,50.7351647931479 0.230182816158252,50.7351800811711 0.23030344039239,50.7351714864275 0.230417083950631,50.7351164903245 0.230497366404281,50.7350537591114 0.230589180157918,50.7350121048989 0.230699749780176,50.7350054739622 0.23080637542037,50.7350279869204 0.231019862175319,50.7350973457291 0.231132735837366,50.7351126515524 0.231263178462047,50.7350932639824 0.231377674974641,50.7350616079517 0.231530973001846,50.7350513701272 0.231659757913477,50.7350653904827 0.231797575817243,50.7350690835596 0.231926013463528,50.73504121637 0.232144826352494,50.7349796268564 0.232290970854663,50.7349715576888 0.232436891412418,50.7349826228119 0.232588574210964,50.7350039924105 0.232730454784496,50.7350239756254 0.232892875138353,50.7350353986801 0.233115221350237,50.7350350066142 0.233286580978313,50.7350257965652 0.233500842293925,50.735011860836 0.233604988710084,50.7349798523123 0.233659051433415,50.7349201756062 0.233645881245536,50.7348438352631 0.233615682031368,50.7347729837778 0.233639728930336,50.7346728247328 0.233760628871654,50.7346405759639 0.233912653768578,50.7346214913542 0.234028709261106,50.7345913857736 0.234195326642817,50.7345689271842 0.234319672397577,50.7345272040772 0.234437195974154,50.7345255718662 0.234546673899254,50.7345588645031 0.234686146667851,50.734619975993 0.234825745572552,50.7346337136037 0.234951252648253,50.7346321706488 0.235204601617503,50.7345554867775 0.235417986879981,50.7344904694755 0.235522612569692,50.7344718510497 0.23572365635059,50.734469398174 0.236128122963343,50.7345519302221 0.236371209223548,50.7345772975373 0.236737570568587,50.7346012702218 0.236861041794519,50.7346093518615 0.237025164576923,50.7346243880372 0.237180601532124,50.7346332139534 0.237375362657079,50.7346247089409 0.237517780871248,50.7346184855253 0.237649793935169,50.7346092328417 0.237882815168615,50.7345928962378 0.23804938542549,50.7345709726579 0.238179381579363,50.7345562807579 0.238377799002498,50.7345245982999 0.238488367568805,50.734496887074 0.238629557651336,50.7344438182001 0.238727406903178,50.7343835769244 0.238855118008923,50.7343102873347 0.238956152286781,50.7342687011769 0.239113397051751,50.7342263049796 0.239324944504253,50.7341832161109 0.239466799933727,50.7341744378181 0.239581265096374,50.7341844704076 0.239778193897681,50.7341997627744 0.239896441147647,50.7341934162733 0.240003034175753,50.7341845954171 0.240192054495407,50.7341467136806 0.240337584178304,50.7341207931094 0.240479237521969,50.7340950188151 0.240588953535722,50.7340782946279 0.240859507734318,50.7340520476796 0.241047855245158,50.7340514575833 0.241155960822109,50.7340191142695 0.241240619415969,50.7339643769452 0.241286627269439,50.7338947242687 0.24128078200173,50.7338004808013 0.241321182548424,50.7337151965062 0.241438275476698,50.7336576858793 0.241558315334098,50.733667249545 0.241735381148076,50.7337106040226 0.241950768866066,50.7337489220291 0.242008956615559,50.7338085212044 0.242030800005598,50.7338833986772 0.242108740131358,50.7339586451876 0.242257726259001,50.7340573484944 0.242386034637901,50.7341539490804 0.242513462203046,50.7342252753534 0.242632367943833,50.7342517055194 0.242763908639189,50.7342477355806 0.242943995032955,50.7342272807368 0.243085808495896,50.734229498498 0.24318554519413,50.7342560451537 0.243321858807353,50.7343243754332 0.243390288521256,50.7343835250897 0.243495239115482,50.7344373128956 0.243604634964049,50.7344678644908 0.243723918137996,50.7344642103537 0.243930599148913,50.7344311541247 0.244036012652254,50.7344700024982 0.244162920553388,50.7345416517951 0.244700763676522,50.7346884836632 0.244934454210786,50.7347371556689 0.245088616882412,50.7347835995179 0.245181998233527,50.7348313038688 0.245248734175788,50.7348973475122 0.245351655256841,50.7349530794991 0.24549814625692,50.734962075663 0.245711085077783,50.7349854500296 0.245831729881744,50.7350143797716 0.245948671268255,50.7350867588299 0.246250775287991,50.7352737419276 0.246670424257261,50.7355361399521 0.24677842191557,50.7356194024438 0.246901340133866,50.7356898575727 0.247027664707794,50.7357379058005 0.247146407596766,50.7357634621434 0.247263856101548,50.7357575373186 0.247375891127337,50.7357294206068 0.247493373102954,50.7357008120194 0.247629748359386,50.7356609832381 0.247729535278611,50.7356162385904 0.247799751252771,50.7355583302535 0.247821245781732,50.7354839310467 0.247822052434348,50.7353812039242 0.247875443026369,50.7353007572292 0.247992416511053,50.7352695496649 0.248118695332585,50.7352701811819 0.24838096819164,50.7353488207421 0.248488846301711,50.735386628465 0.24862865873981,50.7354425547264 0.24873515157291,50.7354481814738 0.248909590644572,50.7354446995918 0.249016469778776,50.7354805744805 0.249157846999009,50.7355570122488 0.249321159418919,50.73564548333 0.249447225750393,50.7356647264527 0.249643028008648,50.7356808519351 0.249794034319946,50.7357050368005 0.249952838883955,50.7357508724521 0.250168513508569,50.7357572777377 0.250303305263582,50.7357829081608 0.250376803784225,50.7358366946599 0.250447426164397,50.7358872448267 0.250561907694846,50.7359116660889 0.250659438993525,50.7358834757173 0.250769604680796,50.7358870510279 0.250864745154571,50.7359287091822 0.251012924505468,50.7360405037908 0.25113669315136,50.7360850896315 0.251306945907769,50.7360974065591 0.25142190364561,50.7361048460844 0.251647549343017,50.7361332353284 0.251895707496912,50.7361440197048 0.252024055311166,50.736145479795 0.25214867050509,50.7361524442387 0.252289465371516,50.7361436352483 0.252422592034713,50.7361365841732 0.252759323216641,50.7361797067156 0.253003405732733,50.7362053716481 0.253125966269949,50.7362155856223 0.253352156677355,50.7362236975291 0.253595414577729,50.7362227278863 0.253765317915594,50.7362616882745 0.253870752356438,50.7362948075465 0.253967963014694,50.7363420174622 0.254185449108478,50.7363890243022 0.254148162819888,50.7363152927622 0.254285375044241,50.7362551947734 0.254463550027914,50.7361668457216 0.254672993405391,50.7361036595261 0.254771270120202,50.7360532630176 0.254892310859149,50.7360607523566 0.25498614120628,50.7361210771398 0.255093460333337,50.7361574236869 0.255194520371573,50.7361224876673 0.255317827956751,50.7360506054276 0.255449506947632,50.7360479499857 0.2555792873812,50.7360786359997 0.255765493542037,50.7361447907757 0.255916355223451,50.7362186535466 0.256036301783907,50.7362186978361 0.256151131037806,50.7361842230339 0.256246704063778,50.7361274378663 0.256307048302315,50.7360566022373 0.256327894268592,50.7359763588078 0.256348948263915,50.7359069311599 0.256437002736244,50.7358223019336 0.256546158454888,50.7358310988731 0.256658891823233,50.7357919692396 0.256767719506189,50.7357659384536 0.256746584503512,50.7356962931126 0.256893651132611,50.7356175274879 0.257005289115384,50.7355069971377 0.257091551680337,50.7354240479883 0.257122449426682,50.7353533413136 0.257078027037775,50.7352851362447 0.257181447823711,50.735261638125 0.257300598668434,50.7352684689942 0.257452591707282,50.7354457302156 0.257561845109351,50.7355915393468 0.257617068465377,50.7356712452984 0.257703258624576,50.735747401472 0.257797517750157,50.7357947733156 0.2578923365168,50.7358579007796 0.257923965423649,50.7359258676629 0.257925582245452,50.7360019078501 0.257983068548268,50.7360929832305 0.258032795275891,50.7361953974531 0.258101878571981,50.7362626748021 0.258190708916388,50.7363323937299 0.258381998738929,50.7364069002903 0.258526041527538,50.7364829784467 0.258632009729026,50.7365468426957 0.258707494689654,50.7366060449483 0.258744123743218,50.7366821622704 0.258790499656717,50.7367490607252 0.258809150664125,50.7368229720552 0.258831079246935,50.73689725159 0.258859821760478,50.7369643927443 0.258902326952621,50.7370280113828 0.258994991302408,50.7370610137508 0.25906763934429,50.7371127787244 0.259135572655694,50.7371667036451 0.259214976435846,50.7372224838628 0.259306549916376,50.7372637276734 0.259348569112819,50.7373310701099 0.259452696236414,50.7373628066648 0.259587566310544,50.7373624771508 0.259503715289416,50.7373058929653 0.259438643133856,50.7372501769533 0.25943676943199,50.7371756257653 0.259548037611415,50.737172875625 0.259598149160241,50.737234313944 0.259662750771203,50.7372911452554 0.259745077964473,50.7373349153881 0.259837907832708,50.7373689751855 0.25988855212487,50.7374382278657 0.259860159920867,50.7375114590102 0.259861807681218,50.7375792420696 0.259925436722777,50.7376464712074 0.260022093838121,50.7377017185657 0.260130549395016,50.7377091137125 0.260224495611742,50.7377616253121 0.260338714062652,50.737758304574 0.260429959971379,50.7377962350749 0.260514106416485,50.7378441966011 0.260609626490977,50.7378843465607 0.260707708747144,50.7379544418596 0.260804544881987,50.737989538478 0.260985507474723,50.7379965430499 0.260990838414968,50.7379180206799 0.261102488413096,50.7379060967485 0.261230408382909,50.7379397536935 0.261363016181097,50.7379839235358 0.261522139955159,50.738067161607 0.261663176450519,50.7381026952277 0.261707538066349,50.7381682645562 0.261776880407273,50.7382222146103 0.261846736173461,50.7383097563796 0.261845152388776,50.7383954193172 0.261836458738253,50.7384720732602 0.261955216429313,50.7385908468589 0.262078871388756,50.7386856461547 0.262115915025595,50.7387572754029 0.262181953354953,50.7388567451915 0.262208567222347,50.7389337033916 0.262204673181235,50.7390170007613 0.262234091095599,50.7390836153685 0.262271399527018,50.7391742528218 0.262317565601019,50.7392404614672 0.262417294741014,50.739333728029 0.262526779060562,50.7394255909966 0.26258540489224,50.7395123879208 0.262549286879533,50.7396014102984 0.262625931734139,50.7396547684499 0.262713122318049,50.7397007806127 0.262787067820577,50.7397519425426 0.262893179892814,50.7398058708312 0.262976920516519,50.7398546929463 0.263087011800742,50.7398503344219 0.263109096293695,50.7399235578862 0.263118177980823,50.7400046067338 0.263104461469135,50.7400937520588 0.26316376927165,50.740159084692 0.26326203030719,50.7402112493331 0.263364127680418,50.7402638970455 0.263444566936111,50.7403441631215 0.263536937285582,50.7404778379317 0.263528809867506,50.7405514859983 0.263562430575619,50.7406399371567 0.263610527633795,50.7407414094149 0.263729312981647,50.7408711174969 0.263781584200184,50.7409401031263 0.263890050365409,50.7410633198591 0.263985196220737,50.7411716132295 0.264023670148292,50.7412745493505 0.26407751081327,50.7413604761226 0.26416350397123,50.7414503204478 0.264246862856794,50.7415222817639 0.264356816293078,50.7415990060037 0.264462619039199,50.7417025050632 0.264601904768901,50.7418445316825 0.264722437371801,50.7419368975913 0.264845245994832,50.7420323580844 0.264957235167391,50.7421529781033 0.264999919108173,50.7422664271094 0.265160032352811,50.7423734940879 0.265227809816631,50.7424620192625 0.265237301566712,50.7425361709992 0.265294168462084,50.7426253578099 0.265356076933174,50.7427238364638 0.265423267982939,50.7428439331647 0.265433047108054,50.742952202866 0.265448659605099,50.7430811715402 0.265450631203827,50.7431619091355 0.265405921100298,50.7430984611354 0.265345621001848,50.742997783692 0.265232956876613,50.7429807072968 0.265148747500544,50.7430386013459 0.265164906021807,50.7431087381158 0.265209379029504,50.7431948739071 0.265217248272482,50.7432753440268 0.265281284644186,50.743335979214 0.265396729010668,50.7433295989202 0.265439039580987,50.7433947214739 0.265524250354441,50.743494905828 0.265592808233277,50.7435701942892 0.265639122793744,50.7436471831085 0.265645016516575,50.7437583434256 0.265679041113162,50.7439051672873 0.265692103841942,50.7440177172806 0.265698370860391,50.7441260371968 0.265739581825378,50.7441889144852 0.26580838699771,50.7442572635575 0.265904632359884,50.7443317079489 0.265977663961538,50.7443924647174 0.266025598588248,50.7444786048403 0.266002935574972,50.7445546675743 0.265874620451585,50.7446021947259 0.265846438475358,50.7446740565193 0.26592983433534,50.7447662440912 0.266004535072435,50.7448439312401 0.266128079500543,50.7449162349212 0.266210178307966,50.7449639537563 0.266300071350605,50.7450218912087 0.26638489098243,50.74509657526 0.266448453782317,50.7451798930565 0.266491859198966,50.7452649697685 0.266389103235215,50.7453063793274 0.266300644141639,50.7453723075859 0.266348872123042,50.7454445369977 0.266448411739432,50.7455163895344 0.266526273608122,50.7456224901458 0.266585182188019,50.7457027593978 0.266701077752629,50.7457988835658 0.266767672008895,50.7458527945423 0.266796393757391,50.7459249892668 0.266844364502427,50.7459939226325 0.266917714601493,50.746050634238 0.266984777795572,50.7461198079185 0.26702484909072,50.7461921776407 0.267052717993824,50.7462602066295 0.267085423320043,50.7463364970695 0.267187950630955,50.7463642288451 0.267257502295716,50.7464218145637 0.267347256068786,50.7464630068992 0.26736312303832,50.7465320067233 0.267412592088713,50.7465964226556 0.267490021963536,50.7466498166746 0.267606762545961,50.7466457563907 0.26759906455188,50.746578306599 0.267634196153293,50.7465121194206 0.267683651889166,50.7465730278032 0.267714335930514,50.7466438439979 0.267788500554486,50.7466985964728 0.267803894956447,50.7467707083797 0.267874922741053,50.7468300638219 0.267998309287179,50.7468669858084 0.26794546493419,50.7468016824187 0.267918200350916,50.7467341635603 0.267888254696202,50.7466686575552 0.267899525880572,50.7466006679144 0.268003654089009,50.7466254267596 0.268107457193373,50.7466417014237 0.268191809996449,50.7466878549712 0.26821256577834,50.7467556173124 0.268201974205616,50.7468247539944 0.268150817166839,50.7468849302591 0.268210384405651,50.7469464871422 0.268211461420896,50.7470209371692 0.268221593292459,50.7470897426366 0.268289993073274,50.7471422235024 0.268323508785226,50.7472108888116 0.268324430672898,50.7472818341607 0.268429344167155,50.7473122436039 0.268525791858685,50.7473434742409 0.268627347392409,50.7473747942838 0.268681993738121,50.7474345309263 0.268783456166246,50.7474703676699 0.268831673685646,50.7475343486288 0.268913325665894,50.7475902677955 0.268978207391747,50.7476438420324 0.269049776648421,50.7477034919943 0.269041639320682,50.7477761606156 0.269075314306713,50.7478445707587 0.269153018279558,50.7479020865851 0.269221410874179,50.7479652160113 0.269339128236256,50.7480325569269 0.26937149614378,50.7481038255536 0.269343014889888,50.7481805687517 0.269352625589973,50.7482482329999 0.269316151633737,50.7483238635992 0.269323232397413,50.7483952017044 0.269317538095159,50.7484667884654 0.269399261341931,50.7485490405386 0.269503174683768,50.7486137898493 0.269578512559505,50.7486830167487 0.269663273091945,50.7487843668847 0.269751660445597,50.7488956207781 0.269826612304317,50.7489946434012 0.269930097355682,50.7491269641461 0.270054879938574,50.7492394429174 0.270135128357346,50.7492993728898 0.270277858739924,50.7494138853742 0.27035899064595,50.7494618898296 0.270470593316261,50.7495214158538 0.270547172210431,50.7495886932002 0.270593914970966,50.7496584313273 0.270645276687752,50.7497278186484 0.270900276385484,50.7499152532633 0.270970086115572,50.7499744595753 0.271077375198853,50.7500616808259 0.271211485077894,50.7501611510723 0.271333776853399,50.7502566241835 0.271442315394784,50.7503491272467 0.271566788410391,50.7504574191301 0.271658110267672,50.7505339781601 0.271803152030389,50.7506541910422 0.2719417741616,50.7507676935213 0.272031228848583,50.7508407811701 0.272120821117977,50.7509137761312 0.272198250957038,50.750969829337 0.272280379104434,50.7510233625181 0.272358225545531,50.7510792276205 0.272469545333063,50.7511763527305 0.272583384623671,50.7512727990415 0.27270250651671,50.7513670736287 0.272949073984154,50.7515430483253 0.273068672589257,50.7516295783365 0.273335714944887,50.7518447270975 0.27341564730931,50.7519084656597 0.273495854473713,50.751972018929 0.273575782946854,50.7520356675214 0.273655936089668,50.7521010205591 0.273733592221673,50.7521675015329 0.273803048638213,50.752231534084 0.273830245867699,50.7523099718648 0.273873318007716,50.752385401801 0.273941105769188,50.7524384040759 0.274022953313442,50.7524831273379 0.274132525919831,50.752529468347 0.274267901814528,50.7525904160185 0.274409649797309,50.7526482711798 0.27455899037692,50.7527165011492 0.274701399725867,50.7527908922101 0.274839150643947,50.7528686118713 0.274959697603161,50.7529394717827 0.275078743556875,50.7530115300967 0.275196691635396,50.7530843292461 0.275313670400161,50.7531575969021 0.275450809413206,50.7532460307908 0.275586292857667,50.7533353962474 0.275723012402022,50.7534239279565 0.275866014934245,50.7535104481068 0.276017625556191,50.7535932024069 0.276173333419974,50.7536727285918 0.276281294708845,50.7537266541482 0.276369242177899,50.7537713466684 0.276458283723373,50.7538152082933 0.276549894541615,50.7538565013361 0.276645811291912,50.7538930332944 0.27676650726398,50.753923055252 0.276948080970004,50.7539512586329 0.277553941182689,50.7540948433926 0.277667965345708,50.7541217568801 0.277781985278928,50.7541485803994 0.277896005348343,50.7541754038062 0.278009888273363,50.7542023197238 0.278120107105433,50.7542413592315 0.278215230239384,50.7542965232384 0.278300530567753,50.7543596140481 0.278382983194204,50.7544253687376 0.278460128300021,50.7544986022605 0.278525735230141,50.7545765582743 0.278580437931574,50.7546576954097 0.278625068778777,50.7547416376496 0.278655629674237,50.7548161412104 0.278677898227403,50.7548863097709 0.278697937352848,50.7549747799427 0.278710344927498,50.7550637590251 0.278719812744709,50.755133098459 0.278816792403069,50.7552584697217 0.27891516593103,50.7553716716163 0.279006185123068,50.7554677484905 0.279134871581162,50.7556036524497 0.279207987146805,50.7556843394477 0.279282909507275,50.7557642715535 0.279346800313706,50.7558243624033 0.27941554863209,50.7558822896119 0.27948554578813,50.7559396527203 0.279562020606836,50.7560019258475 0.279640572367445,50.7560631689674 0.279734101076141,50.756129155907 0.279817268646766,50.7561716009108 0.279919656764053,50.7562069244394 0.280035383405577,50.7562191420029 0.280154251089971,50.7562055748642 0.280258077206726,50.7561771916584 0.280360607320331,50.7561542301729 0.280494152474138,50.7561421744484 0.280630164324653,50.7561429319046 0.280761895167484,50.7561518676464 0.280891897497734,50.7561718998147 0.281018493435595,50.7562035109471 0.281135711748554,50.7562463681732 0.281220787975058,50.7562901239716 0.281299433393471,50.7563474067656 0.281353512602957,50.7564097571752 0.281404523375559,50.7564964517129 0.281462095894596,50.756581039131 0.281520858355583,50.7566522020057 0.281590447012657,50.7567185660067 0.281690611133411,50.7567693114708 0.281788947602638,50.7568029137026 0.281902964431971,50.756841155536 0.282022464357992,50.7568667881028 0.282148133108582,50.7568647777927 0.282269554982223,50.7568658185461 0.28238781509391,50.7568688997788 0.282505485571171,50.7568656965562 0.282620751401718,50.7568800788181 0.282705119141544,50.7569267252515 0.282744126176439,50.7570230978705 0.282780884399413,50.7571198742713 0.282818988508151,50.7572006147823 0.282864251481034,50.7572798659741 0.282937010418878,50.757387989439 0.283011872611498,50.7574956219551 0.283086876777096,50.7576032516338 0.283164670604564,50.7577099272089 0.283248354603638,50.7578123500695 0.283334128763453,50.7579140123931 0.283398779511696,50.7579982800597 0.283465936517934,50.7580815991817 0.283581434582056,50.7581879855927 0.28371012349555,50.7582886270642 0.283785457310943,50.7583476815898 0.283861623730275,50.7584063599862 0.283982886209705,50.7585058874473 0.284048614171892,50.7585656696343 0.284145128446756,50.7586461645902 0.284233303009252,50.7587097340745 0.28432810222121,50.7587695760322 0.284427963456613,50.7588256311279 0.284546623253144,50.7588775402083 0.28466381132997,50.7589167063804 0.284525858874114,50.7590217624671 0.28464258731145,50.759066064132 0.284756960665533,50.7591027668854 0.284892165748118,50.759133394964 0.285006546029667,50.7591498606922 0.285123543248104,50.7591734702668 0.285244712892069,50.759201225146 0.285367315293541,50.7592321896792 0.285302860529387,50.7593236637586 0.285391114060974,50.7593655548706 0.285482618739701,50.7594043241963 0.285607079405365,50.7594472141737 0.285726262585805,50.7594749175801 0.285845754238274,50.7594885840683 0.285973014086682,50.7594870780072 0.286082217391916,50.7594584040411 0.286190533964713,50.7594668029385 0.28629424879038,50.7594971475834 0.286398577210978,50.7595487960585 0.286463664237888,50.7596040922154 0.286562253767672,50.7596688945195 0.286683500495388,50.7597068996822 0.286811201008516,50.759737672804 0.286932014429795,50.7597755063348 0.287037299580875,50.7598292940759 0.287125650069919,50.7598963654396 0.287182737045396,50.7599562252731 0.287225288516804,50.7600204176006 0.287256449141907,50.7601039907873 0.287276634675845,50.7601893082938 0.287299919370262,50.760274205228 0.287325809494709,50.7603543741188 0.2873574685119,50.7604336203482 0.287410796331708,50.7605065053149 0.287480475275851,50.7605657581903 0.28771712573625,50.7604870032534 0.287507541202854,50.7605857336022 0.287617575018681,50.7606583152544 0.287720474384459,50.7607183551648 0.287806122567805,50.7607677607605 0.28785903778399,50.7608263530561 0.287891921623589,50.7608928934759 0.28792620469765,50.7609590466642 0.28799147336071,50.761023782261 0.288097589140201,50.7610915835885 0.288193696933169,50.7611664167589 0.288281956832311,50.7612489589241 0.288349720492464,50.7613299246501 0.28839881547723,50.7614206106371 0.288445743425439,50.7614872350102 0.288570965555931,50.7615716597029 0.288658083969841,50.7616365956211 0.288736651011007,50.7617180685872 0.288786630802611,50.7617832838124 0.288828361962358,50.7618509094822 0.288868282277483,50.7619192002772 0.288927292983448,50.7620067233491 0.288974534729478,50.7620681248063 0.289029698249749,50.76212622278 0.289123941676713,50.7621918279561 0.289229673241128,50.7622487530443 0.289307863228135,50.7622963253765 0.289389047981676,50.7623500447679 0.289465813593322,50.762406189351 0.289531193779058,50.7624702024506 0.289584472601052,50.7625390401572 0.289630181549165,50.7626067673372 0.289671139647457,50.7626759369187 0.289711810158035,50.7627450221952 0.28975696605092,50.7628130300168 0.289807937473094,50.7628752573298 0.28986560400458,50.762935194544 0.289926476516059,50.762993989472 0.289989169013952,50.7630522989187 0.29005394728929,50.763109757897 0.290119837192372,50.7631667453025 0.290185860179584,50.763223550178 0.290251334225072,50.7632807255662 0.290315280780565,50.763338560514 0.290376862968592,50.763397341287 0.290466643581901,50.7634875869962 0.290554759640193,50.7635785848729 0.290641618596393,50.7636699671519 0.290768974884026,50.7638065134578 0.290849548378215,50.7638969398065 0.29093067138253,50.7639869955443 0.2910114609065,50.7640702222777 0.291093989347486,50.7641454999915 0.291181929305094,50.7642183328436 0.291279582760232,50.7642925936765 0.291418093836129,50.7643874573707 0.291549664403563,50.7644795792175 0.291680403092798,50.7645720770413 0.291810867828598,50.7646647599959 0.291940921326635,50.7647577207221 0.29212594162053,50.7648900741188 0.292236024784226,50.7649690365982 0.292344589470469,50.7650488383048 0.292450386929143,50.7651300434417 0.292551610475047,50.7652134070685 0.292621618724412,50.7652761583622 0.292688151116826,50.7653403270815 0.292752186223068,50.7654056241659 0.292765791500267,50.7654200124985 0.292458430141085,50.765557012964 0.292317017656931,50.7656254313193 0.292159310046306,50.7657049600573 0.291975192408762,50.7657967854947 0.29170922950291,50.7659269961854 0.291646896156167,50.7659578928545 0.291439150419004,50.7660591740871 0.291336356009345,50.7661043541881 0.291286520027302,50.7661278115816 0.291186645379636,50.7661729341649 0.291169721156956,50.7661759640647 0.291133713449182,50.7661928564917 0.291125536796748,50.7662002097358 0.291125844251123,50.7662064977555 0.290961489660438,50.7662960461824 0.290830225192134,50.76636884931 0.290362757134118,50.7666684582183 0.28921373659945,50.7674196034907 0.289096361277727,50.7674848479625 0.289070105090491,50.7674979514415 0.288877961997273,50.7676006296512 0.288640013477009,50.7677231776974 0.288550366710939,50.7677743899348 0.288226926155109,50.7679470802183 0.288069305846718,50.7680311860053 0.287880839161487,50.7681230003111 0.287872558386487,50.7681258600974 0.287526974765427,50.7682522266597 0.287253221776754,50.7683097469814 0.287130540227534,50.7683238420962 0.28706815451634,50.7683250657941 0.286997051317789,50.7683201664373 0.286891352512594,50.7683060557617 0.286523263428663,50.7683186692099 0.285943954426818,50.7683642853539 0.285484475710549,50.7683948719093 0.285049659039823,50.7684348640549 0.284729874925857,50.7684501218782 0.284419684241084,50.7684894683999 0.283896353780303,50.7685464756936 0.2838821883133,50.7685485510619 0.283788903992822,50.7685252021917 0.283751708104382,50.7685466115538</coordinates></LinearRing></outerBoundaryIs></Polygon>
  </Placemark>
