  <Placemark>
	<Style><LineStyle><color>ff0000ff</color></LineStyle><PolyStyle><fill>0</fill></PolyStyle></Style>
	<ExtendedData><SchemaData schemaUrl="#Wards__December_2019__Boundaries_EW_BFE">
		<SimpleData name="objectid">282</SimpleData>
		<SimpleData name="wd19cd">E05000371</SimpleData>
		<SimpleData name="wd19nm">Finsbury Park</SimpleData>
		<SimpleData name="wd19nmw"></SimpleData>
		<SimpleData name="bng_e">530812</SimpleData>
		<SimpleData name="bng_n">186416</SimpleData>
		<SimpleData name="long">-0.11425</SimpleData>
		<SimpleData name="lat">51.561459</SimpleData>
		<SimpleData name="st_areashape">916267.663739175</SimpleData>
		<SimpleData name="st_lengthshape">4688.78765754909</SimpleData>
	</SchemaData></ExtendedData>
      <Polygon><outerBoundaryIs><LinearRing><coordinates>-0.116900546115193,51.5561046070885 -0.116211566243775,51.556474801589 -0.115722816913898,51.556745726159 -0.115371312488602,51.5568759129199 -0.114621650645743,51.5571425469001 -0.11391774753065,51.5573839300414 -0.112847487518113,51.5577632511535 -0.111923318196298,51.5580640050628 -0.11155770039339,51.5581840643956 -0.111438621400242,51.5582360857651 -0.111319189667377,51.5583339499959 -0.111184292191448,51.5584577260528 -0.110812800066219,51.5583347789614 -0.110754405759627,51.5583518174029 -0.110411166929756,51.5579317547228 -0.109711428976778,51.5570274934792 -0.109468630752962,51.5569336775186 -0.109377746371535,51.5570400908858 -0.108966402966259,51.5575658428117 -0.108565064321555,51.5581627751915 -0.108412555122541,51.5584328003479 -0.108222676870202,51.5587318894446 -0.108131558914819,51.5589470775934 -0.107740445011735,51.5597159714783 -0.107573896679751,51.5600433055401 -0.107373901390449,51.5605517871807 -0.107357877200621,51.5605910849766 -0.107177082181376,51.5611240592234 -0.107092621500825,51.5614194557153 -0.106875726384704,51.5624753342891 -0.106768678466887,51.5631084795406 -0.106715942441029,51.5636138550663 -0.106173898559149,51.5639162422259 -0.105871813363731,51.5640319171528 -0.105516106579112,51.564189786513 -0.105215386646853,51.5643441382837 -0.104484586597122,51.5647081940944 -0.104365043229426,51.5647736862913 -0.10437620196129,51.5647828566475 -0.104437438360169,51.5648350903432 -0.104577422640441,51.5647672317503 -0.104845357352003,51.5646376134172 -0.106178521093552,51.5655413506754 -0.106608030157857,51.5658296762648 -0.106877836315539,51.566039096443 -0.106995476227956,51.5661255023161 -0.10730423724456,51.5663337520439 -0.107585170296779,51.5665532392793 -0.107744011803048,51.5667248154316 -0.107817736338137,51.5667916324611 -0.108294351417916,51.567160903109 -0.108396481964153,51.5672398652093 -0.10858836848741,51.5673778102534 -0.108789346405699,51.5675087993739 -0.108834358229212,51.5675364949505 -0.10903007595799,51.5676538246064 -0.109282520919771,51.5677946328606 -0.110311282813854,51.5684227159217 -0.110646242011174,51.5685908322758 -0.110681559954554,51.5686084827247 -0.110810564408292,51.5685242583762 -0.110625141715109,51.5684052102849 -0.110601126968814,51.5683904397457 -0.110684169217781,51.5683387369789 -0.110629459568467,51.5683009968168 -0.110679820772618,51.5682685462525 -0.110675719083551,51.5682612879598 -0.110670422624627,51.568251313566 -0.110778357854056,51.5681874269805 -0.111015010976823,51.5680491102388 -0.110981492988359,51.5680225000097 -0.111243263858994,51.5678693948185 -0.110670352562348,51.5674518406801 -0.110649880169471,51.5674578036408 -0.110518218039141,51.5673621857093 -0.111352468262895,51.5669044670026 -0.111953175170591,51.5673115907651 -0.112228496230788,51.5671442281012 -0.112387976573308,51.5670191380851 -0.112459185547761,51.5669744362388 -0.112323840906391,51.5668958415431 -0.112479696113096,51.5667921798506 -0.11242622684226,51.5667589546122 -0.112509034201013,51.5667099441352 -0.112379404018636,51.566634139275 -0.112709587889124,51.5664316974193 -0.112658860883758,51.5664012133025 -0.112963222547759,51.5662649709456 -0.113409264864157,51.5660167461975 -0.113613071021345,51.5659012679704 -0.114032248743815,51.5657443955914 -0.11426991298115,51.5656501394132 -0.11461888450181,51.5655137113255 -0.114936863181553,51.5653615009515 -0.114882988962193,51.5653380694986 -0.115057606485833,51.5652320993453 -0.115508997936817,51.5650640531738 -0.115964484775739,51.5653554581598 -0.11618789955221,51.5651855423526 -0.115897900118812,51.5650090830178 -0.115820645248717,51.5649583965353 -0.116377090684683,51.564622933659 -0.116736273062432,51.5644146548517 -0.117233854989352,51.564104313474 -0.117683832802187,51.5638634175734 -0.117962618983082,51.5640665729859 -0.118687933049626,51.5636915515604 -0.118434108067691,51.5634455611372 -0.118309108485382,51.563326686638 -0.11912212313779,51.5630285803903 -0.119827566666226,51.5627512198736 -0.120519320447593,51.5624565546054 -0.121459442617741,51.5620840546917 -0.122195424365065,51.5617981785806 -0.122589929740545,51.5616785428397 -0.122943362135881,51.561539459672 -0.123091628104913,51.5614429426799 -0.123357055993321,51.5613032596936 -0.12402613379105,51.5610324842806 -0.123469204193258,51.560540727135 -0.123252674488767,51.5603681625254 -0.123116834579267,51.5602697962755 -0.121483215466279,51.5591591009918 -0.121188953715483,51.5589853775097 -0.120997888684754,51.5588591546606 -0.120279550994528,51.5583314388897 -0.119821424459391,51.5580704888002 -0.119606779611962,51.5579250057895 -0.119428055019885,51.5578141702999 -0.117242385576263,51.5563493228884 -0.116900546115193,51.5561046070885</coordinates></LinearRing></outerBoundaryIs></Polygon>
  </Placemark>
