  <Placemark>
	<Style><LineStyle><color>ff0000ff</color></LineStyle><PolyStyle><fill>0</fill></PolyStyle></Style>
	<ExtendedData><SchemaData schemaUrl="#Wards__December_2019__Boundaries_EW_BFE">
		<SimpleData name="objectid">6758</SimpleData>
		<SimpleData name="wd19cd">E05012531</SimpleData>
		<SimpleData name="wd19nm">Islemoor</SimpleData>
		<SimpleData name="wd19nmw"></SimpleData>
		<SimpleData name="bng_e">334756</SimpleData>
		<SimpleData name="bng_n">120530</SimpleData>
		<SimpleData name="long">-2.93077</SimpleData>
		<SimpleData name="lat">50.98045</SimpleData>
		<SimpleData name="st_areashape">44239116.3469149</SimpleData>
		<SimpleData name="st_lengthshape">38384.7861413654</SimpleData>
	</SchemaData></ExtendedData>
      <Polygon><outerBoundaryIs><LinearRing><coordinates>-2.9839204949282,50.9902599169912 -2.98363101393336,50.9901148267511 -2.98336097156706,50.989944490481 -2.98280193895407,50.9895129971745 -2.98235769100068,50.9890536568948 -2.98203390734378,50.9887020824553 -2.98167884778392,50.9883489711206 -2.98155821837342,50.9882384187672 -2.98120433980218,50.9879410334827 -2.98082609819829,50.9876411554856 -2.98021550566154,50.9870627373819 -2.97996882471878,50.9867842281593 -2.97967301768992,50.9864710690007 -2.97945350136692,50.9862606553773 -2.97912104693035,50.985963983741 -2.97885596097626,50.9857593441778 -2.97869207155641,50.9856186744272 -2.9784201810152,50.985358353453 -2.97824751774979,50.9851466464117 -2.97804597609316,50.9848407862237 -2.97792035948896,50.9844920377999 -2.97776903090612,50.984004160728 -2.97761556669264,50.9836150938187 -2.97792044146808,50.983545118228 -2.97768845718493,50.9830129513097 -2.9774755626482,50.9825731338926 -2.97739877181948,50.9825800688754 -2.97735043228251,50.9823808914231 -2.97732771921456,50.9823171607968 -2.97718717545898,50.9820675096322 -2.97717118511839,50.9819210129081 -2.97710895758631,50.9817371447251 -2.97699943314421,50.9816112981635 -2.97694899767811,50.9815137274193 -2.97691120698986,50.9813413419734 -2.97663167428263,50.9804389963247 -2.97660512600689,50.9803322350112 -2.97659062424335,50.9801165014938 -2.97656468089159,50.9799656832635 -2.97643233663922,50.9795630406193 -2.97633168543123,50.9791087990125 -2.97619765690237,50.9787601106059 -2.97608048782063,50.978403190556 -2.97582279347542,50.9777965283746 -2.9757419818808,50.9775435907159 -2.97573081455809,50.9774196191979 -2.97579566163664,50.9773867128748 -2.97576071542319,50.9772152028323 -2.97568847904604,50.9770296193513 -2.97562156261175,50.9768962248691 -2.97562159864867,50.9768305964433 -2.97564436172438,50.9766891708924 -2.97569204275028,50.976520656163 -2.97580353811543,50.9761968883399 -2.97569949992617,50.9759899941994 -2.97566192669721,50.975895012753 -2.97563286531424,50.9758026562499 -2.97559513997044,50.9756329670557 -2.97557215211011,50.9755558438985 -2.97554493843479,50.9754787545729 -2.97546205158309,50.9753283199644 -2.97549315917743,50.9752489465259 -2.9755404111553,50.9751946101672 -2.97570224225185,50.9750313433872 -2.97573340687382,50.9748872388445 -2.97573113444052,50.9748459023907 -2.97572314273641,50.974806322343 -2.97565147967757,50.9747152197937 -2.9756219878259,50.9746696160127 -2.97558300950922,50.974574644238 -2.97548552319549,50.9741356537671 -2.97537324236232,50.9741464806518 -2.9753275733523,50.9739391863594 -2.97525655191298,50.9736762742498 -2.97518552986397,50.9734133620989 -2.97510626163682,50.9731604072712 -2.97536072557645,50.973136706542 -2.97549106339478,50.9731077485568 -2.97556504219497,50.9730343093779 -2.97548156507109,50.9725799184814 -2.97614358030739,50.9725698942189 -2.97617739594226,50.9724797082735 -2.97633801082257,50.9724666789677 -2.97649902571392,50.972467130887 -2.97659466688218,50.9724132888435 -2.97665552520002,50.972324675253 -2.9767058940592,50.9722792134263 -2.97676469913796,50.9722328707854 -2.97692770236448,50.9721263219319 -2.97705091579094,50.9720263979323 -2.97712259488623,50.971910633164 -2.97715984097227,50.9717880538028 -2.97720791905129,50.9717678727497 -2.97733239122023,50.9717281729822 -2.97740892087653,50.9717095523894 -2.97749127888817,50.9716944792233 -2.97786486266792,50.9716508066221 -2.97811940760821,50.9715641670481 -2.97816060591007,50.9715575288943 -2.97820184042101,50.9715526880958 -2.97884696664312,50.971549981362 -2.97886217593951,50.9716649293068 -2.97881789082404,50.9718604796768 -2.97870100339643,50.972469382787 -2.97886141540086,50.9724410674334 -2.9789462481467,50.9724151837785 -2.9789907740606,50.9724327918898 -2.97909020015482,50.972486798936 -2.97922154147427,50.9725675097876 -2.97939201627786,50.9726830446346 -2.97952094697266,50.9726486999877 -2.9795535614764,50.9725071891061 -2.97948886406403,50.9724124341843 -2.97952387971193,50.9723797752816 -2.97958189446074,50.9723631061802 -2.9798173900028,50.9723872034118 -2.97988273889197,50.9723785644274 -2.98007218046494,50.9723122446643 -2.98004370131859,50.9722422699867 -2.98019732091963,50.97216456339 -2.98029076820072,50.9722078317474 -2.98035602767765,50.9722621244207 -2.98047158268862,50.9723403593263 -2.98065600508252,50.9724377050322 -2.98070744296412,50.9724489603678 -2.98081227857569,50.9724193111803 -2.98096415864639,50.9722588181505 -2.98101375375315,50.9722494115245 -2.98106496983531,50.9722444858997 -2.98114845756101,50.9722888264332 -2.98117475732636,50.9723164753471 -2.9812159400094,50.9723817585052 -2.98124854821133,50.9723742921274 -2.98131077495769,50.9723512935739 -2.98133745991321,50.9723357860422 -2.98139310037903,50.9722731959127 -2.98161604574595,50.9723091720108 -2.98173736592448,50.9723207389745 -2.9818285028755,50.9723154775318 -2.98192057238038,50.9722931271246 -2.98196439669001,50.9722773854589 -2.9819547480231,50.972226222495 -2.98191933316264,50.9721671834179 -2.98187897779019,50.9721468452992 -2.9818527770041,50.972118296421 -2.98194281263749,50.9720662947103 -2.9822212689671,50.9720279931688 -2.98237858033995,50.9720590357694 -2.98254397678101,50.9721394565594 -2.98263017327756,50.9721728945894 -2.98268845285112,50.9721688081242 -2.98278662546567,50.9720960600007 -2.98270605864152,50.9719897531602 -2.98250536780397,50.9717890692158 -2.98249493424878,50.971767580369 -2.98249813976589,50.9717190062964 -2.98252271593452,50.9716702515901 -2.9825786235033,50.971614850217 -2.98255278622304,50.9715422468551 -2.98248310354072,50.9712721348977 -2.98245763150669,50.9710772595609 -2.98234518315808,50.9704711800419 -2.98230366125162,50.9701217163464 -2.98226674294581,50.9699241503035 -2.98216124175191,50.9695140909461 -2.98212628097605,50.9693425805307 -2.98208041088888,50.969054287732 -2.9820617775823,50.9689834204637 -2.98205588677897,50.9689043560769 -2.98202209994543,50.968788575386 -2.98201617705749,50.9687805333897 -2.980937049518,50.9687985904767 -2.98082340709544,50.9682015106225 -2.9808178924274,50.9681458164031 -2.98081528780189,50.9680217725975 -2.98083070080441,50.9676709319104 -2.98082476087573,50.9674551240389 -2.98064651376876,50.96744403418 -2.98047375523731,50.9674203115546 -2.98017425776575,50.9674003492021 -2.9802481056274,50.966918568947 -2.98027662139887,50.9665091801485 -2.98040201240039,50.9662455200959 -2.98051427105367,50.9659603943865 -2.9805914908012,50.9655667792982 -2.9805754784978,50.9653465608986 -2.98053358944193,50.9651185587387 -2.98050201342105,50.965035123356 -2.98046119325378,50.9649923127111 -2.98059240907102,50.964933672902 -2.98077255856734,50.9649015935621 -2.9810889538715,50.9649106236617 -2.98121170069084,50.9649239776437 -2.98135262627402,50.9649866252903 -2.98146488376561,50.9649757926173 -2.98181413371166,50.9649279056495 -2.98199560084201,50.96488592386 -2.98206464572172,50.9647855510371 -2.98208226961268,50.9647413502724 -2.98219162336151,50.9646594273076 -2.98225575934029,50.964660686566 -2.98311457179768,50.9647344640014 -2.98324579417844,50.9647432489621 -2.9835292220733,50.9647480553067 -2.98380227744162,50.9647286738065 -2.98419271252745,50.9646740496622 -2.98453371381808,50.9646361144302 -2.98459897379862,50.9646238762828 -2.98462177282472,50.9644187054317 -2.98449579988155,50.9641185007655 -2.984432035919,50.9638618251686 -2.98436169947599,50.9636330748031 -2.98438008043459,50.9635636943785 -2.9844153134304,50.963541820788 -2.98457753851429,50.9634730265228 -2.98469163435174,50.9633434132139 -2.98473972253601,50.9632629934932 -2.98461155856287,50.9631930507581 -2.98437858999687,50.9630861409412 -2.98419420171618,50.9629834077085 -2.98378979406903,50.9627808457248 -2.98352255579666,50.9626689188254 -2.98346240377569,50.9626559404567 -2.98333391353799,50.9626372432644 -2.98326547891992,50.9626324254323 -2.98314606451466,50.9626433200998 -2.98306383772326,50.9626637902568 -2.98298176544178,50.9626860576348 -2.98290576331768,50.9627289521421 -2.9828530273994,50.9627950251649 -2.98278839349518,50.962970970066 -2.98273368039901,50.9630100890709 -2.98264002754838,50.9630288573781 -2.98254887570015,50.9630269272053 -2.98230497928951,50.9629417726715 -2.98223264952229,50.9628857418702 -2.98208554492046,50.9629310314129 -2.98206996613904,50.9629383549159 -2.98213163538923,50.9630960655041 -2.98209145131378,50.963144951527 -2.98201672536592,50.9631816305186 -2.98197547830392,50.9631855735485 -2.9818670543627,50.9631774948191 -2.9815850341715,50.9631051557779 -2.98151380022741,50.9631012588328 -2.98131503501752,50.9631299003879 -2.98124558327027,50.9631493635393 -2.98103733586435,50.9631961537018 -2.98098407796236,50.9631704397689 -2.98092594584327,50.9630468610946 -2.9809038634053,50.9630128834308 -2.98088495720639,50.9629959601954 -2.98086330885785,50.9629826571423 -2.9808218969898,50.9629731154031 -2.98066768020094,50.9629537320152 -2.98051277083523,50.9629685182468 -2.98038503824049,50.9630585949064 -2.98014931385115,50.9631612648364 -2.98012236967649,50.9631641879005 -2.98009535007195,50.9631635153326 -2.97981310469704,50.9630858699008 -2.97950380826466,50.9630731805928 -2.97938672469418,50.9630552826943 -2.97930716265673,50.9629957144751 -2.97927127196902,50.9629807319583 -2.97918960466792,50.9629607383542 -2.97908409585072,50.9629517333163 -2.97902714277802,50.9629513123067 -2.97871412888488,50.9630357474474 -2.978514611486,50.9630958557705 -2.97842714177841,50.9631352471542 -2.97835336886457,50.9631502492307 -2.97833006833549,50.963125271485 -2.97842944138374,50.9628357600265 -2.97835843183515,50.9627752202327 -2.97822865825556,50.9627007884209 -2.97798180759422,50.9626758849289 -2.97776115005721,50.9626795308252 -2.97769684761989,50.9626701795932 -2.97763250758107,50.9626590300619 -2.97736925460892,50.9625965031972 -2.97716768635412,50.9625585426908 -2.97697566180647,50.9625053076187 -2.9767411008744,50.9624560241958 -2.97660870343046,50.9624580305453 -2.97647305625518,50.9624393856527 -2.97631172391164,50.9623490337304 -2.97613593796732,50.9623199351674 -2.97608471481657,50.962323959488 -2.97603931735699,50.9623315313637 -2.97600746631551,50.9623749508117 -2.975999327345,50.9625305518087 -2.97595878053643,50.9625623567378 -2.97577731873885,50.9626044190578 -2.97571504575748,50.9626247173356 -2.9755921920189,50.9626733923609 -2.97548865705428,50.9626913390754 -2.97545986895694,50.9626789930422 -2.97535462637527,50.9626151410579 -2.97529045629204,50.962544563784 -2.97523282687764,50.9625117811518 -2.97505089671792,50.9625933133598 -2.97503349532548,50.9626483899055 -2.97503749472974,50.9627049955548 -2.97499036697113,50.9627647249515 -2.97470613801768,50.9627940677024 -2.97468531477662,50.9628877405627 -2.97457319046631,50.9629048588472 -2.97439438324569,50.9627984673829 -2.97432295486903,50.9628583992217 -2.97439592007322,50.9629396924231 -2.97424551557428,50.9629679175952 -2.97411830381731,50.9630103341835 -2.9738798978923,50.9631202062935 -2.97369542191556,50.9632206372676 -2.97362114156963,50.9632113669685 -2.97353581526438,50.9632129774585 -2.9734399042196,50.9632588186013 -2.97334196130248,50.9633423451161 -2.97329534007713,50.9633589163093 -2.97319053990953,50.9633894579683 -2.97308707726917,50.9634109972983 -2.97304164079831,50.9634167697494 -2.97296036702599,50.9634156490904 -2.97291923712193,50.9634195879423 -2.97288086288424,50.9634262007952 -2.97285974064205,50.963438063882 -2.97284301857118,50.963452588184 -2.97283209889034,50.9634751541612 -2.97282081915885,50.9635480698294 -2.97274837433784,50.9636269787545 -2.97277346878546,50.9637382501216 -2.97281679908309,50.9637666584053 -2.97302255570665,50.963802703922 -2.97310732185817,50.9638361608541 -2.97299729309477,50.9639540407684 -2.97289747042907,50.9640151075237 -2.97277715300949,50.9639828458105 -2.97273156622142,50.9639814268778 -2.97268750130956,50.9639853900881 -2.97264356595472,50.9639956454267 -2.97256460337822,50.9640322645857 -2.97253084882538,50.9640577185269 -2.97247525876058,50.9641229112726 -2.97242109369548,50.9642565091237 -2.97238649505456,50.9643035466856 -2.97235426512919,50.9643289878815 -2.97215194951464,50.9644583340247 -2.97183190203272,50.9647532724085 -2.97171403435433,50.9648388517971 -2.97160710826604,50.9648972795555 -2.97149196085016,50.964978250615 -2.97138729129772,50.9650096888347 -2.97132809117554,50.9650425456385 -2.97132470615864,50.9650830309853 -2.97137901370941,50.9652328073373 -2.97137728127815,50.9652849651971 -2.97145572022622,50.9654263600003 -2.97140548423297,50.9654781127799 -2.97133249626168,50.9655254692651 -2.97125849156804,50.965529680896 -2.97118325502606,50.9654745658629 -2.97115593523057,50.965459509598 -2.97112592189313,50.9654560729464 -2.97109459565487,50.9654572326744 -2.97097127599669,50.9655518468069 -2.97087278941283,50.965541877578 -2.97083513632218,50.9655098251395 -2.97080918277819,50.9654983536933 -2.97067753700416,50.9654634861035 -2.97054493110913,50.9653880810193 -2.97043042475307,50.9654321856506 -2.97032119136687,50.9654474772265 -2.97029145999193,50.965457613678 -2.97027458273845,50.9654704302434 -2.97026492164741,50.9654857939026 -2.97029332867909,50.9655475908576 -2.97029835746251,50.9655862076994 -2.97029450478553,50.9656042200775 -2.97020519485726,50.9656912693372 -2.9701193737846,50.9656749001518 -2.97005169093669,50.9656386022206 -2.96999497720786,50.9656498619615 -2.96991593507073,50.9656828828111 -2.9697277918539,50.965675454727 -2.96964344559954,50.9655943430637 -2.96959507679726,50.9655947445733 -2.96949993052114,50.9656099193427 -2.96923655271664,50.9656831281798 -2.96911337597007,50.9657848417272 -2.96905816512002,50.9658006731151 -2.96901815500689,50.9657965103961 -2.96871507143033,50.9657386991713 -2.96858163922421,50.9656912575977 -2.96849157261247,50.965674024033 -2.96840467932662,50.9656738451741 -2.96836203926977,50.9656786942205 -2.96832444994627,50.9657176635483 -2.96825705546198,50.9657631740514 -2.96819119337455,50.9657466389019 -2.96812886819125,50.965696809724 -2.96812130275487,50.9656716995477 -2.96813034990618,50.9656266727341 -2.96817761226209,50.9655049121415 -2.96820422327034,50.9654858119079 -2.96823663926661,50.9654692705869 -2.96834610337441,50.9654593729826 -2.96840253922362,50.9654346306172 -2.96843291528259,50.9653876292685 -2.96841640687801,50.9653446128812 -2.96837649178086,50.9653449437992 -2.96825150703608,50.9653594656323 -2.96799877033396,50.9653966227264 -2.9677680647316,50.9653976350977 -2.96772974905468,50.9654015487969 -2.96767906027095,50.9654316362569 -2.9676400452274,50.9654697187858 -2.9675876488369,50.9654854362337 -2.96750902839929,50.9654708040618 -2.9672377921776,50.9653687626073 -2.96702569963991,50.965236563382 -2.96700026235934,50.9651819326699 -2.96697566703888,50.9651622683053 -2.96691087963069,50.9651295399481 -2.96686933848258,50.9651137020179 -2.96665335556411,50.9650714370783 -2.96652668398532,50.965072485299 -2.96633219658335,50.9650363351194 -2.96627333416353,50.9650799753142 -2.96616286992437,50.9651096581957 -2.96608890404154,50.9651156639076 -2.9659266973441,50.9651188030525 -2.96584397543475,50.965115891731 -2.96577661007776,50.965026545096 -2.96560204966459,50.9649830364367 -2.96552628780916,50.9650385040006 -2.9654432523314,50.9650886368027 -2.96542754895243,50.9651525980677 -2.96538138399267,50.9651971220761 -2.96528533064729,50.9651627636186 -2.96521824801187,50.9651552270696 -2.96508923433924,50.9651850622088 -2.96504097734124,50.9651908548396 -2.96499245504092,50.965189457136 -2.96494814699096,50.9651817322795 -2.96488447893637,50.9651292155166 -2.9648945288727,50.9650644017416 -2.9649054527538,50.9650418364951 -2.96492071397844,50.9650246284484 -2.9650569010785,50.9650010274444 -2.96510512608476,50.9649880425634 -2.96514160496908,50.964963467569 -2.96513567228244,50.9649491324751 -2.9651210712546,50.9649357673925 -2.9650825157535,50.9649279941579 -2.96488664041973,50.9648927523358 -2.9648295722474,50.9648869305175 -2.96466619485084,50.9649754856741 -2.96464334703421,50.9650404051198 -2.96459893006268,50.965095612311 -2.9645338296665,50.9651159288366 -2.96441980562261,50.9651096778275 -2.96434166917796,50.9651184147297 -2.96423413271266,50.9651534655367 -2.96418939836867,50.9651933917879 -2.96422178530332,50.9652435601127 -2.96419168196458,50.9653040438146 -2.96411306298002,50.9653577354536 -2.96401561694686,50.9653980975968 -2.96395565076341,50.9653940969427 -2.96385001090167,50.9653787860016 -2.96380561012975,50.9653665659367 -2.96367622374025,50.9652417691227 -2.96360910272443,50.965232433391 -2.96351794648637,50.9652988144862 -2.96336420997714,50.9653711064798 -2.9633163606993,50.9654650000633 -2.9632582859766,50.9654843586412 -2.96318068589652,50.9654508354999 -2.96310228913492,50.9653786602906 -2.96304973154682,50.9653125652108 -2.96294089646103,50.9654213464422 -2.96281738621323,50.9655131665599 -2.96286561253296,50.9655685986179 -2.96296863835919,50.9656621475558 -2.96297935939255,50.9656980207903 -2.96298931226806,50.9657707603639 -2.96299085194335,50.9658454569013 -2.96298174980934,50.9658823919472 -2.96291458373803,50.9659449785201 -2.96289411327826,50.9659829065602 -2.96280422785967,50.9659800512294 -2.96262497185685,50.9659194957548 -2.96250035340821,50.9660203148296 -2.96243339727242,50.9660873949283 -2.96233340811365,50.9661412614168 -2.96218735001255,50.966102008374 -2.96214014393421,50.9660961039986 -2.96205518212799,50.9661156834305 -2.96203019290891,50.9661509515669 -2.96215909800316,50.9662524688849 -2.96215477093585,50.9663217298878 -2.96196050785297,50.9663592914734 -2.96197840185009,50.9664013989347 -2.96201913230595,50.9664406204566 -2.96190218796603,50.9665037063093 -2.96189890573404,50.966549584412 -2.96194796038969,50.9665824441962 -2.96191030951952,50.9666187158596 -2.9617275737473,50.9667370937146 -2.96165692076978,50.9667673437894 -2.96149295049486,50.9666850841288 -2.96148441701253,50.9666869520453 -2.96144231178293,50.9667178653935 -2.96140349406428,50.9667658336333 -2.96131570703425,50.9667908296946 -2.96123555506499,50.9669129488506 -2.96119777389838,50.9669429272371 -2.96080086907879,50.9670333982567 -2.96057467030582,50.9671854872235 -2.96051650578988,50.9671949556743 -2.96045670393738,50.9671990436296 -2.96020165129582,50.9670500134825 -2.96010312687371,50.9670382369006 -2.9598879448983,50.967172252725 -2.95969622563174,50.9673338546036 -2.9590783103567,50.9665143397148 -2.95877754924256,50.9661516226072 -2.95827672191325,50.9654803811367 -2.95809063538268,50.9652237968803 -2.95781599729136,50.9647485744294 -2.95764274000662,50.9644244556941 -2.95775003265663,50.9643831197585 -2.95770607220849,50.9643178511098 -2.95757842867645,50.9643458681315 -2.95721322600345,50.9638281435425 -2.9571708174675,50.9637754484025 -2.95710701269703,50.9637157360706 -2.95652564163359,50.9632141645518 -2.95547645374961,50.9622560250757 -2.95453443783584,50.9614498352832 -2.95407724825653,50.9610300377881 -2.95355200686615,50.9605486704417 -2.95302450389728,50.9600997753968 -2.95272864689917,50.9598350872224 -2.95225291565174,50.959477466759 -2.95219934982621,50.9594356486504 -2.95170451294754,50.959050311919 -2.95048689060077,50.9582004849369 -2.94994839606613,50.9578379718532 -2.94981007379633,50.9577616897008 -2.94976548228364,50.9576703510768 -2.94961459491514,50.9575996556191 -2.94963487906498,50.9576848987192 -2.94781263900677,50.9566511616029 -2.94678049969143,50.9560264352779 -2.9451815925338,50.9550411922955 -2.94464422848089,50.9547307890075 -2.94436023393859,50.9545612811778 -2.94407775110887,50.9543909510801 -2.9438023016706,50.9542141803225 -2.9437231787307,50.9541734641237 -2.9436411676232,50.9542046935264 -2.94324802822332,50.9539839213654 -2.94320284424948,50.9539321419686 -2.94331215818232,50.9539159757569 -2.94330087450532,50.953851337068 -2.94320970398565,50.9538475778213 -2.94272440132952,50.9536491247426 -2.94273710504778,50.9535690080911 -2.94236658087599,50.9533399586318 -2.94188764265804,50.9530317682165 -2.94156809826609,50.952856336996 -2.94100847829697,50.9524992570122 -2.94051254852484,50.9521974910724 -2.9393339941897,50.9515028548701 -2.93897851143661,50.9513079266672 -2.93808502163538,50.9507719123893 -2.93745912573972,50.9503740834549 -2.93697699323726,50.9500452213294 -2.93647799413757,50.9497236858366 -2.93620655717807,50.9495342791458 -2.93586617860484,50.9493193521953 -2.93559621163839,50.9491327191924 -2.93514542095843,50.9488027009508 -2.93466524113135,50.9484233790403 -2.9347106121339,50.9483447997095 -2.93475293255756,50.948324683027 -2.93466157479538,50.9482409056401 -2.93451440958285,50.948288832628 -2.93429765146779,50.9481268537747 -2.93391104580166,50.9478008120081 -2.93362736448289,50.947497320441 -2.9334392498312,50.9472767644826 -2.93304328136814,50.9467699996488 -2.9328803830629,50.9465248769825 -2.9325312946231,50.9460843549753 -2.93218949739581,50.945579851605 -2.93178363550282,50.9449293170962 -2.93148388663281,50.9443903131639 -2.93127648318714,50.9439144933144 -2.9308949836075,50.9432718531227 -2.93056619522026,50.9425649603385 -2.93051054725186,50.9425582112536 -2.93045355748034,50.94241383174 -2.93029080076223,50.9421039748605 -2.92984207103554,50.9411624033128 -2.92970342941068,50.940919781741 -2.92959913529716,50.9406868650421 -2.92949744850798,50.9404376558823 -2.92923868130445,50.9400268824863 -2.92904923152446,50.9395904742893 -2.92901370380023,50.9395215319607 -2.92876194124303,50.939601750695 -2.92832130607596,50.9397734617433 -2.92812303315343,50.9398937089267 -2.92786437787956,50.9399874651839 -2.9278065823399,50.9400139963985 -2.92773631301059,50.940062293093 -2.92768980958821,50.9400842390212 -2.92764043597188,50.9401035107832 -2.92754673673543,50.9401186391036 -2.92744107259054,50.940098801163 -2.92734270931187,50.940021277351 -2.92719986032958,50.9399963396975 -2.92713838737042,50.9399797459246 -2.92696490224199,50.9399190907339 -2.92678193758487,50.9398773900546 -2.92648972152197,50.9397889075108 -2.92601971938454,50.9396298224763 -2.92588344196068,50.9397874230892 -2.92592133378296,50.9398338718001 -2.92593056195326,50.9398670621586 -2.92591586020886,50.9399184234021 -2.92579712458833,50.9400317426548 -2.92564709046446,50.9401409051959 -2.92560454121453,50.9401493333051 -2.92552640261433,50.9401562458137 -2.92546365647351,50.9401522485004 -2.92537924092266,50.9401268455151 -2.92526216985283,50.9401115906205 -2.92508212961377,50.9400752580097 -2.92504601977916,50.9400475845083 -2.92502085508273,50.9400037316542 -2.92502421168128,50.9399542589756 -2.92507137379045,50.9398945498802 -2.92505337669621,50.9398452454616 -2.92494363648186,50.9397678997542 -2.92490019136931,50.9397312941975 -2.92486103632667,50.9396920476305 -2.92480407053898,50.9396187784094 -2.92474853026182,50.939546397155 -2.92472259721136,50.9394638929177 -2.92472629206995,50.9394314085919 -2.92471580048916,50.9394054197099 -2.92469112868532,50.9393804424013 -2.92462934411042,50.9393539613035 -2.92452156044009,50.9392981761888 -2.92439098279389,50.9391760434933 -2.9242919469718,50.9393476423427 -2.92426691163518,50.9393811040219 -2.92417290492623,50.9394456790544 -2.92404701119784,50.939559143066 -2.92381064644734,50.9399126213616 -2.92377712718206,50.9399443523765 -2.92373497074937,50.9399725554808 -2.92336687104558,50.9401400783198 -2.92327318953868,50.9401561023269 -2.92319891044945,50.9401387093693 -2.92311948442265,50.9400808102808 -2.92303270987408,50.9400841931611 -2.92289113187773,50.9401231610979 -2.92258772389185,50.9402568167014 -2.9223110104463,50.9404406949971 -2.92208413459573,50.9406285846562 -2.9219635521117,50.9407203379626 -2.92155235498161,50.9410113605128 -2.92119429079795,50.941330731267 -2.92111825480164,50.9413727761488 -2.92104036270354,50.9413922699862 -2.92086406159307,50.9414026504252 -2.92076406714654,50.9413845593975 -2.92074110658767,50.9413748510485 -2.92070649629008,50.9413516599141 -2.92068592632165,50.9413203562864 -2.92068096119027,50.9412889296298 -2.92070148016711,50.9412465133974 -2.92069685028459,50.9410838270093 -2.92062291534991,50.9410898037753 -2.92054779784343,50.9411011845956 -2.92041759499834,50.9411399698443 -2.92028368409873,50.9412048560828 -2.92021498847128,50.9412620358513 -2.92012066956351,50.941311325748 -2.92008809159662,50.9413196741454 -2.92005257407806,50.9413217516347 -2.91983142330971,50.9412956241832 -2.9196437226766,50.9413763065137 -2.91961950347747,50.9413800934549 -2.91955258552738,50.9413788218384 -2.91949155792537,50.9413846962422 -2.91937809416033,50.941403570652 -2.91932993520571,50.9414192330344 -2.91925704193717,50.94147194976 -2.91926208350464,50.9415132652337 -2.91925264327044,50.9415403098299 -2.91923030507153,50.9415620629719 -2.91919794003042,50.9415811971936 -2.9191526975964,50.941595937263 -2.91910293393911,50.9416017228026 -2.91903457121182,50.9415986645958 -2.91899707217613,50.941643011787 -2.91900670472248,50.9416969673792 -2.91900161264826,50.9417302717891 -2.91898522837181,50.9417681596568 -2.91896592966456,50.9417952818026 -2.91891801890425,50.9418235283635 -2.91879373980589,50.9418712552227 -2.91878121629953,50.9418848393405 -2.91877437897495,50.94190107566 -2.91879012211149,50.9419791666044 -2.91878073255356,50.9420800208867 -2.91875851820138,50.94210806521 -2.91872753609049,50.9421199959763 -2.91867641758631,50.942128489819 -2.91863593743416,50.9423131081964 -2.91846551647487,50.9427641424145 -2.91844094666772,50.9428928965324 -2.91835175404292,50.9429880858175 -2.91827036114484,50.943044465312 -2.91815324221354,50.9430984286724 -2.91812210694559,50.9431085628869 -2.91800016050477,50.9431319973481 -2.91803729379432,50.9432117184333 -2.91807688468835,50.9432672375149 -2.91811774699095,50.9433217564749 -2.91816560099187,50.9433618363895 -2.9182330554759,50.9433900750695 -2.91838303784715,50.9434194624254 -2.9184924074039,50.9434069152037 -2.91855948941134,50.9434162770368 -2.91856147734042,50.9435169525379 -2.91852522351065,50.9435531991865 -2.91848318608958,50.9435877826683 -2.91834896272076,50.9436373852107 -2.91819356553761,50.9436251213998 -2.91814091341805,50.9436273339187 -2.9180231897627,50.9436507351991 -2.91794461818164,50.943636069456 -2.91781767219191,50.9435488726537 -2.9177007357186,50.9435408015698 -2.91773056528446,50.9436071843575 -2.91782779311064,50.9436990204374 -2.91787724945684,50.9438262932736 -2.91766084622761,50.9438270957234 -2.91747657406753,50.9437907845372 -2.91738544990423,50.9437941974253 -2.91737064053567,50.9438347698941 -2.917407739568,50.9439127836519 -2.91739137224237,50.9440171995923 -2.91732252635026,50.9440671867156 -2.91724813718209,50.9440443959631 -2.91711330772661,50.9439204903798 -2.91705700410787,50.9438803865225 -2.91690153588591,50.9438645263689 -2.91683909678878,50.9439478164662 -2.91676199697301,50.9440077574935 -2.91668690680246,50.9440982502735 -2.91667629350321,50.9442089132177 -2.91658641004631,50.9442753384935 -2.91640867177033,50.9442848243491 -2.91610816882825,50.9442763935386 -2.91602203016021,50.944384053556 -2.91594835564172,50.9445465467258 -2.9157933087694,50.9446952031468 -2.91557889699185,50.9446483366033 -2.91549052739244,50.944642736252 -2.91547565866842,50.9447579288315 -2.91542907355522,50.9447762743258 -2.91533148273427,50.9447374825156 -2.91521851359557,50.9445612593369 -2.91513237547926,50.9445258830129 -2.91508368122803,50.9445145775138 -2.91503380220056,50.9445086751851 -2.91494995767807,50.9445183223041 -2.91487025430842,50.9444461254392 -2.91473570161382,50.9444076227161 -2.91462942123156,50.9444282340663 -2.91452934642666,50.9444838580082 -2.91445871108666,50.9445086855557 -2.91438798730033,50.9445290173319 -2.91428583164372,50.9445504953503 -2.91421740036281,50.9446158506129 -2.91414437890471,50.9446685654589 -2.91409178920402,50.9446680787523 -2.91385931534586,50.9446456239283 -2.91379240919564,50.9446452491255 -2.91372698267346,50.9446484580438 -2.91352296331486,50.9447003997797 -2.91322205223892,50.9446712874804 -2.91300172053836,50.9446873944073 -2.91257458134273,50.9447509681567 -2.91235528917603,50.9448201090818 -2.91214376159315,50.9449261378036 -2.91202535684353,50.9449090823446 -2.91185139511982,50.9448240449095 -2.91179590478391,50.9446815325819 -2.91177095565412,50.9446421706007 -2.91165018213409,50.9446539013451 -2.91158030081943,50.9446454567484 -2.91150736291885,50.9446307427829 -2.91135131284559,50.9445852115146 -2.9112225825494,50.9446221775576 -2.911170774107,50.9446675325082 -2.91112988958737,50.9446894280255 -2.91107611004937,50.9447060302343 -2.91102510395123,50.9447145199275 -2.91094533649332,50.944710646697 -2.9108852422637,50.9446985291017 -2.91075018057586,50.9447058757458 -2.91061081310207,50.9447150534777 -2.91007392604639,50.9447722822439 -2.90995797474592,50.9447426183108 -2.90988666840791,50.9447332845234 -2.90980257625532,50.9447303443927 -2.90971737040475,50.9447364021123 -2.90967898535629,50.9447420950415 -2.90927123130193,50.9448549518255 -2.90904915449559,50.944853983878 -2.90888469893396,50.9448166056135 -2.90908791702843,50.9446514018821 -2.90902526990726,50.9445025609215 -2.90880020356386,50.9446428526865 -2.90847187871368,50.9448144240687 -2.90838343937837,50.9448052226539 -2.90808499639443,50.9447580976793 -2.90799421029387,50.9448451105079 -2.90795377236107,50.9450343093966 -2.90794072623051,50.9451656692508 -2.90788115599457,50.9452525282944 -2.90780004032626,50.9453961043934 -2.90755872119038,50.945942968784 -2.90733223026175,50.9463718556016 -2.90723315837791,50.9464013942572 -2.90711764299275,50.946394200769 -2.90696913596836,50.9463683829671 -2.90689862224052,50.9464057903797 -2.90669883795041,50.94652520436 -2.90674533334754,50.9465742894937 -2.90687184152359,50.9466335419774 -2.90680777699905,50.9467068606486 -2.90669336467898,50.946756295869 -2.90660354492506,50.9468209141878 -2.90652243827435,50.947043602684 -2.90641856694365,50.9471883435595 -2.90628507779457,50.9472828779445 -2.90609512029225,50.9472501891209 -2.90604395286027,50.9472505861102 -2.90601833924687,50.9472552794404 -2.905927351807,50.9473324026984 -2.90589196037477,50.9474135892441 -2.90590695052689,50.9474540188941 -2.90594973067072,50.9475292051434 -2.90595169856691,50.9475579588099 -2.905938128099,50.947590429244 -2.90591858113054,50.9476112580688 -2.9058734145013,50.9476304879566 -2.9058477656581,50.9476333838554 -2.90580935583036,50.9476318841161 -2.90574930722624,50.9476161672772 -2.90563093719931,50.9476071958689 -2.90555746371476,50.9476374338298 -2.90556116375872,50.947755176904 -2.90547654342152,50.9478700993938 -2.90533653908442,50.9479134384819 -2.90516471385732,50.947938145415 -2.9052030588139,50.948002577616 -2.90525035101843,50.9480201921828 -2.90529369860967,50.948052220423 -2.90530729682574,50.9480935602145 -2.90529086218148,50.9481296489956 -2.90526289919063,50.9481523415064 -2.90522757247026,50.9481705955784 -2.90519793932881,50.9481798153883 -2.90515810816293,50.9481837203398 -2.90508547576014,50.9481788893719 -2.90500258426503,50.9482379679821 -2.90495445118521,50.948321949893 -2.90465959179879,50.948460077139 -2.90453851595389,50.9485293405882 -2.90446530903887,50.9486458816281 -2.90439014579301,50.9486617479033 -2.90417001747296,50.948689523431 -2.90400281411804,50.9487286667708 -2.90386686549207,50.9488420968305 -2.90383457197204,50.9488594286111 -2.9037737650223,50.9488832742125 -2.90370568947976,50.9488954880656 -2.90364169738323,50.9489004778301 -2.90358472664984,50.9488982216819 -2.90348190612037,50.9488801376458 -2.90329401356761,50.9488815910554 -2.90309677418085,50.9489154815754 -2.90270952730121,50.9483276368395 -2.90262317893607,50.9482087340032 -2.90233592713218,50.9479285704686 -2.90213665991417,50.9482268781548 -2.90190842783293,50.9484238182578 -2.90157565017502,50.9485864148131 -2.90126624517883,50.9487074738894 -2.90114645282607,50.9487705206167 -2.90102954349219,50.9488370512641 -2.90073906352466,50.9490505626866 -2.90030494361144,50.9492778569059 -2.89984401646093,50.9494424233952 -2.89932164351279,50.9495920888199 -2.89897825020473,50.9496495722946 -2.89862891302043,50.9496972119898 -2.89839536092962,50.9497656263985 -2.89810260507396,50.9498622752 -2.89796793008454,50.9498965741117 -2.8978304852879,50.9499272988366 -2.89728102897108,50.9500061397269 -2.89700899408625,50.9500757461554 -2.89693574904303,50.9501122689817 -2.89681469190369,50.9501833224537 -2.89637926562531,50.9504906235193 -2.89587370798482,50.9507777841765 -2.89569304681316,50.9508627783809 -2.89544022588209,50.9510410151233 -2.89531292956651,50.9511543684498 -2.89523884384968,50.9512268588429 -2.89520690945883,50.9512693571274 -2.895191909386,50.9513073209537 -2.8951844416611,50.9513586227178 -2.8951715168512,50.951578082972 -2.89516068400192,50.9516069348318 -2.89511630331825,50.9516675994782 -2.89494977301468,50.9518163149836 -2.89477654891394,50.951989444771 -2.89479290660632,50.9521016969856 -2.89490860045307,50.952417356067 -2.89493942494962,50.9526167931514 -2.89495960201972,50.9530015093199 -2.89489917908908,50.9532600814563 -2.89491272041495,50.9535252793988 -2.89502153157695,50.9538490819092 -2.89505206779487,50.9538866068845 -2.8950867057509,50.9539115141184 -2.89511837129846,50.9539283533046 -2.8951956649598,50.9539493374556 -2.89527262942711,50.9539532431745 -2.89534928326934,50.9539409677984 -2.89539904873354,50.9539405863871 -2.89544191002517,50.9539474503073 -2.89548492665254,50.953962403835 -2.8955180361861,50.9539810295066 -2.89559038475553,50.9540380125785 -2.89564077175179,50.9540699913561 -2.89580327899172,50.9541515447249 -2.89594108418764,50.9541388009527 -2.89601904384639,50.9541211212487 -2.89606896076692,50.9541225369522 -2.89610751361503,50.954131231338 -2.8961348869166,50.9541445069629 -2.89615801920149,50.9541632089908 -2.89617693059668,50.9541882365491 -2.89618608616235,50.9542187328193 -2.89618383893596,50.9542484172808 -2.896160454497,50.9542899518153 -2.89612834121234,50.9545492067468 -2.89612799379175,50.9546777694654 -2.89623072189527,50.9551365616842 -2.89656750423107,50.9555449204631 -2.89672011848496,50.9557038650098 -2.89688649353522,50.9557664188067 -2.89689781026842,50.9557627357165 -2.89695966259567,50.9557254003307 -2.89710985258743,50.9554652394652 -2.89713934970948,50.9554425372789 -2.89718172841172,50.9554242316648 -2.8972285757656,50.9554184771338 -2.89727561192841,50.9554226114096 -2.89733743483894,50.9554509054516 -2.89745925383895,50.9555650442775 -2.89756523681907,50.9557468216512 -2.8976542675679,50.9559322354732 -2.89775827174442,50.9560843597614 -2.897857837232,50.956079100084 -2.89807091740811,50.9559820758588 -2.89813606807027,50.9559635948641 -2.89820853675109,50.9559594415531 -2.89826292462158,50.9559734074052 -2.8983062745899,50.9560055291246 -2.89840805751786,50.9561153264649 -2.89845914860814,50.9562506861787 -2.89850149233406,50.9563097858693 -2.89854522199697,50.9563615925198 -2.8985683043246,50.9563775975458 -2.89860854279958,50.9563943690031 -2.89866437387091,50.956410122139 -2.89869578248712,50.9564134767794 -2.89900609921476,50.9563364708676 -2.8990714391462,50.9563278763809 -2.89912836775264,50.9563274383074 -2.89918258302668,50.9563324158684 -2.89923535742142,50.9563418990956 -2.8992884767174,50.9563630666884 -2.89933605123156,50.9563950647007 -2.89935781255407,50.9564155752451 -2.89957191341634,50.9567367659172 -2.89966321977658,50.9568205709643 -2.89982039041477,50.9569228381534 -2.89988503407185,50.9569511091826 -2.89996513319317,50.9569711703118 -2.90002936070091,50.9569778671391 -2.90014455798392,50.9569733835141 -2.90048379358867,50.9569896491005 -2.90068371151038,50.9570195740397 -2.90084072554024,50.9571136603587 -2.90093707932363,50.9572397699686 -2.90077960674837,50.9572679543769 -2.90049579285096,50.9574652300758 -2.90032623784821,50.9575303675653 -2.89974959476712,50.9576041239764 -2.89945107737727,50.9576297963199 -2.89935748893299,50.9576529923935 -2.8991190350894,50.9579138362507 -2.89899396925566,50.9580703289497 -2.89868167983917,50.9584171462198 -2.89855840870276,50.9585206732103 -2.89849482006635,50.9585472331759 -2.89842530210517,50.9585585563386 -2.89838114951541,50.9585579965164 -2.89794555153429,50.9584947278097 -2.89717962801789,50.9583540698344 -2.89656578604057,50.9582706770801 -2.89540485900653,50.9580951897509 -2.89495613120095,50.9580141195132 -2.89443496200008,50.9579327028283 -2.89384055325667,50.9578274808806 -2.89250281008298,50.9575643142263 -2.89173494135753,50.9573939688104 -2.89144079582233,50.9572738567046 -2.89104290278638,50.9576160017481 -2.89082620826374,50.9575249655085 -2.89066591467251,50.957485730777 -2.89058315704241,50.9574737752836 -2.89050175795052,50.9574654055865 -2.89037529377524,50.9574762586502 -2.88997630889925,50.9574604187952 -2.8898222666829,50.9574472080322 -2.88935144826245,50.9573950526183 -2.88840615771958,50.9572529170024 -2.8880564818644,50.9572124224653 -2.88733258696148,50.9571801631632 -2.88617811563028,50.9571188008094 -2.88525685977251,50.9570421758034 -2.88497443268327,50.9570127596495 -2.88473554717015,50.956957930567 -2.88417816669513,50.9568470740297 -2.88382498665076,50.9567697333638 -2.88366622915407,50.9567304781857 -2.88353875976973,50.9566881994255 -2.88342115217319,50.9566459350214 -2.88325300906289,50.9565635977264 -2.88304398797152,50.9564303249032 -2.88289348863945,50.9563001159248 -2.88250771686975,50.9564541533876 -2.88177259252277,50.9567330026697 -2.87969518449307,50.9574852190386 -2.87981705377382,50.9578278148423 -2.87970158565741,50.9582719870681 -2.87956772484155,50.9586498602778 -2.87945137357322,50.9590472857996 -2.87933710858346,50.959406035498 -2.87928058950309,50.9597328868217 -2.87918722943333,50.960440379502 -2.87930996886806,50.9604556374652 -2.87930730744825,50.9606939820211 -2.87932516065727,50.9608125149481 -2.87935175418704,50.9609337689014 -2.87943669094383,50.9612101105938 -2.87953796873664,50.9614502790793 -2.87967783160658,50.962290955829 -2.87969977947899,50.9625515891671 -2.87965518818574,50.9629008248736 -2.87958780371175,50.9631063930737 -2.87939042769359,50.9635907284441 -2.87909905120059,50.9645191552858 -2.87906409427859,50.9647820152835 -2.87906153014737,50.9648701361409 -2.87909450814437,50.9651864240299 -2.87911465452988,50.9653454842098 -2.87923110085968,50.9660091456541 -2.87940753172088,50.9669079809726 -2.87945415471438,50.9671135002988 -2.87954348098793,50.9673916058258 -2.87974665315222,50.9681203295615 -2.8798791338044,50.9686498281695 -2.87998311381811,50.9688765798539 -2.88011280695995,50.9691094315613 -2.88038122462518,50.96951833892 -2.88070460416564,50.969902558601 -2.88107227824581,50.9704366647875 -2.88122870124258,50.9707286468248 -2.88128377346343,50.9709269980767 -2.88124427348334,50.9711727213208 -2.88119230890388,50.9712873757117 -2.8811079069616,50.9714192652108 -2.88105232353429,50.9714916038379 -2.8809910551167,50.9715676713476 -2.88050453750804,50.9721261091482 -2.88044754419965,50.9721985480691 -2.88002748109674,50.9727322096486 -2.87946062354498,50.9734091963447 -2.8791775531198,50.9737296605777 -2.87942036783857,50.9737646918513 -2.87946616459527,50.9737769329106 -2.8807855033169,50.9743262539235 -2.8807858452739,50.9743443208774 -2.88070050260771,50.9744267728752 -2.8793430451177,50.9754027898033 -2.87906501876647,50.9756117426306 -2.8788970888422,50.97577392666 -2.87880659584272,50.9758824878167 -2.87877807934452,50.9758836016695 -2.8776195506797,50.9754804830675 -2.87758690585873,50.9754807283971 -2.87727280281342,50.975670169432 -2.87636304831783,50.9761472670099 -2.8764977434096,50.976190307047 -2.8766302316322,50.9762658167359 -2.8767669599057,50.9764167213123 -2.87681610770126,50.9767562637613 -2.8768036569168,50.9770054690503 -2.87684803896706,50.9772416625158 -2.87688631643376,50.9773096987356 -2.87692890545732,50.9773759049527 -2.87710432468358,50.9775355983301 -2.87753804245553,50.9778776450187 -2.8777769881491,50.9780862147059 -2.87792342235604,50.977917001696 -2.87800222464566,50.9777922571241 -2.87809581124555,50.9776917648575 -2.87821416691696,50.9776279449279 -2.87832099335049,50.9776253429845 -2.87843045027669,50.9776874495673 -2.87854036721401,50.9777738261892 -2.87866575026684,50.9778520838603 -2.87879276215278,50.9778673102142 -2.87889833335548,50.9778728086889 -2.87923455347181,50.9778774699495 -2.87978203463618,50.9779057107743 -2.88047097602624,50.9779553567286 -2.8808226450615,50.9780192307042 -2.8814968972243,50.9781922342385 -2.88237819916789,50.9784697520074 -2.88255844121069,50.9785852598495 -2.88264505928312,50.9786502319357 -2.8827275998421,50.9787170323905 -2.88286968708691,50.9788517970458 -2.88286607970217,50.9789588051147 -2.88296024596199,50.9791182046372 -2.88335926575589,50.9795782610447 -2.88311555361075,50.9797204376195 -2.88249895022724,50.980030848464 -2.88297407271133,50.9805955132203 -2.88306156704324,50.9807064167836 -2.88325047682162,50.9809747771516 -2.883416152777,50.9811452330389 -2.88359854373595,50.9813731873582 -2.88397002367019,50.9817300643352 -2.88411330873317,50.9818530416868 -2.88433029701418,50.9820222975154 -2.88428851532995,50.9821475752505 -2.88445421223157,50.9823990280283 -2.88525806036258,50.9834649063391 -2.88548922857912,50.9837859849119 -2.88592113559373,50.9844706245628 -2.88605473417523,50.984756482017 -2.88617861227241,50.9851979389334 -2.88630051778701,50.9856898443409 -2.88639409714062,50.9866369462315 -2.88643048943446,50.9873506532272 -2.88643788984292,50.9878128610194 -2.88644704436876,50.9879233682704 -2.88647377235956,50.9881300243648 -2.88659349682804,50.9887288361599 -2.88666371883524,50.9889738192391 -2.8871636862693,50.9903098868397 -2.88753359904015,50.9914042114191 -2.88643271035656,50.9915780749153 -2.8864915017203,50.9922709339398 -2.88653046336776,50.9925952662523 -2.88659187091183,50.9929014476093 -2.88673332003056,50.993443457691 -2.88682633875522,50.993688267653 -2.88698658957226,50.9939469506395 -2.88719730289594,50.9942394128005 -2.88745335139777,50.9947401866321 -2.8876988116773,50.9952769096934 -2.88806499284708,50.9952750258019 -2.88857188622334,50.9952585853383 -2.88905935470684,50.995264765546 -2.88937461021505,50.9952785470168 -2.89007133418634,50.9953524423182 -2.89008388101089,50.9954125795815 -2.89033522323666,50.9955122510518 -2.89078930666388,50.9956338394683 -2.89135791442531,50.9958641397291 -2.89144274669534,50.9958275330861 -2.89184096345096,50.996007079649 -2.89213451205798,50.9961567678065 -2.89240711500397,50.9963291810625 -2.89222083434116,50.9964978163793 -2.89209454041319,50.9966759732201 -2.89198415272792,50.9967891903543 -2.89230604141866,50.9970745008794 -2.89241307506158,50.9971599862853 -2.89267713938344,50.9973279686985 -2.89289931047147,50.9975475137124 -2.8929993839174,50.9976375471214 -2.8930675280512,50.9977718753174 -2.89308502427101,50.9977897212001 -2.89310669908203,50.9978048382752 -2.8932838741768,50.9978287453215 -2.89339847562977,50.9979348493164 -2.8936397675344,50.9981830145814 -2.8931666502704,50.9983322696421 -2.89277060404323,50.9984873175809 -2.89266064064183,50.9985492891175 -2.89238937747734,50.9987473429734 -2.89234354267963,50.9988080158539 -2.89233285384938,50.9988449560523 -2.89233519471582,50.9988934842935 -2.89234434042208,50.9989230807534 -2.89239139045049,50.9989991361596 -2.89241417161947,50.9990718707746 -2.89241479276845,50.9991042292105 -2.8924027464914,50.9991438775404 -2.89238080081684,50.9991880959585 -2.89235153260122,50.9992242788425 -2.89231371849444,50.9992560325405 -2.89224184152255,50.9993006323498 -2.89199228513762,50.9995156898155 -2.89195711797657,50.9995384333646 -2.89186669139404,50.9995777808773 -2.89180001976303,50.9995935727028 -2.8917175339252,50.9996058891084 -2.89166772069639,50.9996062693719 -2.89163482294398,50.9996002275286 -2.89157450541521,50.999573718465 -2.89154691850835,50.9995505547667 -2.89151769451506,50.9995094248089 -2.89131361009834,50.9993508713134 -2.89110966249338,50.9995610835366 -2.89094961623282,50.9997628699916 -2.89043231584132,51.000287423094 -2.89028527296352,51.0004936039906 -2.89053571295199,51.001366686926 -2.89068392835476,51.0016632137208 -2.89019694379864,51.0016858050311 -2.8897362076515,51.001667739726 -2.88945168981044,51.0016168660405 -2.88930735090799,51.0015962993852 -2.88916306542885,51.0015785189265 -2.88891042125685,51.0015597644632 -2.88813218476483,51.0016278047125 -2.88787773225619,51.0016621032486 -2.88750828612262,51.0017233461446 -2.88699850255436,51.0018198144415 -2.88624704978883,51.0020233871469 -2.88575301746437,51.0022006407099 -2.88551679593564,51.0022915215803 -2.88528342466945,51.0023840898493 -2.88479990474456,51.002589217458 -2.88449331721814,51.0027308841355 -2.88434941506255,51.0028074895269 -2.88421120532449,51.0028867484971 -2.88394643413801,51.0030524599186 -2.88324331054936,51.0034759023312 -2.8824347058747,51.0039766423087 -2.88165821612941,51.004442881691 -2.88154467669147,51.004540920044 -2.88138904941358,51.0046751461914 -2.88106993159801,51.0049877969467 -2.88089040490146,51.0051384737844 -2.88034124804945,51.0055661316969 -2.87993470807905,51.0058551656793 -2.87973526506676,51.0060094969615 -2.8799597246264,51.0061957854075 -2.88035877792873,51.006572243091 -2.88099422659476,51.0070818561621 -2.88127524530484,51.0073188674777 -2.88189988339159,51.0068861417671 -2.88263803333229,51.0063544734646 -2.88321383216213,51.0059751494136 -2.88349455792047,51.0058255910004 -2.88373927895619,51.0060260134133 -2.88429112103792,51.0065623114583 -2.88453442312125,51.0067619336021 -2.88473580379753,51.0069384088114 -2.88484422639024,51.006942082852 -2.88517706916925,51.0073568737651 -2.88545690215844,51.0076784804839 -2.88590043394942,51.0083630273461 -2.8860770465765,51.0086575466636 -2.88656171579053,51.0094029104625 -2.88676348890839,51.0096729654104 -2.88692570212071,51.0099514109694 -2.88739894163034,51.0098075727106 -2.88787574864715,51.0096168687847 -2.88831932297673,51.009409334381 -2.88877941424844,51.0092422171806 -2.88942311152908,51.0090646204242 -2.88962586989862,51.0090046419744 -2.88951014673855,51.0087672001009 -2.88900389662542,51.0080139219549 -2.88931987515279,51.0079872430465 -2.88960086871072,51.0079257697486 -2.89041625295994,51.0077792240131 -2.8906906711018,51.0075955351546 -2.89083896582861,51.0076006971697 -2.89110018146216,51.0075437756462 -2.89175364725146,51.0073562926022 -2.89241024892624,51.0071794803388 -2.89239183322857,51.0071139945992 -2.89288306074401,51.0070095531364 -2.89295883195997,51.0070997721592 -2.89305728540919,51.0071044131405 -2.89318903801236,51.0072823953111 -2.893379736818,51.0075678060162 -2.89392295362627,51.0085348326528 -2.89458271685032,51.0083813573231 -2.89520629887782,51.0098945311161 -2.89535856330803,51.0103249705299 -2.89542868155529,51.0104872415699 -2.89549871050679,51.0106449270648 -2.89556660597565,51.0107649619293 -2.89563298511117,51.0108795238446 -2.89574587982098,51.0110414657515 -2.89654898610292,51.0118832348244 -2.89713416085015,51.012515409508 -2.89718372075562,51.0125681592731 -2.89773649355662,51.0131465491305 -2.89868291941963,51.0140960700904 -2.89892813392279,51.0143163240588 -2.89918347842259,51.0143979654507 -2.89940414407883,51.0146067207311 -2.89973389393682,51.0147732814745 -2.90054847594641,51.0151024177165 -2.90105900946277,51.0153295210031 -2.90137643653388,51.0155267388999 -2.90156747487233,51.0157465067301 -2.90166785897923,51.0160676619508 -2.90167687840698,51.0160963602652 -2.90180028777703,51.0160594477644 -2.90201989704596,51.0159948231322 -2.90203229071345,51.0160459703285 -2.90223222902535,51.0168689832302 -2.90161642079194,51.0173117256383 -2.90126307339806,51.0174690789635 -2.90088292365415,51.0176447085543 -2.90048799141619,51.0177915929896 -2.90025522062234,51.0179175389484 -2.8998489528449,51.0180681046794 -2.89944160501141,51.0182358476042 -2.89912389095906,51.0183947186185 -2.90002992673883,51.0190909339874 -2.90079427232466,51.0196866477118 -2.90130004833205,51.020041534517 -2.9010173820361,51.0202379877794 -2.90089834595081,51.0203494823983 -2.90072580927921,51.0205693580564 -2.90042406647411,51.0208918161633 -2.90042267403109,51.0208927261487 -2.89987845990085,51.0213573852819 -2.90013431739331,51.0215361110157 -2.90117067215908,51.0222619676339 -2.9099220381812,51.0282901069277 -2.91240818264855,51.0299918340048 -2.91511925798429,51.0283367092034 -2.91907041977587,51.0258750031814 -2.92333211266183,51.0232704992264 -2.92584399285009,51.0217453736208 -2.9273720746893,51.0210830284908 -2.92809724325195,51.0208399436499 -2.92810424156181,51.020837191278 -2.92830133012444,51.0207815977295 -2.92848877986857,51.0206731301879 -2.92851980245002,51.0206549044011 -2.92942507180779,51.0202952207185 -2.93011247221576,51.0200163740869 -2.93038565986002,51.0199162114609 -2.93144733255833,51.0194670785625 -2.93206815860281,51.019216709351 -2.93258766057917,51.0190254887013 -2.93307846382314,51.0188335964217 -2.93510758653022,51.0179964391099 -2.93797106956106,51.0168314493768 -2.9400236937962,51.0159732565741 -2.94171478553791,51.0152825415095 -2.94247523967188,51.0149616842594 -2.94336040493307,51.0146065526727 -2.94435849755809,51.0141929684083 -2.94601579407236,51.0135285350495 -2.94605369224388,51.0134329357255 -2.94606344441745,51.0134211702961 -2.94614969226738,51.0133161003206 -2.94625280803585,51.0131966003773 -2.94650160240252,51.0129526706573 -2.94702848462827,51.012506914297 -2.94721569098337,51.0123902389706 -2.94728637389097,51.0123635958358 -2.9473403275393,51.012352371668 -2.94739580351982,51.0123465279172 -2.94749865720702,51.0123528872075 -2.94764475743244,51.0123876638772 -2.94768905252908,51.0123926987786 -2.94780355512088,51.0123477209052 -2.94796130759196,51.0122565445395 -2.94862438955259,51.0117763252134 -2.94875098977263,51.0116907940003 -2.94897236814556,51.0115730294018 -2.94904726877692,51.0115400580691 -2.94912359723714,51.0115079743499 -2.94938133170182,51.0114266823562 -2.94945493098603,51.0113991158877 -2.94973606437626,51.0112781671755 -2.9498569631169,51.0112645999195 -2.95047714156815,51.0112685541384 -2.9501681240568,51.0106577746482 -2.94975514319826,51.0097672639743 -2.95006611599376,51.0098474463888 -2.95038078276473,51.0098323049877 -2.95048450117287,51.0098179773748 -2.95058250791156,51.0098001008934 -2.9507458386323,51.0097007839606 -2.9507539558471,51.0096782431703 -2.95075441078384,51.0096314922234 -2.95074075502375,51.0095901596868 -2.95069402186293,51.0095348024263 -2.95065351795099,51.0095081613804 -2.95060460788902,51.009484286354 -2.95055435530409,51.0094694119665 -2.95050432846529,51.009459929395 -2.95042719567237,51.0094524654845 -2.95012595146126,51.0089396124236 -2.94998993437811,51.0085639512236 -2.94992441373071,51.0084287358723 -2.94985456852546,51.0082889712396 -2.94955558991737,51.0077483197084 -2.94949216532017,51.0076408656736 -2.94928903922158,51.0073277781386 -2.94893462937137,51.0069323118247 -2.94873242736178,51.0066641654828 -2.94850312610394,51.006323420297 -2.9484198943126,51.0061549955467 -2.94830478071811,51.0060309686077 -2.94793567135404,51.0056859617257 -2.94769568089638,51.0054486850795 -2.94718424791555,51.0049699804307 -2.94699640947308,51.0047772297991 -2.94682922511935,51.0046176638312 -2.94669739262074,51.0044397421347 -2.94661871310845,51.0043558739615 -2.94653728511239,51.0042755341291 -2.94645769086055,51.0042159456817 -2.94637524989312,51.0041608755351 -2.94620220935143,51.0040597899082 -2.9452780277548,51.0036814149705 -2.94499258008557,51.0035884278677 -2.94460596340837,51.0035016515069 -2.94448241396491,51.0034532048429 -2.94442038920106,51.0034195441005 -2.94435081881584,51.0033615809726 -2.9443333447135,51.0033401464186 -2.94430927382338,51.0032774115035 -2.94431059188135,51.003272906436 -2.94521834093073,51.0031963540658 -2.94545800160895,51.0032105995068 -2.94624109449175,51.0032393283949 -2.94701627173624,51.0033004808594 -2.94724702672286,51.0032986127932 -2.94771117041454,51.0032741767033 -2.94806908083089,51.0032784690988 -2.94820174001523,51.003283686944 -2.9484757570756,51.0033057382606 -2.94893678982584,51.003336162123 -2.94924007087401,51.0033238128394 -2.94958578422586,51.0032257143033 -2.95023277934044,51.0030118055801 -2.95046620681363,51.0029281023464 -2.95058202731135,51.002874120239 -2.95092043986968,51.0026951691896 -2.95135124219798,51.0024371631595 -2.95153059302091,51.0023583011089 -2.95249755114669,51.0021104032207 -2.95257034179127,51.0022563454331 -2.95259808943518,51.0022857856367 -2.95263138507406,51.0023106862266 -2.95267455644383,51.0023301127118 -2.95275631224731,51.0023573154871 -2.95291101734263,51.0023948022391 -2.95319364489581,51.0024185708504 -2.95368199774726,51.0023948130126 -2.95441905837639,51.002333873834 -2.95451923719549,51.0024913688402 -2.95483342651874,51.0024555428148 -2.95499528705657,51.0024236554124 -2.95508457027762,51.0023995533684 -2.9552528316006,51.0023360597022 -2.95537545275577,51.0022703306871 -2.9555381503631,51.0022105680502 -2.95573952463864,51.0021630741863 -2.95615169907335,51.0021093629187 -2.95653504664255,51.0021053309477 -2.95666325201557,51.0020997873364 -2.95699861783869,51.002053893295 -2.9573165371831,51.0019882730984 -2.9573588530347,51.0019717448929 -2.9574024543833,51.0019435195453 -2.95743310152802,51.0019082080222 -2.95744662076406,51.0018685422301 -2.95744442831018,51.0018361962926 -2.95742971182436,51.001812044268 -2.95740641997645,51.001787961519 -2.95735301909059,51.0017569338785 -2.95725362398715,51.0014951528283 -2.95723991959022,51.0012461547888 -2.95719748474654,51.0010513313139 -2.95713497615147,51.0009259850755 -2.95670541693155,51.0004826108215 -2.95717706538321,51.0004076423117 -2.95767736748638,51.0003433164239 -2.95865196649979,51.00012766775 -2.95891597087498,51.0000750707767 -2.95931602759453,50.9999818915177 -2.95962150924191,50.9998724063858 -2.96003933947021,50.9997466259252 -2.96007262032915,50.999839039084 -2.9600845174934,50.9999315368966 -2.96009650893519,51.0000285292679 -2.96011588636797,51.0003467027082 -2.96025802771359,51.0004642924257 -2.96034158366644,51.0005103539125 -2.96082061479257,51.0005882287885 -2.96101888064334,51.0005955909729 -2.96120994204507,51.0006012126209 -2.96127931982187,51.0005808654471 -2.96132055743586,51.0004384860654 -2.96186874648786,51.0004115053836 -2.96237750993025,51.0004100181738 -2.96297385675885,51.0003708596011 -2.96368788358362,51.0002382222253 -2.96432742684177,51.000083720465 -2.96472755897017,51.0000003211076 -2.96479588435081,50.9999916671299 -2.96486275680815,50.9999866202852 -2.96543579648499,51.0000646900475 -2.96564688491621,51.000072836902 -2.9662153135773,51.0000645475286 -2.9663962616394,51.0000585575966 -2.96682878523244,51.0000243285618 -2.96734054036619,50.999963461757 -2.96740483574218,50.9999701222823 -2.96744779909972,51.0000471697147 -2.96815993655038,51.0000277043331 -2.96865986330911,50.9999462523491 -2.96929727827724,50.9998259024524 -2.96959923717284,50.999751481095 -2.96973685184872,50.9997242694811 -2.96987606837982,50.9997005505906 -2.97018866889026,50.999657504151 -2.97042552386591,50.9995998024999 -2.97086711273365,50.9994540979973 -2.97092151480353,50.9994653331311 -2.97111649737188,50.9996587957214 -2.97133117564263,50.9996363370822 -2.97193200287072,50.9996043767366 -2.97209062306247,50.9995590082706 -2.97286622009687,50.9993718643639 -2.97312249525026,50.9992878348114 -2.97331958548953,50.9992448415041 -2.97368893667757,50.9991851315381 -2.97404058696932,50.9990994976866 -2.9742203946148,50.9990448692984 -2.97442227863946,50.9989559860484 -2.97503981675606,50.9987071247566 -2.97537696236891,50.9986081217252 -2.97633307219191,50.9983959854289 -2.97710427370342,50.9982753753992 -2.97792470273057,50.998115690981 -2.97812020227327,50.998064522373 -2.97821365945525,50.9980331754871 -2.97830408395996,50.997997358545 -2.97845213533189,50.9978522819931 -2.97866239216156,50.997620291386 -2.9790217341031,50.9971587093644 -2.97927125516157,50.9965541172211 -2.97950087577191,50.9960872365649 -2.9795497553098,50.9959088273153 -2.97951987696712,50.995773239693 -2.97952539383052,50.9955610310618 -2.97961202404633,50.9953453573346 -2.97976309677536,50.9951435273084 -2.97997190697133,50.9949106470508 -2.98011357261324,50.9948033794279 -2.98046881772964,50.9945503924525 -2.98069696049509,50.9943542980611 -2.98058424845643,50.9942131130202 -2.98025103529668,50.993816663413 -2.97989071218574,50.9934213382858 -2.97969763162886,50.9933185832315 -2.9796264236962,50.9933236740138 -2.97944026416321,50.9933486969188 -2.97945766698708,50.9932936223815 -2.9795232409488,50.9932274470289 -2.9794995528073,50.9931179684666 -2.98016843495267,50.9925341342915 -2.98008866209805,50.992472772469 -2.98045349473933,50.9922017254726 -2.98059394934751,50.9921043562871 -2.98088224666217,50.991925646599 -2.98103030148795,50.9918488895924 -2.98138992763328,50.9916767726071 -2.98242902593477,50.991352413455 -2.98250348214573,50.9913733638342 -2.98267471809986,50.9913152888692 -2.98268381088826,50.9912729602892 -2.98269121236672,50.9911506350809 -2.98318180648282,50.990838967099 -2.98370227499373,50.9904514403387 -2.9839204949282,50.9902599169912</coordinates></LinearRing></outerBoundaryIs></Polygon>
  </Placemark>
