  <Placemark>
	<Style><LineStyle><color>ff0000ff</color></LineStyle><PolyStyle><fill>0</fill></PolyStyle></Style>
	<ExtendedData><SchemaData schemaUrl="#Wards__December_2019__Boundaries_EW_BFE">
		<SimpleData name="objectid">1584</SimpleData>
		<SimpleData name="wd19cd">E05003338</SimpleData>
		<SimpleData name="wd19nm">St Helen's</SimpleData>
		<SimpleData name="wd19nmw"></SimpleData>
		<SimpleData name="bng_e">438200</SimpleData>
		<SimpleData name="bng_n">372163</SimpleData>
		<SimpleData name="long">-1.42901</SimpleData>
		<SimpleData name="lat">53.245129</SimpleData>
		<SimpleData name="st_areashape">1447796.94837105</SimpleData>
		<SimpleData name="st_lengthshape">5547.85258244243</SimpleData>
	</SchemaData></ExtendedData>
      <Polygon><outerBoundaryIs><LinearRing><coordinates>-1.42636272824541,53.2385251951129 -1.42632935695185,53.2384432625839 -1.426301831794,53.2383676483391 -1.42621692579867,53.2382224770573 -1.42607746903668,53.2380087482039 -1.42598980010734,53.238060534179 -1.42577086428233,53.2381906723941 -1.42567850616806,53.2382603172812 -1.42553495873459,53.238342384406 -1.42476059113549,53.2386541418262 -1.42466586912297,53.238678844798 -1.42458331331617,53.2386901273341 -1.42452334854787,53.2386934320416 -1.42438115419373,53.2386837589143 -1.42295994079077,53.2382947961179 -1.42259559422098,53.2381950832148 -1.42242993390396,53.2381484506003 -1.42219948727197,53.2383433168832 -1.42202447397011,53.2385500436441 -1.42189459243132,53.2387355121566 -1.42160891931124,53.2392500107423 -1.42153706709789,53.239355786136 -1.42146995441237,53.2394399283917 -1.42139248966369,53.2395222235319 -1.42129849238232,53.239602730502 -1.42115921118422,53.2397062914917 -1.42087384240526,53.239868449787 -1.42067276739346,53.2399915693353 -1.4205836324524,53.2400504434074 -1.42044722806467,53.2401603080386 -1.41978044390344,53.2399404988016 -1.41924803663007,53.2397518045876 -1.41915533041898,53.2401827714875 -1.41869136158683,53.2422353546159 -1.41840579085701,53.2436407678653 -1.41829997141479,53.2450568521382 -1.41825952336384,53.246176706717 -1.41827571597269,53.2472005946875 -1.41839244310217,53.2481081514556 -1.41850193215744,53.2487720547039 -1.41890199228288,53.2486742597418 -1.41912155769975,53.2486105390819 -1.41940982000778,53.2485751011235 -1.41944458846375,53.2487748569213 -1.41950636623913,53.2488677165253 -1.41958198175409,53.248923799943 -1.41972931800538,53.2490036874936 -1.42004600056841,53.2489682966692 -1.4207680835143,53.2488792515992 -1.42159045899853,53.248793385867 -1.42170751352678,53.248781373481 -1.42203926720954,53.2487461403108 -1.42230040883101,53.2487150563361 -1.42279872438822,53.2486616676816 -1.4228985474641,53.2490433519295 -1.423574982001,53.2490043919589 -1.4237417364057,53.2489718600496 -1.42396108675892,53.248933380876 -1.42420445130057,53.2488824374144 -1.42437863424414,53.2488581177105 -1.42471030335777,53.2488291670827 -1.42501005483011,53.2488216276269 -1.42528606670592,53.2488058864158 -1.42579145881769,53.2487777709916 -1.42604797215842,53.2487601361924 -1.42623107872992,53.2487430451774 -1.42649518786049,53.2487209533299 -1.42650107154664,53.2487245763375 -1.42654006437378,53.2487193716493 -1.42654902321669,53.2487239083557 -1.42657301844572,53.2487222261113 -1.4269231274307,53.2486537285069 -1.42711699933083,53.2486169185383 -1.42715523961903,53.2486683241379 -1.42724612898336,53.2488216199568 -1.42735201905076,53.2489713023985 -1.42748942671226,53.2491203281973 -1.42759730397688,53.2492412644129 -1.42783374558927,53.2494887165749 -1.42790300291573,53.2494656852954 -1.42798127878787,53.2494426963985 -1.42806702921795,53.2494152506758 -1.42818881073639,53.2493915725965 -1.4282033559452,53.24942219586 -1.42823642947439,53.2494160642132 -1.4284148831718,53.249405238937 -1.42859011966563,53.2494132684457 -1.4287081816841,53.2494371999098 -1.42884718869203,53.2494657244057 -1.42883180879238,53.2494980018546 -1.42883070222094,53.2495815694876 -1.42883743908797,53.2496328244213 -1.42884460552855,53.2496608063341 -1.42892054938927,53.2498139386692 -1.4290192157468,53.2499402211888 -1.42913468924578,53.250047802723 -1.42930274714161,53.250150154775 -1.42949482498138,53.2502490270402 -1.42962298562516,53.2503036485302 -1.42977210910456,53.2503519910184 -1.42998857953553,53.2504186283646 -1.43016636476493,53.2504581212852 -1.43028155683075,53.2504748482517 -1.43037582804881,53.250485184519 -1.43047185993859,53.2504838461494 -1.43057231257264,53.2504753403554 -1.4306624454989,53.2504622924333 -1.43074508814607,53.2504456130362 -1.43083380578421,53.2504181794406 -1.43092877387034,53.2503853831661 -1.43102675054315,53.2503400211144 -1.4310931755707,53.2503070891986 -1.4312344075081,53.2503913372698 -1.43135030537799,53.2504664778762 -1.4316035506149,53.2505836117911 -1.43193445027402,53.2507155843459 -1.43319714987595,53.2512249310865 -1.43346646979553,53.251370085007 -1.43370272196436,53.251530267881 -1.4338270843803,53.2516387862938 -1.4340078942904,53.2517960090729 -1.43414533892026,53.2519432301934 -1.43430166761705,53.2521389779147 -1.43440906442154,53.2522878537239 -1.4354403376377,53.2520527171609 -1.43590942428983,53.251941708856 -1.43633645445627,53.2518429910038 -1.43659401699911,53.2517471555304 -1.4368333372312,53.251666510093 -1.43712206522713,53.2515968815264 -1.43745279172399,53.2515192723155 -1.4377519143122,53.2514577786839 -1.43815315458381,53.2513742995433 -1.43899714684917,53.2512451864792 -1.43931848536917,53.2512044618457 -1.44023817367326,53.2510128814725 -1.44110683374228,53.2508389366822 -1.44090646787286,53.2505683165201 -1.44077177395449,53.2504355851086 -1.44047832792743,53.2501860943391 -1.44032078167669,53.2500811134129 -1.43980764842625,53.2496687435433 -1.43968547629362,53.2496088592126 -1.43959898560763,53.249579695994 -1.43947792082289,53.2495485732193 -1.43942870673327,53.2495321661224 -1.43937956306358,53.2495103677565 -1.43934405047246,53.2494760525417 -1.43931155217286,53.2494381568091 -1.43930179004405,53.2493814067158 -1.43929410729503,53.2492789251724 -1.43930135849166,53.2491872988434 -1.43926018813573,53.2490090841345 -1.43923838033211,53.2489568608193 -1.439184269605,53.248861350148 -1.43910895819445,53.2487711321381 -1.43906308612882,53.2487258940963 -1.43874635706779,53.2485383842129 -1.43864503099308,53.2484911777813 -1.43858703170156,53.2484567563511 -1.43854103276304,53.2484214026459 -1.4384357160625,53.2483391301215 -1.43838939588014,53.248214899989 -1.43835044367498,53.2480942084573 -1.43806911263718,53.2478367700199 -1.43728547255657,53.2471372536272 -1.43734109052931,53.2471267331377 -1.43765812040666,53.2470635273565 -1.43825705858269,53.2468731458228 -1.43855403283493,53.2467369642149 -1.43873089550811,53.2465067568455 -1.43934569272029,53.2457914596974 -1.43947255203899,53.245605050332 -1.43972229224603,53.2451864704339 -1.43997205566119,53.244756209106 -1.43912478504626,53.2443422616222 -1.43902655642842,53.2442950697376 -1.43880844318086,53.2442410223318 -1.4383390368156,53.2441570328048 -1.4380073061634,53.2440799817336 -1.43760578668985,53.2439638683612 -1.43753273290188,53.24392847704 -1.43746731729546,53.2438949177553 -1.43714132750322,53.2437289263745 -1.43647452208935,53.2433787163181 -1.4363256731634,53.2433007288229 -1.43595491000698,53.2431201430726 -1.43496255058313,53.2426955906394 -1.4344392438256,53.242492711323 -1.43386883499611,53.2422167268667 -1.4335805071434,53.2420346408852 -1.43315197463238,53.2418042709699 -1.43276310362899,53.2416397792028 -1.43267822026493,53.2416025338655 -1.43207765344543,53.2413488812408 -1.43163366533181,53.2411579734608 -1.4313489512998,53.2410406987381 -1.43088601163448,53.2408074634407 -1.42980449492314,53.2402189338837 -1.42899754414433,53.2398240955758 -1.42864200185727,53.2396273977049 -1.42760089199902,53.2391630411761 -1.42715857126486,53.2389523525858 -1.42679116178318,53.2387573874809 -1.42657691969693,53.2386385512852 -1.42636272824541,53.2385251951129</coordinates></LinearRing></outerBoundaryIs></Polygon>
  </Placemark>
