  <Placemark>
	<Style><LineStyle><color>ff0000ff</color></LineStyle><PolyStyle><fill>0</fill></PolyStyle></Style>
	<ExtendedData><SchemaData schemaUrl="#Wards__December_2019__Boundaries_EW_BFE">
		<SimpleData name="objectid">7767</SimpleData>
		<SimpleData name="wd19cd">W05000680</SimpleData>
		<SimpleData name="wd19nm">Mountain Ash West</SimpleData>
		<SimpleData name="wd19nmw">Aberpennar - Gorllewin</SimpleData>
		<SimpleData name="bng_e">303961</SimpleData>
		<SimpleData name="bng_n">198643</SimpleData>
		<SimpleData name="long">-3.39042</SimpleData>
		<SimpleData name="lat">51.67831</SimpleData>
		<SimpleData name="st_areashape">3506462.10011045</SimpleData>
		<SimpleData name="st_lengthshape">9773.64577842378</SimpleData>
	</SchemaData></ExtendedData>
      <Polygon><outerBoundaryIs><LinearRing><coordinates>-3.37329867245481,51.6788561749159 -3.37347045729792,51.6792759469393 -3.37353884626014,51.67948280149 -3.37349055657994,51.6795579781423 -3.37347684179722,51.6796328401532 -3.37339182551335,51.6798342987122 -3.37335753791998,51.6799426617143 -3.3733444008073,51.680032709736 -3.37336047628578,51.6801817448866 -3.37340912699392,51.680260372317 -3.37354440762662,51.6805258639822 -3.37360249339533,51.6806285621123 -3.37367824245842,51.6808381171085 -3.37373731408785,51.6808787771697 -3.3737474855125,51.6809272002989 -3.37369882995862,51.680943052367 -3.37374158349587,51.6810198603892 -3.37382696329438,51.6811141489878 -3.37395511751705,51.681238590504 -3.37405671515416,51.6813012254128 -3.3742106932933,51.6813686413901 -3.37435685616816,51.6814181701553 -3.37446202414591,51.6814529858954 -3.37466095420329,51.6814767262303 -3.37483466233913,51.6814827830823 -3.37508651271462,51.6814897210324 -3.37549024578682,51.6814948799458 -3.37558281415805,51.681495593747 -3.37601027601681,51.6816146375295 -3.37610522817935,51.6816467858753 -3.37624731903279,51.6817035509841 -3.37633373462896,51.6817412825272 -3.37701406703161,51.6820893742919 -3.3772232627897,51.6822154688158 -3.37744487127616,51.6823693752145 -3.37770309341444,51.6825820907329 -3.37849773634973,51.6831707390065 -3.37879886467751,51.6833704533827 -3.37925718040035,51.6836483268689 -3.37945087068386,51.6837386419135 -3.37958638319042,51.6838179537583 -3.37971038441366,51.6839972718695 -3.37984577762783,51.6842609543488 -3.38007561033248,51.6846376920134 -3.38024477002188,51.6849683973974 -3.38034298425287,51.6852486973233 -3.3803704511893,51.68529691704 -3.38044415179146,51.6853868424412 -3.38055235026891,51.6854737554981 -3.38069235279354,51.6855593054314 -3.38087707608517,51.6856407335033 -3.38108461400907,51.6857075104962 -3.38128132279566,51.6857555369848 -3.38165941719977,51.6858221950286 -3.38221730628863,51.6858983308282 -3.38305010495535,51.6860287594387 -3.38360257763362,51.6860717824407 -3.38390951178832,51.6860771549568 -3.38428420522622,51.6860790312968 -3.3847300774183,51.6860917523621 -3.38529086498451,51.6861219928328 -3.38569260618331,51.6861073628794 -3.3866634474829,51.6860671327944 -3.38814950367839,51.6860333882894 -3.38873279191682,51.6859959257592 -3.3891968142483,51.6859859402725 -3.38998588037513,51.6860080624022 -3.39067174169266,51.6860134234659 -3.39075999806392,51.686013277073 -3.39146995250693,51.6860030653275 -3.39230768034493,51.6859589727348 -3.39265566193722,51.685937764677 -3.39297052002427,51.6859681892874 -3.3932236655008,51.6860164239449 -3.39370983971249,51.6861607762117 -3.39399399656378,51.6862284180052 -3.39419064558589,51.6863205611916 -3.39424269934584,51.6863648901845 -3.39429455033492,51.6864065239773 -3.39434809527272,51.6864993774313 -3.39436658298459,51.6866313918454 -3.39439423726591,51.6867317445807 -3.3944657059692,51.6868450612203 -3.3945851461805,51.686966887151 -3.39474165935146,51.6871151504193 -3.39484165499781,51.6872174302174 -3.39487663374599,51.6872727486179 -3.39481405460813,51.6873516997584 -3.39472850967894,51.687486748509 -3.39461660177568,51.6876139285605 -3.39453237646718,51.6876949350397 -3.39444761804438,51.6877624634328 -3.39427857659597,51.6878625455254 -3.39422367006933,51.6879117397815 -3.39407665097443,51.6880725983298 -3.39402464150628,51.6881694918836 -3.39402935588926,51.688179324363 -3.39410958168585,51.6882475900604 -3.3946761355422,51.6886544627573 -3.39516393025041,51.6889939498035 -3.39522039097531,51.6890418220104 -3.39528324021887,51.6891112817195 -3.39543630734194,51.6893837293035 -3.39546952528682,51.6894282817584 -3.39554967129445,51.6894938508743 -3.39576460170582,51.6896135518103 -3.3958509904746,51.6896493811314 -3.39593849012209,51.6896709044508 -3.39602419736066,51.6896806722353 -3.39619499422874,51.6896840357101 -3.39649389626671,51.6896678959409 -3.39732547487922,51.6897047474272 -3.39774192979293,51.6897447370709 -3.39810358061986,51.6897907721272 -3.39822255665982,51.6898001430914 -3.39855676641464,51.6898033545973 -3.39870341594496,51.6898204855505 -3.39880099398982,51.6898399984232 -3.39890350315666,51.6898801286528 -3.39906778827982,51.6899546706384 -3.39916897101122,51.6898589870146 -3.39951351928524,51.6898647684199 -3.3997797721816,51.6898651905288 -3.39986554457612,51.6898345033746 -3.39995533947212,51.6897911820933 -3.40011389019156,51.6896760247766 -3.40015417097902,51.6896207094325 -3.40033426070019,51.6894575608834 -3.40047743144343,51.6893156185045 -3.40062377506871,51.6892301806869 -3.40069439246695,51.6891259598869 -3.4008005964107,51.6889573992863 -3.40088121637855,51.6888063140535 -3.40095608285919,51.6886543082741 -3.40098316945136,51.688592857397 -3.4010173836984,51.6885304213565 -3.40109623158562,51.6884108200967 -3.40112165378689,51.688345703211 -3.40107207309745,51.6882851663228 -3.40125232637947,51.6880349066498 -3.4012325503064,51.6880008930293 -3.40118505323579,51.68791516179 -3.40121198873114,51.6878024716578 -3.40129772688059,51.687678203624 -3.40139891350193,51.6874864187126 -3.40148018001256,51.6874027460464 -3.40160995063191,51.6872482853072 -3.40159946522692,51.6870478562658 -3.40161404159481,51.6869559897186 -3.40163189909386,51.6869279092933 -3.40173323949829,51.6868377040475 -3.40173122485793,51.6868188502758 -3.40168950215304,51.6867770978351 -3.40160279776599,51.6867348943899 -3.40158259951234,51.6866910873398 -3.40158391427528,51.6866371348405 -3.40160846244003,51.6865900966732 -3.40162767710765,51.6865557074229 -3.40163840992861,51.6865286103861 -3.40160457601875,51.686464290859 -3.40148585334172,51.6864125812244 -3.40145239377226,51.6864066881931 -3.40145338124947,51.6863922927756 -3.40146298789678,51.6863750986213 -3.40157654332824,51.6863521679316 -3.40161315515614,51.6863211659099 -3.40162950795377,51.6862868108356 -3.4016552376453,51.6862316684226 -3.40164142346004,51.6861590187778 -3.40163326766355,51.6861266640067 -3.40168177942984,51.6861063084467 -3.40167671022794,51.686081198545 -3.40186503174657,51.6859998417973 -3.40194259339712,51.6859314939968 -3.40195105235822,51.6858810520353 -3.40192574302268,51.6858570831407 -3.40190937133641,51.685701671872 -3.40193989946875,51.6856590563794 -3.40190567854283,51.6855821563319 -3.4018792295869,51.6855213436668 -3.40186410759558,51.6854063698483 -3.40187331297228,51.6853298493149 -3.40185756886321,51.6852410416034 -3.4018995482299,51.6851946043845 -3.40205373892768,51.6851783795122 -3.40211409991389,51.685163274682 -3.40225161417661,51.685167024948 -3.40228332324075,51.6851163051144 -3.40227671119601,51.6850876186566 -3.40227728181932,51.6850597446701 -3.40231004614561,51.6850431719995 -3.40231904113264,51.6850062071186 -3.402388415604,51.6849586330447 -3.40240566222204,51.6849107827132 -3.4024142947345,51.6848620471028 -3.40244974712709,51.6847897079201 -3.40260594462183,51.6846494034704 -3.40273083536623,51.6845264634561 -3.40274511613317,51.6844714566926 -3.4026295531135,51.6843829439412 -3.40262489135094,51.6843749086423 -3.40262633034151,51.6843712955322 -3.40261511345755,51.6843363715124 -3.40265455677774,51.6843044369516 -3.40275999513795,51.6842968839396 -3.4028148725813,51.6842935302982 -3.40289420056579,51.6842862893053 -3.40295789966656,51.6842441770152 -3.40308168325874,51.684174286567 -3.40316567821967,51.6841328297767 -3.40310656140262,51.6840454400054 -3.40309660900674,51.6840051065871 -3.40309156561649,51.6839808956187 -3.4031111948355,51.6839599846422 -3.40318535126479,51.6838781031243 -3.40309852794274,51.6837856512524 -3.40295805934956,51.6837324944754 -3.40288071903563,51.6836650991617 -3.40287068186599,51.6836220697861 -3.4028590992673,51.6835753730338 -3.40293883661874,51.6835312703281 -3.40302335682836,51.6835068866528 -3.40315550299586,51.6834297946537 -3.40325794367657,51.6833755316503 -3.40326997306523,51.6833403285822 -3.40331539697347,51.6833128172086 -3.40331174693605,51.6832911962496 -3.40329393086553,51.6832743288675 -3.40328054686024,51.6832619036184 -3.40330360545816,51.6832130841265 -3.40333961869243,51.6832090583937 -3.40337858420743,51.6832040972337 -3.40344354284638,51.683156574997 -3.4034286298808,51.683094726013 -3.40343294255598,51.6830452314932 -3.40350488530009,51.6830344833136 -3.40357110345309,51.6830238026663 -3.40369404083474,51.6829305490294 -3.40368513605443,51.6828740216484 -3.40366645219731,51.6828328932855 -3.40364487761916,51.6827909011907 -3.40366590816577,51.6827690740226 -3.40376807602906,51.6827022285077 -3.40392389980435,51.6826427420886 -3.40404259799006,51.6826476144972 -3.40404792429156,51.6825846241964 -3.40407947396831,51.6824826649582 -3.40415655719843,51.6823567886184 -3.4041301874437,51.682298581924 -3.4041348813808,51.6822652649513 -3.4040953252953,51.6822010142055 -3.40409941469906,51.6821443313554 -3.40403755677525,51.6821109115358 -3.40402288193459,51.6821029960569 -3.40402683972855,51.6820921618008 -3.40403470841286,51.6820650986015 -3.40396320669826,51.6819975442055 -3.40404021044332,51.6819615636021 -3.40411875388319,51.6819291604554 -3.40429219845697,51.6818803394838 -3.40452055351007,51.6818254675447 -3.40465113112416,51.6817942387004 -3.40479257367712,51.6817826568156 -3.40514086533882,51.6818189391561 -3.40542602430052,51.6818730571192 -3.40545488329757,51.6818691155211 -3.40554276276143,51.6817646836181 -3.40582136209754,51.6814223517531 -3.40588261788064,51.6812516261055 -3.4058096497621,51.6812291272336 -3.40574473552967,51.6811894522664 -3.40579773612096,51.6809370218796 -3.40588909904612,51.6805717613438 -3.4059933664806,51.6805768046578 -3.40600555441619,51.6805505896639 -3.40605680387528,51.6804303250779 -3.40618379438012,51.6801411383895 -3.40628767865257,51.6799914772085 -3.40663084911921,51.6796321880626 -3.40655494850349,51.679284214896 -3.40634082758809,51.6792822863349 -3.40608862307286,51.6784247428583 -3.40584817949193,51.6776192866023 -3.40676579920462,51.6769383003798 -3.40727444089384,51.6765977004905 -3.40787500764305,51.6761454249913 -3.40886346533518,51.6754205114298 -3.41040207594138,51.6743427008643 -3.4113030827893,51.6736916328596 -3.41162905992671,51.6734800532599 -3.41194866634686,51.6732477839495 -3.41201481737963,51.6731894546178 -3.41207718092341,51.6731473521121 -3.4085028058848,51.6720491858289 -3.40769343185937,51.6717837305294 -3.40576919882191,51.670820381383 -3.40519872812769,51.6705178861909 -3.40520416794158,51.6705510819051 -3.40522433250065,51.6706901783251 -3.4052076620766,51.6708064326797 -3.40493704590229,51.6713122777112 -3.40490800030035,51.6713099287868 -3.40456747681515,51.6712870367393 -3.40394407265726,51.6712351673792 -3.40283542697398,51.6711612301946 -3.40269360931722,51.6711557339004 -3.40241428343097,51.6711491844351 -3.4022595488515,51.6711501346803 -3.40219304231123,51.6711509295325 -3.40191397865123,51.6711992122244 -3.4019341978998,51.6713365100835 -3.40186368425056,51.6713967732769 -3.40163381519293,51.6715361607531 -3.40102521936408,51.6719678248311 -3.39990875064029,51.6727617100644 -3.39912438221426,51.6733061219332 -3.39799022980084,51.6741396637029 -3.39796280623293,51.6741435863722 -3.39790735788994,51.6741280657288 -3.39565944649314,51.6726045848036 -3.3952587873485,51.6723206958995 -3.39478086223331,51.6719667082766 -3.39395181927344,51.6712949758641 -3.39183240479618,51.6694776458551 -3.39165929188236,51.6694428425427 -3.39149035639371,51.6693576481483 -3.39136480738665,51.6693186843664 -3.39102898306009,51.669164360668 -3.39085949905843,51.6690611931044 -3.39077507355074,51.6689479368679 -3.39062560955943,51.6689766766282 -3.39032521226053,51.668990125264 -3.3896590776667,51.669005208822 -3.38903701204056,51.6689487492129 -3.38901397354679,51.6689517186856 -3.38892073455392,51.6689788923179 -3.38890348093214,51.6689799957709 -3.38754291200195,51.6688918154514 -3.38746894508181,51.6688863975129 -3.38662895764525,51.6677534019768 -3.3859728274659,51.6668656196634 -3.3858114369928,51.6666480922089 -3.38578768467581,51.6666276963601 -3.3857618963516,51.666634293616 -3.38564892342717,51.6670537301774 -3.38525498028828,51.6683613218847 -3.38522916346103,51.6683670201426 -3.38471025383742,51.6682796548557 -3.38464132333057,51.6683415965073 -3.38460187078869,51.668377121313 -3.38458612910765,51.6683809030138 -3.38451792084478,51.6683727185137 -3.38443809666454,51.6683628726186 -3.38417132600765,51.6686735508579 -3.38383631020871,51.6690218909364 -3.3835301749565,51.6693204465068 -3.3833374964705,51.6694963048434 -3.38300743760077,51.6697690720549 -3.38280772007007,51.6699566094859 -3.38253734975691,51.6702906991105 -3.38241496869262,51.6704495462573 -3.38242567400973,51.6704682980818 -3.38246395737182,51.6704921193321 -3.382238557739,51.6707330860945 -3.38199877449646,51.670979525303 -3.38177033436209,51.6712187293651 -3.38138540757947,51.6715424779443 -3.38078351335428,51.6720558501425 -3.38078980923405,51.6720746539919 -3.38125919118825,51.6723865487531 -3.38125401632867,51.6724045883939 -3.38117499824361,51.6724684449191 -3.38117229227787,51.6724774670316 -3.38120424554527,51.6725283303995 -3.38120193159293,51.6725463372624 -3.38107479201074,51.6726000622517 -3.38116537398668,51.6726772045927 -3.38116992138706,51.6726816462014 -3.38112840202525,51.6726965176774 -3.38100817387935,51.6727383852377 -3.38090972088806,51.672782693148 -3.38080115391118,51.6727767797333 -3.38078386058577,51.6727805791437 -3.38051017799161,51.6730068282859 -3.38046597103706,51.6729803793567 -3.38043657929245,51.672962746392 -3.38037499701349,51.6729374010312 -3.38032048654014,51.6729524259272 -3.3802568911285,51.6729981207611 -3.38025588797756,51.6730161121798 -3.38030030483528,51.6730964948791 -3.38046443356594,51.6732160118521 -3.38067426436765,51.6733600715575 -3.38074274348225,51.6734239906851 -3.38091058321792,51.673571330692 -3.38086256886008,51.673607854033 -3.38068004508143,51.6737421471418 -3.38034354128622,51.6740437473449 -3.37977603484495,51.6744973784982 -3.37975549868123,51.6744886305928 -3.37972615011775,51.6744763903697 -3.37969203707681,51.6744956693508 -3.37971652846978,51.674540328191 -3.37972115642865,51.674547465625 -3.37970680532042,51.6745539269889 -3.37966834673405,51.6745714595401 -3.37990616002681,51.6750200249973 -3.38022914592932,51.6755126255556 -3.38025937859909,51.6755068765874 -3.38041749185287,51.6754753513783 -3.38042844331412,51.6755021904739 -3.38056181043711,51.6758450072561 -3.38065545855253,51.6760227951895 -3.38072402687252,51.6761874836356 -3.38057222548352,51.6761874719198 -3.38044658441649,51.676145800792 -3.3803233754088,51.6761841063552 -3.38018541542227,51.6762117975531 -3.37989164166298,51.6762566034617 -3.37985954154726,51.6762479915736 -3.37969146953204,51.6761402966275 -3.37955617163047,51.6760672751083 -3.3795226964709,51.6760604767973 -3.37944640332802,51.6760730595531 -3.37943822015209,51.6760902360301 -3.37957519903785,51.6764069416749 -3.37935587770374,51.6764256997103 -3.37905256555093,51.6764391525705 -3.37888773085676,51.6764851374573 -3.37884345647956,51.6765036371019 -3.37874687564293,51.6766099474339 -3.37869424429289,51.6766870659536 -3.37862757978404,51.6767300987973 -3.37849521784436,51.6768008720159 -3.37839194874202,51.6768793943914 -3.3781228783804,51.6770192826381 -3.37811254255319,51.6770598562421 -3.37806716775626,51.6771835441316 -3.37797195890244,51.6772880401044 -3.37786003227861,51.6775096846667 -3.3777227055472,51.6775112967003 -3.37751987062068,51.6775469378557 -3.3774670544355,51.6775709305661 -3.37743097466528,51.6775255083782 -3.37722178348885,51.6772572920215 -3.37717324229384,51.6772767393537 -3.37686898588561,51.6774008563105 -3.37687060656308,51.6774071298838 -3.37699422856891,51.6777635477227 -3.37691278157943,51.6777950678328 -3.3765068236304,51.6779553455993 -3.3764708689385,51.6779612505545 -3.37637216598375,51.6779506321247 -3.37612359188831,51.6779094986368 -3.37609179090885,51.6779107706697 -3.37560544283652,51.6780864611115 -3.3753899914289,51.6781860712848 -3.37520036247877,51.6783232238783 -3.37496811392012,51.6784392110405 -3.37483409321725,51.6785028074312 -3.37491502081986,51.6785486042354 -3.37501857446531,51.678624790445 -3.37507634899688,51.6786699591714 -3.37507518979675,51.678678962017 -3.37506257513855,51.6787860835838 -3.37468957886676,51.6787437077507 -3.37447600320945,51.6787596931604 -3.37420790738747,51.6787906991063 -3.37384940132596,51.6787975923554 -3.37381614103339,51.6787979816345 -3.37329867245481,51.6788561749159</coordinates></LinearRing></outerBoundaryIs></Polygon>
  </Placemark>
