  <Placemark>
	<Style><LineStyle><color>ff0000ff</color></LineStyle><PolyStyle><fill>0</fill></PolyStyle></Style>
	<ExtendedData><SchemaData schemaUrl="#Wards__December_2019__Boundaries_EW_BFE">
		<SimpleData name="objectid">3358</SimpleData>
		<SimpleData name="wd19cd">E05008845</SimpleData>
		<SimpleData name="wd19nm">Rushmills</SimpleData>
		<SimpleData name="wd19nmw"></SimpleData>
		<SimpleData name="bng_e">479049</SimpleData>
		<SimpleData name="bng_n">259249</SimpleData>
		<SimpleData name="long">-0.84411</SimpleData>
		<SimpleData name="lat">52.225788</SimpleData>
		<SimpleData name="st_areashape">6423307.02458287</SimpleData>
		<SimpleData name="st_lengthshape">15054.064089498</SimpleData>
	</SchemaData></ExtendedData>
      <Polygon><outerBoundaryIs><LinearRing><coordinates>-0.870488512375738,52.2285617046998 -0.870068315154263,52.2291358106128 -0.869979704655897,52.2292832696785 -0.869882203046323,52.2294289351916 -0.869777675609581,52.2295708479017 -0.869470752785866,52.2296056569762 -0.869244723702337,52.2296259608692 -0.869027853621246,52.2296895859796 -0.869023486058276,52.2296904431849 -0.868806402839192,52.2297054392753 -0.868600036416187,52.2297025604136 -0.868490431589685,52.2296925205395 -0.868436398022923,52.2296857102044 -0.868325642491636,52.2296639736165 -0.868216294923356,52.2296485431928 -0.868024968628173,52.2296286403498 -0.867799988586554,52.2296076048955 -0.867458827193802,52.2295503984851 -0.866970659647515,52.2294585221281 -0.866489787210076,52.2293694093585 -0.866013196452735,52.229282944075 -0.865583297608669,52.2292024078294 -0.865450532531418,52.229182254976 -0.865049436757248,52.2291226676595 -0.864064386054443,52.2289927384723 -0.86350412874749,52.2289162426015 -0.863074676145172,52.2288752499485 -0.862712365449003,52.2288429933383 -0.862291725062612,52.228802083724 -0.862198273317952,52.2287930929245 -0.861867821023179,52.2287755221122 -0.861538724783128,52.2287615598404 -0.861427584313268,52.228755094038 -0.860804170141614,52.2286843564062 -0.860708396433536,52.2287661243644 -0.860568757348272,52.2289581144374 -0.860527955864028,52.2290664799209 -0.860020806226814,52.2290283208254 -0.859626299859349,52.2289993389693 -0.859273117555646,52.2289500826969 -0.85931077770471,52.2289126059537 -0.859327566780876,52.2288840054589 -0.85933419435446,52.2288562057631 -0.859327660162736,52.2288237841847 -0.859263514435972,52.2286982256552 -0.85928044159779,52.2286642337394 -0.859281592810574,52.2286193027895 -0.8592676813321,52.2285921135949 -0.859226188549315,52.2285530619737 -0.859148403198001,52.2284462469962 -0.85916061734801,52.2284265905001 -0.859188199210797,52.2283819152494 -0.859215320762215,52.2282940026271 -0.859206259744642,52.2282471746947 -0.859169393092505,52.2282018768478 -0.858921453809175,52.2280502706543 -0.858620289164053,52.2279735620494 -0.858311537712482,52.2279103510407 -0.85821369327525,52.227898617278 -0.858155480311584,52.2278854699037 -0.858068470404881,52.2278513707847 -0.858032430641808,52.227830348023 -0.85799519821183,52.2277994272672 -0.857955314830322,52.2277540998245 -0.857909367279869,52.2276628715522 -0.857879423348383,52.2276301341512 -0.857780250445618,52.2275572667808 -0.857676110877719,52.2275086195487 -0.85760642184454,52.2274863724951 -0.857508901356675,52.2274620575728 -0.857417087076794,52.2274458879029 -0.857268070258213,52.2274336575245 -0.856985680530227,52.2273689012144 -0.856709870712879,52.2273346783047 -0.856550059895896,52.2271129137968 -0.856003538855491,52.2266723969807 -0.855890936023872,52.2264412021934 -0.855642818074274,52.2262409607724 -0.855555705545771,52.225985654765 -0.855509019919546,52.2257496166238 -0.855386001054675,52.2255246120923 -0.855332816329819,52.225428729863 -0.855162830885848,52.2252041681361 -0.855119141350175,52.2251381289629 -0.855082745877414,52.2250747670656 -0.855076862292528,52.2250171840796 -0.855075490656859,52.2249578476097 -0.855409547664661,52.2242094825709 -0.855445905798718,52.224048853483 -0.855451597239938,52.2239401497461 -0.855432182816473,52.2237843729855 -0.855301432764003,52.2234612297457 -0.855164165740276,52.2228188462256 -0.855053977743128,52.2221515579274 -0.855068742279494,52.2219763382156 -0.855105909763945,52.2215541559255 -0.855228332173879,52.2212900970611 -0.855234568414505,52.2212775738688 -0.85524053712024,52.2211580863411 -0.854907360288551,52.2207934286754 -0.854510344121617,52.2204614074307 -0.854241376121106,52.2201629865998 -0.854114320931054,52.2200394202024 -0.85398272953594,52.2199185958738 -0.853704766071815,52.2196839041346 -0.853977682011838,52.2195472366369 -0.854063643327694,52.2195040289591 -0.854052494536029,52.2194823486195 -0.853908918964362,52.2192597488108 -0.853442856622793,52.2186006846505 -0.853074502188633,52.2181223359115 -0.852595379903162,52.2174604438883 -0.852445719628083,52.2172450638515 -0.852323633132183,52.217041547596 -0.852233477091244,52.216905754372 -0.851986650760872,52.2165410291986 -0.851615396362064,52.2160079083254 -0.851702761946312,52.2159709179757 -0.851507199287254,52.215720034624 -0.851205061317153,52.2152917601073 -0.851094558601452,52.215149565697 -0.85084092733023,52.2148809479144 -0.850411816626706,52.21449107309 -0.850210895566373,52.2142238660107 -0.850122475719071,52.2140773023973 -0.849840392882021,52.2136070638413 -0.849407886316006,52.2127280037356 -0.849291220588942,52.2125399060414 -0.849138911859194,52.2123208110024 -0.849090872056168,52.2122511313833 -0.848942285410352,52.2117713180165 -0.848887774019298,52.2116719139078 -0.848588539900226,52.2109605258814 -0.848138869184936,52.2100705065431 -0.848018421086414,52.209800487014 -0.847886563765785,52.2095797918477 -0.847754466277041,52.2093123536834 -0.847637772940988,52.2087340678523 -0.847562057588104,52.2084887523026 -0.847537403172934,52.2083688750143 -0.847466398431343,52.2082261633008 -0.847362966555671,52.2079841721769 -0.847239436163004,52.2078382504081 -0.847191420030787,52.2077118527081 -0.847078537267233,52.2077188381673 -0.846784368300928,52.207778970362 -0.846313990702843,52.2078543663007 -0.845845181471096,52.2079297748153 -0.845365040796969,52.2079906902599 -0.845130755041366,52.2080540112409 -0.843984814946522,52.2084483400674 -0.842799755590189,52.2087729727803 -0.84221682832895,52.2089020761424 -0.841473943162178,52.2090476714831 -0.841036106287047,52.2091701053893 -0.840821871962885,52.2092506920993 -0.840613234151596,52.2093341206563 -0.840262304143463,52.2094924611664 -0.839829590257007,52.2097561479295 -0.839539958629226,52.2100302306233 -0.839217945459817,52.2103660135861 -0.838953564695267,52.2105738290571 -0.838581801724531,52.210739149509 -0.837818782995364,52.2111506709195 -0.837173901430164,52.2115803401066 -0.837105737416831,52.2116120263698 -0.837059576267127,52.2116421314183 -0.837008529872476,52.211688367528 -0.836972084896913,52.2117392422336 -0.836954558521301,52.211795786242 -0.836955976274744,52.211852427205 -0.836963985950216,52.2118830665468 -0.837209845564729,52.2122190513207 -0.837557244761352,52.2126504149519 -0.838046361930418,52.2133673870233 -0.838207525973372,52.2135873928994 -0.838370249396974,52.213858738885 -0.838566932430086,52.2142301892865 -0.838589342698975,52.2143797069485 -0.838584343211263,52.2146871507913 -0.838557808834131,52.214917981704 -0.838410523381876,52.2156834211848 -0.838393478943627,52.2158279665556 -0.838478848040107,52.216543654483 -0.838503811830099,52.2168729654116 -0.838472868573273,52.2173329567308 -0.838420723912857,52.2175922971708 -0.838379032962983,52.2177285104286 -0.838335848015079,52.2178710898365 -0.837863317349926,52.2179733953867 -0.837556366399318,52.2175073773165 -0.836509147454815,52.2178665618113 -0.835631901763004,52.2181591031826 -0.835704600113896,52.2183468690518 -0.836124096165593,52.2193229254687 -0.836363885415463,52.2200634185361 -0.83656875852909,52.2205698680932 -0.836151215376984,52.220696079551 -0.835592640902844,52.2208379743398 -0.834901573390801,52.2209552771061 -0.834263892787111,52.2210433523291 -0.834055156236848,52.221077242358 -0.833772394736542,52.2211400610384 -0.833793038656029,52.2213012474512 -0.833902068303767,52.22183461752 -0.833931726504386,52.2220434417217 -0.83392784690265,52.2225280564334 -0.833918250844158,52.2227239985642 -0.83100729927377,52.2233028792476 -0.830255283130364,52.2234546050588 -0.830253835598697,52.2234545906982 -0.83013504447069,52.2234597040107 -0.830250436416047,52.2235839898794 -0.830671511084166,52.2240512474871 -0.831187734392938,52.2246282067665 -0.831439090741539,52.2248706883 -0.831887259420924,52.2251988007566 -0.832232354997297,52.2253838741028 -0.832394343633381,52.2255131129122 -0.832627760298415,52.2256575304709 -0.832941442034654,52.2258116403784 -0.833432415682568,52.2260134338807 -0.833582576201347,52.2260967136302 -0.833688299617202,52.2261391060915 -0.833802831029126,52.2261816754828 -0.834089244291487,52.2262618075469 -0.834113093872877,52.2263006936306 -0.834186481729814,52.2264623112521 -0.834329199205233,52.2265995367079 -0.834582018313978,52.2268978422493 -0.834700445796099,52.2270176598521 -0.834723943547235,52.2270700242398 -0.834732270686951,52.2271439005681 -0.83484535001685,52.2272420932018 -0.834863539471064,52.2273312571644 -0.834903985214895,52.2273541278611 -0.83492823582691,52.2273777376192 -0.834946430339988,52.227406679402 -0.834947317575585,52.2274327546979 -0.834936328214539,52.2274605998465 -0.834903140737983,52.2274971248939 -0.8350288488682,52.227670943482 -0.835240376814618,52.2277576135658 -0.835312174473751,52.2278095558129 -0.83533920733132,52.2278421812059 -0.835405640329962,52.2279884491825 -0.835339641433927,52.2280471204369 -0.835323789014004,52.2280946922545 -0.835290397672899,52.2282543552746 -0.83511039582687,52.2285268115636 -0.835094733416405,52.2285671052626 -0.835081912247651,52.2286649510432 -0.835101370010771,52.2287056807051 -0.835229756409788,52.2288372806835 -0.835248045718703,52.2288626287718 -0.835275470435587,52.2289357055698 -0.835276202171079,52.2290184950464 -0.83527706215936,52.2290409745882 -0.835344587787727,52.2290901791223 -0.835225588612725,52.229444134001 -0.835195992190666,52.229509456596 -0.835163522268592,52.2295738517037 -0.835045863600699,52.2297058073538 -0.835026247091622,52.2297865085939 -0.835042236175024,52.2299044145433 -0.835037312178545,52.229977260802 -0.834980902253184,52.2301214161807 -0.834905041193432,52.2302753565822 -0.834786370900052,52.2304458613715 -0.83474128732331,52.2304939534163 -0.834707274155819,52.2305619286091 -0.834710901788414,52.2306447475874 -0.83477353294798,52.2307703045373 -0.834830731492133,52.2309327506159 -0.834945830782853,52.2311801684355 -0.834956797298144,52.2312639580995 -0.834940475251403,52.231329412664 -0.834900879305111,52.2313892427078 -0.83471738376321,52.2315178510763 -0.834612073656457,52.2315698415479 -0.834249072359965,52.2317298416266 -0.833918186545144,52.2318390141664 -0.83380731600088,52.2318819607017 -0.833655430962803,52.2319236023643 -0.833590695314186,52.2319337484551 -0.833463261293292,52.2319360833135 -0.833260325245822,52.2319125035773 -0.83319406962629,52.2320358869099 -0.833509799427425,52.2321136138376 -0.833594688981479,52.2321729683618 -0.83367361833127,52.232233971249 -0.833771115191927,52.2323697608823 -0.833757405619365,52.2324460257408 -0.833703137780993,52.2325588322945 -0.833744885187932,52.2327533935919 -0.833861769679112,52.2329326095748 -0.833929287952208,52.2330375424038 -0.834123799117468,52.2332723533137 -0.834157334734948,52.2332780785384 -0.834452471544676,52.2333034671652 -0.835091474460639,52.2333376453397 -0.836442866830565,52.2333977272721 -0.837593720931063,52.2332913297856 -0.838779018643636,52.2331555991987 -0.839294621028683,52.2339356511815 -0.839480189170463,52.2341766576425 -0.839790489139837,52.2347416623432 -0.839991696615679,52.2350592230384 -0.840493614263491,52.2360279793439 -0.840654840502298,52.2363604257284 -0.840978727455684,52.2369705025746 -0.841001276973309,52.2370597081739 -0.841045590223859,52.2371014902149 -0.841057019202834,52.2371123889393 -0.84106243824295,52.2371268231635 -0.841057601483719,52.2371456511499 -0.841044022564411,52.2371616968416 -0.841027237515467,52.2371849010537 -0.840999029413026,52.2372017020494 -0.840969250320898,52.2372184875974 -0.840948522095192,52.2372308675422 -0.840912873975817,52.2372458871154 -0.840859679742898,52.2372669361362 -0.840800571992167,52.2372879270017 -0.840765114917651,52.2373001621245 -0.840744360161297,52.2373089463067 -0.84071603035396,52.2373257460385 -0.840684876338804,52.2373443152815 -0.840641566192226,52.2373753486839 -0.840584722183965,52.2374206299697 -0.840535265863022,52.2374650856758 -0.840499248222288,52.2374988871043 -0.840445205378555,52.2375478812413 -0.840406688130597,52.2375663780059 -0.840356059954257,52.2375955420572 -0.840314504697908,52.2376194016654 -0.840720489165665,52.2379982975309 -0.840762440847553,52.2380751102203 -0.840844852663944,52.2380588430085 -0.840922475722928,52.2380038776393 -0.840991989507239,52.2379218687718 -0.841089362915112,52.2378364473915 -0.841169461600065,52.2377976862348 -0.841275314572521,52.2377807499895 -0.841562496368339,52.2377790769998 -0.841803932485305,52.2377859431305 -0.841923457394255,52.237805093443 -0.842006011716159,52.2378436551975 -0.842086526772494,52.2379002632064 -0.842233819791007,52.2380356353502 -0.842529600333194,52.2383208625634 -0.842845413575371,52.2386206674502 -0.843331579439059,52.2390749439266 -0.843567254952505,52.2393038514347 -0.843712009700328,52.239425714018 -0.843778505391017,52.2394597132988 -0.843863865262346,52.2394974021469 -0.843913372918942,52.239511370284 -0.843935811924952,52.239549341292 -0.843938546123395,52.2395556599341 -0.844107051423212,52.2397208995268 -0.844219829488753,52.2398326506361 -0.844259872821648,52.2398716932112 -0.844663150447123,52.2401894276059 -0.844554048509343,52.240275545261 -0.843312814791058,52.2411489981339 -0.842701250955637,52.2415736280979 -0.841995167712002,52.242028876754 -0.841150008825182,52.2425933118436 -0.841147087633019,52.2425941822287 -0.840612484726902,52.2429323714823 -0.840063500156385,52.2432614295595 -0.839895400025733,52.2433586472959 -0.839758671688506,52.2434337033585 -0.84054757209754,52.2434585406831 -0.840747291211984,52.2434362349692 -0.841326142017103,52.243370017177 -0.841397924965816,52.2434237535594 -0.841521415359018,52.2435184461908 -0.841631767690125,52.2436121995563 -0.841886322864462,52.2438493850294 -0.841913061502023,52.2438891968434 -0.842048524890828,52.2438626633245 -0.842098527860148,52.2438577606544 -0.842056806469333,52.2437161442098 -0.842042616671827,52.2435838762148 -0.842054308842207,52.2434733452464 -0.842111767305975,52.2433489707953 -0.842168146717221,52.2432614385769 -0.842284068679999,52.2431411444929 -0.842454218758612,52.2430205734216 -0.842586567291657,52.2429418758078 -0.8427577931229,52.2428913342985 -0.842890566922619,52.2428566843082 -0.843089510076866,52.2428083014773 -0.843297174315584,52.2427635984232 -0.843469354046034,52.2427320306763 -0.843678115433498,52.2427008213873 -0.843993983057727,52.2426652680768 -0.844265531100542,52.2426436614385 -0.844598064722722,52.2426406281427 -0.844819261186251,52.2426374015115 -0.844962576209821,52.2426477935327 -0.845237210433183,52.2426747523244 -0.845520496751194,52.2427080861192 -0.845704458892911,52.2427296615575 -0.845893121796083,52.2427422936008 -0.846136151785885,52.2427446718234 -0.846424647131408,52.2427447979333 -0.846618308416483,52.2427323112556 -0.846857411602878,52.2427184704445 -0.847055959244139,52.2426898516898 -0.847382829291397,52.2426210505088 -0.847767201789584,52.2425421138065 -0.84817580416837,52.2424274596791 -0.848388299721945,52.2423684139299 -0.848933144480712,52.2421965738815 -0.849578515571428,52.2419897575133 -0.84991942133218,52.241891515249 -0.850350685012811,52.2417546037679 -0.850803870323833,52.2416151171695 -0.851106341500058,52.2415272824107 -0.851273668030276,52.2414588041541 -0.851322375984405,52.2414430994951 -0.851399484257276,52.2414078069484 -0.851423972956285,52.2413666990158 -0.851598459652093,52.2413576128965 -0.851689547829327,52.2413468153433 -0.851892409012521,52.241319128683 -0.852169891762743,52.2412355424431 -0.852641768520777,52.2411106125433 -0.853067554772933,52.2410122870098 -0.853438881989429,52.2409278123012 -0.853909918056226,52.2408353173202 -0.854158420130537,52.2407935994814 -0.854443783315461,52.2407460372835 -0.8547966240264,52.2406946360614 -0.855031876815773,52.2406609667375 -0.85528911832911,52.2406221176533 -0.855537898940305,52.240574197692 -0.855845486127845,52.240516871487 -0.856573959856207,52.2403774269131 -0.856805002395432,52.2403383213897 -0.85700875130644,52.2402710862712 -0.857167407080989,52.240252849368 -0.85725849171289,52.2402420474848 -0.857393704372115,52.2402244821896 -0.857705286636519,52.2401806708063 -0.857885959649,52.2401608489293 -0.858129277781823,52.2401515206867 -0.858413409646521,52.2401515752592 -0.858840506455776,52.2401754836778 -0.859217975248524,52.2401899213618 -0.859519544264198,52.2401928383256 -0.860374470333682,52.2402073953466 -0.861264414513033,52.2401701523993 -0.861417089060903,52.2401590429484 -0.861458129793318,52.2401549446497 -0.861998420962069,52.2401062297677 -0.862338889223327,52.2400753593836 -0.863068471318483,52.2400095901348 -0.864168046322884,52.2399104389079 -0.8664067284521,52.2396433655266 -0.86711545564862,52.239589954452 -0.868401876246794,52.2395690495146 -0.868727851039659,52.2395380214174 -0.869284221643059,52.2394831352627 -0.869582603740766,52.2394401556716 -0.870739354642341,52.2392803695565 -0.872532798560991,52.2390116106668 -0.873764426365246,52.2388409160789 -0.875377091665689,52.238600049269 -0.875682917699751,52.2385535297852 -0.876154494464976,52.2384941174434 -0.876604051349795,52.2384363815477 -0.877096463784771,52.2383646701679 -0.878068057776335,52.2382238126435 -0.878397367676262,52.2381747223614 -0.878620646522897,52.2381453865522 -0.878898157014493,52.2381201613489 -0.879131333847255,52.2381053005107 -0.87947006305782,52.238089644006 -0.879958280700357,52.2380691145682 -0.880195757295766,52.238056089745 -0.880695887856631,52.2380275803645 -0.881150558873691,52.2380013348477 -0.881457034061994,52.2379862657173 -0.883612535579608,52.2378789659604 -0.884190230686778,52.2378484805486 -0.885099384778964,52.2378031491482 -0.885489408393986,52.2377834658514 -0.886077168372394,52.2377656501487 -0.886340943173684,52.2377582541792 -0.886610469439128,52.2377527092033 -0.886967997196364,52.2377479951411 -0.887592132462245,52.2377386043301 -0.88764041949279,52.237739059819 -0.887684967341045,52.2377152118015 -0.887709803159814,52.2376587297103 -0.887750299718368,52.2375602397259 -0.887802135969685,52.2374187129794 -0.887860100718177,52.2373265905241 -0.888176097054169,52.2367560259262 -0.888295347585765,52.2365548227511 -0.888344541924106,52.2364609091136 -0.888592162196103,52.236046005513 -0.888694175650971,52.2358869749067 -0.888784737157016,52.2357223527527 -0.888920100505707,52.2355186952459 -0.888960347218752,52.2354929181529 -0.889073070855069,52.2354319610077 -0.889185802119191,52.2353754974775 -0.888996963764181,52.2353125983406 -0.888644795340264,52.235166275085 -0.888193602571162,52.2349966369873 -0.887726494193513,52.2348213634514 -0.887379721966795,52.2346913562573 -0.887172319191621,52.2346129989376 -0.88703460960928,52.2345577691264 -0.886947611542484,52.2345218034295 -0.886879593306678,52.2344897022062 -0.886810351978162,52.234448601194 -0.886732613482787,52.2343948362535 -0.886657884856785,52.2343366051274 -0.886562935171246,52.2342709929897 -0.886507213497792,52.2342155476997 -0.886420812087225,52.2340978842253 -0.886373365156105,52.2340012604659 -0.886335848555051,52.2339227077795 -0.886257464897085,52.2337789635644 -0.886200418664447,52.233660677109 -0.886168383816009,52.2335947597552 -0.886075728405277,52.233316953683 -0.886055376178955,52.2330784807264 -0.886032721354963,52.2329271726517 -0.886033755788284,52.2328858359261 -0.886042309926698,52.2328382784055 -0.886092021968863,52.2327236976777 -0.886219064727431,52.2324425742711 -0.886236250237713,52.2324022892054 -0.886236879763132,52.232377127797 -0.886229308512782,52.2323275307475 -0.886210308302429,52.2322087045132 -0.886175289205619,52.2320304049127 -0.88617541749625,52.2319673978216 -0.886203924811969,52.2318220557316 -0.885928669212174,52.231763727622 -0.885498065370139,52.2317668488734 -0.88506676379692,52.2317978257065 -0.884719550537812,52.231807125735 -0.884336679396597,52.231774741262 -0.883818558565725,52.2317051216787 -0.883171474905917,52.2316989951594 -0.882919510219153,52.2317037995618 -0.882667816153021,52.2316978195842 -0.882510261030983,52.2316738556532 -0.882363102906406,52.231644507386 -0.882255031524284,52.2315778682544 -0.882168556172353,52.231463795344 -0.88212366446854,52.2313860703604 -0.882008033178063,52.231149389567 -0.881948309817335,52.2310228964992 -0.881852365779549,52.2308772743304 -0.881719941564339,52.2307277106707 -0.881543611590477,52.2306342680534 -0.881428046493923,52.2305729498182 -0.881345434471273,52.2305407069332 -0.88125677150129,52.23051379934 -0.88110370167618,52.2304844833014 -0.880582184347677,52.2304354909087 -0.880340078746819,52.2304565616315 -0.880161159510171,52.2304710418685 -0.880054289778488,52.2305248563062 -0.879882305449844,52.2306715308001 -0.879738692816262,52.230966871563 -0.879610448581448,52.2310592217376 -0.879503916047651,52.2310995560957 -0.879397957225412,52.2311219193579 -0.879251502018979,52.2311223248363 -0.878767667364892,52.2310916599322 -0.878506442809746,52.2310568175782 -0.878233510354878,52.2310218632726 -0.877421353817937,52.2307686627493 -0.876950403268865,52.2306868791259 -0.876562165616676,52.2306381491656 -0.876341665205096,52.2306162745602 -0.876216411566688,52.2305899135956 -0.876113306698557,52.2305565726464 -0.875935469729305,52.2304658926191 -0.875773642492841,52.2303771631342 -0.8756883444736,52.2303367116144 -0.875598464571988,52.2303007999191 -0.875502534560975,52.2302702232208 -0.875403692951982,52.2302450123348 -0.87534979381171,52.2302328136968 -0.875130995060381,52.2302010648222 -0.875032866993282,52.2302001287444 -0.874979940367509,52.2302068147697 -0.874904895775471,52.2302240752673 -0.874585152492164,52.2303028182885 -0.874174334746847,52.2305695364623 -0.874122559909313,52.2305879177122 -0.874066553851078,52.230601763975 -0.873935365711893,52.2306382624411 -0.873767151060831,52.2306303641836 -0.873558495308002,52.230603203834 -0.873381339446617,52.2305430875108 -0.872313049123621,52.230113030624 -0.871815810626713,52.2298592068841 -0.871627727995754,52.2297684222828 -0.871545601522196,52.2297173015783 -0.871470834565272,52.2296616676688 -0.871393533047226,52.2295917174669 -0.871288413262869,52.2294666715456 -0.871229455663044,52.2293636402479 -0.871108013063005,52.2290729624788 -0.871013338397818,52.2289407363262 -0.870930330075231,52.2288626411247 -0.870847054612015,52.2287998242964 -0.870734565590327,52.2287322330842 -0.870488512375738,52.2285617046998</coordinates></LinearRing></outerBoundaryIs></Polygon>
  </Placemark>
