  <Placemark>
	<Style><LineStyle><color>ff0000ff</color></LineStyle><PolyStyle><fill>0</fill></PolyStyle></Style>
	<ExtendedData><SchemaData schemaUrl="#Wards__December_2019__Boundaries_EW_BFE">
		<SimpleData name="objectid">5791</SimpleData>
		<SimpleData name="wd19cd">E05011526</SimpleData>
		<SimpleData name="wd19nm">Beverley &amp; Newland</SimpleData>
		<SimpleData name="wd19nmw"></SimpleData>
		<SimpleData name="bng_e">509014</SimpleData>
		<SimpleData name="bng_n">431597</SimpleData>
		<SimpleData name="long">-0.34751</SimpleData>
		<SimpleData name="lat">53.769329</SimpleData>
		<SimpleData name="st_areashape">3511830.10420879</SimpleData>
		<SimpleData name="st_lengthshape">12919.7501397714</SimpleData>
	</SchemaData></ExtendedData>
      <Polygon><outerBoundaryIs><LinearRing><coordinates>-0.365008472705997,53.7922867965144 -0.364983922447291,53.7922550097753 -0.364834770960334,53.7920668698732 -0.364528806981779,53.791620482338 -0.36421342187474,53.7910238046075 -0.364002632266735,53.7905894069019 -0.363313853774771,53.7891732934988 -0.363244442589553,53.7890464480139 -0.362792710293549,53.7882106661797 -0.362458086714077,53.7875660929904 -0.362112334671435,53.7868539690598 -0.361005828203213,53.7852153845212 -0.360132261000546,53.7839503903019 -0.359305232532113,53.7828155188426 -0.358586114700513,53.7817962449285 -0.358104004370822,53.7811981647015 -0.357828769605028,53.7807826424121 -0.357644657653524,53.780485279787 -0.357294086139293,53.7796661370039 -0.357050933310697,53.7790542521514 -0.357030625467502,53.7789910696179 -0.357049713266906,53.7789284269044 -0.357129452478905,53.7787128593418 -0.35727214406404,53.7783238200588 -0.357271044656802,53.7781179278956 -0.357125298888887,53.7774983913123 -0.357012135118105,53.776819990419 -0.356901254706597,53.7763941366758 -0.356609656542053,53.7758571615987 -0.356436121805255,53.7755204022156 -0.355906890483309,53.774462284712 -0.355490174356984,53.7733590698617 -0.355418742813144,53.7729328565779 -0.354914743838548,53.7715794304263 -0.354565837607001,53.770685624339 -0.354101756044991,53.7695925365125 -0.353944423065643,53.7691912931487 -0.353834685650378,53.7689326874044 -0.353780059241059,53.7686595616535 -0.353774099140026,53.7684248467739 -0.35567324617261,53.7685147123141 -0.358413985053681,53.7686584004307 -0.3603065393349,53.7687606838707 -0.362490434668922,53.7688669170447 -0.363081817091307,53.7688758919914 -0.363819754782531,53.7688994441935 -0.363830103357064,53.7688294927203 -0.363847850982823,53.7686850550688 -0.363842949553319,53.7685761632178 -0.363815149662429,53.7684320028383 -0.363811490058812,53.7683330139167 -0.363793096366883,53.7682204331461 -0.363738421633863,53.7682205858259 -0.363735385635004,53.7682214432789 -0.363717130405091,53.7682211941225 -0.36351388134432,53.7682202167708 -0.363407692237916,53.7682196661035 -0.36333192198098,53.7682186317279 -0.363248490497583,53.7682183915995 -0.363231735058837,53.768218162845 -0.363174059279844,53.7682182733961 -0.363101255197033,53.7682181782617 -0.363078499102048,53.7682178675543 -0.363076999316787,53.7682178470764 -0.363064870618607,53.7682176814715 -0.363026986256058,53.7682171641917 -0.362972311531836,53.768217316522 -0.362948054137187,53.7682169852899 -0.362905667389272,53.7682164064916 -0.362885947312878,53.7682152383157 -0.362769200707498,53.7682127451343 -0.362749445705351,53.7682124753487 -0.36258591628484,53.7682066473123 -0.362579789763748,53.768206563636 -0.362576788678304,53.768206522647 -0.362400901452956,53.7682032222424 -0.362403196332554,53.7679865932785 -0.362398695486576,53.7679865317988 -0.362336589031404,53.7679847845423 -0.362265459815919,53.7679802182257 -0.362189600627699,53.7679782830197 -0.362188273982434,53.7679737722444 -0.362185763499468,53.7679611570851 -0.362183251501477,53.7679485419051 -0.362184578968542,53.7679144121129 -0.362189117936559,53.7678362931745 -0.362194147463548,53.7677456000738 -0.362192646179336,53.7677455795642 -0.362083598559968,53.7677413931038 -0.362047088547453,53.7677408942878 -0.361907748283328,53.7677371935759 -0.361880400728667,53.7677359210124 -0.361869808375358,53.767734878287 -0.361857784674352,53.7677320173238 -0.361839795271581,53.76772817775 -0.361824875342288,53.7677225814374 -0.361806934802764,53.7677142489754 -0.361790761189294,53.7677023459944 -0.361783343137159,53.7676968521875 -0.36177739138213,53.7676922782057 -0.361770273888574,53.767682295853 -0.361768952343675,53.7676776943542 -0.361764504350998,53.7675958579561 -0.361759778342729,53.7675212070797 -0.361755003214464,53.7674124075986 -0.361749827742121,53.767310701179 -0.361743460742662,53.7672396225352 -0.361739277211749,53.7671928365677 -0.361735209682409,53.7671784023387 -0.361732558088128,53.7671693799001 -0.361729941447118,53.767159459049 -0.361725665761905,53.7671504144164 -0.361720048115548,53.7671404525551 -0.361714271172399,53.7671313874067 -0.361708618578625,53.7671223239573 -0.36170416820822,53.7671177695892 -0.361701306942812,53.7671141367259 -0.361696911050248,53.7671113799832 -0.361693923922596,53.7671077453998 -0.361689528031196,53.7671049886568 -0.361685132105418,53.767102232812 -0.361680645270076,53.7670985768347 -0.361673283259093,53.7670948824645 -0.361668763023547,53.7670921240215 -0.36166433063057,53.7670902665677 -0.361658309100859,53.7670874885066 -0.361652378516395,53.7670856096792 -0.36164785673186,53.7670828521131 -0.361641924597148,53.7670809741629 -0.361635868151138,53.7670790936146 -0.361629937533922,53.7670772156846 -0.361623881054043,53.7670753360342 -0.361610356298294,53.7670724545306 -0.361601335288326,53.7670696354745 -0.361592402154915,53.7670677165089 -0.361581844967498,53.7670657744484 -0.36157275253368,53.7670647521942 -0.361562195347949,53.767062810132 -0.361557693086322,53.7670627486006 -0.361557762962814,53.7670609526743 -0.361566144774544,53.7669998698904 -0.361568168671748,53.7669864186935 -0.361570598038156,53.7669657828161 -0.361579536169463,53.7668904191207 -0.361584001923459,53.7668913790582 -0.361629477661926,53.7668928994633 -0.36194771862034,53.7669026398938 -0.362105296749856,53.766910184535 -0.362439955818922,53.7669255404977 -0.362612661983912,53.7669332910707 -0.362620163712247,53.7669333935292 -0.362621804679427,53.7669298212672 -0.362621874543897,53.7669280253109 -0.362665779262502,53.7669313207645 -0.36276568373328,53.7669389756067 -0.362771685723787,53.7669390575741 -0.362801822766658,53.766945759574 -0.362971333994158,53.7669552636937 -0.363131843861721,53.7669646437728 -0.363162066093709,53.7669659553033 -0.363466400893116,53.7669826909891 -0.363495297544132,53.7669408502138 -0.363514285354393,53.7669222379771 -0.36354658561674,53.7669118947351 -0.363808514816529,53.7669253551525 -0.364064407489582,53.7669396304781 -0.364296196974532,53.7669463878876 -0.364744287461307,53.7669722709536 -0.364743520144772,53.7669920306655 -0.364752403355697,53.7669984422635 -0.364811402854775,53.7670028416698 -0.365244504434116,53.767024922856 -0.365597248006653,53.7670450089829 -0.366107409371434,53.7670735309167 -0.366106118741145,53.7670681208895 -0.366302281708977,53.7670968547997 -0.36639588669892,53.7671089143107 -0.366403353655374,53.7671099140487 -0.366709643562509,53.767114986155 -0.366962988856482,53.7671175385173 -0.367231340748312,53.7671202956247 -0.367217497563749,53.767048216624 -0.367160971533787,53.7667058722111 -0.36715765547471,53.7666752732802 -0.367069214049621,53.7662947497966 -0.367020597023759,53.766258141275 -0.36695658721589,53.766224918672 -0.366922782468402,53.7660805839995 -0.366936445105904,53.7660798721095 -0.366922116275338,53.7660203662919 -0.366916687034361,53.7660023187347 -0.366897801439167,53.7659409539291 -0.366836892176595,53.7657117772209 -0.366803643462472,53.7655918041018 -0.36677085297034,53.7654600651574 -0.366748896117758,53.7653618132745 -0.366723674696759,53.7652671125284 -0.366636450662386,53.7648972985873 -0.366609065387756,53.7647810000051 -0.36658272835785,53.7646763978641 -0.366576549907744,53.7646421651853 -0.366552764270759,53.7645491900756 -0.36653819247825,53.7644959714218 -0.366513514606009,53.7643904938614 -0.366493967149343,53.764307551632 -0.366494071707111,53.7643048572409 -0.366478679724335,53.7642308680919 -0.366440249759438,53.7640865609985 -0.36653014760346,53.7640779006933 -0.366601479786056,53.76407707571 -0.36662273404434,53.764077365299 -0.366576956458588,53.7638870366778 -0.366545201827471,53.7638866040075 -0.366518131999581,53.7638008643615 -0.366468237271283,53.7635619522037 -0.366477503274784,53.7635584846417 -0.366416074247144,53.7633041383926 -0.366404294641888,53.7632563493919 -0.366373846031021,53.7632577322821 -0.36636367065685,53.7632072693216 -0.366341890068496,53.7631045270004 -0.366325243134299,53.7630242301774 -0.366299384517158,53.7630265736044 -0.366290536099868,53.7629806223454 -0.366348344218248,53.762976916498 -0.366331762010856,53.7628949135355 -0.3662648235566,53.7626665540566 -0.366240674690529,53.7626248870042 -0.366210116887247,53.7625130377774 -0.366198023972508,53.7624733328284 -0.366106531510937,53.7621718479597 -0.366001706275627,53.7617047395617 -0.365915923536123,53.7613754734569 -0.361980017321609,53.761356806167 -0.360458042995684,53.7613665543684 -0.359593337687467,53.761367306197 -0.35896727814064,53.7613938750665 -0.357709396920606,53.7615177371468 -0.35694087953801,53.7616177403686 -0.35660165412469,53.7616787816471 -0.354428171434725,53.762135224935 -0.353262732674077,53.7623763247513 -0.352542331400396,53.7625245892514 -0.350995806408468,53.7628917218417 -0.35085184394571,53.7629265867632 -0.350592813681707,53.7629931171198 -0.350315514763134,53.7630629911482 -0.350036586006316,53.7631329310955 -0.349946283323719,53.7631550534606 -0.349537020521966,53.7632599536154 -0.349121928875739,53.7633602784765 -0.348751439299947,53.7634460292443 -0.348661205774538,53.7634663537834 -0.34837205527798,53.7635288706197 -0.348142512470408,53.763576931207 -0.347956022613903,53.7636148004854 -0.347905468097911,53.7636248870773 -0.347668456907143,53.7636719449298 -0.347503468404087,53.7637038193133 -0.34733688438131,53.7637348633581 -0.347171875324161,53.7637640411838 -0.347002204549399,53.7637940534101 -0.346831228819525,53.7638222495896 -0.346661787768407,53.763849567785 -0.346441897132592,53.7638842782439 -0.346220701412886,53.7639171733835 -0.346019308801457,53.763945847705 -0.345990252929153,53.7639499395564 -0.345817917439509,53.7639745217057 -0.345639526509238,53.7639972222314 -0.345538852395747,53.7640094027778 -0.345470238526398,53.7640174421969 -0.345404749730706,53.7640255247087 -0.34533613581118,53.7640335640504 -0.345054143407358,53.7640665158877 -0.344883447804758,53.7640875246082 -0.344869785491975,53.7640882339896 -0.344752416038928,53.7641018912944 -0.344635081875763,53.7641146491668 -0.344517747644022,53.7641274069236 -0.344398949015328,53.7641392463349 -0.344281649949006,53.7641511063394 -0.344274148783575,53.7641510027388 -0.344165921122423,53.7641611901059 -0.344016832101761,53.7641735096637 -0.343821897776492,53.7641905864273 -0.343616462835607,53.7642075186885 -0.343433850645247,53.76422296816 -0.343276903808037,53.7642378740344 -0.343075931999769,53.7642557650552 -0.342817381750532,53.764274657632 -0.342557271489121,53.7642918201618 -0.342281876589019,53.7643095806878 -0.342117765976634,53.7643189934482 -0.34195352792572,53.7643284042213 -0.341787791691323,53.7643377940465 -0.341626625032107,53.7643454499424 -0.34146402944384,53.7643512889398 -0.341315257554777,53.7643555211701 -0.341167894819834,53.7643588738085 -0.340970649982754,53.7643615359646 -0.340914445337218,53.7643625559549 -0.340826324878255,53.7643640322132 -0.340717110033845,53.7643643175356 -0.340574587435455,53.7643623447986 -0.340341119123772,53.7643573159503 -0.340141103289815,53.7643509520156 -0.339923135598893,53.7643398464257 -0.339705043729138,53.7643287378204 -0.339552176938219,53.7643194311549 -0.339406971135476,53.7643093324067 -0.339400845251641,53.7643092475513 -0.339166515621847,53.7642880286682 -0.339026078070949,53.7642743998926 -0.338887051318631,53.7642598924935 -0.338746525039458,53.7642453641533 -0.338581921269138,53.7642260092326 -0.338418893261873,53.7642047882229 -0.338255931252752,53.7641818608832 -0.338127710145357,53.7641630087524 -0.33799948763891,53.7641441564646 -0.337871302202625,53.7641244065462 -0.337756832732573,53.7641057455786 -0.337642237548572,53.7640870818593 -0.337529214525924,53.7640666429189 -0.337312455221402,53.7640249946133 -0.337097108600212,53.7639824675028 -0.336949719950624,53.7639516660452 -0.336800707570819,53.7639208418785 -0.336677343118635,53.7638930701052 -0.336555641862592,53.7638643315868 -0.336435438314432,53.7638357045171 -0.33635876139552,53.7638166668367 -0.336297194858271,53.7638014344333 -0.336160488224898,53.7637662875117 -0.336023906192692,53.763731141264 -0.335890234741604,53.7636951372553 -0.335756724888849,53.7636582364339 -0.335551110405823,53.7636005647283 -0.33530801111858,53.7635323960916 -0.334988357721984,53.7634452817935 -0.334668650870178,53.7633563680956 -0.334239640601313,53.7632353800861 -0.334094026424549,53.7631946254998 -0.334020547833616,53.7631738338508 -0.333992079292505,53.7631662487697 -0.33394530503481,53.7632735268274 -0.333875708343946,53.7633821947025 -0.333633850973413,53.7636682881417 -0.333480589685434,53.7638207246413 -0.333408568421543,53.7638800229605 -0.333288315829108,53.7639664188022 -0.333146559917377,53.7640588060858 -0.332946455563549,53.7641684444563 -0.33275906785881,53.7642664872718 -0.33275756823687,53.7642664664159 -0.3326616320681,53.7643136596124 -0.332578819215323,53.7643358721796 -0.332182322599734,53.764426512708 -0.331831056741118,53.7644837217659 -0.331473431480302,53.7645119944821 -0.331153213377877,53.7644769834016 -0.330777864735399,53.7644537849376 -0.330448880841167,53.7644095727613 -0.329926171308178,53.7643897109323 -0.329483189325627,53.7643907283767 -0.329343310268654,53.7643977654876 -0.328889737793377,53.7644355674169 -0.328605623329087,53.7644837288095 -0.328480196301695,53.7645457835153 -0.328359288145256,53.7646105978208 -0.328123631760836,53.7648149895219 -0.328077554794289,53.7648664682116 -0.3279764381306,53.765006146705 -0.327931590284859,53.7650676176449 -0.32786246588013,53.7653182753727 -0.327858358306919,53.7653839092561 -0.327866491525765,53.7655224147226 -0.327878658983262,53.765597172086 -0.327939602093014,53.7657445914765 -0.328012016157736,53.7658678176486 -0.328215602092863,53.7661277602388 -0.328288354310908,53.7662078560362 -0.328380838124978,53.7662856209945 -0.328482417255599,53.7663643208127 -0.328624061062968,53.7664642485714 -0.329049721876879,53.7667488530747 -0.329676239211991,53.7672114884065 -0.330005339477931,53.7674803625968 -0.330157718769114,53.7676946529942 -0.33025688774152,53.7678721672109 -0.330347102986403,53.7681619759601 -0.330422351893888,53.7686367852717 -0.330478631555194,53.7689369053032 -0.330553004211255,53.7692067229262 -0.33058248888471,53.769302389315 -0.330614559334972,53.7693738278506 -0.330697060783793,53.7695143555482 -0.330750425337859,53.7695851925422 -0.330814363020991,53.7696543789312 -0.33106321174677,53.7698843898279 -0.331277028999855,53.7700419318549 -0.331569153904083,53.7702123351946 -0.332092221365168,53.7705692722194 -0.332380442830499,53.7707215568474 -0.332500963649362,53.770745789128 -0.332502463501809,53.7707458099889 -0.332620295243954,53.7707968735779 -0.332793301598957,53.7708352254193 -0.332889763726176,53.7708509446038 -0.333027273228079,53.7708663364542 -0.33322387466104,53.7708807519038 -0.333413292347275,53.7708869798236 -0.333615603608121,53.7708772110671 -0.333774380143432,53.7708515602375 -0.334172539286566,53.7707582427719 -0.334362698787173,53.7707077755047 -0.334706763784137,53.7706029216052 -0.334880039500971,53.7705585993486 -0.335061961818069,53.7705233831598 -0.335342769282173,53.770480553523 -0.335762139432071,53.7704296717488 -0.335931114916608,53.770414942783 -0.336133370075484,53.7704033721323 -0.336406684337113,53.7703981787476 -0.336734248657486,53.7704036225116 -0.337059993990618,53.7704171274905 -0.337524555567693,53.7704478332834 -0.33813279930334,53.7705309425465 -0.33902711798807,53.7706691450055 -0.339332804970472,53.7707281968391 -0.339466642382444,53.7707606039951 -0.339586586316621,53.770796413255 -0.33964495071468,53.7708169918048 -0.339846095042305,53.7709097303745 -0.34020293521342,53.7710961952922 -0.340323102492317,53.7711644479276 -0.340552904711821,53.7713015252609 -0.340777959459344,53.771444827787 -0.341065999315942,53.7716439075664 -0.341176426057024,53.7717308059981 -0.341381528241376,53.7719170545234 -0.341601209665715,53.7721556257171 -0.341753512709101,53.7722943253134 -0.34184083071927,53.7723898897064 -0.341931514989813,53.7725143460355 -0.341993337704255,53.7726410099507 -0.342121843684734,53.7729996354811 -0.342143638747471,53.773100673896 -0.342151297853428,53.7731762651624 -0.342136069895505,53.7732928763996 -0.342107952522415,53.7733905288477 -0.342060626228617,53.7735120886646 -0.341956595369752,53.7737264119823 -0.341869064054276,53.7738680848328 -0.341505903082711,53.7743431123502 -0.341471396614543,53.7744091341482 -0.341444198949377,53.7744833443733 -0.34143457282364,53.7745371294465 -0.341437638860652,53.7746117583183 -0.341457789965003,53.7747163687653 -0.341488681323784,53.7748183421111 -0.341529055667954,53.7749114595005 -0.341581980235276,53.774994057254 -0.341647499048432,53.7750650572939 -0.341726771956889,53.7751299570839 -0.341871993241499,53.7752200308751 -0.342028406634899,53.7752959722684 -0.342149404388943,53.7753434754098 -0.342329377254548,53.7753962873847 -0.342524994664509,53.7754394302496 -0.343182992221117,53.7755320983114 -0.343975291900223,53.7755664082658 -0.344258811726807,53.7754966364207 -0.344954862593144,53.7753534792225 -0.345660149604189,53.7752489961989 -0.346582943123397,53.7751305250973 -0.346839776203081,53.775118790005 -0.347264563643206,53.7751219496686 -0.347415899640848,53.7751330228128 -0.347559114673879,53.7751565638201 -0.347688240956669,53.7751915924837 -0.347822966201958,53.7752401779299 -0.347961630910551,53.7753031961623 -0.348087878395067,53.7753733214682 -0.348285804759566,53.7755108432767 -0.3483576208815,53.7755747369859 -0.348443742556057,53.775663090568 -0.348553471835304,53.7758066762008 -0.348802668581528,53.7762991444414 -0.348926932560098,53.7766145685364 -0.349049360996747,53.7769353596452 -0.349258225666788,53.7776078971566 -0.349515914430912,53.7783916374336 -0.349521576648754,53.7785185128389 -0.349514906190222,53.7785705413717 -0.349499126114999,53.7786251411761 -0.349460816672984,53.7787117810056 -0.349430079102742,53.7787616813448 -0.349347004481058,53.7788666660792 -0.349209743170917,53.7790004701312 -0.3490282425586,53.7791391463213 -0.348892809877548,53.7792262463861 -0.348633634717217,53.7794086934862 -0.348171320275871,53.7797420986467 -0.347971220498763,53.7798921990092 -0.347621543981868,53.7802568092593 -0.347523402942527,53.780436171443 -0.347483763803104,53.780518299674 -0.347458039025093,53.78059343034 -0.347410010817785,53.7807330447124 -0.347393435095414,53.7808460440649 -0.34739698900203,53.780911693158 -0.347423479005764,53.7810083024357 -0.347528211392394,53.7812029515227 -0.347604255052491,53.7813155203084 -0.347672337369572,53.7813982341583 -0.347791758040331,53.7815247895271 -0.347939468195807,53.7816671010738 -0.348051225453081,53.7817594026484 -0.348125010200036,53.781811641517 -0.348302019446454,53.7819057406671 -0.34852460610731,53.7819960636409 -0.348772234700439,53.7820668709777 -0.350801732547596,53.7827195321926 -0.351050859728869,53.7828289968328 -0.351327644275653,53.7829703832555 -0.351432872615134,53.7830347343368 -0.351539129431529,53.7831143760871 -0.351640035864781,53.7832092208123 -0.351711252170213,53.7832920652449 -0.351755572181891,53.7833618691765 -0.351791735668337,53.783445040717 -0.351811510020527,53.7835216956429 -0.351813473923646,53.7836664923444 -0.351787169190456,53.7838332765199 -0.35172425011121,53.784005038812 -0.351655695239656,53.784129006066 -0.351581922273924,53.784229627509 -0.351531104022166,53.7842873396014 -0.351463347929095,53.7843493123546 -0.35136472543756,53.7844261382099 -0.351288352272345,53.7844781073047 -0.351142588616194,53.7845570695522 -0.350980349125592,53.7846285258416 -0.350811061748188,53.7846882039149 -0.349567755228906,53.7850027822223 -0.348949723961162,53.7851633066062 -0.348808368982628,53.7852062920738 -0.34870682141728,53.7852426362587 -0.348611103557366,53.7852835532942 -0.348493449431884,53.7853412434332 -0.348380032369371,53.785408964997 -0.348266000495012,53.7854891698524 -0.348178247982015,53.7855598524272 -0.348116721224346,53.7856192124632 -0.348040393165453,53.7857081146056 -0.347952130467518,53.7858300105059 -0.347885414401259,53.7859450156914 -0.347835225194319,53.7860630333124 -0.347780329793014,53.7862626717405 -0.347769083854646,53.7863929078798 -0.347777125527148,53.7864972601857 -0.347816979732556,53.7866424891521 -0.347871367570615,53.7868032848564 -0.347932770097467,53.786941621345 -0.347992275242532,53.7870485703102 -0.348042617922143,53.7871211543263 -0.348224316472077,53.7873259388691 -0.348410820559157,53.787484870455 -0.348592621866991,53.7876105760555 -0.348696461242964,53.7876722145478 -0.349111240545283,53.7878953948111 -0.349309239526463,53.7879943637124 -0.34954788588552,53.7881036869365 -0.349671649512288,53.7881584103781 -0.350512943201158,53.788500771514 -0.350740635674904,53.7885767825359 -0.350859277280489,53.7886089674592 -0.351023384208637,53.7886435752568 -0.351245054452099,53.7886816700719 -0.351465680554819,53.7887080672652 -0.352470528169219,53.7887865792668 -0.352958643789073,53.7888445059366 -0.353385506399814,53.788913272378 -0.353542088496041,53.7889451674978 -0.353725577090511,53.7889899227555 -0.353928374052528,53.7890466238284 -0.354126207319857,53.7891086488558 -0.354467653726915,53.7892301570201 -0.354672342584199,53.789312135241 -0.35486939109331,53.7893975130522 -0.355057292204633,53.7894863588083 -0.355332473752145,53.7896286123666 -0.35637029333628,53.7901102193091 -0.357676123761045,53.7908418028377 -0.358504283715067,53.7914050803215 -0.359070323014613,53.7917606874929 -0.359323719762621,53.7919583483639 -0.3594824921593,53.7920917202067 -0.359539596525243,53.7921456103109 -0.359617722553058,53.7922446298032 -0.359688284668438,53.792380389344 -0.35973603797566,53.7925168256368 -0.359758182428374,53.7926519228617 -0.359753973190499,53.7927984314401 -0.359733236740058,53.7929032878734 -0.359710423503933,53.7929811564905 -0.359628035459582,53.7931454669205 -0.359575120981621,53.7932184311248 -0.359495558243812,53.7933134957369 -0.359405407063181,53.7934040126952 -0.359558041577145,53.7933835449688 -0.359603756056413,53.7933796767693 -0.359774584457289,53.7933613453014 -0.360542402999005,53.7932136856294 -0.362407425604683,53.7928040523341 -0.364138626264157,53.7924034377228 -0.364612025928114,53.7924871762631 -0.364889634480508,53.7923363974327 -0.365008472705997,53.7922867965144</coordinates></LinearRing></outerBoundaryIs></Polygon>
  </Placemark>
