  <Placemark>
	<Style><LineStyle><color>ff0000ff</color></LineStyle><PolyStyle><fill>0</fill></PolyStyle></Style>
	<ExtendedData><SchemaData schemaUrl="#Wards__December_2019__Boundaries_EW_BFE">
		<SimpleData name="objectid">7446</SimpleData>
		<SimpleData name="wd19cd">W05000291</SimpleData>
		<SimpleData name="wd19nm">Bwlch</SimpleData>
		<SimpleData name="wd19nmw">Bwlch</SimpleData>
		<SimpleData name="bng_e">317489</SimpleData>
		<SimpleData name="bng_n">223334</SimpleData>
		<SimpleData name="long">-3.20069</SimpleData>
		<SimpleData name="lat">51.90242</SimpleData>
		<SimpleData name="st_areashape">44983212.9003881</SimpleData>
		<SimpleData name="st_lengthshape">34828.712361469</SimpleData>
	</SchemaData></ExtendedData>
      <Polygon><outerBoundaryIs><LinearRing><coordinates>-3.20099399671998,51.8713132154558 -3.20054740289275,51.8713402453163 -3.20002822762079,51.8713176751637 -3.19942301748795,51.8712842953826 -3.19907714061229,51.8712752362089 -3.19835650897791,51.8712699933455 -3.19784001656081,51.8712941291193 -3.19730410332151,51.8712950887903 -3.19695789281161,51.8712779371777 -3.1965217441048,51.8712067767304 -3.19609819638019,51.8711184981359 -3.19577167461979,51.871075973134 -3.19538485370468,51.8710583304431 -3.19476179694305,51.8711194911586 -3.19440477697824,51.8711824422587 -3.19400568320351,51.8712530096906 -3.19370827429561,51.8712651068669 -3.19319811268434,51.8711982806076 -3.19236720765895,51.8710853533368 -3.19185009245173,51.8709773326421 -3.19096645402466,51.8709034930082 -3.19009563287761,51.8709293823844 -3.18865975959441,51.8709546836021 -3.1879486553703,51.8709789434923 -3.18753486930426,51.8709831203947 -3.18619913440916,51.8710091782696 -3.18577239053137,51.8710170752821 -3.18532387415541,51.870975751505 -3.18465591427973,51.8708737125509 -3.18406746637039,51.8707573885721 -3.18355649940834,51.8706590689559 -3.18341482497838,51.8706272358816 -3.18286551176683,51.8705051183373 -3.18236194749968,51.8704148095985 -3.18213224069084,51.8704054320866 -3.18200013208048,51.8704094570784 -3.18187549111279,51.870419698208 -3.18164993288357,51.8704589083185 -3.18142620999688,51.8705132906134 -3.18098111998632,51.8706525931016 -3.18084394307136,51.8706872296079 -3.18041077237215,51.8707833538323 -3.17951853002996,51.870933429264 -3.17876793303489,51.8710596062631 -3.17744982599093,51.8712562707885 -3.17643628281181,51.8714903238632 -3.1749218350997,51.8717364747289 -3.17473369829133,51.8717599269001 -3.17451192317252,51.8717793097354 -3.17424496144197,51.8717927620057 -3.17396188919608,51.8717991830975 -3.17365396304019,51.8717986601313 -3.17320188763838,51.8717860905616 -3.17233781409459,51.8717361880765 -3.17185406412858,51.8716798844106 -3.17103593728824,51.8716098278621 -3.17010506185408,51.8715606638984 -3.16909941767057,51.8714869769339 -3.16863619080294,51.8714367473764 -3.16822795187457,51.8713778803045 -3.16678598430855,51.8712241009341 -3.16613264335175,51.871125319683 -3.16563527442939,51.871046653287 -3.16524683859073,51.8709660065829 -3.16493960720727,51.8708808688175 -3.16469246493417,51.8707574719413 -3.16442095252017,51.8705946743271 -3.16438140810538,51.8706401003168 -3.16419408920959,51.8708064510472 -3.16402438099639,51.8709313681718 -3.16386047356506,51.8712206334489 -3.16381502345506,51.8713712869562 -3.16375396130922,51.8714276218366 -3.16373741114274,51.8715194721901 -3.16371731592113,51.8715250649625 -3.16360333156295,51.8715540579469 -3.16357013647135,51.8716227913921 -3.16352739024848,51.8717113051608 -3.16342812792744,51.8718048718309 -3.16339984871587,51.871832118654 -3.16329527885293,51.8720031324141 -3.1631785608562,51.8721490074514 -3.16311367765428,51.8722243463105 -3.16306854275788,51.8722760285099 -3.16250973466731,51.8726897376559 -3.16248129204193,51.8727106927579 -3.16234414490675,51.8726311484844 -3.16226722446903,51.8726346050736 -3.16206801744388,51.8727399450769 -3.16198745776056,51.8728252361337 -3.16166486954237,51.873162089146 -3.16165170259499,51.8731577243576 -3.16161509513714,51.8731454115395 -3.16134788764327,51.8734285926416 -3.16131100085451,51.8734658109102 -3.16128867655264,51.873501177928 -3.1612329441996,51.873536784832 -3.16119007726012,51.8736208040725 -3.16093863148855,51.87378149025 -3.16087656990237,51.8738550025965 -3.16088164192403,51.8739403468929 -3.16084797893065,51.8739865219319 -3.16076945676378,51.8740394318407 -3.16035006863499,51.874222537768 -3.16015800874713,51.8744384570373 -3.15996215901882,51.8743351293634 -3.15987548341255,51.8742389044351 -3.15986644154686,51.8742273074242 -3.15982151483909,51.8741756153744 -3.15978428628226,51.8741391283487 -3.15978282541494,51.8741382436088 -3.15976061656578,51.8741222824905 -3.15973557768586,51.874108057642 -3.15970754802274,51.8740939512891 -3.15967970831965,51.8740825404869 -3.15967381809159,51.874081699413 -3.15933899403825,51.8739393808672 -3.15909461545252,51.8743239052611 -3.15904215537159,51.8743145342934 -3.15868560335301,51.8742308552092 -3.15873865719764,51.8743750533082 -3.15874251890402,51.8745252189398 -3.15869368183843,51.8746614319632 -3.15870038095977,51.8746937261382 -3.15862694473144,51.8748886985689 -3.1585724101251,51.8749710343478 -3.15906333950155,51.8754221122112 -3.15902907253166,51.8754449221307 -3.15883204460494,51.8755798986825 -3.15866649854908,51.8757515087957 -3.15854094300203,51.8759505002399 -3.15851128337413,51.8760407704803 -3.15844631520616,51.8761133210564 -3.15841162625132,51.8761756864439 -3.15834021275102,51.8762258281514 -3.15821623753909,51.8763187353748 -3.15791053689484,51.8765177913089 -3.1576683163248,51.8766470084093 -3.15739602343763,51.8767899136186 -3.15704392269855,51.8769407945459 -3.15661070935517,51.87703952774 -3.15634136684699,51.8770736366826 -3.15622720702113,51.8772131872142 -3.1561403183792,51.8773372785907 -3.15600118615707,51.8775166249064 -3.15587212264301,51.8776402313783 -3.15569742318905,51.8777965562834 -3.15537699824766,51.8779921553901 -3.15529830137199,51.8780387710767 -3.15524580551913,51.8780842311599 -3.15513194714005,51.878179732235 -3.154753507865,51.8783785958019 -3.15456293073168,51.8784811415867 -3.15437433385796,51.8786610612934 -3.15364987352504,51.8794180177452 -3.15352565543901,51.8796143838648 -3.15345042642332,51.8796843356777 -3.15324170059505,51.8798176190535 -3.15306750312108,51.8800504304085 -3.15275217204695,51.8803852987872 -3.15270659253234,51.88036417231 -3.15238375142935,51.8807521482329 -3.15245759642441,51.8807964583385 -3.15145323541898,51.8837931955556 -3.15025034259659,51.8874932632654 -3.14920693324188,51.8906801139911 -3.14868760711068,51.8922514889037 -3.14754159310754,51.895694699066 -3.14644331975712,51.8990240807284 -3.14644069588271,51.8990339941361 -3.14642574318729,51.8990773758735 -3.1455049241322,51.8996707085398 -3.14299240175705,51.9012371774716 -3.13870660391464,51.9039033823257 -3.13738439029831,51.9047316370976 -3.13736728918649,51.9047425893869 -3.13727594890975,51.9047515619073 -3.13706641688738,51.9047454975926 -3.13701565808256,51.9047477855255 -3.13601648935453,51.90484381951 -3.13589731984842,51.9048422735983 -3.13572416655804,51.9048340573842 -3.13549607230917,51.9047858326104 -3.13525606095481,51.9047782609551 -3.13517620730434,51.9047817279724 -3.13477672664202,51.9047334460512 -3.13454571043782,51.9047356740066 -3.1342837138257,51.9047831445148 -3.13421975851914,51.9047801654253 -3.13406948365223,51.9047618392684 -3.13382210063248,51.9047471444018 -3.133566236218,51.9047478124923 -3.13340164361175,51.9047368138421 -3.13327329731833,51.9047182745228 -3.13322219893696,51.9047070814995 -3.13311373899362,51.9046739678418 -3.13303626362555,51.9046576357361 -3.13296917771007,51.9046492930828 -3.13288341518752,51.9046465232625 -3.13271076051011,51.9046580734471 -3.13258065333619,51.9046314607768 -3.1322811806888,51.9046280510627 -3.13220970628243,51.9046215475891 -3.13212773725225,51.9045980668198 -3.13202132001002,51.9046413376988 -3.13178897199878,51.9046525617234 -3.1317058143989,51.9046389799208 -3.13165300045148,51.9046215105481 -3.1316103257246,51.9046021453548 -3.13154649783808,51.9045470288397 -3.13146037907514,51.9044156315517 -3.13141873674896,51.904380076363 -3.13135976471558,51.9043464860808 -3.13129809124711,51.9043246069492 -3.1312091372893,51.9043092822552 -3.13084435145663,51.9043154864301 -3.13090499382025,51.9043535548081 -3.13103401699145,51.9043990562608 -3.13112655335458,51.9044377179532 -3.13118736910339,51.9044874706224 -3.13157202740463,51.9048092562175 -3.13168586506042,51.9049466789722 -3.1317877088585,51.9051218801042 -3.13201392264506,51.9053337275226 -3.13260152290278,51.9058657833119 -3.13260453463554,51.9058711473516 -3.13261666164384,51.9058863114675 -3.1326454982104,51.905993899902 -3.13278138262127,51.9061356032436 -3.1329421022676,51.906287764333 -3.13314761530398,51.9064243028613 -3.13322521618233,51.9065026571534 -3.13324923117367,51.9065329875578 -3.13337582775553,51.9067673648442 -3.13343561917329,51.9068333062134 -3.13353637664481,51.9069078415646 -3.13371347625553,51.9069582699329 -3.13375023742497,51.9069758939735 -3.13378574091345,51.9070007205313 -3.13424183469473,51.9075016753226 -3.13433777727379,51.9075609755512 -3.1344673114162,51.9076262430812 -3.13456109454828,51.9076568895318 -3.13461760492859,51.9077066819465 -3.1346430888775,51.9077334031393 -3.13467346952522,51.9077879413967 -3.13470943992056,51.9078882691986 -3.13484808658451,51.9079679218216 -3.13487667358668,51.9080036008181 -3.13496734861561,51.9081438503831 -3.13509709510454,51.9082127116933 -3.13520572497584,51.90848501331 -3.13524531737137,51.9085008112815 -3.13547432590189,51.9084752300588 -3.13555023378248,51.9084861826521 -3.13558546734841,51.9085002252016 -3.13562862361031,51.9085384599078 -3.13564117596114,51.9085751935236 -3.13555275621871,51.9087001819638 -3.13556195758628,51.9087180705239 -3.13559026775837,51.9087474607468 -3.13562287471245,51.9087714155619 -3.13610115308687,51.9090005975027 -3.1361581060114,51.9090108336019 -3.13632337497827,51.908995754952 -3.13638633556635,51.9091299789428 -3.13642594398365,51.909255529687 -3.13648928525854,51.9092908726024 -3.13656645207635,51.9092946219773 -3.13660879145758,51.9093005051351 -3.13666451174706,51.9093188433458 -3.13662316193413,51.9094091305754 -3.1366069368457,51.9094596246778 -3.13665795910849,51.9095814694242 -3.1367111666533,51.9096142145054 -3.13681671365999,51.9096500486132 -3.13687268273059,51.9096782721471 -3.13694972956878,51.9097341571697 -3.13706258625843,51.9097699204224 -3.13712890155397,51.9098043360158 -3.13724565757922,51.9098806008567 -3.13732486939512,51.9099652290432 -3.13734589350087,51.9099955875224 -3.13737368229741,51.9100564432143 -3.13738175813521,51.9100914216486 -3.13738115524401,51.9101814051442 -3.13740978550573,51.9102233761832 -3.137430520139,51.9102375574521 -3.13752458095715,51.9102788959031 -3.13762999945934,51.9103048427075 -3.13784928307987,51.9102973292026 -3.13789299429909,51.9103005021203 -3.13791530434372,51.9103200610998 -3.13793672233594,51.9103612026275 -3.13793779032827,51.9104034401099 -3.13792305153172,51.9104558073077 -3.13790647100737,51.9104874285146 -3.13783906673238,51.9105806655563 -3.13785542939298,51.9106542150733 -3.13785478719624,51.9106856821316 -3.13788490111611,51.9107294360844 -3.13790700687791,51.9107409074941 -3.13793927568087,51.9107513823676 -3.13803832366744,51.9107576156765 -3.13811434635994,51.9107776441233 -3.1381673745509,51.9108031989794 -3.13822222665177,51.9108440170222 -3.13824611094226,51.9108689537414 -3.13829903744205,51.910952038187 -3.13831616350998,51.9109941194068 -3.13834732066191,51.9111359312587 -3.13834795715367,51.9111610937782 -3.13830340761265,51.911295458621 -3.13831238330717,51.9113043604684 -3.1383906448824,51.9113512441191 -3.13861351048062,51.9114282782913 -3.13880031420167,51.9115154598968 -3.1387998773236,51.9115550145185 -3.13883464605144,51.9117210608208 -3.13888613426321,51.9118041589229 -3.13893681223081,51.9118504100701 -3.1390269035971,51.9119052683351 -3.13946578008245,51.9122426832893 -3.13984695717038,51.9124835774555 -3.13993167371712,51.9126716108062 -3.14011647842157,51.9127363375508 -3.14018227673515,51.9127500825663 -3.1402586885702,51.9127852968122 -3.14030658220161,51.9128351700119 -3.14034202278248,51.9129139282154 -3.14041215775692,51.9129852487475 -3.14048370542254,51.9130555664928 -3.14065437134063,51.9131914415823 -3.14073181172158,51.9132671849959 -3.1408338274221,51.9133902419016 -3.14101216625488,51.9135449176879 -3.14111142485884,51.9136159553782 -3.14116810950628,51.9136720351408 -3.14120421493561,51.913720224931 -3.14123637099301,51.9137828347312 -3.14142037410788,51.9139905787431 -3.14171586226854,51.9142313981021 -3.14140128674113,51.9144384960171 -3.14113094698402,51.9146173887923 -3.14061822227337,51.9149811036949 -3.14001392001792,51.9154023331023 -3.13901335830809,51.9162527454748 -3.13816584418675,51.9170080954967 -3.13748217889605,51.9176873388462 -3.13788107674084,51.9178785391624 -3.13835463179905,51.9182057351656 -3.1389622681162,51.9186008461995 -3.13999952275071,51.9193668048735 -3.14238554486492,51.9210798509039 -3.14323955020498,51.9216694919532 -3.14437883114286,51.9224955438627 -3.14449883501679,51.9226976131842 -3.14479107147552,51.9232081210578 -3.14530772881227,51.9241408942446 -3.14555118965774,51.9254756081806 -3.14591634855608,51.9274824806292 -3.14591434987787,51.9276299158056 -3.14595345338721,51.9278516471541 -3.14596933363485,51.9279054252502 -3.14600523355352,51.9280013449902 -3.14604677654669,51.9280881321015 -3.1461439497588,51.9282498821211 -3.14658153919985,51.9286413044736 -3.14664898465535,51.9287233432975 -3.14673752491882,51.928828548591 -3.14684905655578,51.9290405851003 -3.14703063077442,51.9294317142473 -3.14730642504001,51.9302068228913 -3.14758164431446,51.9306770384316 -3.1477600032517,51.9309980850816 -3.14802122246554,51.9313704575244 -3.14808233237796,51.9314859070622 -3.14813397675777,51.9315734921688 -3.14818336170412,51.931685370505 -3.14820947494299,51.9318532950011 -3.14820408203788,51.93204130246 -3.14817493638337,51.9323229355588 -3.14811630602987,51.9325348327249 -3.14814127241039,51.9326578252277 -3.14816741654728,51.93271419934 -3.1481745434844,51.9328759279241 -3.14818347350951,51.933056604326 -3.14819549159339,51.9332407563099 -3.14819319111373,51.9333244646766 -3.14811787085686,51.9334510422773 -3.1479646058871,51.9337141997098 -3.14787694832638,51.9338696606008 -3.14780656679173,51.9340160538695 -3.14780480776266,51.9340646093652 -3.14780257809899,51.9341464280664 -3.14781845119545,51.934312653524 -3.14786786783752,51.9344820574564 -3.14796285567159,51.9347266115851 -3.1479963428298,51.9348404413258 -3.14802338915161,51.9349885806415 -3.1480326241717,51.935068489236 -3.14804138898874,51.9358677665989 -3.1480517226935,51.9361598874507 -3.15012770966116,51.9361099522824 -3.15184354534403,51.9360886746249 -3.15191056631199,51.9360925132919 -3.15233360722291,51.9360235633554 -3.15254327564674,51.9359729707191 -3.15271625053968,51.9359694790437 -3.15313815851266,51.9358610765377 -3.15329254939369,51.9358110242452 -3.15384740991885,51.9356679684418 -3.15461400870081,51.9355552820174 -3.15488843904052,51.9355328136209 -3.15523348491802,51.9354907751285 -3.15547107034775,51.9354533864649 -3.15572097891908,51.935442842833 -3.15580664479393,51.9354348102375 -3.15596432477831,51.9354009027724 -3.15612817604203,51.9353785286742 -3.15634070980691,51.935332395834 -3.15646679522105,51.9353104831851 -3.1568132544135,51.9352675270428 -3.15694982736726,51.9352616905214 -3.15715850955428,51.935229077343 -3.15727785378452,51.9352341957601 -3.15752789935705,51.9352290389924 -3.15765686179099,51.9352070967667 -3.15808770618259,51.935162408438 -3.15824431394109,51.9351428899651 -3.15843177421271,51.935133853458 -3.15847372051733,51.9351280475596 -3.15860674369976,51.935096175742 -3.15867344112553,51.9350874295951 -3.15887383124359,51.9350728721187 -3.15900304226655,51.9350653074666 -3.15905699462569,51.9350692698817 -3.15924242985824,51.9350980053728 -3.15927590439972,51.9350985738219 -3.15949948655336,51.935081090322 -3.15972548079017,51.9350455156144 -3.15974135678485,51.9350426626723 -3.1597951238531,51.9350394362754 -3.15988991036026,51.9350456923103 -3.15993931011244,51.9350452053705 -3.16018450512519,51.935019418097 -3.16032829253829,51.9350144047487 -3.16049276981393,51.9350163783811 -3.16078856972516,51.9350368308658 -3.16087439376109,51.9350396697304 -3.16095448763259,51.9350388795542 -3.16115484795006,51.9350278241739 -3.16130184264736,51.9350308683112 -3.16157712556849,51.9350417235314 -3.16174350211037,51.9350661484903 -3.16191849569698,51.9350806004544 -3.1623275122794,51.9350918416732 -3.16273044823386,51.9351507816738 -3.16281053770003,51.9351544850023 -3.16288496573105,51.9351618389251 -3.16304324330077,51.9351512861122 -3.16318097436615,51.9351346441135 -3.1633148539616,51.9351360171279 -3.16361267515794,51.9351789143554 -3.16395871400579,51.9351709981984 -3.16415387873194,51.9351816517151 -3.16427018282061,51.9351805010437 -3.16433263139064,51.9351744893034 -3.16451911048304,51.9351321950846 -3.16468418894315,51.9351017974123 -3.16489411372519,51.9350664617379 -3.16504798124165,51.9350523542853 -3.16522589529906,51.9350128402199 -3.16524885285114,51.9350009278612 -3.16533063204386,51.9349586800569 -3.16539022191575,51.9348978656409 -3.16555028005448,51.9348450446465 -3.16580180288255,51.9347859243636 -3.16588511767089,51.9347428526453 -3.16613713901992,51.9345919521396 -3.16650463345657,51.9344588725839 -3.16659755265027,51.9343977280462 -3.16665237474188,51.9343242861877 -3.16679671577201,51.9342806078662 -3.16692666610471,51.934241566802 -3.16699915577684,51.9341788262869 -3.16730686829306,51.9340391458752 -3.16758214309223,51.9338835177496 -3.16769286554571,51.9338383745426 -3.16796543379696,51.9337448838172 -3.16810677203585,51.9337011442757 -3.16819499754644,51.9336256610706 -3.16828729362939,51.9335914867201 -3.16851979995081,51.9335855824455 -3.16860850108205,51.933583802445 -3.16872387504456,51.9336024321311 -3.16887477097179,51.9336449782578 -3.16892612497465,51.9336597488955 -3.1690588385682,51.9336764077365 -3.16923196014289,51.9336189575877 -3.16939301354016,51.9336047729179 -3.16945467530735,51.9336239356546 -3.16953308834445,51.9336231563361 -3.16969590144735,51.9335613131938 -3.16988205083846,51.9335621591567 -3.17021846973286,51.9335767912894 -3.17043672471803,51.9335809127203 -3.17056672830272,51.9335993950822 -3.17072240971773,51.9336598684999 -3.17085845087164,51.9336891672835 -3.17109871857867,51.9336957649522 -3.17135153784261,51.933686956421 -3.17166916286298,51.9336522436397 -3.17190155549266,51.9336373451827 -3.17222811138567,51.9336692387407 -3.1725702285405,51.9337368409469 -3.17278187789683,51.9337634958197 -3.17294908816503,51.933760030951 -3.17329485282512,51.9337466970273 -3.17336159211025,51.9337397394224 -3.17347900405749,51.9337214895586 -3.17353682650407,51.9337083286443 -3.1736118009752,51.9336815132362 -3.1736924113567,51.9336500577859 -3.17371258334101,51.9336417670827 -3.17383271546834,51.9335668605373 -3.17410486982333,51.9334580782185 -3.17425658333015,51.9334215080536 -3.174343328041,51.9333999686213 -3.17457211401067,51.9333068088757 -3.17481654723033,51.9331974024799 -3.17498657470439,51.9330815472963 -3.17512899913413,51.9329649793797 -3.17524972899024,51.9327983799125 -3.17534229975746,51.9327749832891 -3.17548220988951,51.93278706914 -3.17563934166352,51.9327881958672 -3.17573842459191,51.9327386671023 -3.17587560708724,51.9326464200557 -3.17609811746387,51.9325336344293 -3.17624353028367,51.9324764509075 -3.1763962773039,51.9324245868848 -3.17668914641286,51.9323883996966 -3.1769589656549,51.9323604428144 -3.17707219616404,51.932352119856 -3.1773792850579,51.9323598336453 -3.1775365588821,51.9323664402325 -3.17782484931263,51.9323752401058 -3.17789896620183,51.93237539735 -3.17807909778073,51.9323664028232 -3.17833124799546,51.9323278327887 -3.17843803886197,51.932352920949 -3.17861826127732,51.9324023521548 -3.17872467330546,51.9324129714025 -3.17882483536873,51.9324047767654 -3.17889159533506,51.9323987149517 -3.17920727323003,51.9323452148534 -3.17948400483049,51.9322470703125 -3.17966859279227,51.9322434225842 -3.17989007619001,51.9322016509237 -3.18000290641455,51.9321232165583 -3.1800979473708,51.9320890054238 -3.18027192107902,51.9320647885296 -3.18048901225122,51.9319699363148 -3.18058405396712,51.9319357247799 -3.1807190086278,51.9319235838244 -3.18080126639934,51.931895792521 -3.1808740145621,51.9317889953543 -3.18096634118986,51.9316468554357 -3.18111337309691,51.931651671854 -3.18119473207197,51.9316490569328 -3.1812602604514,51.9315414328634 -3.18135190378936,51.9314874792873 -3.18148399816638,51.9313116816709 -3.1816276768492,51.9311888901657 -3.1817044575698,51.9311216030553 -3.1817555465821,51.9310167302942 -3.18186787697647,51.9309742536919 -3.18193533903582,51.9309403180627 -3.18200105499372,51.9308398820558 -3.18213734623835,51.9307098838453 -3.18216208714446,51.930601770771 -3.1822294317823,51.9305633413843 -3.18237058416139,51.9305088886932 -3.18247469730327,51.9303774160403 -3.18257761052967,51.9303098648499 -3.18271109487583,51.9302420063066 -3.18282106473821,51.930219328056 -3.18288149609808,51.9301962485566 -3.18300327732788,51.9300663951927 -3.18312664130682,51.93000133532 -3.1832388680158,51.929900430964 -3.18335392597251,51.9297977015593 -3.18344603229237,51.9297616290471 -3.18355633162404,51.9297515310666 -3.18361695114801,51.9297356405651 -3.18371443422532,51.9296258954151 -3.18379767161565,51.929526182166 -3.18385798329018,51.9294986086001 -3.1840195872178,51.929501477424 -3.18406010470382,51.9294416540957 -3.18406507527605,51.9293526150464 -3.18403256158181,51.9292244029882 -3.18405061736591,51.929081210534 -3.18403867587479,51.9290148136957 -3.18402956701893,51.9289420962172 -3.18404103061138,51.9289356887332 -3.18413139148054,51.9288880380193 -3.18423933911313,51.9287340531494 -3.1842699517204,51.9286807105735 -3.18439470601609,51.9286686689635 -3.18443947004543,51.9286017013989 -3.18449863274297,51.9284212405077 -3.1845186224862,51.9282376690883 -3.18453556426849,51.9280522401613 -3.18457605704516,51.9279916076717 -3.18474864573248,51.9277515781874 -3.18486718268739,51.9276128559207 -3.1849092680666,51.9274442528015 -3.18496995057378,51.9273762256125 -3.18500025968296,51.9273660335285 -3.18511698885222,51.9273226104089 -3.18530619661683,51.9272766597777 -3.18557224983649,51.9272163613366 -3.18578160212028,51.9271567244776 -3.18596957886927,51.9270595489528 -3.1861500355766,51.927009191293 -3.18652753158518,51.9269325764612 -3.18665208840042,51.9269132523991 -3.18684552365582,51.926913999031 -3.18703881660816,51.9269093519784 -3.18709518691946,51.9268961990642 -3.18710254622776,51.9268979230919 -3.18721663129209,51.9268680079764 -3.18730908812395,51.9268455022442 -3.18741518126269,51.9268399369872 -3.18752867298387,51.9267875564089 -3.18773733116639,51.9267018545012 -3.18794707949459,51.9266619844473 -3.18816542230393,51.9266705669723 -3.18818308525434,51.9267854444654 -3.18819455229284,51.9269472167868 -3.18818394003861,51.9270947395872 -3.18816814677435,51.927155123917 -3.18809290359566,51.9272800179973 -3.18802706386678,51.9273750647649 -3.18800325178906,51.9275767434406 -3.18798586157312,51.9276901774552 -3.18798574641859,51.9278492793874 -3.18805816294162,51.9280032450982 -3.18816790337605,51.9280857322335 -3.18826516277678,51.9281314916161 -3.18837952225519,51.9281663821376 -3.18839124615674,51.9281698593742 -3.18839141232653,51.9281761498316 -3.18838592665855,51.9282454187208 -3.18841866702253,51.9283817167871 -3.1883561211407,51.9284380794136 -3.18833007923673,51.9285507916114 -3.18839513606435,51.9287029432322 -3.18848277571926,51.9287703724807 -3.18859869514993,51.928809740894 -3.18878896090737,51.928858156001 -3.18894365431092,51.9288763686748 -3.18917613350127,51.9288659300593 -3.18943171646798,51.9287995264832 -3.18943468939807,51.9287985973002 -3.1895550890297,51.9287352681385 -3.18965018869402,51.9286992504484 -3.1898038342809,51.9286824162793 -3.19004383978922,51.9286799893558 -3.19016892528462,51.9286805225701 -3.19028812520914,51.928735046993 -3.19042648161408,51.9287975569189 -3.19053322247359,51.9288162525911 -3.19068503715689,51.9288389859663 -3.19081107456235,51.9288754634021 -3.19099586290831,51.9289886499656 -3.1910871339224,51.9290299728387 -3.19141666809594,51.92917054673 -3.19155902008791,51.9291664088779 -3.19168445010881,51.9291210937896 -3.19179880676867,51.9290470375377 -3.19184828182799,51.9289953002487 -3.19189038476058,51.928991278176 -3.19203405526374,51.9289781377625 -3.1921129360188,51.9289908211826 -3.19218243685267,51.9290341620119 -3.19231676694774,51.9291119921594 -3.19243585160702,51.9291575269281 -3.19269343416904,51.9291621077451 -3.19291378415296,51.9291374021476 -3.19298703106691,51.9291546368583 -3.19319264383119,51.9292298560337 -3.19330705510386,51.9292664486712 -3.19341535394846,51.9292941145548 -3.19354780249336,51.9292963668658 -3.19371538298426,51.9292533185874 -3.19388282006865,51.9292048785264 -3.19400621354621,51.929141603468 -3.19406987294532,51.929131968888 -3.19412389121066,51.9291386120065 -3.19424707185077,51.9292299456651 -3.19432336251651,51.9292579355495 -3.1944167510207,51.9292659763101 -3.19448772419042,51.9292562672679 -3.19462358136886,51.9292243266077 -3.19475190235062,51.9292383045977 -3.19503554833654,51.9292399191615 -3.19516334557474,51.9292296326263 -3.19530737411869,51.9292344618438 -3.19547180728554,51.9292354879612 -3.19549803202528,51.9292927489576 -3.19554197615737,51.9293580102353 -3.19561131363327,51.9293950585547 -3.19570218361718,51.9294211020435 -3.19584412838006,51.9294016823824 -3.19592732767763,51.9294098254878 -3.19626823803229,51.9295987198901 -3.19634980854529,51.9295996879895 -3.19663587867269,51.9295841950176 -3.19704713358844,51.9295728209696 -3.1972904272782,51.9295856265665 -3.19763149708473,51.9296136164776 -3.19772985118747,51.9296504581346 -3.1978947405204,51.9296685552444 -3.19798841804718,51.9296918709836 -3.19807139972615,51.9297503518287 -3.19819809176706,51.9298110849472 -3.19828941882961,51.9298541999013 -3.19849662769591,51.9298763590776 -3.19859773847722,51.9299085872508 -3.19880569032514,51.9300171206789 -3.19902081330087,51.9300661650876 -3.19913012297925,51.9301270734081 -3.19921373195766,51.9301549855302 -3.19934375882101,51.9302282667788 -3.1995122487784,51.9302778754749 -3.199541621609,51.9302865646865 -3.1996734474834,51.930377804483 -3.19969610568254,51.9304090341283 -3.19982896466569,51.9305884438312 -3.1999676025233,51.930660737447 -3.20004903034776,51.9306608061985 -3.20010719909971,51.9306611121059 -3.20031508426284,51.9308207888625 -3.20068048471497,51.9311038923863 -3.20069693373627,51.9311226009317 -3.20078690181468,51.9312224468558 -3.2009032914938,51.9312787873936 -3.20092676532424,51.9312866373248 -3.2011057613347,51.9313432369425 -3.20124984540678,51.9314037892135 -3.2015471586829,51.9316965735566 -3.20168657085922,51.9317976212973 -3.20180701812913,51.9318980542481 -3.20199095769464,51.9319779721885 -3.20231258330299,51.9320942367288 -3.20245190475234,51.9321917796555 -3.20261651683327,51.9321990859961 -3.20293401227412,51.9321607843867 -3.20310749277836,51.9321185615037 -3.20332700460339,51.9320083617084 -3.20352059731949,51.9319021130513 -3.2036662849749,51.9318610718443 -3.20381614806365,51.931859538759 -3.20392113954149,51.9317630945611 -3.20398760133492,51.9316923020284 -3.20408434130922,51.9315564810083 -3.20416478443856,51.9315197024325 -3.20426472305012,51.931503398922 -3.20441930964436,51.9315170974794 -3.20451169497344,51.9314918824494 -3.20464509892264,51.9314221126311 -3.20478299048439,51.9313586787539 -3.20481087135729,51.9313116510104 -3.20500347179305,51.9311730503253 -3.20509927752531,51.9311099571419 -3.20518003199218,51.9310848598065 -3.20534527219368,51.9309546282774 -3.20544439041722,51.9309077706766 -3.20559455906869,51.9308684794535 -3.20560467687056,51.9308656792936 -3.2059852002942,51.9306828140368 -3.20633304443193,51.9306900344981 -3.20648632870944,51.9306596997218 -3.20659010490895,51.9306748146253 -3.20662269417581,51.9307005480835 -3.206716617995,51.9307283490533 -3.20692462317203,51.9307307096179 -3.20723336930425,51.9306394535937 -3.2074219484249,51.9306195405766 -3.20760910563793,51.930546609253 -3.20768870767417,51.9305323089151 -3.20774560852383,51.9305389161655 -3.20781771316475,51.9305714340633 -3.20795060022224,51.9305898454835 -3.20814839917901,51.9306453430523 -3.20835625541151,51.9307492757403 -3.2084452612544,51.9307591476882 -3.20852457516983,51.9307340637588 -3.20853040127401,51.9307322065574 -3.20866150039009,51.9307956685502 -3.20886308707275,51.9307198006146 -3.20903669175543,51.9306290281177 -3.20922362905532,51.9305525008675 -3.20955300072048,51.9304123963782 -3.20987980956596,51.9302885880107 -3.20997353062309,51.9302597584476 -3.21003296899605,51.9302492603909 -3.21016903541186,51.9302253891092 -3.21030574191876,51.9301718478313 -3.21044425940451,51.9300786486438 -3.21051087630176,51.9300141429836 -3.2105716925282,51.9299478995977 -3.21169086645672,51.9292746284863 -3.2131737959839,51.9283332388668 -3.21467555788496,51.9273943327477 -3.21899029659289,51.9269009982016 -3.21979950826253,51.9268144115767 -3.22149054394644,51.9266440634827 -3.22185894593469,51.9263363286427 -3.22228920981322,51.9259533444986 -3.22255541867063,51.9257419498048 -3.22276429442072,51.9255653082721 -3.22305750664155,51.9253285525043 -3.22334420249876,51.9250684024121 -3.22366506846441,51.9247818284723 -3.22399789558494,51.9244546796689 -3.22418896483939,51.9243159726435 -3.2243886881581,51.9241736695271 -3.22466560221942,51.9239819328444 -3.22495048230999,51.9237614381399 -3.22519916198518,51.9235502184285 -3.22540549673118,51.9233295521962 -3.22552319207222,51.9232177639027 -3.22563142627618,51.923080007073 -3.22572317802276,51.9229270501279 -3.22582090434024,51.9227777164513 -3.22588870672913,51.9225423122698 -3.22595540786151,51.9221081763844 -3.22596580317084,51.9220100897412 -3.22597190816491,51.9219129469296 -3.22591427667237,51.9216680623649 -3.22589819934675,51.9215576671213 -3.22582334329407,51.9213713898184 -3.22574630079306,51.9212148877685 -3.22559641056935,51.9209413012628 -3.22547785936126,51.9208058152981 -3.22520797123578,51.9204534767718 -3.2250214586218,51.9202261133851 -3.22480204325905,51.9199659237378 -3.22451184367529,51.919668626262 -3.22439169029134,51.9195268645249 -3.22427619323436,51.9193446936115 -3.22417244341256,51.9189509837228 -3.22400494083444,51.9185670153962 -3.22388907726863,51.9183712744402 -3.2238672557757,51.918265433365 -3.22388623612825,51.9179451437716 -3.22384450360915,51.9175877324074 -3.2238067851206,51.917161964358 -3.22378809426114,51.9169022911344 -3.22374261130598,51.9165655939574 -3.22376942980848,51.9163791563513 -3.22384169556911,51.916149100036 -3.22391960992715,51.9158578605166 -3.22391443567449,51.9157734194783 -3.22390444008903,51.9157276807918 -3.22368034620908,51.9151356697776 -3.22355598103566,51.9148384438924 -3.2234786638746,51.9146666622954 -3.2233168466299,51.9143851063472 -3.22312754245307,51.9141595672146 -3.22303173289482,51.9140041575093 -3.22300330926255,51.9139198671927 -3.22299470372465,51.9138723165887 -3.22299783853033,51.9137185751437 -3.2229839152698,51.9136341350353 -3.22291788701447,51.9134541452633 -3.22291215664635,51.9134020699731 -3.22288818898763,51.9132170593099 -3.22287318833977,51.9130400450278 -3.22287184525967,51.9129906206669 -3.22288943474827,51.9128879647089 -3.22297356536,51.9126137402366 -3.22303284842908,51.9124926744836 -3.22307892883081,51.9124238798474 -3.22310002871841,51.9123975036852 -3.22343950556267,51.9121593670729 -3.22345283099293,51.912111587609 -3.22346700553364,51.9119935962494 -3.22343295965959,51.9116495884605 -3.22343433644468,51.9114841790985 -3.22345540485466,51.911350836075 -3.2234854665462,51.9112264772745 -3.2235109745618,51.9111506159791 -3.22352751800654,51.9111153883119 -3.22370666483991,51.9106460159418 -3.22397060726421,51.9101433132609 -3.22412205305934,51.9098324320423 -3.224212710564,51.9093711713856 -3.22425538925376,51.9092304111616 -3.22434302462675,51.9090811835928 -3.22465785440385,51.9085770508111 -3.22552259939527,51.9091030650028 -3.22572577620623,51.9090901621677 -3.22576357154677,51.9090915659174 -3.22583216834612,51.9091016384513 -3.22588353576811,51.909117283453 -3.22596736559298,51.9091541633643 -3.22600679564972,51.9091627413335 -3.22646670161239,51.9090743537679 -3.22714023614737,51.9089828380171 -3.22851147366118,51.908943363804 -3.22897059939512,51.9091471107547 -3.22924030595768,51.9092792164279 -3.22939622298547,51.9093441053558 -3.22965298186843,51.9094322101171 -3.22988535500185,51.9095314460528 -3.23114349835225,51.9100325424465 -3.23123979182692,51.910095356089 -3.23128323183606,51.9101453290184 -3.23144544934658,51.9104402626874 -3.2314720914113,51.9104589503858 -3.2315411587191,51.9104860929341 -3.23165244003003,51.9103562983076 -3.23180147895636,51.9101695686533 -3.23183417322124,51.9101422603419 -3.23188138993365,51.9101156083427 -3.23196630464356,51.9100823594478 -3.23208976412494,51.9100253365251 -3.23219354022151,51.9099936882895 -3.23226242220014,51.9099615061771 -3.2324136704905,51.909855651862 -3.2324710018697,51.9098262871009 -3.23255115898458,51.9097813124621 -3.23268319242364,51.9097179069377 -3.23286083243102,51.9096216634667 -3.23343184094885,51.9091832282005 -3.2334909258635,51.9091654398782 -3.23363836608738,51.9091351301098 -3.2337197650397,51.9090830411422 -3.23389639168858,51.9089499518541 -3.23401713215777,51.9089513833558 -3.23414812615251,51.9088502330702 -3.23431269208146,51.9088106642486 -3.23440486206696,51.9087755401166 -3.2344315604947,51.9087437991742 -3.2345092590739,51.9087142198145 -3.23466189801349,51.908716214054 -3.23480564018354,51.9087084132245 -3.23505848076974,51.9086491294814 -3.23544325216075,51.9085273362609 -3.2355543259917,51.9085477428214 -3.2358187291852,51.9085953030726 -3.23608092311605,51.9086671555265 -3.23618468149284,51.9087397740815 -3.23650733271892,51.9087390797871 -3.23706930293239,51.9088195540369 -3.23716518032774,51.9089237156224 -3.23723459449342,51.9089634352814 -3.23740505656858,51.9089247884625 -3.23775960493935,51.908863529876 -3.23785187020447,51.9088886269906 -3.23801608049864,51.9089408322275 -3.23822405749608,51.9089413399418 -3.23840328947835,51.908903497606 -3.23913413371807,51.9091007476969 -3.23942112451336,51.9091238823225 -3.23951559730437,51.9091768192711 -3.23961403276656,51.909212637002 -3.23975311562106,51.9092489245535 -3.23995971210794,51.9092036001426 -3.24016350381724,51.9092131381648 -3.24033941236859,51.9092112836735 -3.24040553258869,51.9092357553062 -3.24050352702382,51.9093120257207 -3.24062055421696,51.9093395561015 -3.24084853454231,51.9093829944422 -3.24106144916639,51.9094060072325 -3.24131535517482,51.9095462514751 -3.24162722840439,51.9096238597323 -3.24191715189539,51.9099094311334 -3.24204394628512,51.9099737110179 -3.24228843951291,51.9099855122017 -3.24237327172571,51.9100016946754 -3.24231491373687,51.9101021767842 -3.24248327029784,51.9101435459642 -3.24272644633738,51.9101553592573 -3.24288226449142,51.9101680958781 -3.24296259001014,51.9101816290162 -3.24304023794165,51.9102023817254 -3.24308432835066,51.9102189950568 -3.24345414453018,51.9105019202688 -3.24367432949192,51.9105795939738 -3.24388869209836,51.910654721321 -3.24398999283697,51.9107938767569 -3.24411983930388,51.9108122785279 -3.24417006446314,51.9109466698873 -3.24460060522629,51.911162342745 -3.24505380363313,51.9113086500542 -3.24499273695765,51.9113587347046 -3.24502463770861,51.9114069372825 -3.24503807254014,51.9114202786359 -3.24516069158378,51.9114935881185 -3.24525022206773,51.9115754280958 -3.24529486544241,51.9116639445171 -3.24536527015321,51.9118429763669 -3.24537935439168,51.9118797712131 -3.24549433208902,51.9118848462547 -3.24566401697313,51.9119738370079 -3.24586861883898,51.912012120216 -3.24610412720472,51.9120150199847 -3.24622519502589,51.91197598445 -3.24635710184506,51.9120123402977 -3.24658060832519,51.9119973879161 -3.24670216691471,51.9119241891856 -3.24690413103126,51.9118672164799 -3.24710138951698,51.911852451373 -3.24724379282682,51.9117961103148 -3.24744575418648,51.9117391366977 -3.24780831630655,51.9114996941501 -3.24805773156051,51.9114206430298 -3.24819293916104,51.9113167360838 -3.24833805484123,51.9112027460623 -3.24846595931524,51.9111510512473 -3.24851319032801,51.9111208864257 -3.24857009559107,51.9109728654391 -3.24869705037206,51.9108869330099 -3.24878210990669,51.9107556922879 -3.24908014393444,51.9109126198013 -3.24925101178725,51.9109404682607 -3.24949412756202,51.9110017075989 -3.24990410291206,51.9111061174624 -3.25011699438805,51.911183856697 -3.2501438769057,51.9111548065744 -3.25029117144588,51.9108088786944 -3.25029272948255,51.9108088621365 -3.25031066960243,51.9107772104774 -3.25077407798123,51.9107641941554 -3.25116764519519,51.9107483240078 -3.25167636157755,51.9107438125337 -3.25249162183049,51.9107836765695 -3.25274964196776,51.9107557609565 -3.25324837354918,51.910758540496 -3.2543706347014,51.9107043338599 -3.25454921037448,51.9106431036346 -3.25455604334491,51.9106259515548 -3.25443071874224,51.9104087689405 -3.25426997925668,51.9102756496743 -3.25416270388671,51.910078049233 -3.25411340343894,51.9099778994392 -3.25367474243472,51.9096786609836 -3.25341051947085,51.9094836311572 -3.25326379438657,51.9093800239841 -3.25288770143624,51.9090846110053 -3.25218319511487,51.9085310260764 -3.25209763213351,51.908380924108 -3.25211277461362,51.9082961780749 -3.25211517572554,51.9082790742385 -3.25208989115993,51.9082577702192 -3.25200355860961,51.9081876765469 -3.25193420740725,51.9081506613532 -3.25194812527025,51.9080218830501 -3.25195047642445,51.9080029814663 -3.25177596861864,51.9078439378056 -3.25149788480219,51.9074126460086 -3.25134002655205,51.9071194013763 -3.25109197677852,51.906772193613 -3.25094444916812,51.9066434238511 -3.25079717781322,51.9064678203177 -3.25088232508079,51.9063401720591 -3.25123454980373,51.9060415026644 -3.25137541180398,51.9059348355398 -3.25172909308276,51.9057404192816 -3.25272517078663,51.9053342186632 -3.25306598140706,51.9051471275171 -3.25325380120557,51.9050570362298 -3.2534324920417,51.9049490635511 -3.25374034020371,51.9046760281967 -3.25378887321704,51.9046413534858 -3.25383317272888,51.9046139152095 -3.25457893498516,51.9042499163325 -3.25464214417055,51.904225781843 -3.25468505562461,51.9042001554209 -3.25477131351423,51.9041129420883 -3.25484405737599,51.904065424302 -3.25507234895745,51.9039614147717 -3.2558229212978,51.9036674697421 -3.25616743281958,51.9035108916041 -3.25639017519625,51.903418624846 -3.25654643496936,51.903340550409 -3.25664271978739,51.9033035661443 -3.25691037283463,51.9032574706735 -3.25708096787504,51.9032764127275 -3.25737578366988,51.9031086757992 -3.25738121510923,51.9030456957173 -3.25735225200319,51.9029956676471 -3.25740464650941,51.9028934433449 -3.2575544173005,51.9028963372774 -3.25759407832031,51.9028617557646 -3.25768168520093,51.9028230660023 -3.25781721617915,51.9027838637879 -3.25815440155026,51.9026786837684 -3.25828041456434,51.9027663260438 -3.25839577222595,51.9027857661548 -3.25854626979095,51.9027589874077 -3.25872158036494,51.9026852010102 -3.25883590755677,51.9026677976229 -3.25903335038201,51.9026611908033 -3.25914049046137,51.9025925373249 -3.25924317003909,51.9025743599573 -3.25936460872276,51.902498451778 -3.25952050408939,51.9024590295661 -3.26138998268783,51.9017403850362 -3.26108421270864,51.9014136818283 -3.26319984599068,51.9004540726463 -3.26152030523558,51.8994929392997 -3.26095654908708,51.8991878791319 -3.26063533367772,51.8990833653345 -3.2602123398019,51.8989260985564 -3.25840654132449,51.8981766132862 -3.25811125650745,51.8980647138362 -3.25784470235877,51.8979902605672 -3.25742949111372,51.8978534847653 -3.25701995630145,51.8976538147241 -3.25683525293368,51.8976008659716 -3.25666272618849,51.897511921824 -3.2564563438809,51.8974592948922 -3.25606371820397,51.8973457335199 -3.25571457882297,51.8972316176231 -3.25503939275364,51.8969933375093 -3.25466861370392,51.8968292008114 -3.2543034604279,51.8966604191404 -3.25390945180426,51.8965010225945 -3.25368473871743,51.8963622028885 -3.2535074803802,51.8963137543469 -3.25330060556062,51.89624314882 -3.25304693907104,51.8961101202721 -3.25280939235607,51.8960352558921 -3.25263088050363,51.8959373809221 -3.25247580079686,51.8959021782053 -3.25174693002943,51.8956150125518 -3.25125738683821,51.8954106902201 -3.25074980595462,51.8951391425112 -3.25012431619459,51.8948544621997 -3.24920745205885,51.8948084720585 -3.24871258992255,51.8947831645173 -3.24857971378171,51.8947576079235 -3.24857646880435,51.8947486536392 -3.24854063163243,51.8946618423756 -3.24853284633513,51.8946403518826 -3.24859748315757,51.8946162943889 -3.24878645858993,51.8945648498677 -3.24898315401923,51.8944763790973 -3.24926479458285,51.8943097910964 -3.24948553992678,51.894043084138 -3.24977810235964,51.8936398818121 -3.24990690233888,51.893514377598 -3.2500698148947,51.8933616335348 -3.25008113525577,51.8933507262111 -3.25029981892137,51.8932215697512 -3.25025830909159,51.8926673080689 -3.25018201679017,51.8922238901343 -3.25015017177829,51.8918061564492 -3.25046486486286,51.891782136479 -3.25098973496996,51.8917414987325 -3.25115670529169,51.8917352288995 -3.25127569389783,51.8917312666461 -3.25208082191313,51.8917856208889 -3.25220880620393,51.890898585201 -3.25232710487264,51.8899262579109 -3.25127617731015,51.8893421992774 -3.25120390670156,51.8893025182634 -3.25143601822635,51.8891831034815 -3.25170872255987,51.8886965104583 -3.25180211717539,51.888711696609 -3.25218707038996,51.8887075989484 -3.25264510187143,51.8887162053323 -3.25299906252936,51.888696254976 -3.25335112244076,51.8886080085933 -3.25362232298251,51.8885331175266 -3.25436662141119,51.8882851787995 -3.25518050979038,51.8880283131765 -3.25536204300486,51.8879733415004 -3.25555715820043,51.8879371012053 -3.25586433898865,51.8879068554152 -3.25579746765031,51.8871756051213 -3.25519491351599,51.887345724622 -3.25487420005974,51.8869975909965 -3.25460508182036,51.886725312794 -3.25436387594885,51.8867755266737 -3.25439857519725,51.8866663915254 -3.25442270632628,51.8865950315672 -3.25479667028762,51.8860938673939 -3.25506773778766,51.8857052625496 -3.25527173228449,51.8855151282287 -3.25540561055667,51.885418416881 -3.25548908124175,51.8853356371364 -3.25554196860838,51.8852559711626 -3.25560289125548,51.8851465547787 -3.25561514532443,51.8851176593996 -3.25562285986603,51.885080722871 -3.25563579654942,51.8850247640183 -3.25563943558945,51.8849447237074 -3.25563438183389,51.8848665744893 -3.25560726179407,51.8847832677694 -3.25554988936238,51.8847019914722 -3.25551349032571,51.8846511431287 -3.25540185597364,51.8845013214811 -3.25523931090171,51.8844031900738 -3.25519937756177,51.8843802456685 -3.25517138101792,51.8843643643274 -3.25509916660664,51.88432648251 -3.25504461631013,51.884299199206 -3.25497107031722,51.8842694220302 -3.25489766854323,51.8842405415162 -3.25488736261576,51.8842361575474 -3.25475507628253,51.8841791406403 -3.25471524348113,51.8841597897823 -3.25466197895698,51.8841270095962 -3.2546088375734,51.884094317987 -3.25460286926257,51.8840907859694 -3.25449220365666,51.8840272459149 -3.25446836998573,51.8840059269309 -3.25444738439491,51.8839836784195 -3.25444443478862,51.8839810133423 -3.25441286960555,51.8839444958327 -3.2544023150009,51.8839311248177 -3.25425435144189,51.8837842970688 -3.25453815230574,51.8836940774306 -3.25487651571133,51.8835843992293 -3.25516019101981,51.8834940904192 -3.25551140611756,51.8833770818607 -3.25578630899324,51.8832815611153 -3.25609636108302,51.8831964513779 -3.25641064675351,51.8831085091411 -3.25673624845157,51.8830097489125 -3.25684665390006,51.8829609279336 -3.25701858997909,51.8828718985426 -3.25719619653905,51.8827800209327 -3.25758697083226,51.8825699982661 -3.25785186494293,51.8824295459702 -3.2580524456835,51.882379759391 -3.25822245535456,51.8823806372743 -3.25831281388812,51.8823904567242 -3.25845823514496,51.8823987886962 -3.25858731505099,51.8824396556018 -3.25889171911898,51.8826243550693 -3.25913015619267,51.8827332652104 -3.25935675893858,51.8827829741821 -3.25947279832279,51.8827772367844 -3.25963346400385,51.8827566395011 -3.26018471011233,51.8825152256744 -3.26026050520792,51.8824711772159 -3.26032887104964,51.8824228034059 -3.26038279723346,51.8823763825888 -3.26044196787176,51.8823119271274 -3.2606584926821,51.8818473979701 -3.26071156603696,51.8817191872623 -3.26101992437394,51.8813688211344 -3.26117424019971,51.8810659481505 -3.26118462675355,51.8809705551952 -3.26662094361957,51.8809085380504 -3.26685201227054,51.8810660514751 -3.26684782402152,51.8810193544719 -3.26682445007055,51.8808100754937 -3.26686114945002,51.8806667563877 -3.2670806642437,51.8797957955548 -3.26716040507655,51.8794793360168 -3.26715641205984,51.8793373543529 -3.26713827752358,51.8791567835232 -3.26700432523667,51.8787338609702 -3.26705365414797,51.8787288347006 -3.26860083496497,51.8785736372161 -3.26892946141291,51.8771935332384 -3.26905349382194,51.8768001884171 -3.26918732982552,51.8764444919214 -3.26952095626137,51.8756001596473 -3.26958938299474,51.8754015753213 -3.26961266245007,51.875245815626 -3.26960853329836,51.8750992515679 -3.26952295964014,51.8749527574658 -3.26936650872748,51.8748114323462 -3.26915534955947,51.8746923614714 -3.26858970306107,51.8745150014408 -3.26817024277878,51.8743739048472 -3.26658350183969,51.8739431772863 -3.26613324737893,51.8738437551871 -3.26564968260427,51.8737437898181 -3.26536056470437,51.873641641439 -3.26496197497699,51.8734113186376 -3.26464512033469,51.8732510384878 -3.26449287657425,51.8731564947104 -3.26446471435023,51.8731388199724 -3.26436036368807,51.8730437601665 -3.2639867739982,51.8727735255105 -3.26374991292409,51.8726681140901 -3.2634297679964,51.8725439119468 -3.26254884083514,51.8723114815463 -3.26222605129946,51.8722466302457 -3.26189641279457,51.8721980326004 -3.26152220859774,51.8721660922509 -3.26116665192345,51.872128556755 -3.26080748207744,51.8721116430897 -3.26043463638451,51.8721282242566 -3.25987403523023,51.8721846591202 -3.2596604010528,51.8722327915025 -3.25919987825923,51.87233480335 -3.25881669035131,51.8724485700629 -3.25847320796861,51.8725817763696 -3.25817482829524,51.8728205678373 -3.25792325837778,51.8730201154192 -3.25765745118526,51.8732288933832 -3.25733021759152,51.8734211591781 -3.2569181750262,51.8736989158753 -3.25663165299784,51.8738953293043 -3.25636960914258,51.8739817253552 -3.255974421277,51.8740308912492 -3.25569238374427,51.8740231159522 -3.25454531505826,51.8739877167906 -3.25429507310696,51.8739733076339 -3.25409012743528,51.8739683019337 -3.2537952896562,51.8739696482486 -3.25324195898807,51.8739225118246 -3.25292732920463,51.8738926048681 -3.25250638629674,51.8738512458414 -3.25204536809888,51.8737814574902 -3.25182516113269,51.8737487449006 -3.25138140583374,51.8736707696003 -3.25076110845563,51.8735668040946 -3.25049087425041,51.8735094517212 -3.25006559521763,51.8734194990622 -3.24923922677356,51.8732134448964 -3.24898476642047,51.8731027972835 -3.24852154581172,51.8727930140988 -3.24791412282923,51.8725737493436 -3.2476580628793,51.8725045547453 -3.24750611586835,51.8724756044315 -3.24735005800484,51.8724538879862 -3.24721319251817,51.8724418557358 -3.24697611101546,51.872430886714 -3.24672033089082,51.8724237101953 -3.24656635745625,51.8724253421183 -3.24637625391981,51.8724327497746 -3.24611668935557,51.8724489835484 -3.24579979783495,51.8724406541493 -3.24550412630984,51.8724114260313 -3.24530639186319,51.8724027326281 -3.24512042438986,51.8724038022401 -3.24493628669556,51.8724147410006 -3.24460582565053,51.8724398114213 -3.24437637801646,51.8724970708074 -3.24373869419737,51.8727600891686 -3.24330296754931,51.8729202030843 -3.24302188411599,51.8729987705116 -3.24291240334099,51.8730286920345 -3.24271199637723,51.8731359799989 -3.24262055057952,51.8732466104771 -3.24254972920888,51.8734146411905 -3.24251643045616,51.8736838511184 -3.24248189107052,51.8739081285188 -3.24247572282252,51.873945048773 -3.24240586772171,51.8741003957146 -3.24225810404051,51.8742189011459 -3.24191051807092,51.8743618997429 -3.24137891014202,51.8744726810844 -3.24052192132384,51.8746328259771 -3.24021184490065,51.8747116025689 -3.23980159596255,51.8748498625811 -3.23964183965743,51.8749028723662 -3.23938986404304,51.8749342923313 -3.23903332484094,51.8750135554001 -3.23889011089607,51.8750366371629 -3.23845098619418,51.8750745210329 -3.23821049596024,51.8750968278799 -3.23792865286198,51.8750961997671 -3.23768425596916,51.8750852881412 -3.23727953457608,51.8750544893983 -3.23611910311404,51.8750082631324 -3.23583639794591,51.8749761770402 -3.23534708504413,51.8749309794229 -3.23448407829494,51.8748725325229 -3.23394675161347,51.8748278296991 -3.23359272691691,51.8747892937559 -3.23315717931351,51.8747435204647 -3.23277649032871,51.8746890804259 -3.23186515324418,51.8746149367948 -3.23141781378068,51.8746196182933 -3.23104481145771,51.8746316101531 -3.23020164275725,51.8748211937524 -3.22976297760241,51.8748761160476 -3.22886650842665,51.8748684007428 -3.22834401551605,51.8748316079769 -3.2272124262131,51.8746212971771 -3.226419445448,51.8744111339443 -3.22590739265734,51.8742779500982 -3.22549094552788,51.8741897022778 -3.22508329196235,51.8741561931353 -3.22473795356755,51.8741723718632 -3.22449398055531,51.8742252482769 -3.22429968249819,51.8742946857966 -3.22399243565123,51.8744786484713 -3.22378552374024,51.8745643964309 -3.22361732424553,51.8746290674923 -3.22330207746281,51.8746817832733 -3.22306296992179,51.8747022458873 -3.22280399134096,51.8746878586111 -3.2225476890365,51.8746617567773 -3.22240329861629,51.8746416834122 -3.22192466439388,51.8745612593504 -3.22082590930587,51.8743280749588 -3.22053323598029,51.8742502109175 -3.21990739746911,51.8741515294259 -3.21907714899156,51.8740674575757 -3.21877824253926,51.8740247096075 -3.21826093462552,51.8739132101227 -3.21814264971228,51.8738883673888 -3.21779356824163,51.873766045869 -3.21734843994673,51.8735818846598 -3.2170393930481,51.8734339779597 -3.21677030332232,51.873310916109 -3.2164057776253,51.8730997609442 -3.21607548837372,51.8729189018283 -3.21582625389278,51.8727236318467 -3.21561683573114,51.8724991855326 -3.21537591206101,51.8722921434651 -3.21511233760087,51.8721600321206 -3.21470561168606,51.8719466099669 -3.21403244580422,51.8715966082906 -3.21361472321707,51.8714058580499 -3.21336373859328,51.8713094780492 -3.21326559996553,51.8712763322249 -3.21293504921737,51.8711916485128 -3.21284277818408,51.8711629366864 -3.21271808052223,51.8711174796844 -3.21250415164605,51.8710494805391 -3.21236660618853,51.8709583126394 -3.21220705457927,51.870859280748 -3.211903317469,51.8706357993057 -3.21161161886029,51.8703744398476 -3.21123301798387,51.8701769861727 -3.21099911683421,51.87006963917 -3.21036211591813,51.8698244137497 -3.20999278325119,51.8696996708185 -3.20907675954598,51.8694456216386 -3.20808767464428,51.8692310568191 -3.20769211513384,51.8691595211476 -3.20709458992928,51.8691395834729 -3.2066722993908,51.8691520037511 -3.20639732025936,51.8691916770441 -3.20616027072915,51.8692345575354 -3.20600013439946,51.8692740418713 -3.2059094089563,51.8693028369535 -3.20582740202338,51.8693351383135 -3.20558295603867,51.8694239354117 -3.20542272412776,51.869518162557 -3.2051972796563,51.8697219122665 -3.20483580949803,51.8700564932499 -3.204606452752,51.8702261242496 -3.20429197016286,51.8704684468818 -3.20414744258324,51.8705500161431 -3.20391280824359,51.8706836548643 -3.20377754130517,51.8707308814209 -3.20346359470104,51.8708320711227 -3.20309754314537,51.870941972172 -3.2027429074516,51.8710399802145 -3.20232594159939,51.871149411017 -3.202015725143,51.8712245806495 -3.20167880460001,51.8712819538322 -3.20138469993805,51.8713101253563 -3.20115120207896,51.8713250934165 -3.20099399671998,51.8713132154558</coordinates></LinearRing></outerBoundaryIs></Polygon>
  </Placemark>
