  <Placemark>
	<Style><LineStyle><color>ff0000ff</color></LineStyle><PolyStyle><fill>0</fill></PolyStyle></Style>
	<ExtendedData><SchemaData schemaUrl="#Wards__December_2019__Boundaries_EW_BFE">
		<SimpleData name="objectid">4835</SimpleData>
		<SimpleData name="wd19cd">E05010514</SimpleData>
		<SimpleData name="wd19nm">Attenborough &amp; Chilwell East</SimpleData>
		<SimpleData name="wd19nmw"></SimpleData>
		<SimpleData name="bng_e">451951</SimpleData>
		<SimpleData name="bng_n">334892</SimpleData>
		<SimpleData name="long">-1.22896</SimpleData>
		<SimpleData name="lat">52.90897</SimpleData>
		<SimpleData name="st_areashape">5283413.86152143</SimpleData>
		<SimpleData name="st_lengthshape">13127.1568090278</SimpleData>
	</SchemaData></ExtendedData>
      <Polygon><outerBoundaryIs><LinearRing><coordinates>-1.23970599304057,52.8922892374961 -1.23925915133771,52.8923394038576 -1.23904817297284,52.892336256679 -1.23894113531453,52.8923391668993 -1.23870295892911,52.8923565155941 -1.23761728721818,52.8923909033404 -1.23648844014942,52.8923504118223 -1.235736301491,52.8923527721947 -1.23554830965731,52.8923875125195 -1.23535297658797,52.892428495323 -1.2351843289069,52.8924643482477 -1.23462302512514,52.8926045291848 -1.23403372382729,52.8928102215625 -1.23345653045617,52.8929197392531 -1.23309808750034,52.8930225757746 -1.23302473286582,52.8930472663043 -1.23261891500306,52.8932163902345 -1.23179269214741,52.8935472591467 -1.23138891660015,52.893766718052 -1.2312637375709,52.8938665629667 -1.23114997087181,52.8939170535827 -1.23081459110986,52.8940524754304 -1.23039104805755,52.8943841396558 -1.23029940279958,52.8945210475926 -1.230253910848,52.8946538492373 -1.2302515023266,52.8947068564792 -1.2301919086396,52.8947154576804 -1.22996181953969,52.894780472062 -1.22973891621328,52.8948617091485 -1.22962353742345,52.8949130859205 -1.22955296857653,52.8949531599198 -1.22948982792297,52.8949958889464 -1.22939025187685,52.8950752272328 -1.22915907634322,52.895201344613 -1.22900630591351,52.8952669471144 -1.22897189363868,52.8952793058054 -1.22840145970309,52.8954265879747 -1.22810176632114,52.8954767685714 -1.22774658062563,52.8955599293935 -1.22733548003906,52.8956030930539 -1.22716835885489,52.8956415496554 -1.22707454186423,52.8956517248677 -1.2269956640604,52.8956557053202 -1.22689168662344,52.8956514356455 -1.22654362703078,52.8956644508878 -1.22646636299385,52.8956603536183 -1.22632696456945,52.8956423715587 -1.22592289041498,52.8956280602406 -1.22580573178023,52.895613817182 -1.22570495053619,52.8955951876458 -1.22530677431748,52.895504433449 -1.22484370027238,52.8954654697409 -1.22473584579887,52.8954243249046 -1.22467518070852,52.8954104497718 -1.22456248099651,52.8953935385889 -1.22446163183436,52.8953856913701 -1.22433530241774,52.8953839687926 -1.22426537086007,52.8953880066612 -1.22415492472344,52.8954097539018 -1.22403941214695,52.8953856340651 -1.22385117410399,52.8953574456493 -1.22325867191704,52.8953257191199 -1.22254687437473,52.8953102847465 -1.22238478824514,52.8953137192173 -1.22226283307976,52.895321009844 -1.22207509094424,52.8953404527892 -1.22192505286253,52.8953349777016 -1.22165555044501,52.8953619730685 -1.22135471791763,52.8953932557229 -1.22105738930554,52.8954820772686 -1.22076022163206,52.895472942188 -1.22049251357766,52.8955638432422 -1.2204355198677,52.8955913291782 -1.22031232277788,52.8956678100485 -1.22011482227959,52.8958211800468 -1.2199284797123,52.8959331938084 -1.21990127053501,52.8959536858759 -1.21979099510615,52.8960545145368 -1.21966650369645,52.8962029715801 -1.21948523459687,52.8963599529097 -1.21926587483527,52.8967405480418 -1.2192249049978,52.8968652873285 -1.21921970277265,52.8969092892143 -1.21922291413138,52.8970648747113 -1.21924328753179,52.8971656621992 -1.21924777547716,52.8972501688 -1.21923873508816,52.8974191536534 -1.21924984841408,52.8974623636629 -1.21927126524989,52.8975119321509 -1.21935686682908,52.897632020247 -1.21950365210703,52.8978191031061 -1.21973079376957,52.8980840001642 -1.22006651666301,52.8985958511331 -1.2200837883467,52.8986238237544 -1.22009319088953,52.8987623741885 -1.22011672318529,52.8988649792018 -1.22020517859843,52.8989833782456 -1.22026285503763,52.8990889029798 -1.22045049277503,52.8995683277741 -1.22055747655604,52.8997335799009 -1.2205962329043,52.899807526206 -1.22065446157834,52.8999643700533 -1.22075622381936,52.9003389830673 -1.22079786593891,52.9004228348567 -1.22080933864639,52.9005281465565 -1.22077451110366,52.9007274288551 -1.22076038582192,52.900934125541 -1.22073720847222,52.9010714736146 -1.22070352085388,52.9012070457279 -1.22062841992286,52.9014168479615 -1.22049594434397,52.9016748930697 -1.22043413481675,52.9018884670531 -1.22040461388797,52.9019556760171 -1.22027857609093,52.9021894985834 -1.22016401116412,52.9023577018171 -1.2200019040251,52.9025247850937 -1.21992578660182,52.9025449555933 -1.21975566520495,52.9025779902361 -1.21889392389929,52.9027144191713 -1.21878057918676,52.9027325475137 -1.21871188085706,52.9027491719504 -1.21864156543643,52.9027738726852 -1.21857861267703,52.9028049134921 -1.21849585981943,52.9028600895721 -1.21707386360878,52.9031420064011 -1.21658596294866,52.9032385493493 -1.21644545758335,52.9032807610873 -1.2163586616146,52.903315238589 -1.216211581279,52.9033889518146 -1.21603243823218,52.9033509243905 -1.21484346611516,52.9037332065774 -1.2146641961243,52.9038650302598 -1.21435284159397,52.9040679658624 -1.2141708947854,52.9041782026052 -1.21406982877603,52.9042558111157 -1.21397920947968,52.9043387905701 -1.21391985222849,52.9044147876099 -1.21401698211992,52.9044666551295 -1.21442314923254,52.9046204081846 -1.21404647406955,52.905059268177 -1.21396955098928,52.9051981476321 -1.21386790845767,52.9054769696042 -1.21382466409783,52.9056448289122 -1.21379352918092,52.9058072864251 -1.21376902406953,52.9060912017571 -1.21377369188421,52.9064904321189 -1.21380071534601,52.9066433881764 -1.21379481299091,52.9068070012478 -1.21370598547531,52.9074410711887 -1.21366685720341,52.9077132061305 -1.2134483213695,52.9098439999741 -1.21344684945177,52.9098439902434 -1.21344221383973,52.9099375142191 -1.21335605717506,52.9101795909738 -1.21321317142687,52.9104330660749 -1.21316953758102,52.9105407108378 -1.21313266040478,52.9106069703666 -1.21304158652678,52.9107142105293 -1.21275833703314,52.9109191266164 -1.21248923496586,52.9111618798732 -1.21207889467286,52.9114854783206 -1.21177934098013,52.9116830034951 -1.21166967334036,52.9117469833092 -1.21125674246056,52.9119627183374 -1.2109863800737,52.912111996016 -1.21089944638808,52.912152759478 -1.21075120071533,52.9122074948768 -1.21050473395765,52.912269667123 -1.21069713881389,52.9126457877285 -1.21072539243605,52.9127305420487 -1.21079766063253,52.9128424597255 -1.21083283104429,52.9128705523577 -1.21090256518635,52.912959985712 -1.21093972006611,52.9130474949606 -1.21097878164887,52.9131043716498 -1.21102121638295,52.9131441951468 -1.21107254416451,52.9131804835962 -1.21118016844053,52.9132360169241 -1.21135050614381,52.9133558640946 -1.21137219884356,52.9133901580749 -1.21137170953744,52.9134171152265 -1.2113577028331,52.9134457806791 -1.21132908101106,52.9134689573535 -1.21127664342493,52.9134937731469 -1.21120255664308,52.9135561904832 -1.21112878938341,52.9136887971703 -1.21106367584608,52.9137566658127 -1.21098546885099,52.9138028799949 -1.21092057422462,52.9138518774651 -1.21065036489871,52.9140730506485 -1.21082560176062,52.9141730687672 -1.21105047496706,52.9143148465501 -1.21115628879573,52.9143892404227 -1.21136870234978,52.9145622993282 -1.21137897607528,52.9145704552719 -1.21145983312047,52.9145404358904 -1.21156948907871,52.9146463989854 -1.2116805121592,52.9147513830892 -1.21171126990738,52.9147794462121 -1.2117599183587,52.9148013370061 -1.21180541371997,52.914834890536 -1.21186661982261,52.9149080893008 -1.21192623046171,52.9149813682591 -1.21196566843143,52.9150175775534 -1.21200683088205,52.9150466084592 -1.2120483356506,52.9150567681782 -1.2120494491958,52.9150765470423 -1.21206385941345,52.9151000088606 -1.21215050169187,52.9151634910742 -1.21220874031993,52.9152313680049 -1.21228626857826,52.9153037765666 -1.21230341140719,52.9153389391896 -1.21237047041952,52.9154139743326 -1.21247252405949,52.9155269870447 -1.21256828395552,52.9156625144453 -1.21261785072933,52.9157149662407 -1.21269373224651,52.9157972493739 -1.21281921223941,52.9159302772711 -1.21297446236061,52.9160580201638 -1.21310483902618,52.9161712187606 -1.21321058612068,52.9162430042724 -1.21324474285629,52.9162459260832 -1.21327413641352,52.9162613980799 -1.21327684461049,52.9162811874716 -1.2133031326976,52.9163056257206 -1.21320556022142,52.9163580041496 -1.21345010676141,52.9165655108973 -1.21365879340983,52.9167016939568 -1.21374683052976,52.9167696780439 -1.21385494565231,52.9168801226348 -1.21373000085058,52.9169610780076 -1.21384128980439,52.9170588727975 -1.21403203277442,52.9171977250235 -1.21477930359505,52.9178220486156 -1.21562513634509,52.9185036344485 -1.2157433365372,52.9186266385537 -1.21582561167095,52.918688292383 -1.21597724444234,52.9187729608601 -1.2167360044509,52.9193343471914 -1.21679982861045,52.9193447430703 -1.21683437940074,52.9193260077148 -1.21685541682225,52.9193153621928 -1.21688392568709,52.9192984739868 -1.21690042741944,52.9192877977097 -1.21693355278692,52.9192664468502 -1.21700431567261,52.9192183828088 -1.21701344445776,52.919208556968 -1.21703459499733,52.9191916203119 -1.21705261738218,52.9191782589265 -1.21706624948175,52.91917025974 -1.21710527681238,52.9191480487025 -1.21715333581275,52.9191214040476 -1.21716387061132,52.9191151824024 -1.21723303293407,52.9190742967179 -1.21726306074033,52.9190547224252 -1.21727666190866,52.9190485209402 -1.21729460185344,52.9190396519993 -1.21729608875005,52.9190387637145 -1.21733815005468,52.9190182796927 -1.21739962181843,52.9189890271674 -1.21743265123332,52.9189730675308 -1.21745060728394,52.9189632997096 -1.21747015749493,52.9189535423692 -1.21748676621954,52.9189437656828 -1.21750323534129,52.91893488704 -1.21752430474844,52.9189224436886 -1.21754686253425,52.9189091111566 -1.21757237941712,52.9188949000125 -1.21760993551477,52.9188726791445 -1.21760860872143,52.9188645824443 -1.21762494852601,52.9188628919483 -1.2176264530611,52.9188611048117 -1.21774972769847,52.918790916894 -1.21782482185479,52.9187473738861 -1.21788801793347,52.9187108526474 -1.21795404796838,52.9186735409347 -1.21795131500062,52.9186618400421 -1.21782932554512,52.9185855468785 -1.2179809616453,52.9185065582221 -1.21812043624909,52.9184355783463 -1.2185543448364,52.918213662683 -1.21861288942234,52.9181834913834 -1.21865335356989,52.9181630863338 -1.21864535717123,52.918191792564 -1.21866616918524,52.9181937271527 -1.21868106311444,52.9181974190071 -1.21868693280717,52.9181983565123 -1.21869728966342,52.918202019472 -1.21870167102905,52.9182038452684 -1.21870759811256,52.9182083781041 -1.21871484170603,52.9182147166115 -1.2188026335125,52.9182970753111 -1.21882021224559,52.918315164591 -1.21882017996669,52.9183169623057 -1.2190689199525,52.9185460570062 -1.21912440275625,52.9185976476378 -1.21923706576162,52.9187017380162 -1.21934093959491,52.918796873578 -1.21942296212657,52.9188729029761 -1.21945516702662,52.9189027710178 -1.21954575033372,52.918986945345 -1.21956481650721,52.9190041452947 -1.21964090939151,52.9190757325157 -1.21965839757184,52.9190920240365 -1.21971691443337,52.9191454312846 -1.21990273405786,52.9193209980294 -1.21998898426068,52.9194007395574 -1.22002710118672,52.9194360390564 -1.22010018055615,52.9195048194146 -1.22027863717291,52.9196740472089 -1.21986014331511,52.9197882253039 -1.21954965833035,52.9198490988755 -1.21968524564035,52.9200837417108 -1.21989558248961,52.9202190274928 -1.22009807506157,52.9203678322076 -1.22027918825227,52.9205532541523 -1.22079803327532,52.9209027429832 -1.22097029523396,52.9210828028347 -1.22103520102074,52.9211973635006 -1.22109403296595,52.9213155692171 -1.22119327927067,52.9214231637235 -1.22132645294075,52.9215399688351 -1.22148227352431,52.9216453271136 -1.22166716087546,52.9217849369237 -1.22180815509909,52.9218829188876 -1.22278354921821,52.9214048016748 -1.22331502565327,52.9211241905 -1.22383932930701,52.9208327463418 -1.22389823828917,52.9208645851644 -1.22397854843709,52.9209477899006 -1.22409992737479,52.9209837198795 -1.22419254922133,52.9210436389309 -1.22423070555022,52.9211526304602 -1.22432183122017,52.9213033976202 -1.22442807388838,52.9214317055835 -1.22450901089287,52.9214798644205 -1.2245071043104,52.9215867977612 -1.22458522658356,52.9216278382064 -1.2245587811281,52.9216941701218 -1.22461308256544,52.9218194434757 -1.22470280191555,52.9218703553586 -1.22485546683788,52.921905590235 -1.22497317560593,52.9219755569654 -1.22501056829652,52.9220450006305 -1.2250373106585,52.9220514656825 -1.22522872191974,52.9220733825309 -1.22530396816059,52.922110718912 -1.22545633498379,52.9222385178906 -1.22549308842055,52.9222612247735 -1.22562743936442,52.9223196153226 -1.22574860555508,52.9223608450971 -1.2258459619354,52.9224100087255 -1.22593423902998,52.9224663022073 -1.22625901072975,52.9226024101633 -1.22655602968858,52.9227130841758 -1.22680176578316,52.9226940100562 -1.22690843422879,52.922798952585 -1.22714663765377,52.9227897155781 -1.22759567714821,52.9227998193571 -1.22767376235433,52.9228362745358 -1.22790080484091,52.9227856231553 -1.22807989104915,52.9228389090571 -1.22858296962445,52.9228170068962 -1.22878622681209,52.9227590098156 -1.22912086527985,52.9227611775627 -1.22940344235117,52.922932951879 -1.22952569859172,52.923002943345 -1.23029343864147,52.9234932984701 -1.2303079239716,52.9235132537201 -1.22974085040661,52.9238727504169 -1.23000971174667,52.9240578252172 -1.23027878422649,52.9243211775113 -1.23015418456369,52.924383279973 -1.23011686863646,52.9243920264259 -1.22999212522347,52.9244623065174 -1.2291349772928,52.924905300687 -1.22869994401743,52.9251137678012 -1.22842406778764,52.9252342033981 -1.22825309809587,52.9253103831496 -1.22821819954994,52.9253488013687 -1.22753628829651,52.9257211220531 -1.2278037501777,52.9259017024274 -1.22792533719081,52.9258440745416 -1.22869958952949,52.9263894031252 -1.22900751180493,52.9266403419025 -1.22916982922722,52.9267960625223 -1.22960397518135,52.927225853191 -1.22958903976285,52.9272311486208 -1.22969136913351,52.9273325569743 -1.22975539342748,52.9274084634531 -1.22984309295216,52.9274980040319 -1.22998130388755,52.9275887692162 -1.23002525614837,52.9276277884328 -1.23009233113442,52.9277046133781 -1.23068285305065,52.9275411780523 -1.2311693563756,52.9274472585679 -1.23290719937779,52.9270099168921 -1.23332976768265,52.926917284312 -1.23345074661698,52.9268937981133 -1.23455440683071,52.9267301417789 -1.23541691038528,52.9265747235153 -1.2357966451007,52.926552896357 -1.23588892935557,52.9265498936452 -1.23590815013402,52.9265518149315 -1.23592885613781,52.9265600358351 -1.23594801056046,52.9265727407268 -1.23598002725184,52.9266142870798 -1.23612462080645,52.9268516661915 -1.23627067730915,52.9270827625423 -1.23639950260352,52.9272893941736 -1.2365701732524,52.9275646856104 -1.23661361043495,52.9276333558021 -1.2367221447822,52.9278084010378 -1.23684659450686,52.9280061068261 -1.23695643257989,52.9281838561094 -1.2370722763462,52.9283689244567 -1.23718511884723,52.9285502876494 -1.23723142282818,52.9286234698132 -1.23725585011405,52.9286712580559 -1.23762922496689,52.9285028032529 -1.23780016120742,52.9284284055568 -1.23849276787243,52.9281217923695 -1.23876707656864,52.9279995245175 -1.23966513032427,52.9276006618869 -1.23952873169586,52.9274892505272 -1.24010898292429,52.9272304413141 -1.24024835727575,52.9273400748332 -1.24119593394314,52.9269200388632 -1.24110493681025,52.9268493604101 -1.24082116416773,52.9266578340081 -1.24078439798184,52.9266351317612 -1.24057335562691,52.9265349285535 -1.2398361232778,52.9261634605299 -1.2397564597127,52.9261252061016 -1.23924165401619,52.9258764810701 -1.23826984399829,52.9253991634162 -1.23818882138651,52.9253546081315 -1.23808415422721,52.9252946242232 -1.23803864441931,52.9252601816302 -1.23798314705518,52.9252077022736 -1.23788985021052,52.9250937791251 -1.23781756284075,52.924383164883 -1.23767784114279,52.9237835576704 -1.23762327441643,52.9235872916001 -1.23750576478128,52.9232458427859 -1.2371910027866,52.922620847804 -1.23680793027502,52.9218218756839 -1.23677945920048,52.9217462023694 -1.2367630348318,52.9216688083848 -1.23674387440457,52.9214888565027 -1.23672050745974,52.9213808624592 -1.23671842870169,52.9211569829313 -1.236708160528,52.9210643515428 -1.23669705642983,52.9210192551993 -1.23665706600205,52.9209291291474 -1.23656881090982,52.9204449730294 -1.2365217267124,52.920081416133 -1.23650133561068,52.9199716440775 -1.23644094572616,52.9197653650014 -1.23633125237862,52.9194896586141 -1.23628616089238,52.9189221104436 -1.23625196152834,52.9187537446778 -1.23622884676897,52.9185477936322 -1.23612154162117,52.9180526407848 -1.23607674437656,52.9178105130894 -1.23607403996859,52.9177062463739 -1.2360718180351,52.9174976435007 -1.23610367785039,52.9161943818477 -1.23608334004965,52.9161654930265 -1.23603662389209,52.9161166642748 -1.2359733500005,52.9160749180777 -1.23589511690752,52.9160402655728 -1.23581827104321,52.916017304657 -1.23575299098373,52.9160060108142 -1.23562232986431,52.915996184741 -1.23532938437496,52.9159898095724 -1.23513420203397,52.9158420678581 -1.23506843112674,52.9157751426561 -1.23490374187419,52.9155879646353 -1.23479930548922,52.9154399077568 -1.23477658013222,52.9153795491396 -1.2346901605207,52.9152180374962 -1.23465152970987,52.9151279202367 -1.23464211890651,52.9150775329693 -1.23464911254287,52.9150145796414 -1.23467565092074,52.9149419561852 -1.23471537374723,52.9148864930498 -1.23478336325797,52.9148204270063 -1.23486798155895,52.9147499749104 -1.23502582666353,52.9146502464467 -1.23527028026164,52.9145340888097 -1.23608499688169,52.9142094126237 -1.2374687811344,52.9136591230371 -1.23765900093801,52.9135794599396 -1.23772336337896,52.9135520129812 -1.23775076300045,52.9135207343054 -1.23777247377804,52.913471355709 -1.23777332506421,52.913422831427 -1.23776070726857,52.9133733228104 -1.23770481166043,52.9131697708854 -1.23752530672996,52.9127227799655 -1.23735916739702,52.9121922056417 -1.2370557171883,52.911347108264 -1.23692909254108,52.9110244743221 -1.23674619022601,52.9105135629085 -1.23654861690017,52.9100844288044 -1.23650103923911,52.9099941638651 -1.23627374313667,52.9095612436089 -1.23615636550807,52.9093060703762 -1.23612744527929,52.909256455976 -1.23606732593562,52.9092102370444 -1.23600543913142,52.9091738915784 -1.23593181622954,52.90913567461 -1.2358610883846,52.9091001712392 -1.23578878422982,52.9090636688563 -1.23578587351784,52.9090618531605 -1.23583942657784,52.9089795171661 -1.23591008818227,52.9087677901763 -1.235955466824,52.9084669292384 -1.23598854297654,52.9081894465063 -1.23611976936297,52.9075798975202 -1.23616698040095,52.9074327253807 -1.23623455468905,52.9072219664497 -1.23624538715047,52.9071985806152 -1.23644412459525,52.9068070380491 -1.23665298151604,52.906425445798 -1.23680406427166,52.9062061455884 -1.23696109433682,52.9060669572061 -1.23697318977584,52.9060553511388 -1.23705171801269,52.9059884533431 -1.23721387247824,52.9058995343517 -1.23747303839085,52.9057870615021 -1.23798713528483,52.9056356902318 -1.23869273495284,52.9054200277871 -1.23910023286015,52.9053281820436 -1.23922257520403,52.9053002070354 -1.23961185490726,52.905233496318 -1.24022271985318,52.9051628067824 -1.24048929846762,52.9051375484762 -1.24080802211303,52.9051027365824 -1.24111802896472,52.9050615764897 -1.24133906847306,52.9050044816758 -1.24149892172479,52.9049623639216 -1.24239903176107,52.9046696433731 -1.24349858980042,52.9042775308158 -1.24396741779286,52.904168174634 -1.24448389952317,52.9040464467348 -1.24500707246807,52.9039697847168 -1.24572308558976,52.9039204045414 -1.24722740077611,52.9038517458744 -1.24706068802155,52.9036888369638 -1.24684457023994,52.9034627057137 -1.24676178164373,52.9034370182228 -1.24658108492249,52.903487099814 -1.24655489593914,52.903449188891 -1.24655077210952,52.9033476102845 -1.24658679149947,52.9032426918901 -1.24661598896431,52.9030998944115 -1.24621503961712,52.9029859174845 -1.24612358521714,52.90294399805 -1.24607663649642,52.9029086514226 -1.24603036110293,52.902834575117 -1.24600691340492,52.902645702007 -1.24596625413539,52.9025870288027 -1.24592365720291,52.902555214696 -1.24583068703244,52.9025159813736 -1.24541959519016,52.90247832657 -1.24533666893166,52.9024607250529 -1.24529239802668,52.9024406727411 -1.24523806683642,52.9023998870496 -1.24511674715405,52.902193227381 -1.24528364015728,52.9020837468675 -1.24538972513688,52.9019675896056 -1.24544768013605,52.9018842892563 -1.24549232079317,52.9017982974892 -1.24557143078058,52.901520114935 -1.24565869767195,52.901464050632 -1.24569462855069,52.901449000794 -1.24590219077581,52.9013972938268 -1.24593973196256,52.9013741653736 -1.24595190160376,52.9013580659076 -1.24604144076053,52.9010790501729 -1.2461714097676,52.900956663707 -1.24630290769037,52.9008379706781 -1.2465047819192,52.900682787192 -1.24685520446717,52.9004504466606 -1.2470750229154,52.9003771568335 -1.24711242400682,52.9003621158694 -1.24718001112078,52.9003238995037 -1.24723411582939,52.9002855986947 -1.24726894850606,52.9002489720332 -1.24740634808657,52.9000439512223 -1.24751240831042,52.8999286908302 -1.24753239559283,52.8998856793453 -1.2475242407914,52.8998469846191 -1.24748763610356,52.8998090080012 -1.2472638004746,52.899689772989 -1.24698161537806,52.8993302178917 -1.24704392726383,52.8992497301556 -1.24717856310564,52.8991192833445 -1.24733502068766,52.8990097338794 -1.24754520582346,52.8988906382687 -1.24742362041207,52.8986992568112 -1.24736779070916,52.898660259588 -1.24730428258774,52.8986400872131 -1.24698840723685,52.8985913564817 -1.24690881586882,52.8985584994979 -1.24683531285354,52.8985068084487 -1.24681056593968,52.8984778035844 -1.24677453786823,52.8984137689299 -1.24664435793514,52.8982871276553 -1.24641955683973,52.8978776076572 -1.24636311732814,52.8977890883295 -1.24634471725978,52.897740441956 -1.24633253016768,52.8976657734767 -1.24630280292611,52.8975847030271 -1.24621960522299,52.8975832769897 -1.2462349644842,52.8975528189883 -1.24623071153991,52.8975365255421 -1.2462131756297,52.8975229337849 -1.24618059480563,52.8975146395023 -1.24614787228634,52.8975144321666 -1.24610759560465,52.897525859709 -1.24603922757658,52.8975245275147 -1.2457485270577,52.8974876357585 -1.24553559795914,52.8974188841863 -1.24542763807308,52.8973894412001 -1.24525289128097,52.8973523855439 -1.24475716348926,52.8972225236745 -1.24458612459329,52.897141363807 -1.24451986742418,52.8971031979713 -1.24439669022498,52.8970044589265 -1.24436388806895,52.8969242665008 -1.24469460115213,52.8967105906009 -1.24471313381043,52.8966738611851 -1.24471238038363,52.8966325172773 -1.24469350171686,52.8966045380596 -1.24466722487531,52.8965791179261 -1.2446422135477,52.8965654784738 -1.24455634485376,52.8965415668475 -1.24406577391774,52.8964611635887 -1.24384348434233,52.8964166139536 -1.24372936533536,52.8964033068794 -1.24368026953774,52.8964002988298 -1.24303807749515,52.8964052014082 -1.24297848955946,52.8961530981976 -1.24269197589736,52.8962213722056 -1.24262946013617,52.8962218731988 -1.24259245391855,52.8962144478078 -1.24256142303497,52.8962016685435 -1.24253068624126,52.8961790062857 -1.24251032355968,52.8961519153202 -1.24238032288606,52.8959317166821 -1.2420501790514,52.8957678495167 -1.24198224914059,52.8957485441605 -1.24192189488279,52.8957095155217 -1.2419262335384,52.8955449920892 -1.24193479067562,52.8954830370124 -1.24178037765449,52.8952995283165 -1.24175391368792,52.8952849809419 -1.24159871294219,52.8952381577997 -1.24144829638923,52.8952542744126 -1.24136625972662,52.8952708259891 -1.2410494073028,52.8953641567943 -1.24103022991603,52.8953604395515 -1.24096099016149,52.8953249486385 -1.24092153512696,52.8952823689241 -1.24093888810725,52.8951377899607 -1.24093327205631,52.8951224764648 -1.24091283241821,52.8950998785819 -1.24088635318847,52.8950862289673 -1.24085668373125,52.8950797487966 -1.24082249315027,52.8950795306241 -1.24077477417979,52.8950891118686 -1.24040468680429,52.8950867495366 -1.24035435457424,52.8950774413596 -1.24033073839176,52.8950683037556 -1.24029254698352,52.8950375045546 -1.24028136770813,52.8949969911794 -1.24029081615794,52.8949682041912 -1.240469302135,52.8947905038906 -1.24046853858546,52.8947500570269 -1.24045710655026,52.8947239225653 -1.24043522732286,52.8946995184053 -1.24039705121983,52.8946749193959 -1.2403513049121,52.8946557547368 -1.24032471621492,52.8946483960518 -1.24006364843174,52.8946143755059 -1.24001190972845,52.8946014632948 -1.23987901859735,52.8945475915003 -1.23962277914605,52.8942376121918 -1.23966891701773,52.893134041373 -1.23970599304057,52.8922892374961</coordinates></LinearRing></outerBoundaryIs></Polygon>
  </Placemark>
