  <Placemark>
	<Style><LineStyle><color>ff0000ff</color></LineStyle><PolyStyle><fill>0</fill></PolyStyle></Style>
	<ExtendedData><SchemaData schemaUrl="#Wards__December_2019__Boundaries_EW_BFE">
		<SimpleData name="objectid">3593</SimpleData>
		<SimpleData name="wd19cd">E05009106</SimpleData>
		<SimpleData name="wd19nm">Bywell</SimpleData>
		<SimpleData name="wd19nmw"></SimpleData>
		<SimpleData name="bng_e">407533</SimpleData>
		<SimpleData name="bng_n">565140</SimpleData>
		<SimpleData name="long">-1.88384</SimpleData>
		<SimpleData name="lat">54.980808</SimpleData>
		<SimpleData name="st_areashape">47328863.7876063</SimpleData>
		<SimpleData name="st_lengthshape">40490.0513661894</SimpleData>
	</SchemaData></ExtendedData>
      <Polygon><outerBoundaryIs><LinearRing><coordinates>-1.95952846244879,55.0019112912845 -1.95983680693509,55.0016202358903 -1.96005742793722,55.0014019181739 -1.96027803208318,55.001199859484 -1.95977571859854,55.0000629232429 -1.95937958629528,54.999228945942 -1.958825696983,54.9981647572608 -1.95859775963238,54.9978618470015 -1.95846050812543,54.9976056817391 -1.9581206370041,54.9967519547434 -1.95717760411817,54.9942445142339 -1.95670844017661,54.9931201543236 -1.95648717640366,54.9925251889486 -1.95638894937555,54.9921980644632 -1.95641108965796,54.9919823783646 -1.95700782616687,54.9907973933739 -1.95835612457766,54.9882566029286 -1.95841089833223,54.9881199818546 -1.95829086415368,54.9878207015744 -1.95820997886114,54.9875429937884 -1.9581553601024,54.9874082228309 -1.95809455659337,54.9872733598843 -1.95784033868379,54.986786277523 -1.95825341816014,54.9862885524799 -1.95862587160423,54.9858205473736 -1.9605597428672,54.9833769483029 -1.96078034257278,54.9830768813226 -1.96091959096422,54.9828351803773 -1.96152946696668,54.9823160382256 -1.96180630611782,54.9820644971136 -1.96250043851483,54.9816567706691 -1.96287409997066,54.9814546653395 -1.96324605040958,54.9812893912358 -1.96363368938181,54.9811502619084 -1.96394644239705,54.9809077098276 -1.96424343056561,54.9807164482959 -1.96443731445236,54.9805690855607 -1.96457026854842,54.9804173036916 -1.96462344605169,54.9803013423789 -1.96466747818197,54.9800407444806 -1.96478633272323,54.9799500445509 -1.9652130394139,54.9797515415494 -1.9653224970687,54.9796518560003 -1.96536465959182,54.9796078487973 -1.96539906316857,54.979597976485 -1.9655724956101,54.9795549036048 -1.96566628640327,54.9795450486469 -1.96576161852409,54.9795396843695 -1.96608816551679,54.9795604369089 -1.96617876953595,54.9795092556689 -1.96643367652446,54.9792406298919 -1.96654622179413,54.9791409431799 -1.96670578150598,54.9790456721949 -1.96708078093538,54.978884968265 -1.96722457282097,54.9788499707784 -1.96728551242695,54.9788401049636 -1.96733871993898,54.9788338305952 -1.96739965067782,54.978834745277 -1.96741678379802,54.9788347497923 -1.96750907567996,54.9787655114498 -1.96759969366107,54.9786927689401 -1.96771073073401,54.9785400792716 -1.96777964040065,54.9783917798962 -1.96780937798394,54.9782570356219 -1.96771735873281,54.9781518156142 -1.96767824262903,54.9780970058042 -1.96764556665849,54.9780421976661 -1.96760971018124,54.9779388784232 -1.96777692908672,54.9779209554095 -1.96847838684196,54.9778581622102 -1.969936142981,54.9777686918986 -1.9725719761544,54.9775914324171 -1.97303443732875,54.9775735675324 -1.97332660766057,54.9775492859502 -1.97403904054768,54.9774209739917 -1.97539383504572,54.9771417748928 -1.97571257253355,54.9770591895458 -1.97619855613281,54.9768983895742 -1.97721893778855,54.9765858667781 -1.97742449983152,54.9750429917975 -1.97757207830013,54.9737337687443 -1.97761430706604,54.973537037916 -1.97763938857944,54.9733716571548 -1.97773167639391,54.9732557871247 -1.97789106116077,54.973152415971 -1.97817536688866,54.9730770050838 -1.97877232385676,54.9729082194559 -1.97995965276256,54.9725669539919 -1.9804268690678,54.9724447632912 -1.98092523048095,54.9723702779389 -1.98192027535995,54.9722131253366 -1.98445424782786,54.9719115308684 -1.98579147848704,54.9717643609112 -1.98573066030667,54.9714803868483 -1.98558865145074,54.9709790030929 -1.98520143926787,54.9704415662063 -1.98485490445923,54.969983187785 -1.98446462401517,54.9694314642842 -1.98435213592038,54.9692471995196 -1.9842647355173,54.9691277083272 -1.98414609722264,54.9688634892356 -1.98412120529255,54.9686334198873 -1.98410575910489,54.9682901589502 -1.98415428034169,54.9680484196657 -1.98422477327008,54.9676063516914 -1.98428884568122,54.9674382783147 -1.98438429608956,54.9670546064588 -1.98451734618759,54.9663474444585 -1.98469255926364,54.9654856830262 -1.9840244123781,54.9646417848078 -1.98323928935275,54.963685574326 -1.98303324341389,54.9634069691582 -1.98291153730749,54.9631482297416 -1.98234054849667,54.9617426895677 -1.98223908983063,54.9614317578095 -1.98302787152436,54.961194613186 -1.98468500380455,54.9606656103903 -1.9848193197936,54.9606198104393 -1.98546128272887,54.9603817344156 -1.9857752468777,54.9602568102628 -1.98625786359092,54.9601876907097 -1.98606288855948,54.9595415791526 -1.98590069567626,54.9586941513956 -1.98587600121229,54.9578791668318 -1.98588699223039,54.9577470217385 -1.98587762531526,54.9576544903343 -1.98586206557398,54.957596993994 -1.98572323821801,54.9573246891772 -1.9856280123948,54.9571809428196 -1.98537510509233,54.9569391682859 -1.98492553284366,54.9565319842728 -1.98378439073335,54.955673739499 -1.9831318335185,54.9552287915708 -1.98190173682273,54.9545268296438 -1.98016273978579,54.9536306434701 -1.97846753955031,54.9528297542365 -1.9777400958711,54.9525079273863 -1.9746913576316,54.9515062252172 -1.97374382393615,54.9512059805419 -1.97339874730924,54.9511258638263 -1.97316770530792,54.9510791001169 -1.972794685632,54.9510143373365 -1.9725713754653,54.950957693107 -1.97227019041567,54.9508929445509 -1.97193449599646,54.9508406753949 -1.97147238908285,54.9507920588278 -1.97122729938114,54.950774035533 -1.97085412239652,54.9507559817349 -1.96992044773828,54.9507494704587 -1.96786434740432,54.9506168971944 -1.96678709012936,54.9505159083995 -1.96568650253936,54.9504599112182 -1.96435314067904,54.9504415670943 -1.96294480563835,54.950484274998 -1.96264819142795,54.950506643799 -1.96235928959206,54.9505424906257 -1.96160043329212,54.9506735060605 -1.9614551981586,54.9507031068093 -1.961302100867,54.9507416873951 -1.96116624977088,54.950784766238 -1.96104133045565,54.9508377294508 -1.9607632580585,54.9509850606096 -1.96064912758061,54.9510622820268 -1.96059604071215,54.951112572702 -1.96055222060776,54.9511655612318 -1.96039743564922,54.9514782276794 -1.96034567745968,54.9516166467942 -1.960265850578,54.9518916054919 -1.96023289055315,54.952026347203 -1.96021404299808,54.9522105922758 -1.96018729008714,54.9523156909436 -1.96014663553304,54.9524198865153 -1.9601027795715,54.9525071018727 -1.9600325305413,54.9525969137393 -1.95978087360227,54.9528331879918 -1.95952921468969,54.9530684732446 -1.95945114855199,54.9531179464699 -1.95916995070127,54.9532804548386 -1.95881690055298,54.9534556062649 -1.95867007069617,54.9535211365932 -1.95860915156721,54.9535462699737 -1.95818276424541,54.9536736915462 -1.95788905664455,54.95372398915 -1.95774227416115,54.9537419057284 -1.95737688975795,54.9537615440601 -1.95726141145391,54.9537606055273 -1.95714272271008,54.9537524796178 -1.95703498215935,54.9537389666664 -1.9569304655127,54.9537200649055 -1.95674307287199,54.9536713991624 -1.95653704139486,54.9535958654358 -1.95643088451641,54.9535464181496 -1.95633413242695,54.9534924837644 -1.95595193242245,54.9532326345945 -1.95577096347996,54.9530816471654 -1.95567113972062,54.9530114508711 -1.95543081975555,54.9528649328264 -1.95493458587268,54.9525924631972 -1.95463039421674,54.9523541994785 -1.95451964330177,54.9522742052027 -1.95428255509896,54.9521231058724 -1.9540140528175,54.9519774731692 -1.95380497256651,54.9518794747986 -1.95312146864668,54.9515952491556 -1.95258458029335,54.9514377427943 -1.95132173185795,54.9512117649746 -1.95075809193616,54.9511485666196 -1.95039755204996,54.9511187760291 -1.95003533006378,54.9510961707408 -1.94965597928308,54.951079845819 -1.94927494265158,54.9510734009924 -1.94886905457258,54.9510732330999 -1.94781520738751,54.9510152971346 -1.94636039705553,54.9508367080669 -1.94515210166697,54.9506708794219 -1.94431390366468,54.9505114054924 -1.94364590469814,54.9503431094989 -1.94279234010685,54.9500452719106 -1.9422492076194,54.9498850207818 -1.940615309076,54.9494188037327 -1.93984124877733,54.9491793745615 -1.9396196871012,54.949110092444 -1.9388551020537,54.9488266421813 -1.93831832447465,54.9485720501276 -1.9376912199546,54.9482976449294 -1.9368768498657,54.9479306101947 -1.93588607332859,54.947529339739 -1.93468312234508,54.9470901285534 -1.93440535289548,54.9470073313402 -1.93404958753646,54.9469208989502 -1.93390289414508,54.9468929711036 -1.93334415031897,54.9468028327133 -1.93292749580488,54.9467225625941 -1.93202368019417,54.9466232456074 -1.93060640721912,54.9465308196636 -1.92842422205101,54.9463408218645 -1.92813695318615,54.9463262796572 -1.9278014015959,54.9463206926924 -1.92742360044404,54.9463312494529 -1.9269332750968,54.9463570108742 -1.92636501811644,54.9464141660193 -1.92586054759627,54.9465010922043 -1.92476881909934,54.9467537632708 -1.92458917404265,54.9467986608308 -1.92429244982765,54.9468838219186 -1.92401287936498,54.9469501274306 -1.92348151208115,54.9472328680656 -1.92331271572633,54.9473243950369 -1.92325020944828,54.9473656804273 -1.92292516616826,54.9475820700305 -1.92281094248552,54.9476754269298 -1.92273742404222,54.9477527296088 -1.92252449999263,54.9480994498723 -1.9225570517063,54.9481749323596 -1.92260380675766,54.9482270670639 -1.92267860583413,54.9482882019814 -1.92276910570823,54.9483512338354 -1.92347854382579,54.9488027429548 -1.92371078146353,54.9489970231475 -1.92394770889626,54.9492316409368 -1.92409401788936,54.9494653934174 -1.9242013674083,54.9496757648853 -1.92422932517685,54.9497314808839 -1.9242449121827,54.9497943754349 -1.92424635706252,54.9498473791991 -1.92423997724441,54.949886003918 -1.92421967060804,54.9499372877678 -1.92417730786236,54.9500127234607 -1.92410839978128,54.9501016181882 -1.92403178922619,54.9501788283849 -1.92354397595838,54.9505506216348 -1.92347525263369,54.9505415046147 -1.9232955714204,54.9506636584207 -1.92293903139806,54.9509105702697 -1.92258420560197,54.9511349334304 -1.92191993151742,54.9515434405914 -1.92142595321195,54.951823499768 -1.92115868515108,54.9519634701754 -1.92088987458308,54.9521016426851 -1.92050692713183,54.9522784597314 -1.91986483486629,54.9525179898848 -1.91926321677856,54.9527287070652 -1.91859921288625,54.9529745045378 -1.91797418787777,54.9531664245074 -1.91583663420107,54.9539018016009 -1.91503673765053,54.9541618610393 -1.9135724340797,54.9547036209914 -1.91213343603969,54.9551347937261 -1.90884625660443,54.9559690261027 -1.90805222448098,54.9562730634701 -1.90660234108836,54.9566296002961 -1.90617738872226,54.9567200099079 -1.90464962873934,54.9570010025588 -1.90387930509836,54.9571675831166 -1.90261085522423,54.9573803891473 -1.90184223805226,54.9575271951625 -1.90111570722813,54.9576793317776 -1.90075479241436,54.9577410264432 -1.90061580082641,54.9577688525909 -1.90050010582787,54.9577993025305 -1.90027973727242,54.9578808736179 -1.89979508712652,54.9580988684217 -1.89923081221939,54.9583364692168 -1.89864466416795,54.9585660551352 -1.89767513900493,54.9590756952853 -1.89725760404439,54.959320687095 -1.89682436285829,54.959562879415 -1.89639861430639,54.9599445004686 -1.89523446786233,54.9608537236461 -1.89455051968338,54.9614336533524 -1.89391984527901,54.9619210951945 -1.89309063468756,54.9624928047786 -1.89220383018616,54.9629718380898 -1.89179704412726,54.9632150234969 -1.89146102764227,54.9633333086488 -1.89120468512759,54.9634149212769 -1.89059667386915,54.9635913556211 -1.89034194662104,54.9636468254964 -1.89004668863628,54.9636896815253 -1.88970769966689,54.9637137219263 -1.8896452381228,54.9637163606046 -1.88925316039453,54.9637061256732 -1.88901433878213,54.9636887505918 -1.88888625755489,54.9636724640113 -1.8885897275956,54.9636155984854 -1.88815588963096,54.9634795527266 -1.8878142066029,54.9633605672912 -1.88741795168479,54.9631868225614 -1.88723863936308,54.9630715781903 -1.88706409676293,54.9629555301093 -1.88680543572455,54.9627584627964 -1.88594196225935,54.9621493882693 -1.88572068922599,54.9619397756858 -1.88533409304294,54.9616823962215 -1.88504098857406,54.9615141302699 -1.88494440847763,54.9614259112679 -1.88488682960189,54.9613881264007 -1.88476046077006,54.9613161392463 -1.8844329755395,54.9611504427846 -1.88432220947837,54.9611162007145 -1.88417857090213,54.9610954029212 -1.88405677108142,54.9610925924673 -1.88336349549709,54.9610559981142 -1.88321523810677,54.961029804021 -1.88312307481881,54.9610198347852 -1.88297952118031,54.9610143066137 -1.88252023505574,54.9610569873512 -1.88212815202224,54.961103323849 -1.88150468557895,54.9611926453536 -1.88083130575507,54.9613087761792 -1.88019393896066,54.9613943939917 -1.87871887976277,54.961638278205 -1.87742206805424,54.9618643567265 -1.87709856252551,54.9619233227011 -1.87685169647368,54.9619742803331 -1.87662811607921,54.962031548548 -1.87640928615219,54.9620933132998 -1.87617637196076,54.9621704259832 -1.87589810703754,54.9622563847699 -1.87554959566165,54.9623638325586 -1.87450979356312,54.9627455558097 -1.87336689930379,54.9631452198742 -1.87235672591203,54.9635512114334 -1.87188763259197,54.9637511420637 -1.87149193825295,54.9639088362961 -1.87092747692073,54.964130223081 -1.87071156324093,54.9642404919389 -1.87043284608545,54.9644594837126 -1.8701902423297,54.964619132347 -1.87011049187562,54.9646721399629 -1.8697253659652,54.9649422230892 -1.86862047918075,54.9656607967163 -1.86818713115722,54.9658642559627 -1.8679910820123,54.9661174685079 -1.8678594895686,54.9662306082027 -1.86768100994139,54.9663472006244 -1.86756839545522,54.9664054709385 -1.86742291724028,54.966471791139 -1.86726341336888,54.9665345922499 -1.86688016127787,54.9667327097213 -1.86620284442829,54.9670258202743 -1.86604798726563,54.9670840428822 -1.86598386476169,54.9671199069233 -1.86590409489056,54.9671756066756 -1.86583358470114,54.9672348202196 -1.86578189288874,54.9672886645635 -1.865719016868,54.9673757351661 -1.86543222877413,54.9676836434799 -1.86525348442215,54.9678757833202 -1.86506870899745,54.9680220099872 -1.86498415861497,54.9680812973759 -1.86479010731017,54.968189783544 -1.86440357152515,54.9683987599831 -1.86399527812757,54.9686040275642 -1.86377160320759,54.9687116703523 -1.86303322980742,54.9690298479504 -1.8617710168688,54.9695136246458 -1.86063723808659,54.9699041058414 -1.85932700128892,54.9702557439433 -1.85866391646564,54.9704976225816 -1.85831822997017,54.970648234545 -1.85762683827623,54.9709152284635 -1.85637556931331,54.9713648237651 -1.85547171598591,54.97164682708 -1.85506211143671,54.9717289898824 -1.85475887744622,54.9717789370605 -1.85451043466776,54.9718136760803 -1.85412750057532,54.9718564303702 -1.85366490803043,54.9719160653599 -1.85325714410702,54.9719506116176 -1.85307584418819,54.971973751012 -1.85121285273953,54.9722419875265 -1.85082057848927,54.9722657639234 -1.84929705939442,54.9723986447361 -1.8488142278166,54.9724249977394 -1.8482500947326,54.9724935604603 -1.84779848558401,54.9725397130987 -1.84747486148266,54.9725959051455 -1.84711224969768,54.9726763026886 -1.846144616603,54.972837777656 -1.84583825118823,54.9728930884965 -1.84532541475908,54.9730173100077 -1.84525989182071,54.9729741064152 -1.84453342682524,54.9730172023162 -1.84429735257545,54.9730465472927 -1.84413326420403,54.9730796662583 -1.84400651968418,54.973114540093 -1.84389392812553,54.9731530254274 -1.84374531231069,54.9732148211214 -1.84267070685291,54.9735863451669 -1.8424828761589,54.9736624628653 -1.84229514451218,54.9737458564179 -1.84206024295422,54.9738695252911 -1.84193034289726,54.9739529032488 -1.84185827059494,54.9740040160676 -1.84177656489661,54.9741144962689 -1.84169651462816,54.9742293817325 -1.84155030061725,54.9744655479361 -1.84132592814316,54.9746944253056 -1.84109210707735,54.9749673090815 -1.83946822723904,54.9763382199748 -1.83892440275985,54.9767885641261 -1.83826657838695,54.9772038097962 -1.83814446949257,54.9772665323533 -1.83803801354367,54.9773131051472 -1.83783152464717,54.9773775116852 -1.83771896366921,54.9774043130441 -1.83724990964142,54.9774792395854 -1.83705763784722,54.9774996446547 -1.83679985326085,54.9775064872257 -1.83665920389047,54.9775027055187 -1.8365031297383,54.9774908182252 -1.83633600642531,54.9774717288619 -1.83625785976249,54.9774608434511 -1.83559135933294,54.9773385806639 -1.83512625050903,54.9772032008566 -1.83492176947784,54.9771535154453 -1.83482977951188,54.9771263500929 -1.83470501183337,54.9770821619962 -1.83456149267359,54.9770244728474 -1.83432137225536,54.9769019716096 -1.83382086246637,54.976669427126 -1.83358707645124,54.9765424418226 -1.83332679927484,54.9763740049124 -1.83271278648004,54.9759939715207 -1.83220368363828,54.9755709579159 -1.83168810977553,54.975219712101 -1.83117076502067,54.9748937052554 -1.83056142991571,54.9745451086495 -1.8301608756113,54.9743235581782 -1.83047584264636,54.9740984208443 -1.83060287120803,54.9739682463138 -1.83072373587251,54.9738336617201 -1.83091257693295,54.9735212084618 -1.83077939529434,54.9732442420906 -1.8306366814554,54.9729987045785 -1.83058721866985,54.9728764603981 -1.83054857920374,54.9727533326235 -1.83056841852709,54.9725062243977 -1.83107622040773,54.9724871647232 -1.83107779532617,54.9724799807443 -1.83105155195842,54.9724106815711 -1.83055221369958,54.9722545739565 -1.830178408458,54.9720176979858 -1.82989160840151,54.971857392117 -1.82979575572333,54.9716191059471 -1.82989800469753,54.9714385908052 -1.83001191788471,54.9711179486463 -1.82995051320893,54.970865426311 -1.82992192914603,54.9705877069258 -1.8294017801931,54.9705779971262 -1.82931591158426,54.9705697913224 -1.82915667588834,54.9705507030198 -1.82900841938948,54.9705243538773 -1.8288788482252,54.9704954248095 -1.82874625215706,54.9704512195238 -1.82853438274514,54.9703314412191 -1.82839466222166,54.9701146524707 -1.82831268465176,54.9699177977839 -1.82824922578797,54.969788256842 -1.82812057717978,54.9695732796606 -1.82801167084191,54.9694707145273 -1.82794772625896,54.96942570654 -1.82787449681356,54.9693833812376 -1.82779352125213,54.9693455361939 -1.82752051200467,54.9692498350953 -1.82727862705444,54.9691946929844 -1.82711633884881,54.9691684115054 -1.82686199680033,54.9691051661306 -1.82660457594063,54.9690392209201 -1.82637373426454,54.9689624425484 -1.8261490799584,54.9688839661003 -1.82578888114985,54.9687307319109 -1.82570798622159,54.96867491882 -1.82567991376838,54.9686442451581 -1.82565677098362,54.9686055827251 -1.82564277812977,54.9685651370525 -1.82563986114718,54.9685247072141 -1.82565418479552,54.9684582495873 -1.82559411817554,54.9679028033931 -1.82559373342925,54.9676332078951 -1.82559445722059,54.9674652177734 -1.825615533834,54.9672962673859 -1.82568828624361,54.9670888522664 -1.82553313311055,54.9668432915322 -1.82602981800315,54.9664881631206 -1.82626332522396,54.9663006503702 -1.82634321862049,54.9662288959547 -1.82645004186531,54.9660933065422 -1.82650676616133,54.9659882794185 -1.82655096812828,54.965860776367 -1.82661299867217,54.9655993534726 -1.8261276113419,54.9655169120012 -1.82547813941338,54.9654700785233 -1.82474321264021,54.9652929467915 -1.8245949507084,54.9652729695149 -1.82444816735957,54.9652682669878 -1.82437783734324,54.9652726569591 -1.82421226532407,54.9652948773416 -1.82382139999367,54.9653616901502 -1.82301761864139,54.9652365526047 -1.82283262810832,54.9650466417646 -1.82259301645185,54.9648323949159 -1.82248657390074,54.9648789543122 -1.82234161234819,54.9648410122237 -1.82214017037818,54.9648209544185 -1.82144976894014,54.9648316244394 -1.82136534388233,54.9648494676084 -1.82132314856686,54.9648691698466 -1.82129329080759,54.9648943689955 -1.82127760942551,54.9649168050209 -1.82127598547667,54.9649347703905 -1.82129926749692,54.9649698396125 -1.82165456519594,54.9651428440102 -1.82174479783469,54.9652391903719 -1.82182549859976,54.9653363305838 -1.82188920071022,54.9654334459051 -1.82194490830818,54.9655333343122 -1.82203471645649,54.9657266121913 -1.8220423244721,54.9657535735665 -1.82186918998552,54.966059750099 -1.82174043017278,54.9662312372302 -1.82156528817576,54.9662615248669 -1.82154058960363,54.966196807531 -1.82128645779916,54.9660921361082 -1.82108989841441,54.9660442348825 -1.8208128456377,54.9661723825706 -1.82067983491487,54.9662269870818 -1.82031854868308,54.9663576148256 -1.82020441080841,54.9663664299968 -1.82012792203148,54.9663654185701 -1.82000150972557,54.9663544522654 -1.81996086062278,54.9663445102112 -1.81978630073922,54.966272384019 -1.81969577801452,54.9662417063571 -1.81947099301584,54.9662278981455 -1.81927568306656,54.9662464742684 -1.8191360494818,54.9663702397734 -1.81910328050802,54.9663836667505 -1.81906101708883,54.9663889939157 -1.81901738522705,54.9663835392814 -1.81898304630916,54.9663736062651 -1.81890509463387,54.9663249798192 -1.81885672327321,54.966314127311 -1.81881616638158,54.9663122707229 -1.81875364032886,54.9663274497092 -1.81870818696817,54.9663552310298 -1.81864533887105,54.9664422778071 -1.81860305160333,54.9664818329253 -1.81851211853967,54.9665427852781 -1.81824940235077,54.9666304328048 -1.81775168516509,54.9668561646007 -1.81770620871725,54.9668884375066 -1.81769517799558,54.9669072863926 -1.81769190087022,54.9669486048974 -1.81770260789619,54.9670016244311 -1.81776771631125,54.9670997312172 -1.81778157919878,54.9671383813206 -1.81777985899522,54.9671770081254 -1.81776409136987,54.967218308854 -1.81773416935299,54.9672568925895 -1.81769190748373,54.9672900689068 -1.81760736228832,54.96733306304 -1.81754103560347,54.9675055370123 -1.81745802642606,54.9675503305606 -1.81735658110364,54.96751424414 -1.81695482423149,54.9672485384774 -1.81684568026999,54.9672061515955 -1.81674428308181,54.9671880324018 -1.81668646544847,54.9671870468469 -1.81662707710778,54.9671914496541 -1.81657087119736,54.9672039420031 -1.81651606310069,54.9672209276762 -1.8164754076622,54.9672406304621 -1.81637034310224,54.9673213236219 -1.81631560983032,54.9673499885345 -1.81618725150337,54.9673983953699 -1.81615283082911,54.967406429135 -1.81608573573736,54.9674063279109 -1.81604199963636,54.9673954813003 -1.81599688407121,54.9673764579486 -1.81593780589066,54.9673125864029 -1.81588952818036,54.9672810711688 -1.81582871597245,54.9672585203657 -1.81575845111585,54.9672476335611 -1.81569754649706,54.9672457451599 -1.81565696428994,54.9672492773224 -1.81560372503146,54.9672608751053 -1.81553961064581,54.967285033334 -1.81550978473202,54.9673020572626 -1.81535226001026,54.9676181280836 -1.8153507029744,54.9676208206523 -1.81521896601334,54.9677321068946 -1.81513743698529,54.9677903757602 -1.81510766218792,54.9678244678438 -1.81509336003757,54.9678540921474 -1.81508689058395,54.967916966969 -1.81510385866436,54.9679520285634 -1.81514115769468,54.9679907136282 -1.81518173042977,54.968017816086 -1.81541240786519,54.9681250695081 -1.81541048866225,54.9682068166203 -1.81557394720263,54.9683130693016 -1.81570761760516,54.9684561987494 -1.81598289439274,54.9687253120232 -1.81601548555171,54.9687801601553 -1.81602310233018,54.9688044268891 -1.81601837655941,54.96882418375 -1.81599787358977,54.968858290039 -1.81596968028292,54.9688842999354 -1.81593210430542,54.9689058035151 -1.81587573247942,54.9689263809857 -1.81580379159402,54.9689433404733 -1.8156851305836,54.9689540315862 -1.81540847287841,54.9689877502129 -1.8152671992338,54.9691276786966 -1.81507797032411,54.9691929713477 -1.81484787846818,54.9692942259696 -1.81462115689427,54.9693343071193 -1.81406520516303,54.9693011195183 -1.81405435795083,54.9693073914367 -1.81400560292075,54.9693791850841 -1.81407191703646,54.969549973354 -1.81423999839477,54.9696877670157 -1.81413817370504,54.9697612770557 -1.81398500860339,54.9697691282342 -1.81387535683377,54.9698363376524 -1.8136884396644,54.9700697128474 -1.81351738047412,54.970242923215 -1.81346067267098,54.9703353670892 -1.81363040805066,54.9704497167051 -1.81374663091969,54.9706619955693 -1.81384277115262,54.9708166581209 -1.81379522093289,54.9709622086067 -1.81361672945278,54.9710427872905 -1.8132338425915,54.9710952040322 -1.8129135685057,54.9710875268608 -1.8124404521095,54.9710445770777 -1.81230209653805,54.9712456848579 -1.81229702692012,54.971339105393 -1.81230767382475,54.9714038036306 -1.81234316139483,54.9715000713756 -1.812605038328,54.9719371628145 -1.81259833963362,54.9720485476214 -1.8122946212315,54.9721910086645 -1.81208497617215,54.972266147333 -1.81200035193188,54.9723226130616 -1.81198437990961,54.9723782859904 -1.81200588314935,54.9724628539403 -1.81196520351182,54.9724861487528 -1.81175042820845,54.972639435422 -1.81170154910342,54.9727364716832 -1.81169838240941,54.9727526372537 -1.81184620576298,54.9728714475858 -1.81202537732623,54.9729795263454 -1.81215639443005,54.9730292271623 -1.81239379494798,54.9730241128749 -1.81271097965249,54.9730066327155 -1.81292360602401,54.9729836024339 -1.81295799057794,54.9729845528832 -1.81299236838454,54.9729873014275 -1.8130250617342,54.9729918427988 -1.81304230768419,54.9729945641639 -1.81307344105489,54.9730026975638 -1.81310315187739,54.9730117264853 -1.81313117566258,54.9730234477406 -1.81315610344235,54.9730361527151 -1.81316072740181,54.9730388547252 -1.81318255742083,54.973053262304 -1.81319974119581,54.9730694581816 -1.81321524778772,54.9730865509947 -1.8132292078806,54.9731036414374 -1.81324161889084,54.9731216272158 -1.81325400088688,54.9731459014087 -1.81326174076828,54.9731710671005 -1.81326780346313,54.9731971288321 -1.81326922817762,54.9732231834621 -1.81326601646906,54.9732492300947 -1.81326280889962,54.9732743790238 -1.81326122248037,54.9732833599808 -1.81325322134819,54.9733147900301 -1.81324367326717,54.9733463075707 -1.81322794261949,54.9733777257821 -1.81320591332215,54.9734064394188 -1.81318236806739,54.9734288622697 -1.81315730271388,54.9734458929355 -1.81313069911411,54.9734611240231 -1.81310100971671,54.9734754517681 -1.81307121139048,54.9734852880953 -1.813040007072,54.9734924273342 -1.81300714370286,54.9734968681969 -1.81297274469058,54.9734986126685 -1.81293989220686,54.9735003586039 -1.81290561454028,54.9735038995605 -1.81288060719106,54.9735083533388 -1.81284140205591,54.9735190728874 -1.81280231824279,54.9735315898261 -1.81276785683456,54.9735468087746 -1.81273352089952,54.9735629265144 -1.81272718901521,54.9735674089346 -1.81269748275973,54.9735853300909 -1.81267240306386,54.9736050555626 -1.81264886571848,54.973625681108 -1.81262996066188,54.9736472123737 -1.81262050095032,54.9736598646224 -1.81260944362004,54.9736832051579 -1.81260315814182,54.973705654416 -1.81260149925792,54.9737299071003 -1.81259817146243,54.973753258612 -1.81259497175596,54.973776611219 -1.81257440834179,54.973850243928 -1.81255542978244,54.9738879455241 -1.81253652038873,54.9739103753771 -1.81251465327226,54.9739319020726 -1.81248957327078,54.9739516275071 -1.81246606061277,54.973966863204 -1.81243467888184,54.9739848724812 -1.81240021278411,54.9740009890305 -1.81236421156293,54.9740153077894 -1.81233143672173,54.9740278342857 -1.812275062664,54.9740466129143 -1.81221715190878,54.9740635919347 -1.81216247742005,54.9740769832761 -1.81210765237628,54.9740948656053 -1.81198098586904,54.9741341983936 -1.81204332050091,54.9741630418432 -1.81234593493539,54.9742623259369 -1.8124629656963,54.9743012251586 -1.81273402863534,54.9744552595729 -1.81298800676856,54.9745993851795 -1.81309076784184,54.9746607208153 -1.8131262563983,54.974757796995 -1.81312251746459,54.9748979336737 -1.81308869222891,54.9751099820496 -1.81316002552703,54.9752268769563 -1.81320814169333,54.9752953148465 -1.81322003750176,54.9754246955861 -1.81319576472968,54.9756044183985 -1.81316108336038,54.9756672497802 -1.81292155616895,54.9757944479844 -1.81287289668115,54.9758437832383 -1.81286189863892,54.9758545460523 -1.81281477533499,54.9759057698146 -1.81277861301023,54.9759542247005 -1.8127755046981,54.9759578134579 -1.8127580828608,54.9759928224921 -1.81274867058545,54.9760224539761 -1.81274376850995,54.9760520914839 -1.81274363128258,54.9760817372044 -1.81274361880811,54.9760844321065 -1.81274825060332,54.9761131865408 -1.81275584599596,54.9761419455237 -1.81276821573391,54.9761690044814 -1.81277594757376,54.9761959664591 -1.81281285032777,54.9763217920699 -1.81150089403162,54.976575891788 -1.80962923955319,54.9769387028085 -1.80768506513416,54.9774019867895 -1.8060945636916,54.9777329353766 -1.80486680753408,54.9780049742404 -1.80388405619618,54.9783539336923 -1.80304026680184,54.9786796632301 -1.8027303643589,54.9788049313647 -1.80282991794976,54.9788886393643 -1.80331548906781,54.9792749047745 -1.80278658363749,54.9794538106665 -1.80197730349437,54.9797499426683 -1.80198663713511,54.9797643310283 -1.80222770218789,54.9799929932856 -1.80287237406792,54.9797981065618 -1.80364311083861,54.9806737124038 -1.8041229864481,54.9812576927561 -1.80429132919826,54.9813442039828 -1.80311155893743,54.9820279255699 -1.80291247560787,54.9821426822305 -1.80325387736287,54.9823004444718 -1.8042485344668,54.9827594836177 -1.80512015645533,54.9831436655126 -1.80548116919989,54.9834596523098 -1.805697359089,54.9836720066367 -1.8063245065051,54.9835409467026 -1.80677047566239,54.9834167837251 -1.80736683637931,54.9832020336931 -1.80840468741229,54.9827984230492 -1.80940767679454,54.9821610891145 -1.80970879869753,54.9819314918556 -1.81027487346805,54.9821777126955 -1.81062827924376,54.9824469575025 -1.81107183189532,54.9828070749181 -1.81145962493327,54.9830808626517 -1.81234200697603,54.9838549816329 -1.81301275136143,54.9844598815181 -1.8135618455675,54.9849918254467 -1.81512299022705,54.9863393869695 -1.81537015077491,54.9862741819534 -1.81715599581713,54.9877047052204 -1.81788916572795,54.9883545890317 -1.81871405228839,54.9891017151709 -1.81904429904156,54.9889862288705 -1.8193246380898,54.9888509937198 -1.81938730341784,54.9888124581943 -1.81968700210139,54.988554087214 -1.81987826660467,54.98842680474 -1.82037520371137,54.9884049887554 -1.82071414754281,54.9884469013357 -1.82145086982317,54.9886590927789 -1.82155699578799,54.988698775872 -1.82170821249463,54.9887691573088 -1.82198700122171,54.9889833711987 -1.82249191821851,54.9889652415846 -1.82267628112029,54.9889700018124 -1.82282928864889,54.9889854958903 -1.82298083795261,54.989009971009 -1.82312448509016,54.9890443164363 -1.82331956170548,54.9891039806788 -1.8237697019007,54.9890893590423 -1.82414165015328,54.9890701327323 -1.82429644564955,54.9890595751997 -1.82465132914593,54.9890231639029 -1.82520780445636,54.9890006049825 -1.82525938286054,54.9889916955165 -1.82535642181753,54.9889585959792 -1.82551464681908,54.9888698856835 -1.82575082183866,54.9888118309984 -1.82596381896058,54.9887204135557 -1.82614480326928,54.9884323022155 -1.82602196024212,54.988294590293 -1.82599403619993,54.9882262753966 -1.82597564795951,54.9881579749933 -1.8260167034056,54.988049243985 -1.82634857778956,54.9879077777092 -1.82677422841937,54.9877717445765 -1.82684714524409,54.98789411312 -1.82697472503677,54.9880398258184 -1.82703057841742,54.9881153662286 -1.82714094548693,54.9882791117997 -1.82726812091359,54.9884895950157 -1.82738649601563,54.9885885811783 -1.82745287021194,54.9887657387768 -1.82746039544979,54.9888439055379 -1.82745403900595,54.9888843220654 -1.82740193235367,54.988986660512 -1.82751381051869,54.9891593912017 -1.82760519067949,54.9893346978758 -1.82777161168586,54.9895290655817 -1.82789610382287,54.9896451279501 -1.82792373360367,54.9897530587399 -1.82793243593281,54.9899183665685 -1.82803019411718,54.9900793985773 -1.82805179007065,54.9901521952857 -1.8282352167916,54.9903789270517 -1.82831778031623,54.990447317396 -1.82847368697642,54.9905400659301 -1.82851112249276,54.9905544926209 -1.82858607522281,54.990564479889 -1.82864857277828,54.9905636690669 -1.82879699842974,54.9905980144839 -1.82897951550062,54.9906756177828 -1.82931193105671,54.9907749018298 -1.82963039407883,54.990852604379 -1.82975673,54.9909309376927 -1.82993676196292,54.9912016802276 -1.83001929943557,54.9912773462607 -1.83008162958548,54.9913169608634 -1.83014246175155,54.9913448941929 -1.83029084469845,54.9913900182697 -1.83058731164083,54.991491044217 -1.83085563319242,54.9916046980474 -1.83105995831741,54.9917082908916 -1.83135475618683,54.99183895935 -1.83162903281965,54.9920397590214 -1.83171112823569,54.9922223265055 -1.83174632324497,54.9924038408075 -1.83178931728802,54.9925692862351 -1.83178557579856,54.9927246945292 -1.8317587450544,54.9927929316269 -1.83174256601254,54.9929025973365 -1.83181014553222,54.9931983363731 -1.83184105753344,54.9932945025645 -1.83194035953845,54.9934617310371 -1.83200688372281,54.9936092411857 -1.83212346573512,54.993773799271 -1.83221211419082,54.9938692360228 -1.83239267699887,54.9940500512531 -1.83248613259446,54.9941365110651 -1.8326013447899,54.9942282997104 -1.83272453616376,54.9943227949902 -1.83302521062145,54.9945344081059 -1.8336251411385,54.9949907786979 -1.83372966243601,54.9950512003204 -1.83377166660051,54.9950844959607 -1.83380437284525,54.9951222710414 -1.83383073874325,54.9951663259037 -1.83385235307769,54.9952373251895 -1.83399878746403,54.9953535008298 -1.83454287772443,54.9956992941378 -1.83517882473077,54.9961179751957 -1.83543129535719,54.9963052611636 -1.83569457389796,54.9965293041126 -1.83612626721342,54.9968237328991 -1.83675580732805,54.9965415076564 -1.83686062042193,54.9965003237478 -1.83696552876318,54.9964672255025 -1.83719863180955,54.9964109408352 -1.83756967300412,54.9962801870403 -1.83764328654248,54.9962416558448 -1.8376855468617,54.9962120671462 -1.83777660932109,54.9961286415184 -1.83782673506753,54.9960981646206 -1.83792689602199,54.9960596685205 -1.83809583031311,54.9960320441131 -1.83819740323263,54.9960267889761 -1.83832085260551,54.9960296474605 -1.8392041401651,54.995999372087 -1.83976846502308,54.9959694807812 -1.83991569220689,54.9958906193779 -1.84070663084185,54.9954873089124 -1.84248883397389,54.994586514056 -1.84257316492269,54.9946063867088 -1.84303366191175,54.9947588902939 -1.84303384787206,54.9951084362229 -1.84307015548912,54.9954149091217 -1.84324735183769,54.9956802380435 -1.84338386629076,54.9959355436149 -1.84342874979409,54.9960587645585 -1.84344066456902,54.9962097019386 -1.84343017437338,54.996488265158 -1.84335667431619,54.9968970080466 -1.84335166309412,54.9969923154804 -1.84334975055752,54.9970866393246 -1.84338337398941,54.9972889003586 -1.84338743520189,54.9974380313316 -1.84327418369749,54.9976284247415 -1.84310749634492,54.9978726502428 -1.84305522662205,54.9980567435131 -1.84308404690583,54.99826798175 -1.8431442339008,54.9984665935804 -1.84317529000146,54.9985340987365 -1.84320943841235,54.9986015188937 -1.84346957754819,54.9988193422988 -1.84371400243025,54.9990684963523 -1.84399286903722,54.9993105976576 -1.84463696717166,54.9997274430055 -1.84489880901831,54.9999084326731 -1.84522168681011,55.0001047717987 -1.84543681244434,55.0002353038567 -1.84575489935519,55.0004720608704 -1.8458843044057,55.0005387019471 -1.84598895299307,55.0005747672864 -1.84609196220628,55.0006009494436 -1.84619515961236,55.0006118600133 -1.84636554528714,55.0006129722362 -1.84639182907353,55.000683076476 -1.84706818086876,55.0008322424348 -1.84754461049057,55.0009190788583 -1.84802883886122,55.001023081921 -1.84849263501566,55.0011458330864 -1.84867383634657,55.001184686882 -1.84878314226432,55.0012171629754 -1.84886422452741,55.0012487054372 -1.84901872707895,55.0013270524595 -1.84910138423759,55.0013856365323 -1.84917771148114,55.0014477172762 -1.84924933695963,55.0015268593074 -1.84926489148515,55.001537659034 -1.84943820080311,55.0016196222426 -1.84950679499716,55.0016475553667 -1.84971611614396,55.0017161769874 -1.85009720684249,55.0017965985048 -1.85073295232112,55.0019213483859 -1.85203736556096,55.00215929066 -1.85240134556539,55.0022333958499 -1.85275436962919,55.0023075757 -1.85331348050733,55.0024564756727 -1.85335640412597,55.0027036615029 -1.85335792888563,55.002709951747 -1.85341850644404,55.0028169275015 -1.85346060103805,55.0028672853293 -1.85351660517774,55.0029204445954 -1.85358215881953,55.0029708305209 -1.85441506858018,55.0034731920741 -1.85458335272411,55.0036315913601 -1.85462389869564,55.0036828455356 -1.85467659318362,55.0037969973754 -1.85464566856125,55.0041150645134 -1.85473465559834,55.0041736522755 -1.85469040262331,55.0042921817342 -1.85452742989455,55.0044114674984 -1.85436580038047,55.005014242492 -1.85425975241913,55.0053600683923 -1.85752370669952,55.0059058018636 -1.85836900368617,55.0060694750575 -1.85840838970325,55.0059760033293 -1.85969761533422,55.0061473673045 -1.8597943232901,55.0053243266144 -1.85987062252848,55.0049569016218 -1.85988159896477,55.004951523508 -1.85998807232038,55.0049139160579 -1.86018986400569,55.0048593478459 -1.8607831454937,55.0046506218739 -1.86153271311626,55.0044223064601 -1.86181752336168,55.0043642361336 -1.86197242028681,55.0043383599426 -1.86241499617731,55.0042822636164 -1.86262460364161,55.0042393783863 -1.86281556676724,55.0041829973291 -1.86358725251136,55.0038882173576 -1.86393798923232,55.003734003336 -1.8639679971298,55.0036271337597 -1.86414486955782,55.0035815145372 -1.86476909782353,55.0034338913196 -1.86499278728972,55.003417968445 -1.86538040817927,55.003409412959 -1.86599033274193,55.0033750480873 -1.86685171720296,55.0033454466297 -1.8673895540671,55.0033208780614 -1.86754762579224,55.003268046464 -1.86762548506205,55.0029131060387 -1.86763089821213,55.0026777457265 -1.86784203646198,55.0026357517562 -1.8685706994978,55.0025888356315 -1.87130693846112,55.0024435215789 -1.87126911339986,55.0020589009739 -1.871252794789,55.0018009689715 -1.87119749188187,55.0014810103264 -1.87121627153488,55.0009687939566 -1.8711232503704,55.0002722993165 -1.87114687376977,55.0001797943123 -1.87117042575383,55.0001501742778 -1.871228454692,55.0001007368754 -1.8713035948172,55.0000603906537 -1.87138192210378,55.0000308273679 -1.87145068077964,55.0000111358877 -1.87153515926085,54.9999932581026 -1.87246883961519,54.9998603832634 -1.87258924380975,54.9998524232666 -1.87265642438145,54.9998426113828 -1.87276916920358,54.9998112867667 -1.87282234139328,54.9997887944104 -1.872878754779,54.9997601059494 -1.87297110797333,54.9996964192486 -1.87319063177639,54.9994810448569 -1.87343832293592,54.9992835760291 -1.87348241386481,54.9991559663115 -1.87351722414933,54.999029336329 -1.87339899255346,54.9988386743255 -1.8729082410755,54.9983385960409 -1.87261567354518,54.9979339455923 -1.87262033270629,54.9979276620328 -1.87270182798006,54.9978728585611 -1.87420409397419,54.9973191476446 -1.87482665900135,54.997166080245 -1.87512263719525,54.9974737068366 -1.87549269866806,54.9981237674937 -1.87571159306906,54.998606580946 -1.87605880931683,54.9990642806686 -1.8760759424793,54.9990669938517 -1.87625881082556,54.9990725689914 -1.87684521135727,54.9989932083167 -1.87762714577505,54.9989068546688 -1.87813065006732,54.9988345019119 -1.87848552790147,54.9988123965579 -1.87907970464963,54.9987590860094 -1.87948002869722,54.9987100718475 -1.87977388519695,54.9987076663902 -1.88034285374311,54.9987225988446 -1.88069451518483,54.9987418079025 -1.88106800008697,54.9987466631479 -1.88131803600884,54.9987882302195 -1.88175873394167,54.9988147096491 -1.88217912016808,54.9988682077309 -1.88252672246036,54.9991749673477 -1.88273589151174,54.9993108184426 -1.88294328190805,54.9994826007575 -1.88327360761481,54.9998397397331 -1.88347983103089,54.9998821582039 -1.88356895741976,54.9998588866825 -1.88414159886111,54.9996778746454 -1.88479589047006,54.9993819500176 -1.88521380028795,54.999176621865 -1.88555673284631,54.9989585563083 -1.88589081061108,54.9991349443378 -1.88631541159215,54.9993420490205 -1.88672287682571,54.9995024225214 -1.88724159791142,54.9996080089632 -1.88737442620844,54.999626098085 -1.88743378196794,54.9996477129198 -1.88746028722205,54.9996639076671 -1.88748214298069,54.9996836916362 -1.88805372417137,55.0004337050373 -1.88823449227147,55.0006413880929 -1.88868883144537,55.0008242565327 -1.88873726443362,55.0008350802531 -1.88882951655351,55.0008468433179 -1.88891858004034,55.0008460256919 -1.8889889800375,55.0008362077336 -1.88924550559371,55.0007753526333 -1.88939643681898,55.0010090591489 -1.8896007851865,55.0011755273601 -1.88980233165475,55.0012358984408 -1.88987884575434,55.0012530354295 -1.89003050374919,55.0012693422949 -1.89019768143229,55.001266797679 -1.89038473806218,55.0014898447262 -1.89126616396681,55.001558008165 -1.89160381361159,55.0015744783629 -1.89206422364334,55.002435768033 -1.89217947277267,55.002621827119 -1.89243824740016,55.0028799697166 -1.89276899762155,55.0031202073739 -1.89289381345312,55.003200269797 -1.8940207656763,55.003880579667 -1.89430348851701,55.0039599677548 -1.8944911708933,55.0039574349483 -1.89514108442453,55.004102627399 -1.89583174703547,55.0042434488435 -1.89590825783072,55.0042650750203 -1.89602080763177,55.0043064938234 -1.89622522717464,55.0044126726894 -1.89647205543592,55.0045188862207 -1.89674830595946,55.0046629443924 -1.89681088709379,55.0046881508412 -1.89689524993761,55.0047142742246 -1.89700140142737,55.0047386187016 -1.89725771009188,55.0047684800357 -1.89829073331863,55.0049167616328 -1.89867795153984,55.0051228032307 -1.89871540080131,55.0051470892718 -1.89874145366507,55.0053466333765 -1.89876130757908,55.0055506635421 -1.89875451699641,55.0057906048726 -1.8987185355144,55.0064133068531 -1.89862015637701,55.00698645767 -1.89858654094238,55.007282074628 -1.89865579071826,55.0077332804682 -1.89869704495749,55.0080909448554 -1.89878500868498,55.0085860942294 -1.89884848987675,55.0088207039312 -1.89854510690794,55.0088402164914 -1.8986809416001,55.0095232492164 -1.89866634999019,55.0097380313656 -1.89867690977145,55.0098962386985 -1.89859844717184,55.0100309250817 -1.89849609917817,55.0102815676366 -1.89846762877998,55.0104270750105 -1.89847986940521,55.0105322816019 -1.8985234754109,55.0106221517469 -1.89858887557338,55.010709345943 -1.89887900209123,55.0109953490767 -1.8992456751488,55.0112957876901 -1.89979806250945,55.0117797296067 -1.8998447350326,55.011830973654 -1.89989149350426,55.0118992857619 -1.89999431532902,55.0120791285071 -1.90006116060592,55.0122094423937 -1.9001513502949,55.0124413781965 -1.90022298300858,55.0125654083909 -1.90023854151091,55.0125824890873 -1.9004149916146,55.0126545001876 -1.90067128073121,55.0127131912406 -1.90109320992776,55.0128375039527 -1.901480741332,55.0129519064987 -1.90159481134113,55.0129645751996 -1.90176516386639,55.0130015442999 -1.90189655370431,55.0129962602233 -1.90198575860542,55.0130017217251 -1.90211848357685,55.0130306652532 -1.90242618975808,55.0132087833025 -1.90250419185592,55.0132618477815 -1.90255891171978,55.0132924358084 -1.90261828277245,55.013319522984 -1.90275419266079,55.01336544741 -1.90309802467746,55.0134277064209 -1.90358417681656,55.0134981617268 -1.90379839961506,55.0135216881487 -1.90392019850495,55.0135927528618 -1.90410430962639,55.0137555883454 -1.9042979651858,55.0138626432583 -1.90460853677361,55.01409025655 -1.90476634980649,55.0141442805693 -1.9050888275571,55.0140259508322 -1.90553010733421,55.0138824688112 -1.90579762736304,55.0138314698439 -1.90598223338027,55.0137857962217 -1.90631379016652,55.0137528129553 -1.90685023693885,55.0137101034797 -1.90815141753558,55.0136446124013 -1.90821074199607,55.0136940656843 -1.90841719186198,55.0136798477096 -1.90850470704884,55.0136915915771 -1.90877829719113,55.0137483920773 -1.90900635566232,55.0138141413245 -1.90950345533544,55.0138962603038 -1.90997259534983,55.0139127776728 -1.91026802807005,55.0139471322284 -1.91051971539856,55.013998612771 -1.91073691991389,55.0140769276391 -1.91127310315771,55.0141545758927 -1.91152002625719,55.0142041638482 -1.91199824872062,55.0143150959653 -1.91285647727554,55.0144675322836 -1.91330036723627,55.0145388172754 -1.91374284218212,55.0146092918107 -1.91416019970552,55.0146688767023 -1.9142243672088,55.014627597879 -1.91649252890707,55.0150757380347 -1.91699733472468,55.0151874766092 -1.91710521942343,55.0152037202688 -1.91721310770944,55.0152182573926 -1.91790896222465,55.0152214224138 -1.91882364685321,55.0152750371951 -1.91935219977297,55.0153158136237 -1.92068915350024,55.0153687949705 -1.92086431075609,55.0145466548394 -1.92095280923278,55.0140597208338 -1.92107749164991,55.0134631215158 -1.92114194501227,55.0132708275469 -1.92119598828135,55.0128629245008 -1.92131162858691,55.0128665927528 -1.92193196782087,55.0098953579271 -1.92200289467057,55.0096168269184 -1.92336290984139,55.0097156096585 -1.9237850474679,55.0097500114198 -1.92433071581992,55.009771013061 -1.92514685754469,55.0097894847008 -1.9262022142543,55.0098386385558 -1.92634570891996,55.0091261583406 -1.92668228613641,55.0089241444225 -1.92679659057568,55.0088056309278 -1.92686394191708,55.0087733315814 -1.92693593045698,55.0087428303848 -1.92767588552137,55.0085338678675 -1.92782449125215,55.0084791574223 -1.9278183928553,55.0083569780616 -1.92723461273493,55.0078192415387 -1.92666636879106,55.007323732394 -1.92631840819199,55.0069892487271 -1.92545363077997,55.0062527980327 -1.92537153549495,55.0058241476548 -1.92530468293878,55.0055886503764 -1.92514118207957,55.0052686493594 -1.92478955601156,55.0043563422545 -1.92452997587872,55.0035150609057 -1.92436169302163,55.0032094298643 -1.92750780149588,55.0028456238461 -1.93006896610886,55.0025371004152 -1.93006287498801,55.0024822973965 -1.93290075747611,55.0021568036007 -1.93560571133968,55.0018338610199 -1.93592356509876,55.0024819120171 -1.93640334584253,55.0036090441358 -1.93683178445046,55.0045302478022 -1.93776539572248,55.0043788970612 -1.94026741700638,55.0039982343804 -1.94592301608883,55.0032468269523 -1.94593248321754,55.0032028118591 -1.94702083605626,55.0030523544011 -1.94828887144756,55.0028937867247 -1.95152700339006,55.0024727650407 -1.95740098236681,55.0017614530225 -1.95888624335176,55.0016046527515 -1.95911765475825,55.0016819871161 -1.95952846244879,55.0019112912845</coordinates></LinearRing></outerBoundaryIs></Polygon>
  </Placemark>
