  <Placemark>
	<Style><LineStyle><color>ff0000ff</color></LineStyle><PolyStyle><fill>0</fill></PolyStyle></Style>
	<ExtendedData><SchemaData schemaUrl="#Wards__December_2019__Boundaries_EW_BFE">
		<SimpleData name="objectid">7125</SimpleData>
		<SimpleData name="wd19cd">E05012898</SimpleData>
		<SimpleData name="wd19nm">Thorpe</SimpleData>
		<SimpleData name="wd19nmw"></SimpleData>
		<SimpleData name="bng_e">502619</SimpleData>
		<SimpleData name="bng_n">169160</SimpleData>
		<SimpleData name="long">-0.52582</SimpleData>
		<SimpleData name="lat">51.412182</SimpleData>
		<SimpleData name="st_areashape">9152949.96029706</SimpleData>
		<SimpleData name="st_lengthshape">17664.648016186</SimpleData>
	</SchemaData></ExtendedData>
      <Polygon><outerBoundaryIs><LinearRing><coordinates>-0.511534963953078,51.4293527667507 -0.511775149254068,51.4295752595964 -0.511816065077548,51.4296009508433 -0.512038073890178,51.4294958927656 -0.511972801696032,51.4294240435404 -0.513197917712498,51.4288209141198 -0.513754250528653,51.4282560377553 -0.514787017075348,51.4273249290727 -0.515176483220446,51.4269818679021 -0.5157080468947,51.4265137582246 -0.516358728750003,51.4259230947168 -0.517085800240183,51.4252803537865 -0.517576493299859,51.4248720412057 -0.518611697160788,51.4240407153591 -0.518753146387224,51.4239391196493 -0.519598309827361,51.4232879631644 -0.520088004823748,51.4229128877666 -0.520532019546396,51.4225272541122 -0.521563659590122,51.4216230365688 -0.521708663818928,51.421499007509 -0.521770567831449,51.4214512435268 -0.521849982784139,51.4214855069488 -0.521976438072745,51.4215356469214 -0.522206526948808,51.4216266481426 -0.52317110396431,51.4219985765853 -0.523748424096706,51.4222036244716 -0.523944343123142,51.4222843029459 -0.524046465066476,51.4223279312793 -0.524050674329086,51.422329781857 -0.52438751795125,51.4225012333852 -0.525237382710957,51.4229084694126 -0.525657688586893,51.4231215111412 -0.525838923256184,51.4232127889591 -0.525888404712654,51.4232376843535 -0.526965389283475,51.4237853971844 -0.527120705811199,51.4238809145219 -0.527391058397071,51.4240291792314 -0.528009177259814,51.4243345848692 -0.528399115097117,51.4245286307769 -0.528851109875075,51.4247812688728 -0.529164113709874,51.4249536462087 -0.529449895960596,51.4251165080889 -0.529577748299374,51.4251922387 -0.529787771048687,51.4253361997755 -0.529898513317271,51.425407537585 -0.530094727858978,51.4255433505609 -0.530585811799723,51.4258940499508 -0.530719406273192,51.4258495519207 -0.531031780613278,51.4257095384617 -0.531425392453098,51.4254105240722 -0.532106546884897,51.4248911731955 -0.532423026108619,51.4246227445095 -0.532655058260514,51.4245617311137 -0.532797146127251,51.4245724991478 -0.532960760411424,51.4246294748631 -0.533374320733284,51.4249214244245 -0.533383355062634,51.4249503939898 -0.533515103639567,51.4251507170239 -0.533730853415449,51.4253315033829 -0.53391511017808,51.4254587667282 -0.534055015993664,51.4255378282563 -0.53423801318897,51.4256193169173 -0.534391502309026,51.4256778717713 -0.534596839084064,51.42568762981 -0.534722758134267,51.4257071839847 -0.534828695363155,51.4258048066805 -0.534875812005276,51.4258021609642 -0.534890952328616,51.4258010013539 -0.535037869498997,51.4257947445131 -0.535232292420057,51.4257872826843 -0.535411574977838,51.4257809802124 -0.535590152948546,51.425774219044 -0.53576802632677,51.4257669991823 -0.535832984387518,51.4257643035952 -0.53595094641237,51.4257593924678 -0.53613382333865,51.4257531337885 -0.536133751503556,51.4257553809899 -0.536191379487816,51.4257525037349 -0.536229553713685,51.4257507323699 -0.536231466230875,51.4257583997887 -0.536231840359922,51.4257691953336 -0.53623209956098,51.4257835864009 -0.536231682946323,51.4257966201694 -0.536702498945999,51.4257822659685 -0.53679035003236,51.4257788664855 -0.536932924703084,51.4257734523019 -0.537023766274366,51.4257664930151 -0.537098734292023,51.4257611340234 -0.537198231487314,51.4257533833912 -0.537284702077539,51.4257481678317 -0.537362560042399,51.4257423951164 -0.537431762321262,51.425737413584 -0.537453344073163,51.4257372332581 -0.537532467594269,51.4257368716564 -0.537613704800019,51.4257378852311 -0.537699284192701,51.425738053682 -0.537702878759597,51.4257380985265 -0.537781973583727,51.4257386356373 -0.537831621658646,51.4257379061252 -0.537839515356923,51.4257384542146 -0.537857459494478,51.4257395772956 -0.538532601252837,51.4256259822391 -0.539889684463897,51.4254035057893 -0.540299320490409,51.4253348985433 -0.540642347941737,51.4252846187866 -0.540639795435277,51.425277873321 -0.540616281977864,51.4251707191204 -0.540519607926405,51.4247888387923 -0.540430274108466,51.424439406892 -0.540396235178156,51.4243133598989 -0.54032349799929,51.4240402700481 -0.540238353131606,51.4237027860316 -0.54016283196242,51.4234215718102 -0.540127499445032,51.4232883704382 -0.540062619169751,51.4230315572029 -0.539985528812612,51.4227041663854 -0.539906017654157,51.4223572355008 -0.539880929323632,51.4222370098945 -0.539823611069601,51.4219579257386 -0.539798671089196,51.4218091503181 -0.539759906683324,51.4215688411978 -0.539710923879464,51.4212432273195 -0.539689058507028,51.4210935396594 -0.539662667463931,51.4208709889737 -0.539645945532014,51.4207270755303 -0.53962781726382,51.4205079603502 -0.53960242884924,51.4201345797958 -0.539597258051474,51.4200103191948 -0.539585848237197,51.4197237173162 -0.539580741075371,51.4193348869973 -0.539581573245925,51.4191417037146 -0.539584080252604,51.4189675754288 -0.539586608328884,51.4188405556789 -0.539600787124494,51.418539045897 -0.53962735684436,51.4181591755361 -0.539664758863934,51.4177737300154 -0.539682648088447,51.4176183509506 -0.539708871592504,51.417416443165 -0.539715270507958,51.4173589448239 -0.539765957178528,51.4170340984333 -0.539790129589415,51.4168951147133 -0.540030922524532,51.4160373997869 -0.540399549771047,51.4143064293972 -0.540847821506193,51.4143183067367 -0.540873686693994,51.4143177305751 -0.540949922786693,51.4143177808923 -0.541323153018107,51.4143368121303 -0.54136403830752,51.4143634816987 -0.541365289798618,51.4143688908793 -0.541508565420419,51.4143859581408 -0.541641797603317,51.41440200006 -0.541829379935773,51.4144277079839 -0.54206021751025,51.4144503588085 -0.542069836354791,51.4144163175886 -0.542105780224255,51.4144194617164 -0.542225925282595,51.4143921895395 -0.542280961282691,51.4143802887487 -0.543152951530443,51.4144082171233 -0.543333875606811,51.4144158605726 -0.543487598515619,51.4144213679804 -0.544480104033631,51.414458875128 -0.544550988170438,51.4144444734071 -0.544718111442104,51.4144798112815 -0.544825335847748,51.4145009209176 -0.544932526616644,51.4145193332431 -0.545006828111212,51.4145355385204 -0.545132461048914,51.4145631684122 -0.545239999558476,51.414574392725 -0.545323060660571,51.414583515432 -0.545397504997066,51.4145952269769 -0.545476185759534,51.4146078912019 -0.545674783623158,51.414649012026 -0.545706256754113,51.414654797219 -0.545737702846174,51.4146614803978 -0.545781866415442,51.4146746142433 -0.546019728499911,51.4147450790202 -0.546076696713484,51.4147619676877 -0.546118017194858,51.4147750661137 -0.54620193598584,51.4148057731232 -0.546348343290483,51.4148588315706 -0.546436444756449,51.4148922879867 -0.546516065202081,51.4149202446347 -0.546996436522032,51.4150979975905 -0.547071905219555,51.4151223063261 -0.547221253129175,51.4149928189816 -0.548288474550626,51.4141689271957 -0.548559266500661,51.413974419378 -0.548458674406549,51.4138823770744 -0.548399485010179,51.4137521027154 -0.548373530444959,51.4132986099684 -0.548203286433096,51.4125006412633 -0.548021743461493,51.4119661109416 -0.54793012141094,51.4117257588422 -0.547403232673092,51.4113820210948 -0.547201526572718,51.4112149172632 -0.547044203242128,51.4110502520126 -0.546681589654934,51.4108766565172 -0.546308826762621,51.4105707848423 -0.546175476830744,51.4102858632423 -0.545999162573615,51.4100436492623 -0.545614328047613,51.4096665156999 -0.545205948785219,51.4094861436949 -0.545545757198996,51.4086998988276 -0.545700895770334,51.4082936034921 -0.545707079700082,51.4080985151719 -0.545782913989298,51.4079313494817 -0.54603300631327,51.4072070104855 -0.546090412907081,51.4067122114205 -0.548474107422279,51.406670763703 -0.549381538984877,51.4066640287859 -0.549164753359111,51.4063331294296 -0.548740478611453,51.4057937052322 -0.548458781588485,51.4055177368181 -0.548383554719125,51.405351394475 -0.548313593015124,51.4051985113176 -0.548223091656509,51.405106593674 -0.547971814106737,51.4050495400305 -0.547656185880152,51.4050294444831 -0.547469150538836,51.4050325191858 -0.547367956686044,51.4049601550102 -0.547331765726221,51.4047853066471 -0.547410663026202,51.404610896733 -0.54764938675369,51.4042442911065 -0.547811553594906,51.4040268640936 -0.548273092095696,51.4038447022473 -0.548535028885155,51.4037444778422 -0.54862099959504,51.4036610403979 -0.548655705611696,51.403564381994 -0.548552456058683,51.4031935357403 -0.548470943394373,51.402862513964 -0.548362433575786,51.4026543163806 -0.548303572589496,51.4025627909822 -0.548286729783222,51.4024582117158 -0.548355398023303,51.4022397146962 -0.548422395467861,51.402077742058 -0.548447427748124,51.4019683782103 -0.548420087634066,51.4018322049132 -0.548211129851492,51.4015770040301 -0.547865965417802,51.401760609771 -0.547721873414392,51.4016356640405 -0.547494458578004,51.4014619492847 -0.547477449000299,51.401411396033 -0.547310028102091,51.4012484037328 -0.547362832472965,51.4012166065614 -0.547058976922664,51.4010051751959 -0.546690410697686,51.4006589040484 -0.54665692859956,51.4006270246101 -0.546673060793837,51.4006191335732 -0.546804376953578,51.4005559477971 -0.547080488449287,51.400460486656 -0.547320760519838,51.4003663787294 -0.547738453540301,51.4001566161269 -0.547857789623805,51.399883820037 -0.547872409710918,51.3998300629929 -0.547901881690677,51.3996740079039 -0.547963555166839,51.399586583606 -0.548026249920178,51.3995567961976 -0.548142203562709,51.3996193632041 -0.548237363059499,51.399657401292 -0.548307000101512,51.3996366884653 -0.548403175590449,51.3995039344292 -0.54845101997283,51.3994002467779 -0.548586939678274,51.3992400273047 -0.54857885692862,51.3991320504459 -0.548392037838963,51.3988105111434 -0.548352609628213,51.3986930662455 -0.548357812298684,51.3986185164576 -0.547675209867652,51.3988402790517 -0.546977009994457,51.3990528553934 -0.546861033646682,51.3990846779189 -0.54630512404178,51.3992539769491 -0.545715523701875,51.3993941776944 -0.545300339128621,51.3994798179489 -0.544494563004981,51.3996380029651 -0.543676640092016,51.3997716694897 -0.542837801068262,51.3999330287214 -0.542252345371861,51.4000354167522 -0.541242213271048,51.4002008340768 -0.539883331064091,51.4003934487528 -0.538690661384173,51.4005584562813 -0.537688316327436,51.4006610122336 -0.537447241326463,51.4006903648899 -0.537044580103687,51.4007392737158 -0.535938933901811,51.4008361197566 -0.534743017047208,51.4009200485876 -0.533454266849145,51.4009857212619 -0.532172468188606,51.4010155087657 -0.53119722479099,51.4010330353867 -0.530102700492424,51.4010480684288 -0.530020857681759,51.4010461418132 -0.530021001640878,51.4010416492648 -0.529186807487965,51.4010518502599 -0.52845395824133,51.4010435421464 -0.527667697317021,51.4009932048145 -0.527093861381797,51.400957130843 -0.526205328842306,51.4009135874484 -0.526135095312918,51.400908209069 -0.525624208053854,51.4008793028568 -0.524829885302036,51.4008144604282 -0.524081335520624,51.4007564832081 -0.524086236974262,51.400736767157 -0.522337574722992,51.4005303317786 -0.522137059485471,51.4005071240118 -0.521517288433197,51.4004255837388 -0.520824181635077,51.400343112715 -0.52062093859287,51.400312676566 -0.520620967603215,51.4003117776912 -0.51972172670939,51.4001600811674 -0.518866482847662,51.4000225080265 -0.51800979259704,51.3998857213045 -0.516544312995309,51.3996352386945 -0.516542744891501,51.3996397141652 -0.515811016431871,51.3995053990961 -0.51519183612185,51.3994058577633 -0.514284505329452,51.3992333479187 -0.513828753015509,51.3991457604289 -0.513371317477545,51.3990662412091 -0.512902273891727,51.3989901680579 -0.512725100543758,51.3989564547849 -0.5124893619533,51.3989121087857 -0.510692544265561,51.3985519841993 -0.50952299380247,51.3983123666229 -0.508986843815054,51.3982227483672 -0.507872764708598,51.3979941479416 -0.507491211955815,51.3979095875103 -0.505221486871169,51.3973990000552 -0.504462940137544,51.3972165865865 -0.502993719520615,51.3968537844923 -0.502357484205432,51.3967000438679 -0.502015789460744,51.3966114499701 -0.501064868719635,51.3963808723752 -0.500401694902109,51.3962139269018 -0.499805976910945,51.3960778204969 -0.49925546165949,51.3959551376127 -0.498167568183226,51.395727063075 -0.497759599812627,51.3956418896219 -0.497113433978407,51.3955136878771 -0.496124473945203,51.3953311179408 -0.495629693953704,51.3952491048467 -0.495223499676898,51.3951796488317 -0.494419957707888,51.3950494106684 -0.493157393430976,51.394860444014 -0.492569101391515,51.3947772151532 -0.491732983266348,51.3946665250776 -0.491303567841137,51.3946096039951 -0.490514934237019,51.3945123642192 -0.48995127300345,51.3944437150611 -0.489016990036836,51.3943345953194 -0.488205037587368,51.3942527427406 -0.487584124664174,51.3941904815748 -0.48684940008671,51.3941196089633 -0.486485868780938,51.3940875426865 -0.4865418866236,51.394445897014 -0.486559557587364,51.3945639824381 -0.486613213858052,51.3947228981236 -0.486660347960849,51.394950142457 -0.486761293104388,51.3952455055759 -0.486892834628717,51.3955259819499 -0.486954048410635,51.3956319538635 -0.487038952763051,51.3957598981442 -0.487131175610325,51.3958851491989 -0.487501525150297,51.3963350214044 -0.487862905435743,51.3967551985811 -0.48799055766184,51.3968485432056 -0.488205820173732,51.3969915631786 -0.488609068959156,51.3972314927672 -0.488806057938314,51.3973608806937 -0.489619922472986,51.3978335462088 -0.49071613766792,51.3985077111128 -0.49089643473548,51.3986188109567 -0.491082268753176,51.398738163171 -0.491146723853051,51.3987893366865 -0.491322700105123,51.3989453299325 -0.491524475644112,51.3991062403403 -0.491611533160854,51.3992125424326 -0.491641628810249,51.3992596781085 -0.491763228231223,51.3994941707816 -0.491834619341503,51.3996839674409 -0.491860274709715,51.399779590793 -0.491937838553449,51.4002176776041 -0.49194673759046,51.4004695090692 -0.491915759892851,51.4006256241397 -0.491860879766537,51.4007660589291 -0.491634943478075,51.401166077482 -0.491467093849222,51.4015478739052 -0.491250372767232,51.4021898383274 -0.49118562327166,51.4023238527574 -0.491144836880618,51.4024717507791 -0.491141700340069,51.4025670035007 -0.491140906122801,51.4028071126726 -0.491155634821708,51.4031013621216 -0.491169445479281,51.4032507716607 -0.491208460099854,51.4033763232449 -0.49136176760818,51.4036560852913 -0.491493535992983,51.4038448610614 -0.491668970568361,51.4040611690179 -0.491845412351222,51.4042036831606 -0.492040549033306,51.4043905771308 -0.492256691869605,51.404637973475 -0.49246430364265,51.4047952712134 -0.492664392704865,51.4050082987679 -0.492948390811609,51.4053770314996 -0.493030564642508,51.4057656417415 -0.493067297095083,51.4062202835591 -0.493094496945467,51.4067052772564 -0.493071720169749,51.4072247796378 -0.49301816080174,51.4077141291217 -0.492860113171681,51.4082804362954 -0.492697979509911,51.4089240040129 -0.492545428112697,51.4094094709036 -0.492488693182168,51.4099122632821 -0.492517272332422,51.4103083646034 -0.492666684449653,51.4108371822952 -0.492901188128025,51.4113599929966 -0.493149614842575,51.4117624279238 -0.493203011998266,51.4118872641491 -0.493306691050739,51.4120153547673 -0.493461034092988,51.4121747519484 -0.493486160431048,51.412196650565 -0.49354900701489,51.4122540947573 -0.493642759185698,51.4123344110445 -0.49411891808037,51.4126768425009 -0.494382892452205,51.4128268592366 -0.494473590488443,51.4128702774357 -0.494568378013195,51.4129155456963 -0.494668854775029,51.4129644821483 -0.494861778342502,51.4130469708028 -0.495511276458554,51.4133250981191 -0.495663073588078,51.4133854809145 -0.496004473680668,51.413499630795 -0.496318559943571,51.4136151359031 -0.496702987470153,51.4137297451226 -0.49728987550613,51.4138569288267 -0.497473970548666,51.4139015425319 -0.497965577398498,51.4140381983154 -0.498115391332002,51.4140760786281 -0.498536998182866,51.4141093506882 -0.49892550618513,51.4141467815255 -0.499206690172157,51.4141233244969 -0.49951498228904,51.4141083943711 -0.499771924327363,51.4140793208926 -0.500001361590858,51.4140103397309 -0.500249218856611,51.4139074325656 -0.500427118852905,51.4137864584825 -0.500739830551314,51.4134154940974 -0.500800477405092,51.4132760277956 -0.500823666553213,51.4130964381526 -0.500790315683554,51.4128837603896 -0.500674851623398,51.4126332636131 -0.500306187880254,51.4119900863698 -0.500153939059768,51.4116356449884 -0.500117296671549,51.4115236113134 -0.500102141987918,51.4113274389443 -0.500165065628025,51.4111618421859 -0.500293167901576,51.4109826953938 -0.500460106856897,51.4108014395068 -0.500644427164138,51.4107085055726 -0.500894946135669,51.4106540858676 -0.501167806480702,51.4106198193116 -0.501446101577966,51.4106404601869 -0.502099336777301,51.4106739838705 -0.502460112127307,51.4106776957305 -0.502749698839384,51.4107047701936 -0.503243971179363,51.4108028702772 -0.503379262265221,51.4108423556829 -0.503538351024892,51.410904619628 -0.50369651301096,51.4110351942316 -0.503768268354954,51.4111287963609 -0.503786914841365,51.4112620846838 -0.50373652602079,51.411396379044 -0.503560043635677,51.4117358298013 -0.503383809172639,51.412024040966 -0.503092214234463,51.412366516057 -0.502978715101307,51.4124945202801 -0.502699243801813,51.4127742202147 -0.502397952754852,51.4130176807814 -0.502137302203653,51.413338074119 -0.501795991147271,51.4138804739319 -0.501707315517575,51.4141301569718 -0.501656862289535,51.4143966004681 -0.501642170146994,51.4145376431819 -0.501633288241801,51.4146786702601 -0.501655029327066,51.4148911992157 -0.501736344706764,51.4150441668823 -0.501882234105868,51.4152421011833 -0.502128968119121,51.4154817786126 -0.502680977720826,51.415886274317 -0.503047719586118,51.4161041091519 -0.503618333478225,51.4163352446984 -0.504283021430674,51.4166341923581 -0.504695194502246,51.4168265319622 -0.505154769685059,51.4169798290132 -0.505384108582564,51.4170484701293 -0.505827351969541,51.4171718902229 -0.506370640488364,51.4173109671656 -0.506821657228016,51.4173743393947 -0.50704114651598,51.4173924186306 -0.507259241342007,51.4174059852816 -0.507685372154619,51.4173925341778 -0.508085180455792,51.4173498888291 -0.508552175624254,51.417272228308 -0.509002422078733,51.4171808677846 -0.509454896292877,51.4171084124931 -0.509953286408286,51.4169986910934 -0.510390284550811,51.4169134495945 -0.510892563406166,51.4169027532586 -0.511218058886716,51.4168880104011 -0.511541314653645,51.416898409789 -0.511969559600888,51.4170422924317 -0.512199690176132,51.4171307082088 -0.512428223777769,51.4172208108943 -0.512595809545317,51.4173766645137 -0.512850980513008,51.4177566675355 -0.512922975926502,51.4179752256157 -0.512965328788756,51.4181754271438 -0.512975220344934,51.4184039843677 -0.512944989575149,51.4186265488523 -0.512931481900047,51.4188197494829 -0.512875153715052,51.4190024269018 -0.512760079299285,51.4192267021985 -0.512710349775507,51.4193412306153 -0.512633863011633,51.4195712983585 -0.512528386273895,51.4196716349557 -0.512333784421923,51.4200405351381 -0.511785294069021,51.420851825389 -0.511538362089968,51.4211921911594 -0.511301921841454,51.4214760536602 -0.511096631507101,51.4217755940692 -0.510865231630308,51.422079296708 -0.510710967076845,51.4223120606295 -0.510351506304172,51.4230160710534 -0.510183836407072,51.4233070974003 -0.510085000412866,51.4235126967651 -0.510021873351022,51.4236413479304 -0.509943365421174,51.4238454080562 -0.509848102083656,51.4241634253669 -0.509791922893464,51.4246068990369 -0.50971955634488,51.4249756404025 -0.509704225203396,51.4250932126859 -0.50968171985787,51.4256972227872 -0.509633042089483,51.4262199931094 -0.509644733661725,51.4263891507449 -0.509658140650266,51.4265530264641 -0.509688232194917,51.4267763573383 -0.509703098228091,51.4270265536437 -0.50990815330725,51.4285066426993 -0.510037096610606,51.4290091069469 -0.510205539700356,51.4293584360326 -0.511086604941033,51.4291600819968 -0.511359882814886,51.4291635541995 -0.511411010831076,51.4292253342084 -0.511499912004655,51.4291905047075 -0.511534963953078,51.4293527667507</coordinates></LinearRing></outerBoundaryIs></Polygon>
  </Placemark>
