  <Placemark>
	<Style><LineStyle><color>ff0000ff</color></LineStyle><PolyStyle><fill>0</fill></PolyStyle></Style>
	<ExtendedData><SchemaData schemaUrl="#Wards__December_2019__Boundaries_EW_BFE">
		<SimpleData name="objectid">824</SimpleData>
		<SimpleData name="wd19cd">E05001121</SimpleData>
		<SimpleData name="wd19nm">Howdon</SimpleData>
		<SimpleData name="wd19nmw"></SimpleData>
		<SimpleData name="bng_e">431677</SimpleData>
		<SimpleData name="bng_n">567647</SimpleData>
		<SimpleData name="long">-1.50633</SimpleData>
		<SimpleData name="lat">55.002392</SimpleData>
		<SimpleData name="st_areashape">2387708.34138789</SimpleData>
		<SimpleData name="st_lengthshape">6773.60367705262</SimpleData>
	</SchemaData></ExtendedData>
      <Polygon><outerBoundaryIs><LinearRing><coordinates>-1.48618721197781,54.9997185391448 -1.48657924847155,55.0002386393428 -1.48683050266796,55.0005191792215 -1.48715004143836,55.000843127158 -1.48729992483631,55.0009768060134 -1.48753357153739,55.0011628518074 -1.48859141471568,55.0019473446568 -1.49193288993601,55.0042617602136 -1.49360670027791,55.0054378550355 -1.49468994399096,55.0062106302553 -1.49597045036106,55.0070885122053 -1.49663116844527,55.0076457116934 -1.49691821084108,55.0079506331371 -1.49709371868784,55.0081642693728 -1.49718592305034,55.0082967991595 -1.49730235368636,55.0084922260217 -1.49776960512674,55.0091411677467 -1.50079991579854,55.0085101834816 -1.5026090491214,55.008124001004 -1.5074792244674,55.0071391353096 -1.50971437122212,55.0066817139696 -1.51510925463817,55.0055791625562 -1.51901169385652,55.0047948016439 -1.52402695672897,55.0037577284828 -1.52382905586423,55.0034325530527 -1.52375903021165,55.0032821612303 -1.52376087357308,55.003125850441 -1.52379037202254,55.0030072904679 -1.52372947851858,55.0030007640035 -1.52366846779683,55.002872956737 -1.52359767859574,55.0027765534881 -1.52350538076039,55.0026458390526 -1.52354035825191,55.0024671991232 -1.52354156753457,55.0023646995562 -1.52348814351874,55.002249498224 -1.52342122429284,55.0022294721974 -1.52336640312688,55.002101689003 -1.52327347129744,55.0020248737125 -1.52315209949241,55.0019767860614 -1.52312630300878,55.0017817377249 -1.52304339303959,55.0017841084964 -1.52302061474117,55.0017264332657 -1.5229054869872,55.0016846575442 -1.52276647574726,55.0016679436685 -1.52265006623463,55.001603703191 -1.52251188224282,55.0015169178549 -1.52241896517721,55.0014500741507 -1.52243135554749,55.0013287525495 -1.52234893517345,55.0012897994038 -1.52233854301884,55.0012421455946 -1.52238276847859,55.0011973997782 -1.52227977857431,55.0010558618031 -1.52219625920346,55.0009791725121 -1.5222030825651,55.0009252966096 -1.52224747850917,55.0008769587731 -1.52224849969468,55.0007906285145 -1.5221485571657,55.0007839483861 -1.52215606075327,55.000672579787 -1.52212213687078,55.000631121502 -1.52220655870165,55.0006314522219 -1.52225079493739,55.0005965887337 -1.5222747158984,55.0004267996536 -1.52238174774067,55.0003571461634 -1.52249944974638,55.0003225702055 -1.52253925743855,55.0002589411216 -1.52252770005956,55.0001789409913 -1.52260215458033,55.000095593111 -1.52269099750741,54.999994425101 -1.52289930718405,54.9998289526207 -1.52292895207797,54.9996979074351 -1.52301235604885,54.9996533159455 -1.52310865180116,54.9995647539826 -1.52312032836948,54.9995036205178 -1.52327640110055,54.9993955286879 -1.52335666816699,54.9993545173951 -1.52350532309875,54.9993398260607 -1.52368231943313,54.9993045822876 -1.52410819583214,54.9992478510614 -1.5241391559162,54.9992785160135 -1.52443589379816,54.9992976411527 -1.5245903244893,54.9993287872723 -1.52476071031237,54.9993294511796 -1.52478790504783,54.9992747564329 -1.52510215189182,54.9991420342416 -1.52521581711184,54.9990445547025 -1.525327967459,54.9989443741933 -1.52553790315548,54.9987708186136 -1.52586378453984,54.9985797454215 -1.52588081141983,54.9984576339915 -1.52594249240889,54.9982646357256 -1.52600714681856,54.9982136798591 -1.52596414053599,54.998155118459 -1.52596126763818,54.9979934019695 -1.52590946692425,54.9978826116786 -1.52591802316908,54.9978233529166 -1.52592086096795,54.9974495540226 -1.52610280044812,54.9973873753534 -1.52624427345856,54.9973249493981 -1.52643756040768,54.9972403550228 -1.52647688313701,54.9972171506716 -1.52647716724237,54.9971928961524 -1.52647894659604,54.9970409891042 -1.52636765596917,54.9970684961266 -1.52619818494193,54.9971226387132 -1.52606025112088,54.9971580370137 -1.5259678599053,54.9971675601737 -1.52587874129334,54.9971726037686 -1.5258022627934,54.997166017935 -1.52572417035907,54.9971540358396 -1.52564936431219,54.997136675636 -1.52553733829855,54.9970949159002 -1.5253912429223,54.9970241849121 -1.52525788959984,54.9969329311675 -1.52514306517544,54.9968552242519 -1.52506539879866,54.9968180891427 -1.52496731762726,54.996785366701 -1.52484245252593,54.9967615224863 -1.52471913800294,54.9967484649619 -1.52452397266982,54.9967296474687 -1.52439587886162,54.9967174687114 -1.52422120331979,54.9966880406011 -1.52412442582196,54.9966759836976 -1.52404945213326,54.9966729962226 -1.52397128994015,54.996678081168 -1.52384746529517,54.9966973622029 -1.5236751955216,54.9967263361069 -1.52323038076953,54.9968064395456 -1.5231268539606,54.9968311891193 -1.52301547789586,54.9968657891691 -1.52290090227162,54.9969093610339 -1.52279712046063,54.9969556708854 -1.52270937967418,54.9969750910205 -1.52260452987405,54.9969917500643 -1.52253880232756,54.9969914928145 -1.52246848862585,54.9969867253603 -1.52239208535607,54.9969738491133 -1.52225493437898,54.9969427678512 -1.52151749321347,54.9967772734284 -1.52122287572305,54.9967113446806 -1.52114032729563,54.9966840700524 -1.52104075703909,54.9966468463772 -1.52096137671165,54.9966132946045 -1.52091477475189,54.9965870596065 -1.52085899943993,54.996551804126 -1.52079672803137,54.9965210153159 -1.520737658814,54.9965028152831 -1.52064256717945,54.9964790846255 -1.5205613752732,54.9964679847543 -1.52043963025704,54.9964531327092 -1.52033967590871,54.9964482474886 -1.52007088493922,54.996443596645 -1.51886604196057,54.9964163909866 -1.51839100722594,54.9964037364667 -1.51814725113024,54.9963964852254 -1.51803008120596,54.9963869489019 -1.51790522222635,54.9963738783439 -1.51779443199668,54.9963590660304 -1.51774760716192,54.996351694619 -1.51700176349285,54.9962337520736 -1.51626220515705,54.9961185257367 -1.51502034844333,54.9959221524602 -1.51473178142455,54.9958688998511 -1.51454472288595,54.9958304240897 -1.51410135709004,54.9956497939483 -1.51350250456726,54.9956671702311 -1.5126990131348,54.9956720485413 -1.51181134872356,54.995656819441 -1.51118879037082,54.9956947533023 -1.51083172673027,54.9957536014595 -1.51048229752279,54.9958204760643 -1.51001506842857,54.9959407777338 -1.50991794811895,54.9959574559919 -1.50982548863098,54.9959723565552 -1.50970028490082,54.9959880240484 -1.50954837188056,54.9960062789869 -1.50868305057777,54.9960819426257 -1.50819325441805,54.9961284808288 -1.50740928282178,54.9962016776843 -1.50641090025752,54.996165300842 -1.50467216012565,54.9960818904114 -1.50409063612719,54.9960831209274 -1.50248001480336,54.9963865877361 -1.50063174229757,54.9966881617034 -1.49949046585542,54.9968362044513 -1.49867118444996,54.9969694799864 -1.49637892081304,54.997534180615 -1.49376618042146,54.9980778349153 -1.49211919625263,54.9984007773831 -1.49099949168654,54.9985686852521 -1.49052973101038,54.9986269143421 -1.4890685422205,54.9987169257996 -1.48883173890524,54.9987806155861 -1.48842227036189,54.9988912851406 -1.48782482264086,54.9991583777606 -1.48719307125924,54.9994262218817 -1.48666244735649,54.9995964762108 -1.48618721197781,54.9997185391448</coordinates></LinearRing></outerBoundaryIs></Polygon>
  </Placemark>
