  <Placemark>
	<Style><LineStyle><color>ff0000ff</color></LineStyle><PolyStyle><fill>0</fill></PolyStyle></Style>
	<ExtendedData><SchemaData schemaUrl="#Wards__December_2019__Boundaries_EW_BFE">
		<SimpleData name="objectid">5627</SimpleData>
		<SimpleData name="wd19cd">E05011356</SimpleData>
		<SimpleData name="wd19nm">Cheetham</SimpleData>
		<SimpleData name="wd19nmw"></SimpleData>
		<SimpleData name="bng_e">384127</SimpleData>
		<SimpleData name="bng_n">400372</SimpleData>
		<SimpleData name="long">-2.24075</SimpleData>
		<SimpleData name="lat">53.499809</SimpleData>
		<SimpleData name="st_areashape">3369051.24878332</SimpleData>
		<SimpleData name="st_lengthshape">8986.01312196809</SimpleData>
	</SchemaData></ExtendedData>
      <Polygon><outerBoundaryIs><LinearRing><coordinates>-2.24864452058951,53.4882412769418 -2.24846524758889,53.4882470409044 -2.24802074049748,53.488263239671 -2.24755659383648,53.488278579551 -2.24730342337247,53.4882907848145 -2.24703376266791,53.4883093136292 -2.24684858133922,53.4883249718123 -2.24670093103436,53.48834145108 -2.24648412040973,53.4883670584081 -2.24624762072798,53.4884043870985 -2.24602328742567,53.4884398935368 -2.24565149903801,53.4885045470782 -2.24527356915527,53.4885817022536 -2.24498461844476,53.4886389050521 -2.24471520187855,53.4887005595373 -2.24447730984732,53.4887558598417 -2.24390391762572,53.4888990954048 -2.24349618266214,53.4890023650172 -2.24324483032466,53.4890729651901 -2.24297541435762,53.4891356056062 -2.24273147609591,53.4891774360648 -2.24257497746102,53.4892118996692 -2.24225287496471,53.4892970192502 -2.24199105532989,53.4893631458222 -2.24181951773423,53.4894192046549 -2.24165392643204,53.489450180986 -2.24160536106461,53.489388187853 -2.24158569541324,53.4893603718968 -2.24151445926152,53.4892886299799 -2.24146900953046,53.489250082825 -2.24142047057017,53.4891926726882 -2.24123851991229,53.4890114372728 -2.24110365102129,53.4888715319461 -2.24093528260874,53.488696559464 -2.24020572805193,53.4889362409031 -2.2400688083631,53.4889832420037 -2.23948218623116,53.4891857906969 -2.23876610083557,53.4894145647773 -2.23802584565012,53.48963358757 -2.23771131719395,53.4897195792175 -2.23688349598059,53.489925291638 -2.23658247178735,53.489982499009 -2.23638224421594,53.4900206359545 -2.2356295064534,53.490188451134 -2.23370906464303,53.4906541908466 -2.23295188152418,53.49083008784 -2.23232711278271,53.4909517179164 -2.2307370802525,53.4912424434101 -2.22915185791765,53.4915762714212 -2.22933733186309,53.4918887120214 -2.22938920196185,53.491990241664 -2.22940900798577,53.4920450177834 -2.22950559830084,53.4920511218786 -2.22983738887636,53.4920954110577 -2.23055083513134,53.4921892832555 -2.23125965092586,53.4922769599669 -2.23135472895024,53.4923019358604 -2.23140175805338,53.4923575567473 -2.23144146515818,53.4924608171424 -2.23145834160436,53.4925021195463 -2.2310350687999,53.4925469718454 -2.23075640717241,53.4925843537019 -2.23062992775406,53.4926125445701 -2.23043279350486,53.492674030354 -2.23026443796303,53.4927489383746 -2.23010657910263,53.4928346093236 -2.22998500149331,53.4929194010754 -2.22988444059315,53.4930067579044 -2.22982619924269,53.4931066132567 -2.22975779077034,53.4932568998864 -2.2295875621518,53.4935610401856 -2.22942478456774,53.4938417132141 -2.22933067330584,53.4939965405737 -2.22926479447521,53.4940865266234 -2.22918389389916,53.4941793261458 -2.22910292958168,53.4942603544654 -2.22896201955832,53.4944026022631 -2.22888708576362,53.4944728363039 -2.2288346274672,53.4945395225437 -2.22878995155296,53.4946438437106 -2.2287411002776,53.4948039758241 -2.22874599852035,53.4948596794888 -2.22877362680268,53.4949593694075 -2.22889858979007,53.4952252008408 -2.22900071739228,53.4954272769568 -2.22905566912332,53.495546683481 -2.2290863880291,53.4956661365631 -2.22909902950039,53.4957749308385 -2.22908304693661,53.4958765021935 -2.22904138709082,53.495987108639 -2.22895774594224,53.4961257407886 -2.22887993929267,53.4962400110827 -2.22879477584552,53.4963732556614 -2.22875446006671,53.4964335385235 -2.2286913466781,53.4964839805291 -2.2286462675331,53.4965137198841 -2.22858908909811,53.4965353955282 -2.22849267636426,53.4965409716703 -2.22839320187907,53.4965321765919 -2.22828148689497,53.4965117235001 -2.2281577772164,53.4964796109919 -2.2280550277397,53.496439371352 -2.22794927135596,53.4963946440548 -2.22785254561364,53.496341722617 -2.22783137871476,53.4963345750271 -2.22779066707805,53.4963445365342 -2.22772000644715,53.4963780096886 -2.22762095070448,53.4964473901208 -2.22757585641723,53.4964744334638 -2.22752488247571,53.49651766271 -2.22748585983134,53.4965644644979 -2.22747107078785,53.496611219124 -2.22748651844946,53.4966876587822 -2.22752630037598,53.496782833328 -2.22762926789138,53.4968868729428 -2.22770658861702,53.4969595109248 -2.22785517375771,53.497111177414 -2.22792644883412,53.4971919146103 -2.22793406947135,53.4972224517394 -2.22793293970284,53.4972898474133 -2.22790756843467,53.4973331186323 -2.22788207149755,53.4973529356551 -2.22780243054281,53.4974043076103 -2.22765205903188,53.4974764817398 -2.22748221232714,53.497555881799 -2.2274011069903,53.497612647539 -2.22728416779607,53.4977315736794 -2.2272181347094,53.4977946006564 -2.227128086539,53.4978756448386 -2.22702603071787,53.4979424247015 -2.22689374399799,53.4980271436185 -2.22669988167328,53.4981254585695 -2.2264516721863,53.498240949094 -2.22620368572268,53.4983753997715 -2.22612712038767,53.4984213725785 -2.2261108844296,53.4987809281523 -2.22607933066185,53.4993688423189 -2.2260647911021,53.4997436704479 -2.22606748222322,53.4999693001554 -2.22609312258327,53.5002568894321 -2.22611962662111,53.5004257736206 -2.22615666244723,53.5005884376 -2.22621658819883,53.5008013791182 -2.22628846583766,53.5009944397236 -2.22641517945739,53.5012845326301 -2.22651110039205,53.5014641582432 -2.22657194111693,53.5015682790932 -2.22669663355909,53.5017586324455 -2.22685467344226,53.5020018489725 -2.22696407105297,53.5021670715666 -2.22721790145102,53.5025404909525 -2.22741540599294,53.5028403325693 -2.22759934864711,53.5031141413221 -2.22769969033149,53.5032586226181 -2.22781192728151,53.5033959820312 -2.22794247228115,53.5035628702943 -2.22806373842476,53.5036912264664 -2.2282062596775,53.5038428147736 -2.22834268630145,53.5039702437236 -2.22854862194225,53.5041477695695 -2.228669855593,53.5042464713948 -2.22881514180636,53.5043567193837 -2.22898773131897,53.5044812918363 -2.22920556447436,53.5046283327696 -2.22960363418011,53.5049107118685 -2.22983373263722,53.5050720152504 -2.2300122848658,53.505194867884 -2.23024080444493,53.5053624627816 -2.23042412350753,53.5055158574032 -2.23061492790038,53.5056736407353 -2.23077541866366,53.5058118030721 -2.23092543838911,53.5059445034054 -2.23111038744349,53.5061221564202 -2.23134690573356,53.5063643164611 -2.23148950938308,53.5065267751159 -2.23160783425888,53.5066595361133 -2.2317460632407,53.5068399745001 -2.23185088899975,53.5069817472496 -2.23194805986521,53.5071101464752 -2.23207265549859,53.5072977100893 -2.23218673629832,53.5074719039247 -2.23231761792933,53.5076945891713 -2.23242412126798,53.5078696065041 -2.23256855090125,53.5080913671609 -2.23268555041887,53.5082528847232 -2.23278736514798,53.5083884632242 -2.23293922927159,53.5085822620304 -2.23310150893845,53.5087707394403 -2.23324558765305,53.5089269026631 -2.23333514420579,53.5090255731626 -2.23367942868427,53.5091228454824 -2.23405252752535,53.5092372247534 -2.23494069198016,53.5095077534342 -2.23575923038762,53.5097524453311 -2.23659294066428,53.5099962018304 -2.23743880962237,53.5102561040402 -2.23774544599747,53.5103534408996 -2.23804753616259,53.5104382057395 -2.23848705173709,53.5105749034114 -2.2387755937162,53.5106596934565 -2.23933440107905,53.5108284991089 -2.23945827217653,53.5108579039212 -2.23966954470675,53.5108871341975 -2.23991984926088,53.5108929219385 -2.24018528444159,53.5108923885913 -2.24045668118825,53.5108909438068 -2.24068882476729,53.5108734036038 -2.24108353643993,53.5108249822249 -2.24147669807253,53.5107450220585 -2.2418019480514,53.5106598966545 -2.24210296348638,53.5105766162759 -2.24242054398292,53.5104771276325 -2.24271109746782,53.5103910814117 -2.24334331893827,53.5102010909182 -2.24362629450082,53.510116855598 -2.2437181496935,53.510091507658 -2.24389446096582,53.510332060127 -2.24411623055624,53.5106075646829 -2.24423339302709,53.5107880316649 -2.24438251288557,53.5110339412886 -2.24446772414205,53.5111497751222 -2.24467889908484,53.5114405762254 -2.24497679620217,53.5118282478854 -2.24513764604793,53.5120157234737 -2.24518186389264,53.5120939000164 -2.2452274841905,53.5121567078394 -2.24587323154231,53.5119593973964 -2.24644719348859,53.5116058776478 -2.24647271104375,53.5115896502173 -2.24657295636311,53.5114465668023 -2.24673626896952,53.511266421152 -2.24673555641266,53.5111442141888 -2.24670971442057,53.5111047298758 -2.24651800268349,53.5110835595209 -2.24657017505088,53.51096924048 -2.24657415977823,53.5108847646975 -2.24673772543934,53.5107486495333 -2.24711325844181,53.5105043553234 -2.24744231171558,53.5103067929933 -2.24760921341283,53.5102102972799 -2.24778144640137,53.510026538065 -2.24787430066926,53.5099176152308 -2.24794445357288,53.5097960701554 -2.24799792422687,53.5096494889575 -2.24808100035616,53.5094209835415 -2.24811569694721,53.5094227091868 -2.2483118824586,53.5094447665281 -2.24831938774079,53.5094312717813 -2.24832678368629,53.509420472911 -2.24858943133841,53.5094549719284 -2.24896207572572,53.5095054159939 -2.24921261239367,53.509531042068 -2.24927649791716,53.5091272615247 -2.24933914451817,53.5089986321561 -2.24946186541992,53.5088536126415 -2.24967615531128,53.5086150381482 -2.2503271082983,53.5080491807904 -2.25026376614882,53.5080385300112 -2.24887974857137,53.5078094950142 -2.24853866351205,53.5077535938357 -2.24885610106721,53.5071282320868 -2.24781456581877,53.5069128480712 -2.24742342847052,53.5067995383426 -2.2457658870356,53.5064694927447 -2.24576283546952,53.5064578166878 -2.24569177518791,53.5061658307753 -2.24564058435285,53.5061704294059 -2.24561424065421,53.5060436919883 -2.24566098252888,53.5060435958628 -2.24561330271744,53.5058819478956 -2.24556503557143,53.5056186700888 -2.2455242876518,53.5056232463045 -2.24549273444343,53.5056269056583 -2.24549101924968,53.5056098364512 -2.24547079397629,53.5054876696493 -2.24552195273773,53.5054776798568 -2.24543798672986,53.5050391594083 -2.24537475083659,53.5050455794855 -2.24535810452359,53.5050474113813 -2.24535033899697,53.5049944105365 -2.24533630556405,53.5049108697971 -2.24542975250995,53.5049052865089 -2.24542623390258,53.5048343053567 -2.24542461266324,53.5048118437597 -2.24570952579976,53.5048112579435 -2.24588792884048,53.5046220965559 -2.24610816394418,53.5043798318797 -2.2463898298757,53.5040781330882 -2.24656639230054,53.5038512335443 -2.24663657117663,53.5037351703475 -2.24671224845392,53.5035174646654 -2.24678851222154,53.5031658678221 -2.2468902113873,53.5027638971348 -2.24707647619941,53.5023905064649 -2.24797870266565,53.5027589460562 -2.24842910822325,53.5029593845407 -2.24879046886244,53.5031302630644 -2.24924970806215,53.5032884458469 -2.25079452192539,53.5037220175067 -2.25081554627219,53.5037040017512 -2.25153283997924,53.5039002748204 -2.25267419428964,53.5031409986395 -2.25248354180459,53.5030218860677 -2.25243962652024,53.5029950208214 -2.25244717626483,53.5029896127826 -2.25239261369549,53.5029492907097 -2.25237112872067,53.5028899389005 -2.25237244303718,53.502860283097 -2.25245632649843,53.5027729429858 -2.25250754631049,53.5027530671095 -2.25252255038104,53.5027467454724 -2.25305007444617,53.5022215783745 -2.25323002958677,53.5020486701904 -2.25321925327253,53.5020136476308 -2.25321454763614,53.5019956850402 -2.25345592779435,53.5017641492788 -2.25380074757683,53.501432650596 -2.2537974627714,53.5014030044895 -2.25388142600761,53.5013092841772 -2.25392344574653,53.501289426247 -2.25410396892611,53.5012126646616 -2.25409335534605,53.5012046001236 -2.2539932788523,53.5011194449579 -2.25402637487143,53.5011040991731 -2.25423984186135,53.5010074095982 -2.25422622325592,53.5009957560223 -2.25463663976055,53.5008052861947 -2.25453214809559,53.500730025459 -2.25456822708519,53.5007146732259 -2.25453955086965,53.5007002659956 -2.25462671182582,53.5006632396361 -2.25459799296368,53.5006417342997 -2.25453593029274,53.5005942400379 -2.25453885974324,53.5005852480506 -2.25463120355414,53.5003972472588 -2.25482714581258,53.5003841624668 -2.25483160398254,53.500381456483 -2.25495360430311,53.5003713144201 -2.25430078521044,53.4998532206375 -2.2542581585752,53.4997922071537 -2.25425606789291,53.4996923777174 -2.25429328305972,53.4995970493937 -2.25437873601461,53.4995240831184 -2.25444780667516,53.4994763118822 -2.25457252877834,53.4994229418249 -2.25515177842715,53.4992204322615 -2.25542250647567,53.499119126694 -2.25540124214962,53.4990967069674 -2.25521006064651,53.498887741636 -2.25493557281857,53.4986114678708 -2.25491565954425,53.4985656823991 -2.25477922408843,53.4984274985418 -2.2546686159676,53.4983468597023 -2.25423470538311,53.4978903041472 -2.254221179374,53.4978939271664 -2.25401944375336,53.4976848918495 -2.25402968520476,53.4976309547942 -2.25414106699102,53.497592080392 -2.2548556182413,53.4973433701849 -2.2540046632399,53.496461583817 -2.25341303714248,53.4958561018536 -2.25325135158474,53.4957746697792 -2.25269188833368,53.4954953929481 -2.25265255136123,53.4954640246778 -2.25263746023945,53.4954550705075 -2.25258586882815,53.4954111476083 -2.25250393823916,53.4953231673663 -2.25248406695246,53.4952630032587 -2.25248352678554,53.4951722468686 -2.25249771335448,53.4950292510056 -2.25257959432794,53.4948583480626 -2.25292193766441,53.4941394781518 -2.25345935632633,53.4934983745451 -2.25348181348473,53.4934712801951 -2.25266949615357,53.4932591183628 -2.25238127858892,53.4931941241246 -2.25198727958144,53.4931049983533 -2.2516278417404,53.4929754517043 -2.25150818143268,53.4928741598535 -2.25138690376694,53.4927718846458 -2.25090090915273,53.4923999026504 -2.25067637834626,53.4921522735901 -2.2506747443713,53.4921280153038 -2.25065843983721,53.49191319644 -2.25079059815585,53.4913305583282 -2.25082080385601,53.4910779074428 -2.25078545748211,53.4907085813761 -2.25064132728494,53.4902881752007 -2.25059868792613,53.4902217706061 -2.25048791358067,53.4900854204381 -2.2504393352571,53.4900234315608 -2.24998303497127,53.4898320940238 -2.24974134438091,53.4897265689156 -2.24962942646433,53.4896701032144 -2.24932853191775,53.4894910179028 -2.24910744225525,53.4893161686653 -2.24905887919364,53.4892560656877 -2.24897901232158,53.4887501591375 -2.24890965368073,53.4884906166702 -2.24888064907208,53.4884178029693 -2.24878356973343,53.4883056841989 -2.24864452058951,53.4882412769418</coordinates></LinearRing></outerBoundaryIs></Polygon>
  </Placemark>
