  <Placemark>
	<Style><LineStyle><color>ff0000ff</color></LineStyle><PolyStyle><fill>0</fill></PolyStyle></Style>
	<ExtendedData><SchemaData schemaUrl="#Wards__December_2019__Boundaries_EW_BFE">
		<SimpleData name="objectid">2092</SimpleData>
		<SimpleData name="wd19cd">E05005154</SimpleData>
		<SimpleData name="wd19nm">Coal Clough with Deerplay</SimpleData>
		<SimpleData name="wd19nmw"></SimpleData>
		<SimpleData name="bng_e">382929</SimpleData>
		<SimpleData name="bng_n">430033</SimpleData>
		<SimpleData name="long">-2.26045</SimpleData>
		<SimpleData name="lat">53.766369</SimpleData>
		<SimpleData name="st_areashape">10895704.5067837</SimpleData>
		<SimpleData name="st_lengthshape">22212.9453802637</SimpleData>
	</SchemaData></ExtendedData>
      <Polygon><outerBoundaryIs><LinearRing><coordinates>-2.26744798444398,53.7424880924218 -2.26715441253556,53.7425786007962 -2.26694125306273,53.7426743196677 -2.26688830792542,53.7427031908122 -2.26683404313937,53.7427410501283 -2.26672997665046,53.7428303269852 -2.26668328205606,53.7428789513575 -2.26660504492573,53.7429806603607 -2.26650102241369,53.743077034706 -2.2665071534804,53.7430779198848 -2.26657852399663,53.7430958217506 -2.26631493412552,53.7433812443687 -2.26616753318242,53.7435568761033 -2.26594879526254,53.7437398543439 -2.26576641389812,53.743900198186 -2.2656489429424,53.744025354926 -2.26547068710299,53.7441462428399 -2.26521086912684,53.7442986706502 -2.26486054388747,53.7445115897918 -2.26441649824652,53.7447912055349 -2.26406008447784,53.7450310915011 -2.26399481687099,53.7450096703108 -2.26390663525859,53.7449829076077 -2.26379047066568,53.7450586402636 -2.26362287561902,53.7451866006517 -2.26347921810677,53.7452444228853 -2.26329165017914,53.7453177062041 -2.26317433129066,53.7454689180205 -2.26313844717483,53.7455480682257 -2.26302325778261,53.7458000005005 -2.26295785665793,53.7459970141333 -2.26290667996797,53.7460699080031 -2.2628465740292,53.7461545021507 -2.26282148422398,53.7462606742512 -2.26291308911694,53.7463548201086 -2.26294654715955,53.7463870944352 -2.26298623443232,53.7464157599204 -2.26331597410711,53.7465246592671 -2.26348944502613,53.746634887812 -2.26371727785238,53.746939980348 -2.26395864370047,53.7472099995519 -2.26402415922657,53.7472700576098 -2.26416888026621,53.7473802585332 -2.26424207433795,53.7474286188274 -2.26439097441261,53.7474875942447 -2.26468123092962,53.7475786952826 -2.26477847047572,53.7476135238801 -2.26510351832063,53.7477098482151 -2.26536652872888,53.7478019056771 -2.26567930524444,53.7478748941078 -2.26587957059575,53.7478906243666 -2.2661130249223,53.7478757297564 -2.26642064541815,53.7478453959301 -2.26670605497106,53.7479004710342 -2.26684930112655,53.7480133683777 -2.26679682192135,53.7480970487269 -2.2664378733009,53.7481761088146 -2.26635927843707,53.7482032399515 -2.26628969752209,53.7482321477252 -2.26619003659748,53.7483087439347 -2.26605861798891,53.7483854113751 -2.26596479778076,53.7484170681848 -2.26586184109005,53.748447037453 -2.26534101155395,53.7485712900673 -2.26511221361235,53.7485915638536 -2.26449503790722,53.7486055053001 -2.26421500512389,53.7486699186512 -2.26400001462965,53.7487386804488 -2.26340743162001,53.7487867963805 -2.26304377094581,53.7488343179222 -2.26271384702599,53.7489383723958 -2.26261802864071,53.748890959489 -2.26245181476615,53.7487429752549 -2.26231604090804,53.7486039984833 -2.26215468953311,53.7485135988708 -2.26196334776693,53.7484654952847 -2.26174968730168,53.7484875262966 -2.26152430325083,53.748574277725 -2.261473042604,53.7486345915995 -2.2613023875349,53.7487364974641 -2.2611872204275,53.7487539106676 -2.26095081998703,53.7487786852302 -2.26083289681414,53.7488355494899 -2.26058120230506,53.7490751972575 -2.26048288374234,53.7491284243173 -2.26027564221091,53.7491980613982 -2.26016352799268,53.7492243623648 -2.26010596756733,53.7492370666699 -2.25998939141901,53.7492696669093 -2.25974450724978,53.749398777864 -2.25934362046288,53.7495541926311 -2.25925584120464,53.7495732515939 -2.25916955757206,53.7495914093665 -2.25906647462499,53.7496024138867 -2.25880583527219,53.7496308308157 -2.25863182844192,53.7496976978809 -2.25843545502513,53.7498276003833 -2.25825383998863,53.7498774106791 -2.25805061672356,53.7498697613933 -2.25762117326811,53.7498356409678 -2.25745301447083,53.7498575666207 -2.25713713779843,53.7500335483426 -2.25712398306745,53.7501108512831 -2.25713794155624,53.7501647328651 -2.25729152864029,53.7502335910754 -2.25769318673491,53.7504457732201 -2.2577693340978,53.7504869416476 -2.25782105201028,53.7505200769578 -2.25790083069571,53.7506637611928 -2.25759013401404,53.7509510621403 -2.25707091784955,53.7513477115341 -2.25691130137658,53.751540340507 -2.2567711369501,53.7516835973154 -2.2566882047692,53.7517601506717 -2.25651763683708,53.7518800208614 -2.25648152514204,53.7519251141541 -2.25634398536356,53.7520071749277 -2.25605414188208,53.7522316195103 -2.25598483621312,53.7523081432948 -2.25596424770803,53.752397141767 -2.25596602705644,53.7524429638914 -2.25599857184551,53.7525714750677 -2.25598581435651,53.7527143692033 -2.25587586168775,53.7528305148659 -2.25580490752344,53.7528828716803 -2.25572481913091,53.7529342583432 -2.25562348024941,53.7529865899091 -2.25552224905358,53.753036224777 -2.2553391401417,53.7531102949355 -2.25513484346145,53.7531755135931 -2.25489728590231,53.7532613795376 -2.25412659443204,53.7534787523317 -2.2539194336411,53.7535672474429 -2.2536219277411,53.7537691488202 -2.25351616351682,53.7538350552341 -2.25329375686929,53.7539253781456 -2.25315618115074,53.7540038419094 -2.25309607296266,53.7540929232051 -2.25297694304977,53.7542028856346 -2.25274122849575,53.7543471479061 -2.25246604134185,53.7544987711783 -2.25224239219017,53.7546331239396 -2.25194786030929,53.7548333071401 -2.25189212021847,53.7549008147864 -2.25169741175362,53.7550449889071 -2.25168527111605,53.7550432167795 -2.25160463630251,53.7550047494033 -2.25142615685167,53.7548317056872 -2.25098099547649,53.754456060829 -2.25075080488843,53.7542497888582 -2.25048261969816,53.7540462912251 -2.25026474069422,53.753869733706 -2.25013070403939,53.7537665916216 -2.24981699983775,53.7535614805415 -2.24949105806949,53.7533167680586 -2.24916823489253,53.7530909174896 -2.24904322362058,53.7529905408105 -2.24892585558341,53.7528928436309 -2.24897402926192,53.7528351472007 -2.24791051783432,53.7522568042671 -2.2475927077381,53.7520938366889 -2.24714286888825,53.7519321288901 -2.24700139792364,53.7518595495124 -2.2463046227981,53.7514862015004 -2.24613412107647,53.7513877118212 -2.24582057791561,53.7511825000638 -2.24537795578883,53.7509478993495 -2.24527359248126,53.7509976218451 -2.24521106706484,53.7509536314097 -2.24500991863707,53.7507878129695 -2.24470411273048,53.7505996541878 -2.24435563186481,53.7504044837442 -2.24410742400691,53.7502296835694 -2.24368400189353,53.7498961989036 -2.24344459422866,53.7496854384674 -2.24314905132373,53.7494533164007 -2.24277474165056,53.7492212630832 -2.24242045667455,53.7490565588447 -2.24225448993404,53.7491989529025 -2.24209727927727,53.7492990075379 -2.24176690192289,53.7495944834277 -2.24130504766338,53.749965699942 -2.24062453244722,53.7505602801512 -2.24032101746961,53.7507901049677 -2.23995580806521,53.7510991237393 -2.23973249118846,53.7512954513063 -2.23961760574318,53.7513649579438 -2.23928428065697,53.7516757076487 -2.23896730014926,53.7519369147164 -2.23865793101114,53.7521963989835 -2.23862768571895,53.7522207193538 -2.23856448967389,53.752035746548 -2.23851849108844,53.7519504768506 -2.23843275847742,53.7518040962105 -2.23830320269899,53.7516911378789 -2.23816783365188,53.7516330011715 -2.23805084278465,53.7515747388813 -2.23788974752795,53.7515220447447 -2.23762108758268,53.7514857371863 -2.23739641047656,53.7514439501772 -2.23716413282854,53.7514066708354 -2.2369302771843,53.7513334532024 -2.23623472814517,53.7511604178315 -2.23580187385734,53.751052546451 -2.23518674446248,53.7508820424672 -2.23454893631744,53.7507242498961 -2.23393833292982,53.7505339633734 -2.23374384857563,53.7504786332231 -2.23370891412787,53.7504697160057 -2.23336123909831,53.75038772678 -2.23324250428713,53.7503061008251 -2.23299606426671,53.750170900228 -2.23265402587203,53.7500223171367 -2.23242170534821,53.7499751446028 -2.23218002276265,53.7504052923444 -2.23186699119283,53.7511159209048 -2.2317590074249,53.7513282734478 -2.23171599365822,53.7515089627279 -2.23137804868921,53.7521037268768 -2.23132406138673,53.7522224374836 -2.23122975206324,53.7524437483894 -2.23115521737418,53.7526686163077 -2.23112399076363,53.7527881817743 -2.23108293902261,53.7530309556321 -2.23106792689646,53.753347358808 -2.23109678472732,53.7536376197099 -2.23140311801102,53.7547218322628 -2.23142700949003,53.7551990883551 -2.23143490384244,53.755270057096 -2.23149519655088,53.7554775925368 -2.23154766416389,53.755626648703 -2.23166895929078,53.7558978617746 -2.23172032884183,53.756142254017 -2.2317532788642,53.7563344772154 -2.23181203993638,53.7565357256688 -2.23184644130497,53.7567415133013 -2.23182934586596,53.7569293409379 -2.23183178648945,53.7570992484635 -2.23181739938613,53.7572340564787 -2.23185291072713,53.7573463953849 -2.23185466901236,53.7573931157174 -2.23184439758087,53.7574578297398 -2.23182391767104,53.7575989392641 -2.23181157370442,53.7578317737144 -2.23175658719752,53.7580422269663 -2.23165292907869,53.7582257285536 -2.23155849403246,53.758426373796 -2.23154028898386,53.758685276407 -2.23153761636521,53.7590393950182 -2.23152471939431,53.7591724025274 -2.2314865713877,53.7593980981601 -2.23141358016032,53.7596553105891 -2.23144469282537,53.7597864365454 -2.23141380598482,53.7599680898927 -2.23127663282766,53.7603799732564 -2.23132878373278,53.76049317812 -2.23128702158975,53.7609030799807 -2.23120718802717,53.7615530541986 -2.23116905567692,53.7620546904576 -2.23124959721919,53.762099461448 -2.23124825408157,53.7621282172907 -2.23123940850395,53.7621569875856 -2.23114112131822,53.7622281607744 -2.23113856022129,53.7623081357234 -2.23105681515087,53.7623398317055 -2.23104774943056,53.7623515298555 -2.23103616352952,53.7624503914095 -2.23092227089472,53.7627085800262 -2.23084850404281,53.7628039659903 -2.23082298348833,53.7628480432867 -2.23074524128026,53.7630621339837 -2.23056974010126,53.7634210765795 -2.23047204936599,53.7635785976914 -2.23024532669729,53.7640176072191 -2.23024278353513,53.7641011754625 -2.2301405027833,53.7642658936303 -2.2300047804842,53.7646732794382 -2.22988439998552,53.7648452205903 -2.22984333131929,53.7651112651576 -2.22982991053867,53.7651500179872 -2.22981335289433,53.7651868893583 -2.22973949059866,53.765266101937 -2.22972337230386,53.7653604789367 -2.22962004231046,53.765608761987 -2.22953258359823,53.7657176515747 -2.22938553132281,53.7659992634073 -2.22937690236164,53.7660910204417 -2.22934678769004,53.7661422947175 -2.2293467926067,53.7661431934996 -2.2292095873601,53.766281829912 -2.22903612443276,53.7664691455892 -2.22898362245582,53.7665896496517 -2.22893089282357,53.7666454591186 -2.22894654395296,53.7667398652793 -2.22886178104355,53.7667705768408 -2.22860916832055,53.766895056374 -2.22852742680229,53.7669293563223 -2.22837124247018,53.7669602035955 -2.2282801365233,53.7669289280816 -2.22806072060485,53.7670399553041 -2.22800448572751,53.7670264939369 -2.22791193113927,53.7670275685064 -2.22781084919489,53.7671168048623 -2.22752174782025,53.7672485403638 -2.2273449729822,53.767381050253 -2.22719052938528,53.7674334574967 -2.22716494729211,53.7674676502247 -2.22709143199085,53.7676124539255 -2.22710865809488,53.7677212338951 -2.22718179885738,53.7677839931131 -2.22730096608366,53.7679383160949 -2.22733795587694,53.7680470585845 -2.22744589499178,53.7680684197444 -2.22752104480756,53.7682246225834 -2.22741063027471,53.7683003988986 -2.22743973944432,53.7683398790036 -2.22757866262779,53.7684923675317 -2.22757258724778,53.7685022621953 -2.22750921690616,53.7685571935255 -2.2273712155756,53.7685745267736 -2.22728989300464,53.7686870885452 -2.22712089797283,53.7688482459689 -2.22679567015037,53.7690331516902 -2.22671844047723,53.7690701374176 -2.22653958121562,53.7690965330671 -2.2264985275413,53.7690687560246 -2.22643402410665,53.7692153390226 -2.22630968675892,53.7692155735886 -2.22611414354476,53.7692564661769 -2.22603929089934,53.7694327206107 -2.22584380409165,53.7694843056247 -2.22553810222105,53.7696269387206 -2.22613664302048,53.770041026446 -2.22660879053486,53.7703744817042 -2.22692091125473,53.7705851371515 -2.22724374209945,53.7708092506694 -2.22762466258277,53.7711104369871 -2.22797201535852,53.7713569645527 -2.22833577768386,53.771583692649 -2.22852341896976,53.7717667260602 -2.22861848141493,53.7719480490793 -2.22859353084231,53.7720982427902 -2.22848781501783,53.7724633391158 -2.22851584079308,53.7726016603703 -2.22855262154046,53.7726707776069 -2.22859402711714,53.7727390771008 -2.22864137724163,53.7727964934402 -2.22875871798635,53.7729103840792 -2.22882883156209,53.7729668581215 -2.22907235681452,53.7730958724704 -2.22907236172499,53.7730967703555 -2.22951364409143,53.7733350271769 -2.23014200195885,53.7736492992446 -2.23033848240253,53.7737756149368 -2.23043229269266,53.7740001589654 -2.23057279585843,53.7741840883548 -2.23072896336484,53.7744183953043 -2.23097774919058,53.7746821756955 -2.23120171057942,53.7748677410439 -2.23159163489933,53.77513394329 -2.23171197853101,53.7752227559087 -2.23191493019337,53.7754083618094 -2.23228542073064,53.775732109887 -2.23239834283841,53.7758577774485 -2.23245939886661,53.7759259483614 -2.2327360174903,53.7762633545573 -2.23281532654294,53.7763512581291 -2.23282145674575,53.7763512462242 -2.23282900826925,53.7763593189912 -2.23322789865667,53.7763217034977 -2.23368718020129,53.7762327515644 -2.23384634178402,53.7761920067474 -2.23396740478635,53.7761396543297 -2.23413895983375,53.7761671742189 -2.23431553606364,53.7762647709373 -2.23450262588253,53.776340781841 -2.23474114565615,53.7763960246774 -2.23501591945747,53.7764017765884 -2.23539530168037,53.7764100182961 -2.23558682250941,53.7764726305553 -2.23607635400552,53.7766450879629 -2.23644735555209,53.7767639539334 -2.23668156137772,53.7768740134298 -2.2367850017623,53.7769133449622 -2.23696291492885,53.7769803841269 -2.2372414330346,53.7768513418497 -2.23740622149499,53.7767439991149 -2.23743184999936,53.7767187900296 -2.23746804901963,53.776681877388 -2.23751211300457,53.7764220210421 -2.2375282624694,53.776335728325 -2.23760796063134,53.7762043831604 -2.23777753925019,53.7761258739441 -2.23791385695557,53.7760949635968 -2.23805930953672,53.7760641248572 -2.2384277890605,53.7760040885664 -2.23939357543342,53.7758628920473 -2.23947697489775,53.7758546382368 -2.24007144094515,53.7758022341157 -2.24085272619804,53.7757772162537 -2.24120101569237,53.7759050983179 -2.24133001103156,53.7759282015133 -2.24149403638074,53.7759512331808 -2.24164275334933,53.7759446440102 -2.2417047813112,53.7759184619638 -2.24174721367781,53.7759004049733 -2.24180762654926,53.775854457907 -2.24183012070727,53.7758067896266 -2.24185080555393,53.7757060211476 -2.24187877523868,53.7755666911177 -2.24188975682571,53.7753671019707 -2.24187236936786,53.7752377465554 -2.24189312235234,53.7751486604813 -2.2419362041673,53.7750048083965 -2.24204187918306,53.7749111471168 -2.2423071333762,53.7748512188949 -2.24250742487341,53.7748508143827 -2.24278519354546,53.7748781971605 -2.24319968561471,53.7749240816823 -2.24355656754413,53.7749808644837 -2.2437372506695,53.774985888653 -2.24408015747062,53.7749842939237 -2.24424550978127,53.7749776678125 -2.24446379478925,53.7749520644518 -2.24468818482401,53.7749219551913 -2.24517763005598,53.7747986659668 -2.24555779884373,53.7746873689331 -2.24605340837141,53.7745920078422 -2.24658845823988,53.7745027635437 -2.24705380277165,53.7744101568711 -2.24787535615528,53.7742817694152 -2.24815719859566,53.7742155941469 -2.24861342999388,53.7741274025491 -2.2500486225969,53.7738341044678 -2.25020939918666,53.7738373636783 -2.25178645577884,53.7736723292208 -2.25201228029974,53.7736332189915 -2.2522154619453,53.7736148209193 -2.25242628311855,53.7735982049186 -2.25288143230396,53.77358197106 -2.25342635355573,53.7736194590572 -2.25394865983487,53.7736821513821 -2.25448001838782,53.7737313439692 -2.25511282787887,53.7737380871336 -2.25566841910602,53.7737809332078 -2.25665793435455,53.7738345303552 -2.25653006137104,53.7740154993399 -2.25625366610506,53.7744591567953 -2.25606433178591,53.7747579639092 -2.25586136419321,53.7750783644594 -2.25560286852747,53.7754843350695 -2.25553522399538,53.7755932019306 -2.25517301563605,53.7761647240487 -2.25487094816251,53.7766291023215 -2.25483179691043,53.7766920831952 -2.25476401787109,53.7767794750122 -2.2546644443222,53.7768641489027 -2.25440020559903,53.7770903323035 -2.2541904687957,53.7772677892333 -2.25416633266093,53.7772903039658 -2.25408973424302,53.7774298289903 -2.25399382577043,53.7776241162388 -2.25397156272588,53.7777078178945 -2.25395549969698,53.7778237633094 -2.25395907944571,53.7778983342201 -2.2539731546731,53.7779702773043 -2.254010260192,53.7780852122664 -2.25412920580721,53.7784291901799 -2.25423907974683,53.7787830712097 -2.25431193942608,53.7790372930174 -2.25436921494838,53.7792177782613 -2.25437692989458,53.7792519961255 -2.25545387806941,53.7791579666208 -2.25551107153747,53.7793448301683 -2.25565256023513,53.7798946137849 -2.25567588049969,53.7799844184169 -2.25566840105451,53.7800095934313 -2.25566996372818,53.7800194732507 -2.25564663924338,53.780175060348 -2.25558413840289,53.7803692775525 -2.25554135169091,53.780575223342 -2.25530444254473,53.781531143388 -2.25527251391897,53.7815276170809 -2.25465600509563,53.7814633347487 -2.25460292668605,53.7814796212748 -2.25458477334441,53.7814778631251 -2.25459811659525,53.7814293133395 -2.25410025401256,53.7814105113545 -2.25396670337571,53.7814036066051 -2.25387261470989,53.7816725582316 -2.25387726508152,53.7816761426684 -2.25370118320455,53.7824144847351 -2.25503596171176,53.7825644040152 -2.2553123240042,53.782577294153 -2.25549474997028,53.7826371077103 -2.25624344029644,53.7829716527327 -2.25647034414557,53.7830808788717 -2.25675027075049,53.7832051761454 -2.25731490220352,53.7834565446599 -2.25783852149427,53.7837115936641 -2.25820825181338,53.7838680435325 -2.25833723533809,53.7833573040273 -2.2587937553962,53.7835665769288 -2.25900537111064,53.7836704404331 -2.25921084338727,53.7837724311554 -2.25926572058967,53.7838037616167 -2.25931517016975,53.7837066117308 -2.25945590153782,53.7833971188254 -2.25959112514528,53.7834103043883 -2.25986442620761,53.7834330736936 -2.26019854589996,53.7834763772288 -2.26026666553156,53.7834438826871 -2.26040668991699,53.7835046785551 -2.26054062685056,53.7835726761822 -2.26055432184184,53.7835816326545 -2.26055896775178,53.7836040854555 -2.26056388283227,53.7836499910518 -2.26058697584052,53.7837011573779 -2.26073166024244,53.7840271057609 -2.26076805636183,53.7840243301817 -2.26085099852227,53.7841813953978 -2.26094788558525,53.7843870419816 -2.26114443782137,53.7847622958094 -2.26147957131265,53.7847058556179 -2.26258329714842,53.7845326289908 -2.26401776330737,53.7843228127536 -2.26567803357297,53.7840665637569 -2.26620272359812,53.7840087913042 -2.26663016690012,53.7839287691032 -2.2670139515012,53.7838900860246 -2.2669079436332,53.7836908443758 -2.26691395043593,53.7836908310012 -2.26638584422064,53.7829747945163 -2.2660993028632,53.7825421576308 -2.26592306379439,53.7822764919559 -2.26567386626943,53.7819894238439 -2.26519399466604,53.7814539711679 -2.2650291223971,53.7813023930824 -2.264695554234,53.7808690482682 -2.26436346626309,53.7804311152941 -2.2641891444341,53.7802086627054 -2.26396670433612,53.7798352718484 -2.26380899897017,53.7796082000071 -2.26409256297578,53.7795752284707 -2.26453222268532,53.779513967768 -2.26585866776906,53.7793052710921 -2.26616949082961,53.7792506695584 -2.26636195986546,53.7792169969158 -2.26772204815933,53.778813042459 -2.26819774553917,53.7786763011412 -2.26848995078744,53.7785678243953 -2.2688270412203,53.7783764901986 -2.26921116259429,53.7781643845742 -2.26936519487632,53.7780499248599 -2.26953719221599,53.7778886110528 -2.26968799964344,53.7779925923709 -2.26990733057257,53.7781098078379 -2.27000778707864,53.7781661896041 -2.27046577307982,53.7783503464475 -2.27098724960233,53.7785037175134 -2.27113046723811,53.7785942358504 -2.27112500889607,53.7786787111972 -2.27106675899365,53.7788226080206 -2.27102510187859,53.7789593686962 -2.27093830182653,53.7791383728854 -2.27146251850256,53.7792495958223 -2.27176648378023,53.7793153987824 -2.27192443725309,53.7793428954964 -2.27218094611923,53.7793450104995 -2.27234307267192,53.779321280482 -2.27264649054506,53.7793026212448 -2.27274890983573,53.7791791993474 -2.27301180483884,53.7792397922915 -2.27316680256894,53.7792744817233 -2.27322607069873,53.7792878251004 -2.27375649719553,53.7794097158677 -2.2738537357822,53.7794319575428 -2.27357409729293,53.779835317422 -2.27333474275822,53.7801234839348 -2.2729274615413,53.7805063771089 -2.27323789545842,53.780641349614 -2.27359401110753,53.7807969729663 -2.27364078647963,53.7807555336401 -2.27432257988422,53.7810415086225 -2.27496321266391,53.781307894968 -2.27590365002895,53.7817066631064 -2.2764819786237,53.7819524286912 -2.27682732183846,53.7820838070079 -2.27726948805174,53.7819272506566 -2.27758590647067,53.7818097097575 -2.27786429718026,53.7816940527514 -2.27833210004085,53.7815176651391 -2.27872705366612,53.7813378506401 -2.27897377714866,53.7812402359164 -2.27922652238057,53.7811453021502 -2.2794824315876,53.7810557514308 -2.28034249539922,53.7807688209716 -2.28084053282606,53.7805887587118 -2.28294275472021,53.7797398292961 -2.28352554098244,53.7795326894548 -2.28417942037709,53.7792929420362 -2.2847563248913,53.779105489172 -2.28500619160854,53.7790141444182 -2.28573870808596,53.778731071707 -2.28614415588757,53.7785575875557 -2.28685384291435,53.7782682735448 -2.28733379884772,53.778105299277 -2.2877137146556,53.777968710518 -2.2876573494118,53.7779230207497 -2.28735483896728,53.7778526716061 -2.28724974428033,53.7777981121763 -2.28709266624573,53.7776798817148 -2.28678474547182,53.7774765607753 -2.28665358442565,53.7773789337167 -2.28659397094452,53.7773152798819 -2.28653550784764,53.7772003175893 -2.28649976056498,53.7770773036102 -2.28644127564425,53.776958836935 -2.28639966964875,53.7768573117153 -2.28603382047818,53.7766154907174 -2.28594238418516,53.7765635930701 -2.28579045630079,53.7765387959307 -2.28578293144799,53.7765361183721 -2.28577530514322,53.7765370353197 -2.28556876796027,53.7765033826852 -2.28525298350658,53.7764843655217 -2.28493275069616,53.7764734454073 -2.28465950487344,53.7764543256993 -2.28448058961068,53.7764718223881 -2.28419857459733,53.7765066345897 -2.28393603131432,53.7765162411149 -2.28345893573129,53.7764167328654 -2.2829245382306,53.7763721678582 -2.28247167406666,53.7762662198321 -2.28236944124759,53.7761891858985 -2.28222746717984,53.7760628270874 -2.28177052250645,53.7760378428045 -2.28145521268419,53.7760700312283 -2.28087705398256,53.7760659944929 -2.28062516439639,53.7760782643095 -2.28049309814177,53.7760668922874 -2.28011844291492,53.7758493330113 -2.2797640860843,53.7757297555118 -2.27966913613086,53.77559959989 -2.27946494776494,53.7754850633907 -2.27900699449795,53.7752883612965 -2.27877714352974,53.7751900561333 -2.27866738999675,53.7751094431589 -2.27856366422396,53.7750323195824 -2.27835344551446,53.7748944338718 -2.27798198796348,53.7744953569478 -2.27787022906037,53.7743382823429 -2.27784358269329,53.7742062594997 -2.27773468501063,53.7740276134472 -2.2775641728464,53.7739525309567 -2.27737549089109,53.773872998051 -2.27717007108306,53.7737781377643 -2.27707248175486,53.7737010894937 -2.27700920877918,53.7735350059141 -2.27696598616105,53.7734307865639 -2.27667819576587,53.7732706124543 -2.27634786769032,53.7731095469136 -2.27638347203164,53.7729881631971 -2.27654476557152,53.77282326981 -2.27672387107136,53.772609006785 -2.27683796587644,53.7724199616134 -2.27692307796098,53.7722184037078 -2.27735325449753,53.771872283703 -2.27751614214411,53.7717227501276 -2.27768310436336,53.7715084229188 -2.27786679709508,53.771289564583 -2.27794480251248,53.7711680822053 -2.27808282021424,53.7709286624625 -2.27814123961985,53.7708153117468 -2.2781698064853,53.7705393057783 -2.27816084648069,53.770112432914 -2.27796495512319,53.7700751482228 -2.27777945229298,53.7700197779553 -2.27779647865157,53.7698517130598 -2.27751091494943,53.7695710428086 -2.2772818126675,53.7695616882255 -2.27718256473797,53.7694594839529 -2.27713287838154,53.7693040627746 -2.27694654501175,53.7691031311194 -2.27681396056919,53.7690099895621 -2.27658188282377,53.7690231040055 -2.27647563602657,53.7690161602253 -2.27643381542074,53.7688769833689 -2.27616135347711,53.768740943825 -2.27608362351935,53.7686952968284 -2.2759570705863,53.7686057347151 -2.27587489154053,53.7685681851388 -2.27578523119941,53.7685342469625 -2.27539366772247,53.7685090881534 -2.27530036016225,53.7683959968952 -2.27512447749319,53.7684134726887 -2.27500554072272,53.768321195737 -2.27492405617555,53.7681604555108 -2.27476188021575,53.7679595549812 -2.27443600053081,53.7677634308831 -2.27444313023173,53.7676870397426 -2.27436375812028,53.7673897165671 -2.27414741367263,53.7670145328923 -2.27404206169301,53.7669140476304 -2.2735718236816,53.7666949790832 -2.27343950177007,53.7666395716423 -2.27330420084302,53.7665876752289 -2.27304282842069,53.7665181840265 -2.27287387875649,53.7664466855077 -2.27271214085921,53.7662915161873 -2.27254462043178,53.7661894640132 -2.27244398313658,53.7661205052452 -2.27223729178206,53.7660535845486 -2.27211090590167,53.7659872894938 -2.27197488695879,53.7658240643198 -2.2716620145621,53.7655461373447 -2.27147773646883,53.7654243535704 -2.27124443877643,53.7652459826824 -2.27114370376996,53.765141980034 -2.2711053556581,53.765091748667 -2.27101027087147,53.7649328322169 -2.27095683301736,53.7648700553735 -2.27084380349955,53.7647597913737 -2.27079048732684,53.7647157935469 -2.27069300606309,53.7646504204593 -2.27066543467352,53.7646226272633 -2.27064710239144,53.76459211865 -2.27066607535983,53.7644698751689 -2.27059999858649,53.7643477335687 -2.27053886233714,53.7642741919786 -2.27048231119271,53.7642132186237 -2.27032829182358,53.7640885795327 -2.2702564157793,53.763997989424 -2.27013462163247,53.7639245832869 -2.26995160891291,53.7637838351902 -2.26984446905374,53.7636358176032 -2.26970453037799,53.7635606551334 -2.26959808483716,53.7635204602934 -2.26953235323759,53.7634513307943 -2.26943245335933,53.7632421966705 -2.26938162432274,53.7631370927225 -2.26926947422819,53.7629091158009 -2.26928956943935,53.762727476888 -2.26932839498801,53.7626384344827 -2.26916953681992,53.7624598924804 -2.26915540314427,53.7623817516951 -2.26887659063077,53.7622007827577 -2.26881242984944,53.7621227539885 -2.26889952264631,53.7619931696222 -2.26893524224422,53.7618878715389 -2.26894814273966,53.7617737283279 -2.26897911290007,53.7616298934506 -2.26903860568475,53.7614481662441 -2.26908830022699,53.7613770699928 -2.26915917783176,53.7613131156598 -2.26901525140481,53.7611021923923 -2.26893553998833,53.7609782828069 -2.26884979302427,53.7608490865062 -2.26876710591436,53.7607288676232 -2.26874789053472,53.7605796634151 -2.26861128605876,53.7603202028222 -2.26842462614665,53.760075320098 -2.26834970129968,53.7599756605217 -2.26834199866922,53.7599639970318 -2.26834647697489,53.7599406246963 -2.26837002534658,53.7598291540839 -2.26837265924283,53.7597716416283 -2.26839040095704,53.7597104121348 -2.26847489025058,53.759623963314 -2.26855937407758,53.7595563837024 -2.26872352056809,53.7593717268784 -2.26881550041817,53.7592834643498 -2.26891051458947,53.7592005868088 -2.26900540741188,53.7590988393028 -2.26901261644155,53.7590529083025 -2.26906946739827,53.7589278836786 -2.26897367659384,53.7588894619837 -2.26896913456534,53.7588831824093 -2.2689932739986,53.7588642590458 -2.26907211518953,53.7588532994898 -2.26909624455393,53.7588325794405 -2.26924555714832,53.7587144460411 -2.2692918972441,53.7586083150433 -2.26930498034279,53.7585229245809 -2.26946365588027,53.7581882234328 -2.26952944095206,53.7580334373396 -2.26956657698007,53.7579156451997 -2.26974365177992,53.757623133046 -2.26980327282309,53.7574629696762 -2.26989170729404,53.7572911506323 -2.27014580076671,53.7569391613005 -2.27021352551327,53.7568724270763 -2.27046692510385,53.7566463236904 -2.27082813969278,53.7566949283809 -2.27102853032195,53.7567232293161 -2.27145930671936,53.7567186614234 -2.27169146373692,53.7567280201113 -2.2721616566955,53.7567467228062 -2.27264549968575,53.7567492188488 -2.27297306823963,53.7567385901822 -2.27322324786309,53.7567308323164 -2.2737251081122,53.7566964432121 -2.27411633774789,53.7566874628924 -2.27446251319977,53.7567495692958 -2.27509474819413,53.7569360056067 -2.27534071006525,53.7569713834163 -2.27565951078661,53.7570155786771 -2.27616499896819,53.7570952846036 -2.27619992423253,53.7571005951948 -2.27640662364807,53.7569276002926 -2.27667484891717,53.7566600269126 -2.27676695277802,53.7565942214471 -2.27711962040893,53.7564836963048 -2.27732232694532,53.7564077509216 -2.27751001396711,53.7563489125203 -2.27774285757255,53.7562540274476 -2.2783870592282,53.7559622171126 -2.27869260896309,53.7558383183039 -2.27895568949515,53.7557217958751 -2.27924749824948,53.7555817546836 -2.27951666089984,53.7554589262047 -2.27968001637241,53.7553902570246 -2.27984036392903,53.7553206958409 -2.28003540229288,53.7552401816809 -2.28057564945581,53.7550592121794 -2.2810421151305,53.7549529015239 -2.28167829790931,53.7548328032695 -2.28195099324866,53.7547908300341 -2.28216785015587,53.7547948134105 -2.28298274418043,53.7548638786704 -2.28328488760077,53.7549053974582 -2.28385251656074,53.7549669537919 -2.28427603497523,53.7550199535364 -2.28485260846454,53.7550724987197 -2.28508333237589,53.7550926168764 -2.28574811185914,53.7551701073983 -2.28599250937502,53.7551964810114 -2.28613818418964,53.755214104287 -2.28626418518884,53.7552254854488 -2.28665704515766,53.7552380251883 -2.28691792127063,53.7552418948886 -2.28735029696487,53.755254338781 -2.2876373399417,53.7553175365889 -2.28773540726522,53.7552489230475 -2.28786865992722,53.7552054739655 -2.28813980659333,53.7551572006833 -2.28834140023485,53.7551414415154 -2.28848539063464,53.7551321102455 -2.2887401846626,53.7551243089695 -2.28895834100518,53.7550986248746 -2.28919446152084,53.7550306663473 -2.28934715798413,53.7549601222466 -2.28949516117563,53.7548618246152 -2.28957813113638,53.7547987268237 -2.28970003246591,53.7546690430974 -2.28978188455568,53.7544441217267 -2.28975464385239,53.7542293468671 -2.28968960723504,53.7538106962005 -2.28962719390904,53.7535546733179 -2.28960674871454,53.7532374490714 -2.28945326522226,53.7531928930915 -2.28959356093238,53.7530838310574 -2.28989475865735,53.7529895663443 -2.29025977681985,53.7529203954778 -2.290555113163,53.7528648696431 -2.29095343298487,53.752783935299 -2.2911956263565,53.752728446828 -2.29166500800287,53.7526176855404 -2.29201297652921,53.7525072178896 -2.29224757715741,53.7524391671313 -2.29299134147456,53.752317848131 -2.29355621000017,53.7522023532002 -2.29413336743601,53.7521100979801 -2.29475019930654,53.7520411938992 -2.29527150262072,53.7519904931156 -2.29503709932398,53.7516585209009 -2.29470802246377,53.7512162604152 -2.29453209895741,53.751002750334 -2.29440820149915,53.7508618940928 -2.29429853838585,53.7507893813409 -2.29387676208166,53.7505522126449 -2.29372473977326,53.7504833973642 -2.29371224669031,53.7504313131072 -2.29370438793739,53.7503980859114 -2.29364931550106,53.7503362217939 -2.29357583566131,53.7502347775021 -2.29359810744702,53.7501655355625 -2.29330432517581,53.7497959664595 -2.29320722020213,53.7497845220997 -2.29309013513017,53.7497407797161 -2.29285601637366,53.7496425125335 -2.29267339733671,53.7495602023547 -2.29261857863299,53.7495163076454 -2.29253160777223,53.749451825288 -2.29234497035532,53.7494388017451 -2.29223235733408,53.7493725840419 -2.29213503008077,53.7493287926146 -2.29204072058972,53.7492875993723 -2.29200218089523,53.7492113180235 -2.29188476077357,53.749101083305 -2.29178300156987,53.7490851569357 -2.29157944702567,53.7488142038082 -2.29141011991007,53.7486644686388 -2.29119269444949,53.7485922155507 -2.29093136103165,53.7485164733394 -2.29070933080473,53.7484289546143 -2.29070415772703,53.7483318352336 -2.29051193729003,53.7481615781273 -2.29024431398405,53.748061589364 -2.29020321976441,53.7480310488113 -2.29012099228571,53.7479827261581 -2.29005366548136,53.7479011218937 -2.28991392765742,53.7478709094977 -2.28980125443105,53.7477948065037 -2.28967176492522,53.7477096679601 -2.28942661575129,53.7475682902223 -2.28934900554079,53.7475181592122 -2.28914650755892,53.7473972550799 -2.28903200736038,53.7472915027072 -2.28873124211006,53.7472068663158 -2.28862026308362,53.747176582321 -2.28851661900846,53.747103960808 -2.28833967086027,53.7469525328101 -2.28829710324668,53.7469256793066 -2.28813927937783,53.7469008992699 -2.28795986152237,53.7468447219919 -2.28782193279427,53.7468405598002 -2.28771255352893,53.7468246482613 -2.28761673434788,53.7467807596765 -2.28751924559101,53.7467118058137 -2.28746410710733,53.7466382582531 -2.28740152916787,53.7465737128426 -2.28731852164118,53.7464102876974 -2.28726613399514,53.7462819222141 -2.28719972443367,53.7461139650682 -2.28710863389609,53.7458651978075 -2.28706623940997,53.7456622298605 -2.2869612783929,53.7453775546152 -2.28684367801684,53.7452556337292 -2.28698079024195,53.745141102242 -2.28713752689007,53.7449897727834 -2.28719108737225,53.744851179748 -2.28710435707436,53.7448010691062 -2.28708765780139,53.7447903262066 -2.28695684986771,53.7447295389478 -2.28689381819682,53.7446164737588 -2.28684657350347,53.744581453676 -2.28677972032542,53.7445492658049 -2.28657779649987,53.7445093140759 -2.28650771296602,53.7444618596339 -2.28650549612468,53.7443567354895 -2.28649284155341,53.7442794018608 -2.28623135160166,53.7441937657478 -2.28563215648944,53.7439183536271 -2.28539012747173,53.7437895406452 -2.2852668111761,53.743708066818 -2.28495753231568,53.7437088016521 -2.28486249324803,53.7437782147979 -2.28474122793715,53.7440176029312 -2.28435634482472,53.7442629187909 -2.28419286895607,53.7443065255433 -2.28393092894675,53.7443754342939 -2.28391902698232,53.7444087080052 -2.28388789232406,53.7445004327515 -2.2837307207697,53.7445888612732 -2.28355494716473,53.7446072472632 -2.28340961845125,53.7446355359298 -2.28326785935302,53.7447481877306 -2.28306364138273,53.7448124652307 -2.28290311969834,53.744849684498 -2.28266360365287,53.7448520456093 -2.28249061149895,53.7448380767327 -2.28227427555914,53.7449041790029 -2.28203231678576,53.7450081696091 -2.28191252133169,53.7450039580173 -2.28180064208418,53.7450428582161 -2.28163082485365,53.7450549376232 -2.28145422924932,53.7449511222229 -2.28136900602183,53.7449009140284 -2.28101592048783,53.7447085551756 -2.28049105118094,53.7444392330952 -2.28005448809059,53.7442317024758 -2.27944603319409,53.7439302231851 -2.2788484760593,53.743687121012 -2.27845759873799,53.7435047264584 -2.2782904471175,53.7434467095601 -2.27811439616724,53.7434228574035 -2.27799605309736,53.7434105520669 -2.27774734615449,53.7434021426946 -2.27752451206861,53.7434116434959 -2.27752429233208,53.743378397551 -2.27716713996931,53.7434744683606 -2.27675379126991,53.7435607836609 -2.27653719983833,53.7436071080656 -2.27639805381721,53.7436442684685 -2.27617548468099,53.7436942910486 -2.27588338134559,53.7437785266585 -2.27581375963,53.7437993536009 -2.27563114214278,53.7436891628966 -2.27553839096645,53.7436525351598 -2.27549124580619,53.7436310785946 -2.27522212982089,53.7437512916382 -2.27517800142229,53.7437325235194 -2.27512936120617,53.743711969036 -2.27470833382712,53.7435618891571 -2.27403974920836,53.7433297075293 -2.27349578214731,53.743151241466 -2.27274530905097,53.7429354130331 -2.27212385263885,53.7427192874102 -2.27169230261842,53.7425818902047 -2.27144438251183,53.7424620476515 -2.27138818650359,53.742432432697 -2.27134549251309,53.7424028779659 -2.27132348578874,53.742286117523 -2.27111569821616,53.7422632247306 -2.2705123049041,53.7422672818674 -2.27013162852074,53.7422636471768 -2.2693705822244,53.7422653578431 -2.26894155742595,53.7422663200672 -2.26859737309129,53.7422805683425 -2.26794614698915,53.7423898491002 -2.26766450105966,53.7424488823329 -2.26744798444398,53.7424880924218</coordinates></LinearRing></outerBoundaryIs></Polygon>
  </Placemark>
