  <Placemark>
	<Style><LineStyle><color>ff0000ff</color></LineStyle><PolyStyle><fill>0</fill></PolyStyle></Style>
	<ExtendedData><SchemaData schemaUrl="#Wards__December_2019__Boundaries_EW_BFE">
		<SimpleData name="objectid">1726</SimpleData>
		<SimpleData name="wd19cd">E05004172</SimpleData>
		<SimpleData name="wd19nm">Shelley</SimpleData>
		<SimpleData name="wd19nmw"></SimpleData>
		<SimpleData name="bng_e">555487</SimpleData>
		<SimpleData name="bng_n">204909</SimpleData>
		<SimpleData name="long">0.249651</SimpleData>
		<SimpleData name="lat">51.721352</SimpleData>
		<SimpleData name="st_areashape">2797965.71590507</SimpleData>
		<SimpleData name="st_lengthshape">9615.92343052291</SimpleData>
	</SchemaData></ExtendedData>
      <Polygon><outerBoundaryIs><LinearRing><coordinates>0.236647048226606,51.729908835642 0.236608718706384,51.7297467486333 0.23662315704165,51.729599031504 0.236519854453805,51.7294148076603 0.236558264795057,51.729312484833 0.236562671875034,51.7292251944023 0.236502068917374,51.7291706069196 0.236344834640964,51.7291249622249 0.236292230228379,51.7290873045232 0.236130111387145,51.7289402507618 0.236101625214035,51.7289219130786 0.236072004174086,51.7289071932715 0.235976644755242,51.7288838349483 0.235879255254614,51.7287588335714 0.235853763477482,51.7287116694654 0.235834251139284,51.7286670894578 0.23585849602051,51.7286018967599 0.235925834177508,51.7283236222312 0.235620129321833,51.7282016854206 0.235326337446294,51.7280598328867 0.235120903024349,51.7278865410999 0.235024046203269,51.7275979936842 0.234991831406151,51.7273539781482 0.234870917921247,51.7267519438974 0.234795786631156,51.7265213311569 0.234721084087837,51.7262412633033 0.234770863876238,51.7259579284436 0.234785038124478,51.725717615064 0.234782641764676,51.7256375558209 0.234797559038442,51.7255599550773 0.234789529527898,51.7255133578826 0.234772673951166,51.7254669285659 0.234650475933093,51.7253954412395 0.234558665801453,51.7253252643725 0.234464567496849,51.7251796116427 0.234465482081684,51.7251085705217 0.234503091483157,51.7250214571584 0.234507147998496,51.7249269808697 0.234450530434029,51.7247472612915 0.23445037784211,51.7245674561724 0.234435183448876,51.7243779576211 0.234465449831144,51.7243162478406 0.234516775909649,51.7242990888597 0.234460674569588,51.724071710234 0.234387414818403,51.723878911196 0.234265764415922,51.7237022259622 0.234219750282925,51.7235898220015 0.234099730313597,51.7235939019616 0.234118780991222,51.7235395972057 0.234147741659069,51.723274638938 0.234192018878839,51.7230273708254 0.234229100238579,51.7229295695234 0.234098910164608,51.7228726187842 0.23406659169753,51.7228345743646 0.234042935984832,51.7227954668182 0.234029034483441,51.7227193125258 0.233930266958134,51.7226240943721 0.233875706850586,51.722544128521 0.233853541595662,51.7224771215984 0.233763628514274,51.7223556625484 0.233731291220308,51.7222590912744 0.233727011700833,51.72223040324 0.233725550684606,51.7222007632221 0.233763119278202,51.7219941684775 0.233772218892445,51.7219147908163 0.233704112440924,51.7215599758941 0.233699640935987,51.7214692580201 0.233719193624656,51.7213960639296 0.233743644052088,51.7213641326747 0.233759914533835,51.7212243819753 0.23393487373678,51.7208964128483 0.234005479419349,51.7207134636101 0.234006713913455,51.7205326436967 0.234485651321304,51.7205567998439 0.234968072297567,51.72056200883 0.235469661283146,51.7205443740862 0.23590078729942,51.7205091992588 0.235759928162509,51.7203229915032 0.235577208808846,51.7201133962237 0.235450836629326,51.7198118356761 0.235269650143076,51.7195122162938 0.235999230807687,51.7193058484037 0.236447073111694,51.7191669637948 0.236662071823289,51.719094544063 0.237125201234719,51.7189148182674 0.237404016875746,51.7187278128929 0.237466962121752,51.7185351185908 0.237325451545667,51.7184542031443 0.237235668805066,51.71836681768 0.237257942612571,51.7182908741012 0.237369651456192,51.7182348041982 0.237422204429702,51.7181870533762 0.237396452760837,51.718134500524 0.237318521873375,51.7180792551366 0.23724734028321,51.7180446486535 0.237233124575759,51.7179936746819 0.237251326912958,51.7179223033213 0.237239004959777,51.7178757879769 0.237136158246041,51.7178453807133 0.237004232213016,51.7178424987986 0.236813264163342,51.7178163770993 0.236772183397699,51.7178063703689 0.236710607234449,51.7177607927127 0.236659738760654,51.7176394917524 0.236609344511381,51.7175568398504 0.236580230564963,51.7175232306892 0.236473337403013,51.7174712340077 0.236449314268545,51.7174537098652 0.236442610712771,51.7171993191507 0.236395221726994,51.7168557991915 0.236084327156581,51.7166585341062 0.235818609994554,51.7164648132065 0.235582870439764,51.7161770212839 0.235308125734213,51.7159187404861 0.235105486949635,51.7156267215284 0.234803930552124,51.7154418620371 0.234768956072092,51.7153183693905 0.234779281145952,51.7152057931355 0.234748443945417,51.7151686200156 0.234687772472812,51.7151122352347 0.234656509244084,51.7150930516542 0.234573558065752,51.7150568697606 0.234574774188101,51.7147861454043 0.23448576680074,51.7144793774132 0.234421873871283,51.7142098914049 0.234438721053851,51.7141133739837 0.234421512609435,51.7140282023358 0.234336793524715,51.7139246254554 0.234203005285319,51.7137941124715 0.234130129546082,51.7136668457303 0.234121689552385,51.7135537270758 0.234143769259314,51.7132969901878 0.234500013092112,51.7133010036999 0.234882502778551,51.7132757473975 0.235035792834997,51.71324496011 0.23613442322028,51.7129776269154 0.236437134240621,51.7129224175801 0.237126745070437,51.7129047918399 0.237530346980425,51.7129276725594 0.237828162609849,51.7129184044951 0.238217771603407,51.7128947993635 0.238550331183026,51.7128857659097 0.23894425248089,51.7128890470582 0.239934482222569,51.7128899498866 0.240223562035297,51.7128826391005 0.240536925474175,51.7128667743742 0.241192775032956,51.7128398790174 0.24187679093039,51.7128250299742 0.242177422302899,51.7128147969273 0.242212077759448,51.7128132361906 0.242551479157492,51.7127977675055 0.242788077753458,51.7127815635081 0.243059021887116,51.7127575106652 0.243109433211599,51.7127511541291 0.244448414062314,51.7126337876961 0.244673979090831,51.7126285786824 0.24472322653755,51.712627637688 0.24508342736666,51.7126514116581 0.24542563066523,51.712692520795 0.245556080577738,51.7126972199466 0.247454182806518,51.7126726100933 0.248122660371262,51.7126670121738 0.248838815187131,51.7126865693598 0.249967788575017,51.7127126016067 0.25168234911344,51.7127534729988 0.253126335506445,51.7127968112118 0.254226205405107,51.7128495231743 0.256038881153661,51.7129405924136 0.256952628613663,51.7130066518361 0.257296034590323,51.7130117411551 0.257591267120661,51.713010563534 0.257925253855469,51.7130014476976 0.257921467713031,51.7130141070922 0.257808984611696,51.7131664990991 0.257903598588069,51.7133526706343 0.257708934086544,51.7134247390499 0.257596083975163,51.7134547780369 0.257477256645759,51.7134822347698 0.257343554021754,51.7135009868982 0.257203828043152,51.7135162583004 0.257062389171459,51.7135234714311 0.256914973164103,51.7135281013171 0.256521225620758,51.7135284734448 0.256150299628224,51.7135508813005 0.255265763900693,51.7136955293785 0.254818385574703,51.713781524388 0.254556922343914,51.7138234039738 0.254323990366722,51.7138269747331 0.254065362871265,51.7138058648278 0.253922507266476,51.7137870288166 0.253779473137739,51.7137645997532 0.253656472844027,51.7137345935861 0.253535988575679,51.7136999543913 0.25327192738882,51.7136007302912 0.252803725006404,51.713383060737 0.252505070358427,51.713288993913 0.252187333511466,51.7132456386184 0.252101665069045,51.7134432727509 0.252176092376878,51.7141244888299 0.252200390590242,51.7142651727259 0.252271707112915,51.7145354068351 0.252377191571045,51.7147941969024 0.252740087673358,51.714696435375 0.253089903699411,51.7146861305549 0.252983257442286,51.7150164169691 0.253033807319045,51.715159294246 0.253091587857347,51.7153011335254 0.253254645162635,51.715582194156 0.253349509146916,51.7155695857151 0.253538640895179,51.7158492465261 0.253358478165461,51.7158940584752 0.252397311271399,51.7161022779975 0.25193269481463,51.7162190704578 0.252185515440824,51.7168509258427 0.252294158927958,51.7171707906976 0.252710271845369,51.7171250525935 0.253575191063039,51.7169637184555 0.253940560900409,51.716886583512 0.254006844136776,51.7169976928872 0.254166433262326,51.7174991734538 0.25425825563648,51.7175693349186 0.254398630655494,51.7176556468341 0.254521458218737,51.7178835349432 0.25489259929067,51.7178647237815 0.255135567527459,51.7179184984277 0.25619152782086,51.7181896034606 0.257350582809176,51.7184668101166 0.258099519191012,51.7186799646757 0.259756487057913,51.7191291830263 0.260001899072579,51.7189994954367 0.260148370107215,51.7189444426838 0.260622351036059,51.718780688341 0.260767538356761,51.718673605257 0.260991823380588,51.7186134585825 0.261157961318722,51.7185769959068 0.261682776218157,51.7184751910129 0.26178739078116,51.7185693752493 0.261942936718075,51.7186986299843 0.262138337507592,51.7189016476053 0.262374433236616,51.7189322540829 0.262506233038023,51.7189611824647 0.262669539270683,51.7190425473911 0.262742529052119,51.719055525931 0.262789054926901,51.7190573268223 0.262841006376206,51.7190554277854 0.263006386584336,51.7190324630151 0.263032608920234,51.7190364526104 0.263056104812271,51.7190431926237 0.263221546010522,51.7191362038854 0.263286366844605,51.7191601283782 0.263308251396683,51.7191633021783 0.263357281070792,51.7191578628955 0.263388555668548,51.7191482700518 0.263482502415766,51.7190574543858 0.263514031541875,51.7190505536091 0.26357477870005,51.7190502824842 0.263668564281358,51.7190709516815 0.263769302217734,51.7191184577909 0.263802978233479,51.7191258998959 0.263837906802815,51.7191297224475 0.263923251986329,51.7191271785415 0.264019152142571,51.7191352200875 0.264304725453055,51.7191692739752 0.264853493912857,51.7192864507196 0.26500935768765,51.7193931291561 0.265243654567502,51.7195046783565 0.26534876798268,51.7195799690254 0.26536981547327,51.71965238593 0.265339831152148,51.7197761333575 0.265363267951698,51.7198414015059 0.265442557164912,51.719892016794 0.265605254518087,51.7200183419325 0.265683240427912,51.720159876413 0.265810835198815,51.72030755587 0.265767951553213,51.7204622093722 0.265766638318902,51.7205242685257 0.265745886963688,51.7206010877853 0.265737124506585,51.7207433958898 0.265704400146456,51.7209579987157 0.265610088544103,51.7210128618999 0.265533288663637,51.7210980436057 0.265504465097435,51.7212163737524 0.265513870886643,51.7212899144147 0.265550388503048,51.7213828005265 0.265591420994351,51.7214800052393 0.265718778624146,51.7217374626007 0.265726677333584,51.7218667728108 0.265670851772883,51.7220252721234 0.265874080220647,51.7223531895683 0.265821703174171,51.7225519893724 0.265831981762871,51.7225832576946 0.265931415510195,51.7227477529914 0.266004883508213,51.722884788843 0.265737682577102,51.723041970851 0.265532950474987,51.7230899721348 0.265324390747093,51.7232333458113 0.265057707430402,51.7233149956369 0.264713621345714,51.7235869371054 0.2645309865795,51.7236686742108 0.264494214134407,51.7236280268304 0.264295407835434,51.7236489407791 0.264282478009987,51.7237103244548 0.26359627915806,51.7237109607326 0.263577065454636,51.723646600139 0.262968340879076,51.7236924902066 0.262734151525568,51.7237005971138 0.262515362280703,51.7236967187727 0.262233468886421,51.7237345128657 0.261852592773509,51.7237625237219 0.261298822514575,51.7238379152381 0.260834454957622,51.7238747223337 0.260779120294611,51.7239549030986 0.260463924967873,51.7240239908849 0.260087413893648,51.724051012701 0.259795959225804,51.7241006721411 0.259734012815066,51.7241081569293 0.2593774615561,51.7240997306359 0.259109876268121,51.7241660115407 0.258947864029775,51.7242545359187 0.258693109777861,51.7244321399222 0.258613065121987,51.7244813272627 0.258546466810153,51.724510478653 0.258404115029949,51.7245599652018 0.258327020436757,51.7245821247283 0.258167595819742,51.7245788957444 0.257588529193105,51.7247267690663 0.256804464853514,51.7249153470991 0.255848344152622,51.7250821411822 0.254909045244715,51.725236827343 0.254750331619788,51.7252767338373 0.254739031026577,51.7252823447062 0.254963473504406,51.7255748113582 0.255060684302742,51.7257240745446 0.255285069081234,51.7260992528212 0.255528946358124,51.7264605705858 0.255717302214366,51.7267546278 0.255803977250965,51.7268960007727 0.255894002158149,51.7270758784952 0.256254938002447,51.7276346247731 0.255019872535671,51.7279002679484 0.254651957488052,51.7279567757917 0.254280061197185,51.7279908835917 0.253487759659469,51.7281040781792 0.253209229822666,51.7281525737476 0.252839612921801,51.7282325738977 0.252566301167373,51.7282683812961 0.252489457612469,51.7281492928012 0.252355320368796,51.7280161098617 0.252236807595755,51.7278465743998 0.252101089827351,51.7277367960337 0.25206880313376,51.7276421162758 0.251995259834276,51.7275004889469 0.251858583693609,51.7272873390619 0.251537083709888,51.7268482948801 0.251501721691164,51.7266628708625 0.251482594698078,51.7265975175805 0.25140135165141,51.7264498340793 0.251366945305272,51.7263965507767 0.251161609902752,51.7261999093826 0.251142574572183,51.7261652113671 0.251124851398775,51.7261304882076 0.251053829469445,51.7258953119548 0.250243295468463,51.7257273440336 0.249850082689012,51.7256251915605 0.249414827242786,51.7255202464323 0.249028652180085,51.7254106739244 0.248626251460057,51.7252700341623 0.247852544709214,51.7250545956759 0.247479218119351,51.7249439628242 0.247253276865407,51.7256721926785 0.247003707175378,51.7264224494923 0.246693159811944,51.7274311777647 0.246404760826697,51.7283306081075 0.246268059018837,51.7286101260981 0.246110700829746,51.7288559644253 0.245744802026847,51.729302768925 0.245632157750693,51.729395724839 0.245515863447227,51.7294752654404 0.245391025124574,51.7295558676029 0.245245614533479,51.7296333563951 0.245094591244536,51.7297108623219 0.244476614939523,51.7299816827145 0.244203587769358,51.7301127635541 0.244101004268678,51.7301461892927 0.243786535751185,51.7302313107096 0.24348605171993,51.730275796623 0.243333475647097,51.7302930950057 0.24318501707712,51.7303067173925 0.243043677688026,51.7302905358858 0.243042246795336,51.7302905632022 0.242707364598066,51.730313138638 0.242540677724299,51.7302793698817 0.242463440225095,51.730270055168 0.242390765109332,51.7302660482111 0.242259099197948,51.7302667632819 0.24210007195164,51.7302140569253 0.241826357776151,51.7301842179799 0.241407051339819,51.7301994093378 0.241279368639739,51.7301937540475 0.241282725300689,51.7301433438033 0.240861078737739,51.7300219243602 0.239954592405968,51.7300535935666 0.238903800711619,51.7300646311224 0.238029958982759,51.7301118471291 0.23757896451225,51.7301285276873 0.237253445530863,51.7300771876483 0.236715874276655,51.729953376053 0.236647048226606,51.729908835642</coordinates></LinearRing></outerBoundaryIs></Polygon>
  </Placemark>
