  <Placemark>
	<Style><LineStyle><color>ff0000ff</color></LineStyle><PolyStyle><fill>0</fill></PolyStyle></Style>
	<ExtendedData><SchemaData schemaUrl="#Wards__December_2019__Boundaries_EW_BFE">
		<SimpleData name="objectid">6579</SimpleData>
		<SimpleData name="wd19cd">E05012352</SimpleData>
		<SimpleData name="wd19nm">Walsoken, West Walton &amp; Walpole</SimpleData>
		<SimpleData name="wd19nmw"></SimpleData>
		<SimpleData name="bng_e">549266</SimpleData>
		<SimpleData name="bng_n">313775</SimpleData>
		<SimpleData name="long">0.207618</SimpleData>
		<SimpleData name="lat">52.701092</SimpleData>
		<SimpleData name="st_areashape">58093682.7986341</SimpleData>
		<SimpleData name="st_lengthshape">34618.2395907823</SimpleData>
	</SchemaData></ExtendedData>
      <Polygon><outerBoundaryIs><LinearRing><coordinates>0.243091176234271,52.7382695619635 0.242988648638555,52.7388703369217 0.242854362345428,52.73939980129 0.242641298561332,52.7399532265307 0.241626295270726,52.7415080593196 0.241295743801251,52.7421671613188 0.241210702307795,52.7423000034987 0.241081884475131,52.7424462566273 0.240955650620486,52.7425547978113 0.240287244180263,52.7432147898974 0.239059993416973,52.7447952566961 0.238844267098119,52.7452695287623 0.23878778351348,52.7455259654631 0.238737233319151,52.7457813901556 0.238762806760904,52.7460776273785 0.238734840081251,52.7470069638915 0.23875166205241,52.7471324893603 0.238772611431635,52.747193218214 0.238805422913848,52.7472565088243 0.238847213561229,52.7473186419002 0.23895344665543,52.7474271999221 0.239144982874661,52.7475791825886 0.239213388273148,52.7477576666908 0.239332589031148,52.7482023395038 0.239520848297576,52.7485809005238 0.239556757244329,52.7488760425628 0.239528036130496,52.7492973486265 0.239833473285265,52.7504856529521 0.240039696988611,52.7507497162168 0.240143706082811,52.7512170563567 0.240136573462428,52.7517423130093 0.236565075845186,52.7528382447766 0.234380077310472,52.7534899102149 0.232616230752889,52.7540635017954 0.225738496870857,52.7564144042167 0.224764766739162,52.7561224573991 0.223963282046692,52.7558677248557 0.222843276643404,52.7554095143304 0.221209989086559,52.7547665642255 0.220504758310232,52.754476748723 0.219092804874271,52.7539008196581 0.218330797104008,52.7536039633872 0.217554215115614,52.753253352263 0.217195692999336,52.7530506129552 0.216911274253354,52.7528778592025 0.215715711539393,52.7520955129341 0.21469192350098,52.7513988486305 0.214221308188554,52.7510884390125 0.213364025351384,52.7505470387912 0.212667658045449,52.7500825420787 0.211977493962013,52.7496485770752 0.21038522001608,52.7488429196453 0.209265464773534,52.7483251636923 0.208664010327537,52.7480351459564 0.208056479258343,52.7477407444551 0.20674928963447,52.7470907225602 0.205068708098857,52.7462912220039 0.202038219065432,52.7448117675353 0.200249287189024,52.7439772663673 0.198168236253626,52.7429583992451 0.197404311241296,52.742585044162 0.196763965494821,52.7422543405047 0.196495167072951,52.7420660597341 0.196344664966232,52.7419006668555 0.196039223345223,52.7413065960316 0.195928832514714,52.7410254059208 0.195527846900339,52.7401220041795 0.195285299738726,52.7396293281786 0.195038239401146,52.7390467590166 0.194882048205416,52.7387969771936 0.194118254535357,52.7388982910189 0.193651779196,52.7389320828915 0.190814018631431,52.7394745655414 0.192278306728319,52.7383361676705 0.191654833072705,52.7380159118922 0.190250853985521,52.7372830108477 0.189012318694099,52.7366602989042 0.187361265712477,52.7358158773584 0.186323197484379,52.7353486313374 0.185236202031302,52.73553134711 0.184093308849423,52.7357223627013 0.181572977742414,52.7361822892188 0.17913803982992,52.7366046486994 0.175341079882797,52.7372839322181 0.173628434875147,52.7376048424802 0.172057138795796,52.7378826913687 0.171626068420179,52.7380317024757 0.171079024457102,52.7373071666987 0.170851886450935,52.7369687678306 0.170559992209324,52.7364921400579 0.170295451555645,52.73590714898 0.170216063805479,52.7355309907388 0.170005589682801,52.7346942289706 0.169887213587999,52.7340715081103 0.169779778659266,52.7335780219433 0.169292544625445,52.7311637925329 0.169017675706052,52.7299810680967 0.168837179910403,52.7290313092079 0.168588659325864,52.7279335838793 0.168175923850874,52.7261518634688 0.168027645380801,52.7255800242027 0.167767535501564,52.7249050618667 0.16769476843429,52.7247230253735 0.167635339945848,52.7245981814471 0.167450402049119,52.7242446242822 0.167082562011893,52.723516799604 0.166705137857683,52.7228934167907 0.166317801377089,52.7222792025088 0.165800096451598,52.7214830118583 0.164966991278868,52.7202691267 0.164100770249004,52.7189848443299 0.163232970805156,52.717785976375 0.162270843347562,52.71662396784 0.161577856764493,52.7156970337806 0.160640720500333,52.7144706429308 0.159553643710629,52.7129952053786 0.158961425566831,52.7121536066883 0.158312313083983,52.7112123683542 0.157901898752,52.7105760781759 0.157142243130995,52.7094912304359 0.156841907598296,52.7090147277766 0.156628775574771,52.7085960493263 0.156505616694003,52.7082889884722 0.156445318045357,52.7081156137503 0.15635300101668,52.7078349572506 0.156188485682913,52.7071096825139 0.156068763761478,52.7064833672924 0.156054847450567,52.7052697789772 0.15606710814544,52.7041960292644 0.156124484360223,52.7026583575589 0.156121297692125,52.7024425957546 0.156103189798792,52.7022262062525 0.156068253327445,52.7019382129069 0.155896558193386,52.7008857861075 0.155710704124511,52.699907319471 0.155688383988807,52.6997836787945 0.155434842402153,52.6985133107671 0.155316331476105,52.6975191409482 0.155136327152867,52.696388649642 0.155058999580873,52.6950881099067 0.15505787102855,52.6941332438646 0.155029532663775,52.6933766273505 0.155030892721142,52.6929531366218 0.154929908743506,52.6919848045215 0.154633364055752,52.6902583928364 0.154470244310646,52.6895618404371 0.15426805303588,52.6884901727693 0.154235772759545,52.6878019387728 0.154267529445666,52.6872151047861 0.154332609530271,52.6868542747743 0.154359679854728,52.6865912167898 0.154368173140042,52.6863151018752 0.154364851797558,52.6861856326438 0.154347606972626,52.6859863916959 0.15422829031064,52.6852449077573 0.153980881029933,52.6841560827661 0.153739918947145,52.683257702858 0.153724605924087,52.6831869687533 0.153637062024108,52.6827910684805 0.153570700388405,52.6822231833906 0.153643849693306,52.6821777181757 0.154061974514316,52.6821647253804 0.154893816259301,52.682143309481 0.154841331172054,52.6810770039294 0.154859942773949,52.6807934231714 0.157172705780177,52.680683028903 0.157144647652993,52.679692686706 0.157805052356762,52.6798541494492 0.158209138058396,52.6799799176072 0.158816783686946,52.680122560502 0.159151528299704,52.6802198347704 0.159635574580052,52.6804654918218 0.159699615720866,52.6799338859663 0.159760614818491,52.6796423412342 0.161813279570088,52.6794187504429 0.161919458362157,52.679649717647 0.162372146975738,52.6796504468052 0.162400684027438,52.6794799445834 0.164624818022529,52.6800013279265 0.164718285862126,52.6800661390607 0.165554815810314,52.6805274517429 0.166042184937637,52.6805410186609 0.16618071942536,52.6805600602724 0.166250451749183,52.6805641789418 0.16638783104631,52.6805598706128 0.166517110396331,52.6805422264703 0.166642531217217,52.6805057758823 0.166844002740912,52.6804211914317 0.16702814921373,52.6803143618283 0.167598742237468,52.6798876495518 0.168152061731285,52.6794990033016 0.168528567830872,52.679185502098 0.168757864694547,52.6790373935097 0.169095097940825,52.678916163083 0.169408433040518,52.6788493039682 0.169816906970296,52.6787356673666 0.169870721059009,52.678657376538 0.170532323814189,52.6788422115293 0.171146971965103,52.6789163484995 0.171930762417411,52.6789109782464 0.172029303026599,52.6788983853482 0.172681762395222,52.6788396844969 0.173999219905054,52.6787660879807 0.174371244001564,52.6787808371308 0.17463345980115,52.6784019956538 0.175353635003081,52.6784543995197 0.176499177659935,52.6784953929972 0.177811584294576,52.6784407236971 0.178377712628786,52.6784024545619 0.178810384692508,52.6783270841134 0.178846415961502,52.6783084440901 0.179062958931289,52.6781695389686 0.179262315404735,52.6779842968837 0.1795792200135,52.6777518579372 0.179815918580434,52.677633255036 0.180415353751975,52.6780853408688 0.180704410132593,52.6780090096879 0.180944270721596,52.6780126869422 0.181733161850907,52.6779900775399 0.18238426468863,52.6779951688253 0.182480291238438,52.6779934004781 0.182807045838647,52.6779882817995 0.183693112755852,52.6779575757318 0.184628310268905,52.6779043848931 0.184716621631441,52.6778946663696 0.184541088291379,52.6768062831855 0.184521652163125,52.6766538285282 0.184502923018043,52.6763394709485 0.184426500456133,52.6761717964898 0.184037970753938,52.6753805584114 0.183892184542741,52.6750667428315 0.183839975007389,52.6749687368488 0.183619950593728,52.6749467228303 0.183578267918109,52.6748225444151 0.183481081541653,52.6747739968107 0.183446812929961,52.6744707114474 0.183367096890856,52.6740288441419 0.182933907763637,52.6740341275986 0.182789148195796,52.6737113028922 0.182673893141518,52.6735056914138 0.182488410472561,52.6734057334698 0.181410570007594,52.673325800127 0.180965777200368,52.6733061196997 0.180836229983324,52.6732590642818 0.180945272996598,52.6728649593137 0.181078735157251,52.6720991603255 0.181659610670787,52.6721504935802 0.182454008140631,52.6721817101247 0.182746634757628,52.6721754225435 0.182942021345915,52.6721781159726 0.183607007438431,52.6721649659321 0.18380218323646,52.672165863517 0.184429622077569,52.6721408170752 0.184400895568982,52.6716234920958 0.184377802148201,52.6714269687723 0.184426616420997,52.6711023761007 0.184526352257754,52.6709062861274 0.184537158447524,52.6706192485419 0.184520933628862,52.6703525751427 0.184574793711304,52.6701878939047 0.184544849791211,52.6700031831672 0.18457959954266,52.6697193898029 0.184574023152741,52.6694901838749 0.184344992058203,52.6687831975931 0.184283574008464,52.6684416698409 0.184405221741786,52.6676482180752 0.184407922451792,52.6675825488657 0.184396750119121,52.6672410840091 0.184411426110532,52.6669998183075 0.184354176322708,52.666653809291 0.184208901359864,52.6660243812448 0.184180395608144,52.665274056511 0.184093699702263,52.6648386995811 0.183997990656165,52.6645527263372 0.183815478378712,52.6641838553506 0.183632419010421,52.663862636846 0.183653987569476,52.6636446157291 0.18402118741399,52.6635920053869 0.183989698028639,52.6632293400696 0.183936295562888,52.6630459603303 0.183590467366262,52.6630208716678 0.183580857319846,52.6629185745954 0.183654589164497,52.662704985406 0.183636950369237,52.6623510545037 0.183665083833844,52.6620861697169 0.183818618008005,52.661812681764 0.18388830586676,52.6616379097643 0.183912553231294,52.66123637435 0.183911657698519,52.6609811032135 0.183911593849761,52.6608893274745 0.183952679191239,52.6606764295775 0.184031388640447,52.6605040987472 0.184073443650759,52.6603693870764 0.184115493981913,52.6602345864567 0.184137977577824,52.6600912466034 0.184094352644263,52.6600183413781 0.183341425522903,52.6593884242644 0.183142319302812,52.6591924464439 0.183063268604138,52.6590887319774 0.1830547676338,52.6582058994326 0.183105232948705,52.6580907192621 0.183252239031223,52.6579262094421 0.183308856788003,52.6578146014717 0.183328950733585,52.6575058185851 0.183357307820548,52.6573335166519 0.183388631492214,52.6571620583061 0.183456930860066,52.6568983215159 0.183542523826723,52.6564507102676 0.18355741034205,52.6563947044 0.183629461156185,52.6561182229307 0.18365373273091,52.656071932141 0.183681181625574,52.6560282793687 0.18381770725268,52.6559790198739 0.18384177886579,52.6556620737875 0.186372486374947,52.6554705957514 0.188865315160051,52.6552924377624 0.191129217215362,52.6551174722387 0.195514042603921,52.6547495639954 0.197847097133624,52.6545713903012 0.198731706779842,52.654492055479 0.198810353464499,52.6548520440031 0.201312171250687,52.6543812158701 0.201681256213616,52.6543122438841 0.202506595001539,52.6541404951236 0.205379664717076,52.6534711225399 0.205270720982671,52.6532150756174 0.207329844194351,52.6527074133458 0.211947359380919,52.6515395563172 0.212270718160003,52.6527608798292 0.212342421575472,52.6528917695301 0.213359332937816,52.652592228427 0.213923031105606,52.6524260965588 0.215411416852796,52.6519765996615 0.215987877108572,52.6518003322791 0.217372547090849,52.6513761230772 0.219195661624712,52.6508267396872 0.221116265840245,52.650272893579 0.223083949436273,52.6496892775389 0.224921592661879,52.649164701358 0.22659884195562,52.648713315381 0.226675476286694,52.6487945190248 0.226897334192563,52.6490296030569 0.228249635596284,52.6501569358913 0.230417974387829,52.6520933704277 0.231160459867882,52.6528257525875 0.231231573179932,52.6529152037788 0.231395891321415,52.6531233516006 0.231719203063741,52.6536073461778 0.232212739622916,52.6544127297676 0.23262296284686,52.6551809377323 0.233206504785397,52.656330789405 0.233704904030189,52.6573500147763 0.234165393955581,52.6583187147968 0.234825820359468,52.6593799150751 0.235004652765042,52.6596399217152 0.23915691755281,52.6644125763963 0.239969490715874,52.6653233637103 0.24046102826445,52.6659695542161 0.240908073941308,52.666527592964 0.241344653599775,52.6669356202399 0.241951633237014,52.6675850160722 0.242510102955558,52.6682083591059 0.242905054972503,52.6686720922577 0.243108656244862,52.6689496871544 0.243241057716908,52.6692537977396 0.243540824855676,52.6696778905506 0.244075904180909,52.670334030016 0.244168618996012,52.6705274271359 0.244731404318481,52.6712621429949 0.245131852932009,52.6717464392745 0.245609278921351,52.6722309842869 0.245885006866853,52.6724137211589 0.246035890392838,52.672559181766 0.246403346231331,52.6728300694779 0.247341098065752,52.6735217104965 0.247634634914381,52.6736780371873 0.247819166950946,52.6738444311332 0.248116798213569,52.6740519169164 0.24944086818696,52.6748028237967 0.249812934741013,52.674991724707 0.250492399434926,52.6754329540443 0.250719366780816,52.6755607841627 0.250947548949282,52.6756813992792 0.251282697250646,52.6758423214921 0.251920602322106,52.676108057429 0.252116917007799,52.6761852292837 0.252585922102526,52.676358886033 0.253216446572004,52.6765662359866 0.25597985629605,52.6773148739169 0.25683408758504,52.6775548922315 0.256870390395053,52.6783184522104 0.256991350627988,52.6806935782919 0.257138107684074,52.681531441446 0.25718652555053,52.6826149607931 0.257301133339892,52.6839174518176 0.257396894431635,52.6842249415551 0.25758507132756,52.6846898682753 0.258780020825853,52.6874328618175 0.258969514642083,52.6880361928286 0.25958688241111,52.6895044757937 0.259642262984211,52.6897453158434 0.259356507953131,52.690659825341 0.258954865290772,52.6918516066385 0.258417730736587,52.69334548291 0.258116066764706,52.6942387173127 0.258027724784987,52.6947637428689 0.257748856165571,52.6959856307844 0.257518424663426,52.6971130206189 0.257305770600622,52.6981546752127 0.256545659291281,52.70232693491 0.256304060820662,52.7037287884173 0.256185877327961,52.7043361788423 0.256155741572936,52.7044688911332 0.256062157315069,52.7046918922852 0.25623205994521,52.705172449447 0.256418425801392,52.7058585415661 0.25650213846794,52.7063622229621 0.256583209627124,52.7071600744983 0.256597040246925,52.7072838603995 0.256519847558751,52.7075667756262 0.256645493835935,52.7080787367883 0.256795499533105,52.7083483393527 0.256934647630205,52.7087197247513 0.256973831757679,52.7088475220096 0.256986635707585,52.7091547937857 0.256971654052687,52.7094652900746 0.256986134539175,52.7099470056309 0.257100894212856,52.7105931103441 0.257077619285477,52.7108588199271 0.257105951478592,52.7111783797984 0.257179884893491,52.7122963753083 0.257268550655546,52.7138700144806 0.257281830342893,52.7145009708134 0.257308738206519,52.7151073975723 0.257270279705674,52.7153958678168 0.257099865340769,52.7162830020964 0.256958227927828,52.7169519639184 0.256694338337966,52.7183794972912 0.256649126116296,52.7190529156976 0.256648842316657,52.7193927949487 0.256685296237907,52.7198128769124 0.256681672008799,52.7201707983656 0.256575082151413,52.7209182855101 0.256471270901561,52.7215469749456 0.256423976589054,52.7219506715798 0.256412843772504,52.722567709478 0.2562806983933,52.7236222069686 0.256176650071733,52.7248758159025 0.256077354190402,52.7253911562165 0.255894252525779,52.7266651393078 0.255843380504429,52.727172365288 0.255819041241314,52.7276187704642 0.255842026365532,52.7280049484927 0.255775492855684,52.7285825854626 0.25568126560847,52.7290519829732 0.255573474078596,52.7294028943775 0.255587262672777,52.7296984588682 0.255530264615521,52.7299143791954 0.255349888216327,52.7302361075145 0.255115878738991,52.7312413876711 0.255036428418702,52.7318245726174 0.254970565042769,52.7322143279178 0.25491909455535,52.7329966258329 0.25481594477215,52.7334661918199 0.254764162857535,52.7338969369512 0.254530316092034,52.7344750546965 0.25440911875963,52.7350824911746 0.254312950547098,52.7352874678821 0.254300577888863,52.7353056814854 0.253579807558508,52.7354893576161 0.253350916678288,52.7355602231349 0.252857483366995,52.7354725156243 0.252398506421362,52.7355342662455 0.252076896548494,52.7355313839491 0.252062960820784,52.7354624339853 0.252030609010589,52.7354082164174 0.251953959986382,52.7353286818416 0.251606079199747,52.735105169832 0.251378777232378,52.7350338875998 0.251249710693584,52.7350012803981 0.251200303493095,52.7349905327794 0.250580854424389,52.7349861073407 0.250308345267407,52.734957119789 0.250189363005528,52.7350348836833 0.248916451989675,52.7347947507158 0.248851433974058,52.7348840745342 0.249157360849654,52.7362808995986 0.249173532443345,52.7364218083293 0.2492221947962,52.7368497458512 0.248373815550029,52.7367714457805 0.247001750637751,52.7365348736966 0.246028801687787,52.7364256547435 0.245748205636205,52.7364128989267 0.245644472311959,52.7364121658613 0.244988189407573,52.7364399567527 0.244893288337539,52.736439954148 0.244743117973331,52.7364292228893 0.244489482764499,52.7363944698701 0.244096917012424,52.737345096717 0.243152665727649,52.7373620532626 0.243097407313697,52.7377273261244 0.243091176234271,52.7382695619635</coordinates></LinearRing></outerBoundaryIs></Polygon>
  </Placemark>
