  <Placemark>
	<Style><LineStyle><color>ff0000ff</color></LineStyle><PolyStyle><fill>0</fill></PolyStyle></Style>
	<ExtendedData><SchemaData schemaUrl="#Wards__December_2019__Boundaries_EW_BFE">
		<SimpleData name="objectid">1879</SimpleData>
		<SimpleData name="wd19cd">E05004606</SimpleData>
		<SimpleData name="wd19nm">Ringwood East and Sopley</SimpleData>
		<SimpleData name="wd19nmw"></SimpleData>
		<SimpleData name="bng_e">416737</SimpleData>
		<SimpleData name="bng_n">104446</SimpleData>
		<SimpleData name="long">-1.76366</SimpleData>
		<SimpleData name="lat">50.839291</SimpleData>
		<SimpleData name="st_areashape">27506897.6797276</SimpleData>
		<SimpleData name="st_lengthshape">39244.2075461386</SimpleData>
	</SchemaData></ExtendedData>
      <Polygon><outerBoundaryIs><LinearRing><coordinates>-1.76529152577367,50.8616891064963 -1.76528586662143,50.8616729127754 -1.76516800530987,50.8616511001706 -1.76517083065625,50.8613912004698 -1.76517282140814,50.8612743334638 -1.7651706133855,50.8608498148589 -1.76517077103319,50.8608183496957 -1.76527754571048,50.8607844014759 -1.76543810977267,50.860770338624 -1.76559883969712,50.8607463875032 -1.76575945153013,50.8607224359247 -1.7659415466891,50.860689536179 -1.76610933173385,50.8606602046372 -1.76629285399393,50.8606228126398 -1.76642361947787,50.8605934058246 -1.76650768979135,50.860554826686 -1.76654627972044,50.8605216396378 -1.76665993821883,50.8605164724496 -1.76675946607285,50.8605022860854 -1.76685904447181,50.8604782113564 -1.76692738851404,50.8604450843423 -1.7669815362071,50.8604164235821 -1.76703432639318,50.8603778708148 -1.76711846950817,50.8603007234573 -1.76720280215987,50.8602091017535 -1.76724997245175,50.8601462645941 -1.7672959025899,50.8600501618236 -1.76732659179387,50.859885613117 -1.76734306010291,50.8597067422225 -1.76735061169589,50.8596248570423 -1.76735096865839,50.859552936769 -1.76737403444892,50.859484657813 -1.76745133416575,50.8593697371189 -1.76713930133728,50.8592674389109 -1.76692636494015,50.8592139734012 -1.76685683077506,50.8592039456386 -1.7667815791213,50.8591894109875 -1.76670487315622,50.8591847635705 -1.76672066370639,50.8591659157493 -1.76676648660573,50.8590913891641 -1.76678361635169,50.8590626547204 -1.76679230208799,50.8590357010931 -1.76679810009621,50.8590240257201 -1.76681534510049,50.8589718277243 -1.76682683800441,50.8589457789573 -1.76683271201457,50.8589188206245 -1.76684138709328,50.8588702907601 -1.76684318291458,50.8588154540825 -1.76682749091337,50.8588145244516 -1.76683359744438,50.8587408170614 -1.76684224565408,50.8586976818607 -1.76685693983316,50.8586167101748 -1.76687157513967,50.8585241404678 -1.76688616872742,50.8584396623171 -1.76689090174194,50.8583595700557 -1.76688986628059,50.8582849491617 -1.76689025522735,50.858206735817 -1.76689205963565,50.8581267276469 -1.76689223846147,50.8580907670431 -1.76689246690668,50.8580448282235 -1.76688833344226,50.8580043644729 -1.76688013695722,50.8579567002576 -1.76686889917856,50.8579315054721 -1.7668532879622,50.857914392718 -1.76652919979806,50.8579533038603 -1.76628890166462,50.8579851881692 -1.76609982484595,50.8580108821523 -1.76604755255744,50.8579460490293 -1.76603066507952,50.8579262366989 -1.76596988653563,50.8578523956207 -1.76591482095532,50.8577839606644 -1.76588373378618,50.8577461398803 -1.76584693858904,50.8577252994016 -1.76582723095857,50.8576839051803 -1.7658173374457,50.8576712991833 -1.76596545459954,50.8576140582592 -1.76597683401512,50.8576104848258 -1.76596984632567,50.8575790053477 -1.76591426837867,50.8573315756785 -1.76589476430706,50.8572497263476 -1.7658752723519,50.8571651801213 -1.76584753624599,50.8570427688591 -1.76581969681046,50.8569177503926 -1.7658424298013,50.8569159973317 -1.76587716351389,50.8567865195578 -1.76591042868013,50.8566697140665 -1.76593511993177,50.8565807607427 -1.76596108617847,50.8564945077767 -1.76597125961358,50.8564512848467 -1.76596850520235,50.8564162185385 -1.76598146705959,50.8564009604358 -1.7659874401443,50.8563308498772 -1.76600240708812,50.856171753689 -1.76601671544018,50.8558867050888 -1.76591060386914,50.8557902087875 -1.76583273960768,50.8557370112854 -1.76563732263911,50.8556035656994 -1.76567004689012,50.855594641203 -1.76565171529592,50.8555595427938 -1.76561057911833,50.8555639558792 -1.76558650326806,50.8555531190982 -1.76556263957343,50.8554765648577 -1.76551439356193,50.855473771292 -1.76549312924258,50.8554629410236 -1.76548330374771,50.8554368496496 -1.76544077967067,50.8554142889355 -1.76543529618566,50.8553864086146 -1.76543546261563,50.8553531457848 -1.7654843021287,50.8552372708703 -1.76552289781902,50.8552021965648 -1.76554710385899,50.8551869619329 -1.76549643836145,50.8550825745754 -1.76546705066951,50.8549863205829 -1.7654447854141,50.8548944872874 -1.76542961608894,50.8548126465287 -1.7654298814805,50.8547596053086 -1.76546161537488,50.8546679692545 -1.76554601648025,50.8545376908802 -1.76556054927851,50.8544891736979 -1.76557632110356,50.8544505473891 -1.76557665825241,50.8543831215559 -1.76557706731776,50.8543013129107 -1.76555495053132,50.8541798111427 -1.76554246224327,50.8541240474517 -1.76553991611721,50.854071000593 -1.76555269353502,50.8540692276455 -1.76555291382372,50.8540251763502 -1.76556866301849,50.8539910454549 -1.76561005857781,50.8539577752671 -1.76564713427353,50.8539218885258 -1.76565014302608,50.8539057121511 -1.76566015287791,50.8538715697506 -1.76566035957921,50.8538302162425 -1.76564792968015,50.8537627648381 -1.76563967569883,50.8537034134434 -1.76563988691671,50.8536611597719 -1.76563303944117,50.8536250960428 -1.76564041315436,50.8535558866459 -1.76564346232807,50.8535316196008 -1.76563369557264,50.8534938414083 -1.76561835594517,50.8534227879809 -1.76560584980166,50.8533706204425 -1.76560322768381,50.8533327666279 -1.76559065865769,50.8532931842739 -1.76558240932165,50.8532329345066 -1.76552936613729,50.8530422365197 -1.76549860212103,50.8529404968798 -1.76546142493293,50.8527156681905 -1.76543799111932,50.85257708295 -1.76542578225939,50.8524655811001 -1.76542611060283,50.8523999537708 -1.76541395529052,50.8522541987436 -1.76540737313829,50.8521651827762 -1.76541482835825,50.8520797021069 -1.76544117629814,50.8519404072808 -1.76548624023693,50.8517354320294 -1.76551407401347,50.8515565838639 -1.76553459154125,50.851435168347 -1.76554781635207,50.8513434951379 -1.76556697921732,50.8512122775259 -1.76558312342592,50.8510989439872 -1.76553361048532,50.8510691769034 -1.76555519646949,50.8510152790901 -1.76558136396985,50.8508885709638 -1.76561052992934,50.8507473941448 -1.76562658804058,50.8506512311279 -1.7656342634159,50.850545162924 -1.76563469974053,50.8504578696677 -1.76562791862408,50.850385035739 -1.76561282231774,50.8502888112773 -1.76558210935844,50.8501771815768 -1.76553729133112,50.8500521289505 -1.76549909152348,50.8500088999429 -1.76545374773752,50.8499890304844 -1.76536989089012,50.8499888623893 -1.7652861505232,50.8499886944676 -1.76523210841648,50.8499984753619 -1.765156655941,50.850027092586 -1.76508689259598,50.8500656095771 -1.7650255850886,50.8500996498423 -1.76497307006967,50.8501085344108 -1.76497326383819,50.8500698768924 -1.7650030986924,50.8500528551331 -1.76501594118934,50.850037597792 -1.76502599956812,50.8500169410254 -1.76502900068777,50.8500025631943 -1.76502480645549,50.8499746845327 -1.76502066254323,50.8499602923552 -1.76501639623131,50.8499467983046 -1.76500673818811,50.8499108188192 -1.76499969821974,50.8498901268201 -1.76498140442619,50.8498477469572 -1.7649687377152,50.8498279429281 -1.76489245748682,50.8497414847625 -1.76478798816119,50.8496244027322 -1.7647751991819,50.8496054977075 -1.7647025032758,50.8493885990963 -1.7653506473945,50.8492937053393 -1.7655866945502,50.8492600159463 -1.7662120256679,50.8491829627291 -1.76649493180198,50.849146668184 -1.7671216166161,50.8490795920192 -1.76764035886056,50.8490275813531 -1.76789192937116,50.8490038065163 -1.76851721884704,50.8489574033874 -1.76876864977736,50.848938036264 -1.7690897600037,50.848919795356 -1.76945645595866,50.8488962492646 -1.76994375813733,50.8488774371775 -1.77028758896923,50.8488592379458 -1.77068396050201,50.8488501314046 -1.77106463298156,50.8488418918658 -1.7714468119473,50.8488372493378 -1.77156896465646,50.848837489495 -1.7715916846969,50.8488375341495 -1.77170259974608,50.8485239061001 -1.77184205628852,50.8481689791336 -1.77199382743112,50.8476171022351 -1.77205920509042,50.8473222637603 -1.77213912881088,50.8469501388104 -1.77220196877968,50.8465986572696 -1.7722158476005,50.8463693457098 -1.77221952305328,50.8461913473152 -1.77219447854219,50.8460914178237 -1.772079029569,50.8458700333623 -1.77197374855929,50.8456288010986 -1.77195043744814,50.8454614483824 -1.77196756390231,50.8448535682543 -1.77201572743548,50.844292586678 -1.77201573180229,50.844291688313 -1.77202391202482,50.8440785479208 -1.77198472167951,50.843949911885 -1.77192435020283,50.8437941733458 -1.77191174199436,50.8437617837691 -1.77186137185624,50.8436205395179 -1.77181346788499,50.8435259588606 -1.77173586682036,50.8434215213772 -1.77162693005408,50.8433314052383 -1.77153630920566,50.8432798939236 -1.77142434337166,50.843234722698 -1.77127247988904,50.8432065545375 -1.77094321669621,50.843151964941 -1.77047490320068,50.8430836143765 -1.77004212954554,50.8430036462052 -1.76974270872701,50.8429535169018 -1.76964764663855,50.8429245598754 -1.76987602550252,50.8427038549872 -1.7700315571662,50.8425566344047 -1.77020570457465,50.8423618923621 -1.77030314972063,50.8421911817125 -1.77036788335374,50.8420284979073 -1.77042727435112,50.8417849821665 -1.77058918968088,50.8415047185503 -1.77073756700428,50.8413583820426 -1.77089866623811,50.8412445243221 -1.77104679998649,50.8411477225442 -1.77126631032918,50.8409898376113 -1.77160112691419,50.8407665517179 -1.77184046590389,50.8405998045504 -1.77207146805017,50.8404131719756 -1.77224557716198,50.8402471952868 -1.77234993572044,50.8400971742271 -1.77240195682037,50.8399219680237 -1.77243547304579,50.8397475340042 -1.77242848223233,50.8397160547105 -1.77228851245878,50.839000882677 -1.77220995461897,50.8388055520165 -1.77204965147443,50.8384689153669 -1.77173102925948,50.8379908219762 -1.77145352746447,50.8375333965415 -1.77137609624524,50.8373965931704 -1.77127920750451,50.8371679624926 -1.77122701567894,50.8370896453493 -1.77117201553373,50.8370112327241 -1.77093485223316,50.8367356656793 -1.77053117396194,50.83622494724 -1.77037330800352,50.8359925982387 -1.77018036972375,50.8356540967029 -1.76980327679381,50.8349546335312 -1.76971427668501,50.8348627581322 -1.76962790518406,50.8348076565308 -1.769548543661,50.8347796297492 -1.76946760696724,50.8347623874915 -1.76931165037337,50.8347153291991 -1.76915166084607,50.8346314032024 -1.76908364551182,50.8345818223358 -1.76902010719758,50.8345268555766 -1.76881651431162,50.8343339708094 -1.76869521988545,50.8341673212964 -1.76864890692237,50.8340620444958 -1.76860823224464,50.8339531818009 -1.76858606829554,50.8338415700383 -1.76853811259475,50.8334997583691 -1.76855143019323,50.8331023289806 -1.76856471470853,50.8329962716266 -1.76861731617461,50.8326807310244 -1.7687141844472,50.8323392076224 -1.76878811651921,50.8320425896303 -1.76883192081227,50.8317773763705 -1.76886342261806,50.8314429151456 -1.76885969144852,50.831344824731 -1.76891389395538,50.8309888314186 -1.76892168545066,50.8308566912886 -1.76891225279027,50.8307514879552 -1.76891348402842,50.8305014731166 -1.76888413985409,50.8301129495959 -1.76882456261121,50.8295399767613 -1.76879583587425,50.829026401191 -1.76877556668355,50.8288159008142 -1.76879762131291,50.8286640103653 -1.76883010910872,50.8284140585199 -1.76889409603452,50.828091347795 -1.76889480881767,50.8279466081663 -1.76890571996124,50.8277514529622 -1.76891707368719,50.8274663962795 -1.76891801657433,50.827274907365 -1.76892558793762,50.8271876279639 -1.76894601882144,50.8270797870195 -1.76905591717248,50.8266564773401 -1.76921455594587,50.8261765371397 -1.7692681971401,50.8259329202082 -1.76927187900271,50.8257791954627 -1.76926249118425,50.8256649112701 -1.76923879087784,50.8255569817113 -1.76918704693035,50.8254148346172 -1.76910555715289,50.8252275863274 -1.76896029188106,50.8250366158867 -1.76887874401888,50.8248854184152 -1.76885776283709,50.8248197483733 -1.76885815278407,50.8247405453569 -1.76887981549825,50.8246677677164 -1.76912879183958,50.8245495922834 -1.76934783672088,50.8244718126709 -1.76958845011981,50.8243400441679 -1.76964965979328,50.8242943158925 -1.76974383994745,50.824209095532 -1.76979657168775,50.8241498648243 -1.76982818233006,50.8240770167761 -1.76980768504664,50.8239124552802 -1.7697770452265,50.8237873411451 -1.76972662328577,50.823662277729 -1.76970586635935,50.8235507577383 -1.76968521140293,50.8234184709427 -1.76968598757963,50.8232602456079 -1.76969853177503,50.8230174450111 -1.76974209430269,50.8225363758749 -1.76976427040845,50.8223584142155 -1.76975064315985,50.8222252420512 -1.76973272889348,50.8221308094395 -1.76968223510293,50.8219967557562 -1.76956986249824,50.8217591022446 -1.76949674704702,50.8216078319187 -1.76945615901407,50.8214827869498 -1.76942555657029,50.8213505702574 -1.76942594550715,50.8212713680876 -1.76942643113036,50.8211724764336 -1.76940556723058,50.8211068066826 -1.76926267010697,50.8206982781487 -1.76905727611792,50.820336284244 -1.76894303006774,50.8201715361631 -1.76888103478003,50.820092299861 -1.76876643620943,50.8199993824823 -1.76870568155314,50.8199534119258 -1.76864334323019,50.8199200235722 -1.76857671338062,50.8199028100357 -1.76850723294974,50.819893681582 -1.76834113450754,50.8198960475448 -1.76799892854055,50.8199124465058 -1.7677277365057,50.8199119083455 -1.76748938346917,50.8198979501667 -1.76719842408781,50.8198712996338 -1.7670424475914,50.8198386241233 -1.76691779308039,50.8197916268761 -1.76683724544459,50.8197248487831 -1.76679918654226,50.8196582452725 -1.76679946782586,50.8196016084411 -1.76680422132659,50.8194928359217 -1.76683920117405,50.8193309925395 -1.76685743257121,50.8190774146366 -1.7668611747442,50.818889527047 -1.7668491632393,50.8187392769924 -1.76681436418758,50.8186052539376 -1.76675996887312,50.8184108673564 -1.76671085562565,50.8182840072446 -1.7666279945409,50.8181183326098 -1.76653492928311,50.8179805960896 -1.76641202990038,50.8178643771899 -1.76620126122855,50.8177191238471 -1.76599318470594,50.8175973403596 -1.76570288217995,50.8174654125468 -1.76540269899415,50.8173200685508 -1.76489840636099,50.8171040999982 -1.7645216593014,50.8169406197683 -1.76420706982467,50.8168221249696 -1.76378487783509,50.8166666415201 -1.76328746181973,50.8165055205307 -1.76296575599684,50.8164068756928 -1.76274756913229,50.8163201269894 -1.76240526789406,50.8160829006296 -1.7622921589807,50.8159774850277 -1.76205342676796,50.8157656397212 -1.76177508431379,50.8154952772866 -1.76165378069002,50.8153448939643 -1.76161497395148,50.8151739116583 -1.76160308495152,50.8150030732298 -1.76159062355974,50.8149220462911 -1.76154733928675,50.8148032866705 -1.76133613836922,50.8144494514314 -1.76122957992043,50.8141848318796 -1.76122309769829,50.8140787344364 -1.76123653547801,50.8139447182098 -1.76125009616267,50.8137865179493 -1.76125104753991,50.8135994332165 -1.76122640478831,50.8134284796346 -1.76122800972437,50.8133889254726 -1.76123460599876,50.8131965492089 -1.76124172595557,50.8129240699189 -1.76127167773722,50.8126264655304 -1.76126897502701,50.8125824079778 -1.76127378085005,50.8124889198452 -1.76127690102255,50.8124277024621 -1.76127033768289,50.8123144132965 -1.76123979637378,50.8121759016864 -1.76121747861206,50.8121002484126 -1.76119517733601,50.8120210888815 -1.7611505997496,50.8118581853333 -1.76106827265862,50.8115937049105 -1.76100568243475,50.8113372656293 -1.76098130717843,50.8111141687164 -1.7609762596749,50.8109793053198 -1.76102809896886,50.8108417713131 -1.76112547579029,50.8106549743097 -1.76122883200747,50.8104429260013 -1.76130671935167,50.8101993607622 -1.76134027312146,50.8100214224684 -1.76135338495214,50.8099512362608 -1.76140560165865,50.8097157992872 -1.76146246497524,50.8094182495982 -1.76149474540528,50.8092141477288 -1.76149531619369,50.8091017705437 -1.76147528902467,50.8088517122359 -1.7614754462565,50.8085441573079 -1.76144558775592,50.8082716022326 -1.76139792967873,50.8081627236975 -1.76139657175658,50.8081537308329 -1.76134483708106,50.807995307161 -1.76127344240037,50.8077910835047 -1.76115987402853,50.8075273483944 -1.76106870634267,50.8073229942807 -1.76098566267281,50.8071780819712 -1.76090303703564,50.8069737451736 -1.76076979958903,50.8066443409131 -1.76060597382604,50.806209687841 -1.76054444699978,50.8060449514519 -1.76045216709757,50.8057614804036 -1.76040222557696,50.8055509169889 -1.76035062969611,50.8053665110981 -1.7602993361075,50.8051226813982 -1.76021906297036,50.8047340495782 -1.76016886488703,50.8045513550776 -1.76072243578329,50.8045264172029 -1.76135400856559,50.8045097276339 -1.76203103658445,50.8045048141958 -1.76224671569936,50.8044980604657 -1.76271520006872,50.8044540606314 -1.76280325221612,50.8044416529495 -1.76305029646852,50.8044331636901 -1.76314827087715,50.804425271352 -1.76318374694917,50.8044208477015 -1.7635458936219,50.8043721345359 -1.76361693609668,50.8043453078654 -1.7636392993203,50.8041330933715 -1.76366851843975,50.8039766327811 -1.76370850449744,50.8039128827055 -1.76364933738925,50.803835447554 -1.76362830504938,50.8037832621011 -1.76367017912802,50.8036466049417 -1.76369199070984,50.8035207858125 -1.7637263255886,50.8031845308089 -1.76377781177086,50.8028348257212 -1.7637951111216,50.8027683328328 -1.76388240764159,50.8026263734339 -1.76406169213895,50.8022463587376 -1.76407766767674,50.802187055572 -1.7641335959163,50.8020702053305 -1.76416392756081,50.801971374474 -1.76416252373095,50.8019479966554 -1.76414007470106,50.8018985053615 -1.76415172199963,50.8018391934525 -1.76426464605811,50.8016721127822 -1.76460153807105,50.8012888185944 -1.76478846114212,50.8010868252052 -1.76490251548363,50.800973777627 -1.76508062224371,50.8008266059442 -1.76513907538231,50.8007655893864 -1.76518202166752,50.800693753895 -1.76528767653935,50.800575295184 -1.76549999531532,50.8003940287281 -1.7655812350683,50.8003150774132 -1.76562278041917,50.8002422497254 -1.76562726250088,50.8001883171665 -1.76567228360453,50.7999816322252 -1.76567690931414,50.7999222161373 -1.76576740005688,50.7997003389824 -1.76579598596094,50.799645555411 -1.76606296714078,50.7993169576192 -1.7660629716193,50.7993160583475 -1.76613890163714,50.7991749737044 -1.76620451403146,50.7991085770211 -1.76632879659171,50.7989370223636 -1.76653587603258,50.798677618503 -1.76657019331466,50.7986227562489 -1.76660301294759,50.7985868613221 -1.76665141924305,50.7985456027053 -1.76672111637892,50.798504386544 -1.76679650262179,50.7984721717963 -1.76683492500998,50.7984623590249 -1.7672597401312,50.7986241306977 -1.76770483585536,50.7987311901989 -1.76823501701005,50.7988320368004 -1.76859480223232,50.798944232357 -1.76867985274749,50.7989686751018 -1.76899294777193,50.7990592908464 -1.76979101485478,50.7992388811766 -1.76978007778785,50.79855811938 -1.76973554136465,50.7983836201327 -1.76973307307764,50.7983143004842 -1.76969672346756,50.7982117401125 -1.76962492812526,50.798084835164 -1.76961107193104,50.7980235846559 -1.76961134968974,50.7979669467071 -1.76962439817268,50.7979067378574 -1.76964592825666,50.7978582328753 -1.7696859643256,50.7978052699704 -1.77010917606823,50.7977215101188 -1.77023296535248,50.7979340149326 -1.7703654983189,50.7981051807673 -1.77052132543738,50.7981540363274 -1.77084309478764,50.7982409772031 -1.77191737093702,50.7984931100849 -1.77230300613073,50.7985594951284 -1.77277071215404,50.7986619998768 -1.77307538163955,50.798754385844 -1.77319068169206,50.7989595885073 -1.77325791604724,50.7991611909538 -1.77328867614779,50.799235869681 -1.7733407495223,50.7993304586852 -1.77334214993935,50.7993313606979 -1.7734292746483,50.7995086376307 -1.77350360265581,50.7996949704783 -1.77356129798011,50.7997885811274 -1.77373804159436,50.7999174857032 -1.77397256116721,50.8001481822551 -1.77439139752923,50.8001013480025 -1.7746058004514,50.8000631068044 -1.77502202245296,50.7999758092926 -1.77521797429629,50.7999302479654 -1.77571399649964,50.7997666860154 -1.77593705329629,50.7997041848041 -1.77607633071619,50.7996684920263 -1.77668140590525,50.799549996714 -1.77677085689043,50.7995357846458 -1.77684608831113,50.7995350299039 -1.77708151494773,50.7995525637343 -1.77716477655803,50.7993387559029 -1.77716478082341,50.7993378566307 -1.77712019810575,50.7991668664634 -1.77697869218438,50.7987853197675 -1.77694242921659,50.7986610945828 -1.77688844208445,50.7983768101757 -1.77681875022903,50.7981231520328 -1.77660012646317,50.7978457425948 -1.77631167005871,50.7973208772128 -1.77625349417732,50.7970329872517 -1.77622071467331,50.7967676227959 -1.77628734990624,50.7964826701311 -1.77663199990864,50.7965058990002 -1.77683195246391,50.7965260620873 -1.77705316961223,50.7965516595311 -1.77723906033094,50.7965520161493 -1.77738389212083,50.7965271211254 -1.77816478111285,50.7964278344006 -1.77858502144266,50.796372896954 -1.77901372619193,50.7963341557557 -1.77993482235443,50.7962711751024 -1.7807139075897,50.7962303939938 -1.78118782669243,50.7962285907762 -1.78135944039858,50.7962549858814 -1.78164717352937,50.7963166602361 -1.78219444967617,50.7964147830872 -1.78237311146091,50.7964348958492 -1.78252480947709,50.7964423724222 -1.78311104432402,50.7964138003989 -1.78444117960489,50.7962616452568 -1.78488971169605,50.7962346062746 -1.78533239611803,50.7962327282593 -1.78606007833387,50.7962781229179 -1.78616413884875,50.7961622506717 -1.7862777246587,50.7961381863322 -1.78644608391621,50.7962374779969 -1.78687452821928,50.796254447445 -1.78732275370393,50.7962948265385 -1.78738690930965,50.7965431643018 -1.78739561212432,50.796817381648 -1.78738365749769,50.7969514047157 -1.78736596687355,50.7970862257324 -1.78728239055785,50.7973810420874 -1.78714768750662,50.7976757646975 -1.78748486504742,50.7977762633169 -1.78752165572745,50.7977898162269 -1.78753441539711,50.7978141129404 -1.78760852649648,50.7980345091951 -1.78767553723117,50.7982990344849 -1.78778201007036,50.7985816120307 -1.78780638337413,50.7988577463598 -1.78779525353001,50.7991203311145 -1.78781968539801,50.7993578072698 -1.78781968133712,50.7993587065425 -1.78783165781406,50.7998415932349 -1.78789012218124,50.800419052117 -1.78819546158615,50.8003719608862 -1.78838286146656,50.8003525245532 -1.78851046634666,50.8003608477576 -1.78877292077165,50.8003802047601 -1.78890199443158,50.800400218147 -1.78906511850934,50.8003933220233 -1.78928509033908,50.8003892266426 -1.78942983900783,50.8003840943363 -1.78969814994489,50.8003755902906 -1.78989385971835,50.8003813383169 -1.78997169410089,50.8004264304716 -1.79003542509945,50.8004598100424 -1.79016864021522,50.8004960111519 -1.79033888991078,50.8005178949774 -1.79061146089749,50.8004725368391 -1.79073920029905,50.8004772616263 -1.79085701150533,50.8004783730782 -1.79091092523749,50.8004568937151 -1.79096921801467,50.8004507054668 -1.79099329541187,50.8004561426713 -1.79104144080564,50.8004688156079 -1.79115920404726,50.8004807153276 -1.79129524423506,50.8005133240076 -1.79135916392185,50.8005044487342 -1.79146003714369,50.8004731640749 -1.79155090078062,50.8004562462455 -1.79160623165139,50.8004581431838 -1.79173076189894,50.8005536632 -1.79187929446972,50.8006448205037 -1.79201808906018,50.8007160914991 -1.79240541291654,50.800728471394 -1.79264815561008,50.8007082278292 -1.79298595735097,50.8006746676146 -1.79317613459844,50.8006884919893 -1.79347247737897,50.8007177872248 -1.79355507169547,50.8006657911209 -1.79356957152187,50.8005875121181 -1.79364621566388,50.8005849513644 -1.79371724092972,50.8005832789622 -1.79380803437874,50.8005825417886 -1.79385646464188,50.8005304839192 -1.79389921679248,50.8004928008317 -1.79412722068977,50.8002845426183 -1.7941414290187,50.8002728798629 -1.79428819666903,50.8001265995679 -1.79447097596021,50.7998787030578 -1.79462954384246,50.799628965788 -1.7946756158388,50.7994735159097 -1.79463764388196,50.7993817483212 -1.79462947929414,50.7993223085782 -1.79475721349362,50.7993009579431 -1.79477429477024,50.7993009881256 -1.7948523361562,50.7992993283322 -1.79490043574542,50.7993227873581 -1.79499371152433,50.7994228332351 -1.79504429645772,50.799520017742 -1.79508685855584,50.7995254867189 -1.79509392532663,50.7995416817249 -1.79509809758071,50.7995506791848 -1.79526845191949,50.7995482826482 -1.79542445470884,50.7995638407844 -1.79555343610003,50.7995784518713 -1.7957194119009,50.7995877340075 -1.79593376708408,50.7995827169399 -1.79614387631106,50.7995588125486 -1.79628858908916,50.799560864114 -1.79646178656357,50.7995503800021 -1.7965894193794,50.7995524012614 -1.79666602666029,50.7995579292816 -1.7967354747022,50.799568839501 -1.79680921171708,50.7995887472811 -1.79691114077701,50.7996365738893 -1.79695224546877,50.7996546259541 -1.79702734049584,50.7996854136559 -1.79702589689636,50.7996944012315 -1.79701984587512,50.7997681109017 -1.79701400192859,50.7998211428975 -1.79701936435069,50.7998795883568 -1.79706160475894,50.7999596755716 -1.79710672293645,50.8000236742897 -1.79721129982547,50.8001362353968 -1.79743596723211,50.800345289972 -1.79759853635219,50.8004939122367 -1.79765644728596,50.8005488539007 -1.79775520845427,50.8006812712929 -1.79788079033043,50.8008612945854 -1.7980063003543,50.8010315181629 -1.79814069109275,50.801122552981 -1.79822799367387,50.8012810228648 -1.79832428056475,50.8013360299728 -1.79845322357047,50.801388397635 -1.79847725991121,50.8014037226012 -1.79852798140953,50.8014712367869 -1.79865798520433,50.8016037084945 -1.79874131403892,50.8017072404008 -1.79886420102493,50.8018351150149 -1.79891644435698,50.8019027215916 -1.79896432557184,50.8019783223831 -1.79899803774104,50.8020565955721 -1.7990120002934,50.8021294406953 -1.79902411830894,50.8022778904485 -1.79896521032825,50.802427925005 -1.79895952837408,50.8024431984242 -1.79888466199851,50.8026858949416 -1.79889731495447,50.8027092918224 -1.79892268867758,50.8027677718332 -1.79900046227594,50.8028300286844 -1.7991928027225,50.8029697101505 -1.79950713810797,50.8031465515607 -1.79967555098021,50.8032457341365 -1.79977604148986,50.803304344404 -1.79993195877425,50.8033432704335 -1.80011061018371,50.8033741454696 -1.80016866692534,50.803423691359 -1.80022373371925,50.8034886052565 -1.80028593584626,50.8035264711834 -1.80046036491909,50.8035600353618 -1.8006390847483,50.8035747262755 -1.80076255321421,50.8035956152954 -1.800928302921,50.8036615289475 -1.80109557976772,50.8036986752349 -1.80122733693653,50.803751943023 -1.80133797686297,50.803762921 -1.80146692943683,50.8037875048308 -1.8015859780004,50.8038299618726 -1.80177585546963,50.8038905208283 -1.80190333234919,50.8039599631194 -1.80205346769431,50.804039333277 -1.80224329326881,50.8041125676213 -1.80243457763752,50.8041731278973 -1.80260496717684,50.8041662252759 -1.80270856228668,50.804155612705 -1.8027695782471,50.804170101243 -1.80279486997045,50.804221387835 -1.80278024896076,50.8043319428731 -1.8027801357585,50.8043589138638 -1.80279418327426,50.8043850087293 -1.80296288600591,50.8044177501427 -1.80313872366928,50.804451311862 -1.80325078557337,50.8044586942537 -1.80330614419034,50.804455191835 -1.80346099176153,50.8044158974718 -1.80348512008883,50.8044096451583 -1.80350931874363,50.8044150799915 -1.80356600937198,50.8044286615126 -1.80362404107277,50.8044575285247 -1.80365198584452,50.8045744479123 -1.80402485593182,50.8046380094655 -1.80453399846667,50.8047116887095 -1.80506598340871,50.804779200858 -1.80572399015458,50.804874701166 -1.80671817992003,50.8050229008537 -1.80695221922933,50.8050458558799 -1.80734100808506,50.8050815637365 -1.80770830714224,50.8051361141679 -1.80789266322337,50.8051768752582 -1.80812666612366,50.8052087280316 -1.80833522572375,50.8052252550829 -1.80855944141953,50.8052184326202 -1.80875815700746,50.8052097700615 -1.80897534992121,50.805203834509 -1.80921663059982,50.8052015343591 -1.80942945579226,50.8052045808755 -1.80973550034025,50.8049568629834 -1.80958552873142,50.8048622197523 -1.80870907679791,50.8043607427239 -1.80807792726318,50.8039352726665 -1.80792650715721,50.8038244423579 -1.80785717154631,50.8037838717412 -1.80765314124867,50.8036917444261 -1.80752143590575,50.8036528679116 -1.80696427689917,50.8035063009162 -1.80655730211119,50.8034291172991 -1.80606524192462,50.8033581723414 -1.80576718629226,50.8033693610915 -1.80541495112755,50.803438895255 -1.80519173663574,50.8035446952321 -1.80493162349529,50.8036323626697 -1.80468737047276,50.8036760041121 -1.80445759172807,50.8036432522623 -1.80428188720023,50.8035782269656 -1.804115213547,50.8033962536683 -1.80403234605021,50.8031785502597 -1.80398095284682,50.8029329404313 -1.80397808442592,50.8029194499936 -1.80400648823635,50.8025894668756 -1.80411972662859,50.8023135683806 -1.80443703876866,50.8017781066059 -1.80464305406462,50.8013612173691 -1.80479505930409,50.8009891874373 -1.80480280386302,50.8008147006178 -1.80479470187059,50.8007373705173 -1.8047792638787,50.8006798077384 -1.80475122758078,50.8006131428425 -1.80471036937097,50.8005348592722 -1.80465815249811,50.8004592535481 -1.80459891094737,50.8003845352557 -1.80437856294068,50.8001422373612 -1.80429789411206,50.8000719774026 -1.80425541659532,50.8000458338842 -1.80420730786953,50.8000232770717 -1.80415344175297,50.8000070045832 -1.80409534440435,50.7999951287009 -1.80403430205219,50.7999878341434 -1.80396201127335,50.7999850142596 -1.80383855101816,50.7999919981593 -1.80381443251852,50.799996452903 -1.80330576702792,50.8001566064023 -1.80302852352095,50.8002595247152 -1.80291631711717,50.8002890015203 -1.80280273738089,50.800311284348 -1.8026537158255,50.8003317981966 -1.80254300681398,50.8003388023989 -1.8024734021832,50.8003368863401 -1.80234864328916,50.8003186929276 -1.80197440652378,50.8002271641658 -1.80164176725556,50.8000378016302 -1.80137345969877,50.7997145043233 -1.80132750890964,50.799513854032 -1.80143041663132,50.7993314385512 -1.801645616034,50.7991259307506 -1.80193301342685,50.798944728264 -1.80223995687985,50.7988445618663 -1.80257483562194,50.7988334438649 -1.8028899259156,50.7987989172333 -1.80317820401013,50.7987408802967 -1.80349134204477,50.7985292419138 -1.80354846897789,50.7984367388752 -1.80358707567467,50.7983531055458 -1.80361163794268,50.7982704367541 -1.8036247616071,50.7981814554494 -1.8036237666975,50.7980833711339 -1.80360853387359,50.7979772600426 -1.8035820202398,50.7978828178004 -1.80344287010019,50.797558844296 -1.80329586738434,50.7974344407573 -1.80310039853104,50.7973460051697 -1.80266508232409,50.7972625557041 -1.80235906181539,50.7971739309101 -1.80222757956524,50.7970594418147 -1.80215584547603,50.7968974950863 -1.80219348428703,50.796738342619 -1.80233318221996,50.7965677659313 -1.80273312824563,50.7962689823755 -1.80302193726625,50.7960805879881 -1.80325493975488,50.7960045658723 -1.80355169242143,50.7959583193286 -1.8039049599245,50.7959652097351 -1.80407229256307,50.7959825740826 -1.80423831711705,50.7959774593806 -1.80457915784122,50.795906021986 -1.8046845242092,50.7958306813697 -1.80477835507689,50.7957724030832 -1.80479720417789,50.7956843305184 -1.80458421239684,50.7953656279501 -1.80415035270567,50.7949646524339 -1.80395653944908,50.794817784008 -1.80366902139698,50.7946995265951 -1.80338125840296,50.7946405126344 -1.80297269161671,50.7946281329141 -1.80240915759052,50.7946910959996 -1.80202330099468,50.7946751553822 -1.80150141852816,50.7946256266953 -1.80144472374251,50.7946156403635 -1.80134970964005,50.7945939014074 -1.80126046032939,50.7945640814329 -1.80117406600116,50.7945234767139 -1.80097745188257,50.7944053683474 -1.80090674505269,50.7943341347497 -1.80088701914982,50.7942963419456 -1.80083915407679,50.7942180440557 -1.80086788601507,50.7941183019949 -1.8010544146118,50.7939656982113 -1.80136996599031,50.793842172817 -1.80192366024882,50.7937523175695 -1.80204179965643,50.7936715172933 -1.80215983565571,50.7935872104261 -1.80238484750357,50.7934059911764 -1.80251277997636,50.793332398634 -1.80261941489641,50.793288527831 -1.80301005278358,50.7931660249858 -1.80333695457135,50.7930388283461 -1.80356420730845,50.7929636951231 -1.80367666466978,50.7928694878869 -1.80373253543246,50.7927400329127 -1.8037047151904,50.7926231135845 -1.80341947707499,50.7922988926405 -1.80334485329609,50.792157619665 -1.80338369171474,50.7920452169112 -1.80342075545188,50.7919931366868 -1.80351313194598,50.7919456446902 -1.80364369687519,50.7919404717235 -1.80385637662994,50.7919642053718 -1.80499972144779,50.7923528015165 -1.80543179510092,50.7925028547321 -1.80554377674375,50.7925228211433 -1.8056048304988,50.7925247210612 -1.80564170033856,50.7925193889129 -1.8057325039334,50.7925123484626 -1.80582351667272,50.7924828325742 -1.80592440781007,50.7924406577718 -1.80601689998585,50.7923643951086 -1.80606696395267,50.7922799706702 -1.80606308041618,50.7921720811121 -1.80596719919514,50.7920207959395 -1.80574813251017,50.7918442209749 -1.80542376935231,50.7917006426784 -1.80511908976681,50.7916345029734 -1.80478178182927,50.7915386394312 -1.80455807983646,50.7914374833216 -1.80426603675435,50.7913713617364 -1.80401643791036,50.7913655467019 -1.80341618108775,50.791380714257 -1.80324585290968,50.7914118915146 -1.80280696150619,50.7915245137249 -1.80238924568019,50.7916640507545 -1.80205542621108,50.7917686682229 -1.80159097544514,50.7918938286579 -1.80135814649833,50.7919329871858 -1.80121340762496,50.7919426288682 -1.8010914296457,50.7919361268026 -1.80104035344895,50.791926149899 -1.80100076719233,50.7919098994973 -1.80096531345132,50.7918846660534 -1.80093713128145,50.7918549504587 -1.80090198086148,50.7917855754053 -1.80089919392551,50.7917532055008 -1.80092708645737,50.7915473773102 -1.80107836400397,50.7913191939942 -1.80117544916016,50.7911817199053 -1.80125514730544,50.7911171269921 -1.80147273377539,50.7910024236515 -1.80170006935093,50.7909335873669 -1.80192151606264,50.7909016012293 -1.80210443034937,50.7909091047655 -1.80229156728131,50.7909417887811 -1.80242068114309,50.7909474025092 -1.80253579801931,50.7908881730083 -1.80261555413183,50.790809194412 -1.80261039182566,50.7907013033856 -1.80248596057715,50.7906111887914 -1.80233350372908,50.7904265397686 -1.80188658805858,50.7897522296611 -1.8016330547416,50.78932287178 -1.80144580163439,50.7889870359599 -1.80134499896441,50.788676610463 -1.80127248567122,50.7883707279458 -1.8011942402801,50.788092795119 -1.80109031971413,50.7878291132278 -1.80106509562778,50.7877643406183 -1.80080407980511,50.7874211849644 -1.80047068851,50.7871004700398 -1.80018083117574,50.7868581340355 -1.79978487848624,50.7865912510709 -1.79939310480272,50.7863054935484 -1.79910479299261,50.786059471355 -1.79893346410552,50.7859728689304 -1.79858788947277,50.7858535090663 -1.79824632587276,50.7857809942472 -1.7979456075785,50.7857840667095 -1.79763902049944,50.7858194942265 -1.79724563375698,50.7859123963019 -1.79701831339234,50.7860090937455 -1.7967379046978,50.7862109740656 -1.79655603912041,50.7862897699145 -1.79621528766083,50.7863539018522 -1.79618128984302,50.7863448520652 -1.79606664576842,50.78629610306 -1.79601005188386,50.7862654370692 -1.79594206392784,50.7862194677342 -1.79586014924462,50.7861482103522 -1.79577260891579,50.7860527604288 -1.79570912382529,50.7859663419806 -1.79567677294204,50.7859015556512 -1.79566145983618,50.7858456994863 -1.79565594772238,50.7857953443869 -1.79566053742989,50.7857351176589 -1.79567353972811,50.7856767033969 -1.79569929424065,50.7856174131855 -1.79574356443833,50.7855500646964 -1.79579058218623,50.7854961158265 -1.7958361418663,50.7854548406527 -1.79594569718599,50.7853822120514 -1.79668527318311,50.784939301696 -1.79703088138226,50.7847231514148 -1.79718881739358,50.7846317266581 -1.79725135681192,50.7845849967558 -1.79732122457925,50.7845203883919 -1.79739388232331,50.784432410711 -1.79745098214307,50.7843453051299 -1.79749110330994,50.7842625745957 -1.79750402160965,50.7842230403971 -1.79756708771417,50.7840811042319 -1.79755056967101,50.7839515266356 -1.79752276226219,50.7838364026926 -1.79743219882785,50.78376432323 -1.79730622652809,50.783712858977 -1.7971304979539,50.7836729955761 -1.79676762085322,50.7836111373075 -1.79630134913086,50.783524014795 -1.79599940552414,50.7834623508954 -1.79571624771698,50.7833575673828 -1.79546732377552,50.7831799317728 -1.79493519357183,50.7825881563439 -1.7947883580507,50.7824143855514 -1.79457193310119,50.7822952422148 -1.79434530920477,50.7822085353614 -1.79411859914917,50.7821685760187 -1.79389024279605,50.7821573830423 -1.79370849268564,50.7821858281436 -1.79345863738296,50.782250113993 -1.79280866505266,50.7826383222153 -1.79269496866161,50.7826956569622 -1.79248349443433,50.7827277332791 -1.79212343644349,50.7826658662183 -1.79201732892741,50.7825937544917 -1.79193404727228,50.7825171880701 -1.79187764775336,50.782444265996 -1.79180587001175,50.7823055978369 -1.79178773537212,50.7822543216462 -1.79173772354874,50.7820069101635 -1.79162874348113,50.7816335304603 -1.79155030418338,50.7814148375741 -1.79147074783383,50.7811053404823 -1.79124300733588,50.7806670166166 -1.79098066279937,50.780332018347 -1.79073051001691,50.7801229038058 -1.79027089149037,50.7798127204695 -1.78985063068535,50.7795943960994 -1.78901522261476,50.7792718382993 -1.78874479865219,50.7791786572537 -1.78832666538644,50.7791140641022 -1.78824162844515,50.7790923324513 -1.78817647904415,50.779068838486 -1.78799957146305,50.7789849064129 -1.78793031551427,50.7789389299458 -1.78790633509308,50.7789145218613 -1.78786824551276,50.7788551166957 -1.78785285844892,50.7788182287886 -1.7878320050651,50.7787228937384 -1.78783784189662,50.7786734582915 -1.78786503370749,50.778633951302 -1.78819522479136,50.7783863339622 -1.78834313231978,50.7782876208863 -1.78840864745593,50.7782293041816 -1.78847705560978,50.7781521122964 -1.78852990495834,50.7780757921895 -1.78856571439153,50.7779922476439 -1.78861194711417,50.7778007498127 -1.78864350628502,50.7777261885195 -1.78865922495279,50.7776893574 -1.78865164546195,50.7775022560896 -1.78865124073715,50.7772540346634 -1.7886664445998,50.777045489217 -1.78870218876619,50.7769762395024 -1.78872923429835,50.7769430243436 -1.7887663312701,50.7769107276715 -1.78886872358546,50.7768425876161 -1.78905917463793,50.7767476382479 -1.78923100259874,50.7767110010318 -1.78959998557387,50.7766487394576 -1.79006807710295,50.7766244152613 -1.79049974724732,50.7765334954575 -1.79067773504318,50.7763737008174 -1.7907248170856,50.7763045609441 -1.79074931412724,50.7762129045536 -1.79073732889578,50.7760419781089 -1.790644568503,50.7758386314919 -1.79056751937187,50.7756262331215 -1.79055768711547,50.7756019410524 -1.79029959464889,50.7749773851173 -1.79021105429308,50.7747991323543 -1.79012494978707,50.7747036816153 -1.79007264484664,50.7746595355908 -1.78995686508716,50.7745586371212 -1.78980822506647,50.7744845596102 -1.78956045605373,50.7744040977685 -1.78938754331338,50.7743714189537 -1.7891436013693,50.7743763697134 -1.78884843924219,50.774408195501 -1.78831765573119,50.7744926323443 -1.78816589116273,50.7744896579677 -1.78802581282479,50.7744363603462 -1.78790842974896,50.7743552349817 -1.78786634605817,50.7742490743122 -1.78787534799595,50.774145615083 -1.78792677680932,50.7740468189294 -1.78803253948781,50.7738788078351 -1.78811820351164,50.7737593966336 -1.78824612915509,50.7736805188415 -1.78840390000746,50.7736214721307 -1.78869913579841,50.7735464059265 -1.7887999085445,50.7735250129481 -1.78888242000796,50.7734820114408 -1.78904083524049,50.7732529638819 -1.78921520818555,50.7729593071433 -1.78929171604629,50.7726644828114 -1.78935051446133,50.7725116684352 -1.78938625417369,50.7724425100653 -1.78943770422898,50.77236349111 -1.78949477292089,50.772283494085 -1.78954317238154,50.7722332378727 -1.78970831859395,50.7720923946461 -1.78992153986749,50.7719731247347 -1.79029798796732,50.7718281693638 -1.79043027562961,50.7717394085237 -1.79050021079092,50.7716576359883 -1.79050356659613,50.7715344782856 -1.79049167260731,50.7713437781456 -1.79044956173669,50.7712430132012 -1.79026466244229,50.7710430081053 -1.79017145289129,50.770969120847 -1.79003395619703,50.7709419002262 -1.78987940845786,50.770936225313 -1.78971616830915,50.7709655957246 -1.78936688850728,50.7710765253376 -1.78900758002062,50.7711810536245 -1.78887279597292,50.7712005848291 -1.78874089100414,50.7712039397916 -1.78860188939211,50.7711991909356 -1.78850143313298,50.7711513594934 -1.78849337150911,50.771072231929 -1.7885134716131,50.770996662172 -1.78853495384775,50.7709517508747 -1.78857208690386,50.770910465292 -1.78872728536354,50.7707714029595 -1.78903250151525,50.7706828691989 -1.78926133369039,50.770575406986 -1.7893907368474,50.7705037218626 -1.78955708848313,50.7704059444295 -1.78962959870688,50.7703494392264 -1.78968798220748,50.7702884128307 -1.78972520370653,50.7702273487567 -1.78974533690317,50.7701698487955 -1.78974833680933,50.7701266123007 -1.7897371762008,50.7700861368184 -1.78970896247503,50.770042034101 -1.78966809680342,50.7700033020892 -1.78961854597481,50.7699717465282 -1.78955773903963,50.7699473627181 -1.78948685394763,50.7699283542647 -1.78941312891487,50.7699165319904 -1.78933949077781,50.7699119030351 -1.78917494010376,50.7699214916619 -1.78909256280514,50.7699357248275 -1.78899891850413,50.7699598265408 -1.78892502934422,50.7699848635914 -1.78884266853294,50.7700215728351 -1.7886465589712,50.7701066187318 -1.78851173288113,50.7701361292752 -1.78812235127089,50.7703251060082 -1.78802420475205,50.7703878563819 -1.78777654369016,50.7705735852501 -1.78769280552153,50.7706039982227 -1.78762610310688,50.7706164616614 -1.78754808872146,50.7706226111854 -1.78747152153415,50.770618874094 -1.78740061858911,50.7706034605194 -1.78733410329399,50.7705745695842 -1.78728189058536,50.770537613362 -1.78724234787778,50.770490792129 -1.78722129662925,50.7704403188703 -1.78721727507186,50.7703989577909 -1.78723731543456,50.7703369624351 -1.78726873375745,50.7702929688823 -1.78751934323644,50.7697655325519 -1.78772856900633,50.7692875559299 -1.78809938307968,50.7688070886306 -1.78825898328884,50.7686239839526 -1.78830603342033,50.7685872112999 -1.78862937287546,50.7682613752456 -1.78878945462889,50.767970300779 -1.78883403418708,50.7678327437702 -1.78876314269189,50.7675295588577 -1.78868606350606,50.7673289389123 -1.78853076921008,50.7671541580544 -1.78827683003831,50.7668695239097 -1.78794920841908,50.7665658737608 -1.78739357315634,50.7662195496737 -1.78697364475476,50.7659579781172 -1.78664253619094,50.7658072345586 -1.78620244547747,50.7656103488072 -1.78598601996454,50.7654876846159 -1.78573041931665,50.7652650700499 -1.78563067339041,50.7650652193001 -1.78556774971782,50.7648664271604 -1.78549590627468,50.7647520319108 -1.78523069074099,50.7647668193583 -1.78517249268571,50.7647874777131 -1.78505880033554,50.7648510925076 -1.78501005904059,50.7649507884667 -1.78501191134176,50.7651846182385 -1.78518356633428,50.7654583202273 -1.78524804517911,50.7656238534532 -1.78524748513562,50.7657462041303 -1.78518754502354,50.7658404856202 -1.78512634956076,50.7658772303584 -1.78506530734679,50.7659058830785 -1.78500137151576,50.7659282383677 -1.78493465424229,50.7659451947724 -1.78487791650037,50.7659531791796 -1.78451199745086,50.7659758699498 -1.78440704475772,50.765968481977 -1.78424261020528,50.7659555891657 -1.78412083848651,50.7659194027313 -1.78402179381059,50.7658733687783 -1.78390726920051,50.7658120240287 -1.78380416422432,50.7657336193941 -1.78376632076357,50.7656246807425 -1.783806310692,50.765267768554 -1.78389000098015,50.764941503481 -1.78387910359294,50.764845291008 -1.78380859792966,50.7647713526551 -1.78369543000309,50.7646956257292 -1.78356230081295,50.7646639115932 -1.78342488463905,50.7646492694894 -1.78322498723108,50.7646461973501 -1.78299077370023,50.7646817170711 -1.78283756348352,50.7647200856221 -1.78261441301203,50.7648150475583 -1.78251073459798,50.7648615995095 -1.78240841935699,50.7649162453605 -1.7822533792421,50.7650211341569 -1.78200133876943,50.7652445967714 -1.78186992419775,50.7654476096339 -1.78181621633663,50.7657091141059 -1.78176916127392,50.7660732953579 -1.7817148554447,50.7661612936981 -1.78165216175241,50.766242983252 -1.78127722616993,50.7666694738038 -1.7811633090421,50.7667789348028 -1.78108068038998,50.7668480005654 -1.78099246015438,50.7669125612572 -1.78076780106493,50.7670524674643 -1.78065271619555,50.7671115824297 -1.78053754277715,50.7671644041995 -1.78041677777916,50.767212720816 -1.78028046744471,50.7672601095383 -1.78013423756016,50.7673039724935 -1.77999085466575,50.7673387616182 -1.77984317477282,50.7673672492724 -1.77965879719636,50.7673929699121 -1.77948708310085,50.7674106227389 -1.77937786034134,50.7674158082892 -1.77928434284299,50.7674129329327 -1.77919366813017,50.767401972149 -1.77904769561578,50.7673657322481 -1.77874637285554,50.767223920533 -1.77794274142893,50.766845612282 -1.77748706406009,50.7666622403899 -1.77695592919721,50.7665145911631 -1.77641617900596,50.7664092648384 -1.77613428311903,50.7663646684267 -1.77606489327831,50.7663528473219 -1.77600578000323,50.7665397234842 -1.77595272519539,50.7666817521369 -1.77591411180748,50.7667374148168 -1.77585997039338,50.7667885529215 -1.77559956664819,50.7669922098771 -1.77546805136862,50.7669163489444 -1.77456188348272,50.7675197987203 -1.77442468912973,50.7674332256338 -1.77316186872468,50.7681897111691 -1.77206813861211,50.7685707261683 -1.7702184142559,50.769282873113 -1.76895826450297,50.7697578387641 -1.76888155844042,50.7697829484213 -1.76960701110836,50.770769097086 -1.76993628105931,50.7713155493614 -1.76994178832415,50.7713371367831 -1.76993854183013,50.7717140017485 -1.76994514125484,50.7718227974738 -1.76995043304618,50.7718884367237 -1.7701358846846,50.7725326862638 -1.77011733009873,50.7725488320774 -1.76980204515898,50.7726543814748 -1.76802048671185,50.7733046051137 -1.76799067433889,50.7733036466625 -1.76757563801628,50.7729124644936 -1.76724860617086,50.7730980024823 -1.76559961606714,50.7738843230265 -1.76482773638482,50.7742388765825 -1.76424201854647,50.7745200818305 -1.76345467154643,50.774853917865 -1.76306373355227,50.7750455180368 -1.76267559402936,50.7752381108928 -1.76147796847493,50.7759038295693 -1.76025803827978,50.7765110537957 -1.75995780246744,50.7767056164075 -1.75868780476687,50.7773765524967 -1.75814711070353,50.7777108615714 -1.75803620449291,50.7777654730682 -1.75776637853072,50.7778422301355 -1.75777322856463,50.7778970844498 -1.75778830867123,50.7779889064848 -1.75735216798202,50.7781381391451 -1.75716888624472,50.7781899025997 -1.75709215588773,50.7782158152051 -1.75675242491773,50.7783545471501 -1.75655784589655,50.778419770892 -1.756465435981,50.7784474480965 -1.7563363011226,50.7784759479619 -1.75599991325619,50.7785103084271 -1.75531604673024,50.7785530211286 -1.75454981923845,50.7786242359574 -1.75394511818889,50.7787119684965 -1.75374503926087,50.7787322243766 -1.75302709089664,50.7787837520624 -1.75270934994631,50.7787848788342 -1.75257740702958,50.7787908928017 -1.75207648580712,50.7788455707855 -1.7518578668087,50.7788775611213 -1.75164073042925,50.7789166576392 -1.75145036507018,50.778957608351 -1.75060536281839,50.7791716807824 -1.74957281588666,50.7794436979992 -1.74921491652251,50.779518546314 -1.74905895541021,50.7795101230945 -1.74906838787181,50.7796054402365 -1.74895046643699,50.7796348568567 -1.74830719995654,50.7797782302237 -1.74778309700916,50.7799219446775 -1.74742942585454,50.7800137885221 -1.74706862954171,50.780103907388 -1.74633866622821,50.7802740545073 -1.74599059836717,50.7803883818356 -1.74592845001077,50.7803325077609 -1.74414221901715,50.7809302776258 -1.74348460779391,50.7811033506337 -1.74322613157117,50.7811711151744 -1.7434096887481,50.7815662765649 -1.74341644050743,50.7816364155813 -1.74340345570656,50.7816796302989 -1.74337620985462,50.7817218247918 -1.74323907963727,50.7819049281992 -1.74328254089599,50.7819986111908 -1.74345427736328,50.7822462165786 -1.74362958701262,50.7826108837906 -1.74195754777431,50.7830730242866 -1.74118457205336,50.7833114617349 -1.74132686485106,50.7834888813116 -1.74071556334876,50.7837177805261 -1.7391735936,50.7842494827386 -1.73918841182703,50.7844032488684 -1.73889754199166,50.7844026055776 -1.73866484205497,50.7844155760657 -1.73846197590933,50.7844268136564 -1.73760540950333,50.7846308783058 -1.73728016445883,50.7847119659296 -1.73635684625445,50.7849293584167 -1.73549324919659,50.7851324934781 -1.7348826806209,50.7852435010154 -1.73386161446047,50.7854516671076 -1.73319234293708,50.7856416502604 -1.73300467169416,50.7857149468813 -1.73290082461565,50.7857741377114 -1.73262303474287,50.785981184492 -1.73254042915142,50.7860277467689 -1.73240392289704,50.7860913587371 -1.73221768373485,50.7861592625297 -1.73185831123519,50.7862528452468 -1.73150864212947,50.7863672160516 -1.73137091095745,50.7863992681788 -1.73127152306761,50.7864143254789 -1.73107132559187,50.7864273556052 -1.73042175080473,50.7864213796996 -1.730157911977,50.7864162827574 -1.72981881665587,50.7864200023677 -1.72939758022961,50.7864091488369 -1.72890673023548,50.7864017302905 -1.728155150519,50.786357749437 -1.72773514087469,50.7863774593589 -1.72727690080787,50.7863943834588 -1.72709984412835,50.7863499222597 -1.72697721137554,50.7864602183294 -1.72676336460768,50.7866278421409 -1.72664090766648,50.786707661555 -1.72636882996619,50.7869120096763 -1.7262348543766,50.7870214702226 -1.72613493944477,50.7871264250445 -1.72604484633145,50.7872520797732 -1.72597911817718,50.7873311307595 -1.72583614080794,50.7875195944464 -1.72551183197092,50.7879136938867 -1.72509981209544,50.7885043837448 -1.72465211770124,50.7891130600127 -1.72411432524102,50.78986455947 -1.72379679434036,50.7903143183179 -1.72349233917608,50.7906876903537 -1.72343214423038,50.7907991188872 -1.72338748962521,50.7909131899062 -1.72318217350953,50.7915727731262 -1.72288255840927,50.7925711569867 -1.72279018132658,50.792842536079 -1.72258798440625,50.7932089532266 -1.72246584375196,50.7934685741413 -1.72218774219706,50.7939499778335 -1.72191092153058,50.794451071821 -1.721706638117,50.7946934174606 -1.72136163696191,50.7952088233312 -1.72118290817559,50.7954413389086 -1.72098825178612,50.7957159812044 -1.72056644553509,50.7962590736768 -1.72018448365735,50.7967887733616 -1.71938776980042,50.7978497986405 -1.71856272882041,50.7989072453556 -1.71834095530166,50.799211575642 -1.71834094990734,50.7992124749105 -1.7181779380905,50.7994332453141 -1.71796338195665,50.7997232080405 -1.72021572417397,50.8010684713127 -1.7206979195642,50.8013564916327 -1.72158223619323,50.8015483641662 -1.72328439393715,50.8018994773593 -1.72616167293567,50.8024835360034 -1.72754933172856,50.8027646332771 -1.73078236548121,50.8034384011127 -1.73572783677306,50.8044531469602 -1.73624251888948,50.8045424026536 -1.73502779390517,50.8055289668198 -1.73330964591868,50.806965694246 -1.73265081595488,50.8075073948351 -1.73273546955987,50.8076010844345 -1.73327407457887,50.8094782012698 -1.73436023083576,50.813411441458 -1.73469177401807,50.8145299394945 -1.73529777298507,50.8168118473046 -1.73567849807449,50.8185159862186 -1.73643475473701,50.821613006292 -1.73664726968178,50.8224560427928 -1.73690221784852,50.8235609674484 -1.73727171213008,50.8250330370602 -1.73795147988534,50.8278609750534 -1.73834108189914,50.829559637107 -1.73852797004808,50.8304125901939 -1.73873903426315,50.8312565172497 -1.73899829533786,50.8323821226127 -1.73926629614782,50.8334752916021 -1.73951691120861,50.834623352037 -1.73954202695725,50.8347178044095 -1.73972087943613,50.8352335160884 -1.73982880857445,50.8354909629308 -1.74051866899764,50.8368251853628 -1.74101021683662,50.8378199481799 -1.74166225712794,50.839081259623 -1.73938704887332,50.8395996698605 -1.73916334166498,50.8402412538324 -1.73904492720558,50.8406042858183 -1.73884073221585,50.8413151365679 -1.73895136658301,50.8413405536504 -1.73922794394654,50.841405984354 -1.73966579282586,50.8415723691362 -1.74016352790893,50.8417308831726 -1.74031517598931,50.8417725716196 -1.74000028407031,50.8419642679017 -1.73968965284979,50.8421470735031 -1.73932614274073,50.8423837012449 -1.73902835522056,50.8425511596595 -1.73860643825979,50.8428236166663 -1.73825736298989,50.8430315040371 -1.73796512362405,50.8432106588528 -1.73757895864178,50.843453524373 -1.73756321195185,50.8434633777581 -1.73842769917054,50.8438169007435 -1.73940970671886,50.8442247059295 -1.73953275934064,50.8443139800449 -1.73966140766434,50.8444077609266 -1.73990247087975,50.8444820116626 -1.74042987241816,50.8446603671676 -1.74116962609639,50.8449605533792 -1.74238876614796,50.8454011292106 -1.742321976819,50.8456635850822 -1.74208740946728,50.8459607371394 -1.74170224145044,50.8465111699301 -1.7410348884869,50.8474943978848 -1.74077025041254,50.8478256425364 -1.74074421257989,50.8479172848743 -1.74066874774469,50.8479459776082 -1.74060176817713,50.8479862859303 -1.74050469849618,50.8480885597486 -1.74043310747334,50.8481792025884 -1.74017945618628,50.8485761886085 -1.74050947819809,50.8490022370753 -1.74083952213905,50.8491710780821 -1.74100424736018,50.8494367387925 -1.74082906408127,50.8497915534404 -1.73855946522319,50.8509933799498 -1.73954528303625,50.8515225596454 -1.73992191163102,50.8517419391475 -1.74074329065606,50.8521906447468 -1.74092319034656,50.8522980221465 -1.74101803276145,50.8523459679851 -1.74124030570705,50.8524795086015 -1.74172047151484,50.8527449598677 -1.74187210126144,50.8528181117591 -1.74205189661989,50.8529236887962 -1.74290736769849,50.8534004140158 -1.74315800131505,50.8535331147292 -1.7438860545483,50.8539241495924 -1.74443840193761,50.8542328096477 -1.74474543220249,50.8542065047635 -1.74499428582324,50.8541728809067 -1.74576900319416,50.8540855513352 -1.74603770525551,50.8540420787371 -1.74601556992795,50.8544520708719 -1.74600801091388,50.8545500461577 -1.74600716734219,50.8547056637758 -1.74609049752317,50.8547831579407 -1.74624608427399,50.8549067476725 -1.74616059856266,50.854967696862 -1.74601180196084,50.855147178049 -1.74588709536471,50.8553555702829 -1.74585442454345,50.8556127069633 -1.74585262462107,50.8559445279248 -1.7458868197664,50.8561838287743 -1.74592999445146,50.8563439458684 -1.7459790512977,50.8564780948539 -1.74599989737931,50.8565653436953 -1.74605316202856,50.85670120944 -1.74610181425986,50.8568883981948 -1.74628535059813,50.8573680571676 -1.74635237592407,50.857580457753 -1.74637479376839,50.8576371437797 -1.74644519704661,50.8577668431344 -1.74662012627364,50.8579982651545 -1.74671747098,50.8581064461672 -1.74684305077929,50.8582793263701 -1.7469410976984,50.8582795370806 -1.74698350401575,50.8583227805219 -1.74748674595922,50.8590406428616 -1.74765915911056,50.8592190163496 -1.74781637338424,50.8593048493263 -1.74776969679202,50.8595321994972 -1.74753658284187,50.8603572612664 -1.74748993216527,50.8605577303348 -1.74776021204056,50.8605105722852 -1.74783271116144,50.8604918484093 -1.74819426334803,50.8603766501545 -1.74852318885577,50.8602505933823 -1.74864116771723,50.8602265714237 -1.7487422049353,50.8602159995149 -1.74884451822602,50.8602080363213 -1.74903349437153,50.8602048432178 -1.74907617884602,50.8601968434939 -1.74914166606278,50.8601745076426 -1.74927125814222,50.860103762162 -1.74932251351601,50.8600921844208 -1.74954009904785,50.8600620805102 -1.74966951728297,50.8600236988965 -1.74971795252835,50.8600139126176 -1.74980456633596,50.8600060051077 -1.74993103944682,50.8600143654702 -1.75028862910315,50.8600915400152 -1.75033127014557,50.8600916304611 -1.75043524436053,50.8600576885636 -1.75052788533203,50.859995853269 -1.75065973809437,50.8600500735403 -1.7507591318287,50.8600619709383 -1.75122194944251,50.8601339716096 -1.75153010964241,50.860166089666 -1.75189498989639,50.8602163102036 -1.75219600754112,50.8602476041282 -1.75227406332799,50.8602630524892 -1.75234789132103,50.8602802903928 -1.75255052396646,50.8603751154697 -1.75276890519793,50.8604600841843 -1.75285386696244,50.86049892059 -1.75289784687633,50.8605115996526 -1.75296176115874,50.8605207254959 -1.75306972794081,50.8605290440927 -1.7531677027318,50.8605437245387 -1.75342179000936,50.8605892111138 -1.75353794506232,50.8606442960146 -1.75359748671338,50.8606830783407 -1.7536116465105,50.8606858050655 -1.75362724598957,50.8606822426226 -1.75369295472301,50.8606176514321 -1.75375148196254,50.8605818145608 -1.75386393559972,50.8605388078961 -1.75392351476628,50.860548014022 -1.75411221697191,50.8605969568764 -1.75414320686421,50.860651862207 -1.75416963230807,50.8607732841854 -1.75417802379779,50.86078139255 -1.75421777322226,50.8607967600404 -1.7545174526944,50.8608162683149 -1.75472613331715,50.8608535651577 -1.75538344315755,50.8609449318027 -1.75555536754486,50.8609542810339 -1.75590201625526,50.8609532069177 -1.75621754428664,50.8609439753142 -1.75707010776887,50.8609295657258 -1.75726766007916,50.8609218848815 -1.75763586032814,50.8608758993698 -1.75810921694284,50.8608381308918 -1.75846177628092,50.8608037973671 -1.75853951360037,50.860881362494 -1.75865104177451,50.8610173437309 -1.7588276620255,50.8609340999298 -1.75889592454496,50.8609180581999 -1.75895854173204,50.8609065002574 -1.75905804038147,50.8608986134979 -1.75919286428872,50.8609240633616 -1.75923410061829,50.8609241481988 -1.75930655829656,50.8609126103126 -1.75954577450349,50.8608213125734 -1.75966808777686,50.8607963914175 -1.75977890824905,50.8607966189286 -1.75999044942668,50.8608249222206 -1.76016213819224,50.8608576389237 -1.76030695895924,50.8608984810171 -1.76052548058686,50.8609366869133 -1.76055816361888,50.8609367537814 -1.76059521053443,50.8609314357417 -1.76063076964082,50.8609189222808 -1.76086461477482,50.8607547906147 -1.76093712223428,50.8607333625382 -1.76100108884133,50.8607325939064 -1.76113168720369,50.8607598314434 -1.76120690297439,50.8607815611279 -1.76125226313971,50.8607996336828 -1.76131465066431,50.8608330249495 -1.76139531441781,50.8608890179414 -1.76148859813875,50.860974614505 -1.76166389651829,50.861150279012 -1.76170076378925,50.8611800210171 -1.76175469571357,50.8611946054708 -1.76185408487368,50.8612082932032 -1.76191507356158,50.8612174072897 -1.76200748183619,50.8611987159427 -1.76216258480602,50.8611530910889 -1.76228929632647,50.8611155899334 -1.76238876295932,50.8611139942643 -1.76246828801338,50.8611177518666 -1.76255637411928,50.8611197282417 -1.76270842278958,50.8611218351443 -1.76271688368771,50.8611398323137 -1.76274496894844,50.8611921215814 -1.76280717010568,50.8612623709723 -1.76288926620596,50.8613137813488 -1.76292763650544,50.8613246467243 -1.7629999151813,50.861348167843 -1.76310063440766,50.8613771403096 -1.76316567685423,50.861442000534 -1.76306192746834,50.861456174386 -1.76309143645668,50.8615282459048 -1.76319637771084,50.8615563275632 -1.76317336979952,50.8616120195963 -1.763241032349,50.8617146436474 -1.76331720593286,50.8618254664314 -1.76343341655309,50.861895824685 -1.76357383175178,50.8619284722498 -1.76366760525523,50.8619412478218 -1.76373167771408,50.8619198009814 -1.76382415460916,50.8618876237759 -1.76394484585187,50.8619058472619 -1.76403564578631,50.861927606548 -1.7641550391513,50.8619242510036 -1.76422066130696,50.8618740384557 -1.7641995617386,50.8618299442865 -1.76396855521065,50.8617107192093 -1.76398584942375,50.8616729955136 -1.76405689594792,50.8616623502053 -1.76411384959872,50.8616354949789 -1.76418776105686,50.8616374415546 -1.76425319426954,50.8616249871756 -1.76432289731636,50.8616017537083 -1.76444795868156,50.8615894192695 -1.76449905345439,50.8616093006416 -1.76451025921105,50.8616407886628 -1.76451025469721,50.861641687025 -1.76453280936848,50.861675894789 -1.76458100301471,50.861690376464 -1.76467912878845,50.8616761890568 -1.76481816669603,50.8617268132701 -1.76495154443333,50.8617612444777 -1.76505355072318,50.8618144909504 -1.76517409625094,50.8618615713617 -1.76523413649948,50.861779791643 -1.7652302647672,50.8617105598332 -1.76526727488585,50.8616890578645 -1.76529152577367,50.8616891064963</coordinates></LinearRing></outerBoundaryIs></Polygon>
  </Placemark>
