  <Placemark>
	<Style><LineStyle><color>ff0000ff</color></LineStyle><PolyStyle><fill>0</fill></PolyStyle></Style>
	<ExtendedData><SchemaData schemaUrl="#Wards__December_2019__Boundaries_EW_BFE">
		<SimpleData name="objectid">5173</SimpleData>
		<SimpleData name="wd19cd">E05010898</SimpleData>
		<SimpleData name="wd19nm">Filwood</SimpleData>
		<SimpleData name="wd19nmw"></SimpleData>
		<SimpleData name="bng_e">359122</SimpleData>
		<SimpleData name="bng_n">169631</SimpleData>
		<SimpleData name="long">-2.58931</SimpleData>
		<SimpleData name="lat">51.424198</SimpleData>
		<SimpleData name="st_areashape">2843047.06598974</SimpleData>
		<SimpleData name="st_lengthshape">7980.31368853068</SimpleData>
	</SchemaData></ExtendedData>
      <Polygon><outerBoundaryIs><LinearRing><coordinates>-2.6051826500289,51.4343859715941 -2.60542999942104,51.4342714342604 -2.60606366332258,51.4339939086898 -2.60628968082202,51.4338992543432 -2.6064827497914,51.4338155581343 -2.60670731357626,51.4337199183156 -2.60698639688683,51.4336034095859 -2.60717083920368,51.4335233482628 -2.60772889530053,51.4333001283814 -2.60739289834095,51.4330168341251 -2.6071631219962,51.4328363611133 -2.60692944904651,51.4326748746618 -2.6064823499553,51.4323759753548 -2.60620161012283,51.432144527472 -2.60589188418708,51.4318916557726 -2.60558384875227,51.4315515816077 -2.60525247421107,51.4311864583488 -2.60524211777256,51.4311658368124 -2.60514568785516,51.4310584690523 -2.60501311023961,51.430819059487 -2.60483021493544,51.4304792335825 -2.6045081295354,51.4293029840817 -2.60447339500786,51.4291791162626 -2.60434450508929,51.4285647568871 -2.60432670482006,51.4284209354841 -2.60427989774046,51.4278160385521 -2.60430948255851,51.4274445504041 -2.60432224117632,51.4271100047437 -2.60430841973462,51.4267117744357 -2.60431107903031,51.4265904087996 -2.60434660771948,51.4261217189346 -2.60437850156559,51.425709769284 -2.60439544295559,51.4250407025708 -2.60446930059074,51.4241060550619 -2.60448866762437,51.4238334873136 -2.60450458221229,51.4234089268056 -2.60447825723437,51.4230538929019 -2.60443397030313,51.4226414196323 -2.60440513041731,51.4224266334614 -2.60433229798263,51.4221410582402 -2.60420592206128,51.4218332862923 -2.60411558078306,51.4216395831531 -2.60392611188561,51.4213402271524 -2.60374192086188,51.4211163552393 -2.60352304694846,51.4208881671236 -2.60333546804096,51.4207300243212 -2.60292546973262,51.4203976457951 -2.60269588992655,51.4202288411569 -2.60234178329827,51.4199878640544 -2.60183866000868,51.4196875154727 -2.60152851160951,51.419505639249 -2.60111674577392,51.4192613579889 -2.60044954547957,51.4188367974897 -2.5993930555108,51.4182235640195 -2.59845731639778,51.4177184761263 -2.59790926034397,51.4173867845849 -2.59753517537723,51.4171548823901 -2.5970682870157,51.4168695167007 -2.59620885587769,51.4162517457587 -2.59588222106489,51.4160088095503 -2.59562750783143,51.4157798889757 -2.59545815758763,51.4155864912873 -2.59503257381791,51.4150375191788 -2.59498133063923,51.4149720677315 -2.59517988745845,51.4148685796243 -2.59536679158179,51.4147534636587 -2.59540952550385,51.4147208842664 -2.59556166861856,51.4145860790083 -2.59562921626763,51.4144742676753 -2.59564197901588,51.4143527559941 -2.59560707246341,51.4142127001771 -2.59553239597781,51.4141141970586 -2.59547386407516,51.4140352995377 -2.59535355329145,51.4139559062242 -2.59517257827676,51.4138615396655 -2.59506857452211,51.4138324043851 -2.59491279611499,51.4137972388685 -2.59475008159621,51.4137755926953 -2.59457466458477,51.4137800802314 -2.59444713988698,51.4138112918227 -2.59427628504425,51.4138292400073 -2.5940842707613,51.4138886456233 -2.59381859222919,51.4140275321256 -2.59360902812934,51.4141599297582 -2.59349388594239,51.4142683863284 -2.59347145797305,51.414312546993 -2.5934395943534,51.4144062883706 -2.59345234336052,51.4145024093038 -2.59350858636004,51.414624378958 -2.59354420840123,51.4147105862587 -2.59364238268509,51.4148476248824 -2.59349798679276,51.4149130803433 -2.59317204617006,51.4150595516211 -2.59265812460426,51.415357995209 -2.59220735817662,51.4156353508496 -2.59181236102492,51.4158981299397 -2.59133720145097,51.4161882812529 -2.5906782460968,51.4166070964597 -2.5896683306674,51.4172488124241 -2.58842963667745,51.4179941403552 -2.58748699518111,51.418492471271 -2.58697821408362,51.4187432149029 -2.58669795002828,51.418866963362 -2.58627588116985,51.4190380739966 -2.58592107065954,51.4191837665792 -2.58485803864725,51.4196107628308 -2.5842300639696,51.4198782585537 -2.58286901837133,51.4203911912571 -2.58188018388242,51.4207774084486 -2.58129071876402,51.4210167387914 -2.58044048897107,51.4213302550697 -2.57925312524923,51.4217183297874 -2.57892958316446,51.4218349841257 -2.57807674323714,51.4221700715188 -2.57725670424287,51.4224933053456 -2.57657985489802,51.422766391354 -2.57596504118818,51.4230508554485 -2.57535390389273,51.4234018195196 -2.5750115390102,51.4236265160515 -2.57482621132464,51.4237505743052 -2.57475922335764,51.4237985437353 -2.57454254742473,51.4239570035297 -2.57400589037991,51.4243956902275 -2.57376272657602,51.4246172023677 -2.57364445658506,51.4247085702442 -2.5735705250364,51.4247799461172 -2.57441405131236,51.4251751277384 -2.57443291183669,51.4251849238253 -2.57444883081516,51.4251965317355 -2.57446629159526,51.4252081321094 -2.57447791924825,51.4252179635313 -2.5744895567907,51.4252286931806 -2.57449977337066,51.4252394306717 -2.57450999984034,51.4252510663904 -2.57451881523023,51.42526360818 -2.57452610016553,51.4252770566242 -2.57453499488184,51.4252958904592 -2.57454092395135,51.4253147387869 -2.57454556131283,51.425334492603 -2.57456227098381,51.4255214752862 -2.57464998878695,51.4255183499327 -2.57482828346491,51.4255129833209 -2.57482830625078,51.42551478155 -2.57497210291977,51.4255104825677 -2.57497206874228,51.4255077861233 -2.57508990773593,51.4255045131196 -2.57508817773017,51.4254802502687 -2.57513854137423,51.4254773072575 -2.5752319305387,51.4254723562528 -2.57532531822756,51.4254674042822 -2.57544892121921,51.4254604169698 -2.57550213109797,51.4254574598712 -2.57582837732924,51.4254387833768 -2.57585279458872,51.4254377645992 -2.5758915996233,51.4254303829055 -2.57593467335734,51.4254229802868 -2.57597765615115,51.4254083873913 -2.5760004690953,51.4253929941311 -2.57605315019629,51.4253576780494 -2.57605153451654,51.4253424044786 -2.57609028256981,51.4253305289214 -2.57607983812289,51.425301814579 -2.57606510368988,51.4252713229057 -2.57604468241728,51.4252507482274 -2.57601411377964,51.4252248291101 -2.57597068794946,51.4252043671296 -2.57598651084272,51.425198896353 -2.5760151170553,51.4251915645904 -2.57609690425851,51.4251695899163 -2.57613270920609,51.425159526222 -2.57614416673403,51.4251558742696 -2.57621010707316,51.4251374830639 -2.57625596980278,51.4251255725848 -2.57638205481114,51.4250898965411 -2.57650529331096,51.4250542343242 -2.57662570807029,51.4250203832828 -2.57669449531376,51.4250020677663 -2.57674472297308,51.4249883373391 -2.57687081841486,51.4249535599085 -2.57698121038017,51.4249242535678 -2.5770843792682,51.4248958799583 -2.57720622821371,51.4248629213714 -2.57732948792565,51.4248290556593 -2.57745133384494,51.4247960069219 -2.57756892344369,51.4247639671647 -2.57769218248045,51.4247301010849 -2.57781248854746,51.4246971494662 -2.57793727747922,51.4246623764419 -2.57805309754612,51.4246123668099 -2.5781417329671,51.4245696823516 -2.57821611339358,51.4245342586383 -2.57835556941802,51.4246459371601 -2.5786782794,51.4249186091109 -2.57871324912589,51.4249454041188 -2.5787451582185,51.4249740125312 -2.57876267743514,51.4249901069302 -2.57877721960035,51.4250053168084 -2.57879619556111,51.4250241006543 -2.57881221878781,51.4250437982088 -2.57883122909508,51.4250652785033 -2.57884727522818,51.4250867733891 -2.57886925765736,51.4251181272634 -2.57888840788181,51.4251504841708 -2.57890597944353,51.4251800614075 -2.57892082414789,51.4252096529684 -2.57893846439781,51.4252446231085 -2.57895479021635,51.4252787023426 -2.57896369367881,51.4253074230818 -2.57897271654098,51.4253361441311 -2.57899292952385,51.4254520947152 -2.57899357124794,51.4255024308002 -2.57898253062902,51.4259933808445 -2.57897144947563,51.4264718362071 -2.5793354129734,51.4264808293967 -2.57999880747667,51.4264973342715 -2.58036582659207,51.4265224897015 -2.58059921930228,51.4265501024095 -2.58095507295561,51.4265923908162 -2.58126516895088,51.4266546807 -2.58166898919961,51.4267471585979 -2.58201675509608,51.4268335303498 -2.58218286877758,51.4268857432822 -2.582516670102,51.4270019361046 -2.58302095133382,51.4271774205048 -2.5833273160668,51.4272900613309 -2.58352545716288,51.4273700702172 -2.58356101023624,51.4274507952995 -2.58359676202528,51.4275468007127 -2.58359821931305,51.4275494900767 -2.58361911086327,51.427606017635 -2.58366085567173,51.4277254552082 -2.58374030462054,51.427752028434 -2.58374613867202,51.4277537968915 -2.58381261360326,51.4277768387381 -2.58383429001687,51.4277839216952 -2.58387763128543,51.4277971902864 -2.58392238492687,51.4278095526779 -2.58395991538644,51.427822850107 -2.58396863073347,51.4278273008363 -2.58402795378166,51.4278566704555 -2.58409171026556,51.4278896128762 -2.58415109154199,51.4279234761721 -2.58419464321933,51.4279530140048 -2.58419894703659,51.427955689211 -2.5841583877072,51.4280475796726 -2.58415762547398,51.4280988215388 -2.58413455484485,51.4282041080613 -2.58413458966926,51.4282068044871 -2.584127784301,51.4282400984627 -2.58401867758923,51.4282497195737 -2.58397413373232,51.428253536681 -2.58392816589993,51.4282573608465 -2.58373130806546,51.4282772158649 -2.58365229873444,51.4282847988967 -2.58366451013269,51.4283395721052 -2.58366454492428,51.4283422685318 -2.58367826006722,51.4284033257354 -2.58369196366423,51.4284634847264 -2.5837087607923,51.4285335164798 -2.58371335461734,51.4285586631222 -2.58371827438406,51.4286090675206 -2.58378087613517,51.4286626912497 -2.58383904463171,51.4287127412009 -2.58388270023069,51.4287502784981 -2.58392046367335,51.4287815526899 -2.58392921404489,51.4287886998425 -2.58393509469319,51.4287940647198 -2.58398450013529,51.4288360674368 -2.58402668703852,51.4288700162083 -2.58407467129909,51.4289121167618 -2.58406748414532,51.4289157482468 -2.58403672872252,51.429096581301 -2.58402602539722,51.4291586589603 -2.58400999130852,51.4292487199775 -2.58399013612947,51.4293827557073 -2.58413043627118,51.4295565370303 -2.58422606179896,51.4297241570984 -2.58434558266059,51.4299510769108 -2.58442482074286,51.4300711359733 -2.58447375957581,51.4301869415718 -2.58453558474289,51.4304095632491 -2.58461678950608,51.430681618981 -2.58480020499779,51.4312903440536 -2.58487015927149,51.4314716641519 -2.58493762649539,51.4316807727073 -2.58514481588163,51.4320179072645 -2.58529111666175,51.4322050491453 -2.58540916058534,51.4323259016612 -2.58554168411994,51.4324474909407 -2.58577604663516,51.4326657428625 -2.58593890997389,51.4327943714827 -2.58607698974232,51.432905145906 -2.58619736104267,51.4329765462121 -2.5863117683522,51.43303619987 -2.58646654754887,51.4330992480222 -2.58678176861997,51.4332226178252 -2.5870376444159,51.4333248003259 -2.58721150483726,51.4334138203843 -2.58722451467854,51.4334200475344 -2.58730418733806,51.4334627954966 -2.58736357935783,51.4334966561236 -2.58740707967647,51.4335216074473 -2.58743172196903,51.4335376643579 -2.58751594850366,51.4335930639386 -2.58760015824456,51.4336564642903 -2.58765827965438,51.4337020166483 -2.58768882866563,51.4337252353816 -2.58772957580139,51.4337573918875 -2.58776305347141,51.4337868873531 -2.58779649616805,51.4338136872923 -2.58784005713745,51.4338530186582 -2.58789985180108,51.4339094373267 -2.58795664458981,51.4339630846298 -2.58798715066064,51.4339925937107 -2.5880205885548,51.4340193924901 -2.5880641999777,51.4340533305077 -2.58811203505207,51.4340836517035 -2.58813379476457,51.434097025772 -2.58818745321028,51.4341282168282 -2.58824393703106,51.434157595421 -2.58831486269552,51.4341940935753 -2.58838872135898,51.4342279694894 -2.58839301404173,51.4342297452843 -2.58846540283123,51.4342599430119 -2.58853906049272,51.4342874387395 -2.58861710871001,51.4343149114608 -2.58869952013968,51.4343405639531 -2.58879047385915,51.4343661743556 -2.5888799559428,51.4343881964791 -2.58895786615255,51.4344048828499 -2.58903279855941,51.4344206859114 -2.58911650771095,51.4344364447926 -2.5891986517102,51.4344504141323 -2.5892404955041,51.4344573939991 -2.5892837390137,51.4344625703597 -2.58933267493765,51.4344677171721 -2.58938300046823,51.4344701604991 -2.5894477850394,51.4344716319379 -2.58951398227456,51.4344721980075 -2.58957006198466,51.4344701184779 -2.58961036632841,51.4344681174108 -2.59100236131035,51.4344224535489 -2.59139774371493,51.4344060761387 -2.59171548468374,51.4343846966027 -2.59201579375797,51.4343544166728 -2.59224374511294,51.4342966361666 -2.59276980449201,51.4341482696961 -2.59316961815283,51.4340249000577 -2.59351779462271,51.4339170703692 -2.59409687006493,51.4337513491523 -2.59476606823939,51.4335492977537 -2.59528502751197,51.4334054442709 -2.59597425008929,51.4331933066018 -2.59643153775448,51.4330687296401 -2.59679290409609,51.4329832915884 -2.59721198381937,51.4329119412849 -2.59749060432233,51.432875374804 -2.59781523367157,51.4328377628408 -2.59817303730098,51.4328062738684 -2.59862739798802,51.4327841777595 -2.5987998297778,51.4327725096488 -2.59905608070098,51.4327846837803 -2.59943755666842,51.4328034074339 -2.59974002943828,51.432830624778 -2.60002825715819,51.4328660039717 -2.60025886618054,51.4328945769549 -2.60045063153062,51.4329277525713 -2.60098129596917,51.4330248098149 -2.60149787621222,51.4331426095232 -2.60174195145579,51.433212455402 -2.60194278302084,51.4332860302386 -2.60218292178874,51.433380974704 -2.60240471447288,51.4335147560384 -2.60259060693897,51.4336423398807 -2.60271268926393,51.4337342971537 -2.6027666213406,51.4337942452657 -2.60317129526708,51.4336042868836 -2.60321665311037,51.4336615824813 -2.60335460181578,51.4338686032524 -2.60337370606227,51.4338963690934 -2.60340446436777,51.4339447490114 -2.60341327512825,51.4339563884183 -2.60343238974403,51.4339850533123 -2.60345731525094,51.4340226766515 -2.60346457224733,51.434033424963 -2.60349252120621,51.4340755273594 -2.60349687278183,51.4340817968954 -2.60354092603633,51.4341490731598 -2.60358041534257,51.434193812384 -2.60361686955387,51.4342331734805 -2.60360968093186,51.434236806171 -2.603596811963,51.4342413673145 -2.60365810841333,51.4343120601294 -2.60370218441473,51.4343810445403 -2.60373013377901,51.4344231468833 -2.60377117595756,51.434486843063 -2.60377419941161,51.4344913221197 -2.60377568222809,51.4344958082367 -2.60378145798642,51.4345020704054 -2.60378446969587,51.4345056504074 -2.60378736344928,51.4345092310188 -2.60379167987353,51.4345128042801 -2.6037945618812,51.4345154858368 -2.60379898451629,51.434518159434 -2.60380329063383,51.4345208336329 -2.60380906692083,51.4345181073432 -2.60381190052673,51.4345171944872 -2.60393050184621,51.4344527624677 -2.60393764155326,51.4344545229036 -2.60395767569783,51.4344445327011 -2.60396911026785,51.4344390798163 -2.60412347013395,51.4343608906431 -2.60419640453877,51.4343236606623 -2.60423794037237,51.4343162547932 -2.60431981494329,51.4343005509842 -2.60434058752805,51.4343561725376 -2.60441655659716,51.4343333080748 -2.60445955217601,51.4343196025674 -2.60449398352595,51.4343131324677 -2.60453279194401,51.4343057414997 -2.6045599876828,51.4342993088083 -2.60457571510339,51.434295631886 -2.60472354653999,51.4342625078674 -2.60477510578953,51.4342505561598 -2.60490563223895,51.4342184205721 -2.60495150963116,51.4342073964108 -2.60497301317679,51.4342009930864 -2.60497734142819,51.4342054653597 -2.6050254550288,51.4342474621313 -2.60504140595884,51.4342608626901 -2.60507056870394,51.4342867788674 -2.60508795408173,51.4343010702102 -2.6051826500289,51.4343859715941</coordinates></LinearRing></outerBoundaryIs></Polygon>
  </Placemark>
