  <Placemark>
	<Style><LineStyle><color>ff0000ff</color></LineStyle><PolyStyle><fill>0</fill></PolyStyle></Style>
	<ExtendedData><SchemaData schemaUrl="#Wards__December_2019__Boundaries_EW_BFE">
		<SimpleData name="objectid">3382</SimpleData>
		<SimpleData name="wd19cd">E05008869</SimpleData>
		<SimpleData name="wd19nm">Ladybrook</SimpleData>
		<SimpleData name="wd19nmw"></SimpleData>
		<SimpleData name="bng_e">452927</SimpleData>
		<SimpleData name="bng_n">361068</SimpleData>
		<SimpleData name="long">-1.21017</SimpleData>
		<SimpleData name="lat">53.14415</SimpleData>
		<SimpleData name="st_areashape">671394.3504207</SimpleData>
		<SimpleData name="st_lengthshape">4337.94552775323</SimpleData>
	</SchemaData></ExtendedData>
      <Polygon><outerBoundaryIs><LinearRing><coordinates>-1.21057766521518,53.1405357929267 -1.20997705376898,53.1407628605419 -1.20916706331792,53.1410748064867 -1.20840677179049,53.1413646120872 -1.20757869826836,53.1416800219813 -1.20666770487666,53.1419526385458 -1.20619752260788,53.1420762192547 -1.20556045061608,53.1422526966626 -1.20529127133948,53.1423380724445 -1.20423866594118,53.1426681389158 -1.20326577672337,53.1429726674844 -1.20263570876407,53.1431689460983 -1.20226297442769,53.1432742912119 -1.20160501693009,53.1434451261936 -1.20105503293016,53.1435098289352 -1.20112590624751,53.1435633249972 -1.20187651847233,53.1441203118508 -1.20324961675995,53.1451398633852 -1.20382863589989,53.1455194633002 -1.20402509350146,53.1456483849641 -1.20432357264594,53.1458400855531 -1.2045877310832,53.1460279616007 -1.20481585927734,53.14622449242 -1.20497592227605,53.1463820178182 -1.20519201449171,53.1465829613166 -1.20544301624518,53.1468363499133 -1.20595949547144,53.1473674854901 -1.20599749538061,53.1474126719609 -1.20628124075877,53.1477561426252 -1.20659036995548,53.1476988888188 -1.20690236595445,53.1476398554472 -1.20731050366241,53.1475616007622 -1.20765283846652,53.1474883889531 -1.20787075939615,53.1474233360356 -1.20811590299148,53.1473458822849 -1.20870695027584,53.1471618969056 -1.20921241143028,53.14699270793 -1.20960659608471,53.1468613319279 -1.20980320827647,53.1468150061158 -1.20992201062609,53.1467834414475 -1.21003739188956,53.1467635372393 -1.21020255452765,53.146731380572 -1.21051125226537,53.1466902898202 -1.21106046606546,53.14666238269 -1.2113834094213,53.146664519471 -1.2120456437903,53.1466715943154 -1.21252586070996,53.146654997502 -1.21267846555737,53.1466488159047 -1.21319792882559,53.1466162986356 -1.21323537458504,53.1466111540581 -1.21337299975251,53.1466084674849 -1.21362473875026,53.1465741823713 -1.21396126138442,53.146487433979 -1.21455742997688,53.1462639118482 -1.21508067396193,53.1461047006619 -1.21570855388979,53.1459397951107 -1.21656295062944,53.1457440230389 -1.21661843211085,53.1457300094419 -1.21668276304104,53.1458123002518 -1.2167774422381,53.1459477214215 -1.21684314109501,53.1460362218642 -1.21686651384523,53.1460660307206 -1.21689805951523,53.1460599473175 -1.21689953802157,53.1460599570298 -1.21701668156169,53.1460310711709 -1.21704973835772,53.1460231998164 -1.21705269686291,53.1460232192469 -1.2171232815532,53.1460057098324 -1.2171713172108,53.1459943429358 -1.21724338182098,53.1459768422697 -1.21729451632564,53.1459645967527 -1.21735455744625,53.1459506127499 -1.21738006337818,53.1459444895678 -1.21747316258067,53.145922634059 -1.21758729642465,53.1458964237411 -1.21772692115804,53.1458649879788 -1.21775357920711,53.1458768452475 -1.21784785853282,53.1459529514052 -1.21796732629581,53.1460471965926 -1.21798058202657,53.1460571680531 -1.21799528362618,53.146068947732 -1.21806311587394,53.1461216045369 -1.2181383539036,53.1461805106104 -1.21814127830348,53.1461823276264 -1.21822087354365,53.146245755917 -1.21824735261433,53.146267497309 -1.21830058163819,53.1463028942856 -1.21834635630756,53.146334647586 -1.21838448246622,53.146373540266 -1.21841683671332,53.1464043965173 -1.21845068895654,53.1464342737709 -1.21851842615797,53.1464922324247 -1.21856987380299,53.1465375030023 -1.21857727791458,53.1465438421659 -1.21863614760823,53.1465945530768 -1.21869649596766,53.1466452736494 -1.21876135525989,53.1466987196087 -1.21877604250433,53.1467113971182 -1.21877907476823,53.1467141128451 -1.21882453051254,53.1467567371803 -1.21888488787203,53.1468137483424 -1.21901013082933,53.1469161179014 -1.21904243012775,53.1469432889539 -1.21908664604676,53.1469795254436 -1.21909115838286,53.1469822508581 -1.21911908430456,53.1470057993662 -1.21917364680783,53.1470493821372 -1.21920011056574,53.1470720221306 -1.21925174734756,53.1471136988732 -1.21929437729321,53.1471490250801 -1.21931808807656,53.1471671542256 -1.21933860992262,53.147184362666 -1.21942704434151,53.1472568345223 -1.21942996886886,53.1472586515078 -1.21954489864365,53.1473520554731 -1.21956846929435,53.1473710816693 -1.21973655011751,53.14750428511 -1.21984857302286,53.1475948849024 -1.22009118440762,53.1474859369745 -1.22024658254648,53.1474141618775 -1.22024955592206,53.1474132824088 -1.2203506320137,53.1473663143483 -1.22052850327368,53.1472856103855 -1.22069582885843,53.1472085200835 -1.22075908924186,53.1471801772374 -1.22080135735199,53.147160682728 -1.22088423907677,53.1471243796045 -1.22101393943581,53.1470623209488 -1.22105620744452,53.1470427364564 -1.22114063374029,53.1470028484744 -1.22121448558416,53.1469682830599 -1.22127327568757,53.1469417076731 -1.22140443873771,53.1468805561658 -1.22147841273136,53.1468459922842 -1.2215860024621,53.1467658147404 -1.22180503510227,53.1466377484752 -1.22180514871139,53.1466314585893 -1.22185668843326,53.1465967471199 -1.221912730055,53.1465584702399 -1.22206944377975,53.1464884991854 -1.22219936923029,53.146413769559 -1.22219193216726,53.1464092273433 -1.22238536739287,53.1462990558453 -1.22239597382203,53.1462919354865 -1.22253384332865,53.1461867929843 -1.22272789429739,53.1460423851589 -1.22321442007262,53.1456752184256 -1.22339173821558,53.1455424736063 -1.22327318225119,53.1454858936581 -1.22309973777425,53.145403884161 -1.22284176115777,53.1452790858796 -1.22258696596892,53.1451488261795 -1.22246102229693,53.1450850984801 -1.22241962700963,53.1450632607266 -1.22236340670773,53.1450296439101 -1.22231460562428,53.1450014671795 -1.22230569032074,53.1449969153257 -1.22259332287163,53.1447965025129 -1.22265363623373,53.1447672405191 -1.22264638683521,53.1447591047801 -1.22261250204639,53.1447310254388 -1.22256079848019,53.1446929444761 -1.22250345530873,53.1446395495934 -1.22244627442957,53.1445771692557 -1.22240535152982,53.1445291832475 -1.22236724669831,53.1444822044181 -1.22233549852754,53.1444244827228 -1.2223153554581,53.144379418887 -1.2223027479785,53.1443335043921 -1.22229621946669,53.1442786439679 -1.22229420336729,53.144226418047 -1.22229176704249,53.1441086780184 -1.22227554998822,53.1440169086206 -1.22226417780498,53.1439844823567 -1.22224871659652,53.1439259688727 -1.22216468213121,53.1437806461784 -1.22205292323004,53.1435938039342 -1.22201529910902,53.1435270573096 -1.22197748760934,53.1434639051227 -1.221830527392,53.143492601186 -1.22139961961181,53.1435931334244 -1.22099564047675,53.1436903352017 -1.22078695969631,53.1437374994141 -1.22059770191415,53.1437874861115 -1.22038713387092,53.1438571030523 -1.22019881676922,53.1439368404771 -1.22006324052037,53.1439970628824 -1.21989133298858,53.1440759183732 -1.21968258165473,53.1442084531622 -1.21895667766516,53.1446693847685 -1.21889594703182,53.1446330408999 -1.21887089971487,53.1446140048831 -1.21884588351575,53.1445931712282 -1.21883696715595,53.1445886200057 -1.2187719239715,53.1445522469137 -1.21874372910351,53.1445367850164 -1.21871567313541,53.1445204251044 -1.21868601628891,53.1445039648012 -1.21865794556003,53.1444885036969 -1.21862828712776,53.1444721332607 -1.2184270606927,53.1443593805807 -1.2183367494098,53.1443093622953 -1.21868142808344,53.1440976505973 -1.2186964876858,53.1440896608346 -1.21872224522989,53.1440763503712 -1.21873628675845,53.1439614132045 -1.21876073645739,53.1439319181243 -1.21880764933067,53.1439007724122 -1.21901342025813,53.1437627380177 -1.21900157828496,53.1437563698024 -1.21898681202799,53.1437481854886 -1.21914274195979,53.1436395704207 -1.21907018076934,53.1436031482373 -1.21906871863705,53.1436022397403 -1.21899913381383,53.1435648491003 -1.21881553733743,53.1434656918427 -1.21876978163698,53.1434330408082 -1.21875829821388,53.1434069041047 -1.21872073182568,53.143412049612 -1.21863366602203,53.1433530663242 -1.21870441296222,53.1432447024644 -1.21874278527421,53.1431883382713 -1.2187827336488,53.143126591782 -1.2188211368296,53.143068430827 -1.21886117646247,53.1430084827457 -1.21889806846003,53.1429521088006 -1.21893647295562,53.142893857924 -1.21897642077374,53.1428321113639 -1.21901645995009,53.1427721641246 -1.21905487878265,53.1427131042757 -1.21909326644201,53.1426558411481 -1.21913483267429,53.1425931172237 -1.21917172544547,53.1425367431962 -1.21921165630195,53.142475895362 -1.21923624986341,53.1424383126513 -1.21925158553334,53.1424150484023 -1.21929009523567,53.1423577860085 -1.21931773142195,53.1423156405203 -1.21930301295531,53.1423047598002 -1.21926419714579,53.1422973160304 -1.21922699857186,53.1422889848208 -1.2191912798841,53.142280663293 -1.21915261926622,53.1422714226659 -1.21911690060767,53.142263101116 -1.21907759632808,53.1422826144534 -1.21899877040433,53.1422587324393 -1.21866573740547,53.1421621905317 -1.21858210832469,53.1421517569425 -1.21858178241921,53.1421697286852 -1.2185773443113,53.1421696995922 -1.21855492940642,53.1421686537351 -1.21855346733364,53.1421677452318 -1.21854581804262,53.1421748846383 -1.21853105243041,53.1421666993703 -1.21851336115329,53.1421566988807 -1.2184926201948,53.1421448796586 -1.21847628474867,53.1421348871534 -1.21842570146715,53.1421237720828 -1.21832155200173,53.1420961288046 -1.21822931075302,53.1420712602884 -1.21813262999108,53.1420463625809 -1.21808047856062,53.1420334392397 -1.21804183468665,53.1420233003404 -1.21793473055409,53.1419955483459 -1.21782454261973,53.1419678649987 -1.21771141438666,53.1419392642273 -1.21760724943299,53.1419125191181 -1.21757903241428,53.1419051452547 -1.21750306828905,53.1418866727303 -1.21738846212326,53.1418580619483 -1.21728135566043,53.1418303992196 -1.21717867109557,53.1418036634534 -1.21717426715811,53.1418018375923 -1.21712065277021,53.141788005292 -1.21710728427796,53.1417843227138 -1.2170640965169,53.1417732556245 -1.21702101653262,53.1417630872478 -1.21695109188016,53.1417446549374 -1.2168885294151,53.1417280678921 -1.21673526299247,53.141690215094 -1.21661471041192,53.1416632724363 -1.21660428386815,53.1416605080547 -1.21649113944332,53.1416328040301 -1.21648219126902,53.1416300493549 -1.21637065090338,53.1416023566574 -1.2163614249752,53.1416148772848 -1.21623036967951,53.1415825624644 -1.21598634238821,53.1415198482655 -1.21568876244914,53.1414468966983 -1.21535080609098,53.1413709818534 -1.21492224055664,53.1412620282048 -1.21456191389854,53.1411760792505 -1.21445338178434,53.1411457078075 -1.21430182876632,53.1410952827654 -1.21404723337521,53.1410378866279 -1.2131963478023,53.1415454999173 -1.21319485154734,53.141546388961 -1.21283808884986,53.1417580052759 -1.21271985247381,53.1416853315262 -1.21241922989749,53.1417723126684 -1.21242904858703,53.1418083244465 -1.21229435526782,53.141820015737 -1.21228384685365,53.1418217432366 -1.21214735538417,53.1418442068201 -1.2120692074209,53.1418643591526 -1.21194763691935,53.1418932117758 -1.21184410100647,53.1419131961184 -1.21162732741442,53.1415872552449 -1.21142124612523,53.1413306725365 -1.21132611093738,53.1412149238397 -1.21124249472827,53.1411298963678 -1.21102323061536,53.1409405350404 -1.21057766521518,53.1405357929267</coordinates></LinearRing></outerBoundaryIs></Polygon>
  </Placemark>
