  <Placemark>
	<Style><LineStyle><color>ff0000ff</color></LineStyle><PolyStyle><fill>0</fill></PolyStyle></Style>
	<ExtendedData><SchemaData schemaUrl="#Wards__December_2019__Boundaries_EW_BFE">
		<SimpleData name="objectid">4775</SimpleData>
		<SimpleData name="wd19cd">E05010428</SimpleData>
		<SimpleData name="wd19nm">Red Hall &amp; Lingfield</SimpleData>
		<SimpleData name="wd19nmw"></SimpleData>
		<SimpleData name="bng_e">431343</SimpleData>
		<SimpleData name="bng_n">514907</SimpleData>
		<SimpleData name="long">-1.51722</SimpleData>
		<SimpleData name="lat">54.528488</SimpleData>
		<SimpleData name="st_areashape">2300126.11080207</SimpleData>
		<SimpleData name="st_lengthshape">7191.39466179666</SimpleData>
	</SchemaData></ExtendedData>
      <Polygon><outerBoundaryIs><LinearRing><coordinates>-1.52862685642199,54.5228117171709 -1.52818434366302,54.5227336253868 -1.52691713402318,54.5224931980524 -1.52632817380055,54.5223902693422 -1.52529148199717,54.5222648289592 -1.52406931938219,54.5221405368793 -1.52157125481558,54.5218709495809 -1.518411736334,54.5214944612618 -1.51576279941004,54.5211828280186 -1.51435000135386,54.5209955942875 -1.51399544124483,54.5209267879995 -1.51354126135252,54.5207946904126 -1.51352960302866,54.520864721364 -1.51355273244408,54.5209977838987 -1.5135388493794,54.5209977281161 -1.513356637148,54.5209925032404 -1.51309901437938,54.5209663110612 -1.51280625106218,54.520895953284 -1.5123387588194,54.5208446570727 -1.51143928189799,54.5207448976913 -1.51049330669513,54.5206673139934 -1.50972894405245,54.5206345729131 -1.50862533516499,54.5205528320541 -1.50725006991518,54.520458297092 -1.50696993773395,54.5204930937669 -1.50673011911615,54.5205226636609 -1.50502521244201,54.5207341169258 -1.50356113154873,54.5209473419997 -1.50317734194595,54.5210005730461 -1.50278109267837,54.5210727079942 -1.50240257331522,54.5211951383933 -1.50209084585081,54.5212926850202 -1.50206311006286,54.5214157477103 -1.50228368246325,54.5215765775144 -1.50231732975871,54.5216063639561 -1.5026373376346,54.521834176613 -1.50279337601762,54.5219705724701 -1.50290028342008,54.5220725358138 -1.503048122237,54.522233964196 -1.50311913111539,54.5223655179588 -1.50325714785353,54.5225808115699 -1.50330372038325,54.5226898046395 -1.50332864151485,54.5227986181027 -1.50334888700078,54.5232930246962 -1.50345956995077,54.5237248203759 -1.5035197793345,54.5238545330502 -1.50352995254519,54.5239084814656 -1.50352999320126,54.5241573504354 -1.5035589732736,54.5243201770227 -1.50358564895782,54.5246626828337 -1.50358014154692,54.5252432337236 -1.50356198239858,54.5254696569683 -1.50360599780681,54.5256639009926 -1.50361710999197,54.5260189215299 -1.50364336623682,54.5262805653448 -1.50367932737943,54.5264982260822 -1.50378995720977,54.5267988498443 -1.50391190196451,54.5270698699156 -1.50392884918453,54.5271957214185 -1.50409813603096,54.52737619344 -1.50422991808091,54.5276031407299 -1.50439186189361,54.5277485428317 -1.50450433457825,54.5279080271396 -1.50461661359166,54.5280729917119 -1.5045887406103,54.5282076440403 -1.5046335993878,54.5283328007509 -1.5045930334382,54.5284952527642 -1.50465968243693,54.528598936086 -1.50467239230841,54.5287068014979 -1.50464253672684,54.5288683986242 -1.50450348123566,54.5292525433983 -1.50433329900001,54.5295241647308 -1.50407257546504,54.5298762756236 -1.50415638559839,54.5299727517923 -1.50417884297537,54.5300330395392 -1.50418904063262,54.5305902948624 -1.50420046173404,54.5306676082165 -1.50434667397867,54.5311032320789 -1.50436198139981,54.5311122790202 -1.50448313830221,54.5311864474478 -1.50478670197741,54.531264056887 -1.50501928841666,54.5313216095172 -1.50515471521327,54.5313643891836 -1.5053039482327,54.5314243857509 -1.50547559210414,54.5315382904463 -1.50551383747211,54.531568095582 -1.50575430207753,54.5317542459582 -1.50589885777491,54.5319381173594 -1.50593194312191,54.5320155188834 -1.50596775874724,54.5321199742893 -1.50598979721297,54.5322152984275 -1.50603849310198,54.5322765914927 -1.5060709479407,54.532532869266 -1.50608141988218,54.5326893305425 -1.50613409588743,54.5328009525568 -1.50631020210571,54.5330632071473 -1.50676371070775,54.5331333360421 -1.50693355184251,54.53314391051 -1.50715960479989,54.5332373694911 -1.50736703276185,54.5333326395626 -1.50750510224551,54.5334212483265 -1.50760147026106,54.5335024994405 -1.50765739992378,54.5336088316947 -1.50779141515514,54.5336426189328 -1.50798607392057,54.5336452062479 -1.50814332100249,54.5336754935929 -1.50825568916361,54.5337082937275 -1.5083002785512,54.5337300370429 -1.50845809606191,54.5338402864837 -1.50853184584218,54.5338846090427 -1.5086226302353,54.5339110313231 -1.50878756424819,54.5339486266265 -1.50895564396631,54.5339789559555 -1.50919328935107,54.5340095678458 -1.50930254733179,54.5340468460763 -1.50937139149527,54.5341073202142 -1.50951042671788,54.5341051881155 -1.5098096632991,54.5341531179394 -1.51008321135341,54.5341542246383 -1.5102868514104,54.5341837981569 -1.5104400117893,54.5343004051356 -1.51082716209881,54.5343594684509 -1.5111444990999,54.5344389142174 -1.51139577465715,54.5346197041969 -1.51180239587597,54.5347345465796 -1.51197233066378,54.5347379265543 -1.51208164488956,54.5347814924708 -1.51215928246979,54.5348744333651 -1.5125561578511,54.5350269682672 -1.51283292999278,54.5351430810891 -1.51335570828445,54.5352414055436 -1.51441096983936,54.5353938826519 -1.51522896475794,54.535483408534 -1.51559304911633,54.5355334709228 -1.51617030975189,54.5355941760928 -1.51627979038236,54.5354840157747 -1.51644483409057,54.5353840499736 -1.51676781814407,54.5355156125296 -1.51691106428231,54.5355567032825 -1.51724224691859,54.5356415778528 -1.51805103605365,54.5357346427974 -1.51815722890721,54.535773697392 -1.51825399209278,54.5358234969151 -1.51827090673845,54.5358262593949 -1.51851324058515,54.535849774235 -1.51880959989691,54.5358841941635 -1.51913998077179,54.5359187484896 -1.51931879043119,54.5359482085907 -1.519600820182,54.5360203048976 -1.51996444259746,54.5361106916316 -1.52015872327265,54.5361465008798 -1.52040276936502,54.5361655261553 -1.52066542836872,54.5361728553483 -1.52115194893555,54.5361927498454 -1.5214114990055,54.5362045567886 -1.52187115311664,54.5362773497829 -1.52215969423013,54.5363162231934 -1.52238822984309,54.5363323981997 -1.52252578590256,54.53632665169 -1.52267142943353,54.536293983317 -1.52282823780454,54.5362326095912 -1.5231219854891,54.536098013093 -1.52332058407307,54.536026022598 -1.52360443018483,54.5359426860172 -1.52389091411384,54.5358845162478 -1.52412317714283,54.5358538942211 -1.52433643764712,54.5358466466865 -1.52459914754151,54.5358494749714 -1.52487395549922,54.5358749019573 -1.52510847244933,54.5359135563241 -1.52530583582562,54.5359475720128 -1.52558962469808,54.5360007932022 -1.5259657433042,54.5360804310434 -1.52631692688305,54.5361788364222 -1.5264598931677,54.5361129112646 -1.52649147814358,54.5360591285035 -1.52643530807244,54.5359690656069 -1.52636565656582,54.5358438200456 -1.52628597359867,54.5356494463871 -1.52621163115124,54.535401097406 -1.52613740051693,54.5351320851614 -1.52608840126119,54.5349620889535 -1.52596681976697,54.5347881248329 -1.52580996152858,54.5345906636051 -1.52565877243914,54.534431946363 -1.52537455156992,54.5341531265246 -1.52512979446817,54.5339436394873 -1.52495681464402,54.5337965162015 -1.52466725661291,54.5335832585617 -1.52432066051322,54.5333554909632 -1.52402621547166,54.5331574860155 -1.52371518500523,54.5329288683877 -1.5235773745741,54.532815122766 -1.52345712930023,54.5326591291874 -1.52329397442722,54.5324680180189 -1.52311462109614,54.5320817015873 -1.52297878433269,54.5318098373033 -1.52366166465629,54.531812525961 -1.5246922526969,54.5318255605933 -1.52557638386698,54.5318110598188 -1.52601061598168,54.5318091667231 -1.52591857480356,54.5316155524469 -1.525472482306,54.5306405253331 -1.52544022439822,54.5306206329547 -1.52557158278945,54.5306202490943 -1.52607408388876,54.5305970609258 -1.52653174811367,54.530572796634 -1.52726335649965,54.5305135736755 -1.52709737840347,54.5301579519864 -1.52696174065258,54.5298671367738 -1.52683195977231,54.5295988943737 -1.52663411022824,54.529201729138 -1.5260436423085,54.5280212954391 -1.52581416600419,54.5275512310406 -1.52566972497993,54.5272190512789 -1.52584619497195,54.527194586307 -1.52602253806347,54.5271701205819 -1.52622070592884,54.5271421461329 -1.5263026241852,54.5271307872572 -1.52650231970864,54.5271028183268 -1.526672547839,54.527078237869 -1.52683816832543,54.5270555255275 -1.52706742246237,54.5270052100675 -1.52727380259815,54.5269278520267 -1.52745732919817,54.5268216542083 -1.52759471723789,54.5267062019194 -1.52766707126075,54.5265851952148 -1.52772116390943,54.5264569294408 -1.52776400269037,54.5263545848941 -1.52780544773724,54.5262514251688 -1.52784828351147,54.5261491704493 -1.52788016205707,54.5260692442447 -1.52794054451364,54.5259257286455 -1.52823726362964,54.5261776407951 -1.52837631710193,54.5261826743448 -1.52861419149589,54.5261907886987 -1.52880571824061,54.5261969247834 -1.52880773219169,54.5261547064471 -1.52894835655226,54.526156151565 -1.52894464515106,54.5262019580849 -1.52914543879551,54.526210824885 -1.52912779182983,54.5265378783173 -1.52925769183708,54.5265302970776 -1.52938133962222,54.5265235909865 -1.52942621138511,54.5265210702412 -1.52947441795413,54.5264943039183 -1.52949137083474,54.5264934711176 -1.52949305478338,54.5263469424456 -1.52951598094436,54.5262365232963 -1.52951914173384,54.5262275513089 -1.52953178614388,54.526202444131 -1.52954123000788,54.5261899026742 -1.5295597639179,54.5261845843224 -1.5296526762146,54.5261696720303 -1.52970524072754,54.5261626884892 -1.52978565314632,54.5261603056911 -1.52995256933244,54.5261573600834 -1.53016430525976,54.5261563856122 -1.53024665446973,54.5261072005039 -1.53027560376675,54.5260156727324 -1.53032295111214,54.5259305045237 -1.53035458207765,54.5258605486719 -1.53036132981453,54.5258164614198 -1.53044844232652,54.5257628928403 -1.53044546723221,54.5257556944209 -1.53058312086593,54.5257382588806 -1.5305860547689,54.525749051924 -1.53081646474574,54.5257301792973 -1.53092328242017,54.5257135234394 -1.53097125034862,54.525707420236 -1.5309898796728,54.5257047972282 -1.5310053232598,54.5257021609757 -1.53104247424044,54.525695118035 -1.53106267424492,54.5256889072129 -1.53108300647234,54.5256710165379 -1.53109704551555,54.525657594965 -1.53110328400877,54.5256468374664 -1.53111585525257,54.5256280189236 -1.53112537052476,54.5256091885421 -1.53113187972184,54.5255858548294 -1.53113694002313,54.525544546062 -1.53114024392871,54.5255229065582 -1.53115297098774,54.5254906117581 -1.53116261995105,54.525460102428 -1.53117850579378,54.5254188355882 -1.53118951964539,54.5254027061973 -1.5312020187656,54.5253901764463 -1.53120846771062,54.525372232879 -1.5312117705354,54.5253506832384 -1.53121503376351,54.5253327264341 -1.53121820440292,54.5253228557448 -1.5312168513057,54.5253075771524 -1.53122011776104,54.5253004029245 -1.53122024120474,54.5252896217371 -1.5312234632663,54.5252752595602 -1.53122657063844,54.5252707790091 -1.53123286526642,54.5252663108012 -1.53123447551673,54.5252591301589 -1.53123761528857,54.5252519545413 -1.53122440036699,54.5251934152763 -1.53135282795717,54.5251804357252 -1.53142555977477,54.5251699356366 -1.53144915120718,54.5252680469193 -1.53169342212102,54.5252510236856 -1.53182228380443,54.5252002209671 -1.5320503069952,54.5251112591291 -1.53204153512605,54.5250761859558 -1.53213634321886,54.5250289350401 -1.53214652030529,54.5249409273244 -1.53216050010091,54.5247989379464 -1.53217062049546,54.5247271020431 -1.53217916002493,54.5246597526102 -1.53218919822479,54.5245951032592 -1.53217840210623,54.5245923663436 -1.53217523852108,54.5245905576229 -1.53215989758563,54.5245841193844 -1.53214455717289,54.5245777710156 -1.5321275795905,54.5245696189243 -1.53211225972054,54.5245614741372 -1.53209227760741,54.5245488187435 -1.53207547961698,54.5245361756556 -1.53203140096927,54.5244695206052 -1.53202081029816,54.5244488159385 -1.53200880313431,54.5244182228323 -1.53200437184457,54.5244047288514 -1.53200142740829,54.5243948345051 -1.53199117571717,54.5243444822604 -1.53198668810935,54.524324698985 -1.53198255469185,54.5242851520536 -1.53197717016503,54.5242212519079 -1.53197315504715,54.5241601430147 -1.53197067438821,54.5241098208138 -1.53196935035273,54.5240918462632 -1.53196079103587,54.5240271259107 -1.53196089374924,54.5240181420416 -1.53195844392596,54.5239651247685 -1.53195559830888,54.5239353750076 -1.53195293124813,54.5239012241227 -1.53195038900081,54.5238562920611 -1.5319505738816,54.5238401216355 -1.53194353229212,54.5237763049454 -1.53193680384647,54.5236963174255 -1.53201243619822,54.5236993059608 -1.53202327315246,54.5236984491637 -1.5320280843654,54.5236787018391 -1.53218186705444,54.5236091278946 -1.53227510261329,54.5235654655745 -1.53236665978972,54.5235235922935 -1.53250268849102,54.5235250164536 -1.53251467084831,54.5234127571514 -1.53243597137012,54.523410656676 -1.53209009304822,54.5233913515587 -1.53142962963601,54.5233231207391 -1.53075252482375,54.5232288566552 -1.52896125820738,54.5228759097952 -1.52862685642199,54.5228117171709</coordinates></LinearRing></outerBoundaryIs></Polygon>
  </Placemark>
