  <Placemark>
	<Style><LineStyle><color>ff0000ff</color></LineStyle><PolyStyle><fill>0</fill></PolyStyle></Style>
	<ExtendedData><SchemaData schemaUrl="#Wards__December_2019__Boundaries_EW_BFE">
		<SimpleData name="objectid">5196</SimpleData>
		<SimpleData name="wd19cd">E05010923</SimpleData>
		<SimpleData name="wd19nm">Banbury Hardwick</SimpleData>
		<SimpleData name="wd19nmw"></SimpleData>
		<SimpleData name="bng_e">444549</SimpleData>
		<SimpleData name="bng_n">242561</SimpleData>
		<SimpleData name="long">-1.35133</SimpleData>
		<SimpleData name="lat">52.079632</SimpleData>
		<SimpleData name="st_areashape">3342012.50153595</SimpleData>
		<SimpleData name="st_lengthshape">12322.9360347773</SimpleData>
	</SchemaData></ExtendedData>
      <Polygon><outerBoundaryIs><LinearRing><coordinates>-1.32566352413258,52.0840714964424 -1.32566651809048,52.0840724126755 -1.32596614227415,52.0842314241913 -1.32653192127334,52.0845511408525 -1.32709680554677,52.084834896662 -1.32756920544952,52.0850596968689 -1.3280864194964,52.0853135138107 -1.32928488458412,52.0858769046332 -1.33089008656375,52.0865783193056 -1.33216712729002,52.0871628004366 -1.33390605410122,52.0879979603115 -1.33437852564125,52.0882227340199 -1.33597623525098,52.0890445765452 -1.33664972603137,52.089390022151 -1.33883014082684,52.0905935205863 -1.34023855992939,52.0913935690399 -1.34103019150488,52.0918529065497 -1.34175100472169,52.0922678887062 -1.34306122198913,52.092106135098 -1.34324303816595,52.0921493954739 -1.34337472966804,52.0920323825249 -1.34340792814873,52.0919597615025 -1.34339704499474,52.0919057702531 -1.3433492112405,52.0918766505156 -1.34320624859998,52.0918758529774 -1.34312112029245,52.0919033318249 -1.34310503600027,52.0919086348587 -1.34304967904918,52.0919001468605 -1.34296077828139,52.091790891418 -1.34279821456577,52.0917315588512 -1.34267274645276,52.0916211999448 -1.34259200041231,52.091555043927 -1.34235682220459,52.0915726060005 -1.34227351589584,52.0914759650597 -1.34216193127369,52.0913216400052 -1.34223196345618,52.0912239676949 -1.34228980088193,52.0910633982938 -1.34230229944967,52.0909087775392 -1.34222024790583,52.0907267535985 -1.34216975324466,52.0906905183451 -1.34216768430701,52.0906346881263 -1.34219718814038,52.0906087872588 -1.34224509929227,52.0906243351214 -1.34234807499333,52.0906762336049 -1.34243125300687,52.0906749009484 -1.34245376214957,52.0906335899778 -1.34248300932195,52.0905267913215 -1.34249694337443,52.0904711412942 -1.34258950147107,52.0904375023992 -1.34266797710553,52.0904532207695 -1.34270612116641,52.0904453445693 -1.34275447907843,52.0904303335007 -1.34288830536124,52.090364567145 -1.34333800478656,52.0901530624658 -1.34347542725676,52.0900387768163 -1.34355090524793,52.0898647332411 -1.34376482782055,52.0896132615166 -1.3438999318469,52.0893613510415 -1.34405025686759,52.0891545565124 -1.34405795659236,52.0890313681865 -1.3441933286344,52.0888595450623 -1.34422415971618,52.0887427774575 -1.34418675523302,52.088708413271 -1.34418254265261,52.0885933385576 -1.34417807306111,52.0884053662586 -1.34426444232589,52.088185631337 -1.34426049522422,52.0880605808056 -1.3443242813586,52.0878874596375 -1.34437183960814,52.0877294383151 -1.34446856816271,52.0875006827087 -1.34455878209363,52.0873223157529 -1.34469297648454,52.0871234306633 -1.34474956422119,52.0870473438758 -1.34479991767353,52.0869038097891 -1.34475390109447,52.086849533174 -1.34466767226382,52.0867636631773 -1.34463340687675,52.0867122391306 -1.34470259766832,52.086572404532 -1.34473093333446,52.0864286579967 -1.34477256513476,52.0862724915828 -1.34477741363191,52.0861465908769 -1.34476924941137,52.0860054274824 -1.34484241798621,52.0858897943661 -1.34487396783459,52.0857317735973 -1.34490027990142,52.0855286923328 -1.34491285793224,52.0854667425206 -1.34489626576749,52.0853011729517 -1.34489491471298,52.0851960014991 -1.34488975472898,52.0851456376656 -1.34485791851906,52.0851256857429 -1.34480291147209,52.0851020093707 -1.3447695926517,52.0850847464684 -1.34472088581703,52.0850170618898 -1.34467522747487,52.0849466088527 -1.3445353113463,52.084632044637 -1.34441997543602,52.0842412153306 -1.34421233684468,52.0838678483748 -1.3441317065188,52.0837945938342 -1.34404879614939,52.0836717994654 -1.34393568842936,52.0836226326405 -1.34359585953586,52.0834112202861 -1.34333856330979,52.0832417028477 -1.34460325295166,52.0828837328263 -1.34490328932932,52.082821586044 -1.34559315951087,52.0826536547537 -1.34687295081393,52.0823550685378 -1.34807843081771,52.0822502941809 -1.34857949681678,52.0822144176455 -1.34961258057664,52.0821238646738 -1.35089103401645,52.0821219324202 -1.35156102526952,52.0821112440441 -1.35254728988608,52.0821211698791 -1.35338698182763,52.0821824147709 -1.35394244484399,52.0822205211991 -1.35472117222427,52.0822626361302 -1.35486843336088,52.0816628434718 -1.35503236871491,52.081024492848 -1.35518347663708,52.0802574478068 -1.35518827824626,52.0802332058817 -1.35585008988129,52.0804796069327 -1.35633062275201,52.0806566104964 -1.35691864972232,52.0808639515392 -1.35723782820135,52.0809916225299 -1.35756579408398,52.0811192507134 -1.35771095624171,52.0811739734933 -1.35839212657684,52.081397994647 -1.35887434270975,52.0815597167276 -1.3598743324952,52.0819382673707 -1.36059277431203,52.0822164083455 -1.3612458525655,52.0824717190113 -1.36154712844169,52.0827341053988 -1.36234796105741,52.0829569542805 -1.36485345258087,52.0834937176152 -1.36531507130655,52.0835583178703 -1.36541557288861,52.0835732409255 -1.365516100031,52.0835863667565 -1.36562401835274,52.0835959369066 -1.36567931310305,52.0835998305079 -1.36573325881985,52.0836055140854 -1.3657522319496,52.0836083136362 -1.36585412603501,52.0836268392711 -1.3658715476014,52.0836287304528 -1.3658715603348,52.0836278323333 -1.36605241536123,52.0836359970326 -1.36623039674176,52.0836432477848 -1.36661378505377,52.0835734062351 -1.36683607966757,52.0835358638725 -1.36779863342167,52.0833783515603 -1.36873180662367,52.0832304735877 -1.3692290270724,52.083151348397 -1.37057622412151,52.0829355680007 -1.37073564782412,52.0829103549601 -1.37096679386003,52.0828675490764 -1.37078220425992,52.0826031146714 -1.37049151904611,52.0823111474944 -1.3702831825919,52.0820844258988 -1.37009610787397,52.0818945796856 -1.36975896541368,52.0815870808801 -1.36943256042168,52.0812436859777 -1.36913084470413,52.0809076126068 -1.3688067042137,52.0805067026692 -1.36855137357615,52.0801924494382 -1.36842781106925,52.0799535061324 -1.36831473087744,52.07969664175 -1.36817961375704,52.079338990727 -1.36809472486883,52.0792585383307 -1.36808744891401,52.079254005602 -1.36787648348492,52.0791044749203 -1.36782095573973,52.0789046366146 -1.36784767415451,52.0786656013829 -1.36781414528554,52.0784586004781 -1.36776612918836,52.0783486851678 -1.36759684163911,52.0781364597825 -1.36720902684802,52.0776039741245 -1.36692915913935,52.0771636582436 -1.36663187881379,52.0765174168931 -1.36644227491274,52.076101045638 -1.3662985140551,52.0758458119983 -1.36605764696653,52.0755496074247 -1.36573738523094,52.0752871278086 -1.36528099258336,52.0749618914749 -1.36492032730559,52.0746650335165 -1.36467230532533,52.0744587586274 -1.36458307173877,52.0743718973836 -1.36451256223909,52.0743050019489 -1.36462690947123,52.0742669702202 -1.36481940830857,52.0742743019724 -1.36503380050047,52.0742817516208 -1.36577958407766,52.0743729633955 -1.3662637821994,52.0743827646566 -1.36709381160209,52.0743953238373 -1.3670914512495,52.0742559902505 -1.37038511047571,52.0743222102956 -1.37084278549564,52.0711454517526 -1.37075823063485,52.0711360109931 -1.37043044388453,52.071100999611 -1.36953110481678,52.0710431484839 -1.36875390045195,52.0710084183442 -1.36853377497387,52.0709991472301 -1.36783639946471,52.0710016925078 -1.36729058846102,52.0710131388626 -1.36665850213469,52.0710349046666 -1.36595371286807,52.0710427922857 -1.36498651043029,52.0710375745791 -1.36448905418315,52.0710321914935 -1.36437663221521,52.0710369777263 -1.36419549488538,52.0710521771312 -1.36396887564268,52.0710851087171 -1.36370851739015,52.0711304402471 -1.36348007083625,52.0711903249829 -1.36337605825763,52.0712212215462 -1.36319773521777,52.0710386903695 -1.3629377553144,52.0708547276958 -1.36258752984694,52.0706559842856 -1.36184167695869,52.0701699808967 -1.36159178612984,52.0699878682934 -1.36141897286795,52.0698332284177 -1.36122267521406,52.0695794978633 -1.36113713141217,52.0694460053387 -1.36090423067243,52.0690014314649 -1.36079298998758,52.068822855841 -1.36066530229263,52.0686674719999 -1.36051994180567,52.0685282602556 -1.36035974659372,52.0684086516516 -1.36021371933895,52.068316176471 -1.35994002683324,52.0681762660416 -1.35979799909639,52.0681070906881 -1.3597548881895,52.0681608766212 -1.35945654841755,52.0685242722309 -1.35940027644039,52.0685814919432 -1.35927852572114,52.0685242018711 -1.35913901370325,52.0684892860898 -1.35902704866136,52.0684626094297 -1.35891365244982,52.0684350266663 -1.3587391111949,52.068393536821 -1.35859087127492,52.0683549773302 -1.35846013921756,52.0683201086277 -1.35831036178964,52.0682797431076 -1.35816073006735,52.0682375799986 -1.35801986602203,52.0681963636471 -1.3578875983893,52.068159687744 -1.35775248280512,52.0681203006507 -1.3577176233205,52.0681102229548 -1.35764204103864,52.0680881483106 -1.35760862577658,52.0680780784687 -1.35750993241335,52.0680487764638 -1.3573864315393,52.0680130469839 -1.35730066409642,52.0679883100037 -1.35720040736154,52.0679589992033 -1.35699700596934,52.0679003615668 -1.35683433313117,52.0678536318324 -1.35675730629198,52.0678316386432 -1.35669476882908,52.0678142183275 -1.35661930590951,52.0677922336015 -1.356540985962,52.0678601169214 -1.35641011155643,52.0678270433977 -1.35631270703158,52.0678085330346 -1.35619177118001,52.0677952875087 -1.35610001240442,52.0677857071379 -1.35597612509058,52.0677769398281 -1.35585809378656,52.0677709008462 -1.35552131687619,52.0677528771602 -1.35530269389487,52.0677408928413 -1.35518900385341,52.0677339778839 -1.35519329869422,52.0678365596884 -1.35508554212905,52.0678269798564 -1.35498788743625,52.0678174562111 -1.35488447348969,52.067807001807 -1.35478251671484,52.067795657106 -1.35469809300432,52.0677862057854 -1.35460335406275,52.0677748097121 -1.35450138301387,52.0677643628897 -1.35431640666383,52.067746270366 -1.35420711270429,52.0677348840024 -1.35411982834379,52.067723619272 -1.35400914373957,52.0677086296013 -1.35362624862011,52.0676525959801 -1.35343407862118,52.0676245751866 -1.35335258138977,52.0676124426003 -1.35327109720886,52.0675994109328 -1.3530775370188,52.0675677855328 -1.35291191379867,52.0675174387357 -1.35283345988264,52.067494536066 -1.35274053029962,52.0674661609223 -1.35266064818328,52.0674422621746 -1.35248926527941,52.0673909840056 -1.35232219928771,52.0673406275551 -1.35222336552838,52.0673131186044 -1.35214350727384,52.0672875113598 -1.35198230928533,52.0672389849428 -1.35192995973787,52.0672243155359 -1.35124644027317,52.0669804703173 -1.35112595059249,52.0669366628313 -1.35054781372159,52.0674711603865 -1.3508991472962,52.0675881484785 -1.35090463243989,52.0676079534393 -1.35095497279365,52.0677611231494 -1.35098704231678,52.0678637681206 -1.35094447898474,52.0679785846122 -1.35093550519891,52.0680001071717 -1.35100205482434,52.0680310342449 -1.35117720143595,52.0680302020867 -1.35118007810313,52.0682298497238 -1.35138208094378,52.0682848930467 -1.35142424764365,52.0682968099553 -1.35142822664254,52.0683211011838 -1.3513917823483,52.068320900454 -1.35138516839413,52.0687767554019 -1.35135206472782,52.0691514782824 -1.35132081637721,52.0692906265187 -1.35127541641834,52.0694019218887 -1.35121459424321,52.0694734938008 -1.35116970388114,52.0695496480511 -1.35127581444049,52.0695816920969 -1.35157362802925,52.0696661164499 -1.35189467536447,52.0697577692457 -1.35216061549245,52.0698338375623 -1.35218815022247,52.0698429783657 -1.35251074954515,52.0699355371558 -1.35274899837109,52.070005249776 -1.3528207173894,52.0700865396939 -1.35288399678656,52.0701525029953 -1.35290405486479,52.0701795790433 -1.35291818028713,52.0702093179452 -1.35297295248016,52.0702563587685 -1.35310593904098,52.0702436082232 -1.35349591737351,52.0704103291582 -1.35371481512953,52.0705041129259 -1.35382349235727,52.0705586404975 -1.35429863721471,52.0707923409465 -1.35457327936709,52.0708747435837 -1.35496260278114,52.0709875265534 -1.35520446661969,52.0711074992827 -1.35600107904237,52.071314192677 -1.35627573606248,52.0713876032251 -1.35714949101025,52.0716010030174 -1.35737079449502,52.0719384676097 -1.35734262667904,52.072274569877 -1.35681577657137,52.0722878692802 -1.3562494975516,52.0722991532323 -1.35548303019193,52.0723282123961 -1.35502615982613,52.0723436845278 -1.3546174181411,52.0723585207826 -1.3543429949256,52.0723686993413 -1.35394969531111,52.0724303575773 -1.35376835376997,52.0724590225658 -1.35367028759715,52.0724773593508 -1.35359718415891,52.0724914294708 -1.35353417190889,52.0725063632973 -1.35346391785881,52.0725230554751 -1.35333200468383,52.0725609797433 -1.35306258938664,52.0726323043021 -1.35297014332991,52.0726695470356 -1.35293334153339,52.0726855238156 -1.35295905918228,52.0727288093319 -1.3530348036197,52.0728398732825 -1.35305759267175,52.0728777498898 -1.35301350842295,52.0728981803185 -1.3526827685102,52.0730671402294 -1.35254049589653,52.0731140856365 -1.3524010763376,52.0731717422237 -1.35217330403121,52.0732828424975 -1.35168822723832,52.0735337326738 -1.35153539379253,52.0736119871702 -1.35143849327663,52.0736492042516 -1.35133029176575,52.0736692818281 -1.35121619752162,52.0736893259247 -1.35094254027587,52.073737343938 -1.35082398355919,52.0737663512988 -1.35029086424481,52.0741104516294 -1.35004204461937,52.0742618800378 -1.34995950370591,52.074320747409 -1.34987206695531,52.0744102378251 -1.34975655656019,52.0745273479192 -1.34969914840045,52.0745620855634 -1.34951668309415,52.0746672298246 -1.34944915476445,52.0746947204474 -1.34936130679026,52.0747131104541 -1.34925601674364,52.0747314039598 -1.34920762359433,52.0747500119841 -1.34908997081834,52.0748158755114 -1.34865589319006,52.0750652385531 -1.34808060726487,52.0753947129086 -1.34796285819069,52.0754587764826 -1.34788610312468,52.0755248652045 -1.34780784927621,52.0755864510082 -1.34771348970782,52.0756552283542 -1.34761772577026,52.0757131224166 -1.34752953648917,52.0757629683587 -1.34746771363178,52.0757949830618 -1.34741047314913,52.07581803581 -1.34736941870881,52.0758366837203 -1.34726376856279,52.0758711525624 -1.34716108463378,52.0759084240532 -1.34703943774951,52.0759508931033 -1.34689389983768,52.0760228914317 -1.34649550381707,52.076224805589 -1.34626039500213,52.0763421460372 -1.3461751545773,52.0763794236637 -1.34601950725165,52.0764432747389 -1.34580217900891,52.0765374337719 -1.3457303537238,52.0765622019409 -1.34562482173018,52.076596669998 -1.34555739237634,52.0766169679372 -1.34552355427526,52.0766356553427 -1.3454890837972,52.0766974831022 -1.3454632637086,52.07676834809 -1.3454506216457,52.0768347917916 -1.34540965338703,52.0768391475306 -1.34479280320207,52.0770136854111 -1.34458332330558,52.07707274038 -1.3443298812692,52.0771432365094 -1.3440757292168,52.076958457572 -1.34402589038544,52.0769770553862 -1.34280839392326,52.0773110121179 -1.34279859119066,52.0772821953817 -1.34248543451721,52.0773388704446 -1.34232897037713,52.0773676583014 -1.34196732152412,52.0774493183802 -1.34111235065361,52.0776404813376 -1.34000725620886,52.0779696467897 -1.34000718994849,52.0779741400902 -1.33996175838164,52.0779873681581 -1.34001011448517,52.0781755859185 -1.34010947783342,52.0785600363491 -1.34010072209609,52.0786561624423 -1.34000895652416,52.0786457606228 -1.34000893000883,52.078647558662 -1.33998854414329,52.0786429497883 -1.33973365859398,52.0786145556249 -1.33932836683957,52.07858711411 -1.33930792945788,52.0785861003057 -1.33925999432154,52.0785732475219 -1.33922338256268,52.078583828437 -1.3392345083533,52.0786207429615 -1.33746205768517,52.0790756586245 -1.3372146345794,52.0791362853053 -1.33702716370792,52.0791783744523 -1.3368661965986,52.0792098252782 -1.33668925670488,52.0792393894913 -1.33610550017392,52.0793359592729 -1.33515685797863,52.0794465552265 -1.33484252612784,52.0794834297935 -1.33457220519634,52.0795142607543 -1.33382554797836,52.0795783528867 -1.33379928199973,52.0795809016581 -1.33367361804979,52.0795927747792 -1.33162194719763,52.0797834817085 -1.33161675061761,52.07974480195 -1.33158460161388,52.0797464177586 -1.33159279342832,52.079786012706 -1.33152844313974,52.0797928385845 -1.33147648908625,52.0797511971434 -1.33132034663609,52.0797575020409 -1.33113911360318,52.0797762480248 -1.33090665791562,52.079800993818 -1.33091618472661,52.0798477873489 -1.33049821794448,52.0798876588122 -1.33048072054249,52.0798911548634 -1.33024509258717,52.0799348477184 -1.33021329034504,52.0798168289155 -1.33020496523896,52.0797862213676 -1.33016228693828,52.0796151993385 -1.33014717547995,52.079555700362 -1.33014026661612,52.0795268981502 -1.3301375150203,52.0795178942585 -1.33013613777043,52.0795133918548 -1.33013289659875,52.0794405683492 -1.32935945678346,52.0795413319755 -1.3285609463463,52.0796609140359 -1.32788902936188,52.0798026940429 -1.32641475456938,52.0801188451387 -1.32631938769724,52.0804437683435 -1.32621748528843,52.0808190797586 -1.32615421804301,52.0810416293978 -1.3260858311782,52.0813244618259 -1.32599204795415,52.0817356815701 -1.32591778464386,52.0821129480229 -1.32582322070949,52.0826796631475 -1.32573654323312,52.0832977462252 -1.32569570781619,52.0836841919632 -1.32566352413258,52.0840714964424</coordinates></LinearRing></outerBoundaryIs></Polygon>
  </Placemark>
