  <Placemark>
	<Style><LineStyle><color>ff0000ff</color></LineStyle><PolyStyle><fill>0</fill></PolyStyle></Style>
	<ExtendedData><SchemaData schemaUrl="#Wards__December_2019__Boundaries_EW_BFE">
		<SimpleData name="objectid">4192</SimpleData>
		<SimpleData name="wd19cd">E05009802</SimpleData>
		<SimpleData name="wd19nm">Angmering &amp; Findon</SimpleData>
		<SimpleData name="wd19nmw"></SimpleData>
		<SimpleData name="bng_e">508507</SimpleData>
		<SimpleData name="bng_n">107266</SimpleData>
		<SimpleData name="long">-0.4598</SimpleData>
		<SimpleData name="lat">50.854729</SimpleData>
		<SimpleData name="st_areashape">47308875.1997229</SimpleData>
		<SimpleData name="st_lengthshape">47108.1005488223</SimpleData>
	</SchemaData></ExtendedData>
      <Polygon><outerBoundaryIs><LinearRing><coordinates>-0.476587743698464,50.8850558593004 -0.476758723881056,50.8848234360509 -0.476881285539603,50.884598382141 -0.47701201825247,50.8843383712641 -0.477242634127645,50.8840239216519 -0.477405058087129,50.8837948925504 -0.477554910553582,50.8835594951096 -0.477775065597845,50.8832133516138 -0.477886780979632,50.8830583723485 -0.477966978966812,50.8829100848803 -0.478149309460889,50.8826382489789 -0.478267933600398,50.8824005558934 -0.478825951558666,50.8813285997839 -0.479085353169209,50.88082751772 -0.479225786254259,50.8805316693928 -0.479336283577523,50.8802372286979 -0.479597609340906,50.8797198983517 -0.479679957287568,50.8794619518455 -0.479711604685225,50.8792313065417 -0.479708145181941,50.8791178902245 -0.479678742857848,50.8786669890815 -0.479695199349877,50.8785970774889 -0.479749321950326,50.8785077860325 -0.479810414296622,50.8784636293132 -0.479835249367324,50.8784459709017 -0.479849334295771,50.8784056968155 -0.479981022571901,50.878028818693 -0.480178252011338,50.8776005578748 -0.480359639935457,50.8773134224087 -0.480556729406307,50.8770659592843 -0.480589527240653,50.8770196352595 -0.481056205147644,50.8764357467107 -0.481142595099252,50.87631630763 -0.481216356197989,50.8761887011759 -0.481259398615057,50.8760867688847 -0.481278106389167,50.875994319833 -0.481281927938013,50.8758334379604 -0.483035036494791,50.8760801877387 -0.483827033953646,50.8762037571722 -0.484238637242031,50.8762216890842 -0.484678561576719,50.8762444828413 -0.485109140844804,50.8762482735061 -0.485556087300035,50.8762279997497 -0.48578428696648,50.8762057863866 -0.485925498139735,50.8761446839414 -0.486346170945661,50.8761032985188 -0.487005190218182,50.8759868730287 -0.487059361460183,50.8759390256195 -0.487085646717967,50.8758728358865 -0.4871750529313,50.8757030843208 -0.487446263270888,50.8750977549881 -0.487490889242538,50.8749463926298 -0.487474758968491,50.8748328120797 -0.487355445080923,50.8745651445474 -0.487290489462649,50.8744212618896 -0.487275925554769,50.8743860096707 -0.487673989117039,50.8742967660173 -0.487688337225569,50.8742915577939 -0.487718383480722,50.8742865529379 -0.488203802459698,50.874177670295 -0.488619399928764,50.8740715688699 -0.48902928499791,50.8739680890848 -0.489251433416084,50.8739079401323 -0.48957923821895,50.8736171996543 -0.489829225637657,50.873315563575 -0.490158390519383,50.8728917787596 -0.490305423237368,50.8726535410574 -0.49034120972427,50.8725578047813 -0.49048530355734,50.8721891655701 -0.490603795369338,50.871909201488 -0.49069437179718,50.8716990042337 -0.490766462829375,50.8715821589932 -0.490899748698129,50.8713266611519 -0.491149151436841,50.870908135752 -0.491171659311518,50.8708715654503 -0.49078204958508,50.870700112794 -0.490744267765347,50.8706834410837 -0.490834060425101,50.8704102984038 -0.490946646379143,50.8701824036131 -0.491021777411778,50.8700548092841 -0.491135028043645,50.8698934535324 -0.491296793725316,50.8697247225925 -0.491554123878858,50.869503193587 -0.491708423408644,50.8693442553957 -0.491861043835396,50.8692409477938 -0.491958096940043,50.8691819644622 -0.492095032046371,50.8691216985132 -0.492447378924369,50.8689076874573 -0.492622570644623,50.8688056587208 -0.492840398923026,50.868707777507 -0.493545452598895,50.8683480837828 -0.493716180180231,50.8683008389019 -0.494257512640548,50.8680398128636 -0.494305116221396,50.8680170509479 -0.492852159010459,50.8670198523188 -0.492781193437808,50.8669712855196 -0.493447250477668,50.8665446479041 -0.49436605695043,50.8659027041502 -0.494739297884136,50.8657446968149 -0.495057768820059,50.8655626978525 -0.495752479532187,50.8651255374354 -0.496530332706628,50.8646238122963 -0.496789599661267,50.8644716130424 -0.496869942218509,50.8644034197698 -0.497005648108789,50.8642495397952 -0.497151113175812,50.8640581136688 -0.497375736074752,50.8637003913768 -0.497792481155684,50.8629385844965 -0.498042633933478,50.8625371353115 -0.498083008231651,50.8624729226053 -0.49813332270934,50.8623691885255 -0.49818485523432,50.8623114118998 -0.498294796494519,50.8622516905472 -0.498316486433909,50.862240282019 -0.498087037962904,50.8619935932739 -0.497963193693907,50.8618697271236 -0.497930355182764,50.8618306445402 -0.49773784169391,50.8616743372863 -0.497656741142476,50.861543829038 -0.497648653746772,50.8615293394081 -0.497637112687112,50.8614472861047 -0.497636295288708,50.8613852404217 -0.497641558905995,50.8613088874679 -0.497678265504533,50.861227545081 -0.497826791769859,50.8610279763292 -0.498091713587534,50.8607426961571 -0.49820324791288,50.8605894929715 -0.498201197212174,50.8605183500738 -0.498189163309952,50.860451664367 -0.498085699345928,50.8602660253516 -0.498006047274966,50.8600940880369 -0.49800227174017,50.8600329036005 -0.49799375285734,50.8599005416051 -0.497995109439006,50.8598583026565 -0.498004755276743,50.8598242624657 -0.498026970782243,50.8597490269333 -0.498092508508671,50.8596563678105 -0.498138765520318,50.8595876451174 -0.498177828308385,50.8594766642658 -0.498180012235793,50.8594524169868 -0.498186835493405,50.8593311314815 -0.498196373270182,50.8591216826621 -0.498283702362299,50.8589231236296 -0.498300182217467,50.8588550067357 -0.498292075280537,50.8587973617348 -0.498255943818554,50.858725870778 -0.498215003125915,50.8586290540576 -0.498168091904723,50.858543038756 -0.498112456476965,50.8584587089363 -0.498059300393547,50.8583446522847 -0.4980273009503,50.8582795079165 -0.497976836287596,50.8581691722011 -0.497936268959357,50.8580607615819 -0.497919518804836,50.8579184038987 -0.497934454342881,50.8575444933834 -0.497936280467702,50.8574438210957 -0.497879916404343,50.8571633953489 -0.497870712208417,50.8570049504706 -0.497839752896054,50.8569074526776 -0.497801046208455,50.8568323320429 -0.497793634322027,50.8567530284734 -0.497793807478931,50.8567476365412 -0.497802795985437,50.8566866150975 -0.497841742209897,50.856582824089 -0.497876779913929,50.8565095517775 -0.497782793356141,50.8564704914258 -0.497628545353496,50.8564073691585 -0.497503722793248,50.8563545162405 -0.497123842527992,50.85619678365 -0.49704800918757,50.856168835591 -0.496502434106061,50.8559908964583 -0.496237095749577,50.8559362322881 -0.496090214492296,50.8559064681139 -0.495893624686129,50.8558778628149 -0.495473806221493,50.8558112256004 -0.495394672515453,50.8557985179962 -0.495501284972392,50.8555760237901 -0.495547639762475,50.8554605515007 -0.495576335622451,50.8554060786259 -0.495649389526931,50.8553018286249 -0.495716837611595,50.8552334694868 -0.49587875937398,50.8551051015177 -0.495936023833738,50.8550473993423 -0.496027160559155,50.8549964279287 -0.496112960259663,50.854845500407 -0.496120969120309,50.8548186318884 -0.496135263584306,50.8547711652351 -0.49676229670952,50.8541380252299 -0.496874040581592,50.8540216865073 -0.496992079299028,50.8538406052441 -0.497067706009987,50.8537399837793 -0.497165406321021,50.8535757231772 -0.497424020087448,50.8532193339997 -0.497606572994849,50.8529770468093 -0.497675612574395,50.8528188002774 -0.497697413885403,50.8526688464468 -0.497677755103799,50.8524420277806 -0.497664412773003,50.8521936229022 -0.497655373042482,50.8520775266414 -0.4975759838505,50.8516717429782 -0.497398927468415,50.8509041763316 -0.497276085133729,50.8506588577231 -0.497199104359462,50.8504006394775 -0.497178149491147,50.8503455261118 -0.497132904931073,50.8501641374451 -0.497042996393013,50.849998448285 -0.497051253840793,50.8498762792644 -0.497073979885189,50.8498324267563 -0.497141801779224,50.8497083273399 -0.497220152999295,50.8495699775278 -0.497292596583289,50.8494368568184 -0.497374218733225,50.8492841630853 -0.497436009620023,50.8492165381931 -0.497505343619357,50.8491401095432 -0.497541151698012,50.8490389734992 -0.497644080770448,50.8487551984988 -0.497526401263808,50.848659280364 -0.497525139722064,50.8486547683212 -0.497687838269868,50.848497634198 -0.497707189690876,50.8483836991252 -0.497762710572025,50.848244965966 -0.497793735978358,50.8481212909841 -0.497814634443806,50.8479992843885 -0.497819466429164,50.8479363206543 -0.497801418557272,50.847838088063 -0.497711224980643,50.8476813865118 -0.49763284422321,50.847554416256 -0.497632024451623,50.8474923690965 -0.49765466834485,50.8474072472123 -0.497708312931799,50.8473305264901 -0.497875448273545,50.8471663458974 -0.497942882699628,50.8471015793038 -0.498238895242679,50.8466439759929 -0.498373333174835,50.8464802733295 -0.498427466928877,50.8463882741162 -0.498448299419941,50.8463157158821 -0.49853638174243,50.8462242421226 -0.498508828336408,50.8461996128066 -0.498489501823236,50.8461813828617 -0.498589791364026,50.8461547998079 -0.498902159833706,50.8460706157544 -0.499614985584711,50.8459017560805 -0.499814415453876,50.8458404834621 -0.500229990967949,50.8457261523565 -0.500772260309538,50.8456054437305 -0.501051436796966,50.8455371002236 -0.501499067189306,50.8454420565863 -0.501832441374451,50.845367212319 -0.502266300976898,50.8452594900456 -0.502664718507638,50.8451503235002 -0.502876987448546,50.84508651115 -0.503150995487927,50.8450001136391 -0.503379152476379,50.8449302102899 -0.503593512697209,50.844888810827 -0.503814925508806,50.8448502883601 -0.504057646094216,50.844812038307 -0.504193228384535,50.8447912969366 -0.504376097503562,50.8447567757251 -0.504612134447518,50.8447040538866 -0.504855739857769,50.8446819972241 -0.505126102469834,50.8446692731942 -0.505463708164177,50.8446376285231 -0.506336331622776,50.8445354138883 -0.507538406550056,50.844432994962 -0.507840052767087,50.8444197648928 -0.50805235602283,50.8439502745118 -0.50847793123532,50.8432119798245 -0.508973879670908,50.8422677015674 -0.50902560097402,50.8421145266247 -0.509033372109657,50.8420948454404 -0.509073846962573,50.8418939645911 -0.509228318322965,50.841904927405 -0.509246185331557,50.8414761067715 -0.50924732973009,50.8414401580721 -0.509218640791276,50.8411825601508 -0.509203174515844,50.8410430036549 -0.509198289560206,50.8408396553009 -0.509215994861893,50.840640282534 -0.509284080808229,50.8403776266129 -0.509364153191208,50.8401798580693 -0.509480926105677,50.8399474937264 -0.509713397187453,50.8397850251643 -0.509966794188235,50.8395427140919 -0.50982002592839,50.8392899048396 -0.509677498817556,50.838992194444 -0.509679014569624,50.8389445624776 -0.509650595293276,50.838899244916 -0.508840905260715,50.8389041980182 -0.508389192319367,50.8388615691844 -0.507975413959844,50.8387897525016 -0.50757227309476,50.8387810069424 -0.507308828089395,50.838757861016 -0.507011148266619,50.8386514708948 -0.506640524308021,50.8386035777953 -0.505769107514309,50.8385834452015 -0.505684696637571,50.8385607865178 -0.505602518999768,50.8385965989972 -0.505443759770557,50.8385882745325 -0.505237317015533,50.8386027157785 -0.504976454554712,50.8385903871539 -0.504738072340096,50.8385378864593 -0.504625219187483,50.8384708081738 -0.504518300441816,50.8384379712664 -0.504312461743063,50.8383894818708 -0.504088331770775,50.8383380616491 -0.504011034299397,50.8383127066312 -0.503856318900865,50.8382621738691 -0.503702664884733,50.838226040548 -0.503400320835621,50.8381340565068 -0.502277780512624,50.8380171748706 -0.502068159225629,50.8379992020244 -0.501800790797923,50.8380110591095 -0.5016879062878,50.8380329874611 -0.501541734423355,50.8380266178067 -0.500897846002441,50.837999476156 -0.500859752690822,50.8379017951109 -0.500810568139905,50.8377519135482 -0.500797578817693,50.8375394706671 -0.500797505183838,50.8374064031823 -0.500799139374736,50.8373992311246 -0.500829264659379,50.8372592691051 -0.500906986166416,50.8370480792712 -0.500779966574655,50.8368458610864 -0.500652949491297,50.8366436427951 -0.50061901352954,50.8365514992728 -0.500624071408545,50.8364373795576 -0.500657229078971,50.8363307226696 -0.500690412400037,50.8362268531957 -0.500820090079348,50.8357715962265 -0.500927606568829,50.8354708802582 -0.501197508757092,50.8355148024286 -0.501268496352904,50.8355139144138 -0.501329283051637,50.8354805286542 -0.501530173434403,50.8352366636745 -0.50177381779437,50.8349007383397 -0.502267843389251,50.8345085933278 -0.502769998443057,50.8341256311951 -0.50333536488417,50.8337210014719 -0.50358833106876,50.8335398396843 -0.503787760252749,50.8334291090372 -0.504031946258869,50.8332990810388 -0.504353594619292,50.8331449605905 -0.504398463872642,50.8331185618793 -0.504413313936682,50.8330971740348 -0.504431204278995,50.8330686321591 -0.504454368778735,50.8330545436885 -0.504532551256169,50.8330078927507 -0.504689061178251,50.8329540629459 -0.504791326658742,50.832912215872 -0.504964377133769,50.8327840624741 -0.504983270836986,50.8327717170295 -0.505155030660772,50.8326839165462 -0.505511503537454,50.8324142553256 -0.506319882488964,50.8319146305644 -0.506764413241204,50.8316442032303 -0.507061504164383,50.8314591014734 -0.507172075444968,50.8313768995147 -0.507338288839741,50.8312828210742 -0.507445392357705,50.8311771978691 -0.507490832169162,50.8311327337463 -0.507650394263807,50.8310268810812 -0.507712343713143,50.8309971035866 -0.50788692839654,50.8309121219795 -0.508168067786924,50.8306908495917 -0.508507713880578,50.8304595347726 -0.508615698107782,50.8303665088695 -0.508907518294665,50.8300338853293 -0.509122047677424,50.8297605120662 -0.50926534427784,50.829543772406 -0.509317482813176,50.8294653176531 -0.509362973419672,50.8294191455132 -0.509443722542469,50.8293356614076 -0.509553858276606,50.829266847184 -0.509690703087897,50.8291166472583 -0.50976769704968,50.8290627844277 -0.509843113449794,50.8290107001157 -0.509993382270459,50.8289316086994 -0.510220956186646,50.8288293166014 -0.510315123960483,50.8288134349858 -0.510451120930077,50.828825957259 -0.510632670129453,50.8288750239504 -0.510716234164387,50.8288832820062 -0.510761727806848,50.8288811646918 -0.510834512453199,50.8288713028515 -0.510957917702927,50.828830618822 -0.510982483278224,50.828816545922 -0.511072089875549,50.8287673387446 -0.511194894743207,50.8287455276825 -0.511421126914968,50.828729529057 -0.511583315594224,50.8286326049345 -0.511846578119519,50.8285676274741 -0.512013008555952,50.8285140036314 -0.512278788233173,50.8283734437374 -0.512501799123067,50.8282818784008 -0.512550843084613,50.8282564288443 -0.512686537657131,50.8281862289984 -0.512846680943795,50.8280614053233 -0.513189263390447,50.8278284054685 -0.513235553180751,50.8278011227672 -0.513461136750244,50.8276726358463 -0.51386109147273,50.8273728416064 -0.514462613099616,50.8268966895188 -0.514789557669706,50.8266615971737 -0.515057701883428,50.8264014814631 -0.515477918596086,50.8260452959192 -0.515602451244904,50.8259686570123 -0.515465228413774,50.8259507301107 -0.515011789042913,50.8258333913355 -0.51486455434232,50.8257730797404 -0.514819690783777,50.8257554264624 -0.514778006458673,50.8257261256447 -0.514683632149313,50.8256601919982 -0.514536222479464,50.8255611276296 -0.514448846212603,50.8254961861608 -0.514373391526348,50.8254134159806 -0.514326428953437,50.8253256140731 -0.514307727998986,50.8251994232641 -0.514338702971541,50.8250757524195 -0.514380310128295,50.8249710952866 -0.514449979658531,50.8248343407307 -0.514523096358054,50.8247696415496 -0.514665523854821,50.8247525722527 -0.51473477482649,50.8247210872575 -0.514826231782134,50.8246133781796 -0.514860408492976,50.8244735643978 -0.514775893708447,50.8243628097758 -0.514766686971733,50.8242951766524 -0.514862898610375,50.82417413227 -0.514946239119261,50.8238280782041 -0.514959274747589,50.8237752016082 -0.515012360556106,50.8235339491119 -0.515081685472795,50.8231868184171 -0.515169342068609,50.8227490293825 -0.515171118208146,50.8227373640021 -0.514783186419009,50.8226596150874 -0.514485831123688,50.8225902067672 -0.513231613029097,50.8222963722717 -0.512646166058559,50.8221315949206 -0.511947336432742,50.8219176330547 -0.511656467438835,50.8218249271008 -0.511078774299198,50.8216412714348 -0.51076867466686,50.8215276403475 -0.510750502036876,50.8215175194421 -0.510723930582137,50.8215027960281 -0.510308214557597,50.8213607578234 -0.509956357393676,50.8212205205651 -0.509963179252098,50.8211864448401 -0.509804105108973,50.8211421625083 -0.509274579868771,50.8209204549957 -0.508812469110963,50.8207175844848 -0.508440071009001,50.8205537067349 -0.507990924996932,50.8203483024959 -0.507549061533041,50.8201348978792 -0.506984016504563,50.8198678654796 -0.506341826767553,50.8195718843879 -0.50573552832418,50.8193105222502 -0.505344668325496,50.8191463090724 -0.504700830267981,50.8189025318189 -0.504275066731379,50.8187648389036 -0.504151660307929,50.8187183085545 -0.503946544870998,50.8186500553103 -0.502987926819992,50.8183491078949 -0.502447707475502,50.8181964571383 -0.502273346727394,50.8181438782233 -0.502065458427511,50.8180746869625 -0.501369795032856,50.8179003498567 -0.501344372699879,50.8178937305128 -0.501278790019317,50.8179459309482 -0.501194491745324,50.8180086797939 -0.501094803533886,50.818062240117 -0.500952180357659,50.8181260379249 -0.500805517884689,50.8181843898687 -0.500655042391493,50.8182301963498 -0.500510791384278,50.818257113222 -0.50041790024185,50.8182739007374 -0.500335387270731,50.8182809329901 -0.500214324027389,50.8182928631296 -0.500035140276505,50.8183031483656 -0.499832140436941,50.8183041373556 -0.498830982849945,50.818311951853 -0.497476504315541,50.8183143128152 -0.496415850314343,50.818319542637 -0.495198476751956,50.8183425225418 -0.493809950937889,50.8183479994287 -0.492566011938773,50.8183562244097 -0.49143261405835,50.818373954861 -0.489957474158173,50.8183756601361 -0.489378949904469,50.8183555924901 -0.488657904330289,50.8182616654741 -0.487617684101722,50.8182068443916 -0.486365404049648,50.8181654485002 -0.484646994395277,50.8181431633605 -0.48412861854471,50.8181490187086 -0.481914164082266,50.8182740636759 -0.479900062794756,50.8183062883041 -0.47854242888334,50.8182760127604 -0.477834771622737,50.8182533010981 -0.477299550420674,50.8181653145716 -0.476621495546075,50.8181501732496 -0.475913367202707,50.8182282276687 -0.474830074901121,50.8182743142195 -0.473647035034582,50.8183316725718 -0.472628906342893,50.8183821877622 -0.471761829671828,50.8184166901965 -0.470836224825562,50.8184153566799 -0.470118596086095,50.8183933657749 -0.469501918863428,50.8183232454657 -0.468925163870637,50.8182923048712 -0.468973869778847,50.8181023406751 -0.469076406614766,50.8178770294125 -0.46920392246566,50.8177968864483 -0.46931379855473,50.8177371012798 -0.469314092622655,50.8177281136429 -0.469343813478446,50.8173849686933 -0.469369496137811,50.8170759334531 -0.469323595567748,50.8168297931429 -0.469267816069775,50.8165386599013 -0.469272998009088,50.8163803999455 -0.469251023534575,50.8161435640978 -0.469303650221352,50.8150974588794 -0.469439799709993,50.8146675969455 -0.469474688718062,50.8145564793763 -0.469456909007851,50.8145382639854 -0.468896840846692,50.8145174317939 -0.468464116314864,50.814510854383 -0.468076696841392,50.8145075681142 -0.467567138786297,50.8145026811745 -0.467090633045091,50.814489234317 -0.467055272260971,50.814486073033 -0.466972931258734,50.8143986801524 -0.466828925041981,50.8142465537034 -0.466771500544044,50.814177469999 -0.466768341967152,50.8140596487783 -0.466707808445301,50.8139140122847 -0.466674825458032,50.8138812129873 -0.466473096734321,50.8137976470625 -0.466394397418574,50.8137741363929 -0.466295779846077,50.813751263395 -0.466284667266398,50.8137439245465 -0.466092148755163,50.8134688850898 -0.466059459969148,50.8134270978814 -0.465986861324865,50.8133461256757 -0.465853502116859,50.8132157153942 -0.465675016081664,50.8130731141133 -0.465579930145664,50.812985462615 -0.465421203734894,50.8128898725823 -0.465228551156587,50.8127938363781 -0.46508844591034,50.8127371504188 -0.464890052314642,50.8126841038182 -0.464628743366566,50.8126438059795 -0.464535479371455,50.8126290930959 -0.464464480721316,50.8125886002358 -0.464317169542551,50.8126657821429 -0.464170919091165,50.8127107005825 -0.464139357801215,50.8127201754654 -0.464028173985143,50.8127771528544 -0.463934364198592,50.8128253680224 -0.463514189586119,50.8129538034612 -0.463361673517773,50.8130148221089 -0.463255716783891,50.8130871518811 -0.463163308859085,50.8131353849346 -0.463073797318642,50.8131809598268 -0.462920557744734,50.813221199086 -0.462712721256683,50.8132382430872 -0.462573030226122,50.8132579817672 -0.462446842658323,50.8132941716446 -0.46237736515766,50.8133355131426 -0.462357064155633,50.8133478329713 -0.462236950172055,50.8134199763806 -0.462167635455614,50.8134990822912 -0.462142619090405,50.8135266242669 -0.462026387974916,50.8136052012424 -0.461869068185131,50.8136840462998 -0.461710195288193,50.8137673665072 -0.46151503040285,50.8138331254051 -0.461288750748089,50.813891281976 -0.46114860909588,50.8139245895597 -0.461051205911564,50.8139502780419 -0.460739486572438,50.8140189953859 -0.460699295925301,50.8140310527746 -0.460303187704237,50.8141211337896 -0.460012206454557,50.8142495520949 -0.459874946347838,50.8143232649709 -0.459764196226619,50.8143667578443 -0.4597255874067,50.8143734415322 -0.459697068362956,50.8143793589537 -0.459624354654474,50.8143873905345 -0.459533361779702,50.8143924838135 -0.459415521733212,50.8143918285862 -0.459008187560278,50.814389151161 -0.458385959874417,50.814404315067 -0.458326945560548,50.814515112027 -0.458340725216124,50.8145728356885 -0.458344373548546,50.8145899659679 -0.458401777582843,50.8146132010566 -0.458433025870341,50.8146558709787 -0.458437822076908,50.8147269616728 -0.458513395469833,50.814802583123 -0.458533037734694,50.8148955385312 -0.458546963527161,50.8152896109584 -0.458544708224787,50.8158337076143 -0.458535104243446,50.816124974962 -0.458355607368763,50.8171775019252 -0.458284419071031,50.817440987939 -0.458208916836967,50.8176648574102 -0.458138198491498,50.8177862023558 -0.458672512054566,50.8178543933533 -0.458821552015117,50.8178995165624 -0.458894944798623,50.8179563189832 -0.459012750366406,50.8184308919734 -0.459041313662623,50.8186831068355 -0.459035077719441,50.8193485416872 -0.459026713949713,50.8195598099575 -0.458713244785019,50.8195916408189 -0.458311176371193,50.8196870374267 -0.456212684677841,50.8198230648361 -0.455774554581195,50.8198901051235 -0.455732265310175,50.8201818482785 -0.455749688610933,50.8209447063986 -0.455770057657752,50.8212318819482 -0.455727362516309,50.8218797590677 -0.45566290238058,50.8222827002143 -0.455661730432298,50.8228358194788 -0.455607619225791,50.8231840502219 -0.455595419047589,50.8235535153744 -0.455553823288838,50.8239091945806 -0.455527818912869,50.8242676878273 -0.455505839614844,50.8245893708109 -0.455488162767028,50.8249084124909 -0.45549056366888,50.8252681800509 -0.455448651512794,50.8258036547083 -0.455361347421507,50.8271612822498 -0.455372708846514,50.8272036856828 -0.455493143086937,50.8272969757603 -0.455475334373546,50.8275350708717 -0.455509240060275,50.8279266827692 -0.45550822063354,50.8281739895953 -0.455473541967817,50.8284514183813 -0.455536843690711,50.828597985864 -0.455551124636065,50.8287222388277 -0.455659171008367,50.8289781784579 -0.455732297151656,50.8292137892785 -0.455793605064161,50.8295095677181 -0.455893715830529,50.8297896762243 -0.455911642252631,50.8299347454696 -0.455976284556359,50.8300407852284 -0.456115912966363,50.8302836569622 -0.456153124055442,50.8303623632853 -0.456209757661658,50.8304521148023 -0.456275289183773,50.8305312851108 -0.456360134559921,50.8308022024028 -0.45642105256845,50.8309360618444 -0.456519665029921,50.8310452473848 -0.456646393117494,50.831292444676 -0.456742862143304,50.8314240768088 -0.457249621408845,50.8323363578079 -0.457552924388227,50.8328287149345 -0.457693825153197,50.8330761001562 -0.457991048361058,50.8335826717509 -0.45809461208141,50.8338439483464 -0.458232714581536,50.8340058937604 -0.458394708837648,50.8342175164313 -0.458603663581595,50.8345143624812 -0.458918266442109,50.8349241772844 -0.458971364634047,50.8350363627305 -0.459098133416761,50.835325828819 -0.459190878606283,50.8355284453074 -0.45940994060974,50.8358209278001 -0.459536331643569,50.835951252898 -0.459725230197245,50.8361641283438 -0.459798965104921,50.8362541996166 -0.460061910900404,50.8366794238455 -0.460194649490392,50.8369195189315 -0.460067288624018,50.8369502059027 -0.459897443503169,50.8369731385224 -0.459679933613641,50.8369819574363 -0.458894224995487,50.8369455145545 -0.458047665574552,50.8369505194959 -0.457660680653074,50.8369283247005 -0.457514427666141,50.8369281910385 -0.457295721649552,50.8369270988727 -0.456419031303658,50.8369829411662 -0.455946935398168,50.83699917497 -0.455309024939734,50.8370473775273 -0.455102779186182,50.837059033099 -0.454686996842482,50.83704723659 -0.454388666041455,50.8370495806688 -0.454014893010686,50.8370564090353 -0.453401980718324,50.8370815568203 -0.453156294565508,50.8370818980884 -0.452919332360847,50.8370733629827 -0.452369637007103,50.8370777655307 -0.451888601045151,50.8370632953245 -0.450673404123011,50.8370048625791 -0.450298073922029,50.8369738226655 -0.450136702914359,50.8369564028687 -0.44994323958193,50.8369250717481 -0.44964176487875,50.8368491552551 -0.449435243152459,50.8367807888541 -0.447952678273173,50.8363492846667 -0.446531773483826,50.8363258572344 -0.445683491769096,50.8362103084461 -0.445455870555292,50.8367774757085 -0.445344457857489,50.8367966747271 -0.445080580256478,50.8368300333893 -0.444516817098875,50.8368737919758 -0.444281502881434,50.8369003354514 -0.444145946125031,50.83692011186 -0.44402290667729,50.8369473371693 -0.443876745155654,50.836986752078 -0.443754634280083,50.8370282841962 -0.443344499068188,50.8371918569233 -0.443371685761545,50.8373109848617 -0.44340906167994,50.8373420506459 -0.443616025423166,50.8374814594182 -0.443840286008899,50.8376148950727 -0.444152187012673,50.8377574952311 -0.444214930927888,50.8377933926567 -0.444280064769362,50.8378419087426 -0.444343464576151,50.8379003815552 -0.444480307887603,50.8380568392127 -0.444850147127119,50.8385528214374 -0.445046338309086,50.8388017716596 -0.445626808138362,50.8394579752042 -0.446007008879058,50.8398542062517 -0.445449218282029,50.8399286170659 -0.444708416012338,50.840037455856 -0.444035041790201,50.8401292948145 -0.44198489021547,50.8404024100642 -0.441492284080564,50.8404812655393 -0.441135663995253,50.8405277651138 -0.440796405173224,50.8405628062869 -0.439900626369292,50.8406335882523 -0.439638871694266,50.8406481711999 -0.439064455933984,50.8406656885342 -0.439063051834792,50.8406656698152 -0.438824100113399,50.8406741724371 -0.438544273072484,50.8406758351004 -0.437351046903722,50.8406374392361 -0.437067728931235,50.8406138779477 -0.436781934830252,50.8405803040397 -0.43592559734661,50.8404483928329 -0.435448520046756,50.8403602039365 -0.434611088281282,50.8401744964448 -0.433964438298464,50.8400165871754 -0.43371340249983,50.8399628750824 -0.432879648590929,50.8398356277887 -0.432412116775032,50.8397565326174 -0.432347131303098,50.8397457710071 -0.432191614460773,50.8397248042656 -0.431872749070058,50.8397034440612 -0.431701092226275,50.8396993426877 -0.431527762951345,50.8396997134218 -0.431092774838728,50.8397118551452 -0.430443696366617,50.8397525871392 -0.42854684524329,50.8398178995246 -0.425819828457793,50.8398586053248 -0.425492174040107,50.8398478975369 -0.425274680372285,50.8398521587036 -0.425015709457194,50.8398675489132 -0.424800420260556,50.8398898208271 -0.424613394027161,50.8399178683988 -0.424404758167544,50.8399582102976 -0.424294582856962,50.8399818985082 -0.423982187342304,50.8400639952893 -0.422299655454207,50.8406771088609 -0.422295288873976,50.8406815456094 -0.422206161419046,50.8407964112358 -0.42217132253294,50.8408606730218 -0.422146189043529,50.8409322586115 -0.422135580126628,50.8409968484521 -0.42213898307836,50.8410626158444 -0.422163630766163,50.841133974289 -0.422222840291128,50.8412291754268 -0.42220799006609,50.8414160695463 -0.422163095172406,50.8416951619024 -0.422063380028845,50.8420823011605 -0.421967840011419,50.8425990491874 -0.422062525809724,50.842614712378 -0.421983223311437,50.8431118102492 -0.421948855763308,50.8440475355093 -0.421994026995054,50.8445625864041 -0.422018489116285,50.8451429887265 -0.422192766850497,50.8464592257504 -0.422209202828473,50.8465205840463 -0.422246733443199,50.8465885196946 -0.422326306642655,50.8466705091503 -0.422514529736794,50.8468196874396 -0.422682648584571,50.8469712002579 -0.422779868854476,50.8470786912114 -0.422824480775413,50.8471485209043 -0.422904003443953,50.8474023199044 -0.422998696882803,50.8477516231584 -0.423025431554089,50.8479696461775 -0.423021928744582,50.8481152466076 -0.423005148468478,50.848276040722 -0.422970667316424,50.8484580841503 -0.422949048241128,50.8485503957306 -0.422904935081236,50.8486811524717 -0.422432762667078,50.8495399415754 -0.422199034940375,50.8501492233391 -0.421985973120809,50.8506562004662 -0.421960808218189,50.8507250879039 -0.421952729411713,50.8507978923994 -0.42195799260877,50.8508537047162 -0.421969329470926,50.850896113866 -0.421993397687856,50.8509395933831 -0.422073649795301,50.8510467656406 -0.422140435081939,50.8511295716408 -0.422429284318305,50.8514527274298 -0.422547825096573,50.8515604163217 -0.422590970057943,50.8515870717156 -0.422793705369188,50.8516851079796 -0.422861492611668,50.8517382587327 -0.42288320628495,50.8517682201697 -0.422890753673645,50.8517979912789 -0.422886549764134,50.8518392912326 -0.42285153218093,50.8519503009595 -0.422849532537627,50.8520096115269 -0.422857360333307,50.8520727410355 -0.422872581120561,50.8521250922501 -0.422893840510029,50.8521685336442 -0.422930759752211,50.8522130857254 -0.423073979367873,50.8523462807173 -0.423100022974426,50.852376391378 -0.423176870035404,50.8524979013563 -0.423220371493157,50.852597384957 -0.4232683215612,50.8529020024326 -0.423289106169136,50.8531298341913 -0.423317866210622,50.8532462003477 -0.423340014429038,50.8533050273869 -0.423369186172191,50.8533674556166 -0.423679666280097,50.8538940860293 -0.423925484340378,50.8543965573987 -0.424063153159813,50.8546565331531 -0.42414735484217,50.8548554608545 -0.424204562171558,50.8550559129793 -0.424206849279892,50.8560415772827 -0.424291678268621,50.8568548368447 -0.424297834632743,50.8569259457198 -0.424273598361429,50.8570541836068 -0.42423732221954,50.8571607718617 -0.424116048053798,50.857387495871 -0.423985395407068,50.8575935053149 -0.423898058481402,50.8577830164676 -0.423809581428138,50.8580480327845 -0.423712863026754,50.8584289166989 -0.423662916563373,50.8585622016861 -0.423590683844463,50.8587240458002 -0.423172534905167,50.8594962652088 -0.423076701426035,50.859683863072 -0.422793813030102,50.860234940193 -0.420047987724735,50.8600826774161 -0.420044122356574,50.8598191126774 -0.419853131917606,50.8596672867404 -0.419579140717603,50.8594513150722 -0.419021581967351,50.8588349324813 -0.418518166680037,50.8584297488174 -0.418198970622332,50.8582032718321 -0.417998771538743,50.8580746921208 -0.417827435605487,50.857972575908 -0.417725512757842,50.8579171615135 -0.417449719361949,50.8577965468521 -0.417354968370143,50.8577404208257 -0.41732461089629,50.857716633542 -0.416994013908873,50.8572804253669 -0.416845393785337,50.8571372588032 -0.416769358647764,50.8570750925965 -0.416597143304419,50.8569575878393 -0.416474483953941,50.8568884958049 -0.416330484671032,50.8568200126349 -0.416174730139508,50.8567630582174 -0.416019986370943,50.8567178038778 -0.415827967554561,50.8566801356675 -0.415747084567028,50.8566781399268 -0.415508967591174,50.8567009811213 -0.415456478468411,50.8567011681874 -0.415425336374721,50.8566971492384 -0.415384727355755,50.8566786172833 -0.415371351242016,50.8566550598929 -0.415369975687964,50.8566541428112 -0.415363810929875,50.856625199263 -0.415370193154784,50.8566028093147 -0.415386553102254,50.8565832518105 -0.415456193539548,50.8565401430319 -0.415837375639336,50.8564023653982 -0.416070999782567,50.8563426006474 -0.415625429438678,50.8558221157907 -0.415542892805669,50.8556995326822 -0.415448347619724,50.8555130440508 -0.415431365430787,50.8554265046079 -0.415437130767611,50.8553842368347 -0.415451293970323,50.8553430722689 -0.415479899846717,50.8552940125604 -0.415521506661167,50.8552415329084 -0.415586103856852,50.8551812731775 -0.414291461706442,50.8548102796571 -0.41352099542061,50.8545722618722 -0.412860726574768,50.8543941761075 -0.411899792916714,50.8541149891478 -0.411560017106879,50.8539960965544 -0.411337140307106,50.8539085528217 -0.411153682591602,50.8538296371084 -0.41069774551472,50.8536165576311 -0.410576691279819,50.8535420867409 -0.410500763316458,50.8534772196255 -0.410407589865061,50.8533751665492 -0.409280310594487,50.8522635902785 -0.407280553109042,50.8528307861841 -0.407286129546506,50.8529594278437 -0.407273577010825,50.8530356761466 -0.40723943049031,50.8531234082362 -0.407195094780576,50.8532145077561 -0.407141021222658,50.8532991809861 -0.407051832080868,50.8534140328564 -0.406896967358565,50.8535827417475 -0.40665987883158,50.85378548096 -0.406579700966806,50.8538455233304 -0.406393602760184,50.8539715490985 -0.406249977306873,50.8540577866475 -0.405440908442262,50.8546204306981 -0.405089431335994,50.854886337676 -0.404572003276266,50.8552263958772 -0.40447722415161,50.855295317809 -0.4038443836166,50.8557731507124 -0.403743277440583,50.8558626636382 -0.403666447116526,50.8559479236368 -0.403596453207579,50.8560422666475 -0.40350196147176,50.8561885116189 -0.403384443464932,50.85638469832 -0.403324213728524,50.856484658742 -0.402285854263934,50.8567680459169 -0.401278406522067,50.8570618248147 -0.400060407576596,50.8574040418505 -0.398744856561404,50.8576899748767 -0.398466404210441,50.8577715657474 -0.398083866281538,50.857861616457 -0.397970855896484,50.8578843407918 -0.397465326714736,50.8579601144883 -0.397024337005432,50.8580566428155 -0.396922499742414,50.8580849128007 -0.396762885083167,50.8581411601669 -0.396564695129149,50.8582427283431 -0.396070346424534,50.8585695787589 -0.39572676212596,50.8588112904588 -0.395808908916028,50.8588618676688 -0.39575921850127,50.8588999346414 -0.395660386215464,50.8589669047373 -0.395566205962687,50.859017755442 -0.395465185967527,50.8590631179358 -0.395345842389861,50.8591064307065 -0.395200976599684,50.8591457960898 -0.395043537335635,50.8591759979194 -0.393127362958047,50.8595301181536 -0.392456691422288,50.8596548435213 -0.388236527515146,50.8595310156871 -0.387985667221591,50.8597595994613 -0.387783909356966,50.8599231395071 -0.38724492939694,50.8603086742962 -0.387095379870713,50.8604019988293 -0.385983602246946,50.8608722146766 -0.385371676234854,50.8611029925956 -0.385236130399325,50.8611604556368 -0.384864563464792,50.8613451074963 -0.384579025470551,50.8615083812451 -0.384220856359695,50.8617561509315 -0.383818465030177,50.8620527554846 -0.383387331210928,50.8623570517911 -0.383045997296968,50.8625681888241 -0.382785379411787,50.8627084291922 -0.382652231181873,50.8627776100503 -0.38236068084843,50.8629076200946 -0.382134534708914,50.8629961905345 -0.381917309986282,50.8630740950599 -0.381852653274426,50.8630938777558 -0.381737779468903,50.8631292365534 -0.381582934820488,50.8631684468331 -0.381266998793959,50.8632243034371 -0.381038786814024,50.8632472107103 -0.380923566884252,50.8632519060736 -0.380818434667865,50.8632495493862 -0.380705087664314,50.8632407843025 -0.380597578907321,50.8632258066578 -0.380491694236289,50.8632045580008 -0.380238224695695,50.863138106621 -0.380004475304184,50.8630773233925 -0.379668592311359,50.8629682799881 -0.379209902098329,50.8627955852657 -0.378960651041567,50.8626886419764 -0.378844803693805,50.8626303920928 -0.37868876913923,50.8625383189348 -0.37846298572645,50.8623696644585 -0.378183020004456,50.8621248261868 -0.378108812055152,50.8620517801897 -0.378043212464555,50.8619771450484 -0.377990533284004,50.8618981945997 -0.377957699019988,50.8618213185331 -0.377893624586268,50.8614966752386 -0.377875870448243,50.8614748502048 -0.377859236720472,50.8614646401823 -0.376704716273552,50.8614413975049 -0.376487362278471,50.8614419710012 -0.376205637614402,50.8614507290957 -0.375858595076052,50.8614611848284 -0.37529735952185,50.861458768576 -0.375124410901198,50.8614491684352 -0.373963880983871,50.8612719860021 -0.37364024628842,50.8612225237408 -0.372583264943848,50.8610126049654 -0.371927275563474,50.8608748910602 -0.371708342617426,50.8608367735608 -0.371255869530236,50.8607729213106 -0.37098388954596,50.8607475475711 -0.370879007076224,50.8607414990512 -0.370466978235428,50.8607375454651 -0.370201890895631,50.8607194597993 -0.370048988319161,50.8607029392234 -0.369824311050016,50.8606683343484 -0.369453606743158,50.8605813425164 -0.369343359918707,50.8605645175408 -0.369196258689821,50.8605462800404 -0.368705848117961,50.8605088584933 -0.368369673876643,50.8604933715464 -0.368122526218449,50.8604917142942 -0.367783857537281,50.8605040615925 -0.367453204005458,50.8605318030971 -0.367354632465252,50.8605061498757 -0.367353226402989,50.8605061302086 -0.367208553156841,50.860539170208 -0.367106536142073,50.8605719074508 -0.367019842596792,50.8606120517646 -0.366937136947823,50.8606621416571 -0.366868376958524,50.8607188091037 -0.366815131866659,50.8607774023067 -0.366777453711519,50.860839809693 -0.366752475271189,50.8609041934127 -0.366675744556353,50.8614742056275 -0.36666962216321,50.8615253669395 -0.366618275201592,50.8620193134532 -0.366528658343663,50.8627132165418 -0.36651255666406,50.8629729105966 -0.366520525670168,50.8632311437497 -0.366540371907517,50.8633572906006 -0.366581090708451,50.8635332677891 -0.366630895729925,50.863693998195 -0.366762863962774,50.8640249921491 -0.366826626005654,50.8641518433357 -0.366913234618647,50.86427532781 -0.367059188128632,50.8644508894044 -0.367208978725326,50.8646373835796 -0.367304435527886,50.8646719838394 -0.368172056708596,50.8665223434761 -0.368385918406755,50.8667870507682 -0.369326277192286,50.8678208976404 -0.369562188370542,50.8680652315434 -0.370059621020978,50.8685119100521 -0.370734670054012,50.8692858074613 -0.371181992183535,50.8697857255574 -0.371437212235676,50.8702533824764 -0.371471383727862,50.8703320775808 -0.371511288481149,50.8704917680985 -0.371517018515527,50.8705728534089 -0.371508079156642,50.8706680296709 -0.371486065863826,50.8707684176664 -0.371260144447093,50.8716627998765 -0.371175604342101,50.8717651023795 -0.370577725467794,50.8724842806708 -0.370369591025159,50.8727466882115 -0.370058613818603,50.8729437367031 -0.369808088437441,50.873198359481 -0.369401532484159,50.8733635934987 -0.368028904903947,50.8740440625884 -0.366864637091853,50.8745359305478 -0.366863230607821,50.8745359108714 -0.366473759246342,50.8747381452188 -0.366197521942793,50.8745104126012 -0.366040268546216,50.8743723639351 -0.365067473606868,50.8744720258184 -0.364597872567908,50.874525774452 -0.364466284433085,50.8747127342875 -0.36424661712948,50.874978566811 -0.364178854629679,50.8750864036027 -0.36406863190934,50.8753124123078 -0.363885085085027,50.8757649459414 -0.363874309374374,50.8757881700914 -0.363812873121283,50.8759194715738 -0.363761757517068,50.8759969736602 -0.363711447183255,50.8760547981599 -0.363583963302735,50.8761644947491 -0.36354240385131,50.8762133613922 -0.36352750691342,50.8762338306749 -0.363491468340713,50.8762890672472 -0.363535352993488,50.8764147421195 -0.363591382774696,50.8765216178188 -0.363654850285041,50.8766169092547 -0.363722007457587,50.8766871684848 -0.363798001232178,50.8767493694941 -0.363860545237589,50.8767907038498 -0.363905273158208,50.876812009705 -0.363960052188953,50.8768307584355 -0.364029069071818,50.8768479089192 -0.364098454141554,50.8768578717464 -0.364434649869767,50.8768760685749 -0.364802721298638,50.876877628304 -0.364914722844445,50.8768854904943 -0.365250062703942,50.8769315438458 -0.365313865454024,50.8769369320683 -0.365475882808884,50.8769356042157 -0.365711509957485,50.8769038402808 -0.365784241328458,50.876898564981 -0.365947970138633,50.8768918654046 -0.366135577768509,50.8768926934659 -0.366226323878569,50.8768984591694 -0.366199796413012,50.877006874298 -0.36615183721443,50.8771986928888 -0.366122022983494,50.8776056410788 -0.3660908932713,50.8780468250669 -0.366090861846011,50.878047723948 -0.366104460788976,50.8787583544007 -0.366092220714468,50.8790279919385 -0.366096316772467,50.8792762806893 -0.366213455624937,50.8801934365554 -0.366288316022181,50.880613536928 -0.366382011463653,50.8809844534157 -0.366513219017322,50.8814189180976 -0.366612338490514,50.8817151973639 -0.366706977982848,50.8822201766466 -0.366697692787407,50.8829754388174 -0.36670759919198,50.883342575532 -0.366662194140005,50.884111718495 -0.366515904722935,50.8844738833517 -0.365871721113491,50.8852500233271 -0.365403158851487,50.8858037618278 -0.365060991070186,50.8864401849992 -0.364476998573804,50.8874041667195 -0.363896226067984,50.888479674543 -0.364355835271655,50.8883872156971 -0.365595009061135,50.8881608304414 -0.366391139578617,50.8880425054481 -0.366392546467797,50.8880425251305 -0.367246776579335,50.8879689714221 -0.368740361505413,50.8877444030144 -0.370590351389192,50.8874545729684 -0.371297482018481,50.8873564611947 -0.371756628058207,50.8872765554417 -0.372097400157677,50.8872093821746 -0.372885922294451,50.8870224897068 -0.374109665963846,50.8867454531889 -0.374683353280412,50.8866041966815 -0.374899262277604,50.8865676427735 -0.376150948133642,50.8863898723203 -0.376256765050406,50.886370665029 -0.376461517781993,50.8863312569581 -0.376889740029676,50.8862400222518 -0.377507787400089,50.8860867810145 -0.377696869344869,50.8860462537253 -0.377984579004076,50.8859909131165 -0.378433707254681,50.8859152472021 -0.380064174941901,50.8855934500295 -0.380780381403439,50.8860134469959 -0.381702777369501,50.8865964190285 -0.381870137049739,50.8870205777555 -0.383360638856587,50.8877426710673 -0.385494597507477,50.8887344576971 -0.38663416427614,50.8872752982115 -0.387073589850664,50.8878065975807 -0.387337172676767,50.8879136289036 -0.388511592776938,50.8894793659721 -0.388718475836793,50.8923456312719 -0.388723453310302,50.8924086348201 -0.391069589387553,50.8931110532607 -0.392715664647458,50.8933728689554 -0.39279458787517,50.893147389497 -0.392912637532819,50.8928989831137 -0.392963700659214,50.892818768802 -0.393006652160222,50.8927698212621 -0.393053603793746,50.8927273121596 -0.393117608372375,50.8926832389934 -0.393201807149042,50.8926349487689 -0.393473683640746,50.8925020296696 -0.393932027663991,50.8922412196333 -0.39418035081999,50.8920908051406 -0.394294463897127,50.892038431236 -0.394404205515254,50.8919904910054 -0.394457166579623,50.8919777337894 -0.394560263484933,50.8919593713751 -0.394664339153385,50.891950012774 -0.395010292501269,50.8919367862017 -0.395494910665903,50.89190388627 -0.395955411055709,50.8919075133376 -0.396456522448522,50.8915204276029 -0.396804131698078,50.8912914440261 -0.397018253375986,50.8910200809864 -0.397198095385362,50.8907500439822 -0.397890013103064,50.8900184436767 -0.398113871971231,50.8898354089001 -0.398790485273772,50.8893032745688 -0.399163294754812,50.8890017156651 -0.399848923392565,50.8883699026576 -0.400174588511896,50.8881198405273 -0.400420924914137,50.8879029460166 -0.400667113418507,50.8876868565455 -0.400620960636088,50.8876241898011 -0.401078643254149,50.8872122143008 -0.401459460523293,50.8868846856309 -0.401719223286436,50.8866895476024 -0.402094699380493,50.886435665124 -0.402754018009438,50.8860328213935 -0.403435850743699,50.8856328884578 -0.404039757604883,50.8852661418976 -0.404524032744209,50.8849903602785 -0.405125193691721,50.8846658255575 -0.405963684769676,50.8841737046755 -0.406240197254805,50.8839022737492 -0.40690543080884,50.8830282054911 -0.407031647599045,50.8828707042449 -0.407299562770881,50.8825622947714 -0.407865545362902,50.8818892453619 -0.407813955953024,50.8817761609779 -0.407952067838621,50.8814345143319 -0.408079536132126,50.8811574548766 -0.408208410996341,50.8808804144382 -0.408443335020043,50.8804078351962 -0.408619777896188,50.8799039813632 -0.409020100189016,50.880002035759 -0.409904376456913,50.8803342254591 -0.41004935641319,50.8803757562828 -0.410176340528871,50.8804053546353 -0.410395519715207,50.8804398034656 -0.410629453162346,50.8804574610029 -0.412086865351331,50.8806561873409 -0.412119243697367,50.8805829045918 -0.41216986291795,50.8804315631684 -0.412205630798698,50.8802998883737 -0.412231440862221,50.8801680782552 -0.412248121437154,50.8800531356436 -0.412252825423989,50.8799561019279 -0.412249737805627,50.8798399922838 -0.412230370301705,50.8796545242373 -0.413160900377152,50.8795880482317 -0.413156096866604,50.8803577520907 -0.413113776948644,50.8811863745675 -0.413072237264585,50.8813638225489 -0.413003295447932,50.8815922345608 -0.412960375838221,50.8816860522038 -0.412869707984462,50.8818017876698 -0.412776118509217,50.8822968833679 -0.412328252936645,50.8840148229576 -0.41242607512741,50.8840647009407 -0.412466956442218,50.8842829195949 -0.41236150473394,50.8847508875594 -0.412301235672941,50.8853103635226 -0.411977859721397,50.8860820391842 -0.41173986085569,50.8865590828638 -0.412072266703268,50.886608554317 -0.412153900225259,50.8866348374847 -0.412264223300693,50.8866516206514 -0.412326853521668,50.8866506739808 -0.412405371321088,50.8866409517619 -0.412477078220698,50.8866212480341 -0.412543467113687,50.8865924806131 -0.412594184833716,50.8865626018222 -0.412625009495212,50.8865351498029 -0.412647402710493,50.8865039868497 -0.41270110912706,50.8863895469422 -0.412733558292208,50.886352227144 -0.412895749393735,50.8862258645739 -0.412970327285775,50.8861215969416 -0.413034665186463,50.8859840151739 -0.41306863241587,50.8858640018707 -0.413152828932665,50.8856870414298 -0.413301613728512,50.8857448036219 -0.413511078889163,50.8858141787053 -0.413739632035935,50.8858668199177 -0.413970205592647,50.8859014171829 -0.414315746302092,50.8859402722567 -0.414704212628817,50.885971615753 -0.415429842231179,50.8859985413447 -0.415912251791563,50.8860284577696 -0.416345753863531,50.8860729941916 -0.416712044225357,50.8861292051636 -0.416865049103353,50.8861456630306 -0.417015483858974,50.886154894009 -0.417117712191528,50.8861580767119 -0.417193202816627,50.8861546045735 -0.417298760861837,50.886142548263 -0.417660632480758,50.8860800202102 -0.417923010135181,50.8860548030026 -0.418551174229736,50.8860210512743 -0.418885591104874,50.8860111932269 -0.418937371728341,50.8861611382558 -0.419090893179116,50.8861623165894 -0.419866293119049,50.886145835679 -0.420336657786633,50.8861126384116 -0.421457038123868,50.8864883975898 -0.421853174168114,50.8866295986706 -0.421930174344913,50.8866648032167 -0.421984988918968,50.8866835247224 -0.422041478655801,50.8866977740164 -0.422154648557549,50.8867136872777 -0.422228496571359,50.8867137853685 -0.422328337673395,50.8867043455037 -0.422424326372832,50.8866840643546 -0.422513530878976,50.8866529023403 -0.42259595111144,50.8866108603735 -0.422666024117564,50.8865595702704 -0.422720548650606,50.886500069817 -0.422772002994838,50.8864099581023 -0.42387883097396,50.8863889342472 -0.423959860788076,50.8865131996573 -0.424494448523355,50.8864700628788 -0.424646618305118,50.886215790745 -0.42486744209627,50.8863312422617 -0.425166482903181,50.8867381448049 -0.425305101515482,50.8867606924625 -0.425393864195467,50.8867843657134 -0.425494761256286,50.886827081948 -0.426121732821559,50.8872500901209 -0.42621806228422,50.8873449814406 -0.426374769107411,50.8875475841575 -0.426475527888098,50.8877198534145 -0.426532214048859,50.8878536791203 -0.426542168906357,50.8879375159753 -0.42653482385585,50.8879850677144 -0.426482719856854,50.8881399048361 -0.426407849480024,50.8882954236038 -0.426387308669683,50.8883553845049 -0.426362744909378,50.8884512533635 -0.426356499404895,50.8885114068297 -0.426362160585851,50.8885556272957 -0.426431153316611,50.8887417643147 -0.426443088543949,50.8888120525525 -0.426450151764121,50.8891071312555 -0.426436677489372,50.8892113315428 -0.426440408310335,50.8892293628765 -0.426453709878395,50.8892556152491 -0.426474370438415,50.889275672384 -0.426505020905313,50.8892949656585 -0.426559719433113,50.8893172799222 -0.426786544470203,50.8893769761997 -0.426937915187598,50.8894005922213 -0.426976015581447,50.8894109951616 -0.427027603891907,50.8894386623719 -0.427054775110421,50.8894777774164 -0.427059612275577,50.8895012186749 -0.427030090405171,50.8896608549057 -0.427029188181032,50.8899000844535 -0.427049016381456,50.8899866613542 -0.427112568616588,50.8901674205374 -0.427126123938395,50.8902314370608 -0.427129253152445,50.8902638458565 -0.427114418299878,50.8904920985957 -0.427127187263169,50.8905794797491 -0.427164339364924,50.8906564009386 -0.427265693811478,50.8907729357324 -0.427314421995196,50.89084731567 -0.427364151336365,50.8909720559055 -0.427377676964975,50.8910369713253 -0.427383581274099,50.8911576150467 -0.427348905083931,50.8913414564652 -0.427309153884907,50.8917214061757 -0.427155333842475,50.8924459615856 -0.427117774462906,50.8927188632682 -0.427042058049869,50.8928958593488 -0.427045633788878,50.8930020884763 -0.427061142814773,50.8930463518181 -0.427081260580524,50.8930825850663 -0.427104700997651,50.8931071753863 -0.427128236651562,50.8931254743851 -0.427182879367521,50.893149585527 -0.427237915397263,50.8931620151705 -0.427374140537528,50.8931692435402 -0.427500857547887,50.8931628574212 -0.427964790938956,50.8931520205062 -0.429643120041618,50.8930568180898 -0.42987686925844,50.8930401815656 -0.430177718562554,50.8930154549287 -0.430516086934304,50.8929731605709 -0.431076748513783,50.8927909885959 -0.431107388998668,50.8919657848131 -0.431047411796896,50.8902778790467 -0.431053055258387,50.8895161743872 -0.431633916229845,50.8887308174393 -0.432367968818463,50.8877882874117 -0.432860070688714,50.8870196234845 -0.433444118908182,50.8862666647824 -0.433817655185339,50.8857680144036 -0.434146474490699,50.8853722461294 -0.434592600197248,50.8849142153838 -0.436295144039298,50.8832345495657 -0.437023478877868,50.8824996956944 -0.437010086682577,50.8823043301025 -0.437015686538069,50.8822630480586 -0.437051114975498,50.8821394521046 -0.437478232436666,50.8812701094376 -0.437579342175093,50.8810960551608 -0.437714128798252,50.8808892762335 -0.437721606516144,50.8808794864353 -0.438965682188204,50.8790435108663 -0.439807334251896,50.8778038002057 -0.439984275251173,50.8775273632214 -0.440188777064113,50.8776191016723 -0.440515429558429,50.8777557153182 -0.440908802596126,50.8778949264225 -0.441443259921766,50.8780666774754 -0.441666489513472,50.8781487734504 -0.441781585828376,50.8781943629797 -0.442325197961681,50.878432762183 -0.443054043600967,50.8787401589138 -0.443252038295262,50.8788129250686 -0.443781911782292,50.8789962022373 -0.444062381781783,50.8791124112688 -0.444605001328564,50.879377759392 -0.445230163768204,50.8797305135023 -0.446070417184331,50.8801535563049 -0.446852783665203,50.8804814217152 -0.446927515161286,50.880458140885 -0.447064240832918,50.8804069140227 -0.44716810151991,50.8803606442223 -0.447340414455571,50.8802648466667 -0.447440802041397,50.8801960545825 -0.447516756569453,50.8801359272934 -0.447934089556111,50.8797242173836 -0.448112913178027,50.8799900193235 -0.448400691071811,50.8804444542697 -0.448789301271061,50.8810287930681 -0.449280661431673,50.8817277780532 -0.449424682623964,50.8819725269789 -0.449525906962515,50.8821788578447 -0.449627349334542,50.8824635000465 -0.449711387399877,50.8827569016862 -0.449724585461567,50.8828290019938 -0.449740856464927,50.8831547700551 -0.449753459966957,50.8832871890258 -0.449793557580327,50.8834954053977 -0.450217173498052,50.8843545121076 -0.450547288211872,50.884986621457 -0.450859800034159,50.8856832288629 -0.450976603018234,50.885975267417 -0.451079170893289,50.8862689148065 -0.451287386439167,50.88706402486 -0.45135795030137,50.8873401648797 -0.451658971817608,50.8886391736535 -0.45177686012292,50.8888988590542 -0.45188607545959,50.8891655313014 -0.452179461753546,50.890051675667 -0.452228836423643,50.8901926741397 -0.452408167123751,50.8906150046044 -0.452445753913939,50.8907260880989 -0.452483524790887,50.8908741254616 -0.452512238428326,50.8910372368861 -0.452530989079651,50.891200306224 -0.452559326953697,50.8916332234579 -0.452556519133124,50.8918454555903 -0.452536184069502,50.8920736397389 -0.452411372573464,50.8927518609284 -0.451863287094388,50.8943579765895 -0.451502334771634,50.8954674969696 -0.454636928831592,50.8966151344384 -0.455357542593722,50.8968809899445 -0.455602318126188,50.8967474788584 -0.456652051169009,50.8961795669474 -0.457269500695144,50.895784761442 -0.457307426350959,50.8957546943 -0.4573763942345,50.8956899733459 -0.457468501481091,50.8955707144084 -0.457786950891011,50.8950128225493 -0.457946576052575,50.8947873765767 -0.458041285286874,50.8946744450216 -0.458269321181623,50.8944436073381 -0.458697434391939,50.8940544771888 -0.458944663619458,50.8937996169034 -0.459135462410108,50.8936204327089 -0.459223355232928,50.893543373392 -0.459382162908903,50.8934276899026 -0.459525312558928,50.8933530679101 -0.459776313780503,50.8932466919123 -0.459961538441171,50.8931475393491 -0.460276188709828,50.8929205377851 -0.460614235257694,50.8927163196705 -0.460730542551063,50.8926378350781 -0.460841166114294,50.8925610741229 -0.461006066666197,50.8924345905168 -0.461163178524775,50.8922811223481 -0.461274228232482,50.8921486241223 -0.461393494918969,50.8919801831559 -0.461527027919163,50.8917238208252 -0.46159112767067,50.8916356575417 -0.46175914559381,50.8914570692065 -0.461820491367557,50.8913634754118 -0.461909101809353,50.8911325932816 -0.461936510827091,50.8910799095847 -0.462076787124515,50.8908784787851 -0.462117828125729,50.890796305057 -0.462155004174973,50.8907032921729 -0.462173427113776,50.8906208206109 -0.46217495272902,50.8905281476954 -0.462163495314981,50.8904452826944 -0.462132441698896,50.8903522707269 -0.461904233913421,50.8891648390097 -0.462274429446878,50.8886309944615 -0.46302477502927,50.8873881168856 -0.463363352832832,50.8866884257337 -0.46348220922845,50.8865353505047 -0.463548671903853,50.8864570181768 -0.463731251383772,50.886266121095 -0.463787898728535,50.8861867601961 -0.463839404618526,50.8860498803223 -0.463862467970765,50.8859081323777 -0.463897996019118,50.8856082220447 -0.463940519687586,50.8854378699615 -0.463977630073887,50.8853466534523 -0.464111866470555,50.8850678210731 -0.464191462099652,50.8849393126754 -0.464344272997768,50.8847444277467 -0.464566663022646,50.8845117076218 -0.464735263918998,50.8843106464714 -0.464921296449302,50.883971357533 -0.466067884961413,50.8842544361922 -0.467185326021938,50.8844687921684 -0.467521733557506,50.8845298485352 -0.468375285520259,50.8846417417383 -0.470348082772283,50.8848744804854 -0.471085335250352,50.884937181953 -0.471548207188976,50.8849989840715 -0.471764860670642,50.8849370881541 -0.471922604951764,50.8848986943341 -0.472065583713248,50.8848708970869 -0.472244064323458,50.884847159706 -0.472348257907656,50.8848368355502 -0.47323438640965,50.8847809969031 -0.473484248587677,50.8847896590994 -0.473694068721217,50.8848076861866 -0.474144377112244,50.8848630202983 -0.474367847134879,50.8849010041365 -0.474720937005419,50.8849289925715 -0.475082462880493,50.8849570910132 -0.475863457840901,50.8849870686352 -0.476587743698464,50.8850558593004</coordinates></LinearRing></outerBoundaryIs></Polygon>
  </Placemark>
