  <Placemark>
	<Style><LineStyle><color>ff0000ff</color></LineStyle><PolyStyle><fill>0</fill></PolyStyle></Style>
	<ExtendedData><SchemaData schemaUrl="#Wards__December_2019__Boundaries_EW_BFE">
		<SimpleData name="objectid">7780</SimpleData>
		<SimpleData name="wd19cd">W05000695</SimpleData>
		<SimpleData name="wd19nm">Tonyrefail East</SimpleData>
		<SimpleData name="wd19nmw">Tonyrefail - Dwyrain</SimpleData>
		<SimpleData name="bng_e">302832</SimpleData>
		<SimpleData name="bng_n">187632</SimpleData>
		<SimpleData name="long">-3.40368</SimpleData>
		<SimpleData name="lat">51.57914</SimpleData>
		<SimpleData name="st_areashape">14810908.2642885</SimpleData>
		<SimpleData name="st_lengthshape">18149.6262850596</SimpleData>
	</SchemaData></ExtendedData>
      <Polygon><outerBoundaryIs><LinearRing><coordinates>-3.42922479175388,51.5963510029767 -3.42933763566308,51.5963127772303 -3.42940450569874,51.5962814012214 -3.42945100192612,51.5962456894771 -3.4294761324269,51.5962157194775 -3.42951210190105,51.5960759494668 -3.42956943564964,51.5959682814327 -3.42976390363922,51.595724019625 -3.42997557761117,51.5955235956518 -3.43004149544093,51.5953708776236 -3.43005477728669,51.5952402822306 -3.43009864422918,51.5952118828201 -3.43011683254129,51.5951010942715 -3.43025588535695,51.5950256936459 -3.43025997224563,51.594879030116 -3.43035991510033,51.5947978112178 -3.43042090081176,51.5947611128477 -3.43042627310621,51.5947502610083 -3.43032928692433,51.5945122362937 -3.4302693198268,51.5943007298691 -3.43023569950292,51.5940601367357 -3.4302115407841,51.59374931331 -3.43022054994707,51.592242250916 -3.43024475270403,51.5918642297302 -3.43023498628179,51.5913671556043 -3.43025428053154,51.5906961454471 -3.43028806391848,51.5903010187814 -3.43034942052383,51.5898173727344 -3.43042280905864,51.589394796507 -3.43055768322251,51.5884966622686 -3.4306150297203,51.5881129347014 -3.43090209943722,51.5870510544533 -3.43106998736769,51.5865112779281 -3.43123465971687,51.586009384871 -3.43138761462971,51.5855021508247 -3.43146899441381,51.5851981348532 -3.43167697763129,51.5846507678728 -3.43178495464151,51.5843221565375 -3.43218286192124,51.5833389283524 -3.43240438857442,51.5828102723073 -3.4327495452989,51.5818987882129 -3.43314167331714,51.5807367407642 -3.43337941381622,51.5800810467052 -3.43354389485034,51.5796654490101 -3.43362840253121,51.5794162268518 -3.43373363290925,51.5790427002714 -3.43382888455073,51.5787681780802 -3.43388048416709,51.5785283457044 -3.43395978002139,51.5777918799864 -3.43395755886128,51.5776758560185 -3.43396903206859,51.5773520136692 -3.43394223300017,51.5769576220528 -3.43390264525684,51.5766182218936 -3.4337597076835,51.5760193019464 -3.43360173121885,51.5754906813434 -3.43341835896296,51.5750739237589 -3.43314559100451,51.5745233251498 -3.43276088115614,51.5739012763319 -3.43263733634934,51.5736879359322 -3.43252696583111,51.5735264835606 -3.43208414787249,51.5730274842674 -3.43162416961854,51.5725348939032 -3.43136817243776,51.5722862186865 -3.43128047855529,51.5722063810166 -3.43115792581235,51.5721152823008 -3.43051462633494,51.5716644706239 -3.43024090385366,51.5714952034916 -3.4298347258877,51.5712905985868 -3.42935456463959,51.5710257652698 -3.42873443451602,51.5707590328369 -3.42823049320418,51.5705664870059 -3.42806866610042,51.5705126277999 -3.42713973100146,51.5702470276764 -3.42655407538555,51.5701156042408 -3.42584681549541,51.5699227265762 -3.42559469312243,51.5698421814352 -3.4252282059332,51.5697072868688 -3.42495555602533,51.5696170107782 -3.42452641572654,51.5694568045404 -3.42428218690017,51.5693545860958 -3.42395278137172,51.5692029690183 -3.42368629976516,51.5690776470876 -3.42331688706797,51.5688905548936 -3.42320502354538,51.5688208922278 -3.42266239469638,51.5684507142904 -3.42228971076786,51.5681126389746 -3.42215631908611,51.5679514559708 -3.42199834260645,51.5677915590453 -3.42175261209451,51.5674536554011 -3.42165621132303,51.5672768332132 -3.42156394900197,51.5670953753947 -3.42131410497921,51.5663925434384 -3.42112796935152,51.5659281499561 -3.42085484351656,51.5651724717251 -3.42043843665324,51.563941094606 -3.42036318403447,51.5637478320269 -3.42017056913874,51.5633535445622 -3.42007555253879,51.5631749042272 -3.41987972037763,51.5628185009888 -3.41977045597898,51.5626444368905 -3.41956961973757,51.562356413231 -3.41943163186772,51.562142243514 -3.41935621859698,51.5620352806336 -3.41927495143275,51.5619274900955 -3.41893305815365,51.5615098334582 -3.41865460442627,51.5612309266704 -3.41845556124739,51.5610498543587 -3.41806107736876,51.560703937486 -3.41776950126489,51.560465548867 -3.41756145652948,51.5603161353555 -3.41730890289404,51.5601276150119 -3.41708481451613,51.5599747092072 -3.41685499473052,51.5598210628056 -3.41612702333163,51.5593720902178 -3.41586137247364,51.5592287620164 -3.41480715990276,51.5587261753697 -3.4140909257256,51.5584245557325 -3.41368974726883,51.5582792515539 -3.41284182695916,51.5579189764511 -3.41263155741149,51.5578351123201 -3.41252919648821,51.5579326210719 -3.41252348889984,51.5579326896332 -3.41251377279118,51.5579453918951 -3.41239565081792,51.5580447983417 -3.41226106925752,51.5581696633189 -3.41222839049627,51.5582320842695 -3.41218851524632,51.5582963900744 -3.41206477444302,51.5583527124785 -3.41202646418211,51.5584214946326 -3.4119280038467,51.5584568374487 -3.41152762155092,51.5585714076039 -3.41145210587326,51.5586487254696 -3.41130561250525,51.5586693618836 -3.4111602393262,51.55868009681 -3.41101972892241,51.5587519014582 -3.41091127224165,51.558790959242 -3.41070769796089,51.5589274329325 -3.41056940727102,51.5590711223511 -3.41031914143826,51.5591901758426 -3.41024113961093,51.5592333614049 -3.41009355042018,51.5592647961714 -3.40966756418515,51.5594866352324 -3.40944943101499,51.5597103861821 -3.40930770410126,51.5600241039935 -3.40922599659188,51.5600898956196 -3.40922400450433,51.5601177862542 -3.40925210559425,51.5602343108757 -3.40921858737307,51.5602697709387 -3.40920349473424,51.5602933234805 -3.40921171134575,51.5603282835188 -3.40911865861862,51.5605389399056 -3.40895982713163,51.5608151059045 -3.40893922997047,51.5608953579294 -3.40893673672615,51.5609070736489 -3.40895798505221,51.561032759503 -3.40899997481901,51.5611329369062 -3.40904103804639,51.5612493063001 -3.4090545546645,51.5614982376444 -3.40906491578641,51.5616950700242 -3.40924788276873,51.5619652542547 -3.40934681425142,51.5620873127943 -3.40936329206604,51.5621509398118 -3.40949412032606,51.5622311743035 -3.40950030874109,51.5623390621798 -3.40952758924888,51.5624250331858 -3.4095236666675,51.5625329513862 -3.40950197793979,51.5626240931648 -3.40946539062472,51.562702738462 -3.40955239084775,51.5627619246928 -3.40958371259731,51.5627939112259 -3.40960005529965,51.5628107955095 -3.4095612642589,51.5628642971427 -3.40948955654386,51.5629227771879 -3.40947011999938,51.5629481801407 -3.40944126909093,51.5629961693002 -3.40941688429356,51.563000057285 -3.40928179757626,51.5630169572369 -3.40914678328176,51.5630823988542 -3.40901271221905,51.5631783924153 -3.40898596544394,51.5632020844418 -3.40895196339867,51.5632682034287 -3.40888643299597,51.5633418017456 -3.40884321995971,51.563390861889 -3.40879067672233,51.5634652029086 -3.40879405813754,51.5634822424985 -3.40886605917456,51.5636181072948 -3.40892339125925,51.5637450695188 -3.40891973806698,51.5638116343113 -3.40887563633982,51.563928214336 -3.40885554824914,51.5639787950245 -3.40881595778993,51.5640026407747 -3.40873859698543,51.5640206471231 -3.4086591992835,51.5640189010642 -3.40862013987714,51.5640175703156 -3.40850155487485,51.5640989951961 -3.40847816712946,51.5642315079238 -3.40843790648356,51.5643299725501 -3.40841616796821,51.564373382082 -3.40840944928406,51.5643869458235 -3.40826926864047,51.5644740222245 -3.40813196498226,51.5645117130006 -3.40806737037901,51.5645232726629 -3.40782621348278,51.5645648125533 -3.4076350426036,51.5645877747098 -3.40756356101657,51.564607507357 -3.40740840029268,51.5647720702989 -3.40731018900698,51.5648623282786 -3.40724838721879,51.5649143066615 -3.40725631190405,51.5649861261317 -3.40727128457561,51.5650974147306 -3.4072680736952,51.5651784464617 -3.40725603537949,51.5653511847913 -3.407339635522,51.5654427742242 -3.40754728532541,51.5656723041714 -3.40767240425202,51.5657985460084 -3.40757325973646,51.5659049062274 -3.40733120029549,51.5661488048683 -3.40724981012353,51.5662252882564 -3.40718520011248,51.566282693409 -3.40709560675699,51.5663709605801 -3.40693313957408,51.5665303055617 -3.40672522254626,51.5667126659971 -3.40651872898928,51.5668949199522 -3.40625772540898,51.5670842072267 -3.40624338312475,51.5670897719134 -3.40501882272533,51.567335421341 -3.40397496211386,51.5675502256149 -3.40307930352464,51.5677488714585 -3.40260896125982,51.5678434714538 -3.40239958016175,51.5678396741189 -3.40189273192493,51.5677800912289 -3.40147312532795,51.5677410413579 -3.40115937331549,51.5677205071647 -3.40105653613811,51.5677072591418 -3.40074059340619,51.5677083260366 -3.40054200509468,51.5676801280291 -3.40023119224591,51.5676119152361 -3.399799129227,51.5675001982829 -3.39947062589902,51.5673709766338 -3.39929790247228,51.5672939271128 -3.3991065953914,51.5671694542597 -3.39896051605427,51.56706502904 -3.39882252027674,51.5669875648185 -3.39864766277127,51.5669339112366 -3.39836089324556,51.5668968696284 -3.39796519557063,51.5668844936566 -3.39742565908333,51.5668873096164 -3.39718356876435,51.5668524308743 -3.39682760672276,51.5667235276638 -3.39650905042134,51.566545727554 -3.39642648523825,51.5664872888979 -3.39618179103127,51.5663167007886 -3.39601818994885,51.566160342249 -3.39593214007979,51.5660346145447 -3.39590637959334,51.5660403135826 -3.3954507048833,51.5661437039292 -3.39491595954632,51.5662562102388 -3.39444687931365,51.5663921174728 -3.39414261136593,51.5664946069513 -3.3939221238017,51.5665008152092 -3.39319110170249,51.5665166683325 -3.39243258107289,51.566531943283 -3.39178332154978,51.5665333354576 -3.38950011316861,51.5665117894165 -3.38860971021284,51.5665052250402 -3.38827301209647,51.5664885246562 -3.38792612289895,51.5664692459908 -3.38719329487952,51.5664257536808 -3.38637768475834,51.5663670507249 -3.38500558746711,51.5662698602646 -3.38422953824024,51.5662286645662 -3.38347086375044,51.5662385092268 -3.38237422363403,51.5662837928724 -3.38221871109523,51.5662946136739 -3.38204603883039,51.5663083330142 -3.38188414394589,51.5663479945817 -3.38183591101247,51.5663737326592 -3.38179916190363,51.5663976279479 -3.38139397385436,51.5667863329958 -3.38126038137622,51.5668571233474 -3.38115916084259,51.5668969681549 -3.38079524132639,51.567026291979 -3.38052470463824,51.5671004910113 -3.3799147350615,51.5672523940943 -3.37969003526938,51.5672649243588 -3.37949176223051,51.5672465788811 -3.37922506641974,51.5671607178201 -3.37893496912212,51.5670130161184 -3.37882752332635,51.5669414645328 -3.37865966084836,51.5668310697603 -3.37856182051485,51.5666954904239 -3.37850670306825,51.5664974727644 -3.37839301075916,51.5663647770244 -3.37811700258812,51.5661594647388 -3.37760289183915,51.5659047188684 -3.37708642643396,51.5655717908558 -3.37683409214984,51.5653858845046 -3.37669847862015,51.5652912893814 -3.37644979511337,51.5652222912141 -3.37625990161448,51.5651462206782 -3.37600790245897,51.5649711860504 -3.37554771404218,51.5646852339355 -3.37523555829819,51.5645269936095 -3.37513279336427,51.5645156125086 -3.37484843443941,51.5645099544359 -3.37459633137646,51.5645245931098 -3.37417655291987,51.5645726573111 -3.37408831288496,51.5645656003139 -3.37384588542638,51.564514501735 -3.37312152708976,51.5643198183068 -3.37293317727614,51.5642473191172 -3.37256468097813,51.5645645499209 -3.37206220301012,51.5650785047583 -3.37186171883053,51.5653659014763 -3.37175222655806,51.5655659368075 -3.37168254538306,51.5657923846493 -3.37168200127802,51.5659641788064 -3.37175814505726,51.5662887942092 -3.37182037430756,51.5665344654122 -3.37180622946092,51.566641604477 -3.37177525881791,51.5668578022467 -3.37179770462609,51.567125512825 -3.37180504888682,51.5675120615013 -3.37183740327678,51.5682040478502 -3.37185341220753,51.5685464470696 -3.37176629702231,51.5687668965887 -3.37169620592907,51.568979865357 -3.37175357061717,51.5692534619389 -3.37175727642816,51.5693766635821 -3.37168494102221,51.5695150467089 -3.37153560195064,51.569684085023 -3.37132564376856,51.5698510448156 -3.37106689186286,51.5700294509221 -3.37064755931026,51.570335583535 -3.37033490314481,51.5705414953712 -3.37022271761161,51.5706525656758 -3.37015232394067,51.5707567663945 -3.37010680225478,51.5708256170203 -3.37007710689894,51.5709420167734 -3.36998898212017,51.5713233870163 -3.36996202254103,51.5716734786319 -3.36997586071446,51.5719439880539 -3.36999153120929,51.5721289867064 -3.37005741274893,51.572690234781 -3.37008780557543,51.5729335830951 -3.37007194414951,51.5731738745326 -3.36992129584447,51.5738266452145 -3.36992250135324,51.5742033766471 -3.36987030619763,51.5744818484275 -3.36977561641371,51.5748390228225 -3.36970646643346,51.5750799368782 -3.3697319203431,51.5752063906078 -3.36978385305459,51.5754458907536 -3.36984890074879,51.5755476111545 -3.37002618121357,51.5760185629237 -3.37007802954764,51.5763066066505 -3.37016876136152,51.5765383726234 -3.37021553974468,51.5766062355528 -3.37036282851115,51.5767995857413 -3.3705429991825,51.5769863491731 -3.37079712176608,51.5771829455597 -3.37104032840806,51.5773527919612 -3.37115157125391,51.5774512744748 -3.37126003314201,51.5775561718618 -3.37146359685487,51.5777965071503 -3.37171595713236,51.578029170029 -3.37179010475127,51.578144356378 -3.37185681520311,51.5783485339446 -3.37195027376281,51.5787178948496 -3.3720323341009,51.5789022068222 -3.37217237610327,51.5790479956391 -3.37227744809312,51.5791349532276 -3.37239676819334,51.5791695152826 -3.37259571302134,51.5792085404528 -3.37336886721057,51.5794351089809 -3.37382588673263,51.5796113464369 -3.37403238807743,51.5797114988884 -3.37428343467324,51.5798523899678 -3.37453774520201,51.5799554868773 -3.3749014914929,51.5801005402322 -3.37504637977266,51.5801698597909 -3.37530517835925,51.5803269288628 -3.37558524545418,51.5805223128488 -3.37574420999423,51.5806715615672 -3.37583119330644,51.580825158814 -3.37595743414923,51.5811833448306 -3.37606773604366,51.5814904777873 -3.37607242657779,51.5815039062417 -3.3757798256219,51.5820882296519 -3.37556158384526,51.5826051602355 -3.37538261540319,51.5829408523838 -3.37513695994987,51.5835039486756 -3.37505427575314,51.5837296521517 -3.37496016270606,51.5838171419696 -3.37487407923627,51.5838828733816 -3.37482474930059,51.5839203082336 -3.37473343394911,51.5840058777148 -3.37465626335786,51.584126430141 -3.37463621862411,51.5844207071636 -3.37428786936643,51.5848347917459 -3.37375982194874,51.5855099616245 -3.3738885121396,51.5857126044039 -3.37414268862948,51.5861457040905 -3.37425307377462,51.5863135020252 -3.3743920351473,51.5864224448063 -3.37442704440174,51.5864822639335 -3.37438223783421,51.5865277347542 -3.37424133268793,51.5865437677563 -3.37409218262126,51.5865311300438 -3.37388563263323,51.5864778135089 -3.37353612868406,51.5863290840458 -3.37352008867001,51.5863220799475 -3.37333632108392,51.5862585175468 -3.3732671326208,51.5862611243868 -3.37324815648972,51.586302787552 -3.37328066053489,51.586374322247 -3.3734417791014,51.5864524433106 -3.37348155726699,51.5865283879283 -3.37341830705572,51.5865858500012 -3.37326860183034,51.5867404212171 -3.37314111777821,51.5869649387552 -3.3730419805672,51.5871270082414 -3.37295140676489,51.5872809764535 -3.37283983072921,51.5875556480881 -3.37276613073566,51.5877443875939 -3.37258431051787,51.5881763850718 -3.37233826595804,51.5885389265417 -3.37197248483744,51.5890952385328 -3.37180739452657,51.5892689541774 -3.37163474693986,51.5894328703246 -3.37153188404686,51.5896138595691 -3.37144685429491,51.589810011222 -3.37128660758777,51.5900024581467 -3.37109797560164,51.5902088096538 -3.37059628374907,51.5907587038732 -3.3704150235723,51.5909729682642 -3.37037251829614,51.5911901979177 -3.37041868824525,51.5912373028008 -3.37050073892363,51.5914207166269 -3.3705311690354,51.591617229065 -3.37063048987092,51.5917060528577 -3.37063804608871,51.5917158530797 -3.37114862314042,51.5920344968911 -3.3711767733887,51.5920602375678 -3.3713051285758,51.5922475152301 -3.37138254380974,51.5923716529037 -3.37162447920639,51.5927851247095 -3.37173259024715,51.5930194729058 -3.371893250698,51.5934177117827 -3.37190144433352,51.5935435570934 -3.3720314167346,51.5936894638775 -3.37205313408723,51.5937386522587 -3.37214092144125,51.5938276095884 -3.37232195491715,51.5939891003297 -3.37252678915586,51.5943203015304 -3.37273629428444,51.5946127932464 -3.37290388217229,51.594857231761 -3.37303683611703,51.5950031026088 -3.37319374277608,51.5952287888551 -3.37331062934903,51.5954180859283 -3.37340785215183,51.5957685226698 -3.37345394625016,51.596006291376 -3.37355784578955,51.5961003635637 -3.37401521530954,51.5965194003608 -3.37418094569287,51.5967018324824 -3.37421534862775,51.5967886273558 -3.37426075923101,51.5969049568855 -3.37437195003654,51.5970511708989 -3.37443162697712,51.5971628401137 -3.37445404503694,51.5973298690623 -3.37441489572086,51.5974211197669 -3.37433445221279,51.5975326306325 -3.37433414822008,51.5976172240135 -3.37437211185818,51.5977273489987 -3.37435718700858,51.597804832735 -3.37430884672315,51.5979268444654 -3.37437411027234,51.5980303573775 -3.37444501342562,51.5981787504243 -3.37447534248579,51.5982764695438 -3.3744793821078,51.5984103634024 -3.3744523734622,51.5985213387638 -3.37436824073683,51.5986526696527 -3.37450783042444,51.598875859299 -3.37461628767875,51.5990220151682 -3.37483956822998,51.5992451239024 -3.37490427410162,51.5992353770746 -3.37519583914988,51.5994252346324 -3.37532012026951,51.5995236507205 -3.37555912274126,51.5996916485634 -3.37571047205416,51.5998742479674 -3.37592481794662,51.6000416356494 -3.37617478494381,51.6002374606242 -3.3763334145603,51.6003732293632 -3.37643476416026,51.6004808124157 -3.37656978151542,51.6004576553866 -3.37672387489887,51.600443263818 -3.37712647726954,51.6004816918364 -3.37759297240273,51.6005346507774 -3.37809998721322,51.6005889307453 -3.37844363473746,51.6006343395776 -3.37868632714245,51.6006404797484 -3.37904315211394,51.6006452791537 -3.37929086108888,51.6006243914176 -3.37949617047482,51.6005833251693 -3.37956582808437,51.6005483473487 -3.3796282484351,51.6004631140011 -3.37966733674717,51.6003268251997 -3.37966764308332,51.6001443373517 -3.37965416259549,51.5999861926072 -3.37966404387562,51.5998368534462 -3.37968092803143,51.5997260856627 -3.37979023344267,51.5994712115134 -3.37993575704271,51.5991269165708 -3.38000522696779,51.5988500367232 -3.38009693587835,51.5985881772515 -3.38027123733657,51.5985258996228 -3.3805058540216,51.5985015672261 -3.3811427407721,51.5984581200765 -3.38154819555823,51.5984497545827 -3.3820383376208,51.5984233116812 -3.38285804870924,51.5983632307498 -3.38318259000759,51.5983522165678 -3.38349612263031,51.598362906479 -3.38405227040835,51.5984166715588 -3.38450421648216,51.5984652792685 -3.38485916857858,51.5985069401752 -3.3850892447504,51.5985213059687 -3.38509212842849,51.598522171151 -3.38517597936884,51.598527474666 -3.38557957156695,51.5986927025749 -3.38581993873599,51.5987635786225 -3.38620732420406,51.5988264271156 -3.38666318285037,51.5989055451004 -3.38750827705685,51.5990143123366 -3.38767496296911,51.5990384121845 -3.38813010128149,51.5994727033426 -3.38818206923248,51.5994747857066 -3.38947227360144,51.5993094041948 -3.3894953325855,51.5993082321549 -3.38973689642178,51.5992775066302 -3.39065237481745,51.5991838762253 -3.3919714428336,51.5990208221209 -3.39371249408768,51.5988256879739 -3.39458027387723,51.5987299862794 -3.39570529434617,51.5985988598992 -3.39674112784368,51.5984749853379 -3.39761347313713,51.59839269125 -3.39931845343952,51.5981952056966 -3.40047626127227,51.5980510577667 -3.40110052847748,51.597973493608 -3.40227485388217,51.597847926687 -3.40344012751838,51.5977108606566 -3.40425905327252,51.5976264657118 -3.40448213686945,51.5976031235781 -3.40574352527298,51.5974486165448 -3.40606388059445,51.5974411879317 -3.40641568309213,51.5974729347469 -3.40720151770536,51.5975777814703 -3.40780768022061,51.5976622121164 -3.4086433631801,51.5977465849857 -3.40909269758965,51.597802414311 -3.40964977466284,51.5978892220984 -3.41069620575672,51.5980168965259 -3.41162701202516,51.5981433437118 -3.41233405541718,51.5982211449031 -3.41298772546968,51.5983013810227 -3.41335343248103,51.5983626941294 -3.41367454523314,51.5983795061134 -3.4137771175037,51.5983818678331 -3.41385186583716,51.5983737767699 -3.41388160514219,51.5981198323541 -3.41398515807945,51.5981077987971 -3.41467502076343,51.5980500546671 -3.41466174470427,51.5979943914944 -3.41462121623535,51.5978546466051 -3.41463077433255,51.5978365532949 -3.41573413536127,51.5975202383898 -3.41576456417154,51.5975225684291 -3.41591374201696,51.5976762843317 -3.41593999085831,51.5976858563332 -3.4168973955115,51.5974576756971 -3.41717134992391,51.5974013358324 -3.4172204406042,51.5973989463336 -3.41734791477346,51.5974135887186 -3.4173640851892,51.5974205853156 -3.4174313987739,51.5974988786834 -3.41747857533454,51.5975765157298 -3.41752731924863,51.5976586288375 -3.41762066502523,51.5978274889483 -3.4176830497247,51.5979768560333 -3.41773218113302,51.5982091739629 -3.41775456308251,51.5983699000785 -3.41774507747592,51.5985318208562 -3.41776846620847,51.5987248962457 -3.41778658640921,51.598798389572 -3.41780219234696,51.598879103963 -3.4178282759358,51.5988832842073 -3.41804023394093,51.5989193821983 -3.41852032431665,51.5989909954659 -3.41852214487641,51.5990035584301 -3.41856668775976,51.5992259540878 -3.4191557497957,51.599363670086 -3.41939805045931,51.5994029974418 -3.41932965998024,51.5992483091585 -3.41933633816597,51.5989505960379 -3.41934972766754,51.5988262930968 -3.41946068841629,51.5985857520174 -3.41947918250549,51.5985297961114 -3.4194700484615,51.5984696783724 -3.41941836060029,51.5982932138109 -3.41942662527107,51.5982795410504 -3.41947800578859,51.5982627407522 -3.41948644118853,51.5982545491202 -3.41946890743573,51.5981540813177 -3.41947431070228,51.5981441278928 -3.41959523842173,51.5980401919883 -3.41963368339212,51.5980208509841 -3.41978396924741,51.5979803854202 -3.42015873629322,51.5979119509653 -3.42016834830483,51.5978956542781 -3.42011805871559,51.5977641194875 -3.42012060694579,51.5977542004761 -3.4202316938828,51.5976134380719 -3.42030638905939,51.5974624171341 -3.42040276723367,51.5972660982336 -3.42037817061152,51.5969390975268 -3.42035721236223,51.5965913780751 -3.42033110470414,51.596307543558 -3.42032222048731,51.596117977942 -3.42034432887393,51.5956204283102 -3.42033961918924,51.5953318414586 -3.42035511723773,51.595317271186 -3.42063227689354,51.5953184215526 -3.42134837912401,51.5954545933349 -3.4218136743399,51.5955145952552 -3.42210888032261,51.5955370981592 -3.42261695857368,51.5955795001053 -3.42279791630037,51.5955952911671 -3.4226626687986,51.5957929810528 -3.42263364320145,51.5958355806795 -3.4234857673067,51.5959394423916 -3.42467324265538,51.5960968598839 -3.42469049810238,51.5960966510376 -3.42538801584439,51.5959613694141 -3.42544048301637,51.5959337658872 -3.42546323153347,51.5958732633945 -3.42548665960421,51.5957012850334 -3.42550515472933,51.5955086025579 -3.42554365921953,51.5953543298652 -3.42706930297614,51.5958457122722 -3.42819642870454,51.5961548446703 -3.42892306891545,51.5963070230843 -3.42922479175388,51.5963510029767</coordinates></LinearRing></outerBoundaryIs></Polygon>
  </Placemark>
