  <Placemark>
	<Style><LineStyle><color>ff0000ff</color></LineStyle><PolyStyle><fill>0</fill></PolyStyle></Style>
	<ExtendedData><SchemaData schemaUrl="#Wards__December_2019__Boundaries_EW_BFE">
		<SimpleData name="objectid">6125</SimpleData>
		<SimpleData name="wd19cd">E05011885</SimpleData>
		<SimpleData name="wd19nm">Old Costessey</SimpleData>
		<SimpleData name="wd19nmw"></SimpleData>
		<SimpleData name="bng_e">617274</SimpleData>
		<SimpleData name="bng_n">311360</SimpleData>
		<SimpleData name="long">1.211055</SimpleData>
		<SimpleData name="lat">52.656429</SimpleData>
		<SimpleData name="st_areashape">11052466.1493613</SimpleData>
		<SimpleData name="st_lengthshape">22158.8856349962</SimpleData>
	</SchemaData></ExtendedData>
      <Polygon><outerBoundaryIs><LinearRing><coordinates>1.19199053249528,52.6779558687183 1.19192669069679,52.6779737728469 1.19175703404459,52.6780412807277 1.19139288680423,52.6782021392761 1.19104697720799,52.6784291277751 1.19089292284374,52.6784881217494 1.19074158464773,52.6785425474329 1.19048151841736,52.6785279748996 1.18990464949492,52.6783681904798 1.18902064092703,52.6780952059821 1.1887212967406,52.678006973327 1.18836112581035,52.677917769191 1.18809323957502,52.6778359710555 1.18788982684671,52.6777650233881 1.1876919249962,52.6776893422188 1.18753023782487,52.6776217668119 1.1873633268425,52.677544441693 1.18721566345096,52.677468396207 1.18681479274633,52.6772255507767 1.18646203304236,52.6770335563036 1.18638287841414,52.6769835391606 1.18628628769595,52.6769169080087 1.18602557567945,52.676708949549 1.18589674615318,52.6765865429042 1.18497257677218,52.67557798952 1.18487270288916,52.675486271168 1.18478603488522,52.6753932982737 1.18471414911195,52.6752989394012 1.18465801428215,52.6751997511041 1.18451311792997,52.6748547117428 1.18449567841274,52.6747374008711 1.18449689790268,52.6746518648459 1.18451652049543,52.6744939972011 1.18451559132068,52.6744409762331 1.18450180099885,52.6743738252318 1.18447714683744,52.6742998642065 1.18444834542573,52.6742493904047 1.18441257363737,52.6742053985033 1.18404199672898,52.6738484445714 1.18368479492591,52.6735360836914 1.18352657758997,52.673415273845 1.18343053807837,52.6733342397204 1.18329231643145,52.6732048906841 1.18282909104065,52.6726723138362 1.18248984701981,52.6722191201024 1.18233564004045,52.6720308600395 1.18225297580105,52.6719323835342 1.18208452914894,52.6717713871153 1.1819197122015,52.6716418517859 1.18183267341083,52.6715838613193 1.18160741763558,52.671456848592 1.18123754311364,52.6712733903104 1.18083397323515,52.6710945231511 1.18070356403317,52.6710305037144 1.18054154812896,52.6709377535487 1.18028290966407,52.6707792674988 1.18013243746957,52.6706825204129 1.17997808206276,52.6705742785885 1.17982677056073,52.6704659557454 1.17964296566225,52.6702981762952 1.17954740620338,52.6702252185676 1.17943076009683,52.6701474325845 1.17918960883059,52.6700045676024 1.17888260284539,52.6698500740308 1.17866067133747,52.6697282709434 1.17837910142782,52.6695578091136 1.17793772987193,52.6691837652555 1.1774168804197,52.6687346220223 1.17668353110973,52.6682092689493 1.17637481854714,52.6680107596909 1.17623933317475,52.6679387802412 1.17605869213711,52.6678546158967 1.17577083121246,52.6677400588484 1.17469075775538,52.6673912212678 1.17428917790472,52.6672994890346 1.17428686149944,52.6669209472222 1.17430487760901,52.6665166849986 1.17425424884504,52.6658182846529 1.17421748421438,52.6657401504099 1.17418801964649,52.6657004814167 1.17401359762796,52.6655387355712 1.17386568485158,52.6653556904232 1.17381445208269,52.6652815402653 1.17376479207634,52.6651667993078 1.17369107573271,52.6650482971129 1.17366782023907,52.6649310498494 1.17374228805862,52.6647132742425 1.17419738525736,52.6636659616755 1.17436664272074,52.6632467670898 1.17449228890041,52.6628989591731 1.17457126886309,52.6626207331629 1.17462625655046,52.6624825986746 1.17469183546928,52.6623458880874 1.17482837729085,52.6621282453667 1.17509147750762,52.6617992289698 1.17573943192926,52.6609031792473 1.17621636791153,52.660259050729 1.17642597113298,52.6599476495178 1.17661139738092,52.6597115212176 1.17716465326771,52.6587128093605 1.177382555758,52.6583328530047 1.17753932681615,52.6579860045522 1.17769451117151,52.6577803550068 1.17780115917029,52.657682189686 1.17788427215813,52.6575638872753 1.17791155847835,52.6574912281714 1.17765058969422,52.6572977349108 1.1774819459902,52.657195178753 1.17692949933385,52.656777450354 1.17639864054483,52.656329380232 1.17593849411906,52.6559801990836 1.17447192311713,52.6548035979568 1.1736793968327,52.6541107861451 1.1734599992254,52.6538594374803 1.17317920050749,52.6535548891162 1.17272793830065,52.6531020631157 1.17249890353917,52.652737686063 1.17230613510608,52.6524649433451 1.17209999292645,52.6520899722735 1.17208957234194,52.6520470955211 1.17207769600273,52.6519655967855 1.17207400927603,52.651852410638 1.17209103529819,52.6516396797958 1.17212305057595,52.6507736320412 1.17219675136485,52.6501987596888 1.17220946489987,52.6498440895481 1.17377306880187,52.6496691261637 1.17475424923459,52.6495780900013 1.17548616031324,52.649455878134 1.17690813696508,52.6493053505229 1.17690959800299,52.6493053113243 1.17910227980907,52.6490584639421 1.18075370387424,52.6488109216799 1.18299791956986,52.648461008154 1.18672949884155,52.6478668292984 1.18839327550527,52.6475913078636 1.1884340236756,52.6475485515574 1.18852275836612,52.6474402091109 1.18863596029898,52.6473072668337 1.18870448130738,52.6472161696399 1.18888537323206,52.6469805416303 1.18904674072825,52.6467555929582 1.18920165018231,52.6465402521904 1.18930860457217,52.6463871611746 1.18947311677602,52.6461563262636 1.18972371264477,52.6457969026837 1.18984595088879,52.6456245308574 1.19003293581539,52.6453582575734 1.19021964008452,52.6450883671139 1.19057472473317,52.6445751871813 1.19145815031157,52.643340251136 1.19174786610476,52.6429289811738 1.19200461779664,52.6425730100938 1.19222467592786,52.6422535973415 1.19279901525532,52.6414435166808 1.1929484123565,52.6412348500285 1.19317569912964,52.6409166913064 1.1932468711209,52.6408131813759 1.19354978719453,52.6403870388768 1.19371372126605,52.6401489572152 1.19388435381457,52.6399086980267 1.19420128906097,52.639454232952 1.19439022066768,52.6391828205781 1.1944972936966,52.6390318988766 1.19456731645643,52.6389291386355 1.19478632750518,52.6385959562879 1.1949281215971,52.6383650087546 1.19508111490655,52.6380916604769 1.19524734211843,52.6377707841848 1.195321029348,52.6376200435336 1.19540341795085,52.6374414850651 1.19547893014084,52.6372667455333 1.19558258573016,52.636987470898 1.19567141334957,52.636717302159 1.195757090506,52.6364203820069 1.19581316039329,52.6361917389374 1.19588994506763,52.6358057989516 1.19595166442523,52.6353440733224 1.19595434174864,52.6352910297031 1.19618315500823,52.6353253035516 1.19642329792961,52.6353679766329 1.1969721061464,52.6354605538892 1.19714365742794,52.6354907516402 1.19726285342714,52.6355223544328 1.19742605395159,52.6355687496883 1.19775266583243,52.6356644117225 1.19827438590559,52.635818672452 1.19857461500075,52.6359121502764 1.19880368744217,52.6359785284013 1.19915105547695,52.6360968569139 1.1995360315941,52.6362402848939 1.1998607721419,52.6363751863356 1.20019751126111,52.6365112104959 1.20037691007272,52.636583281371 1.20067053894252,52.6366841902008 1.20101944677489,52.6367908612531 1.20137778053922,52.6368958194557 1.20164612034067,52.6369770936639 1.20191060322847,52.6370381554105 1.20245135596773,52.6371585013607 1.2028323426878,52.637246879073 1.20319935386114,52.6373399955774 1.20364683422716,52.6374570502555 1.20400670803673,52.6375503484828 1.20438939816104,52.6376618962976 1.20474255944336,52.6377611838205 1.20514461810251,52.6378765577475 1.20543937140729,52.6379600133183 1.20565634875643,52.6380238011799 1.20578573021109,52.6380638348453 1.20599942895944,52.6381480361054 1.20610462397379,52.6381878889686 1.20634350396822,52.6383077807936 1.20626760486143,52.638522920417 1.2062218688301,52.6388470217218 1.2061506662092,52.6395090611818 1.2050843218956,52.6394830924561 1.20475998018286,52.6408066991927 1.20457948787268,52.6416129421969 1.20451113596165,52.6420329581997 1.20441437000703,52.6423863147108 1.20433061409981,52.6428392102053 1.20421941404504,52.6432585928371 1.20415725632067,52.6436002234627 1.2040824678434,52.6439125270354 1.20399946901432,52.644394172027 1.2039266239801,52.6445714673785 1.20389047148497,52.644703803805 1.20429105069046,52.6448637914382 1.20460845370552,52.6449982463358 1.20471940788502,52.6450401981114 1.2047965562488,52.6450632844884 1.20487921667852,52.6450817266215 1.20498077109426,52.6450951604313 1.2050432881377,52.6451015603817 1.20552214049447,52.6451200643274 1.20587297292441,52.6451249498104 1.20655367729225,52.6450732486939 1.20678537806512,52.6450660735186 1.2070651489508,52.6450710824598 1.20754935804869,52.645101121123 1.207769911972,52.6451248160418 1.20843542088451,52.6452084705146 1.2091578971385,52.6452410360182 1.20953214423097,52.6452443774989 1.21024056049322,52.645045260106 1.21117195897443,52.6448033174936 1.21136888975234,52.6451298331747 1.21149279497971,52.6453665321216 1.21145034200415,52.6453775748506 1.21140777133288,52.6454720559195 1.21127840283562,52.64574925744 1.21125894998417,52.6459859742478 1.21125788437673,52.6459980545365 1.21124798215623,52.6460009312641 1.21125497042784,52.6460163815307 1.21123717212028,52.6460196523053 1.2112537534362,52.6460580457792 1.21127067122268,52.6460975992886 1.21122992809323,52.6461071493832 1.21114099988846,52.6461279982752 1.21118549496826,52.646186130984 1.21131493692701,52.6461558281081 1.21136690751795,52.6462211327069 1.21143041948787,52.6463008646777 1.21148408080929,52.64636603343 1.21151027600877,52.6464008384603 1.2115932014671,52.646502734507 1.2116051306066,52.6465155954777 1.2116491543348,52.646620498384 1.21167363280358,52.6466484249016 1.21177863533938,52.6467668636683 1.21175898013972,52.6467815077989 1.21174028007721,52.6467857924018 1.21174481398742,52.6467927743254 1.21178295377644,52.6468507194885 1.21178625745041,52.6468558461354 1.21180904607087,52.6468905636486 1.21183100472173,52.646924044574 1.21185856361452,52.6469740026783 1.21187627861353,52.6470060698159 1.21185111564735,52.6470121486126 1.21180991184184,52.6470220801314 1.21180080444967,52.6470243057898 1.2118023119039,52.6470265132871 1.21182893672604,52.647066963553 1.21185406796777,52.6471053948053 1.21175563473449,52.6471281118486 1.21173873798246,52.6471319877855 1.21166789000618,52.6471483893921 1.21149620815891,52.6471878427086 1.21149128558013,52.6471806015117 1.21146611680138,52.6471898281315 1.21138585974757,52.6472174479573 1.21138015445184,52.6472194913641 1.21131735418254,52.6472407918026 1.2113062795701,52.6472444198175 1.21124892709176,52.6472635938646 1.21118138279763,52.6472867406779 1.21112999796426,52.6473042238958 1.21109375438567,52.6473170784363 1.21100841628925,52.6473469942677 1.21092284196909,52.6473769164425 1.21084206318374,52.6474058990753 1.2107320882554,52.6474440374612 1.21070139225018,52.6474543131669 1.21058763439854,52.6474922841985 1.21046088004503,52.647534294911 1.21044790283128,52.647538594993 1.21038385116113,52.647559578109 1.21037921302435,52.6475610529145 1.21033992848412,52.6475739806851 1.21032885370235,52.6475776086108 1.21024757517697,52.6476046257937 1.21023151964398,52.6476100975429 1.21017653428412,52.6476284963803 1.21015976882165,52.6476341672405 1.21006836944895,52.6476645165332 1.2099832590572,52.6476927166549 1.20989738639698,52.6477220166087 1.20986590583843,52.6477332936621 1.20981929815645,52.6477493966719 1.2097643331194,52.6477678757041 1.20971471021251,52.6477846000323 1.2096488029963,52.6478067032803 1.20958478343426,52.6478281347608 1.20953180516885,52.6478454805936 1.20947728803178,52.6478634167267 1.20942265054077,52.6478815269743 1.20936826386782,52.6478996303969 1.2092444289424,52.6479415606346 1.20912152166312,52.6479828360454 1.20911866562043,52.6479838128171 1.20897934648622,52.6480307491984 1.20887260685152,52.6480663698592 1.20880761768405,52.6480879980664 1.20880333359866,52.6480894632128 1.20868780333255,52.6481281099601 1.2086778071139,52.6481315286249 1.20857021028002,52.6481672621736 1.20848732458109,52.6481955807724 1.20845959344519,52.6482049661125 1.20840499615566,52.6482234345316 1.20833363785083,52.6482478432063 1.20829628746849,52.6482605469901 1.20827736878066,52.6482669054759 1.20828311205787,52.6482754646015 1.20829639181674,52.648295160378 1.20831813839654,52.6483273885746 1.20832470424867,52.6483371845059 1.20837783055201,52.648416668887 1.20840483426197,52.6484574783576 1.20842264624627,52.6484842371544 1.2084808980833,52.6485721174809 1.20853622968806,52.6486516229736 1.20857776216945,52.6487143337049 1.20861482810273,52.6487659325141 1.20868835264872,52.6488709272847 1.20878556686042,52.6490080165243 1.20891009664431,52.6491832894734 1.20894955076295,52.6492376024664 1.20901686659878,52.6493194000541 1.2090662449052,52.6493826174523 1.20907367439237,52.6493923899361 1.20908271524679,52.6494043761271 1.20909295435999,52.6494175799435 1.2091990681814,52.6495546075106 1.20956974697441,52.6501073044857 1.20968951735115,52.650285943373 1.20970101451878,52.6503029892597 1.20974933401629,52.6503751297285 1.20975273605449,52.6503799839569 1.20975761266142,52.6503865969214 1.20976395026915,52.6503931702771 1.20976966806087,52.6503997604361 1.20978385587296,52.6504119577886 1.20979098361245,52.6504176103656 1.20979873456476,52.6504236957245 1.20980579643618,52.6504284507437 1.20982129872505,52.6504388137797 1.20984524717895,52.6504526441944 1.20986751523794,52.6504637231545 1.20990032645699,52.6504772233388 1.2099344999906,52.6504893375397 1.20997075830133,52.6505000371748 1.20999562004687,52.6505065579863 1.21003245240604,52.6505150026335 1.21007516563067,52.650522379467 1.21011396657039,52.6505276229562 1.2101542331113,52.6505314776552 1.21019571098045,52.6505335007774 1.2102001268974,52.6505338307225 1.21022971930514,52.6505334780201 1.21026874980335,52.650531970038 1.21030037656127,52.6505293137579 1.21033339850521,52.6505257202786 1.21039121560486,52.6505178570102 1.21041098520231,52.6505146228584 1.21048975549641,52.6504999048472 1.21049482871764,52.6504993175979 1.21052686423094,52.650492153375 1.21055809603629,52.6504841115782 1.21067590960828,52.6504480990943 1.21083876039769,52.6503995422506 1.21087965248489,52.6503885403419 1.21105502004191,52.6503475491638 1.21113083540096,52.6503490004024 1.21122328660085,52.6503528783218 1.21124529984473,52.6503520114488 1.21126699590154,52.6503486349764 1.21128773066413,52.650343845603 1.21159776251568,52.6502722292608 1.21161699106398,52.650270088821 1.21163629204883,52.6502689357054 1.2116557769461,52.6502686769545 1.21167518988085,52.6502690497022 1.21169454402478,52.6502702334625 1.21171379827957,52.6502718696078 1.21173286251435,52.6502741404544 1.21175753349498,52.6502780579147 1.21178158014667,52.6502833413416 1.21233278537048,52.6504047746019 1.21263872924326,52.6504852129825 1.21267505419239,52.65049519949 1.21278678838859,52.6505258844983 1.21295936173035,52.6505731663957 1.21313210133548,52.6506192833569 1.21350379557751,52.6505888742726 1.21376411255317,52.6505675130602 1.21377953936754,52.6505899290561 1.21378932655259,52.650603603466 1.21381073822382,52.6505981657066 1.21396610497232,52.650558882145 1.21403358835043,52.6505431101277 1.21405815258768,52.6505240153982 1.21412874182377,52.6505090583712 1.21413093361089,52.6505123265016 1.21417197468028,52.6505748690313 1.21424471682237,52.6505576140819 1.2142947679105,52.65063492228 1.21444547575203,52.6506002613714 1.21447939715193,52.6506520249051 1.21461635139154,52.6506193560432 1.21475943268868,52.6505853514856 1.21490322489017,52.6505511478612 1.21503228799655,52.6505204928945 1.21507206822361,52.6505110490236 1.21510993396594,52.6505021157819 1.2153179732821,52.6504526784886 1.2153655385173,52.6504413143944 1.21539357922281,52.6504347163128 1.21537335347507,52.6504015484443 1.2153222216909,52.6503180551551 1.21530102781951,52.6502833846772 1.21538578621925,52.6502007980781 1.21555498832531,52.6500359839811 1.21561966964995,52.6500202968841 1.21564172786499,52.6500152012244 1.21570887650596,52.6499998877765 1.21587411111036,52.6499620443235 1.21588946702897,52.6499868903424 1.21613788698119,52.6499280002758 1.21611668670758,52.6498948590211 1.21611721742335,52.6498942330469 1.21616700828332,52.6498828846678 1.2161969645466,52.649877309128 1.21628972704996,52.6500232291848 1.21639617613527,52.6499933667551 1.21641444293453,52.6499881931395 1.21653688784292,52.6499538490842 1.21663625497914,52.6499256177342 1.21697106851458,52.6498378485292 1.21727947410177,52.6497556612288 1.21735576940959,52.6497353407772 1.21739662254996,52.6497718961384 1.21748500223867,52.6497684160798 1.2175742312703,52.6497648229458 1.21777746605717,52.6497199277849 1.21792309471596,52.6496873806918 1.21794720536967,52.6496820489641 1.21826738750298,52.6496093331119 1.21827032202797,52.6496078144021 1.21827525161614,52.6496050723166 1.21841584367907,52.6495687942247 1.21847036135402,52.6495542720973 1.21915186328661,52.6496513816995 1.21938811687058,52.6496062968083 1.21949647697975,52.6495855305882 1.21951482234838,52.6495820154682 1.21954259018352,52.6495764697831 1.21970006852078,52.6495460257473 1.2198225408453,52.6495220165367 1.21987432844063,52.6495017275419 1.22017511374804,52.6494503935195 1.22051235888301,52.649390874283 1.22073284089444,52.649353410394 1.22075618321157,52.649349179112 1.22126443764035,52.649262529652 1.22252953061874,52.6490527010946 1.22264252192083,52.6493023645872 1.22267617891625,52.649376973367 1.22268677925918,52.6494000610737 1.22273980873895,52.649519188008 1.22278751567992,52.6496239836667 1.2228688968641,52.6498052762171 1.2229309282687,52.6499456464979 1.22328654143183,52.6507382377025 1.22329190149477,52.6507497799287 1.22360173291394,52.6514239474394 1.2238110945643,52.6518777812109 1.22389042680444,52.6520510368453 1.22394848426278,52.6521771289424 1.22398097541304,52.6521762445373 1.22399430510604,52.6521767810632 1.22399734686206,52.6521766982661 1.2240108747962,52.6521799265777 1.22405146008633,52.6521896114627 1.224078438682,52.6521933720923 1.22417471217836,52.6522357068693 1.22420057129735,52.6522457916738 1.22422616760839,52.6522522879814 1.22425547317687,52.6522677641575 1.22425256356427,52.6522696411866 1.22414863226258,52.6523435001258 1.22412455592805,52.6523576423331 1.22402136794828,52.6524233875733 1.22393375833368,52.6524788202118 1.22392387798059,52.6524853828786 1.22392122149677,52.6524890508319 1.22392135369917,52.6524908459554 1.22392022295657,52.6524953717399 1.22392055339649,52.652499858651 1.22392558299386,52.6525482737509 1.22389792865114,52.652575099859 1.22397205708172,52.6525965491411 1.22402874420233,52.6526228782071 1.22407363694696,52.6526513261211 1.2241114929891,52.6526835630088 1.2241431785559,52.6527114719477 1.22415192250291,52.6527292157493 1.22417446438465,52.652775355407 1.22418997515323,52.6528055024585 1.22421456762982,52.65283810037 1.22423557840818,52.6528618039665 1.22424167720836,52.6528850150345 1.22427110092838,52.6529832049194 1.22426923910551,52.6529976417808 1.22425975373781,52.6530095880896 1.22423195751733,52.6530328224911 1.22422685406004,52.6530446495125 1.22423109663768,52.6530625158443 1.22423572461329,52.653083968229 1.22424759893622,52.6531061227136 1.22427961539932,52.6531385185145 1.2243666036226,52.6532153607712 1.22445564720363,52.6532803698782 1.22452871156913,52.6533287305846 1.22456961181526,52.6533608835521 1.22457810288904,52.6533768363844 1.22457988752293,52.6534010633493 1.22460533992049,52.6534453258646 1.22463304520348,52.6535003157731 1.2246737416537,52.6535694280965 1.2246973530928,52.653590363624 1.22473931680457,52.653617093213 1.22478373867944,52.6536374621318 1.22482545318125,52.653642620108 1.22486809030786,52.6536387620371 1.2249159065643,52.6536257720232 1.2249633937045,52.6536082950454 1.22501279207386,52.653595261914 1.22505099218989,52.6535924230517 1.22510304017239,52.6535955017377 1.22514322886084,52.6535998017875 1.22520051827245,52.653614425804 1.22523386991423,52.6536252057252 1.22529958987433,52.6536351051199 1.22536529861976,52.6536432060615 1.22540613882474,52.6536546813702 1.22542331538673,52.6536676995378 1.22542722798823,52.6536810798078 1.22542038897242,52.6537289186927 1.22542726558254,52.6537808790795 1.22543688765915,52.6538121756289 1.22545074683209,52.653819890664 1.22548687608195,52.6538269983295 1.2255255377899,52.6538304413726 1.22554615960476,52.6538289804187 1.22556486867142,52.6538230765449 1.22560372543997,52.6538076321651 1.22565479305826,52.6537990483129 1.22571738439006,52.6538045367761 1.22580981997715,52.6538146067613 1.22586519704884,52.6538247866353 1.22591227605108,52.6538414871193 1.22595377638159,52.6538619351739 1.2260049004254,52.6538938091909 1.22605197808073,52.6539105096565 1.22607823689356,52.6539259775377 1.22610057817562,52.6539478467461 1.22611131196069,52.6539727292975 1.22611581996616,52.6539941848799 1.22611428788206,52.6540131077972 1.22611627187774,52.6540400273952 1.22612450060547,52.6540523907199 1.22615798357556,52.6540649646287 1.22622356088508,52.6540712708547 1.22625592108832,52.654068590677 1.22629790694493,52.6540575576415 1.22637522868024,52.6540428639627 1.22641037598198,52.6540383099989 1.22646905477971,52.6540304178257 1.22649518615555,52.6540243107152 1.22651906425487,52.6540074771442 1.22656728325392,52.6539800893104 1.22660812862931,52.6539717835171 1.22664539701753,52.6539761635131 1.22668199934592,52.6539913494796 1.22670997301312,52.6540085701264 1.22674346287107,52.6540427220549 1.22680107885161,52.6541014824465 1.22685047367513,52.6541495881157 1.22688468456792,52.6541720322634 1.22692885324187,52.6541906094591 1.22697897487313,52.6542072257272 1.22704064191712,52.6542415101395 1.22712544767333,52.6542886499978 1.22722444548992,52.6543479905624 1.22731535340943,52.6543968526779 1.2273761608764,52.6544194713417 1.22745255663609,52.654433573656 1.22759783996839,52.6544574868313 1.22765460198504,52.6544649309489 1.22770042370613,52.6544645816228 1.22773504184034,52.6544528485959 1.22779585911052,52.6544359065755 1.22786037844326,52.6544278545473 1.2279294783059,52.6544223748344 1.22810488068153,52.6544148972563 1.22819028661339,52.654408972974 1.22829579648206,52.654396207843 1.22840289824898,52.6543851961508 1.22850070792795,52.6543672454525 1.2285708040038,52.6543554444784 1.22860634845535,52.654356274305 1.22867013726764,52.6543581311238 1.2287409613511,52.6543562004803 1.22898579382886,52.6543477282689 1.22926602826263,52.6543364916175 1.22945748264198,52.6543267765555 1.22962080499722,52.6543142308292 1.22972723606358,52.6542941562689 1.22983924056336,52.6542686242952 1.22997042000994,52.6542236881115 1.23007135251655,52.6541885675746 1.23013925975033,52.6541669350799 1.23019290522205,52.6541519861294 1.23020430794598,52.6541660604381 1.23020590158369,52.6541678156988 1.23040057676451,52.6544413182501 1.23059140642044,52.654702337911 1.23072765903126,52.6548847362361 1.2307021349742,52.6549403663482 1.23069708795494,52.6549512936534 1.23090703324446,52.6548897327349 1.23144426021285,52.6547357154148 1.23215541382981,52.6545328060138 1.23288970885894,52.6543230562577 1.23292458043485,52.6543131136026 1.23296231657164,52.6543039912172 1.23365143857265,52.6541034720772 1.23449977218387,52.6538563431779 1.23561612792874,52.6535336453753 1.23517745009669,52.6530194714814 1.23508515175075,52.6529123015517 1.23545197951593,52.6529130712011 1.23574659297696,52.6529167126656 1.23600275451279,52.6528818427059 1.23617548785546,52.6528581525112 1.23631605797333,52.6528381279462 1.23634238615309,52.6528347114234 1.23641850746874,52.652823639788 1.23664687858754,52.6527922249142 1.23669807519584,52.6527854316019 1.23675357559104,52.6527758234753 1.23687943194377,52.6527382184329 1.2374635962925,52.6524776072937 1.23748939316895,52.6524670119282 1.23770164476483,52.6523775931524 1.23785806335628,52.652313077334 1.23818787529043,52.6521745010414 1.23823819757452,52.652154244104 1.23799050683049,52.6518453387708 1.23805885810289,52.6518084050215 1.23820036385244,52.6517433979249 1.23825148138137,52.6517141283013 1.23828343964395,52.651686280908 1.23830664770569,52.6516604714527 1.23834662529705,52.6516404972731 1.23841790782926,52.6516250624942 1.23848806403607,52.6516141525846 1.23860668186555,52.6515974235171 1.2387154984299,52.6515899523553 1.23880262185543,52.6515875701688 1.23885388449491,52.6515816734634 1.23888418170308,52.6515709547295 1.23892005605308,52.6515564869321 1.23893827888216,52.651542411855 1.23896970541095,52.651507386601 1.23902102037583,52.6514412481291 1.2391114592129,52.6513452682336 1.23912551928361,52.6513358919143 1.23915455593248,52.6513279056701 1.23932230965592,52.6512963444358 1.23938537240355,52.6512901247918 1.2394305940657,52.6512816949502 1.23945240793851,52.6512766024551 1.2394806475451,52.6512578482633 1.23955106707484,52.6512307473648 1.23967830268015,52.6511723325462 1.24008666690859,52.6510146079505 1.24019275828842,52.6509703468375 1.24028856354747,52.6509452491536 1.24036203395471,52.6509198621306 1.2405350079979,52.6508583963941 1.24077742202218,52.6507780379669 1.24092176071548,52.6507102519347 1.24100961160275,52.6506781772852 1.24112782481999,52.6506362817291 1.24127024005985,52.6505820347541 1.24151151465753,52.6504863304441 1.24174144601342,52.6503955219761 1.24207329255364,52.6502650605795 1.24219852725111,52.650217576526 1.24231415158953,52.6501621729974 1.24242110220777,52.6501295754004 1.24254686792952,52.6500892686373 1.24267178280239,52.6500588762248 1.24280121196208,52.6500301579164 1.24287772047758,52.650004686157 1.24299109593647,52.6499584252856 1.24322877656295,52.6498538249826 1.24333962632709,52.6497932476076 1.24341016160053,52.649766141225 1.24346572271996,52.6497574267053 1.24352586332404,52.6497512839478 1.243623537556,52.6497531051694 1.24369872222618,52.6497492484421 1.24375686972775,52.6497359670394 1.24379420023505,52.6497214587696 1.24388051538607,52.6496687449771 1.24399606569253,52.6496107345283 1.24414285467635,52.6495563642974 1.24426656289504,52.6495097292313 1.24440121564158,52.6494511951605 1.24457749939439,52.6493753374157 1.2447736800202,52.6492899425062 1.24517297615241,52.6490910004612 1.24541316252377,52.6489792247043 1.24580204609011,52.6487994470034 1.24613267139784,52.6486528223954 1.24652625104179,52.6484756107252 1.24694734815729,52.6482716598388 1.24715498871764,52.6481814507746 1.24735107496378,52.6480932678029 1.24746410764563,52.6480425159854 1.24757919343063,52.6479800196225 1.24771230551027,52.6479008448092 1.24782185605259,52.647801546881 1.24804723199027,52.6476119485492 1.24850807288233,52.647743163614 1.24814516795173,52.6480346308868 1.24800231950177,52.6481419453885 1.24776131365832,52.6483608327622 1.24768727848935,52.6484392871572 1.24753067376123,52.6486405750925 1.24748951951608,52.6487037415953 1.24734340215269,52.6489658814059 1.24719077823349,52.6491814459289 1.24710070678944,52.6492837158216 1.24697701454849,52.6494093850922 1.24676702628314,52.6495896583751 1.24670286323522,52.6496615468408 1.24666806482011,52.6497101534791 1.24662195837382,52.6498265925115 1.24657046193156,52.6501283960846 1.24655718305994,52.6503076822205 1.24656027555837,52.6504101852116 1.24657262745605,52.6504961613983 1.24659812096856,52.6505817765005 1.24663932473852,52.6506786500337 1.24671415806895,52.6508097570439 1.24688418139128,52.6510488442576 1.24737429397689,52.6515758621426 1.24762720575738,52.6518342552333 1.24770308082356,52.6518807262151 1.2478184324886,52.6519810506542 1.2478479447344,52.6520189033529 1.24787999815045,52.6520926501776 1.24788126885305,52.6521294794108 1.24787193450123,52.6521827826066 1.2478506632448,52.6522346143754 1.24780056293633,52.6522972177615 1.24763165255217,52.6526319114605 1.24732664847906,52.6531061013765 1.24723955568473,52.6532272609019 1.24716093440477,52.6533229231675 1.24710034907065,52.6533839249915 1.24703212810909,52.6534406410675 1.24695191525116,52.6534967855556 1.24685413141159,52.6535544018227 1.24670295636745,52.6536286762091 1.24613962683611,52.6540101415146 1.24599012038924,52.6541464073959 1.24586768747235,52.6542712314657 1.24557746143439,52.654604751169 1.24539401969327,52.6547833051304 1.24518472499567,52.6549536651604 1.24479613134336,52.6552368295939 1.24457294541831,52.655358029337 1.24427693460516,52.6556746206754 1.24418126395944,52.6557608574785 1.24410157117769,52.65582247092 1.24405065249358,52.6558544347978 1.24391352321065,52.6559193298712 1.24358727584681,52.6560271650616 1.24344630519033,52.656081375099 1.24320209769072,52.6561987417801 1.2430184962858,52.6563161565956 1.24281294569472,52.6564747225045 1.24274233521169,52.6565207117365 1.2426098483175,52.6565890738235 1.24227914796317,52.656715909352 1.2421680094055,52.6567531172307 1.24187783209546,52.6568294809114 1.24167371521723,52.6568692329044 1.24116003714652,52.6569426300821 1.24097965832816,52.6569241891869 1.2406946198562,52.6569283910255 1.24025402529708,52.6570105735727 1.23959592092835,52.6571905030139 1.23899830015254,52.6573902633996 1.23847275925054,52.657583644166 1.23812207786449,52.6577011229353 1.23759088720853,52.657936912489 1.23736183402157,52.6580204952938 1.23724172651014,52.6580552463933 1.23707023863882,52.6580976951863 1.23677007769024,52.6581580459107 1.23668201022885,52.6581874250419 1.23651939920721,52.6582477022621 1.23637615557491,52.6583109567319 1.2363059993099,52.6583434436725 1.23625552430296,52.6583798869931 1.23617415945102,52.6584207716325 1.2361076320183,52.65843967248 1.23600563457701,52.6584604407222 1.23591623746158,52.6584718737488 1.23577611435156,52.6584783986091 1.23539928775086,52.658522857232 1.2352616138739,52.6585608740959 1.23514183461786,52.658600109076 1.2345700344655,52.6588494914373 1.2343212674471,52.6589849458111 1.23424214430658,52.6590347588424 1.23415109142334,52.6591046772034 1.23403270880021,52.6592041131265 1.23392851457412,52.6593140411678 1.23382305946621,52.6594481900835 1.23372948389234,52.6595830021062 1.23363451472044,52.659740240814 1.23345802259218,52.6600733220949 1.2334190909314,52.6602066431702 1.23335787007715,52.6606804334704 1.23338035040089,52.6608047961243 1.23346238427813,52.6610534969761 1.23346715785949,52.6611775326059 1.23334180425989,52.661564062618 1.23324794659883,52.6617941881679 1.2332000441592,52.6623674160487 1.23322153880642,52.66247840782 1.23328361203734,52.6626781131099 1.23332294730121,52.6627499570484 1.23334224276335,52.662770109417 1.23338456241005,52.6628031210724 1.23343231709973,52.6628287903663 1.23345977888778,52.6628406282547 1.2337309211977,52.6629069539658 1.23379359043095,52.6629331153427 1.23384758476013,52.6629640085125 1.23387438245228,52.6629866540803 1.23388785360642,52.6630088540199 1.2338986591255,52.6630544130074 1.23390992593806,52.6632662945925 1.23392472545001,52.663387359297 1.23395569689765,52.6635060947515 1.23400709862473,52.6636603260726 1.23405910487977,52.6637847809824 1.2341091119839,52.6638805189619 1.23418413139272,52.6639945451913 1.23425583785133,52.6640851956742 1.23430199942424,52.6641288908645 1.23435194576264,52.6641643902441 1.23441051109803,52.6641960577278 1.23483853658168,52.664383162706 1.23492489901108,52.6644311542639 1.23498127474231,52.6644727715465 1.23503042395031,52.6645172842346 1.23507261995063,52.6645683695592 1.23514265803909,52.6646743497382 1.23522883055294,52.6648599990137 1.23524183835077,52.6649567469812 1.23523188785382,52.6650019742381 1.2352186845956,52.6650230138496 1.23515228962765,52.6650652866741 1.23502466750154,52.6650993421054 1.23492424349392,52.6651416447093 1.23481859052299,52.6652138507952 1.23475690586261,52.6652802703443 1.23473348819163,52.6653231681015 1.23470835118053,52.6654236548709 1.23473661555617,52.6658654221666 1.23476010372104,52.6659439021553 1.23482450848821,52.6660743119136 1.23485555209983,52.6661131143807 1.2349226174158,52.6661805140985 1.23495956650589,52.666200185038 1.23501117571795,52.6662185553668 1.23506071773991,52.6662270927427 1.23525082904527,52.6662380849594 1.23527796342315,52.6662454363725 1.23539198432857,52.6662863785131 1.23542620953349,52.6663088199884 1.23544744393247,52.6663370115277 1.23545141362374,52.6663692711418 1.23544134859001,52.6664145905732 1.2354033980587,52.6665001427885 1.23534144719542,52.6665629742473 1.23512879858649,52.6667486926807 1.23499612850957,52.6669141540305 1.2347743906391,52.6672376828149 1.23445699413959,52.6677473306063 1.23441539912032,52.6678446701052 1.2343744044347,52.6679105245262 1.23432949156909,52.6679629999749 1.23423650065753,52.6680465478796 1.23418840299529,52.668075733109 1.23411708805989,52.6681109474246 1.23405082081575,52.668135234254 1.23400717393905,52.6681454167031 1.23395410998999,52.668148663115 1.23386203763862,52.6681439843378 1.23376671331695,52.6681348974503 1.23357341831269,52.6681024112898 1.23328147837345,52.66807531436 1.23316193941598,52.6680785768773 1.23309002860646,52.6680859347147 1.23295285745151,52.6681130544295 1.23243225065054,52.6682747137472 1.23231005888509,52.6683230032555 1.2315468539733,52.6686253336536 1.23145869161907,52.668673593639 1.23138990149182,52.6687232128573 1.23132197737764,52.6687862043927 1.23128302679771,52.6688385161372 1.2312623269232,52.6688786410094 1.23124567137512,52.6689537216394 1.23125628840001,52.6690380376078 1.23132698581635,52.6691529917837 1.23135013379236,52.6692467662393 1.23134475906431,52.6692945655048 1.23132798000838,52.66934816018 1.23130634840172,52.6693955035628 1.2312729097682,52.6694431699271 1.23124955525725,52.6694671832075 1.23121990465586,52.6694868732264 1.23107402569161,52.6695546891692 1.23096662746166,52.6696034725907 1.2308521927392,52.6696362647371 1.23076714369975,52.6696457766582 1.23067985093108,52.6696463597023 1.23060382379893,52.6696376436191 1.23053159404609,52.6696225310939 1.23008085297334,52.6694882696977 1.22953366702876,52.6692702318723 1.22944915619743,52.6692473610806 1.22935921040176,52.6692318305906 1.22929851056973,52.6692307882529 1.22924604172174,52.6692421089435 1.22917585103019,52.6692727939143 1.2290813855862,52.6693365085823 1.22893363042468,52.6695591080137 1.22889833011608,52.6696014291704 1.22875583181652,52.6697564528041 1.22857106079948,52.6699188322484 1.22848282280891,52.6699859723241 1.22812688915887,52.6702340250432 1.22781097221693,52.6704243427019 1.22760464990526,52.670536059593 1.22713806443573,52.6707691415264 1.22709778794802,52.6707837256179 1.22651723776407,52.670956883551 1.22616450845844,52.6710087491442 1.22575232345129,52.6711360486785 1.22531147695484,52.6712982030184 1.22523622494556,52.6713595926575 1.22514546007323,52.6714736421389 1.22495700160521,52.6717467958811 1.22482396026272,52.6719095587286 1.22474253627153,52.6719881994038 1.22464335677988,52.6720692111298 1.22454050962593,52.6721385445943 1.2243375449724,52.6722546592477 1.22418242846466,52.672318222076 1.22405040542137,52.6723541834551 1.22332588032449,52.6724809842116 1.22317321721752,52.672516606887 1.22297484753362,52.6725759497707 1.22281248806467,52.672640607207 1.22272723051565,52.6726887815259 1.22263692978021,52.6727479716363 1.22232061408937,52.672993039926 1.22227953635098,52.6730382133679 1.22223760748082,52.6730718118093 1.22219647286765,52.6730963077989 1.2221161217097,52.6731299620496 1.22205064074571,52.6731452290789 1.22194827064195,52.6731615003497 1.22183210332387,52.6731709537229 1.22169291804446,52.6731693449424 1.22144865483333,52.6731472166429 1.22112154301165,52.6730850825566 1.22088079496457,52.6730295011707 1.22062128833459,52.672961032464 1.22011044935729,52.6728157796126 1.21980445212202,52.6726990326364 1.21969014744531,52.6726724688137 1.21961691808594,52.6726636705022 1.21955614756401,52.6726617256949 1.21933588493525,52.6726838960872 1.21930955430359,52.6726891066851 1.21863116417028,52.6728181313004 1.21848249033286,52.6728284646365 1.21833236417275,52.6728190567458 1.21827531582857,52.6728080192608 1.21822072757519,52.6727906211993 1.21817024833472,52.6727677171262 1.21812820396053,52.6727400879839 1.21808880681882,52.6727069925554 1.218056440825,52.6726683117462 1.21803556378118,52.6726266207361 1.21801934171432,52.6725470409859 1.21801114252862,52.6724554661765 1.21802125119484,52.6723706761137 1.21804809880725,52.6722746416983 1.21812843832822,52.6720583829154 1.2181568424128,52.6720216476805 1.21823337443988,52.6719161709576 1.2183085535873,52.6718520007197 1.21838945124202,52.6717859671788 1.21871319146843,52.6715603973855 1.21892112684976,52.6712895116939 1.21904425670148,52.6710729887716 1.21919652357246,52.6708313974597 1.21924611665202,52.6707212586894 1.21925388898629,52.6706859823444 1.2192588969151,52.6705517904624 1.21911721111765,52.6697318837534 1.21894886970056,52.6692741402091 1.21889053224047,52.6691858156658 1.21815053934667,52.6692212068543 1.217980940514,52.6689667828004 1.21784495015921,52.668807739903 1.21781272107009,52.6687509826895 1.21778806807392,52.6686977070341 1.21777926572891,52.6686592844994 1.21776651993026,52.66850588439 1.21775062352013,52.6684307016929 1.21773444151285,52.6684113607689 1.21771123057708,52.6683976060366 1.21756749857635,52.6683538578252 1.21753075520552,52.6683368741066 1.21749952557971,52.6683152447117 1.21737785309701,52.6681899781312 1.21730630878682,52.6680812417478 1.21728285297097,52.6680243360363 1.21722119472428,52.6677696771704 1.21709441689357,52.6676346587174 1.21700484781007,52.6675030355547 1.21697893272804,52.66745249029 1.21689776803496,52.6671929657663 1.21685042437025,52.6669919541585 1.21681132857212,52.6668616564018 1.21668094910418,52.6664569150038 1.21661607046993,52.666319316643 1.2165654894051,52.66623518542 1.216521134415,52.6661743520866 1.21642041789957,52.6660718916447 1.21614484183145,52.6658455184652 1.21608257307279,52.6658031531468 1.21587831727839,52.6657008062474 1.21572296477499,52.6655601785059 1.21566839591696,52.6655014199671 1.21555051841954,52.6653462887456 1.21542166498726,52.6651429933932 1.21532090154126,52.6649999839046 1.21524656003399,52.6648131904187 1.21522915312617,52.6647173694319 1.21520105506149,52.6646569927932 1.21515836289896,52.6645988110032 1.2150887481879,52.664537763423 1.21504187052928,52.6645039707009 1.21490446208651,52.6644248935528 1.21440010704358,52.6641850384223 1.21415475918573,52.6640459546492 1.21402872148663,52.6639621622592 1.21394583530728,52.6638996770815 1.21385891336052,52.6638237246673 1.21375032831487,52.6637151828087 1.21363499050685,52.6635744571075 1.2135490250061,52.6634517253629 1.21342112976913,52.6632213396505 1.21328361153259,52.6629993973266 1.21322849773897,52.6628533504689 1.21318125165161,52.6627746130365 1.21314710975393,52.6627314835428 1.21304270240348,52.662639911052 1.21297307991068,52.6625985528127 1.21289516281544,52.6625638041492 1.21274476100879,52.6625301228266 1.21254241412461,52.6625131352616 1.21245659870798,52.6625136656946 1.21230517492697,52.6625258653347 1.21219652597689,52.6625575842222 1.2121278093189,52.662568439255 1.21205398703973,52.6625695434046 1.21125109244983,52.6624321794924 1.21113796624681,52.6624028804702 1.21101655009607,52.6623603184826 1.21090031201743,52.6623085360415 1.21077997455985,52.6622407697441 1.21066952165782,52.6621664424992 1.21060051306146,52.6621134681514 1.21054184038757,52.6620584156967 1.21028785109414,52.6617828949209 1.21015921740026,52.66160197724 1.21012401301889,52.6615642700912 1.21005249330888,52.6614969783033 1.20997545380074,52.6614342420703 1.20981721378011,52.6613351354102 1.20966159443971,52.6612701232024 1.20957990254559,52.6612453640996 1.2094340773903,52.6612124539887 1.20886275626212,52.6610462306165 1.20847009562788,52.6609948336997 1.20810361091477,52.6608995688369 1.2078952679647,52.6608206083716 1.20751054075433,52.6606161468071 1.20713670354447,52.6607233758943 1.20692635915916,52.6607785233648 1.20681915659244,52.6608299776975 1.20660584998329,52.660866324619 1.20650412446303,52.660749499253 1.20648079082842,52.6607339472282 1.2064546017452,52.6607193718823 1.20625495323377,52.6606591441661 1.20611048378406,52.6605847446929 1.20601661413407,52.6605135598974 1.20592066776179,52.6603956782306 1.20584887826275,52.6603445752624 1.20580348372778,52.6602908698607 1.20580118890603,52.6602378852691 1.20583583169171,52.6602063772903 1.20584208247942,52.6601918228452 1.20583618853551,52.66017130353 1.20580729155893,52.6601397180968 1.20576679644823,52.6601129425575 1.20565905204007,52.6600754003431 1.20560493684085,52.6600624793453 1.20554671391895,52.6600550647691 1.20525101444069,52.6600369957584 1.20509756188853,52.6600213701701 1.20465064632927,52.6601998001451 1.20448466289718,52.6602762202051 1.20429057110119,52.6603318224624 1.20417091027056,52.6603747105864 1.20408778136951,52.6604102272906 1.203800636448,52.6605690457754 1.2034971221688,52.6607274969829 1.20330029785492,52.6608874670012 1.20309620842948,52.6610081623028 1.20300312000172,52.6610709201838 1.2028359505269,52.6612112052072 1.20279068183855,52.6612591835641 1.20274222890961,52.6613253187694 1.20268963370116,52.661414852989 1.20250219220429,52.6618048259711 1.2023617970872,52.6621494713205 1.20230818361956,52.6622867751095 1.20230039883931,52.6623220505839 1.2022982423413,52.6624542753625 1.20237864116553,52.662886455093 1.20240770984613,52.6630404037846 1.20243197968925,52.6631287583222 1.20250266443277,52.6633481139199 1.20260024981948,52.6634884315105 1.20261638076878,52.6635672049799 1.20260918551713,52.6636105569177 1.2025912524371,52.6636488040477 1.20256018237931,52.6636892042905 1.20251856997905,52.6637271924868 1.2024705237812,52.6637572631792 1.20235448857442,52.6638098523531 1.20220276916477,52.6638581002346 1.20215546045336,52.6638782606476 1.20210284574077,52.6639075562724 1.20205652302593,52.6639411757991 1.20202062009616,52.6639772116025 1.20199405329591,52.6640174908055 1.20197784200589,52.6640592868869 1.20197482324698,52.6640980299612 1.20198329046559,52.6641337652779 1.20200051329979,52.6641674651226 1.20204577616881,52.6642193776997 1.20217168006554,52.6644650230939 1.20227000734893,52.6647771371582 1.20236941935204,52.6651657361907 1.20237764176576,52.6652581203414 1.20238791831296,52.6655402486778 1.20242704731368,52.6660950130149 1.20241631837406,52.666251745844 1.20242000211704,52.6663821047505 1.20243254254971,52.6664734736595 1.20244999529778,52.6665503236477 1.20251585205326,52.6667419388326 1.20261829963154,52.6669702356327 1.20272574850776,52.6671652205502 1.20288045904296,52.6673993867055 1.20299491655486,52.6675284568648 1.20344209564373,52.667837427391 1.20351614287261,52.6678992602443 1.20357228277042,52.6679580709278 1.20360362988526,52.668003076344 1.20364614520018,52.6680990282736 1.20375633209883,52.6685529674459 1.20377694115732,52.6686728879424 1.2037901241452,52.6687930102411 1.20378770137319,52.6690215353926 1.20377200822781,52.6691704006357 1.20373657702856,52.6693745541715 1.20367542508213,52.6698322291894 1.20365496215156,52.6698759399349 1.20362534970442,52.6699163007801 1.20356826343118,52.6699645978324 1.20349361600437,52.6699962876132 1.20313382741251,52.670073451095 1.20290811084603,52.6701425824539 1.2028505794319,52.6701648180807 1.20279649508607,52.6701941525626 1.20274611169056,52.6702323777394 1.20269645926391,52.6702822719865 1.20265868101453,52.6703327435447 1.20262218984777,52.6704191444194 1.20260353034996,52.6705492076945 1.20264617797013,52.6709086814433 1.20264996350552,52.6710020845674 1.2026523493094,52.6710947161276 1.20261352099151,52.6712108506527 1.20257203158329,52.6713306527218 1.20205448504665,52.6722844688943 1.20195765693965,52.6725182431385 1.20186032872679,52.6728068758485 1.20179781201348,52.6729227510253 1.20175066354414,52.6729852533769 1.20170246686778,52.6730351077046 1.20158616407113,52.6731227662873 1.20110659792535,52.673383968373 1.20062543382199,52.6736217447934 1.20048552426935,52.6737119287428 1.20042437446302,52.6737648296473 1.20030690794191,52.6738983715763 1.20022069817346,52.6740356545925 1.20007784183838,52.6743875525501 1.20001194628484,52.6744990228914 1.19996194015711,52.6745642088061 1.1998906906813,52.6746408480421 1.19981414197543,52.674706751871 1.19964455184911,52.674816527486 1.19862823503506,52.6753035927564 1.19800168670934,52.6756190987534 1.19792740865514,52.6756543710369 1.19774848905818,52.6757167426706 1.19766913522796,52.6757242802225 1.19760499116429,52.6757179196277 1.19753116259625,52.6756992341118 1.19747040963616,52.6756774975295 1.19736749201839,52.6756263304227 1.19716850026928,52.6754940518966 1.19710304596027,52.6754697457995 1.19707630789507,52.6754677694962 1.19704253558001,52.6754713791267 1.19697756675671,52.6754938114005 1.19689738784816,52.6755301407497 1.19683200550433,52.6755669700226 1.19677204723699,52.6756162400925 1.19670012340026,52.6757054824864 1.19657264675599,52.6759661517041 1.19654564200974,52.6760424038803 1.19653482196418,52.6761164214704 1.19653630102059,52.6763187655849 1.19657601412638,52.676720575038 1.19656800411818,52.6767729379116 1.19654725722527,52.6768346361716 1.19651834317588,52.6768830682659 1.19648706623556,52.6769208646172 1.19642717978803,52.6769728296744 1.19633171105561,52.6770437364167 1.19623843522014,52.6771028960211 1.1961771052651,52.6771351197143 1.19610661782155,52.6771621962111 1.19601244329085,52.6771890133726 1.19585870202775,52.6772120425211 1.19540464421038,52.6773358691812 1.19483406613213,52.6774645457814 1.19463118697231,52.6775230638845 1.19454198302684,52.6775578371895 1.19436229588549,52.6776499844323 1.19408828759481,52.6778488792373 1.19379632992135,52.6780258699977 1.19374900031105,52.6780460270124 1.19367487558649,52.6780651087004 1.19357420765661,52.6780849051079 1.19347586311536,52.6780947496029 1.19337674277799,52.6780956241924 1.19327715430964,52.6780884190246 1.19311668911769,52.6780594791829 1.19280580545881,52.6780372900896 1.19247931517141,52.677963375092 1.19214353969254,52.6779444623715 1.1920608655589,52.6779466904207 1.19199053249528,52.6779558687183</coordinates></LinearRing></outerBoundaryIs></Polygon>
  </Placemark>
