  <Placemark>
	<Style><LineStyle><color>ff0000ff</color></LineStyle><PolyStyle><fill>0</fill></PolyStyle></Style>
	<ExtendedData><SchemaData schemaUrl="#Wards__December_2019__Boundaries_EW_BFE">
		<SimpleData name="objectid">3211</SimpleData>
		<SimpleData name="wd19cd">E05008638</SimpleData>
		<SimpleData name="wd19nm">Macclesfield Tytherington</SimpleData>
		<SimpleData name="wd19nmw"></SimpleData>
		<SimpleData name="bng_e">391353</SimpleData>
		<SimpleData name="bng_n">375239</SimpleData>
		<SimpleData name="long">-2.13112</SimpleData>
		<SimpleData name="lat">53.274078</SimpleData>
		<SimpleData name="st_areashape">3624386.7132994</SimpleData>
		<SimpleData name="st_lengthshape">8811.17295870329</SimpleData>
	</SchemaData></ExtendedData>
      <Polygon><outerBoundaryIs><LinearRing><coordinates>-2.12869945069377,53.2856021038749 -2.12901312633417,53.2856574804126 -2.12939577648388,53.285701099854 -2.13011578465168,53.2856985229212 -2.13124384606533,53.2857548037599 -2.1313233923183,53.2857628037276 -2.13199104962811,53.2858268605598 -2.13212620006747,53.2858590611013 -2.13265685412429,53.2857730157874 -2.13327745830248,53.2856608986653 -2.13325792544999,53.2856240773529 -2.13433135083285,53.2854547463161 -2.1345324094856,53.2854841753536 -2.13472732992279,53.2854498088773 -2.13476494188897,53.2854938886855 -2.13554461992949,53.2853949628996 -2.13565693333639,53.285362484297 -2.13598198630297,53.2852228269822 -2.13605133171759,53.2853278861981 -2.13646634785564,53.2851673668886 -2.1365575917431,53.2850827922479 -2.13678532248676,53.2850232218375 -2.13690057700434,53.2849449096309 -2.13709528050665,53.2848448482609 -2.13726178513546,53.2848591243953 -2.13743409355881,53.2847941345192 -2.13758657450298,53.2846411937041 -2.13771651583671,53.2844783040152 -2.13776292947809,53.284452190105 -2.13807596225978,53.2843089474609 -2.13819163364437,53.2843600335764 -2.1382664762541,53.2843293938602 -2.13855855278562,53.2842076511245 -2.13881751504393,53.2840572803889 -2.13886983374135,53.2839844312412 -2.13897611288611,53.2839240996483 -2.13918607445767,53.2839166648867 -2.13935094718445,53.283886728079 -2.1395906814937,53.2837947879158 -2.13958596011318,53.2837507612613 -2.13971499402617,53.2837658860791 -2.13993522663645,53.283685649903 -2.14012571147983,53.2836602652529 -2.14025739758876,53.2835800428892 -2.14035929669962,53.2835421807756 -2.14072792090069,53.2834608699292 -2.14079389429277,53.2834419209014 -2.14085092216664,53.2834472448176 -2.14104702149597,53.2833256995952 -2.14123874572682,53.2832642758918 -2.14142020327779,53.2832397978898 -2.14188387136695,53.2833282988145 -2.14206101358209,53.2833811055811 -2.14264214964171,53.2835745108011 -2.142825320254,53.2836175141586 -2.14311791096791,53.2836531074231 -2.14308157793982,53.2835506185587 -2.14308738382816,53.2835119717397 -2.14309925981884,53.2834769113096 -2.14317863396859,53.2834345804584 -2.14326407368686,53.2834308829819 -2.14369632793884,53.2835166290084 -2.14381214301871,53.2836082378231 -2.1440011018031,53.2835710754223 -2.14425436748176,53.2835339255331 -2.14460330139112,53.2833744472832 -2.14460028405397,53.2833600725927 -2.1445639998999,53.2832728613803 -2.14445142774688,53.2828271952716 -2.14444394670154,53.2828092323035 -2.14383102696955,53.2803209894527 -2.14380380331885,53.2802428428799 -2.14377787746323,53.2801458237942 -2.14371870819552,53.279945414231 -2.14367934519655,53.2798241489568 -2.14363998821212,53.2797045906167 -2.14360216220247,53.2795985997983 -2.14354463311318,53.2794440171727 -2.14349773356011,53.2793245577487 -2.1434704262153,53.2792571940525 -2.14340245930902,53.2790873484632 -2.1433600679458,53.2789840578616 -2.14328457206281,53.2788178149447 -2.14323921942982,53.2787163264965 -2.14316672884621,53.2785608627539 -2.14310025232922,53.278428846031 -2.1430337792599,53.278297728132 -2.14297791162729,53.2781943645538 -2.14293109540315,53.2780982691589 -2.14286781425228,53.2779968011506 -2.14283310472327,53.2779338497286 -2.14275922044264,53.2778045373795 -2.1426928129877,53.277692290122 -2.14246668803462,53.2773330248278 -2.14234912423295,53.2771569465743 -2.14220448765302,53.2769449554411 -2.14200400977526,53.2766728241026 -2.1418549575893,53.2764708125502 -2.141678743777,53.2762435828136 -2.14148298295574,53.2760118825206 -2.1413053441916,53.2758009180846 -2.14123609707367,53.2757245275483 -2.1410072620677,53.2754731856253 -2.1409350438479,53.2753959004353 -2.14075452792987,53.2752101000131 -2.14065974242043,53.275113071725 -2.14056943670004,53.2750242151145 -2.14047913433366,53.2749362582013 -2.14037531701507,53.2748366335992 -2.14027461726254,53.2747450042977 -2.14024150176273,53.2747135917376 -2.1401226947076,53.2746049985257 -2.13998876683228,53.2744846522257 -2.13988052923649,53.274394018401 -2.13984903664399,53.2743670972868 -2.13977526713137,53.2743051796304 -2.13956771146537,53.2741283055176 -2.13941893568699,53.2740035723804 -2.13908069540417,53.2737504685529 -2.13882961166711,53.2735692403517 -2.13840279094127,53.2732587269914 -2.13823894789366,53.273137513665 -2.13857283727097,53.2729708822125 -2.13859972164638,53.2729501831829 -2.13867179292753,53.2729851454789 -2.13872590094402,53.2730093448709 -2.13878888650657,53.273026344721 -2.13886845486863,53.2730478195786 -2.13896743583462,53.2730701688245 -2.13913406379037,53.2730978313723 -2.13926309502097,53.2731219439323 -2.13950767887272,53.2731692846395 -2.13978516235289,53.2732201799546 -2.14014531563201,53.2732953305889 -2.14017982377498,53.2732997834694 -2.14036737141918,53.2733346088665 -2.14044243395136,53.2733390130037 -2.14053984988791,53.2733362024567 -2.14063727476206,53.2733360875373 -2.14069577218624,53.2733414099325 -2.14074836889468,53.2733566241647 -2.1408579109294,53.2733942365998 -2.14088332640151,53.2733780322546 -2.14089369303026,53.2733348858213 -2.14089675662751,53.2733267950467 -2.1409086809781,53.2733061122828 -2.14090860326049,53.2732827488889 -2.14089802742683,53.2732629915968 -2.14088594318962,53.2732351489337 -2.14084659230137,53.2731506358382 -2.14078623279778,53.2730311913046 -2.14078473634323,53.2730275984822 -2.14077874606998,53.2730105323788 -2.14077560929971,53.2729970565959 -2.14077111398345,53.2729835824175 -2.14076351327014,53.2729656193431 -2.14076200786175,53.2729593308131 -2.14076050096636,53.2729521434127 -2.14075751852742,53.2729476543715 -2.14074241117214,53.2729404830321 -2.14073040623229,53.2729369026176 -2.14071840279391,53.2729333222001 -2.14070490141656,53.2729261498586 -2.1406989589417,53.2729234602571 -2.14069437203395,53.2729198719806 -2.14068988242034,53.2729081047506 -2.1406868970063,53.2729027168389 -2.14068539311071,53.2728964283062 -2.14065677100792,53.272877591164 -2.14062220795663,53.2728569641788 -2.1406027522287,53.2728435076439 -2.14055765094413,53.2728139061466 -2.14054253770647,53.2728049379429 -2.14051851155043,53.2727923856557 -2.14049448689023,53.2727807322342 -2.14048705398966,53.2727762475333 -2.1404795040944,53.2727735607144 -2.1404614472293,53.2727717851503 -2.14044352376182,53.2727727051441 -2.14041051836241,53.2727745408774 -2.1403895133706,53.2727781602113 -2.14037602848421,53.2727754803765 -2.14036402064138,53.2727710010562 -2.14033853983041,53.2727674364718 -2.14031306795665,53.2727665684883 -2.14030701000256,53.2727665756199 -2.14028155003207,53.2727693013069 -2.14025757753375,53.2727729241103 -2.14024262303347,53.2727747385534 -2.14019308543265,53.2727864785765 -2.14017072779719,53.2727927951807 -2.14013775955007,53.2728054145652 -2.14011824941277,53.2728126266838 -2.14008823524855,53.2728216479914 -2.14007785865817,53.2728243559053 -2.14006130114528,53.2728270710819 -2.1400478281497,53.2728279857862 -2.14003434920972,53.2728271027514 -2.13998635508443,53.2728199708499 -2.1399548074066,53.2728137175912 -2.13992474273841,53.2728074625831 -2.13987984060801,53.2728003261097 -2.13985423092741,53.2727949647275 -2.13983171170814,53.2727895988151 -2.13981674235312,53.2727869206587 -2.13978976671628,53.2727797640194 -2.13977776486285,53.2727770814787 -2.13976724454941,53.2727735001249 -2.13973268200002,53.2727528719822 -2.13970864424883,53.2727367249552 -2.13968608655141,53.2727196782154 -2.13963946597062,53.2726792952792 -2.13961096003244,53.2726577611325 -2.13958840833677,53.2726425112126 -2.1395523570614,53.2726200879151 -2.13952523934893,53.2726075390473 -2.13951619291434,53.2726011703406 -2.13951173059281,53.2725975809738 -2.13950726973353,53.2725948904774 -2.1395371164919,53.2725723900229 -2.13961494809328,53.2725174829467 -2.13967033159745,53.2724787773348 -2.13969870259833,53.2724589751856 -2.13974653913111,53.2724184815377 -2.13978698283857,53.2723860836955 -2.13983027843283,53.2723554802382 -2.13987518584159,53.2723266717192 -2.13993502792813,53.2722905665811 -2.14001287487525,53.2722401526872 -2.14008777051853,53.272195134546 -2.14019252401445,53.2721312094157 -2.14024632585948,53.2721005934473 -2.14026433482605,53.2720879916371 -2.14028370677522,53.2720762861934 -2.14030320465082,53.2720654803695 -2.14031221209747,53.2720600783292 -2.14031664168425,53.2720537828055 -2.14040769061651,53.2719214892048 -2.14046453626399,53.2718764911882 -2.14047045623671,53.271871990748 -2.14047650214808,53.2718683899304 -2.14047798511657,53.2718683881825 -2.14048848590607,53.2718656791881 -2.14050195561532,53.2718638664641 -2.14051999868362,53.2718620483467 -2.14053792327321,53.2718611283397 -2.14054842852265,53.2718602170796 -2.14055893675433,53.2718602046873 -2.14057390285548,53.2718619847812 -2.14058738448708,53.2718637657254 -2.1406203996173,53.2718655236231 -2.14065489623639,53.2718663817898 -2.14067442973424,53.271866358736 -2.14069396024658,53.2718654368101 -2.14071336481928,53.2718636170562 -2.14075686878531,53.2718590722232 -2.14080184675307,53.2718518308136 -2.14082878613259,53.2718482043945 -2.14084225581917,53.2718463907332 -2.14085733293058,53.2718445760696 -2.14087525750572,53.271843656012 -2.14097428495437,53.271843538922 -2.14109717782915,53.2718442923715 -2.14110620308912,53.2718442816867 -2.14111670982193,53.2718433703747 -2.14114215871639,53.2718379488036 -2.14116464765747,53.2718343275788 -2.14118565063501,53.2718298101365 -2.14119614987147,53.2718271010815 -2.14120812459071,53.2718216954581 -2.14124552570307,53.2718036790853 -2.14125144708244,53.271800077477 -2.14125897738143,53.2717964739616 -2.14126650318541,53.2717919724774 -2.14127093560095,53.2717865748881 -2.1414563882385,53.2716397910807 -2.1415820225764,53.2715363012358 -2.14159250219746,53.2715273027586 -2.14160446627244,53.2715192004903 -2.14161939324813,53.2715092978542 -2.14163432472735,53.2715011929557 -2.1416493806553,53.2714930879075 -2.14165826185555,53.2714867870426 -2.14166874896322,53.2714804842682 -2.14168070850184,53.2714705851515 -2.14168970062661,53.2714606895613 -2.14186760223911,53.2713121163371 -2.1420249200105,53.2712562150615 -2.14205184385362,53.2712480949205 -2.1420907541914,53.2712381645366 -2.14213127190843,53.2712282313243 -2.14220169587023,53.2712146678293 -2.1422346804078,53.2712074392882 -2.14223912773031,53.2712065360071 -2.14235007830386,53.2711857348696 -2.14245497406265,53.2711658397384 -2.14249994800578,53.2711576988194 -2.14251637422994,53.2711531857151 -2.142532807997,53.2711504703446 -2.14254937226291,53.2711495525608 -2.14255987729777,53.2711486411235 -2.14256432762854,53.2711486358003 -2.14258978348054,53.2711450107572 -2.14260782463677,53.2711422934533 -2.14273061264389,53.2711124917685 -2.14273962867105,53.2711097852523 -2.14275013066736,53.2711079758283 -2.14276212012971,53.2711070625952 -2.14279660257562,53.271104325568 -2.14281007647762,53.2711034105516 -2.14282206141161,53.2711015993442 -2.14283108045738,53.2710997907912 -2.14284157941762,53.2710970824902 -2.14295992591064,53.2710699825095 -2.14298241126933,53.271065462073 -2.14307678781321,53.2710428832945 -2.14317561880884,53.2710211080755 -2.14323861834126,53.2710057560398 -2.14330902944366,53.2709885982131 -2.14342142235274,53.2709561125958 -2.14343488861492,53.2709534006717 -2.14346330406806,53.2709479741351 -2.14348579235724,53.2709443533714 -2.14350828063963,53.2709407317047 -2.14351581668679,53.2709389248854 -2.14352323132756,53.2709380179833 -2.14354573786374,53.2709397877251 -2.14357121481937,53.270942452757 -2.14358024598119,53.2709442396229 -2.14359682082229,53.2709469153732 -2.1436132757579,53.2709504901382 -2.14363133808299,53.2709540620651 -2.14367032394511,53.2709665956969 -2.14371079886323,53.2709809252656 -2.14375584857269,53.2709952484039 -2.14377689050138,53.271002412205 -2.14377986092746,53.2710033074942 -2.14378592473041,53.2710050970252 -2.14379334547278,53.2710059869452 -2.14380088611926,53.2710059778474 -2.14380842216553,53.2710041710097 -2.14384588403941,53.2710050246752 -2.14390427193136,53.2709788940794 -2.14391327260367,53.270971694928 -2.14392375315513,53.2709635942173 -2.14393262171053,53.2709536986062 -2.14394161321825,53.2709438037449 -2.14395503671327,53.2709285102945 -2.14401190791938,53.2708924974748 -2.1440523439723,53.2708592002118 -2.1440807027508,53.2708367004108 -2.14424075366218,53.2707133064468 -2.14424519171576,53.2707097064842 -2.1442527124033,53.2707034070716 -2.14427809138656,53.270677316238 -2.14429756010692,53.2706584217376 -2.14431247549559,53.2706458230577 -2.14432739237504,53.2706332243742 -2.14436783556401,53.2706017238403 -2.14441270447643,53.2705630296458 -2.14443052590723,53.2705324544718 -2.14444843196055,53.2704901983426 -2.14450646008341,53.2703588404609 -2.14456447896634,53.2702248758284 -2.14462104831039,53.2701007987253 -2.14467451913321,53.2699748377213 -2.14473107249762,53.2698462671152 -2.14478912039255,53.2697211993687 -2.14484716211857,53.2695944237405 -2.14490818306489,53.2694712390513 -2.14496626067736,53.2693551572057 -2.14498268591607,53.2693138007626 -2.14501982360244,53.2692202997741 -2.14504358926189,53.2691564688612 -2.14505693157575,53.2691177228895 -2.14505692542484,53.2691159251513 -2.14505691620154,53.2691132294429 -2.14505690697825,53.2691105337345 -2.14505393050769,53.2691078416374 -2.14504486277719,53.2690952720486 -2.14497889171602,53.2690719879135 -2.1449713406883,53.2690693013788 -2.14496378808733,53.2690657159727 -2.1449563553653,53.2690612324463 -2.14494879819441,53.269056748172 -2.14493975508305,53.2690513677302 -2.14491720339299,53.2690361188089 -2.14490518226103,53.2690271473929 -2.1448706049066,53.2690020281782 -2.14483912848735,53.2689796009047 -2.14481806280638,53.2689652481325 -2.14477445169072,53.2689374441463 -2.14473839775368,53.2689141244322 -2.14470085791767,53.2688899067394 -2.1446783063953,53.2688746577723 -2.14452048263515,53.2687786078297 -2.14444392375086,53.2687319727314 -2.1443958538467,53.2687014782896 -2.14438235467568,53.268694305458 -2.14437034142999,53.2686880296979 -2.14433727043044,53.2686691988151 -2.14454221293045,53.268553029098 -2.14467991444585,53.2684763895064 -2.1446468450411,53.2684584575798 -2.14461687037418,53.268441419863 -2.14494756604389,53.2682621936605 -2.14531429348997,53.2680648606548 -2.14573923708215,53.2678297134599 -2.14596517395171,53.2677099210111 -2.14661765102997,53.267354974927 -2.1466281084603,53.2673405845866 -2.14662209964574,53.2673190253161 -2.14660250607135,53.2673010773496 -2.1464403145343,53.2672283988062 -2.14614461169485,53.2671191307037 -2.14599909591556,53.2670779725681 -2.14576041952072,53.2670153615617 -2.14557286400869,53.2669715585915 -2.14539730656413,53.2669294477353 -2.14522780562076,53.2668874200711 -2.14508215856448,53.2668435653965 -2.1449050113746,53.2667700942256 -2.14481337660132,53.2667234778395 -2.14464521791691,53.2666392125339 -2.14450996919289,53.2665629052465 -2.14437922703879,53.2664669115952 -2.14425757497599,53.2663897785846 -2.14410581373075,53.2662919233762 -2.14374373918666,53.2660713016957 -2.14354976066579,53.265916885047 -2.14329714065188,53.2657114064722 -2.14295443335099,53.2654394491202 -2.14276809792134,53.2653137769801 -2.14264496159687,53.2652348464991 -2.14249916772762,53.2651451601794 -2.14219131190306,53.2649791951304 -2.14197814024346,53.2648859931819 -2.14173031364611,53.2647793544897 -2.14152919409526,53.2647040204324 -2.14128600183907,53.2646153464404 -2.14096485971729,53.2645034009097 -2.14058963575332,53.2643716588383 -2.14021737974546,53.2642400020294 -2.14002075653808,53.2641773306959 -2.13984222550354,53.264128117222 -2.13961560203679,53.2640761734249 -2.13947768523242,53.2640484783138 -2.13930813983693,53.2640253135141 -2.13907121370823,53.2639977328952 -2.13887471638073,53.2639728012457 -2.13873075535249,53.2639487069143 -2.13859568639222,53.2639219063538 -2.13848015338013,53.263896879749 -2.13840208641284,53.2638754040389 -2.13827756391948,53.2638225308984 -2.13817541376513,53.2637695408734 -2.13793968396653,53.2636529957758 -2.13769781147476,53.2635094976274 -2.13743800896911,53.2633632350481 -2.1372907114931,53.2632618619113 -2.13697368843474,53.263041080033 -2.13684002803777,53.2629513723557 -2.13670626946604,53.2628696636687 -2.13652461905242,53.2627701259748 -2.13628581497613,53.2626553781923 -2.13612521291154,53.26256659951 -2.13605309644562,53.2625108786077 -2.13600190108429,53.2624651084619 -2.13596878406919,53.2624292015621 -2.13573560772596,53.2621795651294 -2.13573413369057,53.2621822625124 -2.13560398999161,53.2622633754929 -2.13480832742725,53.262374809287 -2.1344337309154,53.2624300463745 -2.13409362405505,53.2624861431392 -2.13382226373933,53.262510709701 -2.13357352362339,53.2625352503399 -2.13335460813284,53.2625319004257 -2.13303829215811,53.262528658652 -2.13270846136768,53.2625119525814 -2.13255405622515,53.2625049349393 -2.13229308485095,53.2624917449396 -2.13203364099198,53.2624533925692 -2.13172913458182,53.2623917251805 -2.1315326101672,53.2623542002887 -2.13137677871739,53.2623651546005 -2.13123886655339,53.2623751910502 -2.13090474077772,53.262448345076 -2.13066741419666,53.2622859573781 -2.13047683134933,53.2622105929028 -2.13025176470097,53.2621757928214 -2.12877971546259,53.2622016515507 -2.12835065675334,53.2620700184377 -2.12834162537565,53.2620673324562 -2.12796599929198,53.2622745045226 -2.12706492605762,53.2627706874671 -2.12653366242671,53.2630588952067 -2.12602149668735,53.2632455376919 -2.1259990082617,53.2632482570937 -2.12558388351517,53.2633142921116 -2.12492581000497,53.2633185764787 -2.12452246202426,53.2633127072643 -2.12414173091707,53.2633059143329 -2.12402776964746,53.2633078294962 -2.12378489028217,53.2633107779276 -2.12328418847129,53.2633220782857 -2.12299040319534,53.2633322657863 -2.12321044393692,53.2637212238378 -2.12345304614002,53.2641731503557 -2.12372452727731,53.2647345861546 -2.12396319339264,53.2653168137358 -2.12406153892933,53.265636704128 -2.12411907962066,53.2658263389528 -2.1241601902388,53.266060922115 -2.12418941175615,53.2662882377355 -2.12418456730345,53.2667017803213 -2.12416264606217,53.2668985967293 -2.12412888621261,53.2671054021015 -2.12402648906712,53.2674704360077 -2.12388950240192,53.2678022563079 -2.12374041037414,53.268095449117 -2.12348371417469,53.2684983836737 -2.12316102704572,53.2689113594097 -2.12302677265937,53.2691235709867 -2.12291323286707,53.2692756427865 -2.12284304905503,53.2693727651089 -2.12248316752617,53.2698810314064 -2.12225301441964,53.2701509407014 -2.1221036353642,53.2703514839703 -2.121851054827,53.2706483742754 -2.12158056839323,53.2709533684464 -2.12142509138191,53.2710991919091 -2.12113828675518,53.2714931655883 -2.12096497196266,53.271714489198 -2.12010900612394,53.2728218144183 -2.11986249287705,53.2731753060216 -2.1198207611333,53.2732391496438 -2.11960423029673,53.2735729316977 -2.11871211479787,53.2746452363223 -2.11781425045434,53.2758892681771 -2.11677596991347,53.2773032732282 -2.11613221614028,53.2782315425616 -2.11605008356346,53.2783557218438 -2.11595755488925,53.2785220558134 -2.11585165148356,53.2787262345181 -2.11569678511163,53.2791578112133 -2.11562303086594,53.2795885004111 -2.11560829195864,53.2797152192188 -2.11559908489122,53.2801457561548 -2.11568987292257,53.2804710577774 -2.11573266718197,53.2807451850863 -2.11583672035094,53.2809464649259 -2.11589214137064,53.2809544985003 -2.11642639296158,53.2810618148925 -2.11656748755775,53.2811066088493 -2.11730176186322,53.2814151060258 -2.11815608895319,53.2817559207475 -2.11882129483703,53.2820329362671 -2.11898911291214,53.2825191016284 -2.11908127102289,53.2827491463635 -2.11915798826342,53.282809277643 -2.11941314116903,53.2828656365667 -2.11960361051407,53.2828753315122 -2.12007590782699,53.2828407108443 -2.12051539547468,53.2828366758742 -2.12051673154688,53.283305033357 -2.12046304111378,53.2834281981674 -2.12054861997227,53.2834290109658 -2.12072113914234,53.2834315329826 -2.12107795926704,53.2834042147503 -2.12186978405991,53.2833602775799 -2.12211562784978,53.2833168938269 -2.12226466340695,53.2834946678253 -2.1233777682932,53.2835770986323 -2.12411177373733,53.2837624443307 -2.12438628863318,53.2837963069468 -2.12466088719306,53.2838166893207 -2.12542464017856,53.2839381938303 -2.12566792418738,53.284032293702 -2.12646805453449,53.284240919 -2.12688383596039,53.2843680834934 -2.1270656167699,53.2844469692661 -2.12757028810817,53.2846864529488 -2.12780479221167,53.2848596362584 -2.12850508887273,53.2852930989468 -2.12882961458207,53.2854598923731 -2.12869945069377,53.2856021038749</coordinates></LinearRing></outerBoundaryIs></Polygon>
  </Placemark>
