  <Placemark>
	<Style><LineStyle><color>ff0000ff</color></LineStyle><PolyStyle><fill>0</fill></PolyStyle></Style>
	<ExtendedData><SchemaData schemaUrl="#Wards__December_2019__Boundaries_EW_BFE">
		<SimpleData name="objectid">2922</SimpleData>
		<SimpleData name="wd19cd">E05007879</SimpleData>
		<SimpleData name="wd19nm">Winyates</SimpleData>
		<SimpleData name="wd19nmw"></SimpleData>
		<SimpleData name="bng_e">407218</SimpleData>
		<SimpleData name="bng_n">267429</SimpleData>
		<SimpleData name="long">-1.89555</SimpleData>
		<SimpleData name="lat">52.304939</SimpleData>
		<SimpleData name="st_areashape">3063292.74936377</SimpleData>
		<SimpleData name="st_lengthshape">8538.31152662355</SimpleData>
	</SchemaData></ExtendedData>
      <Polygon><outerBoundaryIs><LinearRing><coordinates>-1.88042834681613,52.2983347910052 -1.88042686505608,52.2983464734403 -1.88042237467888,52.2983976998301 -1.88027723979776,52.2983705903214 -1.88027528944076,52.2985558275262 -1.88042766075124,52.2985892358147 -1.88027448359191,52.298854312593 -1.88020053456527,52.2990609578624 -1.87966838816397,52.2990298608721 -1.87962975124678,52.2991880968116 -1.87937875914013,52.2992732264058 -1.87945104433692,52.2996796399893 -1.87927345380806,52.2997155001051 -1.87909740438106,52.2997620574055 -1.87893449564311,52.2998230089019 -1.87879054346355,52.2998929663505 -1.87861727435733,52.2999835670552 -1.87806648856917,52.3003075520476 -1.87797236996741,52.3004136013141 -1.87788101731372,52.3005689968559 -1.87769606081421,52.3005993646011 -1.87738758064181,52.3013560892417 -1.8773240270899,52.3015142092643 -1.87716741810238,52.3019168809161 -1.87703042289153,52.3021342431958 -1.87675217311884,52.3025349908732 -1.8762054873439,52.3034531543983 -1.87598906047351,52.3037928471878 -1.87595470528044,52.3040139106598 -1.87599649691512,52.3042468284619 -1.87522946036082,52.3042595058041 -1.87522405428732,52.3051495624021 -1.87520703557667,52.3054821828913 -1.87525780674788,52.3056601944484 -1.87628926942323,52.305495899945 -1.87644148783924,52.305635368996 -1.87653220521649,52.3057137471713 -1.87663018859195,52.3057884485826 -1.8771016236862,52.3061125889079 -1.87732563759912,52.306222471978 -1.87743695427725,52.3062863998671 -1.87749549958438,52.3063242990528 -1.87757899222842,52.3063926932431 -1.87762274631216,52.306443968253 -1.87770899567587,52.3065653931117 -1.87780387212906,52.3067156769035 -1.8782154331314,52.3074919272155 -1.87838930171431,52.3077231816089 -1.87842718286241,52.3078005160755 -1.87846187065037,52.3079839920713 -1.87850414435043,52.3080909902474 -1.87869824729958,52.3084418035734 -1.8787552093167,52.3085291331662 -1.87881077524651,52.3085965979798 -1.87900244686212,52.3087765493548 -1.87906236258563,52.3088459054194 -1.87916459444308,52.309008686143 -1.87923476796859,52.309086052069 -1.8793431268361,52.3091743313947 -1.87978816254276,52.3094894405769 -1.87993147426324,52.3096226033981 -1.87999875846807,52.3096963706983 -1.88037301720519,52.3101606912512 -1.88073552357075,52.3106356942839 -1.88093415490093,52.3109334746665 -1.88180507929523,52.3110998075392 -1.88226988489824,52.3111775637907 -1.88263342857596,52.3112237604344 -1.88359245328944,52.3113271635423 -1.88513672117613,52.3114725594138 -1.88558837175612,52.3114954625256 -1.88599180907484,52.3115021407849 -1.88641420455655,52.3115205203104 -1.88709178303442,52.3115391396104 -1.88805542153707,52.3115427453745 -1.88850290784453,52.3115395699175 -1.8895003694272,52.3115108407587 -1.8899740913713,52.3115103802275 -1.89013556024072,52.3115042379206 -1.8902660860997,52.3114917755635 -1.89086034286443,52.3114096351642 -1.89297461839032,52.3111535199661 -1.89396356381424,52.3110402614665 -1.89416307250939,52.3110061962131 -1.89490417195921,52.3108576577458 -1.89509931915982,52.3108263731456 -1.89590044712765,52.3107083499541 -1.89852547620921,52.3103042856967 -1.89955401704578,52.3101550649486 -1.90043432402148,52.3100424704966 -1.9024032389057,52.3098373880022 -1.90369118758658,52.3097260047658 -1.90482964243067,52.3096208690957 -1.90560567069565,52.3095657645975 -1.90744232214022,52.3094323062307 -1.90896201669947,52.3093489972528 -1.90933463158156,52.3093384975599 -1.90962790075838,52.309335125786 -1.90982307997803,52.3093379701858 -1.91011486385902,52.3093516728194 -1.91050939375869,52.3093879202591 -1.91121910080644,52.3094721271828 -1.91194196013039,52.3095724264811 -1.91238479327282,52.3096464511104 -1.91258267485337,52.3096906357905 -1.91319403561473,52.3098547470779 -1.91388159172212,52.3100179223482 -1.91427303119423,52.3100936997068 -1.91458094799942,52.3101479366045 -1.91501943140164,52.3102246451573 -1.91496545488212,52.3100564491817 -1.9148249404074,52.3099242325868 -1.91473703879429,52.3098522684461 -1.91456277080536,52.3097280258182 -1.91450856921896,52.309677656593 -1.91445004252403,52.3096120055267 -1.91441205090556,52.3095589517805 -1.9143930184452,52.3095202913653 -1.91427795586956,52.3091110952033 -1.9140226828397,52.3091037214474 -1.9140022944288,52.3090785415609 -1.91397446578326,52.309023696988 -1.91396136819711,52.3089805475275 -1.91396889094465,52.3089050575559 -1.91398360288055,52.3088646243583 -1.91408066966329,52.3086992314708 -1.91423367034356,52.3085042143011 -1.91427335604918,52.3084323384913 -1.91434865371723,52.3082085034513 -1.9144384740807,52.3080395947052 -1.91445322590962,52.3079793858514 -1.91445333752109,52.307922761783 -1.91444175422895,52.3078480637392 -1.91439506055078,52.3077329837672 -1.91494955570088,52.3076524897604 -1.91547627729441,52.307550312429 -1.91581091898041,52.3074705560947 -1.91603840038305,52.3074006101778 -1.91596646807574,52.3073897744007 -1.91590491122809,52.3073924272278 -1.91586089187012,52.3073932952005 -1.91581396823107,52.3073950592596 -1.915809615163,52.3073950561833 -1.91561888551661,52.3074084034538 -1.91537387551298,52.307413622173 -1.91515523476358,52.307477281473 -1.91502061202054,52.3073073129241 -1.91508523002949,52.3072857880042 -1.91503553970116,52.3072182525335 -1.91519103301671,52.3071662334737 -1.91522034696591,52.3072031047495 -1.91528201777451,52.3071420300306 -1.9153349525064,52.3070962293851 -1.91535700154175,52.3070755730989 -1.91536427289092,52.3070674885751 -1.91537311298372,52.3070612032725 -1.9153848661144,52.3070495275113 -1.91539660549329,52.3070441433188 -1.91541136911692,52.3070387603722 -1.91538943590623,52.3070000971704 -1.91529775638817,52.3066376369046 -1.9152465552097,52.3065396315257 -1.91519678261952,52.3065144298361 -1.91517769427298,52.3065054284235 -1.91516597287395,52.3065009266174 -1.91515424971969,52.3064973229639 -1.91514252979317,52.3064928202577 -1.91512645541314,52.3064883153517 -1.9151131582688,52.3064856087293 -1.91509853234859,52.3064829020588 -1.91507217829881,52.3064783898295 -1.91505755062385,52.3064765813077 -1.91502817031627,52.3064738641226 -1.915014991389,52.3064729556812 -1.91498415529459,52.3064729337103 -1.91496661985741,52.3064738202662 -1.91495041466162,52.3064747077678 -1.91493577847478,52.3064764945406 -1.9148932016132,52.3064818575957 -1.91488147113304,52.3064827473808 -1.91485656025709,52.3064827296038 -1.91484773431554,52.3064818251497 -1.91483310841294,52.3064791175482 -1.91482573474422,52.3064773150758 -1.91481848280711,52.3064755126899 -1.91481256287972,52.3064728113022 -1.91480519097827,52.3064701097764 -1.91479347462022,52.3064638098325 -1.91478912723019,52.3064602114125 -1.91452122434904,52.3061804043172 -1.91451108593847,52.3061705110663 -1.9145037261906,52.3061624161136 -1.91449938916756,52.306154324225 -1.91448913966288,52.3061390374731 -1.91448613287876,52.3061309456382 -1.91448180294558,52.3061192584407 -1.91448036515159,52.3061120667831 -1.91447894476313,52.3060967863564 -1.9144745161285,52.3060734149928 -1.9144761397149,52.3060473508059 -1.91447759875975,52.3060437565375 -1.91447760230109,52.3060419593327 -1.91447905633776,52.306040162268 -1.91448196410416,52.3060374680906 -1.91448341813877,52.3060356719249 -1.91448632413504,52.3060338759002 -1.91449225461722,52.3060311838877 -1.91449515707043,52.3060311859667 -1.9145010822402,52.3060311902105 -1.91450398646449,52.3060302932373 -1.91451136212741,52.3060302985195 -1.9145157147696,52.3060312006897 -1.91451861575619,52.306031202767 -1.91452744337918,52.3060312090879 -1.91454062040966,52.3060330157293 -1.91454799399912,52.3060348191143 -1.91455379566919,52.3060357223204 -1.91455971876783,52.3060375237674 -1.91456551690033,52.3060402241779 -1.91461978488468,52.3060537452081 -1.91463007685008,52.3060474609935 -1.91463746312379,52.3060420737534 -1.9146418249122,52.3060375825045 -1.91464776038976,52.3060330923806 -1.91465648926354,52.3060214145235 -1.91462278124061,52.306006021104 -1.91463308026859,52.3059961415791 -1.91457159440907,52.3059628425144 -1.91450998660103,52.305930441489 -1.91445731934538,52.3059025412086 -1.9144236166057,52.3058845413888 -1.91440742932028,52.305876440106 -1.9143781941859,52.305862038791 -1.91431061853218,52.3059123229016 -1.91429742202638,52.30592040221 -1.91403782566974,52.3059067342868 -1.91366529204407,52.305889387977 -1.91346880900548,52.3058802579064 -1.91341609405417,52.3058766243783 -1.91319023307018,52.3058638772323 -1.91286764650623,52.3058447675439 -1.91272243537483,52.3058356736583 -1.91270351221817,52.3057439826536 -1.91268315472809,52.3056450109806 -1.91268170999611,52.3056414146177 -1.91273021148893,52.305636056661 -1.91272864829327,52.3056315620595 -1.91276687714766,52.3056235003243 -1.91277121924207,52.3056288969056 -1.91278585739256,52.3056253122894 -1.91278586820476,52.3056199197864 -1.91284165381921,52.3056001867714 -1.91290337350233,52.3055759645947 -1.91291655934926,52.3055732770544 -1.91292974699115,52.3055696922602 -1.91294148415343,52.3055661055082 -1.91304275943511,52.3055347214609 -1.91314984122637,52.305502442489 -1.91319532914724,52.3054916896258 -1.91324528808576,52.3054827380949 -1.91326572741094,52.3054809557315 -1.91328629025663,52.3054782744021 -1.91330685130883,52.3054764912206 -1.9133362384134,52.3054747153377 -1.91335522546486,52.3054738300579 -1.91337578292912,52.3054738449659 -1.91339633713541,52.3054747589201 -1.91341689280908,52.3054756728719 -1.91344325185912,52.3054765901259 -1.9134858172669,52.3054766209582 -1.91351217810625,52.305476640045 -1.91353708668001,52.3054775571272 -1.91356937083424,52.3054784795404 -1.91360019915163,52.3054820971501 -1.91374383719192,52.3054911887711 -1.91374236173125,52.3055037708449 -1.91378044896798,52.305505595545 -1.91381865468599,52.305508319371 -1.91385674192735,52.3055101449459 -1.91390075071589,52.3055137719827 -1.91394475773141,52.305518297156 -1.91395056079566,52.3055192003887 -1.91399310875591,52.3055273198055 -1.91403565819516,52.305535440108 -1.91406490904012,52.3055417527246 -1.91409282967585,52.3055480643778 -1.91412207520333,52.305557073237 -1.9141514406929,52.3055669812286 -1.91417632831758,52.3055777841505 -1.91419976693796,52.3055885869261 -1.9142203049174,52.3055984885617 -1.91422622470802,52.3056011890724 -1.91424374031675,52.3056101894812 -1.9143653826449,52.3056749896929 -1.91437262912619,52.3056794892547 -1.91437855070839,52.305681290707 -1.91438144959422,52.3056830908913 -1.91438591922755,52.3056848913025 -1.91441661684082,52.305693901137 -1.91443716052915,52.30570020743 -1.91444598454814,52.3057020118574 -1.91445626051974,52.3057038164251 -1.91446943728043,52.3057057138736 -1.91449437834405,52.3056894633626 -1.91453098146183,52.3057084541907 -1.91451632571114,52.3057210268521 -1.91454410354169,52.305738123349 -1.91460862594836,52.3057642348536 -1.91462472833518,52.3057543594755 -1.91465263502165,52.3057678616264 -1.91464233604575,52.3057777411564 -1.91471409979096,52.3058110475154 -1.91477718278924,52.3058308663335 -1.91500583199471,52.3059020338573 -1.91510251409746,52.3059308642678 -1.91513333226048,52.3059398740176 -1.91514650577033,52.3059434786967 -1.91516125150269,52.3059470844915 -1.9151816783556,52.3059524915292 -1.91530774068761,52.3059840389141 -1.91535620917715,52.3059948592368 -1.91545146396939,52.3060120033637 -1.91546028808215,52.3060138077206 -1.9154705659101,52.3060147131529 -1.91547781955439,52.3060156173424 -1.91548664220214,52.3060174216964 -1.91549692003135,52.3060183271264 -1.91550719446467,52.3060202224119 -1.91552472447433,52.3060220320259 -1.91555410803999,52.3060229518666 -1.91557018755923,52.3060247604481 -1.91560984924282,52.3060256875429 -1.91573743070252,52.3060221823327 -1.91578000375115,52.3060185271459 -1.91581375102401,52.3060131584161 -1.91587388008283,52.3059979213629 -1.91591199744418,52.3059844659884 -1.91594431483913,52.3059692093072 -1.91596634567189,52.3059575406977 -1.91597954365616,52.3059485621341 -1.91599419212796,52.3059395836902 -1.91601332920137,52.3059234195587 -1.91603246947345,52.3059063554717 -1.91603828509515,52.3059000679748 -1.91604567614362,52.3058928825301 -1.91605307269012,52.3058821026674 -1.91605889674106,52.3058722198547 -1.91606181834635,52.3058623350016 -1.91606776265608,52.3058524522727 -1.91607358871655,52.3058407722494 -1.91608246506865,52.3058156121416 -1.91608989266729,52.3057895519599 -1.91609877770686,52.3057598983792 -1.91610609052372,52.3057302427938 -1.91610913411333,52.3057194598681 -1.91610915326506,52.3057095729744 -1.91610759167215,52.3057040894407 -1.91610614989474,52.3056995940525 -1.91610325616759,52.3056950976448 -1.91610326487235,52.3056906041743 -1.9161018216291,52.3056861087851 -1.91610038159271,52.3056807152423 -1.91610039378113,52.3056744236643 -1.9160973832753,52.3056681299636 -1.91609303906837,52.3056636325371 -1.91608278220163,52.3056519412153 -1.91607698925591,52.3056465446148 -1.91607107458244,52.3056411479286 -1.91606527668972,52.305637548535 -1.91605936027793,52.305633050003 -1.91605356238702,52.3056294506089 -1.91604764249195,52.3056267501838 -1.91603302897373,52.3056177520629 -1.91602131119483,52.3056114522415 -1.91603015442402,52.30560336966 -1.91609762008517,52.3055458937199 -1.91610209499247,52.3055449978069 -1.91609619251741,52.3055333095444 -1.91641621244494,52.3053788504446 -1.91564887902024,52.3047975985677 -1.91523336146494,52.3043189648721 -1.91517045077698,52.3042119634315 -1.91505225599022,52.3039322639242 -1.91500404546114,52.3037901306338 -1.91493702849485,52.3035572946095 -1.91487446531092,52.3033360559368 -1.91460138482053,52.3027460716794 -1.9144887712493,52.3025824104664 -1.91440540915328,52.3024851912257 -1.91417996115239,52.3022720157517 -1.91370875027022,52.3017870471615 -1.91361220381016,52.3016332837978 -1.91356259990341,52.3015262015035 -1.91352607299126,52.3014102306769 -1.91350440341549,52.3013022694062 -1.91349436241898,52.3011836213646 -1.91350052660308,52.3010020692492 -1.91353059233354,52.3006585707959 -1.91354578559456,52.3003745633382 -1.9135772513636,52.3000499466645 -1.91358074801296,52.2997452631103 -1.91362069497664,52.2995348876221 -1.91361649688808,52.2994557918967 -1.91358149548584,52.2993622040809 -1.91335938956562,52.2989287431417 -1.91324403281447,52.2986876976521 -1.91279796728271,52.2988330669599 -1.91242967635562,52.2989604268525 -1.91189114727026,52.2991488675265 -1.91163136747533,52.2992448461343 -1.91142154063355,52.2993318732772 -1.91068176424973,52.2996630665566 -1.9104013760862,52.2997833838805 -1.91025762243373,52.299839899891 -1.90987167583227,52.2999609472374 -1.90965307617917,52.3000183045755 -1.90953863955244,52.3000460806451 -1.90922318108024,52.3001079494246 -1.90872887537138,52.3001794777312 -1.90835626018922,52.3002241328276 -1.9076963093647,52.300293733356 -1.90626472861926,52.3004095576588 -1.90595962745207,52.3004299912015 -1.9053730287437,52.3004591913745 -1.90510024450839,52.3004634697877 -1.90487294675271,52.3004569986376 -1.90424393538428,52.3004169530146 -1.9042278542122,52.3004169402039 -1.90403433404515,52.3003907209119 -1.90394343853114,52.3003771672522 -1.90386282146209,52.3003636208441 -1.90380855928764,52.3003509046072 -1.90358581383056,52.3002527589715 -1.9034231971028,52.3001942080859 -1.90323115198803,52.3001572029833 -1.90304641123678,52.3001525607076 -1.90287623044508,52.3001802853607 -1.90270598242564,52.3002385679905 -1.90255762901394,52.3003472007307 -1.90250624252898,52.3004020740457 -1.90246204010659,52.300488321874 -1.90244267958748,52.3006042492485 -1.90235766304685,52.3006113707154 -1.9021612333056,52.3005887411654 -1.90175377010678,52.3004769590341 -1.90139026891374,52.3003885802773 -1.90101951789711,52.3002974063914 -1.90015024073712,52.3001061402393 -1.89936031066251,52.2999049580371 -1.89920053589746,52.2998751628445 -1.89899385256521,52.2998435305064 -1.89879295729092,52.2998190932248 -1.89812880718016,52.299765499327 -1.89777845519368,52.2997472239074 -1.89748515409087,52.2997370851924 -1.89722701649589,52.2997359637689 -1.89690152030774,52.2997401768415 -1.89635157898291,52.2997603712568 -1.89563134133954,52.2998046817843 -1.89512543424468,52.2998150223449 -1.89488785132872,52.2998139148049 -1.89444063524671,52.2998027335762 -1.89365036433642,52.2997561931285 -1.89295238998235,52.2997429849165 -1.89271048410476,52.299729285261 -1.89118590670621,52.2994986227845 -1.89099676570511,52.29946609338 -1.89008955405714,52.2992863119604 -1.88926871161293,52.2991417464249 -1.88857532972413,52.2990367506586 -1.88668581989541,52.2987913973198 -1.88644526272875,52.2987731917562 -1.88633246761221,52.2987693998235 -1.88621954135109,52.2987692919235 -1.8857120509138,52.2987877700399 -1.88454050963686,52.2987722575413 -1.88433078424268,52.2987548869856 -1.88419299831979,52.2987367762638 -1.88399515060373,52.2987078217826 -1.8836022636516,52.2986400287336 -1.88316108345447,52.2985928584585 -1.88042834681613,52.2983347910052</coordinates></LinearRing></outerBoundaryIs></Polygon>
  </Placemark>
