  <Placemark>
	<Style><LineStyle><color>ff0000ff</color></LineStyle><PolyStyle><fill>0</fill></PolyStyle></Style>
	<ExtendedData><SchemaData schemaUrl="#Wards__December_2019__Boundaries_EW_BFE">
		<SimpleData name="objectid">7194</SimpleData>
		<SimpleData name="wd19cd">E05012967</SimpleData>
		<SimpleData name="wd19nm">Witham North</SimpleData>
		<SimpleData name="wd19nmw"></SimpleData>
		<SimpleData name="bng_e">581463</SimpleData>
		<SimpleData name="bng_n">216593</SimpleData>
		<SimpleData name="long">0.631415</SimpleData>
		<SimpleData name="lat">51.818501</SimpleData>
		<SimpleData name="st_areashape">3485427.31555051</SimpleData>
		<SimpleData name="st_lengthshape">11693.396573727</SimpleData>
	</SchemaData></ExtendedData>
      <Polygon><outerBoundaryIs><LinearRing><coordinates>0.618938441353715,51.8319517217918 0.618804969047566,51.8320769693186 0.618452898288192,51.8323887887005 0.618083005650599,51.8327441593278 0.617824521468982,51.8326168517536 0.617459654256362,51.8324567569245 0.617087437624348,51.8322978138364 0.616704419999965,51.8321507086946 0.616320183177924,51.8320073149264 0.61516702020955,51.8316453777933 0.614887633107851,51.8316093346564 0.614583433009092,51.8315953313713 0.614454269917426,51.8318446402485 0.613957024466202,51.8317810729343 0.613128312252381,51.8316583389956 0.612222840456373,51.8315120405566 0.611596125012282,51.8313928991537 0.611076683364055,51.8313468056546 0.610928497982095,51.83131952714 0.610927012333619,51.8313186616958 0.610777132130994,51.8312869257535 0.610638244267,51.8312693304032 0.610271563000528,51.8311785736086 0.610356628980408,51.8307666154901 0.610430703141839,51.8307685673347 0.610459590741465,51.8307652288555 0.610495074296829,51.8307517640048 0.610550911696154,51.8307136623171 0.61062640389815,51.8307380596211 0.610730523796269,51.83050648303 0.610747906096426,51.8304304845997 0.610876637566187,51.8304483943725 0.611243946184116,51.830500475619 0.612322782188644,51.8306815003682 0.612843181182122,51.8307958976019 0.613205257226928,51.830831905499 0.613792065096759,51.8307622197578 0.614415748947189,51.8307051966216 0.61485616980563,51.8306413677203 0.615047846773835,51.8304671797706 0.615176556148293,51.8301585403019 0.615392587267053,51.8298533533682 0.615545516510202,51.8296116050419 0.615636576653391,51.8292543534651 0.615849697574093,51.8288764048404 0.616000176252793,51.8283675950912 0.616053167508237,51.8281794081587 0.61610362506073,51.8280981771105 0.616158337854152,51.8280160428499 0.616597978061309,51.8276132720978 0.616810760975056,51.8273782820808 0.616936015213612,51.8271857891841 0.617243692147215,51.8266599920536 0.617689472637061,51.826087064358 0.617887038433151,51.8258911616467 0.617996628786351,51.8257546690198 0.618068914897595,51.825649665363 0.618124127660538,51.8255494468096 0.618182840275068,51.8254105804759 0.618210320732008,51.8253335465207 0.618309956487601,51.824976101562 0.618391492816249,51.8245542363303 0.618413353939213,51.8244071999191 0.618482303578895,51.8237437617798 0.618545730048265,51.8235624431812 0.618690151911082,51.8231995053601 0.618861223567258,51.8228215879039 0.619275544296306,51.8218581654103 0.619666870612263,51.8211749563189 0.619759429443678,51.8210442355946 0.619834494053356,51.8209130961316 0.619884702194751,51.820803098154 0.620012442671578,51.8204045665624 0.620051856908627,51.8201581493926 0.620214944594716,51.8198677089028 0.620418270696899,51.8193945765651 0.620532455703148,51.8189379056716 0.620646988959251,51.8186871166436 0.620823674967106,51.8184043734524 0.621055116233798,51.818116812758 0.621260334629034,51.8178783860977 0.620584138654815,51.8173781984015 0.621918110655642,51.8164365184951 0.622337374428937,51.8159864375244 0.622567199027646,51.8157969995371 0.622816075935971,51.8156349165657 0.623069087127147,51.815642757961 0.623126378310539,51.8155560667968 0.623208846124388,51.8154517317891 0.623262260203783,51.8154712183824 0.623359619637471,51.8154996152331 0.623453068848751,51.8155101169988 0.623542501901564,51.8155009282753 0.623650888802758,51.815467940883 0.623741443173253,51.8154533327515 0.623756421722346,51.8154619891367 0.623805286623215,51.8155040541745 0.623844295222456,51.8155247613578 0.623899063589991,51.8155181447243 0.623932892949917,51.8155012060662 0.623949913029455,51.8153947348472 0.623935289736827,51.8153428240811 0.623934816472934,51.8152852940867 0.623969320830217,51.815230578937 0.624009366338388,51.8151703458629 0.624077128880191,51.8151382648259 0.624239551313065,51.8150860884522 0.62439908596738,51.8150356850603 0.624593305517198,51.814981000567 0.624642321644143,51.8149763097806 0.624674223920254,51.8149755975206 0.624849336218075,51.8149914678033 0.624881116773879,51.8149907582049 0.624906865649424,51.8149829903674 0.624988145007061,51.8149344233918 0.625106970436375,51.8148814215005 0.625196553739888,51.8148254760391 0.625217747534455,51.8147908377912 0.625236806181037,51.814768834361 0.625273084396703,51.8147446477115 0.625330822362202,51.8147397618621 0.62540418303021,51.8147525093615 0.625438220188317,51.814739162073 0.625587415963295,51.8147105657713 0.625603502111866,51.8146868299911 0.625523044146056,51.8146014162889 0.625530396382772,51.8144789771175 0.625563237254777,51.8143936401738 0.62558980954502,51.8143013402477 0.625585987211458,51.8142870406964 0.625400393803433,51.8142390384079 0.625347152834274,51.8142204482608 0.625336654872089,51.8141901132872 0.625402519399311,51.8140267182546 0.625432914132989,51.8139487188146 0.62547122362259,51.8139101018095 0.625531635058759,51.8138997610122 0.625648363923936,51.8139115397595 0.625763478788167,51.8139449313745 0.625874473808217,51.8139568379688 0.625984854353599,51.813984940885 0.626018426261658,51.814012961702 0.626016035873611,51.8140705565862 0.625979075943418,51.8141344078467 0.625995935206524,51.814175388236 0.626034631609818,51.8141907074346 0.62609768633388,51.8141785104234 0.626153020102321,51.8141323199813 0.626235357341873,51.8140999120821 0.626346183345029,51.8140595848193 0.626447096702385,51.8140483395959 0.626501340277355,51.8140327418661 0.626531254734584,51.8139979085278 0.626535736104444,51.8139762305678 0.626574476998901,51.813942997791 0.626634455911138,51.8139272727537 0.626689847499103,51.813931429342 0.626824543321743,51.8139517961616 0.626935643052374,51.8139654962942 0.626989870634446,51.8139516973715 0.626997233827215,51.8139281572154 0.62693525574774,51.8138108636346 0.62690408323458,51.8137233602488 0.626919854796942,51.8136942370721 0.626988135647743,51.8136711334239 0.62722165241391,51.8136443370957 0.627383483653752,51.8136335274041 0.627452288326457,51.8136194024674 0.627506006856181,51.8135948253091 0.627530963094765,51.8135241397587 0.627543726286145,51.8133960943904 0.627538663122291,51.813358446112 0.627495323471312,51.8133126626567 0.627430075031426,51.8132871489162 0.62737650498644,51.8132649696883 0.627366215048949,51.81323822759 0.62741294478778,51.8131922288263 0.627481120104272,51.8131673294619 0.627561459831542,51.8131520472987 0.627651096383366,51.813146447308 0.627772527828843,51.8131383387575 0.627881639241503,51.8131179183352 0.627923659112857,51.8130917147773 0.627922299805407,51.8130683686428 0.627887575847507,51.8130205940519 0.627824658226869,51.8129878355136 0.627610259709716,51.8129422793071 0.627489396504452,51.8129108157666 0.627461886325499,51.8128862563392 0.627456495391404,51.8128450189247 0.627462329883725,51.8127459000691 0.627486657048894,51.8126644392062 0.627524247602616,51.812611451743 0.627634655878578,51.812564030474 0.627865493701975,51.8125426869297 0.62790527796834,51.8125274117536 0.628000916369859,51.8124749251702 0.628116875519155,51.8124488672607 0.628227073560549,51.8123978527687 0.628313989617007,51.812345560931 0.628394275337147,51.8123293809502 0.628465374601636,51.8122540661121 0.628504725912738,51.8122334070715 0.628641506316596,51.812188990724 0.628692445254726,51.8121680716114 0.628751070382801,51.8121271114964 0.628803994781747,51.8120396157099 0.628851019955746,51.812000802655 0.629001942331845,51.8119506753886 0.629046937932713,51.8119262934749 0.629079821235257,51.8118931908345 0.629094438694585,51.8118443130822 0.629124180065318,51.8117572465843 0.629201315672012,51.8116377412325 0.629313324064159,51.8114679175271 0.629358108288818,51.8114399428572 0.629552933941169,51.8113960257851 0.629620791450683,51.8113657371127 0.62966176771131,51.8113216647891 0.629676370158271,51.8112745850699 0.62966959028595,51.8112567553378 0.62962160450728,51.8111805080331 0.629595701158883,51.8111342453668 0.629571982578692,51.811026885753 0.629588377812069,51.8110085376129 0.629736309705595,51.8109584762576 0.629821295387198,51.8109224100587 0.629855014418251,51.8109036734283 0.62989938071544,51.8108685158731 0.629943887353339,51.8107865130532 0.629967164173449,51.8106870928127 0.629941789158313,51.8106498990321 0.629861801417646,51.8105725699877 0.629845463203846,51.8105405682599 0.629863046372155,51.8104933327917 0.629911263923687,51.810425721832 0.629965961498301,51.8103687552564 0.630042119941095,51.8103310876909 0.630171606253733,51.8102868326831 0.630342291150386,51.8102290685353 0.630438753860904,51.8101908573512 0.630497589359869,51.8101535771081 0.63051877698375,51.8101189379707 0.630541473037267,51.8100608894327 0.630539955551908,51.8100348497284 0.630467782504773,51.8098925218008 0.630460373181679,51.8098639168148 0.630490219148593,51.8097787352908 0.630497265915957,51.809749806823 0.630421402041771,51.8096939628384 0.630396236543161,51.8096603609245 0.630409122924866,51.8096331004734 0.630551993180645,51.8095435012004 0.630666765102427,51.8094726027858 0.630726525851991,51.8094532840126 0.630815631289094,51.8094387027265 0.630846795404058,51.8094254181146 0.630854260562579,51.8094036731795 0.630843341539545,51.8093661560599 0.630847625238045,51.8093390871853 0.630872518390631,51.8093187499887 0.630966952395687,51.8092950586279 0.63109634699202,51.8092759789431 0.631204254921155,51.8092843530622 0.631250712139429,51.8092851109776 0.631279099150624,51.8092754848711 0.631283487290026,51.8092502123205 0.631260450848009,51.8092038858327 0.631207567274418,51.809142133726 0.631196754184424,51.8091064129452 0.631207963608155,51.8090504182466 0.631223416831903,51.8090159073225 0.631269705533473,51.8089645225626 0.631268554112899,51.8089447691485 0.631249591914489,51.8088677819911 0.631258668072616,51.8088244230966 0.631288156782871,51.8087824050556 0.631412315662765,51.808673534222 0.631481688463609,51.8086180361468 0.631513410892513,51.8085650896181 0.631528012119709,51.8085180105353 0.631514225414511,51.8084805576509 0.631487857372314,51.8084263034326 0.631489781123339,51.808410076734 0.631515420432254,51.8084005120693 0.631558590664626,51.8083941514109 0.631692418701824,51.8084019438997 0.631752926046223,51.8083933972341 0.631908271006013,51.8083701391287 0.63196662824518,51.8083760254464 0.632081628596323,51.8084076155768 0.632104805136505,51.8084070966273 0.632130009886035,51.8083921464043 0.632140446380681,51.8083721335146 0.632132722182177,51.8083381414162 0.63206239295644,51.8082766903747 0.632052101456285,51.8082499477834 0.632062014379141,51.8082209550149 0.632109242282366,51.808185732473 0.632133729521419,51.8081564133581 0.632156839965221,51.8081055471836 0.632172920458471,51.8080818114465 0.632312344355689,51.8079599206504 0.632358526047069,51.8079067391104 0.632361955519654,51.807867103007 0.632375876718528,51.8077571031546 0.63238734937297,51.8076543501594 0.632413834263402,51.8075116126346 0.632422528675809,51.8074125183116 0.632416554594182,51.8073100669767 0.632398913798697,51.8071818931477 0.632382199679096,51.8069690948623 0.632404782995816,51.8064353419804 0.632350258935392,51.8063474643799 0.632453015212776,51.8062183921165 0.632902672994181,51.8059933499813 0.633239927535792,51.8059309518403 0.633328677469774,51.8058858078864 0.633375532115653,51.8058667758986 0.63350131548831,51.8058351871218 0.633581954464159,51.805825289106 0.633664445280862,51.8058225415764 0.633785261107432,51.8058288253358 0.633986176510939,51.8057667826591 0.634215257824772,51.8057139076667 0.63432208002974,51.8056566692067 0.634794633699903,51.8053753644485 0.635127513233474,51.8052627092278 0.635544000431581,51.8051418857877 0.635760773017254,51.8050524214786 0.6358859021487,51.8047105700205 0.63589088152176,51.8046708990083 0.635886183158111,51.8046170591393 0.635870070225324,51.8045643745749 0.635841356621063,51.804519165503 0.635763601499418,51.8044309101112 0.635738784099016,51.8043766229281 0.635737368782779,51.8043523787271 0.636225719637666,51.8040716121534 0.636283319581845,51.8040379539032 0.637809917173554,51.8049417206143 0.638308536432196,51.805231813496 0.639850259646943,51.8061433071302 0.639973251589403,51.8062133710018 0.640190888961846,51.8063371419738 0.640507342648718,51.8065143459726 0.640753297397409,51.8066518657068 0.64098729430438,51.8067832691659 0.641292396268776,51.8069401374892 0.642246972032879,51.8074601139862 0.644894579411473,51.8089203859518 0.645837874034453,51.8094199078177 0.647228568512037,51.8102007419534 0.648163083775099,51.8106985554859 0.649377786029743,51.8113961173244 0.649578448083699,51.8115273567826 0.649980592485549,51.8117548407575 0.650384292826873,51.8119822892071 0.651114109887578,51.8123768042401 0.651523837694442,51.8126304412032 0.652164754704469,51.8129803420855 0.65294051229664,51.8134284275724 0.652896498330898,51.8135069883246 0.652872888715531,51.8135471821699 0.652844473749932,51.8135895529413 0.652790023858263,51.8136604807995 0.652737012819032,51.8137361426805 0.652691961585354,51.8137941776585 0.652627333837618,51.8138672237233 0.652598385300805,51.8139005231021 0.65256668352798,51.8139338845984 0.652477453679616,51.814012971698 0.65244419184074,51.8140444797391 0.652434344562151,51.8140546846358 0.652420828141182,51.8140740556853 0.65241314198765,51.8140914065639 0.65230072904423,51.8141685883743 0.652300704118995,51.8141829784272 0.652299954664777,51.814197384827 0.652298330496802,51.8142117210278 0.652296028813758,51.8142219355361 0.652292412419932,51.8142319998383 0.652287776404588,51.8142419972107 0.652282260394925,51.8142518345686 0.652276159480638,51.8142615951884 0.652269768751664,51.8142713623467 0.65226351764796,51.81428103642 0.652257711816313,51.8142908803155 0.652252190516428,51.8143006278569 0.652247699391921,51.8143106219585 0.652244082980994,51.8143206862592 0.652242287012795,51.8143296302761 0.652240641228317,51.8143386608388 0.652240015065564,51.8143477583316 0.652240258340707,51.8143568362085 0.652240936335125,51.8143659042775 0.652242204511704,51.8143751388997 0.652243896851947,51.8143841840834 0.652245889562077,51.8143934023588 0.652248306436312,51.8144024311958 0.652251018402745,51.8144115433094 0.652254014905279,51.8144205590689 0.652257151037494,51.8144294817438 0.652260432077614,51.8144384011492 0.652265041273386,51.814450168487 0.652270659540201,51.8144618231239 0.652276841602274,51.8144731952374 0.652283592738107,51.8144843746425 0.652291068411255,51.8144955377003 0.65229926862225,51.8145066844106 0.652307887723105,51.8145175518665 0.652316651735036,51.8145284160522 0.652325984822306,51.814539087529 0.652345810266025,51.8145604043247 0.652356147159265,51.8145708732823 0.652377110774368,51.8145918046556 0.652387732217922,51.8146021772561 0.65239819820231,51.8146123734946 0.652408824934071,51.8146228359081 0.652429488226424,51.81464359418 0.652468495841731,51.8146802166499 0.652510751932932,51.8147153268604 0.65255599836076,51.8147494702388 0.652602367165939,51.8147829587341 0.652649739836071,51.8148162446909 0.652696527665277,51.8148494538919 0.652741763809024,51.8148834175642 0.652784589376326,51.81491833496 0.652824005845346,51.8149544984178 0.652859030529968,51.814992469723 0.6528790517671,51.8150171095832 0.652897795247888,51.8150422279467 0.65291539532024,51.8150676419139 0.652931846703041,51.8150932616699 0.652946725227783,51.8151192766563 0.652960900344858,51.8151456672524 0.652973621110617,51.8151720007337 0.652985053550371,51.8151986330912 0.652999648741528,51.8152346371746 0.653014093767851,51.8152705547108 0.653027540292512,51.8153067645825 0.653039108297356,51.8153431067817 0.653048647588587,51.8153794947642 0.653070559859278,51.8154634485646 0.653088570205408,51.8155476702901 0.653103118616673,51.8156322399465 0.653113909972949,51.8157170742613 0.653122087699945,51.8158018776264 0.653128131104794,51.8158849304732 0.653132875615067,51.8159681025678 0.653134721915476,51.8160513400705 0.653131915206647,51.816134412782 0.653123580709792,51.8162172505101 0.653108103237202,51.8162995299684 0.653091130845302,51.8163514453658 0.653067315835751,51.8164029755795 0.65304087650103,51.8164542952101 0.653015591133272,51.8165054988572 0.652995533148109,51.8165567643977 0.652984781259367,51.8166083595259 0.650470191571674,51.8167831549449 0.649659392148783,51.8169765432942 0.648962108845036,51.8169260836639 0.648877240328467,51.8168863564362 0.648736245195966,51.8168473028896 0.648714898079059,51.8168431405587 0.648076442896913,51.8167101927639 0.64801345647456,51.8167163699823 0.647871381902876,51.8167160006685 0.647805224885241,51.8167008349576 0.647690164369464,51.8166701130357 0.646964806962066,51.8164782401038 0.646229451580131,51.8162794497184 0.646175563805185,51.8162770932377 0.646141057073384,51.8162778699667 0.646132239972944,51.8162257186499 0.646128650709384,51.8161972453411 0.646107111448455,51.8161572786793 0.646067168063723,51.8161308134899 0.645963472519001,51.8160974544258 0.645913790326256,51.8160583495967 0.645883690970268,51.8160309190262 0.645861208816047,51.8160104299018 0.645844432418899,51.8159951427529 0.645734081652407,51.8160899464754 0.645332633375827,51.8163705945057 0.644714735893872,51.8164978716625 0.644498947511536,51.816555771943 0.644212095060815,51.81661167381 0.644053533149002,51.8166314238585 0.643844218777849,51.8166487186443 0.64364430835895,51.8166550121827 0.643371361559022,51.8166521591773 0.643250029288803,51.816662080283 0.643137943824509,51.8166807840748 0.643135129960834,51.8166817457826 0.643049250610749,51.816702557401 0.642978157084963,51.8167266330027 0.642842273190683,51.81678633021 0.640448621974338,51.8176144986937 0.639606830144097,51.81783569597 0.639380746369011,51.8174927372124 0.639311436603318,51.8173243665063 0.639280983085473,51.8171514370195 0.639282433129559,51.8171271294668 0.639304608226666,51.8170583015261 0.639307560762488,51.8170105836829 0.639298028631404,51.8169703390572 0.639275037563017,51.8169250023498 0.639239071617646,51.8168807654372 0.639189018876801,51.816843228282 0.639123062429938,51.8168078468174 0.639083031293202,51.816794360536 0.638316585615561,51.8171847731977 0.637315300225603,51.8177558602591 0.637227317265923,51.8178144762629 0.637114406153233,51.8178682571506 0.637037559130568,51.8178942559547 0.636932953241598,51.8179181802372 0.636849640819427,51.8179318267097 0.636767233209637,51.8179363730914 0.636632293265428,51.817936701582 0.636470499468691,51.8179258553047 0.636334511927313,51.8179082264434 0.636230217197664,51.8178862893719 0.635479932512751,51.8176855345071 0.635466366848602,51.8177011229052 0.635007271283444,51.8184875019706 0.634697735406609,51.8192003985997 0.635556224796641,51.8193646586798 0.636084618933384,51.8194921688427 0.636199249409552,51.8194922955429 0.637337726051676,51.8197527589892 0.638002812766161,51.8199096520802 0.636862381488043,51.8211044038633 0.63823546389887,51.8215313210871 0.640060212974477,51.8221127028887 0.640445573970206,51.8222488907524 0.640432900556141,51.8222797439633 0.640384778243923,51.8223509535027 0.640318000642928,51.8224243797737 0.640251590146301,51.8224816141353 0.640115898397921,51.8225674672546 0.639654362578019,51.8227900140407 0.638952472997265,51.8230971637409 0.637833275456033,51.8234136740167 0.637349309338884,51.8236008410684 0.637256018785285,51.8236200167747 0.637180610960308,51.8236441855071 0.63709837113904,51.8236783974736 0.637036603104911,51.8237148464131 0.63698808591486,51.8237527976823 0.63694981695109,51.8237941146262 0.636916388392587,51.8238425159059 0.63689529331418,51.8239033167348 0.636887217199621,51.8239637365222 0.636897519560588,51.8240417254873 0.636846658336176,51.824088719962 0.636797495473888,51.8241176940332 0.63672105757042,51.8241508762574 0.636654147208549,51.8241730553838 0.636284108037844,51.8242479758205 0.636082449971598,51.8243478005657 0.635108551838968,51.8252905627226 0.633932686389299,51.826181199341 0.633739181027702,51.8262979193403 0.633627869782747,51.8263795321839 0.633528465515444,51.8264662724363 0.633440851749748,51.8265582326705 0.63337330315291,51.8266433598995 0.633276977061525,51.8268074424531 0.63322809928045,51.8269398028616 0.633132985642239,51.8273502058443 0.633033921252876,51.8276662936297 0.632891762506396,51.8277423029892 0.632634026512587,51.8279028065858 0.632254710068859,51.8277701439902 0.63187605100272,51.8276733382767 0.630552346812043,51.8286679460083 0.630153490666037,51.8284485031775 0.629630281293825,51.8281876955012 0.628767212726578,51.8277995320984 0.628517692310889,51.8283744087069 0.628396043161323,51.8287512356869 0.628350964838947,51.829174990546 0.628292305604304,51.8295135471403 0.627740044911586,51.8292758576353 0.625776394737616,51.8284815159072 0.622581367076294,51.8303704071687 0.622486309772183,51.8305839012016 0.622287299338322,51.8310802256815 0.622865912855169,51.831295775065 0.622595411108551,51.8315608341788 0.622385119020007,51.8318137604038 0.622167786345677,51.8320217990911 0.621975308390791,51.8323300707903 0.62185520540585,51.8325369298319 0.621203705047836,51.8323400823442 0.620461189274009,51.8321030036199 0.619135228847998,51.8317152853845 0.618938441353715,51.8319517217918</coordinates></LinearRing></outerBoundaryIs></Polygon>
  </Placemark>
