  <Placemark>
	<Style><LineStyle><color>ff0000ff</color></LineStyle><PolyStyle><fill>0</fill></PolyStyle></Style>
	<ExtendedData><SchemaData schemaUrl="#Wards__December_2019__Boundaries_EW_BFE">
		<SimpleData name="objectid">2478</SimpleData>
		<SimpleData name="wd19cd">E05006389</SimpleData>
		<SimpleData name="wd19nm">Misterton</SimpleData>
		<SimpleData name="wd19nmw"></SimpleData>
		<SimpleData name="bng_e">475900</SimpleData>
		<SimpleData name="bng_n">395381</SimpleData>
		<SimpleData name="long">-0.85859</SimpleData>
		<SimpleData name="lat">53.449749</SimpleData>
		<SimpleData name="st_areashape">20349187.5060975</SimpleData>
		<SimpleData name="st_lengthshape">22376.177324704</SimpleData>
	</SchemaData></ExtendedData>
      <Polygon><outerBoundaryIs><LinearRing><coordinates>-0.894012630451344,53.4365850078741 -0.893490385108175,53.4370475560713 -0.893304280555032,53.4373173113975 -0.893089281500265,53.4375382727708 -0.893104172114075,53.4376579298055 -0.893116601588064,53.4377002813886 -0.893146329999392,53.4377743345737 -0.893189656462424,53.4378457289008 -0.893532121039512,53.4382803362569 -0.893636259879627,53.4383855426927 -0.893129249471939,53.4384896739241 -0.892502671769308,53.4387337805124 -0.892110303186187,53.438600649735 -0.891813222921104,53.4384451270177 -0.891552586118718,53.4382772707057 -0.891353659161799,53.4382853098206 -0.891021883590416,53.438080038303 -0.890500201817837,53.4379942291383 -0.890160591902432,53.4379137922963 -0.889469586703518,53.4377384292222 -0.888592281167466,53.4374965372366 -0.888328779546311,53.4374392699361 -0.887216220131232,53.4372140507049 -0.886846515454767,53.4371315272566 -0.886033159728876,53.4369180705882 -0.884678135253727,53.4366393453126 -0.883851110168882,53.4364321253252 -0.883320688663836,53.4363354187646 -0.882138446609349,53.4360717584904 -0.881617866577723,53.4359455716675 -0.880445580087066,53.4357053519363 -0.8803627369902,53.4356461636318 -0.879795871866998,53.4355105489229 -0.879385695506964,53.4354248371271 -0.878827226329881,53.4353099649042 -0.877481706405386,53.4350132731872 -0.877284895846542,53.4349979444965 -0.8772742365191,53.4350634450298 -0.876946307602632,53.435054972162 -0.875987439924403,53.434936323214 -0.874259376678058,53.4347078885791 -0.873678774787878,53.4346377151874 -0.873584215137081,53.4346278376497 -0.872907110527225,53.4345603464517 -0.87290884306723,53.4344947612119 -0.872554386372525,53.4344617630291 -0.87255289802992,53.4344617489876 -0.871905831746734,53.4343989383007 -0.870957639478447,53.4342812486191 -0.867595085014917,53.4340444523211 -0.866877480115504,53.4339747450197 -0.866244048505973,53.4339040351365 -0.866216117042313,53.4339370194776 -0.864779741389907,53.4338371127247 -0.864209671571263,53.4337687908463 -0.863300178596647,53.4336674934775 -0.863295582763999,53.4336117342163 -0.862932425764393,53.4335705361908 -0.86213322889532,53.4334568883504 -0.861603426086711,53.4333961267441 -0.860938669727209,53.4333744253765 -0.859009673727023,53.4333515296954 -0.858124988493801,53.4333349909094 -0.857601778994198,53.4333156122416 -0.857577584241556,53.4333153809359 -0.856939351913115,53.4333182638645 -0.856497884322485,53.4333329116466 -0.85589760074052,53.4333784777422 -0.85554689386638,53.4333778161443 -0.855454957263091,53.4333814283092 -0.855283051756831,53.4333959573715 -0.855153183755424,53.4334117878366 -0.85506242346584,53.4334270930717 -0.854820100229989,53.4334804875594 -0.854726509104033,53.4334948674096 -0.854554455443585,53.433510292005 -0.853846645077301,53.4335205797442 -0.853310748007368,53.4335253236882 -0.852380246470375,53.4335325666871 -0.852091569026649,53.433523503442 -0.851744685406562,53.4334914139969 -0.851383820097927,53.4334762635564 -0.8508926648239,53.4334373918508 -0.850640145343774,53.4334268756673 -0.850288219155257,53.4334163004815 -0.849738898948532,53.4334128113518 -0.849277311220439,53.4333912922444 -0.847678781922096,53.4333381436407 -0.847528135498878,53.4333420823063 -0.847381520157706,53.433362236271 -0.847255781437087,53.4333951715709 -0.847137024360902,53.4334452478063 -0.84705298240946,53.4334920651026 -0.84678356012303,53.4334319525497 -0.846644392588946,53.4334611628946 -0.846050415222823,53.4336037940482 -0.845650970934559,53.4336799143802 -0.844988715281417,53.4339009612849 -0.844708159033393,53.4340366399586 -0.844508060952903,53.434143440478 -0.844445590352496,53.4341725818294 -0.843835099471306,53.4343697691035 -0.843654573578765,53.4344228388798 -0.843336284797599,53.4345034223695 -0.842461024659284,53.4346378301049 -0.842203741015167,53.4346883571738 -0.842071985986596,53.434718532933 -0.841927976913972,53.4347566780829 -0.841642616599256,53.4348447647262 -0.840978415393999,53.4350810474875 -0.840800885177792,53.4351332431343 -0.840499407552653,53.4352022093046 -0.839175990674793,53.4354356779613 -0.838723854480368,53.4355085675231 -0.83844656231885,53.4356325812194 -0.838363991538281,53.4356794966264 -0.838222391030047,53.4357383291625 -0.838075396565882,53.4357764397686 -0.837428581096551,53.4358698974015 -0.837212616307325,53.4358929579647 -0.83699841149502,53.4359106436646 -0.836822170975434,53.4359152186491 -0.836309833179149,53.4358787775661 -0.836121875221541,53.4358715552902 -0.835873615311553,53.4358682379363 -0.835108782965676,53.435929080649 -0.834727267015666,53.4359515114915 -0.834463646971906,53.4359606224953 -0.834361355004112,53.4359569288736 -0.834253426792861,53.4359414081746 -0.833933793507014,53.4358475265182 -0.83369372666015,53.4357670016575 -0.833561995590763,53.4357369590667 -0.833393936952544,53.4357191426773 -0.833299212361525,53.4357155220221 -0.83315624766896,53.4357150240336 -0.832946754686241,53.4357237622267 -0.832700784138039,53.4357456227285 -0.831672313203216,53.4358658749739 -0.831425947223872,53.4359021069168 -0.831186875629666,53.4359483857101 -0.830650871828309,53.4360644581167 -0.830049107247052,53.4362158304456 -0.82981065902425,53.4362890715575 -0.829522909310497,53.4364084687707 -0.829143155245438,53.4364793364274 -0.827325405127963,53.4367258016329 -0.826407570565937,53.4368202245475 -0.826202561630743,53.436832589706 -0.825436769044163,53.4368142805669 -0.824909515822679,53.4368279682374 -0.824408718410166,53.4368679748326 -0.824051581745904,53.4368788386381 -0.823631609352463,53.4368774015572 -0.823181906638229,53.4368648851738 -0.823077974824356,53.4368665573613 -0.822746201576428,53.43688935011 -0.821693752555342,53.436896050316 -0.821472759758366,53.4368848845762 -0.821404935859399,53.4368869114294 -0.821352150753585,53.4368926812967 -0.821121750735098,53.4369479220278 -0.821026653195569,53.4369577679139 -0.820763298849896,53.4369569661276 -0.820669739330435,53.4369650291033 -0.82055635109919,53.4369809846144 -0.820386826112199,53.4370161554207 -0.820017944552956,53.4370746094848 -0.81940272945888,53.437162890484 -0.820367506756841,53.4394538098446 -0.820486492413142,53.439724667638 -0.820536641923988,53.4398680467403 -0.820639565181718,53.4402304976514 -0.820653359427787,53.4403285862581 -0.820654448801815,53.4404013874081 -0.820646776925888,53.44045882525 -0.820605567591647,53.4405888114879 -0.820515392196552,53.4407478802065 -0.820399723668886,53.4408995985852 -0.820345415922261,53.4409601698605 -0.82016310807637,53.4411291129218 -0.820032624002588,53.4412195755141 -0.819683997861589,53.4414102406587 -0.819502608670151,53.4414921124584 -0.818483740359745,53.4417516365845 -0.817598740782037,53.4419595466054 -0.816725274083366,53.4421316190266 -0.815491825634429,53.4423612248766 -0.813485619521267,53.4426577353213 -0.812894955105985,53.4427300513391 -0.812663620353795,53.4427636993202 -0.811979989293567,53.44287552605 -0.811451754905155,53.4429790991833 -0.810969883176685,53.443089331934 -0.810445061494284,53.4432260951256 -0.810155051285239,53.4433158587894 -0.81004543031814,53.4433561051399 -0.809906812324468,53.4434167311005 -0.809725072080708,53.443505684212 -0.809539970863045,53.4436126661277 -0.809285125760256,53.4437898565411 -0.808178091611849,53.4447154799613 -0.806922946475244,53.4458257235226 -0.806574070786737,53.4461323633916 -0.806233822146156,53.4464543643846 -0.806060769603203,53.4466089997967 -0.805703123281847,53.4469047653759 -0.805541067750926,53.4470479176856 -0.805071610360328,53.447571717547 -0.804575460206872,53.4480818594097 -0.803823212022721,53.449023572144 -0.803629212036337,53.4492823273518 -0.802664695215746,53.4508655173885 -0.802560593570768,53.4510308135911 -0.802325203464667,53.4513700297106 -0.80213456984755,53.4516143482871 -0.801357799442153,53.4524614406413 -0.801050830238402,53.4527756731443 -0.8008838141639,53.4529304523755 -0.80065530429613,53.4531303540314 -0.800331798264526,53.4533878040889 -0.799902995077561,53.4536936212328 -0.799524072771571,53.4539388305192 -0.798982668071035,53.4542875469332 -0.798705221223313,53.4544609829306 -0.798464711223386,53.4546014502484 -0.798189510296675,53.4547479477609 -0.797902472881275,53.4548870471818 -0.797483349537156,53.4550644469113 -0.797731901133988,53.4552197177163 -0.797954632918948,53.4553351864969 -0.798114817449022,53.4554186640809 -0.798388195266468,53.4554995949356 -0.798808264935001,53.4556098583344 -0.799795729420691,53.4558418335214 -0.800094289375995,53.4558798786037 -0.800500260676677,53.4559046221498 -0.800985777321075,53.4559400484708 -0.801775097717914,53.4561448571716 -0.802700969136909,53.4563734949327 -0.804789592461185,53.4570281237578 -0.805188513585027,53.4571408488978 -0.805439954072309,53.4571990779566 -0.808470454226052,53.457777680775 -0.809645014456664,53.4580015548717 -0.810870477942184,53.4581817994816 -0.810950286513811,53.4580765537631 -0.81193685682308,53.4582337421007 -0.81326018689325,53.4584186194974 -0.813542038861033,53.4584645532638 -0.813873075711399,53.458528047302 -0.814031851985916,53.4585610754258 -0.817362555097426,53.4593510053505 -0.817763520262873,53.4594457349313 -0.817943510486941,53.4594753738458 -0.818445761175491,53.459558521748 -0.818745137693276,53.4595686693495 -0.820108119401291,53.4597367884305 -0.822292101633321,53.4600081507157 -0.824675822630795,53.4603012965766 -0.826543118691356,53.4605345082539 -0.828099648148972,53.4607295978745 -0.829507801566566,53.4608970634801 -0.831485952755896,53.4611564460546 -0.834088723433857,53.4614820983463 -0.836037349870556,53.4617195491126 -0.83610049847642,53.4617264545212 -0.838370114492426,53.4620118355701 -0.840524162801971,53.4622826614885 -0.840653146998042,53.4623027840604 -0.841451188805706,53.4624265361852 -0.841683556235908,53.4624629364023 -0.843874759550251,53.4627574267743 -0.846536652399711,53.4630806828633 -0.854694071812549,53.4641110505916 -0.855504620316929,53.464215866955 -0.8575581659013,53.464481828443 -0.86000354757009,53.4647955244147 -0.862905481620848,53.4651665343954 -0.865576257911412,53.4655029288763 -0.868697262240666,53.4659064300114 -0.871657826543634,53.4662876679366 -0.871919281432214,53.4663108039549 -0.872018082098934,53.4662757904687 -0.87230981046362,53.4655036487769 -0.872945726631461,53.4637874093324 -0.873653783747723,53.461905507351 -0.873735876464382,53.4614784394649 -0.873932513830284,53.4615611692602 -0.874101808703509,53.461597811044 -0.874295708318363,53.4616104213521 -0.875039248914927,53.4615158752644 -0.875146672029004,53.4614971168542 -0.875297845465958,53.4614769713341 -0.875438303398896,53.4614629262819 -0.875554456059151,53.4614568305621 -0.875837585878371,53.4614576959244 -0.875915858207361,53.4614611278287 -0.876018194446601,53.4614656848616 -0.876299451570053,53.4614810001236 -0.876926610807895,53.4615138540784 -0.877990508011295,53.4616658294636 -0.87846861126085,53.4616433576709 -0.879054512734791,53.4616443601095 -0.879791326789437,53.4616917062194 -0.880249623356351,53.4617328451819 -0.88110964819763,53.461850622283 -0.881828053839958,53.461851952482 -0.882013608353611,53.4618420061265 -0.882114646614891,53.4618392665477 -0.882524125865484,53.4618430954389 -0.882704735121262,53.4618511641538 -0.882885081796479,53.4618645327171 -0.883346274857576,53.4619137733054 -0.883762526738536,53.4619482155232 -0.883988287779094,53.4619584109385 -0.884437026086046,53.4619617009166 -0.884659399673956,53.4619826474781 -0.884801984976589,53.4620010523508 -0.885788617614956,53.4621171916689 -0.886351362578785,53.4621395099082 -0.886813625903043,53.4620863039863 -0.887137677524636,53.4620183287817 -0.887566173904554,53.461936049037 -0.88774462186976,53.4619080543585 -0.887940539889608,53.4619053846916 -0.887982724343166,53.4619021824969 -0.888895299335851,53.4619106693898 -0.88935089565743,53.4618842605122 -0.889988407346817,53.4618111025925 -0.890622343442177,53.461817886252 -0.891713011303697,53.4618118297935 -0.893206479051195,53.4617798376984 -0.893458236850716,53.4617740813727 -0.894258222146044,53.4617662082008 -0.89458494047187,53.4617719260806 -0.894909958207734,53.4617857146882 -0.895082951823719,53.4617954022655 -0.895816495167428,53.4618498089918 -0.896097763971358,53.4618649879838 -0.896589600580297,53.4618919946298 -0.89682801165737,53.4618789186382 -0.897036313649417,53.46185837498 -0.897244878531713,53.4618324418216 -0.897567561329381,53.4617590350619 -0.89778882053273,53.4617080562169 -0.89807392923183,53.4616324130144 -0.898774830486803,53.4614411728546 -0.899242330310445,53.4612998108459 -0.899442547098401,53.4612459393685 -0.899685071217919,53.4611888614635 -0.899912167282959,53.4611424259921 -0.900083223713574,53.4611116490861 -0.900427775597372,53.4610662035743 -0.900612016410989,53.4610490270074 -0.900921391152565,53.461024014651 -0.901290797241805,53.4610067417901 -0.902107081084067,53.4610115460223 -0.902433772970339,53.4610181405834 -0.902635414072067,53.4610244843997 -0.903104582544688,53.4610539520644 -0.903237012076678,53.4610569649031 -0.903500971094754,53.4610450076114 -0.903810299203582,53.461021784646 -0.904313207935067,53.4609706790067 -0.904823795902952,53.4609106562577 -0.904900811563799,53.4609050713344 -0.905244478180313,53.4608938412261 -0.906929067907914,53.4609281277105 -0.907636377311623,53.4609498696783 -0.908060616836688,53.4609735148655 -0.909584623939946,53.4610422428858 -0.909887369346557,53.4610432070721 -0.910042649234647,53.4610365346991 -0.910216195979119,53.4610246370825 -0.910317288751045,53.4610147754807 -0.910368726988126,53.4610089538829 -0.910598563160817,53.4609715080331 -0.911016111489438,53.4608440217274 -0.911789172323489,53.4605913555791 -0.911918189050065,53.460552990284 -0.912207644615958,53.4604809470836 -0.912441564373243,53.4604633060047 -0.912645071094116,53.4604597647546 -0.912897658152598,53.4604746428733 -0.913116760881586,53.4605071894189 -0.913512706082891,53.4605737831131 -0.914009732350442,53.4606942233779 -0.914686427914451,53.4608549336372 -0.914817026720534,53.4608713968346 -0.914945239101271,53.4608644723735 -0.915131000090709,53.4608409964426 -0.915323610057291,53.4607924205181 -0.915635148589836,53.4606820184882 -0.915986900850125,53.4604748376854 -0.916249020723134,53.4602956897155 -0.917215863598604,53.4595897649426 -0.919099952443878,53.4584643747338 -0.919223097691023,53.4584169619656 -0.919452366120554,53.4583470532458 -0.919635382081784,53.4583136599192 -0.919949522565881,53.4582805517847 -0.920320283527007,53.4582084144699 -0.920444631068265,53.4581771868666 -0.920725659237273,53.458083479162 -0.920850451626123,53.4580297891345 -0.921022798823064,53.4579468727071 -0.921193872493847,53.4578504647516 -0.921314764124876,53.4577741831415 -0.92146535612949,53.4576578198022 -0.92155179036101,53.4575741277175 -0.921637033013687,53.4574786529292 -0.92174162521324,53.4573349157332 -0.921815799776947,53.4572007893153 -0.922108745458664,53.4565130079684 -0.921909330029855,53.4565372710043 -0.921603695527555,53.4565930169008 -0.921254044935775,53.4567246584624 -0.920833572433483,53.4568529641132 -0.920473566609934,53.4569765115943 -0.919984757568419,53.4571257644613 -0.919195942178122,53.4573532719443 -0.917972581278817,53.4577242175192 -0.917528971433936,53.4578775527008 -0.917111451811154,53.4580058708852 -0.916774866549366,53.4581547802238 -0.915536772713843,53.4585120860561 -0.914718118025467,53.4586655129342 -0.914117830393421,53.4588165144418 -0.913062284512057,53.4590406569552 -0.912369679282445,53.4592077948408 -0.911225367455499,53.4594302154332 -0.910744897641092,53.4594887431781 -0.910418911034441,53.4595181236821 -0.910338918649517,53.4595236850415 -0.910089979965015,53.4595411850905 -0.909557754522497,53.4595596965282 -0.909270143750552,53.4595597685195 -0.907468203697909,53.4595226459023 -0.906525695781292,53.4595113328183 -0.907089616961742,53.4587803260322 -0.907675023973296,53.4579757359135 -0.908623234960695,53.4565318406425 -0.908961460500916,53.4559704050265 -0.909764279858598,53.4548477844882 -0.910417977247575,53.4538982242707 -0.912049102970794,53.4515319640527 -0.913424365440023,53.4495668430328 -0.912995622546741,53.446837561952 -0.912533076145159,53.4440728334025 -0.912359969065035,53.4429511977877 -0.912159974110341,53.441526475772 -0.911411222911496,53.4364750665793 -0.91106936381593,53.4363650143887 -0.910669150246182,53.4362363660532 -0.909510680710998,53.4358617633321 -0.909267294357234,53.435784056729 -0.90439544237151,53.434223941543 -0.902339720782892,53.4346760554712 -0.900627336993469,53.4350621871524 -0.895650031733292,53.4361946833559 -0.894012630451344,53.4365850078741</coordinates></LinearRing></outerBoundaryIs></Polygon>
  </Placemark>
