  <Placemark>
	<Style><LineStyle><color>ff0000ff</color></LineStyle><PolyStyle><fill>0</fill></PolyStyle></Style>
	<ExtendedData><SchemaData schemaUrl="#Wards__December_2019__Boundaries_EW_BFE">
		<SimpleData name="objectid">6615</SimpleData>
		<SimpleData name="wd19cd">E05012388</SimpleData>
		<SimpleData name="wd19nm">Streonshalh</SimpleData>
		<SimpleData name="wd19nmw"></SimpleData>
		<SimpleData name="bng_e">490273</SimpleData>
		<SimpleData name="bng_n">509544</SimpleData>
		<SimpleData name="long">-0.6085</SimpleData>
		<SimpleData name="lat">54.473251</SimpleData>
		<SimpleData name="st_areashape">3823584.7705547</SimpleData>
		<SimpleData name="st_lengthshape">11841.4340888005</SimpleData>
	</SchemaData></ExtendedData>
      <Polygon><outerBoundaryIs><LinearRing><coordinates>-0.611362343427315,54.4930234408923 -0.611392182286901,54.4930997293184 -0.611427016507609,54.4931652899135 -0.611480408200159,54.4932755525296 -0.611554966070165,54.4933990902875 -0.611632945828364,54.4935127808623 -0.61173799176286,54.4936479031546 -0.611792982175944,54.4937109987644 -0.611854826699653,54.4937768693368 -0.611942117981797,54.4938663999232 -0.612016960082662,54.493936014685 -0.612115207871458,54.4940211770861 -0.612199143614583,54.4940958393244 -0.612257267742846,54.4941576225302 -0.612372813298049,54.494142321489 -0.612308549704808,54.4940566505846 -0.612201356560081,54.4939848671557 -0.612129190196852,54.493927416563 -0.612040111641278,54.4938450557257 -0.611925241149105,54.4937264480885 -0.61182648547504,54.4936107216518 -0.611746611738367,54.4935073452696 -0.611665016672381,54.4933864231298 -0.611603648898172,54.4932837085219 -0.611563671183436,54.493210449406 -0.611527536785159,54.4931376837938 -0.611485055107886,54.4930244008073 -0.611480431038742,54.4930143705026 -0.611795116214605,54.4929736092166 -0.611829507518049,54.493042736304 -0.611977228306072,54.493057464341 -0.611970477802391,54.4929832386567 -0.611956136290712,54.4928824122295 -0.611938658490856,54.4928058164735 -0.611900612345129,54.4926755080005 -0.611859764689988,54.4925595476029 -0.611805172409749,54.4923935478646 -0.611774850627173,54.4923087157115 -0.611744848415224,54.4922144501746 -0.611718202635012,54.4921350528079 -0.611672319509955,54.4920082493179 -0.611668326958005,54.4920040547681 -0.612220438420054,54.4920238415097 -0.612453871242038,54.4920198976649 -0.612473803267431,54.4918898421887 -0.612520189304473,54.4915686189658 -0.612639538044128,54.491280578662 -0.612807374696418,54.4910191515993 -0.612906155193905,54.4908837111145 -0.613098764107637,54.4906198724531 -0.613143910074756,54.490564682998 -0.613255002404217,54.4904301923464 -0.613534451959785,54.4901089453982 -0.613715911873382,54.4898997873688 -0.613854006682068,54.4896065700116 -0.613951206905373,54.4892427996841 -0.614005196636062,54.4889710807752 -0.614058304290406,54.4885861386284 -0.614084175640727,54.4884157190367 -0.613933764490513,54.4880229630653 -0.613840413663616,54.4879077827214 -0.613657809300146,54.4876917537797 -0.613551290247507,54.487555755961 -0.613369783957658,54.4873073925386 -0.613208234541833,54.4871087663014 -0.613110370077385,54.4869916461686 -0.613115012392494,54.4869899018898 -0.613411347954829,54.4869025515807 -0.613445556158212,54.4868921623079 -0.613533319562506,54.4868563292721 -0.613586861451071,54.4868236988047 -0.613607050065433,54.4867762192937 -0.613609600958799,54.4867007737215 -0.613574513960818,54.4866392732028 -0.613475676219142,54.4865509836174 -0.613402257296966,54.4864863480247 -0.613382211513185,54.4864393058516 -0.613403203048192,54.4863191460273 -0.613452416478453,54.4861435126387 -0.61351666506671,54.4860238488924 -0.613598874964954,54.48591876776 -0.613740202091526,54.4858043908404 -0.613855683524111,54.4857203563828 -0.614031621171728,54.4856325228728 -0.614206429891524,54.4855743264825 -0.614389700820176,54.4854954716098 -0.614548436847687,54.48541193224 -0.614698066571209,54.4853228975162 -0.61490005792528,54.48523985333 -0.615047808564085,54.4852064141275 -0.615246907679374,54.4851637699472 -0.615413132315199,54.4851297330131 -0.615577594783464,54.4851064581752 -0.615611068481814,54.485076292415 -0.615639682683463,54.4850505630355 -0.615661178814836,54.4850094776044 -0.615665748530684,54.4849646050828 -0.615649912214805,54.4849284829675 -0.615610568427799,54.4849063784584 -0.615396348390279,54.4848050887331 -0.615267514139643,54.4847344278726 -0.61515704463289,54.4846702677079 -0.615062118977713,54.4846017916732 -0.614952253198772,54.4845159833462 -0.614824878406558,54.4844022104989 -0.614896475313805,54.4843850599739 -0.614947819413647,54.4843721712117 -0.615122264219578,54.4843283451284 -0.615237444915553,54.4842982166519 -0.615216334962075,54.4842826104323 -0.615116113829842,54.484144889404 -0.615266020241938,54.4840926958151 -0.615521978483825,54.4840093699798 -0.615353993528511,54.4838204666558 -0.615467858855835,54.483784033331 -0.61556779636551,54.4837492370387 -0.615493277557595,54.4836720109426 -0.615419984877701,54.4836036930372 -0.615459413031067,54.4835780875506 -0.61550039746085,54.4835516020062 -0.615565758861059,54.4835343805805 -0.616035418055422,54.4834768623612 -0.616474046190536,54.4834261755238 -0.616687735033132,54.4834034625464 -0.617156758239687,54.4833647115297 -0.61757965101198,54.4833201293732 -0.618174695591045,54.4832541537331 -0.618171914407023,54.483246034838 -0.618127798099269,54.4832257630901 -0.617883339399424,54.4830135261562 -0.617853800458564,54.4830176813822 -0.617825029100185,54.4829122263485 -0.617810537523345,54.4828815115698 -0.617779966363683,54.4827841230512 -0.617774398751568,54.4827642919094 -0.617752973504552,54.4827127417176 -0.617733071244923,54.4826612997104 -0.617722215515097,54.4826171485786 -0.617695376607964,54.4825449609978 -0.61776413988629,54.4824720689963 -0.617747499219253,54.4823729532247 -0.617721443508785,54.4823681623686 -0.61769846191769,54.4821324899911 -0.617690889622491,54.4820361732976 -0.617667382906999,54.4817707537875 -0.61765887775734,54.4817059641636 -0.617639687589697,54.4814936958609 -0.617633117354641,54.4814620829856 -0.617635310837618,54.4814423414777 -0.617632741790965,54.4814279354187 -0.617614570090329,54.4812345483684 -0.617607497850065,54.4811687864758 -0.618972296917509,54.4810657811219 -0.61937617304814,54.4810371495845 -0.619791129298791,54.4809969619206 -0.620156512626978,54.4809624975106 -0.620272943004069,54.4809440588608 -0.620412796429254,54.4809178011856 -0.620624084409154,54.4808751964624 -0.620912677031031,54.4808308677126 -0.62098585304647,54.4808119358514 -0.620981778147785,54.4807022703426 -0.620965082858749,54.4806499666885 -0.621319409608483,54.4806225600963 -0.621565828300778,54.4805948209165 -0.621714539518129,54.4805775578358 -0.621916179942014,54.4805493074292 -0.622060127496911,54.4805374703042 -0.622060157680921,54.4805365718812 -0.621959039335044,54.47973197186 -0.621647758413296,54.4782023037996 -0.621544618865583,54.4775037040378 -0.621544649027311,54.477502806513 -0.621447702209536,54.4773129239082 -0.621384303679019,54.4771774244523 -0.621313006424803,54.4770498312131 -0.620753415363639,54.4761096257368 -0.620658212243985,54.476004313002 -0.620570044626428,54.4759206437063 -0.620526510311746,54.4758833082439 -0.619994338248794,54.4756004030992 -0.619634000964114,54.475437162246 -0.618839930074582,54.4752349130864 -0.618501869385854,54.4751887299261 -0.618472118808923,54.4750670911936 -0.618466560830989,54.4748656710682 -0.618463429277425,54.4747281631679 -0.618482213483456,54.4745369049832 -0.618514678191749,54.4745363772217 -0.618594507733372,54.4745462744727 -0.61869874550424,54.4745681318718 -0.618798003079096,54.474598108381 -0.618931760515776,54.4746616336444 -0.619292009294709,54.4747780625114 -0.619487879679364,54.4748297173874 -0.620478404209966,54.4750208173632 -0.620731953926992,54.4750524630224 -0.620882851351001,54.4750604741783 -0.621327234515794,54.4750628475921 -0.621446425822144,54.4750525264607 -0.621713233625326,54.4750115416452 -0.622316975294945,54.4748646883286 -0.622429131597646,54.4748327209965 -0.62254001067796,54.4747971457295 -0.62277472341444,54.4747000853726 -0.622898810102731,54.4746349190868 -0.623078728633508,54.474517466413 -0.623420814413183,54.4742085907727 -0.623505743829398,54.4740702882327 -0.623524682723025,54.4740102135665 -0.623531197570107,54.4739563768938 -0.623527937546478,54.4739132114502 -0.62351995579114,54.473878078466 -0.623279649185007,54.4734026353529 -0.623163472317627,54.4732323023023 -0.623066834502896,54.4731242786546 -0.622778042725041,54.4728540409975 -0.622430778338564,54.4726693929848 -0.622382937279399,54.4726239219256 -0.622367016518271,54.4725940900985 -0.622371909140153,54.4725393362173 -0.622394768175799,54.472502757969 -0.622420724110161,54.4724194026167 -0.622455459984072,54.4723056871234 -0.622463375041384,54.4722518664474 -0.622463593520513,54.4716011663157 -0.622487055076335,54.4715466249192 -0.622123870031151,54.4713779678934 -0.621810178848685,54.471254889806 -0.621733551085671,54.4712369449394 -0.621613688758741,54.4712221003327 -0.621133349414283,54.4712345923405 -0.62097632623969,54.471223816172 -0.620879702130784,54.4712065405195 -0.620769545896414,54.4711792275282 -0.620656698375844,54.4711374171351 -0.620544365623497,54.4710840210808 -0.620473292177037,54.4710409804401 -0.620450779182524,54.471021854757 -0.620429413870615,54.4709685988147 -0.620408531863877,54.4709009716676 -0.620408031625797,54.4708704167846 -0.620430454636297,54.4708013973304 -0.62049204551612,54.4707140459616 -0.620577621434883,54.4705982157225 -0.620619065728338,54.4705159353349 -0.620632715680626,54.4704316310226 -0.620629428716386,54.4703893639318 -0.620620007889941,54.4703479247199 -0.620586758724377,54.4702810552479 -0.620416723238965,54.4701541319632 -0.620348612004894,54.4701138195562 -0.620265111405098,54.4700733323613 -0.620155503883702,54.4700298517017 -0.619843664278043,54.4699391354018 -0.619777797891298,54.4699267029676 -0.619602602916057,54.4699040371082 -0.619413429509393,54.4698847147555 -0.619051252833595,54.4699175065458 -0.618957146564233,54.4699200256467 -0.618847700260069,54.4699133844089 -0.618743389005988,54.4698978158472 -0.618669947229021,54.469879815552 -0.618578389215776,54.4698482201145 -0.618079789459545,54.4697158305362 -0.617910635387015,54.4696536960979 -0.617834647801119,54.4696168872478 -0.61728519657918,54.4693023235339 -0.616967620276528,54.4691557365451 -0.616442140339948,54.4689493549215 -0.616257666541208,54.46888515628 -0.616105686249055,54.4688609534395 -0.616030355522605,54.468853801384 -0.615846750713738,54.4688543945025 -0.615765067361557,54.4688507637194 -0.615466581583301,54.4688248822724 -0.615210971704883,54.46881027383 -0.615064762284261,54.4687960195633 -0.614933811753216,54.4688385462975 -0.614903090808434,54.4688328034576 -0.614849616628357,54.468815118566 -0.614801030411257,54.4687920988415 -0.614725812061199,54.4687364280568 -0.614686161972069,54.4686748743668 -0.614673905779992,54.4686271125721 -0.614626253833752,54.4685312347996 -0.614615596115355,54.4685266196995 -0.614565029988033,54.4685170551425 -0.614440386607741,54.4685084381164 -0.614073335221782,54.4685464607369 -0.613988387807786,54.4685490809195 -0.613883529195581,54.4685460809978 -0.613780506115221,54.4685377121104 -0.613697601625117,54.4685250800193 -0.613555241934265,54.4684911014205 -0.613337842213132,54.4683924662375 -0.61324301914999,54.4683221928911 -0.613207468911184,54.4682786566509 -0.61317322716351,54.468196409201 -0.613170560244528,54.4681397722572 -0.613121659819894,54.4678965225719 -0.613095545616292,54.4678486016058 -0.613058499294875,54.46780415028 -0.61302399091985,54.4677750017658 -0.612902024343055,54.4677286762923 -0.612703015370691,54.4676356427026 -0.612403656211614,54.4674101842578 -0.612300805437372,54.4673479042346 -0.612100587509932,54.4672907068125 -0.611607553274652,54.4670442426311 -0.611425895404302,54.4669837529565 -0.611134298750615,54.4669389812317 -0.61107396547213,54.4669436788137 -0.611035585985744,54.4669387457537 -0.611006542913849,54.4669285282426 -0.610983975809111,54.466911196775 -0.610972462391596,54.4668868048572 -0.610971452314128,54.466871518645 -0.611054086596732,54.466711633989 -0.611058689375868,54.4666658630188 -0.611047147074896,54.466642278748 -0.61102470167208,54.466621355381 -0.610986837816038,54.4666011527063 -0.610939600860888,54.4665835386221 -0.610870592740347,54.4665701663821 -0.610457545019091,54.4666031555652 -0.610176727041378,54.4666008258344 -0.609952577058354,54.46656680035 -0.609680612328056,54.4664908926869 -0.609472064450091,54.4664507561608 -0.609281678173361,54.4663326575789 -0.609127021116053,54.4662076924683 -0.608999126148781,54.4660175326573 -0.608891009069723,54.4659757655139 -0.608569062766929,54.4658696287264 -0.608465925747951,54.4658648472549 -0.608404676022714,54.4658515629164 -0.608354384154432,54.4658303184574 -0.60832281424957,54.4658083907592 -0.608300523005611,54.4657829756953 -0.608250133026863,54.4656295576031 -0.608196298082837,54.4655777230332 -0.608062133977091,54.4654863261389 -0.607931544517629,54.4654695476402 -0.607717391620877,54.4655048187666 -0.607541652662835,54.4655477204173 -0.607444375686625,54.4655501939541 -0.607359740482247,54.4655438280423 -0.607269208155795,54.4655275094329 -0.607141090838456,54.4654829047291 -0.606614128238799,54.4653717055852 -0.606340007521138,54.4653559661391 -0.606252659282298,54.4653395944992 -0.606174493705116,54.4653225197882 -0.606107996861384,54.4652840153555 -0.606017953760742,54.4652533255923 -0.605902600890345,54.4652412135708 -0.605785269459295,54.4652461498896 -0.605725365334371,54.4652382705418 -0.605688788109836,54.4652252694127 -0.605651015334885,54.4651987764988 -0.60563034889445,54.4651742784505 -0.60562716925195,54.4651293157621 -0.605639045801234,54.4650980047388 -0.605531119067943,54.4649609939122 -0.605476891669504,54.4649208340283 -0.605431306449224,54.4648996426442 -0.605388625239035,54.464886570999 -0.605324077260157,54.4648768403274 -0.605240816473792,54.464874981746 -0.60516802827257,54.4648831268518 -0.605113653459452,54.4648959773652 -0.605066694639276,54.4649152021444 -0.605003798741467,54.4649504172781 -0.604841335374388,54.4649620201873 -0.60467603937639,54.4649708938639 -0.60436778689354,54.4649601467618 -0.604255516565522,54.4649471699839 -0.604149698359881,54.4649315721932 -0.603689828219697,54.4647968744616 -0.602918961452985,54.46468733345 -0.602735625309891,54.464635706331 -0.602558482678956,54.4645815440976 -0.602229177589001,54.4644195984681 -0.602077355093379,54.4643018444969 -0.601730210793408,54.464301423427 -0.601514660057199,54.4643366663623 -0.601346553087557,54.4643347211666 -0.601216798044956,54.4642451659784 -0.600998170098581,54.4641878257823 -0.600905540415159,54.4641436250946 -0.600864970099748,54.4641135040691 -0.600802598608359,54.4640400021666 -0.600740505608058,54.464006847544 -0.600715167918556,54.4639813957751 -0.600699756182668,54.4639371900913 -0.600710229372038,54.4638986749187 -0.600684877436713,54.4637393445513 -0.600580719697063,54.4636266324385 -0.600548728988095,54.4635687576826 -0.600461494984883,54.4633663902377 -0.600368910955251,54.4632314388017 -0.600280126852649,54.4632573666229 -0.600387322389298,54.4634599653622 -0.600376359731934,54.4637366701907 -0.60032093506404,54.4645933915197 -0.60027702901282,54.4648400651988 -0.600002703562413,54.4655091570276 -0.599796394678749,54.4659481173481 -0.599344800066939,54.4668830014605 -0.599153366622499,54.4672025403858 -0.599155459816956,54.467323863716 -0.599179441594278,54.4674337611895 -0.599210356947426,54.4675231616426 -0.599294392553877,54.4676813755398 -0.599391532128449,54.4678209622906 -0.599287513797681,54.4679275789041 -0.598849353474158,54.4682891838725 -0.598269745680626,54.4688136652852 -0.597431422774363,54.469685652164 -0.596871013844307,54.4702354182545 -0.596152973260942,54.470970421366 -0.597025888377192,54.4712537943225 -0.597118497425409,54.4712988963709 -0.59771573799758,54.4716150045277 -0.597888767976211,54.4717454999974 -0.597989033192773,54.4718347164583 -0.598093541672784,54.471937550787 -0.598166147046328,54.4720282438382 -0.598236596137532,54.4721783044028 -0.598311689379744,54.4725090195469 -0.598340746368525,54.4726081924955 -0.598417218897042,54.4727645224975 -0.598452676991427,54.4728998004471 -0.59837365968251,54.4730004165526 -0.598345644497325,54.4730495097043 -0.598323340292082,54.4731176277389 -0.598311692406871,54.4731866782321 -0.598307426693227,54.4733115219219 -0.598298318618994,54.4733509514238 -0.59823974206837,54.473396994746 -0.598206047414314,54.4734335326879 -0.598184110387301,54.4734871892416 -0.598182761675962,54.4737091061034 -0.598259337549307,54.4739517840443 -0.598245100828704,54.474141295465 -0.598368726851687,54.474451906914 -0.598423680246444,54.4745603659811 -0.598470032481355,54.4746040318073 -0.598483037058064,54.4746293409651 -0.598483856935074,54.4746500167958 -0.598449697762263,54.4747485465937 -0.598481509717532,54.474811811379 -0.598572525741778,54.4749485422698 -0.598728089530342,54.4751364279794 -0.598932004786002,54.4753131926065 -0.598965897408498,54.4753603080066 -0.598976886023792,54.4753999704741 -0.598966795008627,54.4754681402887 -0.598871945014439,54.4756261673121 -0.598884190984021,54.4758078087199 -0.59894152420475,54.4759360626656 -0.599005648988193,54.4760033858709 -0.599069072648045,54.4760427563517 -0.599172446223087,54.4760897790203 -0.599319538293157,54.4762091882195 -0.599347816705771,54.4762418626184 -0.59932236356214,54.4763090455586 -0.599448738311804,54.4765396305708 -0.599465771702856,54.4765848437166 -0.599424256663655,54.4766715182556 -0.599398754412939,54.476874287293 -0.599268722612552,54.476974401864 -0.599350893532273,54.4771020446078 -0.599476012052973,54.47714213058 -0.599612788520841,54.4772507280957 -0.59961275787926,54.4772516256119 -0.599808601823853,54.4773931640059 -0.599949505291046,54.4774666769125 -0.600035257431228,54.4775342500123 -0.600037935776015,54.4775899885845 -0.600016671766996,54.477672405785 -0.600020134748007,54.4777946435383 -0.600041053182159,54.4778155512094 -0.600146746748651,54.4778842539291 -0.600325426790832,54.4780291859667 -0.60039114069626,54.478139565272 -0.60050194360378,54.4781480364527 -0.600533385710961,54.4782670937825 -0.60053554928084,54.4783416951451 -0.600558632724189,54.4783886858154 -0.600653688040844,54.4785417241013 -0.600748667516895,54.4786075169597 -0.60074985633317,54.4786174135911 -0.600720839088295,54.478654815255 -0.600715402100165,54.4786799106806 -0.600726453000361,54.4787177761358 -0.600739981151083,54.4787278164944 -0.600817675686673,54.4787556716809 -0.600829494212415,54.4787710830615 -0.600863417286809,54.4788659094123 -0.600910659447371,54.4789284533071 -0.600951091098619,54.4789630645951 -0.601055327631168,54.4790298622042 -0.600702907791697,54.4791804175742 -0.600463715698414,54.4792683982978 -0.600042541539579,54.479446009528 -0.599696713154044,54.4795821717311 -0.599114753250259,54.479768699729 -0.599042759208616,54.479797515831 -0.598857896856828,54.4798744426046 -0.598346963736816,54.4801049185113 -0.598231340281192,54.4801889367054 -0.598146360403402,54.4802364704722 -0.59806006776965,54.4802777002642 -0.597994397371834,54.4803038936729 -0.59790865559779,54.4803290462619 -0.597791910269866,54.4803564447127 -0.597625687200939,54.4803868623747 -0.59735656908985,54.480538284525 -0.596717999600038,54.4807978218034 -0.595781259331248,54.4811536273411 -0.595088154840741,54.481381074657 -0.594924475992219,54.4816973360288 -0.594770971297956,54.482125130552 -0.594725000729892,54.4823376334046 -0.594685483562437,54.4825475158428 -0.594681615511738,54.4828386794874 -0.594695947323875,54.4830517934078 -0.594682408313827,54.4833131923993 -0.594619952718693,54.4836018773915 -0.594555267511923,54.4837773237903 -0.59444346171752,54.4839350612152 -0.594398963718499,54.4840154097472 -0.594330405363248,54.4841701446862 -0.594293714859127,54.4842937132121 -0.594283030458865,54.4843826309721 -0.594298390582544,54.4846065393622 -0.594428578209106,54.4851787877986 -0.594498180143187,54.4856694658204 -0.594487382953219,54.4859398824299 -0.594465541665706,54.4861723432326 -0.594442221732275,54.4863105329075 -0.594424457234544,54.4863795118321 -0.594415556347879,54.4864126529227 -0.594339625444415,54.4866041417701 -0.594289076682407,54.4866826232576 -0.594203387687305,54.4867948394642 -0.594057133698971,54.4869621486978 -0.59376794123655,54.4872481961766 -0.593332412332016,54.4878372258877 -0.592915399850615,54.4882942983654 -0.592408725282371,54.4888860900512 -0.591871756761857,54.4895004508355 -0.59187803660057,54.4895014074652 -0.592007511663478,54.4895074092015 -0.592111369932782,54.4895400755721 -0.592207327230388,54.4895780424681 -0.592333222633616,54.4895983824767 -0.592466308832107,54.4895891466895 -0.592590320757699,54.4895744125104 -0.592690908218149,54.4896124329175 -0.592806679878754,54.4896128816724 -0.592924426418578,54.4896007705346 -0.59305809997821,54.4896194027696 -0.593163132660124,54.489662867122 -0.59325865966926,54.4897134109319 -0.593365266846397,54.4897559946558 -0.59349150241983,54.48976645095 -0.593606224413851,54.4897525064234 -0.593736440126323,54.4897369444637 -0.593854155951468,54.4897257308313 -0.593971686852438,54.4897199075468 -0.594103353122479,54.4897070583687 -0.594206499160093,54.4896705094463 -0.594290815376175,54.4895977907583 -0.59432861941402,54.4895308226322 -0.59444794252895,54.4895627680132 -0.594558903030859,54.4896134902073 -0.594625976301453,54.489683475074 -0.594723048398756,54.4897340356742 -0.594848699244749,54.4897615603571 -0.594993915681703,54.4897587541454 -0.595116384040951,54.4897439994392 -0.595254838563806,54.4897132525145 -0.595277239784402,54.4896452063713 -0.595228499296159,54.4895808274939 -0.595173432205009,54.4895208689271 -0.595126327585647,54.4894538127071 -0.595242934083266,54.4894749405104 -0.595356450062459,54.4894510938631 -0.595435426292615,54.489398984029 -0.595505358538774,54.4893404777026 -0.595575136711255,54.4892864633899 -0.595681489881723,54.4892463554015 -0.595700803733608,54.4891782733203 -0.595731135275063,54.4891040278251 -0.595814349398827,54.4891535278251 -0.595929499656909,54.4891270033212 -0.596053267881162,54.4891643913521 -0.596090806872575,54.4892403238171 -0.596180845633335,54.4893159670934 -0.596298282791161,54.4893128367726 -0.596424302510978,54.4893295788812 -0.596410639743684,54.4894130057383 -0.596292033458972,54.4894502757996 -0.59630627120045,54.4895304314982 -0.59631927336893,54.4896015851639 -0.596443068724689,54.4895931359046 -0.596551954718432,54.4895692343879 -0.596673407196933,54.4895841256767 -0.596567392385962,54.4896143520101 -0.596490021887523,54.4896646836789 -0.596424412562487,54.4897322284363 -0.596403279598572,54.4898083784186 -0.596470786928612,54.4898657845179 -0.596552306489544,54.4899197581584 -0.596624413139692,54.4899781163253 -0.596690091842159,54.4900438596169 -0.596743301322187,54.490108559381 -0.596784115892064,54.4901745532944 -0.59685079738848,54.490233567369 -0.596918693329109,54.4903022123194 -0.597010568230858,54.4903468687425 -0.597114171368015,54.490387167339 -0.597201109536289,54.4904407540143 -0.597274914961453,54.4904946376453 -0.597371729080041,54.4905393510913 -0.597468127188825,54.4905872053209 -0.597552689237904,54.4906380678677 -0.597652466241866,54.4906774228429 -0.597777208657467,54.4906865091621 -0.597883981645531,54.4906567399367 -0.597997491150797,54.4906782785153 -0.598083951319901,54.490723320702 -0.59818952979794,54.4907510585127 -0.598318315008123,54.490754798536 -0.598430304905956,54.4907304819184 -0.598550813291436,54.4907053651703 -0.598654188273612,54.4906620743604 -0.598767037498894,54.4906126018895 -0.598880988532749,54.4905986434182 -0.599014445042629,54.4905786194851 -0.599053846971505,54.4905098709148 -0.599179725006086,54.4904857145322 -0.599308770392894,54.4904818169919 -0.599444545534691,54.4904842886467 -0.599553861845413,54.4904478066584 -0.599501409017556,54.4903788927225 -0.599515300412314,54.4903111966542 -0.599431445941151,54.4902576473824 -0.599424534396884,54.4901888115699 -0.59950306410696,54.490240052249 -0.599624668683614,54.4902279792744 -0.599571383016712,54.4901608532548 -0.599635076411858,54.4901040698468 -0.599742368187559,54.4900590259491 -0.59980334292029,54.4899914257525 -0.599815935906998,54.4899165244692 -0.599839918936267,54.4898471476976 -0.599932268460788,54.4897875503046 -0.600034176498001,54.489832320602 -0.600145095117689,54.4897940591075 -0.600188939995697,54.4897307542248 -0.600299315744472,54.4897536025226 -0.6004306937964,54.4897717506176 -0.600532183401028,54.4898061798178 -0.600650909294431,54.4898331688999 -0.6007694616326,54.4898426298832 -0.600882571805364,54.4898079881503 -0.600898356506764,54.4897299780128 -0.601023418707113,54.489729627635 -0.601086318081876,54.4897865284129 -0.60105682861183,54.4898589873926 -0.601185948512325,54.4898528418041 -0.601270717921069,54.4897891112466 -0.601385386075984,54.4897540376867 -0.601306125476783,54.4898146863658 -0.601227094528702,54.4898685968926 -0.601144747015811,54.4899292097544 -0.60118426850794,54.4899925807514 -0.601274144432121,54.4900506922979 -0.601387102433522,54.4900883991321 -0.601511522176028,54.4901069149315 -0.601648251725613,54.4901040025511 -0.601619657200145,54.4901728769397 -0.601659133693703,54.4902375954038 -0.601542209674365,54.4902029886424 -0.601499107334266,54.4902672013577 -0.601438456762311,54.4903253690811 -0.601389273090216,54.4903868151093 -0.60139907524518,54.4904615262133 -0.601514742283408,54.4904651110856 -0.601616340495366,54.4904285379698 -0.60172347923104,54.4904558413513 -0.601793309989732,54.4905132713027 -0.601913013471132,54.4904890407048 -0.601937841525646,54.4904174264018 -0.601937052772103,54.4903500097127 -0.601995418449058,54.4902909165691 -0.602096152285461,54.4902570293849 -0.602104862437145,54.4903411648611 -0.602064663517586,54.4904108039377 -0.602059248847803,54.4904790476646 -0.602143878858098,54.490532604072 -0.602250648340232,54.4905028309943 -0.602361909594688,54.4904771542018 -0.602484490778951,54.4904817168663 -0.602360454795493,54.4905198288409 -0.60225434976909,54.4905527553834 -0.602167648291564,54.490605229673 -0.602076669110641,54.4906473186145 -0.601970921569374,54.4906923824057 -0.601897787073565,54.4907544504406 -0.602023813604848,54.4907711867705 -0.602156564666037,54.4907718229004 -0.602266773526921,54.4907317537448 -0.602377263766691,54.490706068022 -0.602492900973217,54.4907105504023 -0.602547147519136,54.490772293607 -0.602593570730828,54.4908370920497 -0.602713982047625,54.4908600541273 -0.602834540390594,54.4908560547613 -0.602896932057485,54.4907920644941 -0.60299027154196,54.4907486540607 -0.603078423705695,54.4906988922499 -0.603185857454201,54.4906722717089 -0.603279860863449,54.4906320144106 -0.603352765330416,54.4906899283371 -0.6034831553819,54.4906918838883 -0.603611092859266,54.4906978554252 -0.603738304642699,54.4907024702948 -0.603816084436848,54.4907532501014 -0.603698162649794,54.4907478438372 -0.603586888250089,54.4907285833407 -0.603469119584698,54.4907186847842 -0.603348172641841,54.4907114456998 -0.603235864244763,54.4907452002084 -0.603143097687827,54.4907944594371 -0.603062958855526,54.4908582447769 -0.602958265266589,54.490917701883 -0.602945876675777,54.4909867638194 -0.60291967513207,54.4910534192234 -0.602901113333006,54.4911224098209 -0.602865483569899,54.4911938994853 -0.602929425851893,54.4912656409884 -0.603039206719952,54.491238148925 -0.603083033423716,54.4911752922082 -0.603140734154934,54.4911130451534 -0.603218512550806,54.4910505806437 -0.603317857036404,54.4910121825526 -0.603435344539982,54.4910076977269 -0.603544597562711,54.4909730089737 -0.603547817345361,54.4909011447791 -0.60363817292191,54.4909453291945 -0.603751502759582,54.4909722528985 -0.60378635356664,54.4910369172247 -0.60391148097202,54.4910347670806 -0.604042178069183,54.4910277378952 -0.60415865757783,54.491007512302 -0.604280751206971,54.4910264477799 -0.604396324159011,54.4910192436171 -0.604531729444161,54.4909872825229 -0.604647826382185,54.4909782866339 -0.604777789389062,54.4909928185936 -0.604887368949311,54.4910165522641 -0.604926033920129,54.4910826084129 -0.604902898838808,54.4911726675548 -0.604849585936938,54.4912421562047 -0.604819559681031,54.4913078690992 -0.604811017022196,54.4913774249689 -0.604841163542377,54.4914442816071 -0.604904781345684,54.4915029861733 -0.60500930448176,54.4915392441161 -0.605127259308903,54.4915437507001 -0.605264268554762,54.4915327485568 -0.605389084210401,54.4915171117735 -0.605518789397946,54.4914938917374 -0.605632182952807,54.4914736291292 -0.605741221519202,54.4914452272916 -0.605861047672953,54.491417399131 -0.605977557974493,54.4913962733728 -0.606100493657636,54.4913905006184 -0.606233384312681,54.491387089416 -0.606368070690025,54.4913989778033 -0.606486201440552,54.4914210110439 -0.606602376802973,54.4914551549851 -0.606706534948085,54.4915021924474 -0.606836317201081,54.491522112696 -0.606982731539754,54.4915296416992 -0.607101085211195,54.4915678547042 -0.607195075445759,54.4916188190488 -0.607306247190861,54.4916412206973 -0.607420887126154,54.4916524276056 -0.607534694446635,54.4916654223488 -0.607653567747502,54.491688361758 -0.607763281808353,54.491730968446 -0.607872486416754,54.4918113173652 -0.60789259150545,54.491878506973 -0.607902604133052,54.4919473779074 -0.607917231473158,54.4920167513563 -0.607938178382337,54.4921046222794 -0.60795498353049,54.4921780652455 -0.607986694328963,54.4922444896879 -0.60803544278812,54.4923093127396 -0.608116997770821,54.4923628294811 -0.608236645085042,54.4923857772111 -0.60835830858195,54.4923948171471 -0.608469376343175,54.4924203621928 -0.608562177578925,54.4924609759484 -0.608675032908678,54.4924793512431 -0.608791264644334,54.4924892270011 -0.608915289304578,54.4924969453925 -0.609005509270878,54.4924543932111 -0.609049373920759,54.4923901866722 -0.609080952804436,54.4923240412484 -0.609104150002248,54.4922546537115 -0.609106436114089,54.492187272528 -0.609164870378141,54.492125929854 -0.609273653430589,54.4921505491145 -0.609343497693384,54.4922079747663 -0.609398528218029,54.4922697238283 -0.609460534340967,54.4923306543237 -0.609582898802239,54.4923190294618 -0.609606323677575,54.4922429037047 -0.609592693589379,54.4921668012024 -0.609565640656039,54.4920995319971 -0.609540237773981,54.4920291360783 -0.609521175815182,54.4919538698618 -0.609503367743835,54.4918871563426 -0.609614430291338,54.4918673125785 -0.609731899168992,54.4918861893334 -0.609842179548277,54.491912173452 -0.609968740978546,54.4919360977349 -0.610084281070218,54.4919207988489 -0.610186631818697,54.4918846766161 -0.610243566411503,54.4918219680428 -0.610283813807801,54.4917505293579 -0.610279153076138,54.4916830683114 -0.610232462820279,54.4916029908084 -0.610197316996067,54.4915239447555 -0.610163577538662,54.491448959306 -0.610123330008406,54.4913837854616 -0.610051851356792,54.4913290377626 -0.609962320504178,54.4912830701394 -0.609868840253633,54.4912397533384 -0.609809073895093,54.4911810957069 -0.609768827186822,54.4911159217463 -0.609772142695276,54.4910409128687 -0.609896454587984,54.4910445891339 -0.610002664405368,54.4911177115586 -0.610124096253571,54.4912017940724 -0.610196965785999,54.4912610515507 -0.610422820101179,54.4914528378663 -0.610616348121223,54.4916190868113 -0.610710896713921,54.4916992647153 -0.610800302881215,54.4917717439428 -0.61086863580626,54.491828252575 -0.610982065790444,54.491920780537 -0.611173678945,54.4920753225916 -0.611269792605252,54.4921321500975 -0.611403448331629,54.4921745790577 -0.611489017939075,54.4922236457748 -0.61155414419717,54.4922837122428 -0.611589719242848,54.4923501800756 -0.611608800392917,54.4924249967725 -0.611650897297777,54.4925724284188 -0.611700780048431,54.4927407109398 -0.611743090836055,54.4928134575459 -0.611748574158724,54.4928380999573 -0.611431407646679,54.4929080236406 -0.611338343304949,54.4929571059435 -0.611362343427315,54.4930234408923</coordinates></LinearRing></outerBoundaryIs></Polygon>
  </Placemark>
