  <Placemark>
	<Style><LineStyle><color>ff0000ff</color></LineStyle><PolyStyle><fill>0</fill></PolyStyle></Style>
	<ExtendedData><SchemaData schemaUrl="#Wards__December_2019__Boundaries_EW_BFE">
		<SimpleData name="objectid">5576</SimpleData>
		<SimpleData name="wd19cd">E05011305</SimpleData>
		<SimpleData name="wd19nm">Swavesey</SimpleData>
		<SimpleData name="wd19nmw"></SimpleData>
		<SimpleData name="bng_e">536355</SimpleData>
		<SimpleData name="bng_n">266824</SimpleData>
		<SimpleData name="long">-0.00252</SimpleData>
		<SimpleData name="lat">52.282661</SimpleData>
		<SimpleData name="st_areashape">26621706.5876522</SimpleData>
		<SimpleData name="st_lengthshape">27525.5594541872</SimpleData>
	</SchemaData></ExtendedData>
      <Polygon><outerBoundaryIs><LinearRing><coordinates>-0.057151223713439,52.2927787587317 -0.056395198300772,52.2924606015024 -0.052803805883694,52.2909258853178 -0.049990783508365,52.2896332243822 -0.044985927266745,52.2874069390528 -0.042843677996312,52.2864767691726 -0.042820636966356,52.2864673983361 -0.040317938370742,52.2854341262299 -0.039044726736046,52.2849139156802 -0.038580982225801,52.28472544256 -0.037761439014766,52.2843926245104 -0.034727614742187,52.2831724201266 -0.032229462599154,52.2821101923974 -0.031502178042384,52.2817815633518 -0.030149208152866,52.2811809094697 -0.02949211044261,52.2808893944908 -0.028688715898994,52.2805280152896 -0.027886702963786,52.2801657542958 -0.026644001943895,52.2795937781741 -0.026177890514377,52.279360269734 -0.025420359172174,52.2790886265619 -0.024300295259178,52.2785924762447 -0.023258593545592,52.2781856311192 -0.022599723985203,52.2778706751365 -0.02259815363659,52.277870648842 -0.019638369892842,52.2764588223481 -0.015729523444659,52.27466770304 -0.012182702990739,52.2730820969587 -0.012044824226451,52.2730195475107 -0.007429086463865,52.2709247936218 -0.004055635656201,52.2695073570737 -0.004154340932277,52.2694299199326 -0.004256801692669,52.2692688560016 -0.00427379291605,52.2692188030924 -0.004314170407573,52.2691673472021 -0.004407680428486,52.2691087004895 -0.004554285962039,52.2690409721096 -0.004839201188953,52.268866900999 -0.004980578162604,52.268721775965 -0.005075054939018,52.2686388732731 -0.005715880652553,52.2682405981657 -0.005860267954066,52.2681575490096 -0.006267785331076,52.2678308394391 -0.006665274095823,52.2674958691423 -0.007005440220068,52.2671994822873 -0.00758002027161,52.2666742293994 -0.007772168375358,52.2667035410749 -0.008047036387868,52.2665238096471 -0.008402637043032,52.266403060704 -0.008845253504882,52.2663709756011 -0.008989747494646,52.2664498224377 -0.009356538895628,52.2666052309934 -0.00975194613149,52.2667423341665 -0.010006522384055,52.2666215844915 -0.009842621949376,52.2663877963467 -0.009841052034536,52.2663877698765 -0.00965679088586,52.2661499523788 -0.009452648117698,52.2658326932133 -0.009189465126419,52.2653282690511 -0.009566707219785,52.2652501318357 -0.010279932239109,52.2649977814188 -0.010424742316791,52.2649723557164 -0.010803431063674,52.2649589616165 -0.010888795427009,52.2649523102352 -0.011011508353573,52.2649265105276 -0.011175152825586,52.2648717370789 -0.011245381589341,52.2648414578153 -0.011367009421798,52.2647777953354 -0.011511452372286,52.2646930319045 -0.011656778270418,52.2645912048973 -0.011982435867254,52.2642559053913 -0.012150895810858,52.2640285262744 -0.012189327209506,52.2639878234624 -0.012325273426089,52.263863273459 -0.012396344733662,52.2638141301599 -0.012891157838244,52.2636300902519 -0.013407426350987,52.2634903671089 -0.013601002221229,52.2634199132326 -0.013640359288702,52.2633936080447 -0.013779118672571,52.2632709012159 -0.013795051428923,52.2632442017903 -0.013812551312378,52.2631797736364 -0.013766283013354,52.2629686444313 -0.013662703607892,52.2626962340945 -0.013574407765574,52.2623116239277 -0.013578148646226,52.2622928093344 -0.013610662383504,52.2622547022404 -0.013636096094697,52.2622425452424 -0.013668612966208,52.26223679996 -0.013941517894173,52.2622620674217 -0.014044303888986,52.2622575044196 -0.014700727711342,52.2621606764691 -0.015674916499358,52.2620043741708 -0.015790614844695,52.2619730582989 -0.01591886660825,52.2619230766925 -0.016324150846431,52.2618058360361 -0.016295932197932,52.2615176145281 -0.016073078670621,52.2601407524107 -0.016047934507528,52.2599488575843 -0.016077765707487,52.2595105013538 -0.01617758088402,52.2591120647414 -0.017599058609426,52.2589129242037 -0.017627827440816,52.2588936306735 -0.017943149666808,52.2586228648759 -0.018226712199889,52.2583435648064 -0.018571024470501,52.2579509394539 -0.019405160823313,52.2570855147582 -0.0198041333827,52.2566831063879 -0.019930533441657,52.2565413973378 -0.020096756426168,52.2563301511689 -0.020432219209093,52.2559374610965 -0.020807874286111,52.2555291741928 -0.020912306635925,52.2554221550919 -0.021235343866572,52.2551101589224 -0.02150061863692,52.2548798955474 -0.022207772278043,52.2543298262788 -0.021404785144008,52.2536725528226 -0.021547160578645,52.253570573507 -0.021354927533103,52.253378575202 -0.021107143163585,52.2530857740442 -0.020634333686353,52.2525508919355 -0.020499863301223,52.2524102010744 -0.020122679078008,52.2520638979473 -0.019992838659971,52.2519196882851 -0.019849027296235,52.2517257131312 -0.019563207795402,52.2513028239381 -0.01946104571553,52.2511285146587 -0.019267664438944,52.2507349527445 -0.01917319615785,52.2505859424153 -0.019042718467353,52.2504236526183 -0.018845197087595,52.2502207746907 -0.018440195470829,52.2503991549763 -0.017769398726161,52.2501640560304 -0.017645552252314,52.2501160407827 -0.017324012589187,52.2499668105798 -0.016793557262996,52.2496728459699 -0.01648083353458,52.249523761561 -0.016365881719522,52.2494740960572 -0.015895967326657,52.2493016928401 -0.015746815964224,52.2492632275311 -0.015506497428737,52.2492322191469 -0.014925443201246,52.2491873885726 -0.013255267653563,52.2489928915309 -0.013034949023082,52.2489712030716 -0.012526482313276,52.248940168681 -0.012407956738308,52.2489381725657 -0.012227352492002,52.2489468166085 -0.011931200545729,52.2489840773982 -0.011243973107265,52.2488583347003 -0.011141015814451,52.2488350253994 -0.011025345126572,52.2487989166834 -0.010895635488479,52.2487525929233 -0.010782097102592,52.2487039339443 -0.01064304839137,52.2486341706623 -0.010360286045383,52.2484720905953 -0.009813603281735,52.248115705331 -0.009492064329495,52.2479349898866 -0.009355956658079,52.2478670721335 -0.009216798531385,52.2478026087042 -0.008978060533495,52.247701496527 -0.008906648741341,52.2476616373253 -0.008859014541344,52.2476464511009 -0.008815403332867,52.2476385235591 -0.008625589539866,52.2476236349133 -0.008467036900608,52.2475337631019 -0.008460924818156,52.24740861765 -0.008050603735298,52.2473144962884 -0.00674181108763,52.247033415788 -0.006404838012608,52.2469683933973 -0.006024860063818,52.2468819692306 -0.005261455904372,52.2466568293997 -0.004721170134418,52.2464876857235 -0.003587921494174,52.2461150596938 -0.002123339349145,52.2455553182624 -0.001790496102744,52.2454632957835 -0.000716431905214,52.2450809462186 -0.000082986403302,52.2448328937891 0.001529351377706,52.2441391780896 0.001744370091161,52.2441319360589 0.002426587146537,52.2438947285214 0.003613383254787,52.2435445853984 0.003715996463144,52.2435140779665 0.00381648496345,52.2436615945181 0.003997451829283,52.2438743556495 0.00481328401442,52.2446859018141 0.005108185279754,52.245019879983 0.005201030908187,52.2451316582421 0.00589448670088,52.246054136262 0.005979251211926,52.2461794456526 0.006044177479381,52.2462853153648 0.006077915700368,52.2463531506344 0.006130508891677,52.2465122670263 0.006169484349569,52.2467256410798 0.006189316140614,52.2468412665199 0.006300194996184,52.2469617265978 0.006399798716324,52.2470571181503 0.006493883018084,52.2471292316496 0.00653030134188,52.2471573785193 0.006786510279826,52.2473158190498 0.006933725633506,52.2474625384128 0.006953860604356,52.2475179297529 0.006940887898576,52.2476854424524 0.0069379217124,52.2477187540288 0.006849701628598,52.2477418285901 0.006943246634776,52.2478688753904 0.007169757642118,52.2481158259248 0.007439142155758,52.248306402924 0.00753745385522,52.2483757461227 0.0081339533564,52.2487378471689 0.008416339333036,52.2489246048726 0.009236814883761,52.2495409721162 0.009332017027948,52.2496696973185 0.009992101432179,52.2501764234017 0.010159901100453,52.2503210806731 0.010282369395477,52.2504061911416 0.010428374003836,52.2504935972309 0.010640133866489,52.2506059522994 0.010962323218764,52.2507668557024 0.011791358523757,52.2512157684631 0.012037462226003,52.2518626722639 0.012098842245106,52.252084561789 0.012149801660767,52.2522069372357 0.012197926187174,52.2523014032915 0.012260858032901,52.2523947185641 0.012349556398216,52.2525101579026 0.012529580399316,52.2527003588556 0.012979454203466,52.25309019623 0.013069747580193,52.2531767518323 0.01338924310726,52.2535336629276 0.013477144145197,52.2536634076995 0.013607766780715,52.2539255561958 0.013724454498205,52.2540773730769 0.013881048175671,52.254299434525 0.014078464222229,52.2545505543047 0.014512622353561,52.2551420148207 0.014821492649485,52.2555224761554 0.015071346605763,52.2557655073287 0.015116218952215,52.2558519376885 0.015239198473891,52.2560117365871 0.015335257051317,52.2560280747829 0.015667255102554,52.2564360049654 0.015742630825127,52.2564491011 0.015784245259266,52.2564636721209 0.015846037384858,52.2564995627371 0.016192489778275,52.256837128236 0.01651312303235,52.2571220958996 0.016729882118446,52.2573781851409 0.016814336721255,52.2574954911639 0.017025916686444,52.2578317630621 0.017096700589496,52.2579725844154 0.017246123689841,52.2583260991804 0.017333660207642,52.2584793099748 0.017355528865645,52.2585086005449 0.017446961650729,52.2585852449464 0.017522507885264,52.2586685433164 0.017652269534592,52.2589135329447 0.018064341065507,52.2595646879265 0.018124219218257,52.2596887058268 0.01699084711284,52.2601926963201 0.015883402942178,52.260685535171 0.016123582724137,52.2609089535071 0.016458934397922,52.2611288571062 0.017855869819308,52.2619133952172 0.017949678270413,52.261978311843 0.018037855958161,52.2620469214405 0.018098898241373,52.2621007131761 0.018202117208339,52.2622132023305 0.018450740068342,52.2625874928155 0.018514312903628,52.2626969748108 0.018217495837637,52.2628738368047 0.017237559416906,52.2634004652334 0.017653259199574,52.2639391028846 0.017723733446107,52.264006306885 0.017916133371496,52.2641108901288 0.018936203343757,52.2645978379312 0.019351849391516,52.2648101573652 0.019395859057613,52.2648426655297 0.01948119249818,52.2649150076261 0.019551872562982,52.2649866121758 0.019597027906407,52.2650469675317 0.019637815094752,52.2651361627757 0.019647819935884,52.265228672228 0.019687873888114,52.2653682203799 0.01974467947315,52.2654562431933 0.020260534093944,52.2658763861496 0.019868840281877,52.266124903301 0.019216850448812,52.2664849355741 0.019630379041813,52.2668124435551 0.019901866018329,52.2670136544252 0.020110695863626,52.2671575957136 0.020597068817345,52.2673461370732 0.020922822440041,52.2674835811703 0.021528061822255,52.268770740271 0.022023352984419,52.2698637216523 0.021816022928513,52.2702683777406 0.023825474138718,52.2713929384177 0.023515823448106,52.2718991342562 0.023382537077014,52.2721595035113 0.023763641506338,52.2725135327643 0.02407791624282,52.2728489308557 0.024433950349324,52.2731988928134 0.024596893738474,52.2733984487997 0.024709809008729,52.2735583199117 0.025038666161625,52.273987943506 0.025242575015687,52.2742163702627 0.025422184032978,52.2744578886458 0.02581781551584,52.2751641347367 0.025551512700777,52.2753036348107 0.026380356440903,52.2760554810007 0.027218665298106,52.2765320853209 0.027807330873739,52.2768402872862 0.027145637547174,52.2772122146698 0.026783024079553,52.2773947223137 0.026844859384002,52.2777856855685 0.026873959312689,52.2778777756474 0.02715956175595,52.2784178056192 0.027480973371311,52.2789716024356 0.027524374543955,52.2790220965103 0.027605400116882,52.2790971135842 0.027855362052262,52.2792717975914 0.028344739521984,52.2797156434542 0.028435198742694,52.2798039830455 0.02849114244611,52.2798723295978 0.028700378015697,52.2801528864888 0.028814968557845,52.280351379241 0.029054271339517,52.2807105260132 0.029131970849773,52.2808396253387 0.029337066777828,52.2813494813048 0.029492777796844,52.2816435420098 0.029666293172294,52.2819435898319 0.029853592248275,52.2822568837629 0.03001429904895,52.282501416755 0.030239733414145,52.2828158526695 0.030246391027728,52.2828319191152 0.029620094512137,52.2831466179559 0.029634245520447,52.2831679489484 0.029863382283852,52.2834337790724 0.030131198494205,52.2836809651632 0.030255216250086,52.2837309710368 0.030742923997568,52.2840732560659 0.031043802342088,52.2842713285469 0.030872897407891,52.2845098793511 0.030740210435275,52.2847171190394 0.030661140986462,52.284817362313 0.030454887277743,52.2850205627623 0.030356110936365,52.2851049638293 0.030271214306084,52.2851703375123 0.030150165272596,52.2852488289088 0.02981954201077,52.2854262101877 0.029376685392733,52.2856820194615 0.029054426766744,52.2858494571676 0.029367335379517,52.2859906043869 0.029320357990499,52.2860525398125 0.028414519399616,52.286412488586 0.02774436658559,52.2867000635928 0.027051891589987,52.286980827182 0.026891002988745,52.2870528074757 0.026391728569657,52.2872942912478 0.025719223477463,52.2875944808663 0.025584035294181,52.2876839967432 0.025538505420177,52.2877459947812 0.025503169492616,52.2878724516663 0.024950516599003,52.2893853972766 0.023707623537377,52.2896233518398 0.023622189730149,52.289648188024 0.023541639659089,52.2896820204506 0.023444634315346,52.2897421133357 0.023295782624082,52.2898848984486 0.023215345082496,52.2903404169875 0.023102026096038,52.2903953958087 0.021729015169723,52.2906761006449 0.021610464032723,52.2914208283824 0.02130059049447,52.2933755582589 0.021238643572702,52.2938181750026 0.021209742441792,52.2941819280915 0.021249008286323,52.2944654088338 0.021929106375375,52.2944564603034 0.022717047260581,52.294433974419 0.023211329919895,52.2944362918217 0.023417055060072,52.2944453512823 0.023824729666408,52.2944761189203 0.023880986626764,52.2945218989741 0.023598447546542,52.2946606835777 0.02346991400299,52.2947375876781 0.023346911240457,52.2948376795801 0.022927264699038,52.2951227302116 0.022787436742556,52.2952383915146 0.022582912983022,52.2953858143506 0.02195155211331,52.2957562918398 0.0215903913197,52.2959081028348 0.020933285171049,52.2962286752636 0.020687013641979,52.296359730047 0.020544969097922,52.2964295804295 0.019709656842472,52.2967963439103 0.019526426340013,52.2968965627062 0.018567244549296,52.2975073390174 0.017767122267173,52.2980371821217 0.017496324473475,52.2982117067679 0.017222668462698,52.2983845729367 0.016618807725196,52.2987500558652 0.016187729405011,52.29897684657 0.015923579921362,52.2991036113485 0.015303896671434,52.29937676716 0.015115462997966,52.2994267284191 0.015010500908309,52.2995067265277 0.014506154759826,52.2997689195633 0.014224493250557,52.2999284303345 0.013645028021282,52.3004436011537 0.013572939789539,52.3005366111536 0.013359109313198,52.3010266669491 0.013059031981338,52.301817715565 0.013000839145326,52.3019238816221 0.01287178025583,52.3020860905576 0.012763967954257,52.3021994855235 0.012722710172279,52.3022604170128 0.012667986729796,52.3023791087334 0.012560205118641,52.3025572253918 0.01231818761923,52.3027834742704 0.012159961465604,52.3029506743192 0.011804546983992,52.3032633531212 0.011506975698728,52.30349414233 0.01130361613685,52.3036369398477 0.010957374169096,52.3038613647515 0.010937358628644,52.3038733922606 0.010496144236636,52.3041371877392 0.009799177862751,52.3045221945613 0.009443259917349,52.3047602644012 0.009250633227543,52.3048786038303 0.009060342801757,52.304987104781 0.008985873888808,52.3050252281577 0.008345448197068,52.3053292592167 0.007031067057198,52.3059774342254 0.006493650738296,52.3062571418621 0.006444199801312,52.3063003208278 0.006264101254399,52.3065676641273 0.006120866743116,52.3069361395488 0.005732262392547,52.3073590307076 0.00551104964591,52.3076909846127 0.005435744259186,52.3077776611779 0.005130736220216,52.3080085590983 0.004742943570235,52.3082570420285 0.004635527401942,52.3083451613088 0.004613256520321,52.3083716083334 0.004526210069684,52.3085250939226 0.004379902484009,52.3086947758349 0.004118834287941,52.3089240264515 0.003679026891007,52.3093522724652 0.003594800064459,52.309404939943 0.003496993656508,52.3094461510841 0.003289621069444,52.309533357474 0.003175064979272,52.3097582324806 0.003039286265526,52.3100006370514 0.002961759571661,52.3101026308172 0.002928941902558,52.310155414233 0.002914611380209,52.3101943110735 0.002910805206513,52.3102734807475 0.002877506637252,52.3104790883987 0.002877452799672,52.3105743751383 0.002894032227242,52.3106496033267 0.002953787179699,52.310802395255 0.003032502063525,52.3110509607149 0.003055008340363,52.3111288749212 0.003120927139794,52.3114181976153 0.003299280319212,52.3117946068027 0.003312746249581,52.3119615777281 0.003308934853167,52.3120084760147 0.003287807871669,52.3120924344284 0.003157644862856,52.3125558775212 0.003131051674504,52.312682267251 0.003100448543206,52.3128832451732 0.003096639339062,52.3132195956947 0.003058359451919,52.3134783248316 0.00306108833567,52.313570956728 0.003072922488551,52.3136696376391 0.003138949059382,52.3138969331747 0.003158178452243,52.3139343617142 0.003200267116627,52.3140199446504 0.003357122578193,52.3142789593157 0.003668186976534,52.314700759834 0.003859461050976,52.3149744723913 0.004037694164229,52.3151522218419 0.003960709682884,52.3152020690936 0.004650398704424,52.3157865295403 0.004507911116778,52.3160118796223 0.00428289158059,52.316325016549 0.004213496616696,52.3165429234724 0.004194315451342,52.3166699968656 0.004190121703784,52.3167726344035 0.004195466694624,52.3168588394939 0.004216138220749,52.3169897316753 0.004247333298827,52.3171286241379 0.004269881003852,52.3172046498092 0.004355159915907,52.3173731881274 0.004400754598921,52.3174398327494 0.004480805521561,52.3175220741943 0.004756681459057,52.3176864785343 0.005078109406802,52.3179138424746 0.006226952598347,52.3185300491558 0.006604673461502,52.3187071024668 0.007470942404092,52.319077209223 0.008674357449661,52.3195666167875 0.008963596539046,52.3196354094219 0.009019060357847,52.3197595052019 0.009265055915135,52.3199099348317 0.008823915049594,52.3201791118821 0.008268786515876,52.3204933740043 0.008011409508762,52.3206101148656 0.00791263393701,52.3206971903093 0.007281158392267,52.32088060483 0.006549946829252,52.3208705562986 0.005596063099383,52.3209020378727 0.004458893326983,52.3210328059259 0.003770583670014,52.3210967119246 0.002097676469472,52.3210935269742 0.001476314780626,52.3210779883521 0.000888140428767,52.3209854769549 -0.000093065089898,52.3208672555303 -0.000541273244541,52.3208199199591 -0.001403655801424,52.3207958608911 -0.001781842156125,52.3208714752809 -0.002410500674333,52.3208578356475 -0.002510851500376,52.3208109903823 -0.002858768848332,52.3209059550827 -0.003409666000239,52.3210878581519 -0.003942138909409,52.321321674989 -0.004212084968012,52.3214529820414 -0.004481747190631,52.32159066691 -0.004734122263104,52.3217549364212 -0.005123239715566,52.3208020928991 -0.005345057177176,52.3203058603104 -0.005535713857929,52.3198190793939 -0.005633187373897,52.319478148428 -0.005708968821939,52.319261799579 -0.005790024511846,52.3190600119144 -0.005867289835041,52.3189075114006 -0.005910090290603,52.3188354222635 -0.006189828727533,52.3184228653884 -0.006473355485207,52.3178612427891 -0.00665752999199,52.3175828988422 -0.006785360436795,52.3174141719277 -0.006911010276584,52.3172643743758 -0.007031384608498,52.3171323767748 -0.007172263207623,52.3169990163795 -0.007288077019279,52.316903886778 -0.007538601327059,52.3167507114141 -0.007855203879162,52.3165942456014 -0.008037907880677,52.3165100405809 -0.00830405727878,52.3163994665327 -0.008990883738012,52.3161340864957 -0.009065469455891,52.3161083762647 -0.009630439450367,52.3159434152783 -0.010073028268665,52.315790863481 -0.010644798629647,52.315571178725 -0.010969441373665,52.3154319189776 -0.011200767413692,52.3153125714881 -0.011455617210839,52.3151568540293 -0.011726987633388,52.3149617721316 -0.011849111833477,52.3148577552733 -0.012059111857561,52.3146553465104 -0.012206658808612,52.3145400713889 -0.012320037334197,52.3144637732358 -0.013191738342064,52.3139371074914 -0.013244840198714,52.3138966501457 -0.013342223015802,52.3138181946594 -0.013488955883266,52.3136885210677 -0.013706437645209,52.3134835386027 -0.014272846951815,52.3129230570608 -0.014418050806228,52.3128274254766 -0.014608818898101,52.3127272561182 -0.014822191140131,52.3126463435698 -0.014893503666418,52.3126259679535 -0.01499431375307,52.3126033004795 -0.01512888254106,52.3125803917484 -0.015338191945836,52.3125578402017 -0.015823414983906,52.3125327301264 -0.016091914302413,52.3125336435144 -0.016225078356348,52.3125421720755 -0.016375245156832,52.3125626725465 -0.016494550517253,52.3125835529574 -0.016732395850003,52.3126478626586 -0.016829140560264,52.3126809488398 -0.016986126543083,52.3127465082456 -0.020961716990578,52.3145943746365 -0.020963248556742,52.3145952994652 -0.021736930554274,52.31497878998 -0.021846179211361,52.3150300593677 -0.022130078988785,52.3151444801242 -0.022378833809188,52.3152250523805 -0.022673276549515,52.3153010845279 -0.023057017444259,52.3153821169563 -0.023310437523197,52.3154232124469 -0.023587548823838,52.3154620070861 -0.023990541892776,52.3155047048479 -0.024516885056328,52.3155809249355 -0.024907189049317,52.3156450711652 -0.025116612921851,52.3156881238759 -0.025322774172117,52.3157365158213 -0.025448945890357,52.3157691874308 -0.026207683547411,52.3159949981799 -0.026609537763901,52.3160987936934 -0.026956304956955,52.3161872856319 -0.027509914901429,52.3163089835826 -0.027685894853702,52.3163424852109 -0.027854781796994,52.3163722714876 -0.028123399338297,52.3164037220422 -0.02825367412481,52.3164094920157 -0.028701346504949,52.3164052765664 -0.028865468918723,52.3164116106019 -0.029182520915051,52.3164420693377 -0.029618337161974,52.3165059699616 -0.029723033224279,52.316526593164 -0.030708218152363,52.3167426667791 -0.031058004959095,52.3167961390731 -0.03121628563382,52.3168005750302 -0.03145623435509,52.3167829984301 -0.031592060031773,52.3167645867396 -0.031728204401514,52.3167389886242 -0.031876351744316,52.3167046012743 -0.032028124425092,52.3166593968412 -0.032174166569441,52.3166069951096 -0.032298249208817,52.3165560258242 -0.03238667389798,52.3165125524327 -0.032487741594573,52.3164513114718 -0.032611888748489,52.3163633977549 -0.032974959509334,52.3160844872482 -0.03360515080172,52.315671408981 -0.03426817876178,52.3152104218586 -0.034508664572849,52.3150821923564 -0.034841119839139,52.3149286149912 -0.035103978887707,52.3148250269461 -0.03540824928668,52.3147123287335 -0.035668893909943,52.3146231757514 -0.03593377199839,52.3145394858113 -0.036174487317587,52.3144714843229 -0.036385146100608,52.3144183541372 -0.036814576587741,52.3143311046704 -0.037374555009285,52.3142405392623 -0.037632731060033,52.3142097700471 -0.037719518711392,52.3142031217116 -0.037906151196145,52.3141981306477 -0.038064542795117,52.3141998627875 -0.038221046551845,52.3142087540417 -0.038428606925592,52.3142283809942 -0.038766653317054,52.3142790281824 -0.039022548558124,52.3143327159041 -0.039350387941968,52.3144172615927 -0.0396169390045,52.3144953961815 -0.040168144425244,52.3146718292262 -0.040800780223742,52.3148315412101 -0.04172594459956,52.3150429330606 -0.042085769206633,52.3151019324626 -0.042367843652642,52.3151272813305 -0.042546788086123,52.3151293470836 -0.042670163880281,52.3151242004661 -0.042875081603801,52.3151024256057 -0.0430850650585,52.3150672503341 -0.044369084065033,52.31472885666 -0.045109251131686,52.3145459520324 -0.045239379185435,52.3145220363848 -0.045364639812889,52.3145097265844 -0.045489585332368,52.3145046021047 -0.045625820033603,52.3145095524185 -0.04589608792911,52.3145364959022 -0.046070665240241,52.3145690468966 -0.046464323817993,52.3146591561923 -0.046963342039607,52.3136225993554 -0.047011662375225,52.3133904905287 -0.04699788584066,52.3132032884039 -0.046878010188345,52.3124612318638 -0.046778117013866,52.3119632903958 -0.046665544295063,52.3115198824577 -0.046515286211544,52.3105696738316 -0.046488431422472,52.3104460784397 -0.046499215863349,52.3103329936091 -0.046772795373135,52.309717985643 -0.046916945793127,52.3092761262514 -0.047064723372259,52.3089854332152 -0.04729001326051,52.3085989387385 -0.047439240012605,52.3083082702676 -0.047500954092922,52.3082059153228 -0.047585499019822,52.3080849705631 -0.047685178497601,52.3079526792535 -0.048044100684752,52.3075306374189 -0.048406521163383,52.307295626706 -0.049254044202911,52.3068024582778 -0.049375414790966,52.3067433358621 -0.049779564398228,52.3065602474232 -0.051425386760221,52.3059274245026 -0.051941378404006,52.3057336785553 -0.052810369081757,52.3037490919046 -0.053026879251006,52.3033597454193 -0.053313431832098,52.3028788752632 -0.053841709805582,52.3020729840226 -0.054707493358991,52.3007897526907 -0.055234499011927,52.3000448708572 -0.055806247201558,52.2993133977412 -0.056958354294252,52.297854090759 -0.058989869384669,52.2953347534519 -0.059161152901755,52.2951064574641 -0.059264412781707,52.2949571364273 -0.059898296657891,52.2939766760333 -0.059898571443045,52.2939703881475 -0.057151223713439,52.2927787587317</coordinates></LinearRing></outerBoundaryIs></Polygon>
  </Placemark>
