  <Placemark>
	<Style><LineStyle><color>ff0000ff</color></LineStyle><PolyStyle><fill>0</fill></PolyStyle></Style>
	<ExtendedData><SchemaData schemaUrl="#Wards__December_2019__Boundaries_EW_BFE">
		<SimpleData name="objectid">2969</SimpleData>
		<SimpleData name="wd19cd">E05007926</SimpleData>
		<SimpleData name="wd19nm">Upton Snodsbury</SimpleData>
		<SimpleData name="wd19nmw"></SimpleData>
		<SimpleData name="bng_e">393545</SimpleData>
		<SimpleData name="bng_n">253903</SimpleData>
		<SimpleData name="long">-2.09582</SimpleData>
		<SimpleData name="lat">52.183338</SimpleData>
		<SimpleData name="st_areashape">53120688.7565328</SimpleData>
		<SimpleData name="st_lengthshape">44648.1442137723</SimpleData>
	</SchemaData></ExtendedData>
      <Polygon><outerBoundaryIs><LinearRing><coordinates>-2.09795552014547,52.1556264097004 -2.09798710903293,52.1553611491594 -2.09780994646508,52.1552516440322 -2.09772950478294,52.1552255566643 -2.09765627497001,52.1551366367152 -2.09762398875313,52.1550881283009 -2.09760049394445,52.155036018175 -2.09736047842361,52.1548959159094 -2.09726979299531,52.1548699257165 -2.09716737568508,52.1548250704887 -2.09711898274956,52.1547945517588 -2.09703409806042,52.1547209204071 -2.09660965732088,52.1544524413542 -2.09606084372793,52.1541247422206 -2.09568910750479,52.1539254229569 -2.09557350126683,52.1538536136508 -2.09546657798006,52.1537853924817 -2.09532170346594,52.1536649815469 -2.09517148869178,52.1531365226656 -2.09517565567595,52.1530565271612 -2.09519158509134,52.1530114844115 -2.09522653662171,52.1529566301939 -2.09530241126396,52.1528792719198 -2.09543343857374,52.1526157293753 -2.09548885964687,52.1525536678473 -2.09551779131494,52.1524466878723 -2.09574302546548,52.1525031286369 -2.09577943557869,52.1524554627712 -2.09581010893892,52.1524293724942 -2.09588895013307,52.1523869755006 -2.09593993639056,52.1523366014393 -2.09586963664521,52.1522611601123 -2.09587693423031,52.152236886982 -2.09590901332903,52.1521919208599 -2.09595858364637,52.1521559282613 -2.09599072516905,52.1521397244978 -2.09623470657375,52.152117953175 -2.0962887532781,52.152089956526 -2.09638214044342,52.1520314587696 -2.09642304214151,52.1519990683865 -2.09639037603657,52.1517743073014 -2.09651433853825,52.1516456781734 -2.0965230845854,52.151622301963 -2.09652159439113,52.1516025294621 -2.09647760027953,52.1515432453046 -2.09647893523051,52.1514920135932 -2.0965167516727,52.1514271789604 -2.09665672449329,52.1512913459186 -2.09669902695978,52.151238282406 -2.09674701002947,52.151138387135 -2.09677189711761,52.1511123013642 -2.09680690487614,52.1510853091015 -2.09688863731967,52.1510438971052 -2.09695132613647,52.1510007035577 -2.09701413072627,52.1509557117791 -2.09705200293702,52.1509161339614 -2.09709147150632,52.1508900360821 -2.09715275057571,52.1508639201649 -2.09725357105585,52.1508448722122 -2.09755314099523,52.1508419277266 -2.09770053647105,52.1507411403706 -2.09780282997659,52.1507347637465 -2.09788025889813,52.1507095330636 -2.09844528257484,52.1504294464738 -2.09871385828134,52.1503096824966 -2.09882048038918,52.1502448792041 -2.09903630950395,52.1500333908507 -2.09909176929026,52.1499928984928 -2.09911941674109,52.14996231643 -2.09913979167312,52.1499128658109 -2.09915980342389,52.1497024412513 -2.09917863570145,52.1496637769444 -2.09917853875336,52.1496206351477 -2.0991638986193,52.1495944922964 -2.09911271530655,52.1495540898386 -2.0989956267429,52.1495173381856 -2.09890489487122,52.1494661830174 -2.0988742304404,52.1494410425678 -2.09882733440328,52.1493772673366 -2.09892930407224,52.1492278922796 -2.09898160716136,52.1491226889016 -2.09898129673658,52.1489842747989 -2.09929953312876,52.1488221339793 -2.09933449910521,52.1487780635003 -2.09938697721981,52.1486980260346 -2.09940292068379,52.14866116223 -2.0993005031134,52.1486108263879 -2.09924648460099,52.1485946935763 -2.09913678246875,52.1485732152045 -2.09878013570046,52.1485330698226 -2.09876251646892,52.1485214005541 -2.0987405314764,52.1484971518253 -2.09872878385097,52.1484701973397 -2.09873016489474,52.1484414346222 -2.09875790331524,52.1483982694336 -2.09890237253312,52.1483406248503 -2.09902497195276,52.148256844206 -2.09897516513584,52.1481849827071 -2.098929766018,52.1481436762403 -2.09886821541569,52.1481005861381 -2.09878050209285,52.1480503273782 -2.09867520447692,52.1480044868706 -2.09825972847203,52.1478412551813 -2.09815150538009,52.1477793281226 -2.09805768392259,52.1476912346398 -2.09798443836688,52.1475906307089 -2.09796239639973,52.1475403165745 -2.09795348182207,52.1474863970877 -2.0979592642953,52.1474315654011 -2.09797950189959,52.1473748345553 -2.09804506867398,52.1472741148616 -2.0980552364281,52.1472408513565 -2.09805222446515,52.1471869260509 -2.09803903679079,52.147162669848 -2.09799653771303,52.1471240568542 -2.09785904958737,52.1470683564763 -2.09766725165392,52.1469184175248 -2.09761314629496,52.1469166643685 -2.097592787516,52.146919377531 -2.09746275011452,52.1469626273299 -2.09738674505144,52.1469752734589 -2.097315178374,52.1469780298913 -2.09726696965447,52.1469735754377 -2.09722597814608,52.1469628234303 -2.09719087690228,52.1469457758732 -2.09712351716932,52.1468892074797 -2.09708117259426,52.1468658734122 -2.09703137170162,52.1468497370001 -2.09696554849097,52.1468345110405 -2.09688961349471,52.1468237886391 -2.09683117082654,52.1468220386997 -2.09668057949565,52.1468338476477 -2.09661044309494,52.1468303100133 -2.09655788091269,52.1468177700801 -2.09651687202659,52.1467989290723 -2.09647148476856,52.1467620260987 -2.09608235623432,52.1465709016873 -2.09603250467679,52.146530495892 -2.09601642814998,52.1465071408739 -2.09599883622235,52.146452238466 -2.09598988367342,52.1463803423148 -2.09601015093234,52.146280559781 -2.09600127661579,52.1462446148481 -2.09597782938995,52.1462113789718 -2.09593534131615,52.1461772595834 -2.09583437624023,52.1461251223317 -2.09557998016981,52.1460525269849 -2.09551842985821,52.146006737971 -2.09545693485962,52.1459303910072 -2.09543195785405,52.1458585078233 -2.09543180214516,52.1457865136757 -2.09545061656703,52.1457388630325 -2.0955030864164,52.1456534347514 -2.09558467185349,52.1455482090208 -2.09571315814357,52.1454572363721 -2.09571594099993,52.1454069015831 -2.09575818680343,52.1453304702305 -2.09579462370374,52.1452971846042 -2.09583397844026,52.1452764806171 -2.09588659348779,52.145258461156 -2.09591727354702,52.1452377642183 -2.09598583532584,52.1451836905014 -2.09603392315856,52.1451342177423 -2.0960557817604,52.1451018429977 -2.09607026576947,52.1450577901981 -2.09607893247076,52.1449984627638 -2.09607737419706,52.144947233358 -2.09605381001675,52.1448599789449 -2.09601233968153,52.1446281239396 -2.09601961637319,52.1445948629581 -2.09604436454557,52.1445614968941 -2.09608525962349,52.1445291074801 -2.09627354580747,52.1444570498962 -2.09637290710136,52.1444380937566 -2.09640505125524,52.1444263824122 -2.09644295379417,52.1444029831516 -2.09651295516614,52.1443471997378 -2.09661357227323,52.1442418686287 -2.09669223692709,52.1441258594719 -2.09677233604822,52.1440044565638 -2.09694124795259,52.1437256003849 -2.0969455021847,52.1436878474714 -2.09690149931018,52.1436212828735 -2.09686940664766,52.143601536476 -2.09679188847755,52.1435800293881 -2.09662954364547,52.1435019679217 -2.09655773928759,52.1434489972447 -2.0965196351546,52.1433798213032 -2.09640386475556,52.1432216390813 -2.09630578418467,52.1431632972865 -2.09622533646923,52.1431247156277 -2.09616830471893,52.1431049885582 -2.09600606780291,52.1430745624278 -2.09598558499143,52.1430745791602 -2.09592717853688,52.1430872099886 -2.09578706544051,52.1431475437022 -2.09568916903784,52.1431736878837 -2.09550513301092,52.1432034982328 -2.09542622588031,52.1432080558001 -2.09481537630155,52.1432103483725 -2.09476418929774,52.143163652433 -2.09454801040592,52.143205171288 -2.09431000335978,52.1432943426496 -2.0940365399287,52.1431983910983 -2.0927161634615,52.1428020826784 -2.09227740758549,52.1426504424026 -2.09203185689169,52.1425895165267 -2.09163121437038,52.1425134327047 -2.09130081651849,52.1424381911088 -2.09122632401115,52.1424211714761 -2.0907797050794,52.1427182100499 -2.09058569839057,52.1428801424393 -2.09042534452278,52.1430610141119 -2.09034078959708,52.1431320836016 -2.09025322268711,52.1432031553433 -2.08977460940509,52.1435334696643 -2.0897381584714,52.1435613600344 -2.08971773942961,52.1435928334606 -2.08971190891005,52.1436287901052 -2.08971787126506,52.1436576370312 -2.08974869758976,52.1437079460159 -2.08975889175731,52.1437438895205 -2.089757501406,52.1437708549511 -2.08970805279159,52.1438652662087 -2.08969214871616,52.1439245987015 -2.08971114785555,52.1439651197529 -2.08977269303791,52.1440127090115 -2.0897785212035,52.1440351745642 -2.08977567097361,52.1440549495924 -2.08976115179512,52.1440846213099 -2.08977136801528,52.1441313507209 -2.08969999409517,52.1442275759246 -2.08969282709135,52.1442581410711 -2.08972664469722,52.1443570720981 -2.08982766534835,52.1445008018561 -2.09009006460703,52.1449025418705 -2.09036260057097,52.1452502557541 -2.09060465783917,52.145716634066 -2.09079100886765,52.1460437414529 -2.09101815845415,52.1463465488335 -2.0909073601156,52.1464905314184 -2.09079229891601,52.1466703794584 -2.09062467742463,52.1468979940811 -2.09059119764083,52.1469654289856 -2.09055031848053,52.1470086032817 -2.09050074437812,52.1470427955431 -2.09047004949591,52.1470580985611 -2.09032989791249,52.1471086287917 -2.08978354275352,52.1472115097379 -2.08892899207784,52.1473910196093 -2.0882700782249,52.1474895751149 -2.08747524760799,52.1475908345565 -2.08727948472958,52.1476125510849 -2.08685132254852,52.1476542130512 -2.08598485270773,52.1477259446779 -2.08514025267251,52.1477670054284 -2.08501576169914,52.1476330856939 -2.08445452195201,52.1476496689742 -2.08344491995855,52.1477322707876 -2.0827784112335,52.1477092834944 -2.08253882242857,52.1477517857469 -2.08228016608367,52.1477780325394 -2.08194849722162,52.1478097222439 -2.08164752446634,52.1478243121994 -2.08105997352963,52.1478193267108 -2.07998735954588,52.1478461266023 -2.07839005359714,52.1479128165649 -2.07717709614371,52.1478929473293 -2.07643172423742,52.1479060180507 -2.07543217714875,52.1479614913751 -2.07448085456696,52.1479629969486 -2.07448085608952,52.147963895999 -2.07338469398525,52.1479636873346 -2.07196424534104,52.1480193936552 -2.0709471590261,52.1480388875604 -2.07054822472711,52.1480589916841 -2.069279705029,52.148107382736 -2.06816031962458,52.1481305082651 -2.06695617427164,52.1482004087708 -2.06663466634252,52.1481880086907 -2.06569353188317,52.1482361756993 -2.06539977252818,52.1482462267014 -2.06510902255819,52.1482535790468 -2.06452291569386,52.1482503075895 -2.06432425974091,52.1482809754513 -2.06417077581349,52.1483017314068 -2.06408017430157,52.1483107696536 -2.06399257301283,52.1483117156305 -2.06388002527616,52.1483090807236 -2.06376602402375,52.1483028511929 -2.06365200209362,52.1482813421846 -2.06357882938533,52.1482598109303 -2.06309069192169,52.1482600745169 -2.0627195623489,52.1482629698245 -2.06203706053661,52.1482615356263 -2.06181777114747,52.1482733354954 -2.06179006878311,52.1482823379122 -2.06168636180987,52.1483120531156 -2.06162648941856,52.1483228696153 -2.0613999559456,52.1483247865447 -2.06075829242718,52.1483161320459 -2.0602863019522,52.1483163756593 -2.0575899686439,52.1483563795598 -2.05607744226735,52.1484237137806 -2.055859720307,52.1484390971329 -2.05563017848608,52.1484445988237 -2.05529842920333,52.1484303754962 -2.05536156889482,52.1486199916384 -2.05545971259804,52.1488555192301 -2.05562960041288,52.149126963968 -2.05575698017601,52.1492311637417 -2.05592366157448,52.1493480176573 -2.05598069156906,52.1493740548312 -2.05600698602316,52.149392916955 -2.05602460330853,52.1494126822727 -2.05603777947559,52.1494441337842 -2.05603926631806,52.1494764899357 -2.05603062048909,52.1495007612667 -2.05599403755085,52.1495394271756 -2.05595900748531,52.1495673064111 -2.05560685186805,52.149622299994 -2.05531470700249,52.1496791522223 -2.05528979308808,52.1497025330245 -2.05525780071432,52.1497510825087 -2.0552431686648,52.149805916262 -2.05524625264098,52.1498616398143 -2.05528286177613,52.1499390092994 -2.05542331278608,52.1500854460782 -2.05569979917996,52.1503172936124 -2.05578469769791,52.1503666866667 -2.05583005684123,52.1504062125351 -2.05586517828394,52.1504493376771 -2.05588269705763,52.1504843824397 -2.05590183741689,52.1505634673579 -2.0557545785163,52.1508449495853 -2.05580743537135,52.1509987080563 -2.05601072345887,52.1510902882314 -2.05608967997882,52.1511091251506 -2.05613053139868,52.1511100046424 -2.05617438845525,52.1511045902191 -2.05623871700159,52.1510874827853 -2.05633367287617,52.1510856390762 -2.056422969382,52.1511799695349 -2.05636344501812,52.1514650064265 -2.05634589357742,52.1514982698736 -2.05631521179638,52.1515352248393 -2.05626850119248,52.1515711994364 -2.05622768022008,52.1515954862202 -2.05606700487286,52.1516584788068 -2.05599824871494,52.1516998563505 -2.05592530880268,52.1517681992954 -2.05592279093178,52.1520612974792 -2.05594630230574,52.1521656364285 -2.05600197323685,52.1522563879317 -2.05618512582253,52.1526159072271 -2.05620416509878,52.1527084742866 -2.05609500831262,52.1530106113344 -2.05617132487925,52.1533180520224 -2.05610127513975,52.153386393671 -2.0560662698818,52.1534359337462 -2.05604439776061,52.1534835804228 -2.05604008843242,52.153506052464 -2.0560883907984,52.153582426211 -2.05611323961913,52.1536003908395 -2.05615279215046,52.1536192465706 -2.05619365741116,52.1536291138467 -2.05645530465138,52.153639773117 -2.05659264007237,52.153602856583 -2.05667156840019,52.1535974259375 -2.05670821345885,52.1536045979231 -2.05674330244707,52.1536189621592 -2.05676814775792,52.1536351285497 -2.05678565799739,52.1536620835039 -2.05678869607607,52.1536818557581 -2.05668204238758,52.1537745725648 -2.05658715866597,52.153836634946 -2.05654045516316,52.1538798002415 -2.05648065408819,52.1539526315195 -2.0564209355604,52.1541837397318 -2.05642240808667,52.1542035127473 -2.05643858768493,52.1542277721376 -2.05646935019221,52.1542520245003 -2.05650299141719,52.1542654904532 -2.05655120945524,52.1542753540597 -2.05672807576386,52.1543309935573 -2.05682616459342,52.1544155224495 -2.05687588333631,52.1544676279971 -2.05692573871036,52.1545314184204 -2.05701199780986,52.1546014826779 -2.05705159155616,52.1546509867263 -2.05707650347488,52.1547165864249 -2.05705468218328,52.1548028816482 -2.0572320533925,52.1551498188715 -2.05733303140917,52.1553233267662 -2.05732290914287,52.1554159069652 -2.05733176237678,52.155458146329 -2.05734941472718,52.1555012795388 -2.05737284160874,52.1555372202114 -2.05740796033609,52.1555740533051 -2.05747527852651,52.1556262407742 -2.05761438566824,52.1558319957407 -2.05770249500962,52.1561142632776 -2.05775513193043,52.1561834444698 -2.05779760996277,52.1562248580766 -2.05787951750406,52.1562814416653 -2.05804913727161,52.1563182080782 -2.05805060436183,52.1563343857661 -2.05803895312074,52.1563631530609 -2.05801416153369,52.156390128757 -2.05798056467165,52.156411716298 -2.05794695707118,52.1564252150772 -2.05791478942109,52.1564333197313 -2.0578257299647,52.1564369589998 -2.05764004130586,52.156461318522 -2.05759763663156,52.1564757196782 -2.05757138843158,52.1564946072388 -2.05754949515158,52.1565260757664 -2.05754518286241,52.1565459415052 -2.05754973395403,52.1567077216083 -2.05759823762088,52.1569324864731 -2.05762473280242,52.1570088702625 -2.05761894448716,52.1570978539263 -2.05761317309924,52.1571086426708 -2.0573384654925,52.1571708837656 -2.05728294214692,52.1571996724331 -2.05726393288696,52.1572248479396 -2.05725661203731,52.1572491186839 -2.05726111063521,52.1572787761588 -2.05723056537378,52.1574225986786 -2.05724681723003,52.1575008755528 -2.05723518984797,52.1575485174133 -2.05722196459584,52.1575736900872 -2.05714169246118,52.1576636082061 -2.05659066984658,52.1576710661327 -2.05660252739024,52.1577996776456 -2.05626634776308,52.1578627550477 -2.05619608197839,52.1577683255436 -2.05614920673323,52.1576811644034 -2.05601910457225,52.1576371857796 -2.05597234511108,52.15763900622 -2.05595042140601,52.1576480044939 -2.05593284194907,52.1576614950431 -2.05592406772663,52.1576803738923 -2.05593290859519,52.1577136246455 -2.055854176118,52.1578782315505 -2.05582938695653,52.1579088020803 -2.05575196417159,52.1579672601206 -2.05563367429695,52.1580176487603 -2.05561763297045,52.1581040308286 -2.05560307655747,52.1581247095976 -2.0555826062321,52.1581399986663 -2.05553008218516,52.1581588982249 -2.05519979371999,52.1582138810351 -2.05515449599443,52.1582300807706 -2.05510041708556,52.1582588677243 -2.05505803703803,52.1582948388621 -2.05503612979213,52.158317319114 -2.05496036037137,52.1585412442416 -2.05490792553237,52.1586329458647 -2.05486840662707,52.1586428503292 -2.05479103924173,52.15865187523 -2.05472077367363,52.1586519080607 -2.05460384426467,52.1586375813954 -2.05442847223616,52.1586313714264 -2.05433045696409,52.1586098459996 -2.05428366963185,52.1585900939733 -2.05421347241451,52.1585496809006 -2.0541168934736,52.1585191668272 -2.05402935446828,52.1585857180539 -2.0539022574985,52.1587304823039 -2.05408517749612,52.1587960996824 -2.05414067258812,52.1588392158545 -2.05416120237903,52.1588724613166 -2.05416411754987,52.1588904364678 -2.05411025491973,52.1589983158465 -2.05405475988481,52.1590523590599 -2.05398320519533,52.1590838497931 -2.05356230540409,52.1591667321355 -2.05334013520154,52.1592342424266 -2.05323344290562,52.1592136190997 -2.05312371388391,52.1591732233554 -2.0529218983134,52.1591292738393 -2.05284596601145,52.1591293081122 -2.05279479480323,52.1591724729773 -2.05283884488596,52.1593198550028 -2.05283153213902,52.1593531141455 -2.05279794366315,52.1593855750874 -2.05273517686414,52.159408073302 -2.0526035730393,52.1594198165119 -2.05238432175524,52.1594100287989 -2.0521606262558,52.1594146220563 -2.05209194048026,52.1594263366657 -2.05197796590485,52.1594650356325 -2.05170324322216,52.1595334651899 -2.05166529373058,52.1595478631297 -2.05160386115909,52.1595793479514 -2.05156304515879,52.1596162161674 -2.05152948659713,52.1596737539223 -2.0514316250183,52.1597835394105 -2.05139657982393,52.1598078219359 -2.05135863317506,52.1598249160213 -2.0512913965413,52.1598402248213 -2.05127524619959,52.1598402318903 -2.05118024054466,52.1598169044356 -2.05109979592055,52.1597719996593 -2.05107638618863,52.1597495408213 -2.05099874230524,52.1596254509666 -2.05097099924408,52.1596074874431 -2.05093880811765,52.1595985136455 -2.05090373138284,52.1595958326416 -2.05087155242409,52.1595985428682 -2.0507444508265,52.1596462341293 -2.05060876277169,52.1598773719236 -2.05059708246759,52.159887263816 -2.05049037497034,52.1599574159338 -2.05042026736926,52.1599934872231 -2.05022450029177,52.1600744623916 -2.05011782600978,52.1600700146275 -2.04981804186635,52.1600458744568 -2.04974783618679,52.1599964709573 -2.04971129390509,52.1599766237707 -2.04953150935577,52.1600163363222 -2.04947598353545,52.1600505137774 -2.04945408889842,52.1600873732616 -2.04947187397629,52.1602527440955 -2.04946900033182,52.1602698218536 -2.04943544333134,52.1603328414026 -2.04939450498494,52.1603697089091 -2.04931847812619,52.1603940089834 -2.04898528859784,52.1604633558182 -2.0488200739728,52.160386128127 -2.04878198286434,52.1603825486989 -2.04872064637642,52.1603942591732 -2.04861247346254,52.160451826197 -2.04858622712055,52.1604779023264 -2.048558571519,52.16053813302 -2.04853236581087,52.1607099027617 -2.04843742406039,52.1607431978975 -2.04839359447348,52.1607827624971 -2.04838785771992,52.1608259066472 -2.04845816165972,52.1609652805686 -2.04834118104163,52.1610165603318 -2.04829011722191,52.1610543306768 -2.04825655336449,52.1611118665808 -2.04822901625854,52.1612800423864 -2.04820267368914,52.161329486553 -2.04818377542689,52.1613528633153 -2.04807997747919,52.1614445820181 -2.0480551770397,52.1614715564796 -2.04804495688031,52.1614940306089 -2.04803189212435,52.161560545828 -2.04803054886257,52.1616550094754 -2.04803940243947,52.1617044400626 -2.04823835198171,52.161875128186 -2.04815510289975,52.1619112044221 -2.04801918173402,52.1619490094993 -2.04797979951524,52.1619795843179 -2.04793889006628,52.1620452127739 -2.04780584861796,52.162071332383 -2.04774018980866,52.1621019178428 -2.04768903777636,52.1621702466329 -2.04755764492481,52.1622728527879 -2.04765851630192,52.162367184965 -2.04770097747367,52.1623977263568 -2.04779600996625,52.1624435256306 -2.04788820177775,52.1624264114364 -2.04792617171908,52.1624272949553 -2.0479670456705,52.162438063216 -2.04804171801961,52.1624928593203 -2.04804179433958,52.1625621561903 -2.04806376463908,52.1625918068045 -2.04809886436997,52.1626133632798 -2.04813105809246,52.1626232368977 -2.04814564371998,52.1626232309035 -2.04819384411115,52.1626106279918 -2.04831083955742,52.1625701342788 -2.04842773034282,52.1625422235828 -2.04848036546023,52.1625080478365 -2.04866891268057,52.1625331358328 -2.04872016443999,52.162553786363 -2.04874055595665,52.162572652516 -2.04875227653825,52.1625978138195 -2.04875230264769,52.1626211827903 -2.04871152566511,52.1626975964446 -2.04871009641716,52.162713775426 -2.04872331250152,52.1627820778759 -2.0487613677777,52.1628603476329 -2.04876148529036,52.1629655057482 -2.04866669439846,52.1631382030248 -2.04862431499668,52.1631822614348 -2.04865222331309,52.1632397727969 -2.04864347296305,52.1632838172418 -2.04862890715408,52.1633017988734 -2.04856603542287,52.1633458657657 -2.04855291589292,52.1633629486382 -2.04853681826884,52.1634114895655 -2.04853108795367,52.1634619141983 -2.04853850756979,52.1635212312696 -2.04851075612376,52.1636048309358 -2.04847429995007,52.163665963369 -2.04842759426164,52.1637235056304 -2.04836473180161,52.1637766501038 -2.0481017001306,52.1638738278085 -2.04799359383981,52.1638900505335 -2.04779614939178,52.1638901312626 -2.04773770254648,52.1639045353822 -2.04770699811507,52.1639351065605 -2.04768078358989,52.1639926401747 -2.04765165611347,52.164032199386 -2.0475756308914,52.1640645861558 -2.04752296533822,52.1640744943741 -2.04743967539701,52.1640773142886 -2.04740605687663,52.1640890119375 -2.047370998306,52.1641061035527 -2.04720743150794,52.1642239117127 -2.04719128589892,52.1642311079116 -2.04714452791772,52.1642410135801 -2.04708016333322,52.164245533814 -2.04704363581897,52.1642428522435 -2.04679212743795,52.1641872272539 -2.04674536073996,52.164189044026 -2.04670584327132,52.1642079344209 -2.04669272181301,52.1642241180349 -2.0466724545517,52.1643211955059 -2.04668419317996,52.1643652316283 -2.04667831179569,52.1643886020467 -2.04666374639279,52.1644066733356 -2.04660965785838,52.1644399506849 -2.04659798366241,52.1644561337117 -2.04658631375954,52.1644777092296 -2.04659520665197,52.164564888242 -2.04653092694182,52.1646494000988 -2.04654119177324,52.1646673715994 -2.04657051593945,52.1646970204577 -2.04661285687488,52.1647258549852 -2.04671826696347,52.1647779425255 -2.04673865865076,52.1647968090176 -2.0467343454641,52.164821078759 -2.04670510970748,52.164874119007 -2.04665695166838,52.1649289639846 -2.0465825154784,52.1649838202951 -2.04664391663956,52.1650261284623 -2.04666733314808,52.1650557796476 -2.04667615701726,52.1650782460535 -2.04667331810234,52.1651276804734 -2.04670540738545,52.1651519348019 -2.04679168326205,52.1651204426569 -2.04683697893543,52.1650943593359 -2.04688084216582,52.1650808605542 -2.04693194807887,52.1650754466957 -2.04697872151004,52.1650790232408 -2.04702406793765,52.1650987787202 -2.04705628843817,52.1651320206899 -2.04706657202886,52.1651670695645 -2.0470651610336,52.1651994268907 -2.04704616296084,52.1652434753172 -2.04704479316136,52.1653153790764 -2.04703312093028,52.1653334492459 -2.04699807383567,52.1653622247761 -2.04695132381296,52.1653820171986 -2.04689720917086,52.1653919257142 -2.04684019104689,52.1653910494804 -2.04675976869885,52.1653722069874 -2.04659897463446,52.1653830569538 -2.04656825400143,52.1654001457003 -2.04659039957771,52.1655933774887 -2.04658753217373,52.1656176457471 -2.04655540777216,52.1656743722988 -2.04651156879891,52.1657112399157 -2.04621938604057,52.1658425788985 -2.04615357976776,52.1658533907329 -2.04612283961379,52.1658525037938 -2.04605699815159,52.1658300597849 -2.04597650844147,52.1657492004207 -2.04595601571412,52.165748309415 -2.04591949745712,52.1657555143284 -2.04588588200745,52.1657717058809 -2.04585962810638,52.1657950842322 -2.04584795990486,52.1658175587192 -2.04584944179419,52.1658517120917 -2.0458071605628,52.1659956258379 -2.04573416939138,52.1660522782325 -2.04566838341946,52.1660828625597 -2.04564789337026,52.1660846677456 -2.0456099156575,52.1660792900494 -2.0455762697604,52.1660667200658 -2.04555431255918,52.1660496511836 -2.04554114691857,52.16602449014 -2.04554989898701,52.1659786487515 -2.04553663556349,52.1658599237721 -2.04543719933684,52.1658734445244 -2.04533344057582,52.1659031443441 -2.04525588929402,52.165864526044 -2.04521790621729,52.165853755731 -2.04514472756353,52.1658456943264 -2.04501611190758,52.1658520353794 -2.04494007054391,52.1658736363548 -2.04489922846232,52.1658961210405 -2.04483926545324,52.1659636436741 -2.04474433655574,52.1660230000996 -2.04440814789434,52.1661543513874 -2.04419772139942,52.1662011680349 -2.04420516501272,52.1662893366972 -2.04419927203912,52.1663028210512 -2.04415542959089,52.1663387896376 -2.04409843216444,52.1663594829368 -2.04389375526002,52.1663721429257 -2.04373438264315,52.1663614166817 -2.04363355376237,52.1664297630956 -2.04356787938277,52.1664540546654 -2.04350350944577,52.1664567748472 -2.04336462872085,52.1664460413866 -2.04286761666361,52.1665711561848 -2.04263523208071,52.1666027886556 -2.04257662660169,52.166582946413 -2.04249331313327,52.1665667983121 -2.04237927872693,52.1665713339949 -2.04231648782876,52.1665848379402 -2.04227405635288,52.1665866513685 -2.04223017628129,52.1665857681594 -2.04216000851816,52.1665759066197 -2.04213361167936,52.1665795114185 -2.04210878738221,52.1665885081372 -2.04208994964265,52.1666784844709 -2.04208410584861,52.166744997263 -2.04209449440901,52.166890597087 -2.04203158953229,52.166912280461 -2.04199507923966,52.1669293709867 -2.04196448146916,52.1669509528244 -2.04192788157024,52.1669995001591 -2.04192067558674,52.1670273660421 -2.04192216144494,52.1670687091405 -2.04186811875429,52.167155012853 -2.04178489994977,52.167239618771 -2.04168550525737,52.1673007724215 -2.04166068366395,52.1673115662437 -2.04159919894207,52.1673070946691 -2.04149681932283,52.1672729761645 -2.04147342995768,52.1672693900595 -2.04141352037494,52.1672730056693 -2.04137110534089,52.1672927943407 -2.04135653249241,52.167306281621 -2.04129384311373,52.1674294383233 -2.04124874948873,52.1676740151595 -2.04117857910014,52.1677908828907 -2.04114653544751,52.1678151612743 -2.04110267546972,52.1678367475541 -2.04103542419798,52.1678530394356 -2.0407458645714,52.1678576340628 -2.04059091979936,52.1678180515706 -2.04053534387161,52.167816273639 -2.0405031640157,52.1678234744722 -2.04047544941261,52.1678369661915 -2.04046231969889,52.1678478465204 -2.04041259602534,52.1679161715998 -2.040348252005,52.1679476515073 -2.04025183546777,52.1679746480753 -2.03988781808165,52.1680260041171 -2.0396685528142,52.1680440542434 -2.03957502341904,52.1680647586386 -2.03953549704377,52.1680809494795 -2.03949308678575,52.168106129966 -2.03929585609214,52.1682303198992 -2.03924617685639,52.1682177534973 -2.03921254153367,52.1682150685316 -2.03915697409857,52.1682231758842 -2.03904441824595,52.1682672542911 -2.03876087749284,52.1683985718939 -2.03866590892462,52.1684282638321 -2.03861468068461,52.1684363694949 -2.03856055476091,52.1684381854498 -2.03847869647678,52.1684346171167 -2.0383105516304,52.1684643328226 -2.03819655947725,52.1685210829778 -2.03790854137126,52.1685014039309 -2.03775799912618,52.1685320112914 -2.03756649490869,52.1685940893289 -2.03752407691667,52.1686138766187 -2.03744516714359,52.168674121073 -2.03743492922614,52.1686858083834 -2.0374731696874,52.1688530613741 -2.03746148880193,52.1688683444431 -2.03742498052671,52.1688899270008 -2.03738834309446,52.1689025218027 -2.03732843021602,52.1689052371929 -2.0372859870411,52.1688962629509 -2.03713534360863,52.1688127236801 -2.03700236947901,52.1689484825798 -2.03684604647325,52.1689907755381 -2.03661064142067,52.1690339912341 -2.03612516930093,52.1690314460408 -2.03598630777209,52.1690512625482 -2.03582841528804,52.1690926555946 -2.03577730489637,52.1690980637445 -2.03570858808083,52.1690971857132 -2.03562961571622,52.1690855257855 -2.03559308046484,52.1690756500846 -2.03555785439184,52.1690468993533 -2.03547596202003,52.1690028834611 -2.03535907198768,52.1690604418001 -2.03529469118677,52.1690550687719 -2.03522157839241,52.1689849848407 -2.03505049489477,52.16896256637 -2.03495980988367,52.1689275405415 -2.03492473622334,52.1689365388171 -2.03486484419574,52.1689653181606 -2.03482532691697,52.1689958894991 -2.03479462321259,52.1690426356761 -2.03478296309817,52.1690830846365 -2.03473332764108,52.1691245338469 -2.0346675173707,52.1691398327454 -2.03452719224581,52.1691407734033 -2.03449356082166,52.169143479597 -2.03448042704103,52.1691515722172 -2.03445707310367,52.1691947208503 -2.034465901718,52.1692297712381 -2.03452293744161,52.1692468317986 -2.03460337821655,52.1692845572106 -2.03433292466847,52.1693736168206 -2.03428025135125,52.1693853172403 -2.03413114042143,52.1694060327774 -2.03373934384795,52.1694142363907 -2.03356829023921,52.1694332493692 -2.03348934087303,52.1694512485347 -2.03341329060793,52.169476436506 -2.03330808116517,52.1695232036247 -2.03319261996809,52.16956188483 -2.03305218667624,52.1695799002864 -2.03297467053389,52.169581719428 -2.03278466925374,52.1695736842632 -2.03272029348128,52.1695754995426 -2.03254047276843,52.1696384652616 -2.03242789530788,52.1696672580789 -2.03237389091238,52.1696735646263 -2.03217943838176,52.169679010951 -2.0321107335956,52.1696934110707 -2.03200249740608,52.1697248985314 -2.03188848601598,52.1697708576537 -2.03183294255638,52.1698158126594 -2.03177595688566,52.1698661605228 -2.03167515275662,52.1700037027756 -2.03163719584507,52.170028879241 -2.0316064636611,52.170042369705 -2.03155390879719,52.1700541578791 -2.0313594197245,52.1700118768881 -2.03133446622127,52.170013681696 -2.03129649930321,52.1700253759278 -2.03127456911587,52.1700406611386 -2.03126579320484,52.1700749073394 -2.03128630999985,52.1701045623318 -2.03148820455045,52.1702177556643 -2.0314954589725,52.1702465151538 -2.03148679593841,52.1702689874048 -2.03146486832475,52.1702878679432 -2.0314341352529,52.1703004593137 -2.03139761093082,52.1703076588466 -2.03135083326274,52.1703040761452 -2.03121914605443,52.170252881034 -2.03108610998462,52.1703338075537 -2.03107297782904,52.1703454950855 -2.03118281541784,52.170525314031 -2.03117257819747,52.1705387988951 -2.031146309739,52.1705585786834 -2.03110979117045,52.1705720705629 -2.03098985108774,52.1705945724285 -2.03070475959564,52.1706332961775 -2.0305570661096,52.170619852879 -2.03047519553799,52.1706036959516 -2.03043708998513,52.1705920218836 -2.03035664993641,52.170551597394 -2.03020309813143,52.1704365915121 -2.03016655477421,52.1704150301194 -2.03010360425706,52.1703889812007 -2.03005826578879,52.1703755116817 -2.02994565729419,52.1703647548044 -2.02965622701309,52.1704061733818 -2.02952316354463,52.170452045156 -2.02945009760951,52.1704403796262 -2.02922486289828,52.170392800304 -2.02915758932945,52.170388323726 -2.0290435656935,52.1704252024062 -2.02903332055202,52.1704279012064 -2.02891784637394,52.1704584885879 -2.02884178454804,52.1704728886279 -2.02868383737292,52.1704477614947 -2.02843829020568,52.1704918625076 -2.02827301567112,52.1705080811389 -2.02811508814107,52.170512612836 -2.02803768771837,52.1705108343104 -2.02780655307117,52.170470444289 -2.02731807773544,52.170322169411 -2.02723041105144,52.1702871369763 -2.02719531902455,52.1702736630593 -2.0270476459625,52.1702889777095 -2.02697157532595,52.1702898935215 -2.02691744215441,52.1702845135704 -2.02678879029967,52.1702575799196 -2.02666736021629,52.1702117689575 -2.02644799215697,52.17008958357 -2.02634268254699,52.1699879538981 -2.02631048390329,52.1699708846674 -2.02624320318478,52.1699556205483 -2.02619052044256,52.1699565305759 -2.02627547178016,52.1700842301898 -2.02622581480492,52.1703008499631 -2.02615024725305,52.1709284025257 -2.02607278663067,52.1710255791396 -2.02580706260325,52.1716072460291 -2.02565790608613,52.1717682526709 -2.02562586674956,52.1718185920343 -2.02559806833428,52.1719039825326 -2.0254564499716,52.1721764377137 -2.02538777027766,52.1722456596372 -2.02531609165914,52.1723401382236 -2.02526071035785,52.1724731706853 -2.02524750130839,52.1725612550625 -2.02519358312412,52.172721341314 -2.02475918897574,52.1727187384366 -2.02460292036466,52.1728959235899 -2.02410015680711,52.1733050678031 -2.02395095961885,52.1734174481535 -2.02387648085179,52.1734713910629 -2.02355190185731,52.1736629895502 -2.02346571739034,52.1736998571632 -2.02341015507037,52.1737349213459 -2.02335460004329,52.1737807704751 -2.02329905677532,52.1738509774704 -2.023163124641,52.1739741391235 -2.02312372210418,52.1740181868225 -2.02308866642707,52.1740721213678 -2.02306085447134,52.1741441199236 -2.02305207527352,52.1741854661645 -2.02304778190642,52.174271751301 -2.02298496616081,52.1744947535995 -2.02301000518166,52.1746457454517 -2.02301151074317,52.1747553974704 -2.02299698583149,52.1748723331501 -2.02296630301139,52.1749882830719 -2.02293126872167,52.1750836510533 -2.02275300152858,52.1754145310602 -2.02268430875251,52.1754765607549 -2.02264924418475,52.1755170130199 -2.02260684447028,52.1755961149241 -2.02260260119579,52.1757786599931 -2.02258807094222,52.1758883150516 -2.02253117317454,52.1761418743515 -2.02263210673523,52.1763936057491 -2.02267905842906,52.1764852732662 -2.02278440429445,52.1766416417919 -2.02285459092038,52.1766650868191 -2.02292479064025,52.1767127089627 -2.02308713370631,52.1768025553837 -2.02317928441956,52.1768609579727 -2.02326854619488,52.1769256534956 -2.02327880693674,52.1769481213102 -2.02256694090146,52.1774230015323 -2.02248208847027,52.1774886304022 -2.02235925492547,52.177553366585 -2.02229198677701,52.1775785456278 -2.02218384633397,52.1776110129274 -2.02200551949135,52.1778573145493 -2.02147669291484,52.1788680117083 -2.02180929975903,52.1801293104548 -2.02118498114717,52.1805025129977 -2.02115433406417,52.1807074426064 -2.02116910167282,52.1808198781856 -2.02110480681722,52.181014927091 -2.02105373410995,52.1811273746248 -2.02096012198456,52.1812963636145 -2.02092228253078,52.1815912628323 -2.02090180948399,52.1816469920685 -2.02087988730934,52.1816974180905 -2.02080238222903,52.1817657396913 -2.02073223928548,52.1818457439231 -2.02070886767122,52.181890687789 -2.02065925478098,52.1820345924757 -2.02061539973905,52.1821154918981 -2.02051887986759,52.182264707406 -2.02029685597434,52.1827313969075 -2.0202150489047,52.1828869019913 -2.02017265051539,52.1829894607821 -2.02015519475982,52.1830514808668 -2.0201025844086,52.1832375384453 -2.02004115744463,52.1833967250485 -2.01996080501307,52.1835738894819 -2.01958836667309,52.18451165969 -2.01936049964562,52.1851661953737 -2.01928597522028,52.1854403386011 -2.01911807807416,52.1861812377892 -2.01909475174412,52.1863376306627 -2.01904070423304,52.1865624270858 -2.01885967228403,52.1870785404372 -2.01844467495466,52.1881682092826 -2.01808931496711,52.188319350871 -2.01783332356631,52.1884506144139 -2.01761988850244,52.1885432218487 -2.01716792867345,52.1887240366491 -2.01677590979498,52.1889111316338 -2.01647032522871,52.1889974596867 -2.01586183917535,52.1892645748263 -2.01552987986781,52.1894704420025 -2.01541869655653,52.1895180928247 -2.01535441905625,52.1895370658566 -2.01523441837994,52.1895550572754 -2.01510283700575,52.1895622651422 -2.01497113255084,52.1895649785512 -2.01472532694202,52.1895578196439 -2.01449424924688,52.1895848130993 -2.01309869720584,52.1896496927486 -2.0128281709411,52.1896551157373 -2.01231328823691,52.1896524758682 -2.00986287296856,52.1892158125953 -2.00975612837873,52.1891923639075 -2.00964057761476,52.1891618152129 -2.00942985845419,52.1890917271468 -2.00897053703168,52.188892143105 -2.00887549124648,52.1888606929971 -2.00879793298395,52.1888283433121 -2.00851122012739,52.1886944452767 -2.00829760018279,52.1885775295614 -2.00823029636868,52.1885496712796 -2.0081951986796,52.1885433823125 -2.00813959878276,52.1885442853741 -2.0079816086697,52.1885649692824 -2.00787041410591,52.1885929292912 -2.0073029005585,52.1889166209198 -2.00684367545638,52.189190779343 -2.00671053486136,52.1892582867606 -2.00657160461016,52.1893203110922 -2.00643556763491,52.1893751454321 -2.00621908682576,52.1894506558508 -2.005803737801,52.1896368164224 -2.00564574561647,52.1896763717224 -2.00475351010329,52.1899488358108 -2.00450035810121,52.1900252436713 -2.00394894814541,52.1902167965224 -2.00390359272633,52.1901619717427 -2.00350570995215,52.1902941071371 -2.00342815965666,52.1903255671984 -2.0032950118717,52.1903920817702 -2.00301569531262,52.1906132818906 -2.00271285195528,52.1907678807514 -2.00262951400591,52.1908254954218 -2.00259152351227,52.1908569539244 -2.00238818632876,52.1910663758314 -2.00226528685814,52.1911374732085 -2.00218773449194,52.1911725268199 -2.00205313279978,52.19122106451 -2.00175329948379,52.1914143988122 -2.00159530269076,52.1915393335439 -2.00156020502891,52.191580678445 -2.00150171322738,52.1916750511093 -2.00147095818305,52.1917083072167 -2.00141101503016,52.1917551348171 -2.00123106628951,52.1919250082056 -2.00064886991973,52.1923457372247 -2.0003650640156,52.1925642343677 -2.00018076460517,52.192691054734 -2.00004326247829,52.1928034036086 -1.99991299761427,52.1929552994927 -1.99983990430537,52.1930290896877 -1.99980625403483,52.1930964992489 -1.99981216461956,52.1931144747438 -1.99984135506621,52.1931468313152 -1.99986475495634,52.1931639077242 -2.00012806974367,52.1932510899139 -1.99999792979272,52.1935873269525 -1.99980482048587,52.1938291912116 -1.99963945242084,52.1940593702485 -1.99929134277802,52.1945223356754 -1.99916842956921,52.1947543122086 -1.99899871266584,52.1949997704464 -1.99852767494052,52.1949305604386 -1.99849546590303,52.1952398323989 -1.99846036277397,52.1953854359352 -1.99841790051573,52.1955293311986 -1.99830523198644,52.1958197285942 -1.99821596439258,52.1961190239866 -1.99784441404843,52.1968760674563 -1.99774923062853,52.1971134352729 -1.99767021425453,52.197255442541 -1.99737766832281,52.1977463541755 -1.99726643964118,52.1979341992046 -1.99707040292333,52.19816976718 -1.99712154925664,52.1982174032265 -1.99712890500138,52.198271330745 -1.99712299315827,52.1982946994737 -1.99710839632779,52.1983189661627 -1.99698402087766,52.1983639929748 -1.99696652925852,52.1983702840936 -1.99691091485421,52.1984152215495 -1.99687279108855,52.1985059989468 -1.99688895219454,52.1985779021686 -1.99681729487583,52.1985832929552 -1.9967748327888,52.1985796966622 -1.99670160793892,52.19856621281 -1.99666951970004,52.1985545280359 -1.99655974781695,52.1984619506749 -1.99645732751825,52.1985194697132 -1.99625393086888,52.1986480804288 -1.9961574201563,52.1987145880138 -1.9960418437364,52.1988431109965 -1.99592614914101,52.1989347838443 -1.99583699273737,52.1990391303539 -1.9954535501644,52.1998634840231 -1.99538031377266,52.1999741222361 -1.99518872483608,52.2001781396845 -1.99507892945826,52.2003480961255 -1.99503355955766,52.2004406701684 -1.99497056478787,52.200619618567 -1.99493990067742,52.2007921867149 -1.99471447929489,52.2013235467795 -1.99453297459198,52.2017812081595 -1.9943705395048,52.2021497979022 -1.9942812269377,52.202421321442 -1.99421388773658,52.2025687213306 -1.99399437234145,52.203003819183 -1.99366215580371,52.2035198934778 -1.99341186098158,52.2039883346618 -1.99334149748865,52.2041465198546 -1.99330492624235,52.2042435880848 -1.99328597122323,52.204323669582 -1.99327425437243,52.2044081559371 -1.99327267372794,52.2044836549702 -1.99327712642039,52.2045582561677 -1.99330485475464,52.2046958635381 -1.99331076524115,52.2047039526574 -1.99389893780213,52.2046922982765 -1.99445356285804,52.2047426563792 -1.99444037187838,52.2050465393331 -1.99446665582117,52.205181360164 -1.99447833702037,52.2053522225982 -1.99446963502913,52.2054600774312 -1.99445780299445,52.2055229928318 -1.99440372887526,52.2056839654871 -1.99439201368216,52.2057693509808 -1.99439634587232,52.2058629158839 -1.9944065956213,52.2059033621444 -1.99463630972448,52.2059896570048 -1.99474754869545,52.20601752422 -1.99483972861347,52.2060256167427 -1.99497727388973,52.2060220277363 -1.99507391708333,52.206030120249 -1.99519094890233,52.2060534937849 -1.995248017616,52.2060714715968 -1.99529338070185,52.2060921452259 -1.99550547792254,52.2062126818625 -1.99557436781602,52.2062459393658 -1.99607036035444,52.2064598690804 -1.99619620000847,52.2065031046977 -1.99662355293333,52.2066118711867 -1.99678740157094,52.2066388386996 -1.99703619256861,52.2066568199679 -1.99725711118624,52.2066918777257 -1.99731719848773,52.2066963732534 -1.9977854639662,52.2066900895877 -1.99791130861737,52.2066837998124 -1.99816879040375,52.2066595358078 -1.99843218347865,52.2066460563631 -1.99854487490906,52.2066451583201 -1.99880392377215,52.2066532499357 -1.99890056921825,52.2066559467717 -1.9991375377221,52.2066505544034 -1.999245887513,52.2066415668782 -1.99936437128014,52.2066244904724 -1.99948152920654,52.2066038177275 -1.99959265363106,52.2065777532365 -1.99975071285449,52.2065283185366 -1.99992481925566,52.2064482356927 -1.99998188917737,52.2064320570045 -2.00012100556926,52.2064077891241 -2.00039163578706,52.2063853174281 -2.00073707147525,52.2063709331819 -2.00085265814121,52.2063691347536 -2.00110144920852,52.2063835121309 -2.00130041100435,52.206379914929 -2.00141165420069,52.2063700263223 -2.00154341024463,52.2063942914474 -2.00162967874198,52.2064032778026 -2.00186676733438,52.2064086658982 -2.0019429001217,52.2064032718426 -2.0020350797821,52.2063888895495 -2.00212436458722,52.2063682147638 -2.0022325905926,52.2063367544197 -2.00243311740269,52.2062945066909 -2.00251214491332,52.2062693383883 -2.0026466712155,52.2062082162868 -2.00293938289933,52.2062432614688 -2.00303748414673,52.2063933575811 -2.00306668803753,52.2064787426304 -2.00308286679531,52.2066594907874 -2.00320587147875,52.2074893458456 -2.00317945678585,52.2076403446633 -2.00320286931258,52.2077212363614 -2.00324389878427,52.2077851389668 -2.00326731211517,52.2078750184963 -2.00322629816282,52.2080233206139 -2.0031692330422,52.2081258757282 -2.00316778725576,52.2081717140609 -2.00314438313294,52.2082229464968 -2.00309467346616,52.2082678872458 -2.00284877754754,52.2084297682801 -2.00283562662576,52.2084459471339 -2.00274344958283,52.2086059355144 -2.00269953560761,52.2087282629407 -2.002601438542,52.208908028953 -2.00253567657782,52.2089997992818 -2.0024566422644,52.2090941772228 -2.00235999052467,52.2091885555357 -2.00224005027507,52.2092883278613 -2.00204976325354,52.2094178511001 -2.00206146772211,52.2094376251112 -2.00230580811963,52.2096848841782 -2.00243757265958,52.2097783587447 -2.00289706441544,52.2102368334841 -2.00304198446078,52.2103636518882 -2.00315468774766,52.2104777986453 -2.00329961005867,52.2106675340056 -2.00358052673227,52.210895914911 -2.00370493745192,52.2109857919928 -2.00397427268574,52.2111493670273 -2.00403424399094,52.211118805183 -2.00418652888336,52.2112033779367 -2.00495339001591,52.2114711930019 -2.00519050965224,52.2115728375408 -2.00555192564856,52.2117426962125 -2.00566608358238,52.2118145956304 -2.00637745708715,52.2120950776443 -2.00668626360728,52.2122101974969 -2.00700243350348,52.2123414059145 -2.00714144996277,52.2123728547362 -2.00731124031752,52.2124267728399 -2.00819819942567,52.2126083617446 -2.00829329423573,52.212650599532 -2.00841626165868,52.2126595783659 -2.00957549614137,52.2130316859404 -2.00977593773786,52.2130469484469 -2.0098740478443,52.2130667141197 -2.01001452167554,52.2131234162291 -2.01016090369495,52.2131584571302 -2.01017550680548,52.2131638493602 -2.01027506832865,52.2132042869919 -2.01057219587656,52.2133624507986 -2.01062638561713,52.2134047804338 -2.01066150453824,52.2134209559682 -2.01073029109463,52.2134317347466 -2.0107961791158,52.2134308302873 -2.01086786398018,52.213451495832 -2.01105962843153,52.2135197871096 -2.01135528638472,52.2135458237706 -2.01219097856888,52.2136419100283 -2.01239878038628,52.2136391911878 -2.01246613395048,52.2137129771561 -2.01248375844703,52.2137453320145 -2.01256719949753,52.2139880037114 -2.01260377607565,52.2140447150776 -2.01269309785928,52.2141372837337 -2.01277953702894,52.2142963643776 -2.01284242751091,52.2143737451237 -2.01296403415866,52.2147423365578 -2.01305336516422,52.2148717561896 -2.01310758191113,52.2150057632841 -2.01311784858035,52.2150462087592 -2.01310464314259,52.2153402138865 -2.01312964458775,52.2154309914357 -2.01311638717489,52.2155082908788 -2.01312231106396,52.2155541294984 -2.01315309832675,52.2156126394947 -2.01320139881334,52.2157348729362 -2.01326590445429,52.2159956122468 -2.01326000307024,52.2160459467059 -2.0132659250556,52.2160827972693 -2.01329369555777,52.2161385204451 -2.01331122444321,52.2162671390503 -2.01342109509693,52.216475652012 -2.01345913555767,52.2165808994322 -2.01350455929943,52.2167777346417 -2.0134562983622,52.2168280741217 -2.01359980778682,52.2168946595767 -2.01363637764657,52.2169027441724 -2.01368030697744,52.2169045370515 -2.01405356987355,52.2168604495788 -2.01411354629208,52.2168468697467 -2.01446482356869,52.2167200922522 -2.01455845405175,52.2166436815231 -2.01472234210992,52.2166445586776 -2.01539733906756,52.2171263255093 -2.01546457247918,52.2171659537111 -2.01559493010073,52.2172234602762 -2.01576910594384,52.2173133172877 -2.01590815587114,52.2173798103204 -2.01597997908879,52.217424741215 -2.01634744173522,52.2177249822573 -2.01652308009972,52.2178454881843 -2.01663885059099,52.2179434421947 -2.01683789468157,52.2180386867174 -2.01688763088868,52.218076429562 -2.01694039281353,52.2181403276797 -2.01724629222575,52.2180188529272 -2.01735454202956,52.2180017588073 -2.01832055857436,52.2177831080706 -2.01857965673859,52.2177408219834 -2.01894555997891,52.2176976196511 -2.01903484485552,52.217640080617 -2.01915480561194,52.2176373644442 -2.01945928044907,52.2175977660652 -2.02080580147228,52.2173844217402 -2.02092297405865,52.2173529420709 -2.02125807019164,52.2172468210393 -2.0213591122871,52.217314213876 -2.02160213959717,52.2175164912459 -2.02165780165581,52.2175749042942 -2.02174568649198,52.2176333103648 -2.02186711784558,52.2176827220189 -2.02223163491196,52.2177833198024 -2.02244105685189,52.2178516798645 -2.02275729803728,52.2179432964915 -2.02317167088055,52.2183190093087 -2.02322877841241,52.2183666352042 -2.02335759437881,52.2184547822091 -2.02382037544805,52.2188349766868 -2.0239081457691,52.2188942803172 -2.02394038551649,52.2189275303487 -2.0239653901631,52.2189733643779 -2.02369314522068,52.2190336409735 -2.02380589812468,52.21909302949 -2.02391129590218,52.2191676092378 -2.02397130381175,52.2192188295898 -2.02411330688156,52.2193644984243 -2.02422027050339,52.2194300895639 -2.02425685995375,52.2194696294169 -2.02428030804263,52.2195397323614 -2.02432717554379,52.2196188184282 -2.0244399548867,52.2197267418711 -2.02451615866887,52.2198228995763 -2.02475207124449,52.2202229115481 -2.02486329112233,52.2203452165058 -2.02493065865324,52.2203847504916 -2.02497605873036,52.2204242882527 -2.02502146678476,52.2204764103083 -2.0250551773161,52.2205510044737 -2.0251431191797,52.2207011773336 -2.02517536483123,52.2207389206153 -2.02522221365398,52.2207793570482 -2.02551357571642,52.2210220638388 -2.02559266052805,52.2210795709554 -2.02563806231307,52.2211200075503 -2.02568057341653,52.22116943279 -2.02571862835125,52.2212377341203 -2.02573627244159,52.2212800648455 -2.02570847806751,52.2214436553623 -2.025721790664,52.2215137593832 -2.0258595561372,52.2218382913284 -2.0258653805927,52.2218986007007 -2.02585661909549,52.2219893828565 -2.02586402088098,52.2220648817028 -2.02609697535079,52.22253239332 -2.02615711869092,52.2225997914203 -2.02618634069807,52.2226240526397 -2.02631370095472,52.2226653697001 -2.02636936678186,52.2227111963667 -2.0264133123311,52.2227318597232 -2.02651580540595,52.222766889576 -2.02694628540869,52.2228882217808 -2.02733283548012,52.2230139663693 -2.02742651615211,52.2230472002622 -2.02748651920903,52.2230741502808 -2.0276271779426,52.2231506066883 -2.02769297232772,52.2231721626025 -2.02773546341102,52.2231793433336 -2.02777650164892,52.2231802326838 -2.02817165404031,52.2231468816369 -2.02832833169636,52.223162123603 -2.02837371113686,52.2231567199843 -2.02854205074786,52.2230927729998 -2.02867384217599,52.2230711693646 -2.02879972357155,52.2230567578186 -2.02925341744342,52.2230287822535 -2.02937931322402,52.2230386378636 -2.02945994771268,52.2230503019749 -2.02962243293805,52.2230898085499 -2.02969124636725,52.2231131607481 -2.02991677517713,52.2232120626023 -2.02998991770996,52.2232093475921 -2.03003239749938,52.2231976523595 -2.03010998484487,52.2231625784842 -2.03014063898596,52.2231553798172 -2.03044660463942,52.2231418191418 -2.03056369028715,52.2231525739603 -2.03060908113523,52.2231633483032 -2.03066328861978,52.2231849056099 -2.03071315355124,52.2232100594255 -2.03077027361597,52.2232558837164 -2.03081266316593,52.2232936228875 -2.03090487703588,52.2232900032251 -2.03239687033298,52.2236743845136 -2.03285506231588,52.2236895369057 -2.0334261089473,52.2237010600427 -2.03384472709665,52.2237368931851 -2.0350510325326,52.2237564030904 -2.03501605981337,52.223964938696 -2.03545963569077,52.2239576143507 -2.03602027977331,52.2239331753407 -2.03623385342101,52.2236804522234 -2.03677066345188,52.2231129502816 -2.03708851454923,52.2233313531721 -2.03715584615182,52.2233070630708 -2.03722027858718,52.2232782811721 -2.03735186645382,52.223153302814 -2.03739576420383,52.2231055622676 -2.03741914934756,52.2230669053316 -2.03743372396949,52.2230273521337 -2.0374381420147,52.2229671306376 -2.03740868752984,52.2228061614723 -2.03810235979285,52.2225192142654 -2.03812564135354,52.2223492399905 -2.03810648227217,52.2222368941196 -2.03807274516637,52.222158618077 -2.03802295823365,52.2220840325566 -2.03795700143074,52.2220130467716 -2.03786182772254,52.2219312851022 -2.03803012947612,52.2218412590582 -2.03805049764603,52.2216525004329 -2.03803273410393,52.2214735514408 -2.0384994600016,52.2211650137521 -2.03864133455977,52.2210867697812 -2.03870429927205,52.22104001047 -2.03875253618206,52.2209896606026 -2.03885344524374,52.2208511190082 -2.03887538101474,52.2208133612987 -2.03888416273114,52.2207774061152 -2.03887096361127,52.2207234812155 -2.03883725910272,52.2206839438572 -2.03863367139522,52.2205625812232 -2.03851351060721,52.2204754356832 -2.03830982368583,52.2202255406064 -2.03824257360658,52.2201950030497 -2.03821322459436,52.2201698457171 -2.03819557962601,52.2201401909667 -2.0381897687486,52.2201168231798 -2.03820725219964,52.2200961450008 -2.03826588214186,52.2200628689713 -2.03830098115871,52.2200349941912 -2.03832581888977,52.220003527363 -2.03835938252335,52.2198659073235 -2.03843838713716,52.219805660308 -2.03851596257724,52.2197687833992 -2.03862270896084,52.2196887528128 -2.03862415740004,52.2196878541562 -2.03866515584294,52.2196428094444 -2.03868853962795,52.2196041522008 -2.03870598427984,52.2195358363906 -2.03870879422298,52.2194279768572 -2.03872052378236,52.2193065428036 -2.03869259526808,52.2192454319507 -2.03886975797776,52.2192336886788 -2.03904831037222,52.2192965464491 -2.03958569391003,52.2195301487364 -2.0401612711676,52.2198221584089 -2.04090086866205,52.2202462345782 -2.04097693667788,52.2202830592898 -2.04105601720387,52.2203145801401 -2.04130350053091,52.2203872974861 -2.04224826548969,52.2210486706588 -2.042361047833,52.2211088509438 -2.04242395409727,52.2211357923641 -2.04256315677922,52.2211815821379 -2.04259238091251,52.2211995476478 -2.04266122804792,52.2212580353957 -2.04273310644265,52.2213290164721 -2.0427902635145,52.2214053946565 -2.04283414601545,52.2214844749061 -2.04286063765575,52.2215500789515 -2.04288125090801,52.221655323655 -2.04288152010025,52.2219556188846 -2.04290053293791,52.2220275174003 -2.0429505010152,52.2221614237904 -2.04314251828263,52.2225480246341 -2.04318651099487,52.2226127239806 -2.04324076036231,52.2226747222941 -2.04331553419314,52.222742106558 -2.04338440640799,52.2228230645298 -2.04357489134173,52.2231115148332 -2.04405222707084,52.2232058023658 -2.04411960295113,52.2232336403157 -2.04416356778285,52.2232659815399 -2.04493549426077,52.2236990091738 -2.04532656343714,52.2239488201009 -2.04563706802719,52.2241366427951 -2.0457366843753,52.2241743544489 -2.04640135922333,52.2242612796181 -2.04663712751291,52.2242971384311 -2.04677473931815,52.2243069707974 -2.04720070073822,52.2243068001858 -2.0472680441564,52.2242968859144 -2.04731933067306,52.2242851808255 -2.04739535864782,52.2242698703094 -2.04746124550316,52.2242527656912 -2.04747005340168,52.2242491667157 -2.04751542099948,52.2242329694454 -2.04760324246175,52.2241825998724 -2.04773927930336,52.2240656986402 -2.04777711673903,52.2238822335911 -2.0477990331068,52.2238309916078 -2.04788678292992,52.2237104245299 -2.04789991212843,52.2236834540231 -2.04791299611206,52.2236115431221 -2.04789377828606,52.2234650435224 -2.0479068639344,52.2233948399671 -2.04794487365696,52.2232644958835 -2.04797112266642,52.2232015676673 -2.04805886539889,52.2230756068623 -2.04819041416784,52.222941628886 -2.04832501392135,52.2228418036743 -2.04886639022283,52.222527800921 -2.04904634838236,52.2224062953302 -2.04907263894746,52.2223856109166 -2.04917933921631,52.2222714164969 -2.04933436304563,52.2220852052301 -2.04953473650107,52.2219835535956 -2.04958309944901,52.2219493780451 -2.04979364955938,52.2217703334522 -2.04985070399473,52.2217370531704 -2.04999269101937,52.2216668843137 -2.05030143484433,52.2215552987675 -2.05055019505458,52.2214472428993 -2.05069941075205,52.2213680819539 -2.05109733465253,52.2211341260496 -2.05124507061717,52.2210271016709 -2.05220288233026,52.2201284854043 -2.05264004085695,52.219702157305 -2.0528521191573,52.2195060290793 -2.05373537986483,52.218799870787 -2.05392837609088,52.2186010530088 -2.05494624027393,52.2177500229631 -2.05507486205326,52.2176205327519 -2.05552507614866,52.2170520845733 -2.05574429129303,52.2167921318789 -2.05626616741965,52.2162246394424 -2.05671061378607,52.2158053963204 -2.0567631283297,52.2157217812803 -2.0569164555329,52.2153773705618 -2.05703639916115,52.2153674250545 -2.05719574741366,52.2152117616763 -2.05742124742174,52.2152692657058 -2.05755016474902,52.215295268334 -2.05775065041936,52.2153257291016 -2.05790442054161,52.215345427359 -2.05808292319953,52.2153588205288 -2.05831717935034,52.2153730856379 -2.05841963924344,52.2153748317962 -2.0586508484517,52.2153648290672 -2.05896698185846,52.2153269199471 -2.05908253175674,52.2152783260946 -2.05996658334517,52.21524273273 -2.06011865863305,52.2151644578138 -2.06125182237539,52.215429110735 -2.06147296189229,52.2154694423767 -2.06164136901997,52.2155142940421 -2.06187705433011,52.2156023436846 -2.06234127996508,52.2157593903882 -2.06286099273117,52.2158040536753 -2.06321956361288,52.2158254321449 -2.06361629821508,52.2158656639492 -2.06381977142562,52.2158700477296 -2.06388409041643,52.2158673154476 -2.06402018984053,52.2158456696736 -2.06497906632428,52.2158928690116 -2.06562299152882,52.215872645959 -2.06584982048973,52.2158365665442 -2.06606932541216,52.2158265558579 -2.06621282297263,52.215831867492 -2.06625531861668,52.2158426296509 -2.06628900938193,52.2158578903444 -2.06631534577382,52.2158776496583 -2.06637239567865,52.215854247743 -2.06645000273512,52.2158613945424 -2.06657274918449,52.2157867233617 -2.06664884912072,52.2157525243058 -2.06682291335681,52.2156975978808 -2.06703070482986,52.215600407155 -2.06707461418516,52.2155877985991 -2.06713168138976,52.2155778788102 -2.06719455479459,52.2155769436999 -2.06727651103964,52.2155867837835 -2.06727795860579,52.2155867829524 -2.06785615208775,52.215596336679 -2.06796152265337,52.2156070617994 -2.06810795717089,52.2156411316764 -2.06828665834128,52.2157048429911 -2.06852674205542,52.2157388577297 -2.06860866292192,52.2157244291195 -2.06853253286283,52.2156561638842 -2.06848122849042,52.2156454076962 -2.06845345287584,52.2156328404963 -2.0684343604283,52.2156157746513 -2.06842551872926,52.215594208351 -2.06847201703286,52.215373881277 -2.06849677620889,52.2153055561209 -2.06855812584094,52.2151724061548 -2.06874199257346,52.2148153780329 -2.06877270018484,52.2147713180105 -2.06882824490588,52.2147119636442 -2.06890272942569,52.2146490027232 -2.06899773471111,52.2145895351623 -2.06909287612007,52.2145400444613 -2.0693064717941,52.2144572269714 -2.06942637104052,52.2144212038625 -2.06948051810466,52.2143969039871 -2.06954333168979,52.2143573182937 -2.07022933732863,52.2140107749966 -2.07051137003895,52.2137822167566 -2.07059182591355,52.2136805118968 -2.07061953776256,52.2136517338456 -2.07065606302375,52.2136265449714 -2.07073794904758,52.2135923397851 -2.07140080818203,52.2134310505251 -2.07120154383579,52.2133322116039 -2.07113702725931,52.2132828161154 -2.07109750241954,52.2132405953273 -2.07105636854072,52.2131732095344 -2.07052706494526,52.2125208089577 -2.07044052494114,52.2124299907202 -2.07034239998726,52.2123383702032 -2.07020901575793,52.2122305918948 -2.07003179934241,52.2121038754656 -2.06979879382799,52.2119512150611 -2.06968156505933,52.2118326412364 -2.06960979595954,52.2117714740367 -2.06957015244345,52.2117292536917 -2.06953640548564,52.211676243647 -2.06951147033082,52.2116250256156 -2.06944352757853,52.2112187105919 -2.06999293873772,52.2097088215933 -2.0703503804217,52.2089380516901 -2.07022447112036,52.2088994786687 -2.07003407913761,52.208827687293 -2.06988034687742,52.208742391342 -2.06967221949438,52.2085977199539 -2.06956819871857,52.2085141936445 -2.06928540766655,52.2082311529126 -2.06914174430185,52.2081045079181 -2.06893660764074,52.2079400597684 -2.06862303678903,52.2076435533553 -2.06854529697844,52.2075429342093 -2.06847485567847,52.207401775364 -2.06842927901877,52.2072660843593 -2.06834413226776,52.2071349107441 -2.06833092527918,52.2070989664028 -2.0683249519895,52.2070593335456 -2.06833077106411,52.2069991110072 -2.06840657993776,52.2067878507136 -2.06841205074321,52.2065810358574 -2.06841055205348,52.2065477818353 -2.06836344289544,52.2063571751077 -2.06829584331725,52.2061792541717 -2.0682737536938,52.2060946908584 -2.06826785496261,52.2060254873477 -2.06828237845101,52.2059769446661 -2.06832475763242,52.2059175989758 -2.06838164043974,52.2057970385003 -2.06975421483482,52.2048899787602 -2.06991355969533,52.204791916405 -2.07039179746404,52.2046253532495 -2.07058631188089,52.2045667254233 -2.07103397099392,52.204445118802 -2.07117003611764,52.2044279589301 -2.07130608956201,52.2044027101708 -2.07142310224592,52.2043918540234 -2.0716337496644,52.2043881303276 -2.07167476006621,52.2043809146973 -2.07181657561566,52.2043385853079 -2.07196286709303,52.2043043408427 -2.07213547128482,52.2042763724648 -2.07222919805823,52.2042655298314 -2.07248374330159,52.2042500036584 -2.07261833498263,52.2042175637057 -2.07265052867687,52.2042058597495 -2.07311970739746,52.2038980920751 -2.07338431865282,52.2037702980369 -2.07374262927212,52.2036162903669 -2.07387563295869,52.2035739640518 -2.07404097176372,52.2035334134945 -2.07436567118095,52.2034828759226 -2.0745749231875,52.2034413995422 -2.07457492167192,52.2034405004949 -2.07522580628331,52.2032943908523 -2.07530031467891,52.2032637844375 -2.0753236904279,52.2032466920216 -2.07534271861895,52.2032269070449 -2.07536170691352,52.2031828540831 -2.07515893288518,52.2027056362114 -2.07514715791403,52.2026624121132 -2.07521587844915,52.2026354038521 -2.07535623631247,52.2025921721198 -2.07550541805814,52.2025597195302 -2.07578923133295,52.2025217874354 -2.07622828364838,52.2025376815891 -2.07708145982324,52.2025928494172 -2.0778818355948,52.2026031071808 -2.07809690651188,52.2025813934844 -2.07845966316966,52.2025002598311 -2.07878290771077,52.202453306414 -2.0790491927133,52.2023992007804 -2.07904319597688,52.2023514788541 -2.07966338274244,52.2021919732753 -2.07986662955988,52.2021711634314 -2.0799969218888,52.202169277563 -2.08234329655612,52.2026090516575 -2.08269442187274,52.202571055771 -2.08335561752938,52.2024753163572 -2.08352384431471,52.2024374476527 -2.08361008093523,52.2024248032348 -2.08368173562654,52.2024202587727 -2.08401832940645,52.2024182204211 -2.08427875772978,52.2023955648759 -2.08460055168119,52.2023512029299 -2.08503493853387,52.2022610097139 -2.08521201489085,52.2022456020864 -2.08530126632002,52.2022329542427 -2.08545912834842,52.2022013818368 -2.08645128407011,52.2021916681227 -2.08671159881697,52.2021743988709 -2.08686959166443,52.202148217872 -2.08693542583684,52.2021292945749 -2.08718832762191,52.2020238583909 -2.08728772903597,52.2019581730084 -2.08747178974256,52.2018160270997 -2.08755512675422,52.2017412757715 -2.08769956817085,52.2015748919414 -2.08774915411373,52.2014544167401 -2.08776805417845,52.2014337308283 -2.08783383494152,52.2013886519888 -2.08808674124209,52.2012886971826 -2.08816716290728,52.2012652679302 -2.08839263214095,52.2013208241899 -2.08879466464099,52.2011083162518 -2.08891443694592,52.2010363225824 -2.08930599091175,52.2007752866741 -2.09010291696592,52.2004690005179 -2.09028266668366,52.2004086435081 -2.09115699741533,52.2000888089237 -2.0914041634011,52.2000203093995 -2.09148017127442,52.1999654247608 -2.09151363479362,52.1999294468376 -2.09158518546662,52.1998196492906 -2.09174726426591,52.1996766153287 -2.09178968020321,52.1996532142565 -2.09194438255453,52.1995020071734 -2.09202773714929,52.1994417230608 -2.09215197656876,52.1993769134172 -2.09224696216403,52.1993408870283 -2.09245608701249,52.1993128604328 -2.09278651225226,52.1992001619837 -2.09280846029702,52.1991965493774 -2.09285092072543,52.1991947186529 -2.092921141529,52.1992000556267 -2.09312753774849,52.1992521114619 -2.09326074871701,52.1992654879089 -2.09336750769324,52.1992636059638 -2.09349630792573,52.1992455271913 -2.09360597765881,52.1992508332709 -2.09368642926392,52.1992453758076 -2.09378307372199,52.1992524892932 -2.0938589430047,52.1991345972957 -2.09390410711024,52.1990428856766 -2.09403070809918,52.1987299161427 -2.09428238555865,52.1987458928371 -2.09440674071938,52.1987368052767 -2.09445352771879,52.1987277799425 -2.09461524929284,52.1984246683191 -2.09490686452878,52.1979416049862 -2.09496809652954,52.1978624620875 -2.09499585567165,52.1978130065916 -2.09504530659003,52.1976979221784 -2.09505120964574,52.1976943221257 -2.09620112356978,52.1976637262213 -2.09620980001336,52.197659225695 -2.09628715037163,52.1975611044615 -2.09633088697179,52.1974819751752 -2.09636291936135,52.1974010582769 -2.09638601789802,52.197262536115 -2.09637091295377,52.1970297624574 -2.09638817532369,52.1969253988807 -2.09640855350292,52.1968669613428 -2.09645373368361,52.1967860336254 -2.09665208420444,52.1965278286587 -2.09668409610177,52.1964388220694 -2.09668840766404,52.1963695219472 -2.096649808564,52.1961502496886 -2.09665400230135,52.1960279212983 -2.09673291983726,52.1959856129532 -2.09671039714555,52.1957266912752 -2.09674087503743,52.1956529651878 -2.09684925928421,52.1956816372735 -2.09692528143236,52.1956941576384 -2.09700430450771,52.1956994849164 -2.09707607278976,52.1956976284715 -2.09716527381736,52.1956696924618 -2.09717392994188,52.1956562032277 -2.09717531141168,52.1956265425929 -2.09715774781504,52.1955933014402 -2.09713865012805,52.1955762407657 -2.0970346805833,52.1955259945152 -2.09682679733141,52.1954505778556 -2.09674905671375,52.1953688521591 -2.09671098869655,52.1953365268613 -2.09667280917195,52.1953086959688 -2.09661423988162,52.1952781855909 -2.09659223690712,52.1952557338451 -2.09658636161462,52.1952170905279 -2.09661257461981,52.1951793198821 -2.09673533602304,52.1951081251231 -2.0966369992846,52.1949859709617 -2.09644077508303,52.1948899612972 -2.09640553210583,52.1948252778495 -2.0963966337683,52.1947829518146 -2.09639649998662,52.194721834842 -2.09635239650438,52.1946319916759 -2.09633040774586,52.1946158322844 -2.09630553753889,52.1946059658684 -2.09627923225343,52.1946014930952 -2.09625149041935,52.1946024148639 -2.09622508874565,52.1946087280012 -2.0960819426192,52.1946798489993 -2.09614958102946,52.1948308799983 -2.09615109071464,52.1948596401126 -2.09614234586581,52.1948875095709 -2.09612334646617,52.19491448927 -2.09609710574241,52.1949396767971 -2.09607084734035,52.1949567747258 -2.09602250611261,52.1949702963112 -2.09596691767679,52.1949793294688 -2.09591432435796,52.1949784733581 -2.09586449116263,52.1949713234556 -2.09583383037243,52.1949614625629 -2.09578551860584,52.1949327406 -2.09582007018553,52.1946800628038 -2.09581828870357,52.194582096217 -2.0958007245787,52.1945479567136 -2.09574641133428,52.194477806235 -2.09567607070697,52.1944140493032 -2.09555009182821,52.1943359573536 -2.0950611373306,52.1941906600414 -2.09495716367457,52.1941359185353 -2.09481508653122,52.1940874983058 -2.0946480312222,52.1939213572823 -2.09460106180261,52.1938431107509 -2.0952713343861,52.1939460196768 -2.09531512438381,52.1939477822576 -2.09537373653736,52.1939432403768 -2.09544088746505,52.1939270075419 -2.09550089770571,52.1938999955262 -2.09553004678295,52.1938810073759 -2.09562058611876,52.1938036374343 -2.09568205806984,52.1937829156541 -2.09573029818104,52.1937792810853 -2.09578302323355,52.193785529641 -2.09581078412332,52.1937935957203 -2.09596015002502,52.1938662758292 -2.09600842155679,52.1938770222477 -2.0960654789904,52.1938787728112 -2.09610936733761,52.1938706482171 -2.09615756383481,52.1938463417637 -2.09621012065958,52.193776193003 -2.0962963853751,52.1937302845288 -2.0964982330021,52.1937525878972 -2.09664311388411,52.1937596594067 -2.09683622244428,52.193756804209 -2.09703964321726,52.1937818024912 -2.09717721075473,52.1938086520853 -2.09710725972639,52.1939220471408 -2.09718487697384,52.1939480481004 -2.09767344288022,52.1939161854845 -2.09773760381609,52.1938576213816 -2.09776098118328,52.1938468160924 -2.0978005137244,52.1938333011193 -2.09783704854428,52.1938269791923 -2.09791750781141,52.1938296084219 -2.09849430742007,52.1939865043245 -2.0987080901609,52.1941130543922 -2.09879164119242,52.1941489361133 -2.09885167293373,52.1941857357047 -2.09890739318398,52.1942361108806 -2.09893375907307,52.1942675462826 -2.09900283703684,52.1944112939945 -2.09909201956595,52.1943761659668 -2.09923958751785,52.1942897582949 -2.10005252760744,52.1947439455295 -2.10012444741683,52.1948094957081 -2.10015373650732,52.1948527022424 -2.10019351187537,52.1949452439255 -2.10025654394221,52.1950278780616 -2.10035459179193,52.1950188066394 -2.10042480280594,52.1950223419574 -2.10048925144653,52.1950375661509 -2.10054781076613,52.1950626821468 -2.10065613355249,52.1951165168652 -2.10072817834984,52.1952360838972 -2.10076477146043,52.1952549270883 -2.10079699424269,52.1952620900251 -2.10083643947086,52.1952620561946 -2.10108358290703,52.1952025231324 -2.10124038689872,52.1953560817568 -2.10126405355424,52.1954189765507 -2.10135767420276,52.1954260855289 -2.10145548333826,52.1953657822316 -2.10149784867942,52.1953244021859 -2.10154025597332,52.1953018957435 -2.10161776839311,52.1952802580037 -2.10162344906143,52.1952326171879 -2.10159114740501,52.1951913007056 -2.10141124838599,52.1951707833243 -2.1014680591374,52.1950645876544 -2.10148254625929,52.1950178382902 -2.10150876475334,52.1949836618357 -2.10155404625021,52.1949521651529 -2.10159356974461,52.1949341555086 -2.10161249977405,52.1949305438732 -2.10182907861045,52.1949564216729 -2.10194030713961,52.19496171779 -2.10229156277353,52.195012644001 -2.10233836786797,52.1950144004746 -2.10244509960049,52.1950053198009 -2.10284580883597,52.1948998114789 -2.10297301804697,52.1948790284313 -2.10308119347284,52.1948681478298 -2.10319384420769,52.1948635556195 -2.10332846251571,52.1948643364771 -2.10336641479384,52.1948454285773 -2.10339562986821,52.1948039686086 -2.10393256888342,52.1948224598311 -2.10414128069647,52.1946316417169 -2.10434726234752,52.1945119203402 -2.10439695571477,52.1944596570133 -2.10446689716123,52.1943490438441 -2.10451649456566,52.1943076554009 -2.10455746462961,52.1942896434839 -2.10460423279917,52.194276119824 -2.10496406909182,52.1942335567536 -2.1051014476665,52.1941785177216 -2.10533817898805,52.1940569699566 -2.10543456946369,52.1940119439382 -2.10576656602573,52.1939810873685 -2.10586457598386,52.1939576312301 -2.10592881069819,52.19393420453 -2.10603410847663,52.1938819803406 -2.10638900381647,52.1936433905261 -2.10660696012327,52.1936413960275 -2.106715126188,52.1935792818372 -2.10695804718209,52.1936248990411 -2.10699025453246,52.1936257688001 -2.10704873932015,52.193619424081 -2.10709695144356,52.1936041009329 -2.1071334440149,52.1935815978766 -2.10714812040922,52.193565406197 -2.10704690826486,52.193461148883 -2.10705402976405,52.1934135065053 -2.10733035456807,52.1933080970464 -2.10772703251133,52.1933904232539 -2.10802125691886,52.1935016026792 -2.10818714629288,52.1937136545023 -2.10826769351632,52.1937513285997 -2.1083525475733,52.1937746193522 -2.10844184602471,52.1937907153864 -2.10855741666531,52.1937969003179 -2.10881795021211,52.1938424974251 -2.10896718210299,52.1938522460947 -2.10907103231615,52.1938503526716 -2.10915303614476,52.1938430860585 -2.10927732788973,52.1938151083822 -2.10969072941694,52.1935855329064 -2.10981353130478,52.1935412878432 -2.10990116974045,52.1935205333789 -2.11009998042381,52.1934349634296 -2.11015699074568,52.193417832713 -2.11020810200225,52.1934052018192 -2.11025935262416,52.1933997613323 -2.11039975321447,52.1933996296768 -2.11051685085036,52.1933896329506 -2.11057676510781,52.1933760945839 -2.11067028380186,52.1933436509385 -2.11087350421166,52.1932859369394 -2.11106785516149,52.1932029750017 -2.11120102709478,52.1932064444982 -2.11130184474968,52.1931982604696 -2.11135582308166,52.1931272046489 -2.11146272211363,52.193138788316 -2.11173316705504,52.193098085596 -2.11194798965326,52.1930026105499 -2.11202539803157,52.192944115161 -2.11212335195928,52.1929007904042 -2.11220086194682,52.1928818419791 -2.11256345115717,52.1928383541303 -2.1126877273303,52.1928067776128 -2.11284558032122,52.1927455083903 -2.11319768190731,52.1925635254442 -2.11343593342852,52.1924824053827 -2.11351343982202,52.1924625570582 -2.11422041823392,52.1926174535324 -2.11441210283536,52.1926262550722 -2.1145451346879,52.1926225303793 -2.11471624816513,52.1926060954893 -2.11462299558139,52.1927392970801 -2.11462891741065,52.192743784736 -2.11472402961815,52.1927688581015 -2.11479280546556,52.1927777787791 -2.11490691905591,52.1927812626867 -2.11508553696639,52.1928206353049 -2.11520985821914,52.1928070315878 -2.11534598691371,52.1928338614763 -2.11547031047519,52.192821156527 -2.11561363874694,52.1928335988269 -2.11580959810229,52.192816329697 -2.11595004743894,52.1927892272595 -2.11616513240608,52.1927980037871 -2.11636426838826,52.1928876854047 -2.116456424214,52.1928884932883 -2.11654008327879,52.1929613022813 -2.11658402505782,52.1930205785952 -2.11688590780934,52.1931928461764 -2.117014789969,52.1932611155747 -2.11702215179699,52.1932629054434 -2.11708639634845,52.1932457650951 -2.11712591660414,52.1932294575632 -2.11717997782549,52.1931925537219 -2.11723243821548,52.1931439665738 -2.11738883455409,52.1930808955594 -2.11746793291171,52.1931158694637 -2.11767150037955,52.1931920632634 -2.11775777872575,52.193205458127 -2.11786179499228,52.1932215322958 -2.11793921914786,52.193216062261 -2.11798759362628,52.193218710004 -2.11803586403,52.1932267511969 -2.11811350064189,52.1932564226552 -2.11834931128955,52.1933910036264 -2.11845185296356,52.1934412325124 -2.11865688482747,52.1935228155383 -2.11895711769386,52.1936160758703 -2.11933767396022,52.193704670667 -2.1195499626482,52.1937475966765 -2.1199407149608,52.1938146084062 -2.12115957744522,52.1938979353514 -2.12147275919286,52.1939155879254 -2.12159414451554,52.1939298436544 -2.1217127705738,52.1939503927248 -2.12184735071289,52.1939817109882 -2.1220040413,52.1940264882399 -2.12226169209253,52.1940711595223 -2.12239341120312,52.1941150631585 -2.12247252672352,52.1941536289461 -2.12256340778094,52.1942165393298 -2.12270092957426,52.1942208894253 -2.12286501305496,52.194277341804 -2.1233101145494,52.1944089979272 -2.12346521971524,52.1944465843485 -2.12358674972077,52.1944689265794 -2.12366293273448,52.1944941024887 -2.12372585799431,52.1945227976629 -2.12378446748747,52.194561384132 -2.12413150360537,52.1946482006623 -2.12423104320035,52.1946570833605 -2.12435245779849,52.1946812221153 -2.12440811858624,52.1947000378145 -2.12490906315605,52.1949117112217 -2.12512002919284,52.1949950739291 -2.12523626546416,52.1952341175968 -2.12532287386145,52.1953616527952 -2.12535954231548,52.1954038571237 -2.12546816561116,52.1955098878996 -2.12577161697552,52.1957063979874 -2.12587569895168,52.1957845718649 -2.1260678457141,52.1959497426397 -2.12609277053527,52.1959766791662 -2.12616054074611,52.1961375794676 -2.12636281016506,52.1962982454842 -2.12642008564982,52.19637467014 -2.12660162339934,52.1964140221388 -2.12703550343822,52.196701255867 -2.12697157554955,52.1968289531332 -2.12699369019796,52.1968846538142 -2.1270581687755,52.1969483983601 -2.12730891675946,52.1971432531872 -2.12816063456155,52.1977078454114 -2.12823536026542,52.197767982877 -2.12832936748194,52.1978631520946 -2.12860221208674,52.1981029196787 -2.12892354185509,52.1984217278094 -2.1309621415655,52.1976120971652 -2.13144138125725,52.1973994488137 -2.13182721604907,52.1972569198031 -2.13266916824694,52.1969998190614 -2.13322763338903,52.196863381352 -2.13494119991403,52.1964766587921 -2.13506319988756,52.1966887219529 -2.13643845860562,52.1966781463955 -2.13796290954065,52.1966592012406 -2.13842369467517,52.1966532663293 -2.13901774175697,52.1966372862462 -2.1395515378866,52.196603399183 -2.14123638956422,52.196423427891 -2.14187112376101,52.1963443794373 -2.14196756642875,52.1967390104886 -2.14201429294634,52.1971659682278 -2.14214610180075,52.1976791961961 -2.1421916997534,52.197753741153 -2.14223888354325,52.1978714248589 -2.14224948099282,52.1979784577579 -2.14222400126218,52.1982328455307 -2.14394320532179,52.1978064362199 -2.14527580716919,52.197726603349 -2.14544691452359,52.1977057201303 -2.14544836150322,52.197705718341 -2.14546439375101,52.197702103231 -2.14545999818281,52.1976859303399 -2.14541697704332,52.1975160225433 -2.14557924924157,52.1974861622886 -2.14594189242632,52.1974209995628 -2.14612923194345,52.1974207669616 -2.14620972335662,52.1978683539798 -2.1463486909546,52.1978681811601 -2.14645221134812,52.1982015920048 -2.14650977634879,52.1983544048486 -2.14658195663524,52.1985125011252 -2.14662612349003,52.1985898323416 -2.14772170981043,52.198513772555 -2.14941583984155,52.1984621989868 -2.14955438737069,52.1983370914842 -2.15006361862682,52.1983481270142 -2.14955578212729,52.1991786256314 -2.14989379498256,52.1991763982856 -2.15050217114931,52.1991081221425 -2.15090452345176,52.1990824406682 -2.15124058187068,52.1989669644975 -2.15130782167039,52.1989453072251 -2.15137075266841,52.1989335413711 -2.15192804677292,52.198885185696 -2.15241944349358,52.1988287325088 -2.15266952859806,52.1987960513952 -2.15308183811158,52.1987191164765 -2.15349418523949,52.1986538649587 -2.1536797882864,52.1986032896145 -2.15448646428268,52.1983235141949 -2.15448517390064,52.1983684556791 -2.15449840741867,52.1983927053317 -2.15453359007598,52.1984151288638 -2.15458489476638,52.1984249480659 -2.15461119266478,52.1984249133951 -2.15467411317908,52.1984104501537 -2.15507346350488,52.1983901490683 -2.15522078167446,52.1986722641036 -2.15523138453806,52.1987720155834 -2.15525196364774,52.1988268149619 -2.15531530678713,52.1989328780465 -2.15534920599378,52.1994146749964 -2.15538028526822,52.1995396553808 -2.15538528173911,52.1996915437385 -2.15548907692761,52.20008336934 -2.15566710629325,52.2003825196722 -2.1556878449734,52.2004481936301 -2.15573640070029,52.2005335143912 -2.15577903401442,52.200581093809 -2.15585538817293,52.2006466039785 -2.15607966050287,52.200783910462 -2.15610892931942,52.2007703903171 -2.15616006125631,52.2007307749954 -2.15619791686773,52.2006892902211 -2.15622260728886,52.2006434194264 -2.15636970899152,52.2004499831455 -2.15641042125819,52.2003635555813 -2.15647014431003,52.2002969652987 -2.15654607349682,52.2002420382845 -2.15671250143102,52.2001582280368 -2.15715534823389,52.200016435717 -2.15756325000888,52.1999206173978 -2.15815959686402,52.1997597394467 -2.15845192315145,52.1996640737332 -2.15874417744035,52.1995486327975 -2.15884197718795,52.1995044596254 -2.15944683040864,52.1992294184347 -2.15966138011137,52.1991112945725 -2.15990970998436,52.1989941132094 -2.16054671061075,52.198738796001 -2.16086084723548,52.1986062431236 -2.1614670131904,52.198333884693 -2.16164889541465,52.1984567689153 -2.1620655662815,52.1987537839364 -2.16242063073567,52.1990266157134 -2.16271387001058,52.1992168430199 -2.1630072343097,52.1994069804518 -2.16308205895454,52.199448221087 -2.16333125340333,52.1995675029662 -2.1634177601274,52.1996356914452 -2.16348813946875,52.1996814314768 -2.16358639271159,52.1997289307131 -2.16400134813239,52.1999792044955 -2.16425192000395,52.2000786198632 -2.16488025036731,52.2002521950228 -2.16492984371249,52.2001901079382 -2.16497786507951,52.2001271257872 -2.16512923235309,52.1999227969571 -2.16580498058713,52.1990641253595 -2.1663469383891,52.1984358196386 -2.16657962625248,52.1980776796296 -2.16678338079157,52.1977896864592 -2.16720448913554,52.1969187842557 -2.16728551020219,52.196683184576 -2.1673682663465,52.1965238902654 -2.16741180607427,52.1964258593312 -2.16749419385804,52.1961694948 -2.16757000499304,52.1957046197543 -2.16816014373152,52.1931306148918 -2.16838683415086,52.1923463593533 -2.16851979386173,52.1919109716729 -2.16876868667028,52.1911958904218 -2.16926697089806,52.1899032424801 -2.17001955886831,52.1877821608496 -2.17083595994476,52.1855576180185 -2.1711524336967,52.1845601192022 -2.17175436773422,52.1828510729067 -2.17086461871738,52.1827228592846 -2.17082964052858,52.1827525710798 -2.17073893406823,52.1827473101094 -2.1706774434625,52.1827500970255 -2.17057511157463,52.1827637276392 -2.17043040018631,52.1827639386117 -2.17027664148811,52.1827318065166 -2.1701756611308,52.1827202684897 -2.17000451020666,52.1827124286185 -2.16993717073556,52.1826999433251 -2.16980544400015,52.1826578908009 -2.16959922721502,52.1826572918875 -2.16946747549226,52.1826404053489 -2.16881209170704,52.1826188831912 -2.16870524600812,52.182586680419 -2.1686741878843,52.1825058337148 -2.16845329886129,52.1824835921485 -2.16831580339388,52.182478397606 -2.16801156386831,52.1824824304242 -2.16786668253157,52.1824691562313 -2.16748789097444,52.1824661039519 -2.16659550030575,52.1823999691952 -2.16634680380639,52.182390436287 -2.16604844672337,52.1823872649547 -2.16572362940926,52.1823706490486 -2.165919927492,52.1816529505881 -2.16493805945701,52.1815167338501 -2.16361754764365,52.17999566716 -2.16337387141411,52.1797406592983 -2.16322843885964,52.179574495053 -2.16290665195588,52.1791614074622 -2.16270072761765,52.1788407334662 -2.16265052220732,52.1786969060151 -2.16256223877943,52.1781648504126 -2.16252067951819,52.1780111239636 -2.16243064780278,52.1777585975825 -2.16235862905666,52.1772876369042 -2.16229227658369,52.177113272809 -2.16217745663073,52.1769067088282 -2.16138473545426,52.1760968203611 -2.1596521734707,52.1741446728584 -2.1595566952786,52.1740477331024 -2.15922646223463,52.1737127520932 -2.15911502339396,52.1736023514811 -2.15891400672998,52.1734255622537 -2.15867478494029,52.173184918785 -2.15822780077184,52.1733086602974 -2.15807425930027,52.1733259456177 -2.15792222316052,52.1733261511442 -2.15784756973599,52.1733199604004 -2.15774514540055,52.1733021220701 -2.1576309874936,52.1732735153059 -2.15749046225794,52.1732215739159 -2.15718307963417,52.1731375007788 -2.15700094537537,52.1733202017154 -2.15697171814578,52.173340014801 -2.15685789248704,52.1734058697024 -2.15672207685356,52.1734581818421 -2.15664908280683,52.17347805353 -2.15642256173874,52.1735197017991 -2.15604280001073,52.1736307618301 -2.15569221727142,52.1737427698235 -2.15551538746112,52.1737897426655 -2.15474239098874,52.1739543501132 -2.15452025391495,52.1739753160342 -2.15441203405051,52.1739898403726 -2.15422359814066,52.1740287378064 -2.15376330531706,52.1741453791613 -2.15345065820814,52.1742123004582 -2.1531042215966,52.1742711773024 -2.15295964122133,52.1743010264851 -2.15240998099189,52.1743773337014 -2.15231209657521,52.1743828547727 -2.15223167418796,52.1743820605265 -2.15203857638142,52.174363437191 -2.15191280050697,52.1743573092027 -2.15182358870123,52.1743601214272 -2.15157654276738,52.1743963945001 -2.15136443985204,52.1743903778177 -2.15125919407602,52.1743941082837 -2.15112914886338,52.1744086575378 -2.15094056782906,52.1744412578463 -2.15055739782467,52.17444175131 -2.15053634489196,52.1733880276229 -2.15029195637511,52.1733523903339 -2.15012816597531,52.1733346239741 -2.14995414168985,52.1733213657773 -2.14955633578315,52.1733047973285 -2.14953744081437,52.1733506597803 -2.14951292469961,52.1734460538377 -2.14950147120659,52.1735179721664 -2.14950335893721,52.1736491939742 -2.14954789760987,52.173842468878 -2.14955546935605,52.1739071722552 -2.14954428534227,52.1740591735259 -2.14951105000339,52.1741787560823 -2.14958082022137,52.1744897407128 -2.14931913026698,52.1745098477484 -2.14912616207636,52.1745289685092 -2.14898431379218,52.1745480238949 -2.14890839980593,52.1745616027169 -2.14873017735151,52.1746274414013 -2.14870971596642,52.1746382533536 -2.14863309747284,52.1749098767404 -2.14821484953422,52.1748780510185 -2.14803348525213,52.17487019084 -2.14783300687178,52.1748434806852 -2.14764268715018,52.1747897929526 -2.14764268416166,52.1747888939024 -2.14752128323642,52.1747566909239 -2.14700190224501,52.1746953267723 -2.14678537414429,52.1746640507378 -2.14445029108215,52.1742965625221 -2.14379053556199,52.1742227753196 -2.14351566492337,52.174231201574 -2.14356018682216,52.1739802931955 -2.14357609749212,52.1739416260802 -2.14360524218341,52.1738939539866 -2.14365329162989,52.1738390680474 -2.14377586193934,52.1737499373005 -2.14381660342144,52.1737093507185 -2.14385162919096,52.173653582546 -2.14392352403659,52.1732929872877 -2.14392331711523,52.1732291727463 -2.14390686759931,52.1731014743842 -2.14388906651437,52.1730403777458 -2.14381264046245,52.1729326168156 -2.14364689997693,52.1727583637015 -2.14341970908992,52.172595061584 -2.14339850801262,52.1723765906874 -2.14338072036396,52.1722822388828 -2.14335855710981,52.1722139577896 -2.14329517888344,52.1720764299795 -2.14323146264287,52.1717968925995 -2.14315134997691,52.1718905551706 -2.14306958657378,52.1719589634994 -2.14293687477955,52.1720427134629 -2.1427606233217,52.1722713134198 -2.14270233126365,52.1723280087241 -2.14258855246218,52.1724135332681 -2.14233778798542,52.1726422224598 -2.14225463957559,52.1726926562032 -2.14179592393354,52.1728550859169 -2.14146297887379,52.172986713036 -2.14138125788159,52.1730317518954 -2.14131268970548,52.1730803701152 -2.14108211495961,52.1732533070116 -2.14092025151427,52.1733856250888 -2.14086914553578,52.1733901801162 -2.14076823132668,52.1733903016152 -2.14067017963708,52.1733805327069 -2.14056341218916,52.1733599891617 -2.14047410943317,52.1733340311315 -2.13963361749177,52.1729835190691 -2.13957504771063,52.1729530302105 -2.13952965761788,52.1729351087312 -2.13943892421876,52.1729136460031 -2.13869156572889,52.1728848741887 -2.13810233983109,52.1728783809842 -2.13782584437386,52.1728661241054 -2.13776552914018,52.1727393758673 -2.13771112781754,52.1726531552757 -2.1367608174547,52.1726875266912 -2.13649314281877,52.1726815479511 -2.13601501533631,52.1726928902268 -2.13383481987567,52.1726864132008 -2.13383054862575,52.1727493336266 -2.13365945532037,52.1727450339565 -2.13199032695974,52.1729762022909 -2.13161050489637,52.1716235854611 -2.1315187267277,52.1712479031532 -2.13116707970841,52.1705244977625 -2.13081879577859,52.1699566691819 -2.13076309598138,52.1698740419366 -2.13058110001668,52.169644064118 -2.13031410344258,52.1693693294415 -2.12918225917094,52.1683123410211 -2.12872335519317,52.1678696500681 -2.12852987441247,52.1677052935777 -2.12841551069629,52.1675939679545 -2.1283113860387,52.1674799356804 -2.12803248421441,52.1671223408534 -2.12780653156687,52.1668151084017 -2.12695773469132,52.1655474698101 -2.12675076661701,52.1652554951773 -2.1263281248538,52.1647013048647 -2.12570653446666,52.1640816239106 -2.12551865271887,52.1638408584669 -2.12537792810192,52.163694415861 -2.12524753791745,52.163578610757 -2.12490314094878,52.1633173387512 -2.12471279711598,52.1631845194789 -2.12411066730669,52.1627409748415 -2.12399637601353,52.1626476214051 -2.12348926780584,52.162213050031 -2.12304668752797,52.1617900039224 -2.12270769332577,52.1613372770548 -2.12231584060552,52.1607721655385 -2.12190168999915,52.160115399778 -2.12180352952948,52.1600103426093 -2.12173749475672,52.1599285310928 -2.12162297219755,52.15974619484 -2.12143672225457,52.1595153086525 -2.1213707408543,52.15945246149 -2.12131499182025,52.1593851093237 -2.12126800450338,52.1593041768667 -2.12123264525522,52.159199953199 -2.12103408895785,52.1587866238623 -2.12102795414764,52.1586589116519 -2.12090592990766,52.158419058932 -2.12071600090715,52.157895976386 -2.12051864975908,52.1579213462897 -2.12049382869852,52.1579240681343 -2.1203433220553,52.1579350081959 -2.12021328566256,52.1579387372888 -2.1201064960015,52.1579370498369 -2.11990626429195,52.1579228741139 -2.11948802771579,52.1578729697388 -2.11923207800441,52.1578453685146 -2.11912973398445,52.1578382822289 -2.11892217102347,52.1578313038417 -2.11872487878458,52.1578342006449 -2.11863425843387,52.157839685167 -2.11843402552139,52.1578695488586 -2.11829097936552,52.1579209244237 -2.11889141606915,52.1583626133515 -2.11913295458013,52.1584981748265 -2.11912721374281,52.1585143591326 -2.11910246961817,52.1585458422006 -2.11906156190176,52.1585728482562 -2.11901050939815,52.158591774945 -2.11870655429184,52.158641517439 -2.11857063506313,52.1586551375426 -2.11830468337733,52.1586742816446 -2.11792601509986,52.1586845493811 -2.11735600974742,52.158715769288 -2.11730779351419,52.1587140192985 -2.11724340741375,52.1587041966398 -2.11717610795955,52.1586871871276 -2.11709563222544,52.1586548205007 -2.11687622692188,52.158591224069 -2.11670792492698,52.1585275774158 -2.11656140188772,52.1584036886116 -2.11637122281625,52.1583157051487 -2.11634022665208,52.1582159697865 -2.11630355353839,52.1581575847522 -2.11622730253183,52.1580812622908 -2.1161628532354,52.1580012438037 -2.11614075753186,52.1579401471576 -2.11613910562389,52.1579077918954 -2.11616507219255,52.1577449946053 -2.1161150604562,52.1576551648504 -2.11609152402354,52.1575958677213 -2.1160782269316,52.1575347623718 -2.11607647553419,52.1574187297001 -2.11611245465673,52.1572128704936 -2.11610612192734,52.1570042660081 -2.11541134847173,52.1568323816719 -2.11525043312828,52.1567785218129 -2.11514638119984,52.1567157081178 -2.11503347681673,52.1565396547648 -2.11483750980793,52.1565389482661 -2.11470857656673,52.1564086585516 -2.11440450041427,52.1564071577611 -2.11418366419812,52.1563435578124 -2.113997969026,52.1563068877448 -2.1138999131637,52.156278221247 -2.11367903211242,52.1561966447569 -2.11362777381108,52.1561823130943 -2.11339094972116,52.1561807446537 -2.1132373647589,52.1561169881316 -2.11310418613753,52.1560676829151 -2.11288480363063,52.1560058772649 -2.11269464665614,52.155967411346 -2.1125161441536,52.1559145536256 -2.11239640348203,52.1559362391837 -2.11196490640107,52.1558251111714 -2.11172918028249,52.1556851230226 -2.11149679891707,52.1556763559588 -2.11138715268412,52.1556863468359 -2.11124819874378,52.1556397412795 -2.11092668035089,52.1556490331076 -2.11075416744292,52.1556285239649 -2.11052432640832,52.1554785511174 -2.11023459575852,52.1553790573625 -2.11006326586869,52.1552524885714 -2.11004717196832,52.1552263484355 -2.11004997965213,52.1551921917281 -2.11007907299504,52.1551634029042 -2.1101681776079,52.1551318615509 -2.1101841829364,52.1550743234076 -2.1100949501438,52.1550537351748 -2.10986418763239,52.1551132715595 -2.10980418895177,52.1551205182744 -2.10968582557585,52.1551143372915 -2.10960384792437,52.1550550934792 -2.10956557834007,52.154979630415 -2.10952323518465,52.154962592416 -2.10936079107343,52.1549186129159 -2.10935502133164,52.1549249098512 -2.1093668653884,52.1549870053142 -2.10935234449071,52.1550121850877 -2.10933621590005,52.1550202897683 -2.10912725708851,52.1550267756458 -2.10867338637063,52.1547305040165 -2.10861777689903,52.1547089845104 -2.10845403773322,52.1546767789515 -2.10839108948171,52.1546606586273 -2.1084070107488,52.1545679786874 -2.10827243895303,52.1545366450072 -2.10796708147978,52.1545971454817 -2.1077726818709,52.1545937287208 -2.10754604404052,52.154565174917 -2.10746436756141,52.1546282552041 -2.10742633634468,52.1546498609372 -2.10733579318499,52.1546840977835 -2.10723352313591,52.1547039649399 -2.10681993947731,52.1547142286975 -2.10669262793832,52.1546451372522 -2.10631439762222,52.1547731086634 -2.10623556610295,52.154817220919 -2.10608480410413,52.1547688228166 -2.10581451276574,52.1547789535214 -2.10567120453953,52.1547727909938 -2.10536983284891,52.1546373437248 -2.10534646211006,52.1546409599969 -2.10517111637136,52.1546932468356 -2.10509104203463,52.1548236440534 -2.10472731702557,52.1549219367519 -2.10452907581088,52.1551289265327 -2.1041840672393,52.1551418162095 -2.10399107454062,52.1551222135326 -2.10392096887352,52.1551375549554 -2.10384513990996,52.1551780676252 -2.10378963208702,52.1551996876171 -2.10374289885968,52.1552114129711 -2.10365374043542,52.1552213785556 -2.10339497572091,52.1552153150977 -2.10335848100055,52.1552243350311 -2.10333657853006,52.1552378364685 -2.10331758848984,52.1552604130538 -2.10317018432183,52.1553585112826 -2.10307083860349,52.1553927525445 -2.10301542275191,52.1554026880243 -2.10296710269062,52.1554054266505 -2.10288815017151,52.1554001033392 -2.10283703216808,52.155392058454 -2.10276531841824,52.1553372953278 -2.10154661665162,52.1555333936136 -2.10070945772982,52.1556726170526 -2.10034563693057,52.1557358436902 -2.09989558203235,52.1558243087264 -2.09984302314175,52.1558189608727 -2.09981230307153,52.1558243794622 -2.09978750598308,52.15583698362 -2.09977585186068,52.1558531719204 -2.0997714777287,52.1558910148583 -2.09975839624051,52.155915293123 -2.09973072927905,52.1559386856092 -2.0996868971265,52.155954901194 -2.09964448768415,52.1559603296513 -2.09944426109338,52.1559407254847 -2.09919705794541,52.1558780188036 -2.09898105388109,52.1560238056496 -2.09895624289617,52.1560310171408 -2.09892117415233,52.1560319457057 -2.09887873287973,52.1560238917576 -2.09883046136039,52.1559951708349 -2.09862708582507,52.1559144504958 -2.09853036370206,52.1558308543038 -2.09835191570027,52.1557402257369 -2.09827430421954,52.1556872610658 -2.09821434881139,52.1556612468073 -2.09811197868839,52.1556388623286 -2.09795552014547,52.1556264097004</coordinates></LinearRing></outerBoundaryIs></Polygon>
  </Placemark>
