  <Placemark>
	<Style><LineStyle><color>ff0000ff</color></LineStyle><PolyStyle><fill>0</fill></PolyStyle></Style>
	<ExtendedData><SchemaData schemaUrl="#Wards__December_2019__Boundaries_EW_BFE">
		<SimpleData name="objectid">5409</SimpleData>
		<SimpleData name="wd19cd">E05011138</SimpleData>
		<SimpleData name="wd19nm">Glebe Farm &amp; Tile Cross</SimpleData>
		<SimpleData name="wd19nmw"></SimpleData>
		<SimpleData name="bng_e">415287</SimpleData>
		<SimpleData name="bng_n">287184</SimpleData>
		<SimpleData name="long">-1.77632</SimpleData>
		<SimpleData name="lat">52.48238</SimpleData>
		<SimpleData name="st_areashape">5253346.52199574</SimpleData>
		<SimpleData name="st_lengthshape">15152.4083590771</SimpleData>
	</SchemaData></ExtendedData>
      <Polygon><outerBoundaryIs><LinearRing><coordinates>-1.81719914522317,52.485414219608 -1.81704593986133,52.4854076922814 -1.81675297053683,52.4854036450785 -1.81643343642775,52.4853932648641 -1.81594016638875,52.4853790193028 -1.81551173888802,52.4853639744285 -1.81482414136179,52.4853341434136 -1.81409091246603,52.4852997437156 -1.81343420041119,52.4852600667279 -1.81288502811903,52.4852294540324 -1.81234920905441,52.4851998479072 -1.81210037138078,52.485183276594 -1.81185298884855,52.4851667070648 -1.81134514079053,52.4851272544604 -1.81060909985954,52.4850703600398 -1.80997160711993,52.4850244033144 -1.80988918756878,52.4850188790771 -1.80978612636024,52.4850133216888 -1.80956086092575,52.4849931877292 -1.80922380893562,52.4849638863443 -1.80890435463755,52.4849364103428 -1.80823900507321,52.4848750310245 -1.80766204251507,52.4848156791923 -1.80688920560118,52.4847353342877 -1.80631517949241,52.4846714865694 -1.80527312001054,52.4845465630003 -1.80471090475543,52.4844764356868 -1.8038190253428,52.4843563304289 -1.80304793531897,52.4842417213426 -1.80217529088668,52.4841126483251 -1.80114811441531,52.4839508650911 -1.80038885957771,52.4838264622081 -1.79967817436209,52.4837021364973 -1.79865106719645,52.483528648622 -1.79730475300921,52.4832800106372 -1.79653980558417,52.483131307663 -1.79618226137464,52.4830489084153 -1.796166121737,52.4830470835851 -1.79429040234821,52.4826590041589 -1.79358432861368,52.4824915104848 -1.7929091171493,52.482345546224 -1.79218848065203,52.4821789177335 -1.79131040377419,52.4819561953773 -1.78961157771627,52.4815369872472 -1.78768664242214,52.4810094107439 -1.78703661273618,52.4808374839323 -1.78531066838594,52.4802967442194 -1.78410801105494,52.4799295814845 -1.78122836751463,52.4789417092604 -1.78118861504191,52.4789281554162 -1.78100936972358,52.4788666197413 -1.78056551122438,52.4786995319298 -1.77845217119191,52.4779044393454 -1.77670217444139,52.4771954641984 -1.77421511895613,52.4761101956669 -1.77255092322308,52.4753392182044 -1.76994127122431,52.4740827746688 -1.76866367489226,52.4734581786115 -1.76764459246078,52.4729617867372 -1.76757110204584,52.4729256934633 -1.76616302760765,52.4722207361033 -1.76335382119818,52.4708990420388 -1.75932352521777,52.4689535960978 -1.75897038017941,52.4691857432815 -1.75882401092124,52.4692941932679 -1.75851305952015,52.4696216920808 -1.75821710149736,52.4699150675945 -1.75792913594356,52.4703423720961 -1.7577812838733,52.4704545027623 -1.75748457268117,52.4705967968496 -1.75700743642161,52.4711640055438 -1.75669170309455,52.4715391223896 -1.75649975681744,52.4716556550436 -1.75619119520967,52.4718096049587 -1.75596272618605,52.4718576665247 -1.75581256269119,52.4718600534084 -1.75576546136807,52.471860855378 -1.75580346600127,52.4719022760301 -1.75617668113998,52.4723013672867 -1.75666247966981,52.4728219295203 -1.75722778436125,52.4733670073586 -1.75756911208471,52.4736760648736 -1.75865507247136,52.4745745976117 -1.75878502366731,52.474783459852 -1.75894082709272,52.4750812613718 -1.75915998146444,52.4754045351258 -1.75916287042053,52.4754090351057 -1.75908806776313,52.4756119991616 -1.7590883305278,52.4758511558117 -1.75915660687533,52.4765480012577 -1.75859985930961,52.4765747300296 -1.75876856111334,52.4775073410203 -1.75878845775493,52.4776198142562 -1.75879707242695,52.4776647692828 -1.75877947028298,52.477664733477 -1.75871172963588,52.4776645956562 -1.75883165862539,52.4780639721305 -1.75883665743018,52.4785008620515 -1.75901169825917,52.4790559225416 -1.75909605997157,52.4795218234591 -1.75959841343499,52.479480511533 -1.75965731744309,52.4794761377101 -1.75968875633081,52.4799194621204 -1.75969144831963,52.4799599109466 -1.75982843064669,52.479952998205 -1.75985560527535,52.4803773503542 -1.75926547269533,52.4803069507071 -1.75925819341819,52.4803060369307 -1.75926671648221,52.4803455994998 -1.75927819177281,52.4804004456878 -1.75887185016452,52.4803996202804 -1.75887361405187,52.4806082227424 -1.75887491837525,52.4806360863439 -1.75908990263044,52.480641017312 -1.75910035378875,52.4808819915552 -1.75900759845646,52.4808818031306 -1.7590165599425,52.4813933862949 -1.75909724268586,52.4814474749732 -1.75910423114164,52.4817882025048 -1.75935155376093,52.4817860084159 -1.75945750208939,52.4818158822555 -1.75943846270931,52.4823202182764 -1.75941021195123,52.4823794779658 -1.7594846171264,52.4824937696055 -1.75961585445921,52.4827385836436 -1.75980625368312,52.4829330977543 -1.75964087058653,52.4830029549714 -1.75904601914715,52.483254384576 -1.75920129124409,52.4834119800478 -1.75915840999478,52.4834379568338 -1.75947401125269,52.4838944405701 -1.75993712791808,52.4837541855279 -1.76041166337913,52.4839682373733 -1.76045849874535,52.4842856792329 -1.76070746209391,52.4842744981285 -1.76074571769811,52.4842727772655 -1.76074389392564,52.4843401799494 -1.76074068087713,52.4843949964838 -1.76109464538837,52.4851023035229 -1.76156084414712,52.4852228641378 -1.76151358745583,52.4852497320803 -1.76122245967758,52.4857120900331 -1.76107226840257,52.4859788051406 -1.76104597335054,52.4861918446428 -1.76091895574094,52.4862607923563 -1.76086064249292,52.486422539472 -1.76110025486276,52.4865030097269 -1.76131685478726,52.486751588948 -1.76147840993464,52.4868292062286 -1.76198105673714,52.4867475300331 -1.7619857585174,52.4867088032501 -1.76199807807727,52.4866090674651 -1.7620644576813,52.4865714531996 -1.76223097909259,52.486561900458 -1.76234831360325,52.4866439211828 -1.76254819411698,52.4867297918916 -1.76288442410501,52.4866378036861 -1.76290215669392,52.4866369400948 -1.76309356884437,52.486627435838 -1.76318170564971,52.4866752452606 -1.76321513529323,52.4867580866054 -1.76349321990851,52.4870678982154 -1.76365496845306,52.4871104616212 -1.7636543625288,52.4872228032186 -1.76348029201175,52.4872808746727 -1.76346557158834,52.4872862384641 -1.76342407972855,52.487324801191 -1.76344031094453,52.4873320237367 -1.76351074993147,52.487374494403 -1.76361214270673,52.4874187347412 -1.76371655184892,52.4874441073558 -1.76384458092001,52.4874578434244 -1.76394621142613,52.4874580454654 -1.76404046491249,52.4874528405543 -1.7641185966375,52.4874422104427 -1.76436628409231,52.4874004616612 -1.76443699994568,52.4873916146314 -1.76452689540492,52.4873837036909 -1.764622561694,52.4873865894331 -1.76468287492452,52.4873930001594 -1.76481243939357,52.4874148265288 -1.76495945857061,52.4874420804025 -1.76505524575461,52.4874449660303 -1.76518628119947,52.4874416300687 -1.76526439820854,52.4874336961799 -1.76537048292356,52.4874186272893 -1.7654796590585,52.4873927791019 -1.76561540784873,52.4873480197477 -1.76567730901338,52.4873301672821 -1.76576277359439,52.487310563261 -1.76584234825255,52.4873026318734 -1.76592488261164,52.4873090857747 -1.7660248284142,52.4873290553271 -1.76608071803349,52.4873453420283 -1.76614397963041,52.4873680252196 -1.76619387652294,52.4873923892675 -1.76622761455625,52.4874185194886 -1.76626275148409,52.4874554368561 -1.76629650252331,52.4874788709797 -1.7664980049674,52.4875358881129 -1.76657145762167,52.4875602982984 -1.76668467504905,52.4875964708551 -1.76678167522656,52.4876227242581 -1.76684939031179,52.4876300473973 -1.76689209826848,52.4876364224221 -1.76693332912783,52.4876463896325 -1.76697444882392,52.4876545586106 -1.76704949446851,52.4876763663121 -1.76712009059672,52.4876899852435 -1.76718188969529,52.4876910053908 -1.76726887708694,52.4876821885638 -1.76735729223709,52.4876787666688 -1.7674691038567,52.48768258071 -1.76761500928931,52.4876684858607 -1.76764600625062,52.4876621654033 -1.76768724069353,52.4876487655638 -1.76771680308544,52.4876380380851 -1.76774041254844,52.4876281979585 -1.76777293231134,52.487609387953 -1.76783630860929,52.487587942157 -1.76802522699767,52.4875227032106 -1.76813880192484,52.4874914690663 -1.76824349177944,52.4874647118208 -1.76831130960214,52.4874531600431 -1.76838782168609,52.4874506133999 -1.7684982896024,52.4874562221911 -1.76851891665141,52.4874589585536 -1.76855862352559,52.4874590360516 -1.76860427862583,52.4874591251427 -1.76864413956527,52.4874529117171 -1.76872957762618,52.4874386979749 -1.76877382851441,52.4874288979692 -1.76884603939395,52.4874128621521 -1.76902760077203,52.4873385297576 -1.76913242266036,52.4872866072006 -1.76925793772474,52.4872248385217 -1.76934219120586,52.4871818621522 -1.7693746277448,52.4871558623528 -1.76941754026465,52.4871235908189 -1.76946344154558,52.4870769455885 -1.76955968302663,52.4869709914074 -1.76961742881946,52.4869117867395 -1.76969292149397,52.4868490214116 -1.76987906250073,52.4867343432272 -1.76991452458338,52.486710056349 -1.76995736057845,52.4866921648602 -1.76999708894446,52.4866877478214 -1.77006044290535,52.4866932628735 -1.77011497068384,52.4866915714865 -1.7701900579534,52.4866827297216 -1.77027113110952,52.4866667093094 -1.77036254976623,52.486646215677 -1.77050278665879,52.4866015497719 -1.77058541185108,52.4865675575587 -1.77063124056437,52.4865343922256 -1.77065207631384,52.4864975843441 -1.77064484332027,52.4864643172753 -1.77065248193262,52.4864202936741 -1.77067031918341,52.4863761998944 -1.77072814285634,52.4863017163409 -1.77076665946933,52.4862505622276 -1.77081704205962,52.4862057222301 -1.77088939773002,52.4861618236626 -1.77098683050854,52.4861287587736 -1.77111798533215,52.4861019592904 -1.77127424651886,52.4860806910829 -1.77141711770332,52.4860656880576 -1.77150850491619,52.4860505856769 -1.77157344761163,52.4860309381954 -1.77162361443681,52.4860040729281 -1.77168726812319,52.4859520679197 -1.7717214031114,52.4859027030575 -1.77173342396746,52.4858559917206 -1.77172627623516,52.4858065473879 -1.7717205478769,52.4857642051837 -1.77170748226137,52.4857318259484 -1.77167830527372,52.4856922245987 -1.77163286655652,52.4856507948284 -1.77160503006407,52.4856102979409 -1.77159800327099,52.4855608538311 -1.77159965845474,52.4855231098366 -1.77160868984949,52.4854907722455 -1.77163236864615,52.4854673611557 -1.77166036459335,52.4854539336698 -1.77169573646212,52.4854468115744 -1.77174735768699,52.4854433167418 -1.77180321953629,52.4854416262474 -1.77187540285923,52.4854534485175 -1.7719356357672,52.4854751340574 -1.77203848658427,52.4855203590842 -1.77213395884424,52.4855600877463 -1.77222075529589,52.4855872163748 -1.77227813040591,52.4855981118551 -1.77233261929326,52.4856036086703 -1.77238701552266,52.4856037130849 -1.7724504150243,52.4856002396519 -1.77253293391994,52.4855860184634 -1.77265824915502,52.4855610939715 -1.772874875163,52.4855354452584 -1.77295877233062,52.4855365049051 -1.77319584403372,52.4855486419259 -1.77326793832072,52.4855541719784 -1.77332244739488,52.4855560741773 -1.77346376044524,52.4855599383954 -1.77355358848991,52.4855646040471 -1.77363452335929,52.4855746448535 -1.77371690686921,52.4855864854679 -1.77377873349169,52.4856054770097 -1.77382139008155,52.4856217358615 -1.77384633622769,52.4856343658283 -1.77386382680607,52.485656867868 -1.77388712122869,52.4857072418552 -1.77391639455019,52.4857522341391 -1.77393684911117,52.4857882232097 -1.77397779663853,52.4858297334315 -1.77401896771615,52.485851381577 -1.77407478495022,52.4858820449047 -1.77412468528441,52.4859064066396 -1.77420118972677,52.4859281220115 -1.77432912548289,52.4859598215054 -1.77447920321805,52.4859834737733 -1.77478677755152,52.4860280966264 -1.77491035707949,52.4860570911194 -1.77506616558631,52.4860996280044 -1.77519569141098,52.4861296214762 -1.77527658609897,52.4861477493751 -1.77535750080425,52.486162283058 -1.77552822052912,52.4861859730903 -1.77560461462248,52.4862058902441 -1.77565903084955,52.4862257657768 -1.77571341944781,52.4862510334284 -1.77574862378151,52.4862762647818 -1.77578377742517,52.4863113823213 -1.77582183168897,52.4863492014311 -1.77586423159025,52.4864157877204 -1.77588750057801,52.4864716442505 -1.7759970132726,52.4866632830935 -1.77608610186955,52.4868127319044 -1.77624955814648,52.4870935379543 -1.77626990939046,52.487150197097 -1.77629450886352,52.4872311300271 -1.77631017786439,52.4873488951729 -1.77630803732092,52.4874586274333 -1.77630006166445,52.4875934235617 -1.77630095173226,52.4877040596334 -1.77626151060386,52.4879367594017 -1.77622944621022,52.4881515883852 -1.77622002030913,52.4882612169838 -1.77619849883432,52.4884329255881 -1.77619355689719,52.488544360638 -1.7761957835477,52.488678366888 -1.77618663975916,52.4887331732698 -1.77615997384896,52.4887708701026 -1.77610979428506,52.4888004333542 -1.7760698871079,52.4888156364962 -1.7760462784221,52.4888254782076 -1.7760388729728,52.4888488318962 -1.77604016974587,52.4888802903081 -1.77605474669163,52.4889027865063 -1.77605603426614,52.4889360419986 -1.77606301645184,52.4890188295829 -1.77607322380169,52.4890413175279 -1.77608924355645,52.4890665116432 -1.77611122392907,52.4890899208089 -1.77615525842187,52.4891223588849 -1.77623745592192,52.4891719445296 -1.77635063213285,52.4892188924395 -1.77652410367146,52.4892768290504 -1.77666369673211,52.4893346108179 -1.77680323505476,52.4894031785012 -1.77693838888208,52.4894744329704 -1.77705600958163,52.4895312748465 -1.77712511062702,52.4895538733858 -1.77724855598018,52.4895874482457 -1.77739567350115,52.4896227755044 -1.77745446594224,52.4896426584062 -1.77755887613921,52.4896707151305 -1.77779576110821,52.4897241847861 -1.77790757520611,52.4897531540708 -1.77793101346345,52.4897765656237 -1.77795585955022,52.4898098651946 -1.7780013039381,52.4898521906032 -1.77807907238338,52.4899135408503 -1.77818475457738,52.4899784475473 -1.77824496028484,52.4900073199842 -1.77828182087349,52.4900181741784 -1.7783361678565,52.4900290601432 -1.77840246967411,52.4900291840338 -1.77848939581213,52.4900329415011 -1.7786263630475,52.4900349952147 -1.77869995074199,52.4900351325369 -1.77876912933018,52.4900424508797 -1.77881763954858,52.4900551237329 -1.77887651905592,52.4900821962764 -1.7789660027478,52.4901326925926 -1.77906729542484,52.4902012753106 -1.77913484506763,52.4902427433526 -1.77921128376732,52.4902797338097 -1.77929363217824,52.4903005577386 -1.77935987539246,52.4903123652646 -1.77943343632754,52.4903178942722 -1.77950266685409,52.4903153268959 -1.7796131887487,52.4903119372099 -1.7796823769888,52.4903174579379 -1.77975153046596,52.4903301687495 -1.77979418930633,52.490347324428 -1.77983085584448,52.4903725572561 -1.77985719800481,52.4903986699094 -1.77987912217525,52.4904337607449 -1.77989223593712,52.4904580517422 -1.77991723182816,52.490485958981 -1.77993475765208,52.4905021689731 -1.78001121512767,52.4905356537508 -1.78009788137884,52.4905672704085 -1.78014793374232,52.4905871357612 -1.78022738205788,52.4906052575664 -1.78031563776072,52.4906108132509 -1.78045403039513,52.4906191586758 -1.7805379859694,52.4906345925189 -1.78059384088871,52.4906598606099 -1.78063786220461,52.490695891173 -1.78065378283505,52.49074175694 -1.78064319510418,52.4907947629733 -1.7806281664101,52.4908613320691 -1.78063376109746,52.4909080768388 -1.78066141066135,52.4909881154381 -1.78071107677794,52.4910610054467 -1.78080592799505,52.4912284366799 -1.78082915662683,52.4912940875898 -1.78082892663605,52.4913399225856 -1.78081977352801,52.4914216911295 -1.78081805339678,52.4914739053584 -1.78082062087438,52.4915431131802 -1.78083916362783,52.4916474015561 -1.78086792753698,52.491795836131 -1.78086492259545,52.4918138060461 -1.78086190560222,52.4918344711351 -1.78086025005792,52.4918497465487 -1.78094347791706,52.4920107750838 -1.780955143627,52.4920332652851 -1.78100500522549,52.492067509391 -1.78103438731583,52.4920928182902 -1.78107542450375,52.4921189577917 -1.78111809015453,52.492135213102 -1.78117986997303,52.4921416182757 -1.78123148626931,52.4921408153847 -1.78131543973736,52.4921328810069 -1.78140827177043,52.4921222677353 -1.78147751849575,52.4921170022353 -1.78154090419492,52.4921180179883 -1.78158799534228,52.4921234968974 -1.78163795187954,52.4921388682434 -1.78169090360697,52.4921623324671 -1.78175251298722,52.492202889064 -1.78183909522275,52.4922767454966 -1.78189764656054,52.492346056236 -1.78200448723278,52.4924730643868 -1.78207333527409,52.4925720527968 -1.78218159075441,52.4927079616563 -1.7823502273357,52.4928629437711 -1.78250862105902,52.4930025393863 -1.78267878505184,52.4931440433388 -1.78274772782888,52.4931998912966 -1.78283142089186,52.493244981839 -1.78298855120964,52.4933459283576 -1.78303404682975,52.4933793544988 -1.78309562781677,52.4934262015024 -1.78314984813298,52.4934883143826 -1.78313173369918,52.4935655725931 -1.78311681101257,52.4936113816069 -1.78304242698858,52.4937704122308 -1.78301416418558,52.493812600844 -1.7830036322286,52.493854822782 -1.78299435607782,52.4939374902216 -1.78299722658452,52.4939707484946 -1.78300883242,52.4940059106397 -1.78302620456347,52.4940535757998 -1.78309340385561,52.4941678381076 -1.78316643619488,52.4943055694752 -1.78325265868873,52.4944288537264 -1.78328916561916,52.49448733907 -1.78334203623464,52.4945278788298 -1.78343021586386,52.4945747742065 -1.78352131462441,52.4946208657445 -1.78356544022142,52.4946371237062 -1.78360952520744,52.4946372041186 -1.7836434383232,52.4946309747821 -1.7836804153266,52.4946193588357 -1.78371733427499,52.4945950705045 -1.7837426056969,52.4945438881014 -1.78375028893399,52.4944881804476 -1.78374598634406,52.4944495265038 -1.78373889108779,52.4944108674692 -1.78374192169738,52.4943875062519 -1.7837508940346,52.4943659529603 -1.78376712179033,52.4943507040759 -1.78378927791888,52.4943399591823 -1.7838202728908,52.4943346234759 -1.78387176493278,52.4943347172888 -1.78393950319666,52.494340232853 -1.78399543581007,52.4943511199706 -1.78409836893594,52.4943863574391 -1.78417346284184,52.4944026715253 -1.78428522386808,52.4944208493318 -1.78439118273315,52.4944578909375 -1.78443813913872,52.4944912292728 -1.78447905182673,52.4945434310592 -1.78450979410432,52.4945893222767 -1.78456699726052,52.4946380475275 -1.78466841122837,52.4946858649972 -1.78470801825504,52.4947075065143 -1.7847845430781,52.4947292158892 -1.78484630493051,52.4947401122988 -1.78491995638628,52.4947537272261 -1.78500674510394,52.4947628718314 -1.78509368707055,52.494765725468 -1.78516581565054,52.4947676541151 -1.78522177130866,52.4947740466248 -1.78527176745182,52.4947822254158 -1.78533798811171,52.4948003198198 -1.78538804325059,52.4948210819328 -1.78544676678913,52.4948571372626 -1.78547451874597,52.494894035553 -1.78550381399379,52.4949382167068 -1.78555947717249,52.4950039261621 -1.78559900999457,52.4950408457188 -1.785651896693,52.4950786883901 -1.7856944049117,52.4951030309262 -1.78574737113571,52.4951246962437 -1.78584147569758,52.4951527269969 -1.78590627563938,52.4951636292365 -1.78599157778494,52.4951790616185 -1.78607411660753,52.4951881977732 -1.7862478581195,52.4951983972444 -1.78631255356602,52.4952057039834 -1.78633606664113,52.4952156326094 -1.78634327144359,52.4952570767705 -1.78633412865785,52.4953136809428 -1.78630430323507,52.4954026027644 -1.78629824690006,52.4954241614928 -1.78630701592505,52.4954439498333 -1.78631433111938,52.4954628365571 -1.78633039572908,52.4954808400434 -1.78635241993674,52.4954970571659 -1.78639362960256,52.4955142078304 -1.78644215537905,52.4955250795709 -1.78650696772575,52.495533285411 -1.7865908711325,52.495537030577 -1.78696939949812,52.4955422050468 -1.78727725186189,52.4955463525904 -1.78733019344013,52.4955482446109 -1.78739939236361,52.4955537617339 -1.78745243389995,52.4955602378653 -1.78749659258665,52.4955702023514 -1.78753328976532,52.4955909396247 -1.78756704283727,52.4956179618973 -1.78765360642261,52.4956990032505 -1.78768577624496,52.4957269225508 -1.78772838515447,52.4957557577218 -1.78778281140809,52.495777425638 -1.78782547283252,52.4957954764985 -1.78786951978574,52.4958036435501 -1.7879874449957,52.4958038543696 -1.78801830231546,52.4958021124199 -1.78806252244015,52.4957994953398 -1.78811126131506,52.495791493231 -1.78819525689915,52.4957763647777 -1.78833828019032,52.4957352778769 -1.78868659842948,52.4956091771235 -1.78882681046536,52.4955464250845 -1.78895960107949,52.4954864456682 -1.78906155168091,52.4954246141722 -1.78913546887818,52.4953834034028 -1.78918999875251,52.49535833559 -1.78923880781844,52.4953359536807 -1.78931401731185,52.4953037323698 -1.7893818807313,52.4952840812324 -1.78948656327216,52.4952600004137 -1.78960016384561,52.4952250610495 -1.78963265452809,52.4952116382076 -1.78966665104893,52.4951883308555 -1.78970219951782,52.4951452545989 -1.78974816993095,52.4950815252609 -1.78980032172444,52.4949701743876 -1.78981686823781,52.4948883284298 -1.78984375829058,52.4948020966054 -1.78988242418843,52.494741949361 -1.78998624973336,52.4945928529149 -1.7900958506961,52.4944546408646 -1.79013280883665,52.4944214532409 -1.7901564288681,52.4944089126581 -1.79023636318072,52.4943281667414 -1.7902867140653,52.4942877226689 -1.79045217407141,52.494175672747 -1.79092790109698,52.4938654581167 -1.79124818708718,52.4937303121925 -1.79131458904322,52.4937106573685 -1.79174813288778,52.4936106703778 -1.79186164987146,52.4935919960432 -1.79197952977803,52.4935751263459 -1.79217259931378,52.4935547940845 -1.79225652790571,52.493552244992 -1.79253048849456,52.4935554205134 -1.79262772508378,52.4935636788041 -1.79289120869917,52.4935991900952 -1.79303991972835,52.4936111329901 -1.79318406461993,52.493638347099 -1.79330324652176,52.4936798970063 -1.79339137354464,52.4937142924317 -1.79351201256074,52.4937558437669 -1.79360744137543,52.4938126304833 -1.79366603584879,52.4938774422433 -1.79365674558488,52.4939672997571 -1.79388575837518,52.4941538271839 -1.79410716718324,52.4943565184234 -1.79431702656011,52.4945105669479 -1.79446384424065,52.4946159735231 -1.79454454211346,52.4946809121329 -1.79454415718948,52.494762696848 -1.7945320142521,52.49483996801 -1.79456413518654,52.4949047325628 -1.79464053389009,52.4949543852006 -1.79487717420706,52.495044669146 -1.79497718176198,52.4950843862105 -1.79507701503674,52.4951609518877 -1.79521633177638,52.4952871060043 -1.79534569926049,52.4953331646145 -1.79553573935494,52.4953388853753 -1.79579782395736,52.4953645006052 -1.79615410326154,52.495401063308 -1.79626611862279,52.4953922684469 -1.79639878548381,52.4953565461977 -1.79653895601687,52.4953001660247 -1.79662477281777,52.4952319192541 -1.79668400994616,52.4951601216824 -1.79680122204751,52.4949742830998 -1.79693163601592,52.4947955672733 -1.79700869530566,52.4947040274899 -1.79704729784433,52.4946294084292 -1.79707419409517,52.4945647455063 -1.79709657692481,52.4945045680464 -1.79716469877775,52.4944282913314 -1.79721791502021,52.4943708635502 -1.79731838264358,52.4943116285824 -1.79744099404688,52.4942435330613 -1.79756491600208,52.4941808327338 -1.79767713211701,52.4941279985886 -1.79783207576173,52.4940797312414 -1.79795581365044,52.4940565743893 -1.79806925848498,52.4940531724389 -1.79818135315567,52.4940264013414 -1.79834058488375,52.4939960252767 -1.79841277239668,52.4939853626816 -1.79845997969919,52.4939665693305 -1.79853978185496,52.4939109832046 -1.79860217417647,52.4938122272801 -1.79864076452866,52.4937394946621 -1.79873989494771,52.4936532943761 -1.79880505008194,52.4935608342113 -1.79887327105217,52.4934620889206 -1.79887939551167,52.4934243521941 -1.79887080802186,52.493364031982 -1.79882438032234,52.4932138638254 -1.79881568896773,52.4931761019774 -1.79877491940825,52.4930897533417 -1.79878110851211,52.4930114836227 -1.79875192245117,52.4929413329828 -1.79870817890093,52.4928675616469 -1.7986789308735,52.4928108913519 -1.79870893780046,52.4927030041137 -1.79874170091425,52.4926032988241 -1.79875657869565,52.4925898435907 -1.79877427804097,52.4925701010564 -1.79879512628893,52.4925260981142 -1.79882337740901,52.4924830067185 -1.79895653475193,52.4923384452552 -1.79901715049333,52.4922819272799 -1.79906895137396,52.4922406728111 -1.79921371568709,52.4921330687278 -1.79941614502944,52.4920030043285 -1.79956528995488,52.4919196729839 -1.79984881123223,52.4917690741756 -1.79994174935352,52.4917341799068 -1.80071892787159,52.4915000178854 -1.80114213021146,52.491394586003 -1.80128666929485,52.4913615751481 -1.80148416980055,52.491325057658 -1.80172309796735,52.4912580512889 -1.80216694393191,52.491151752227 -1.80247947996388,52.4910803738657 -1.80268301362525,52.4910249908946 -1.80279060155797,52.4909991060507 -1.80285842241358,52.4909857383024 -1.80318426933503,52.490897303738 -1.80332431199811,52.490864192164 -1.80352778289557,52.4908222890043 -1.80363689207407,52.4908089882813 -1.80373552110147,52.4908037593012 -1.80391528835752,52.4907941702851 -1.80397555243037,52.4908140424302 -1.80402853862511,52.4908321045272 -1.80409909201045,52.4908591828893 -1.80422847293627,52.4909017275632 -1.80431099138857,52.4909144460754 -1.8044345880249,52.490920042069 -1.80446701059732,52.4909200955111 -1.80452897873804,52.490912109347 -1.80478836080456,52.4908585219571 -1.80485473775299,52.4908424536961 -1.805130568268,52.490749438302 -1.80520137492437,52.490719895754 -1.80538721388569,52.4906554917976 -1.80548608477266,52.4906232990181 -1.80555392825171,52.4906045366753 -1.80568069967651,52.490578681543 -1.80577496466167,52.4905716457201 -1.80582353375173,52.490572624221 -1.80640965253628,52.4906104301881 -1.80652002295947,52.4906133063275 -1.80679398606904,52.4906119556982 -1.80695018890668,52.4906032217936 -1.80748057205996,52.4905581583421 -1.80755422808798,52.4905429993764 -1.8076649107747,52.4905027356548 -1.80776527831551,52.4904606571211 -1.80783618312459,52.4904086454071 -1.8079647097802,52.4903144857295 -1.80806660185694,52.490257130942 -1.8081477644903,52.4902194252021 -1.80833075090761,52.4901397335444 -1.80844273460823,52.4901345213168 -1.80859451435053,52.4901096015371 -1.80863726945695,52.490106974412 -1.80868292098013,52.4901088460314 -1.80883001412287,52.4901279566917 -1.80963785266924,52.4903081947936 -1.80968345202982,52.4903217484171 -1.80981422331149,52.490380376776 -1.80990251694813,52.490405683017 -1.81066727673359,52.4906649343536 -1.81075385372067,52.4907504529717 -1.81085066923732,52.4908269996706 -1.81091984032511,52.490837895197 -1.81101120590697,52.4908272554913 -1.81109827015387,52.4908004323057 -1.81115274679831,52.4907834425687 -1.81122210838375,52.4907502999292 -1.81129151113915,52.4907072710386 -1.81185446097397,52.4902901608715 -1.81212935322944,52.4900721121756 -1.81220328763084,52.4900201026432 -1.81224015424587,52.4900030845301 -1.81273273632793,52.4898500885668 -1.81282565234316,52.4898169821585 -1.81289789878765,52.4897901333711 -1.81293780803673,52.489771322742 -1.81297323445421,52.489750707937 -1.8130693110641,52.4896600866514 -1.8132262327258,52.48948229358 -1.81326178420052,52.489432020052 -1.81331819077627,52.4893323479396 -1.81342767856146,52.4892003153504 -1.81353565288349,52.4891097123877 -1.81369583798523,52.489190851339 -1.81412678061206,52.4893083627591 -1.81449913248852,52.4893836315129 -1.81459621264474,52.4893990617142 -1.81539852488146,52.4894811990898 -1.81551189571965,52.4894921606929 -1.81585359029194,52.4894953875752 -1.8159950348739,52.489472239361 -1.81635899230287,52.4894368540951 -1.81675081683233,52.4894158893186 -1.81718536624007,52.4893994840669 -1.81797488392012,52.4893773301996 -1.81879517059827,52.4893722947967 -1.81926190449783,52.4894125519152 -1.82013654278288,52.4894785901693 -1.82098741996914,52.4895652576256 -1.82141140809815,52.4896072388196 -1.82207383566415,52.4896919064983 -1.82276980651957,52.489830455188 -1.82392502002602,52.4900641406508 -1.82441363771635,52.4901619285223 -1.82480072898525,52.490231703689 -1.82496971396326,52.4903048401254 -1.82538971241888,52.4902541415367 -1.82605429243592,52.4901688383117 -1.82690864418799,52.4901206573184 -1.82739636466376,52.4900782285771 -1.82785191333283,52.4899719404231 -1.82854189933802,52.4897841143789 -1.82953999064386,52.4895239294072 -1.82971832846661,52.4894729571083 -1.8300309894572,52.4893853290035 -1.83022272392155,52.4892929440239 -1.83043692725192,52.4891359710376 -1.83190344130006,52.4896099855026 -1.83199671386124,52.4894798001222 -1.83210304044859,52.4893972673154 -1.83217547373445,52.4893497365147 -1.83223745353704,52.4893047970784 -1.83225525144369,52.4892868477268 -1.83229073185531,52.4892491508616 -1.83229365676382,52.4892464589085 -1.83229366708489,52.4892437628357 -1.83228930626544,52.4892410596856 -1.83228482664251,52.4892374591698 -1.83227597588058,52.489233851576 -1.83225099895682,52.4892239300131 -1.83218953604668,52.4891339696243 -1.83225428520903,52.4891268710182 -1.83224114938283,52.4891007887693 -1.83221489843171,52.4890432321209 -1.83214417390098,52.4890566134217 -1.83210320207779,52.4889746803332 -1.8320914161477,52.4889764616454 -1.83206200973399,52.488981812201 -1.83201486550099,52.4889898337243 -1.83186601146336,52.4890165855513 -1.83181145084605,52.4890263944753 -1.83180855353033,52.4890218962894 -1.8317997733493,52.489000314242 -1.83182188722194,52.4889967505066 -1.83180576666276,52.4889571835374 -1.83180139210001,52.4889580754324 -1.83180292801958,52.4889374070047 -1.83180442054832,52.4889284218619 -1.83180445850984,52.4889185356615 -1.8318060013303,52.4888960692523 -1.83180912637951,52.4888727069894 -1.83181064651245,52.4888565317189 -1.83181218242705,52.4888358623918 -1.83181221348298,52.4888277741726 -1.83181521776213,52.4888044108392 -1.83181529022794,52.4887855374285 -1.83181991322109,52.4887199361824 -1.83181991667271,52.4887190371917 -1.83182456216679,52.4886794097578 -1.83182613256888,52.4886497541188 -1.8318277941583,52.4885967301169 -1.83182943701363,52.4885482010662 -1.83183251371998,52.4885059643199 -1.83183257237531,52.4884906859723 -1.83183260687822,52.4884816987618 -1.83180625334838,52.4884511045418 -1.83180341128689,52.4884322269981 -1.83180343889556,52.4884250368701 -1.83183586299409,52.4884241838385 -1.83183595649522,52.488399828381 -1.83183750765068,52.4883755648892 -1.83183755940494,52.4883620836239 -1.8318377008627,52.4883252357906 -1.83186419232012,52.4883198811621 -1.83185840812438,52.4883081887179 -1.83185104319005,52.4882973939276 -1.83182619459546,52.488254218601 -1.83180132879233,52.4882155382225 -1.83181009649367,52.4882092594811 -1.8317734588257,52.488168764415 -1.83174119372883,52.4881282755385 -1.83175153870172,52.4881219990385 -1.83176930870122,52.4881112389875 -1.83181654007358,52.4880806591922 -1.83180478544358,52.4880743513554 -1.83184605283689,52.4880474471772 -1.83190071415742,52.4880106766078 -1.83188895953436,52.4880043687794 -1.83193923251216,52.4879720851543 -1.83197015826799,52.4879505593578 -1.83199084607871,52.4879389053102 -1.83200119441482,52.4879317297978 -1.83210306190975,52.4878707602862 -1.83160765151476,52.487647081077 -1.83144125148189,52.4876279712346 -1.83126205125082,52.4874956018355 -1.83106387518418,52.4873406466262 -1.83091420839933,52.48720202756 -1.83078376854673,52.4870211055983 -1.83068449144709,52.4868204545483 -1.83063632534582,52.4866846769312 -1.83063841498645,52.4865525652462 -1.8306737210403,52.4861830536272 -1.8306997331451,52.4859242544788 -1.83072330867028,52.4855421446144 -1.83076686217228,52.4853004451017 -1.83085622335193,52.4850497346447 -1.83070743820632,52.48506210469 -1.8302168827494,52.4851000494303 -1.82912539620808,52.4851766719341 -1.82797212912214,52.4852469036112 -1.82697336208237,52.485302161051 -1.82615886372823,52.4853378179128 -1.82459330434821,52.4853939311379 -1.82398796327797,52.4854101097315 -1.82235473870081,52.4854436242749 -1.82177444524099,52.485450841796 -1.82088491031172,52.4854548945656 -1.82020897195571,52.4854538716154 -1.81936525647563,52.4854471962471 -1.81877919127713,52.4854409098124 -1.81719914522317,52.485414219608</coordinates></LinearRing></outerBoundaryIs></Polygon>
  </Placemark>
