  <Placemark>
	<Style><LineStyle><color>ff0000ff</color></LineStyle><PolyStyle><fill>0</fill></PolyStyle></Style>
	<ExtendedData><SchemaData schemaUrl="#Wards__December_2019__Boundaries_EW_BFE">
		<SimpleData name="objectid">587</SimpleData>
		<SimpleData name="wd19cd">E05000785</SimpleData>
		<SimpleData name="wd19nm">Cheadle Hulme North</SimpleData>
		<SimpleData name="wd19nmw"></SimpleData>
		<SimpleData name="bng_e">386971</SimpleData>
		<SimpleData name="bng_n">387758</SimpleData>
		<SimpleData name="long">-2.19735</SimpleData>
		<SimpleData name="lat">53.386509</SimpleData>
		<SimpleData name="st_areashape">3886113.7585355</SimpleData>
		<SimpleData name="st_lengthshape">12315.0936092415</SimpleData>
	</SchemaData></ExtendedData>
      <Polygon><outerBoundaryIs><LinearRing><coordinates>-2.20694783816981,53.4019346218692 -2.20696025688213,53.4020154732765 -2.20696177467851,53.4020217607074 -2.20697273617201,53.4021089038275 -2.20697343279178,53.4022536642394 -2.20697354521759,53.4022770266679 -2.20669231071388,53.4022829086431 -2.20671982020649,53.4023817043024 -2.20671475288521,53.4025660119999 -2.20675042002253,53.4027879002385 -2.20676026852007,53.4029533117208 -2.20674481362985,53.4031951470083 -2.20677493657056,53.4038117016648 -2.206861691973,53.4040317030982 -2.20690297611599,53.4041835807346 -2.20690919552883,53.4042132234822 -2.20691687432171,53.4042626318459 -2.20694067396035,53.4045178776295 -2.20700422995434,53.4048907677488 -2.20700727590467,53.4049051393588 -2.20700887316355,53.4049276012461 -2.20701830739828,53.4050066601139 -2.20699209640429,53.4051784244655 -2.20726639034406,53.4052983558068 -2.20752571357317,53.4054255905622 -2.20776104188868,53.4055662558339 -2.2078743055445,53.4056497158826 -2.20818233545389,53.4058971839968 -2.20824281359442,53.4059645607942 -2.20829584867374,53.4060318616412 -2.20830949314387,53.4060578967872 -2.20831547289675,53.4060632775152 -2.2083260622389,53.4060731434374 -2.20833664873715,53.4060821105258 -2.20834872139635,53.4060910750027 -2.20836688561847,53.4061027243923 -2.20837895544406,53.4061107909319 -2.20839399623954,53.4061179525139 -2.20840755524024,53.406126016434 -2.20843017962833,53.4061367591389 -2.20854477633896,53.4061877770843 -2.20861265844305,53.4062218036607 -2.20864573160462,53.4062388189096 -2.20868950166666,53.4062621044956 -2.2087815533308,53.4063186429741 -2.20881165414034,53.4063365613442 -2.20884947069695,53.4063598582466 -2.20888107667935,53.4063813683986 -2.2089293638728,53.4064154292879 -2.20895961147379,53.4064378406474 -2.20898675740407,53.4064602574636 -2.20903968652019,53.406505093477 -2.2091756119993,53.4066316429295 -2.20919231954842,53.4066495857137 -2.20929970325076,53.4067725010088 -2.20934641455371,53.4067885931392 -2.20948223869184,53.4068683273404 -2.2096947076668,53.4069471169219 -2.20998373618379,53.4070077084423 -2.21027424921025,53.4070422384357 -2.21057538650738,53.4070929234114 -2.21095466368499,53.4071443665741 -2.21126914316739,53.4071590824671 -2.21142256231273,53.4071588090521 -2.21157447168825,53.4071540457508 -2.21213828901146,53.4071018192778 -2.21259491408902,53.406968011696 -2.21289692342229,53.4068936971402 -2.21379650121294,53.4065973456002 -2.21382659078354,53.4065874068745 -2.21435362650829,53.4063985632321 -2.21463289635416,53.4062920254477 -2.21567825630955,53.4059863209211 -2.2158646155771,53.4059518362001 -2.21663406689742,53.4058056730431 -2.21788727350961,53.4055507892573 -2.21820288105376,53.4054953942458 -2.21842817149898,53.4054338726325 -2.21809740331709,53.4048708997006 -2.21794266144116,53.404607811363 -2.21782117432158,53.4043725175061 -2.21770720698203,53.4041525752568 -2.21710957916543,53.4028503738908 -2.21696942974801,53.4025027910752 -2.21692994934717,53.4024201039261 -2.2168372228918,53.4022297752006 -2.21667160305677,53.4018966152477 -2.21664116167621,53.4018354772177 -2.21631202347725,53.4012896520308 -2.21630289399382,53.4012743929556 -2.21612245733809,53.4009772024853 -2.21605880867647,53.4008720952304 -2.21575083358147,53.4003397076264 -2.21555206172815,53.3999967192485 -2.21529999513262,53.3995108605985 -2.2151474839867,53.399094101482 -2.21506360209688,53.3988605311319 -2.21489655292198,53.3985606145843 -2.21475713423835,53.3983298400644 -2.21462833021745,53.3981386735929 -2.21440882352489,53.397861315925 -2.21409395630118,53.3974582383491 -2.21383213132134,53.397122547998 -2.21355821529509,53.3967733997197 -2.21336277445352,53.3964950989182 -2.21322779483161,53.3962563166968 -2.21306539319557,53.3959635781745 -2.21302874672869,53.3958503327474 -2.21301634102711,53.395773974708 -2.21301594828862,53.3956948994917 -2.2130275684454,53.3956131070985 -2.21306179204277,53.3955383732511 -2.21309163291852,53.3954799118608 -2.2131885486019,53.3953206872999 -2.21250242455364,53.3952571286225 -2.21230081301085,53.395232328584 -2.21218493301584,53.39521815767 -2.21131938946428,53.395052563695 -2.21103050269069,53.3950054518864 -2.21083032751292,53.3949698633738 -2.21070688114498,53.3949547166262 -2.21054145771053,53.3949514154302 -2.21030990466186,53.3949644058135 -2.21010406021728,53.3949864259223 -2.20983051992813,53.3950345347003 -2.209642742046,53.3950744046238 -2.20945655198042,53.3951349376983 -2.20924026047539,53.3951757561002 -2.20903133647136,53.3952021823199 -2.20882235972969,53.39521782572 -2.20842242754198,53.3952320071418 -2.20779239929852,53.3952537788902 -2.20745260034811,53.3952678509619 -2.20714273502256,53.3952665949019 -2.20714842018383,53.3951857123142 -2.207157094413,53.3951075192496 -2.20715701200679,53.3950904467322 -2.20718046390025,53.3949654124513 -2.20719694618246,53.3949635860135 -2.20719689412736,53.39495280356 -2.20719926469915,53.3948018366112 -2.20720038757073,53.3947263532442 -2.20720034418967,53.3947173675662 -2.20720028345537,53.3947047874373 -2.20720024007438,53.3946958017594 -2.20719350484087,53.3945591378289 -2.20651078023177,53.394553137755 -2.20630469602828,53.395170107069 -2.20555544098251,53.3950995190713 -2.20547263884272,53.3950789942921 -2.20528826395715,53.3942757062259 -2.20505111761538,53.3930914183855 -2.20496537346421,53.3927914375164 -2.20489387947911,53.3926189421644 -2.20485008955448,53.3925624066372 -2.20457602381025,53.3924981810607 -2.20445252349552,53.3924434895721 -2.20405416913976,53.3915373172877 -2.20361509736724,53.3905969737538 -2.20342573728934,53.3903033676041 -2.20298438284707,53.3901494753883 -2.20208925389688,53.3903559705877 -2.20177677023514,53.3904221000854 -2.2005734556614,53.3906623553941 -2.20029098173829,53.3907041666331 -2.20006932515586,53.3902604554853 -2.19998406621995,53.3900314575668 -2.19993929220825,53.3897906200771 -2.19988278670227,53.3895857455778 -2.19987344044755,53.3895228596762 -2.19986411958725,53.3894653650419 -2.19988195375932,53.3894087235638 -2.20108418317294,53.3892870913889 -2.20203550373117,53.3891695583782 -2.20226489819795,53.3887359556497 -2.20244332254373,53.3882996538095 -2.20248005063567,53.3881243654695 -2.20248718303061,53.3880344043265 -2.20248970851255,53.3879400475615 -2.20246147439131,53.3876866015373 -2.20246110952775,53.3872983197784 -2.20243891124027,53.3870628359734 -2.20239548561157,53.3867950386483 -2.2023573035575,53.3866648079337 -2.20234304622436,53.3865084769361 -2.20246895511658,53.3857981028339 -2.20252047224666,53.3855535074898 -2.20253046946654,53.3854663260664 -2.20253910300162,53.385379147865 -2.20253644804307,53.3851346448525 -2.20255806159367,53.3846241157176 -2.20260357141416,53.3843939085785 -2.20261713824501,53.3840936643025 -2.20419570084289,53.3840828744812 -2.20420403586412,53.3839345019096 -2.20420547532315,53.3836154087055 -2.20416583553815,53.383492368223 -2.20414110821344,53.3833512403821 -2.2043047725088,53.3833087243421 -2.20433316136945,53.3832835146511 -2.20436464434196,53.3832574016706 -2.20438562623839,53.3832384949252 -2.20440202845555,53.3832213928752 -2.20440511976357,53.383219590737 -2.20442005246916,53.3832060857509 -2.20453532750522,53.3831025481976 -2.2046550244536,53.3829908250944 -2.20469863959415,53.3829871563153 -2.20474212994218,53.3829834868364 -2.2047467123985,53.38298258008 -2.20478871004717,53.3829780142974 -2.20483083397431,53.3829734491812 -2.20484284777868,53.3829716307493 -2.20487889220075,53.382966177239 -2.20493302555614,53.3829588956974 -2.20495246935772,53.3829552676184 -2.20502009611118,53.3829443673222 -2.20509825998729,53.3829334496966 -2.20512823505753,53.3829289045491 -2.20515077728227,53.3829252710882 -2.20521988641689,53.382913470159 -2.20526050881501,53.3829062109075 -2.20534014631075,53.3828925940003 -2.20541520568447,53.3828807826741 -2.20551738373663,53.3828635330359 -2.20561349394481,53.382847191772 -2.20562699165305,53.382844472733 -2.20569163850116,53.3828326783555 -2.2057156645957,53.3828281442589 -2.20575319123755,53.3828217890596 -2.205826754786,53.3828081823473 -2.20586738134078,53.3828018217418 -2.20593649442411,53.3827909183523 -2.20597699766804,53.3827845579234 -2.20598604207858,53.3827836442827 -2.206031130583,53.3827772758856 -2.20604166181825,53.3827763587635 -2.20611524993876,53.3827681440875 -2.20615129550724,53.3827626892931 -2.2061753243789,53.3827590530597 -2.20621434359774,53.3827535939848 -2.2062414680282,53.3827490544049 -2.20629695126086,53.3827390733254 -2.20636457685299,53.3827280823855 -2.20641869935277,53.3827190024722 -2.20642922768831,53.3827171873607 -2.20651626649751,53.3826963677356 -2.20654933090203,53.3826900200428 -2.20659588849772,53.3826800543412 -2.20660195332359,53.3826782469758 -2.20664244319003,53.3826691906662 -2.20672947301073,53.3826465740825 -2.20674308946261,53.3826429558518 -2.20676858020312,53.3826339255983 -2.20677451295633,53.3826303207357 -2.20678502657984,53.38262580994 -2.206849523431,53.3825834629756 -2.20685693421282,53.3825780587163 -2.20686594780977,53.3825708539475 -2.20686743024092,53.3825699525073 -2.20688546621146,53.3825573406706 -2.20701326240236,53.3825571180755 -2.20701469209015,53.382545434011 -2.20702038306838,53.3824924066858 -2.20702036109004,53.3824879133272 -2.20704437653395,53.3824815812642 -2.20705163070595,53.3824186664589 -2.20703050498657,53.3824078306712 -2.20702431296271,53.3823584185877 -2.20703019730199,53.3823449290424 -2.20703620491226,53.382331439282 -2.20704205408089,53.3823107616205 -2.20704657336454,53.382297274453 -2.20704948255665,53.3822837900911 -2.20704946497241,53.3822801955839 -2.20705085658206,53.3822604245487 -2.20705229503881,53.3822505372875 -2.20705511630658,53.3822190812879 -2.2070566707485,53.3822073970049 -2.20705661799403,53.3821966134831 -2.20705494925874,53.382184934817 -2.20704593597273,53.3821669787328 -2.20704283757594,53.382166984132 -2.20703688883451,53.3821669944978 -2.20703391810452,53.3821678976346 -2.20702933579146,53.3821688044783 -2.20702785337852,53.3821697059205 -2.20700234980322,53.3821760405726 -2.20695282654738,53.3821878084166 -2.20691978307876,53.3821986495811 -2.20689725459356,53.3822049790296 -2.20684772248649,53.3822149491271 -2.20683868261907,53.3822167625829 -2.20682517202884,53.382216786102 -2.20677853600205,53.3822105770569 -2.20676793318999,53.3821971162161 -2.20672862492167,53.382143268343 -2.20678384337111,53.3820792822396 -2.20679412127648,53.3820262460384 -2.20680151474561,53.3819920864064 -2.2067907291057,53.3819408854818 -2.20676515101516,53.3819319440998 -2.20673956854564,53.3819221038606 -2.20671386281489,53.3819122638302 -2.20668976717005,53.3819024209935 -2.20666876702748,53.3818916739083 -2.20665509378965,53.3818836106538 -2.20664303062965,53.3818755445976 -2.20663855556567,53.3818728558026 -2.20661740874631,53.3818576164646 -2.20660832508805,53.3818504440828 -2.20657523554532,53.3818262387085 -2.2065222586684,53.3817651364621 -2.20650105495793,53.3817382147274 -2.20646936621333,53.3816960359941 -2.20646475764053,53.3816915506047 -2.20644665825671,53.3816655232236 -2.2064314398743,53.381645780153 -2.20641932424541,53.3816269305493 -2.2064072086278,53.3816080809442 -2.20639358870733,53.3815856394124 -2.20638445695281,53.3815685814415 -2.206355923134,53.3815632396427 -2.20632113044528,53.3815201673993 -2.20629084059903,53.3814851743651 -2.20626664417005,53.3814545742569 -2.20625764603295,53.3814393137624 -2.20625154197563,53.3814330341405 -2.20623942211489,53.3814132856654 -2.20623492524251,53.3814061043935 -2.20621519118594,53.3813755864146 -2.20620156707165,53.3813522460074 -2.20619394999696,53.3813405776496 -2.20618031715554,53.381315440435 -2.20617431889453,53.3813055660866 -2.20616040089308,53.381247181454 -2.20614357864248,53.3811780182414 -2.20613129658529,53.3811249322384 -2.20612505258625,53.3810898974404 -2.20612355556423,53.3810881032174 -2.20609174523035,53.3810207628152 -2.20603403612732,53.3809040444264 -2.20602940295865,53.3808941677027 -2.20597018365998,53.3807728695125 -2.20590646992684,53.3806444798854 -2.20588671176949,53.3806085696299 -2.20584876145679,53.3805276715094 -2.20580932061661,53.3804459669834 -2.20579717219922,53.3804199291877 -2.20576558316536,53.3804235775357 -2.20560181707282,53.3804427316782 -2.2055502837856,53.3803466707282 -2.20551996058632,53.3803044884655 -2.20548513498157,53.3802542278401 -2.20544731810611,53.3802002870514 -2.20541549380655,53.380155411676 -2.20538527672765,53.3801096355526 -2.20537315768476,53.3800898869812 -2.20536253996383,53.3800728314938 -2.20532624980662,53.3800270658505 -2.20532011846057,53.3800153948655 -2.20531560883533,53.3800055178983 -2.20530499116072,53.3799884624053 -2.20529588200974,53.3799758977043 -2.20527166738886,53.3799408938996 -2.20527015737925,53.3799364040076 -2.20524742473834,53.3799004088918 -2.20523531604165,53.3798824580068 -2.20521411852658,53.3798564348784 -2.20520202141773,53.37984117965 -2.20517633614867,53.3798097729042 -2.20516574035482,53.3797972107597 -2.20515814999111,53.3797909336453 -2.20514756141383,53.379780169206 -2.20514009432327,53.3797738918776 -2.2051219241073,53.3797586471253 -2.20510985467967,53.3797487831998 -2.20509181210238,53.3797344361833 -2.20508422176185,53.379728159064 -2.20506009450374,53.379711127763 -2.20504803230251,53.3797030606391 -2.20503297776483,53.3796914050363 -2.20496660543578,53.3796528793635 -2.20495158573363,53.3796484127702 -2.20491545730272,53.3796358946399 -2.20487473812259,53.3796224855543 -2.2048506501345,53.3796135411835 -2.20484915756704,53.3796126448969 -2.20483860973841,53.3796099674004 -2.2048145434932,53.3796055154858 -2.20479047575435,53.3796010644678 -2.20474828687926,53.3795911625258 -2.20471974447178,53.3795840226246 -2.20471217593742,53.3795822388435 -2.20469418285516,53.3795777764413 -2.20468809519023,53.3795750912479 -2.20468213379915,53.3795724058366 -2.20468063689699,53.3795706115945 -2.2046700804023,53.3795661363784 -2.20465492881089,53.3795598722551 -2.20465045848199,53.3795580831339 -2.20462935269112,53.3795509304024 -2.2046113509507,53.3795446711819 -2.20460526479946,53.3795419859816 -2.20456616164031,53.379529472867 -2.20453910318317,53.3795214315077 -2.20447132148153,53.3794990838628 -2.20442762332002,53.3794847808899 -2.20440204729755,53.379475838988 -2.20439145616838,53.3794641756248 -2.20439145183053,53.3794632767725 -2.20438086504096,53.3794525113618 -2.20436268224665,53.379434570833 -2.20435671505739,53.3794309865554 -2.20434764534842,53.3794265096523 -2.20433410533733,53.3794202427163 -2.20432653251399,53.3794175600581 -2.20431759474115,53.3794148788477 -2.20431449222207,53.3794139862216 -2.20429049550267,53.3794239122425 -2.20424856496887,53.3794419561288 -2.20423656800772,53.3794473681114 -2.20423508563193,53.3794482695191 -2.20421094439146,53.3794285414887 -2.20416254022257,53.3793890865207 -2.20412184237298,53.3793541107957 -2.20409768825395,53.3793316870832 -2.20407802326451,53.3793146479158 -2.20405537904421,53.3792967141027 -2.20404641685097,53.3792886424512 -2.20401017723384,53.3792788199159 -2.20400417504036,53.3792679567136 -2.20399356244341,53.3792518008495 -2.20398906620845,53.3792446194874 -2.20398594639425,53.3792401314429 -2.20398296283257,53.379238339744 -2.20397698272409,53.3792320597886 -2.20396939264989,53.3792257825966 -2.20395583112761,53.3792150222536 -2.20394824388461,53.3792096439152 -2.20393318269355,53.3791961904629 -2.2039226162248,53.3791899183761 -2.20389400654053,53.3791684011275 -2.20386825416463,53.3791486757904 -2.20385768057388,53.3791406068891 -2.20384262376412,53.3791280522774 -2.20383663936811,53.3791208734622 -2.20383352823117,53.3791181831185 -2.20382603984788,53.3791074132409 -2.20381844399199,53.3791002371891 -2.20380184280483,53.379076003638 -2.20379123897906,53.379061643662 -2.20378212618499,53.3790481808868 -2.20377609858287,53.3790320162401 -2.20376992178525,53.3790104604873 -2.2037683875402,53.379000578356 -2.20375920560435,53.3789727375342 -2.20375768433025,53.3789655510613 -2.20375616976848,53.3789600724108 -2.20375005782435,53.3789519949497 -2.20375004918154,53.3789501981436 -2.20374406050474,53.3789421204709 -2.20373201758945,53.3789376486181 -2.20373052507153,53.3789367523172 -2.20371997316926,53.3789331758678 -2.20370644206479,53.3789287065639 -2.20369589016673,53.3789251301124 -2.2037107826409,53.3789035382356 -2.20368053588597,53.3788766314797 -2.20364891992695,53.3788488291015 -2.20365027419582,53.3788209702121 -2.20360376630498,53.3788408194376 -2.20356456912782,53.3788085366258 -2.203508708307,53.3787646007577 -2.20345579939368,53.3787161664074 -2.20342705652226,53.3786667927019 -2.20339982154367,53.3786218199228 -2.20338012116994,53.378597590716 -2.20335137879927,53.378574276739 -2.20333781765866,53.3785635163228 -2.20333181187272,53.3785518450155 -2.20333174717635,53.3785383658216 -2.20333612395287,53.3785203865251 -2.20336762113212,53.378497867414 -2.20338553161864,53.3784852563144 -2.20339007477112,53.3784762626346 -2.20339004457111,53.378469972464 -2.20337794424637,53.3784538181893 -2.20336584393128,53.3784376639133 -2.20336578785384,53.3784259824245 -2.20335966312778,53.3784152092829 -2.20334910276888,53.3784098359932 -2.20332801505637,53.3784062775381 -2.20318222657859,53.3783993378324 -2.20313854879773,53.3783886297852 -2.20310996012894,53.3783716048094 -2.20308879061518,53.3783509735039 -2.20307214235981,53.3783167652765 -2.20304919767539,53.3782359304515 -2.20301254576983,53.3781137831614 -2.20300487424387,53.3780904321975 -2.20298664100321,53.3780617079128 -2.2029458762002,53.3780122647328 -2.20293521980527,53.3779871220404 -2.2029170856041,53.3779530062121 -2.20291225406132,53.3779017938174 -2.202910573747,53.377861359666 -2.20290140987286,53.3778371132813 -2.20287872827349,53.3778110922554 -2.20280078874886,53.3778408795944 -2.20268225428146,53.37788241682 -2.20266715950472,53.3778878348282 -2.2026521879811,53.3778932517255 -2.20259366395224,53.3779140190123 -2.20246610991089,53.3779618625239 -2.20237604116864,53.3779952647948 -2.2023655239595,53.3779988763495 -2.20236107106971,53.3780006816532 -2.20234906140902,53.3780033977869 -2.20201276085828,53.3780966164218 -2.20183118143484,53.3781472458771 -2.20155935130049,53.3782195963351 -2.20133568715818,53.3782819789449 -2.20128617135573,53.3782946433019 -2.20127119525465,53.3782991611797 -2.20125460922597,53.3783036826819 -2.20125312105675,53.3783036852031 -2.20123814218827,53.3783073051201 -2.20122910721781,53.3783100161067 -2.20120657150785,53.3783145476804 -2.20112546785284,53.3783308591112 -2.20104437308964,53.378349058977 -2.20103546135939,53.3783517697404 -2.20100686970532,53.3783599051677 -2.20096936780826,53.378370752243 -2.20094684055337,53.3783770805748 -2.20092282511922,53.3783834114195 -2.20087482128119,53.3784014644119 -2.20084157219307,53.3783682726915 -2.20080831421751,53.3783331933703 -2.20079177901884,53.3783224376948 -2.20078121753906,53.3783170641827 -2.20074797285042,53.3782847703895 -2.20070412421787,53.3782381172343 -2.20065431477602,53.3781887784494 -2.20059390728047,53.3781259782319 -2.20057123129426,53.3781008556255 -2.20056360645598,53.3780873891913 -2.2005514903924,53.3780676410141 -2.20054089225327,53.3780541795981 -2.20053491011446,53.3780470006126 -2.20049565204658,53.3780011486033 -2.20048954515898,53.3779939698261 -2.20048804850333,53.3779921755305 -2.20048802725248,53.377987682164 -2.20048651510064,53.3779822933524 -2.20048187362133,53.3779706186993 -2.20047886056597,53.3779625367388 -2.20047433960934,53.3779499639205 -2.20045612950676,53.3779257326149 -2.20045463435409,53.3779239374174 -2.20044863800071,53.3779140627696 -2.20044552718685,53.3779113723368 -2.20044253538471,53.3779077828429 -2.2004380356908,53.3778997033896 -2.20041836447075,53.3778808659071 -2.20041077371105,53.3778745884894 -2.20040629526463,53.3778710015026 -2.20037916658554,53.3778476840906 -2.20036709315068,53.377836920829 -2.20033536981067,53.377811813436 -2.20030823696554,53.3777875971544 -2.20029306126785,53.3777759411547 -2.2002704111349,53.3777562098097 -2.20025996189946,53.3777481394807 -2.20024938941166,53.3777400702574 -2.20023879844748,53.3777284065221 -2.20023730755722,53.3777275101749 -2.20021763184575,53.3777076839199 -2.20019646843578,53.3776879509536 -2.20017678894414,53.3776673157237 -2.20016782790028,53.3776592437777 -2.2001587378527,53.377650273188 -2.20014666029259,53.3776386110502 -2.20014516516863,53.3776368167476 -2.20012997685027,53.377622465066 -2.20011195398086,53.377611711801 -2.20009083034246,53.3776000657946 -2.20006970097146,53.3775875209339 -2.20005761073614,53.3775731631263 -2.20005008549451,53.3775543051261 -2.20004544145757,53.3775417324979 -2.20003191548374,53.3775381607325 -2.20000784953921,53.3775337087505 -2.19999283693381,53.3775301394836 -2.19998673868685,53.3775247583861 -2.19997317307408,53.3775130987356 -2.19997018285106,53.3775095101257 -2.19995960473741,53.3775005411267 -2.19995201986307,53.3774951625297 -2.19993996359869,53.3774879937376 -2.19993698458904,53.3774871007901 -2.19992046268106,53.3774790406516 -2.19991288205412,53.3774745609053 -2.19988121858933,53.377462033738 -2.19985859848449,53.3774485924875 -2.19984505138399,53.3774405282325 -2.19982243977122,53.3774288837825 -2.19980441707471,53.3774181313691 -2.19977272089634,53.377398325257 -2.1997712242948,53.377396530952 -2.19973047104529,53.3773750331236 -2.19972599694467,53.3773723440651 -2.199718450221,53.3773750533343 -2.19971251761313,53.377378656952 -2.19970954284591,53.3773786619532 -2.19970496242045,53.3773795685139 -2.19969750359267,53.3773750885491 -2.19967488783069,53.3773625461165 -2.19962964788545,53.3773356635319 -2.19959199429813,53.3773141604469 -2.19957994238262,53.3773078904711 -2.19955272935955,53.3772926600567 -2.19952115981207,53.3772738424108 -2.19947741515289,53.3772487549772 -2.1993778813809,53.3771932089128 -2.19935079026336,53.3771779773485 -2.19929499127449,53.3771457218896 -2.19927088491982,53.3771322830202 -2.19922565394811,53.3771071979867 -2.19913072466403,53.3770560466103 -2.19912326746315,53.3770515666065 -2.19904188293982,53.3770076714249 -2.1990207584242,53.376996025229 -2.19893030136631,53.376946752907 -2.19881127292552,53.3768831519639 -2.19880680315421,53.3768813617238 -2.19879325916481,53.3768741962035 -2.198787169599,53.3768706118513 -2.19878269983015,53.3768688216103 -2.19877213628996,53.3768625490616 -2.19876157124992,53.3768562765145 -2.19874654216755,53.3768491134738 -2.19873138411348,53.3768410508876 -2.19871027240429,53.3768321002973 -2.19863203304683,53.3767980843411 -2.19857180285082,53.3767720353912 -2.1985251071408,53.376751445942 -2.19851752950537,53.3767478640629 -2.19848735095051,53.3767344351816 -2.19845431675329,53.3767201131018 -2.19843320516896,53.376711162462 -2.19841059017313,53.3766986197866 -2.19840152174663,53.3766941415297 -2.19836536442295,53.3766744323774 -2.19831864372539,53.3766484515236 -2.19821165871233,53.3765893223754 -2.19817997547938,53.3765723013835 -2.1981408184847,53.3765472058019 -2.19808800712181,53.3765176395742 -2.19804127420047,53.3764889629486 -2.19802772358621,53.3764799987319 -2.19802323561649,53.3764746148483 -2.19798549520276,53.3764341508333 -2.19795371994356,53.3763973612948 -2.19794164759154,53.3763865977825 -2.19791749603152,53.3763632748424 -2.19789036561162,53.3763390571005 -2.19786311046896,53.3763148404589 -2.19784805090628,53.37630138623 -2.19779369634425,53.3762592428875 -2.19775900535747,53.376235038603 -2.19771833304954,53.3762036551775 -2.19766101931657,53.3761651103436 -2.19762631969811,53.3761390184272 -2.19765931311343,53.3761182960305 -2.19766684868883,53.3761128921255 -2.19763810306194,53.3760877790511 -2.19762005224529,53.3760707352262 -2.19760188387773,53.3760545904546 -2.19760038323655,53.376051897268 -2.19758681613187,53.3760393393833 -2.19755807479275,53.3760151251426 -2.19753853327636,53.3759971849238 -2.19753094482359,53.3759909073165 -2.19750231425991,53.375963997195 -2.19750069455745,53.3759622030657 -2.19747965815002,53.3759424685002 -2.19747057745123,53.3759352945092 -2.19745702297139,53.3759254322714 -2.19744795064622,53.3759200559859 -2.19744035803941,53.3759128795191 -2.19743289705555,53.3759075005542 -2.19742829851715,53.3759048125143 -2.19741027446244,53.3758931608773 -2.19739821912969,53.3758859918242 -2.19739212983736,53.3758824073996 -2.19738006615255,53.3758734415362 -2.19736651589671,53.3758644781416 -2.19743247432348,53.3758166525165 -2.19749977391538,53.3757644220055 -2.19754028587238,53.3757347003312 -2.1976001885,53.375690569113 -2.19751992682842,53.3755675937474 -2.19751539870083,53.3755532240005 -2.19708420560219,53.3755997686045 -2.19605965024887,53.3757326609041 -2.19570381777179,53.3758087295239 -2.19544845897191,53.3758505757686 -2.19526078435045,53.3758958148792 -2.19490204899802,53.3760150195063 -2.19444593246882,53.3761955778428 -2.19408291815486,53.3763561229133 -2.19317447687887,53.3769014387837 -2.19196166961254,53.3776224674901 -2.19182374985678,53.3776828968981 -2.19169470988877,53.3777335169325 -2.19159264688042,53.3777750166187 -2.19150562952701,53.3778272764852 -2.19144124344508,53.3778687161819 -2.19137669350014,53.3779011693013 -2.19038820860585,53.3783566429855 -2.18960093749625,53.3788019916147 -2.18946991555089,53.3787428930207 -2.1893659488221,53.3786918390891 -2.18932072585371,53.3786675583682 -2.18927253248232,53.3786442720095 -2.18915502489941,53.3785860494893 -2.18909775991424,53.378557386144 -2.18903602548584,53.3785269312658 -2.18895764376912,53.3784875178366 -2.18885368233574,53.3784373614087 -2.1887513310942,53.3783872023304 -2.18867593234084,53.3783494909094 -2.18864736180789,53.378335159026 -2.18860214804316,53.378312765623 -2.18858401264581,53.3783038085159 -2.18854488383561,53.3782841011103 -2.18852227501401,53.3782724554137 -2.1885011543703,53.3782608064518 -2.18847258396238,53.378246474526 -2.18843793666564,53.3782312533757 -2.18842588771197,53.3782249822689 -2.18837621119718,53.3782025958605 -2.18832193955257,53.3781775210359 -2.18830393549499,53.3781703604997 -2.18829337722141,53.3781649858762 -2.18826617432912,53.3781515496939 -2.18825115060011,53.3781452832853 -2.18823612537259,53.3781390168771 -2.18823153116952,53.3781372273372 -2.188216503474,53.3781300620701 -2.18819687760729,53.3781202084056 -2.18818035778843,53.378112147537 -2.18817588835215,53.3781103568983 -2.18815018014703,53.3780987160419 -2.18812459822508,53.3780870749799 -2.18811106764372,53.3780826030101 -2.18807492204761,53.3780646884448 -2.18803728148207,53.3780448886285 -2.18801765570068,53.3780350349343 -2.18800858813043,53.3780305567856 -2.18797392928304,53.3780126398356 -2.18796945589523,53.378009950335 -2.18791069797583,53.3779794910581 -2.1878564174837,53.3779526192124 -2.18781132388094,53.3779293264572 -2.18775703558869,53.3779006568573 -2.1877103321927,53.3778773675076 -2.18766809823182,53.3778558678985 -2.18761840674143,53.3778298866532 -2.18761083137423,53.3778263040782 -2.1875069807423,53.3777725517509 -2.18747977838108,53.3777591162861 -2.18746772179671,53.3777510473729 -2.18744510170947,53.3777367058059 -2.18743614921529,53.3777303398247 -2.18739389576456,53.3777043467449 -2.1873833258626,53.3776962763759 -2.18736681824705,53.3776909101583 -2.18734421405646,53.3776801630901 -2.18732160987397,53.3776694151186 -2.18731254246334,53.3776649369165 -2.18730049630376,53.3776595636524 -2.18725230926088,53.3776371753227 -2.18717853697208,53.377602245953 -2.18712427327964,53.3775789673897 -2.18710613854101,53.3775700100555 -2.18685759023449,53.3774454957478 -2.18574660029329,53.3784377686361 -2.18524800346046,53.3788978238354 -2.18371272549959,53.3801900633786 -2.1828712867843,53.3809770103549 -2.18284585355825,53.3810004135691 -2.1820655349568,53.3816820335656 -2.18142902577444,53.3822591905851 -2.17985034470364,53.38363501385 -2.17840790433188,53.3849216396531 -2.17636465412015,53.3867206200577 -2.17681275265232,53.3867415203399 -2.17721873158894,53.3867391188179 -2.17902015004327,53.3867849424918 -2.17949841269932,53.3868147739819 -2.17950436586795,53.3868156629433 -2.18019609785537,53.3868451690349 -2.18045505059136,53.3869005786483 -2.18081160184166,53.3869647352017 -2.18129020752429,53.387074533442 -2.18201399769141,53.387207407407 -2.18225172810889,53.3872564664911 -2.18274538246439,53.3873761196316 -2.1829064074014,53.3874028303215 -2.18306891718141,53.3874286387576 -2.18385416696161,53.3875236668562 -2.1843476014775,53.3875902967623 -2.18498842787058,53.3876548981562 -2.18596326316911,53.3877827731744 -2.18638893685913,53.3878307201294 -2.18684781440995,53.3879018863951 -2.18711878042588,53.3879508821649 -2.18735044450399,53.3879990413843 -2.18754607584956,53.3880283856753 -2.18768897204148,53.3880470303862 -2.18787103981987,53.3880647141033 -2.18785632826396,53.3881304254775 -2.18785634410302,53.3881340190624 -2.18785476396309,53.3881412105799 -2.18785330069549,53.3881466042086 -2.18785034889775,53.3881520010911 -2.18785037265952,53.3881573923673 -2.1878503845404,53.3881600880054 -2.18784891335234,53.3881636848417 -2.18784595362974,53.3881672840327 -2.18783694324337,53.3881762841093 -2.18783089257851,53.3881816849945 -2.18782792889187,53.3881843853395 -2.187824977088,53.3881897822214 -2.18777566644059,53.3882527618678 -2.1877142779809,53.3883319345285 -2.18763205597881,53.3884381892293 -2.18755132169372,53.388544350738 -2.18753196849552,53.3885695419665 -2.18746170760796,53.3886613097356 -2.18742422957331,53.388708994564 -2.18728072883386,53.3888917247624 -2.18710580528888,53.3891185363563 -2.18701013133278,53.3892390990627 -2.18699816852622,53.3892534950376 -2.18699211759224,53.3892588967788 -2.18698916559465,53.3892642927406 -2.18698771399508,53.3892723819959 -2.18689254639299,53.3895089523094 -2.18679580122369,53.3897536119889 -2.18654439845393,53.3896731339536 -2.18646605644011,53.3896471076182 -2.1863937998464,53.3896238581185 -2.18631247489577,53.3895961294453 -2.18605646691471,53.3895111642454 -2.18580047566991,53.3894297929765 -2.18580355113486,53.389424396851 -2.18566040636576,53.3893778930654 -2.18547977707143,53.3893214740122 -2.18537885017706,53.3892901808129 -2.18535625963961,53.3892839259176 -2.18523481720205,53.3893533072586 -2.18503968826588,53.3894408657655 -2.18487184678285,53.3895597415052 -2.18463118697905,53.3898980767387 -2.18443838406158,53.3901509712746 -2.18436672254431,53.3902652033143 -2.18423531859691,53.3904973349736 -2.18417421051384,53.3906151450391 -2.18407892498555,53.3908283491629 -2.18398495746132,53.3910029122317 -2.18393149966042,53.3911701336619 -2.18395038777226,53.3913526081291 -2.18409959566636,53.3917972717838 -2.18424822753133,53.3924262321885 -2.18431895493899,53.3927856472073 -2.18439201528385,53.3929949940116 -2.18449360567836,53.3932078909699 -2.18470408035914,53.3935410295283 -2.18476928832018,53.3936541500564 -2.18500758219252,53.3941688483233 -2.18526844353394,53.3946825221561 -2.18536293171144,53.3949709104098 -2.18547994474886,53.3952493797301 -2.18574027384822,53.3959806909931 -2.18602456431576,53.3966885106223 -2.18612322098214,53.3969068026587 -2.18709344431264,53.396952004711 -2.18901135337456,53.3970478123182 -2.18930170808859,53.3970653214249 -2.18986288277353,53.3971129498514 -2.19161372101802,53.3971955044836 -2.19213723997944,53.397223503702 -2.19364294060544,53.397305525995 -2.19502522755582,53.3973508901831 -2.1953923327619,53.3973664608047 -2.19605421043255,53.39741569132 -2.19638820563158,53.3974304164692 -2.19752828130419,53.3974653683937 -2.19794351614645,53.3974844456346 -2.19896043696629,53.3975403469006 -2.19963897125343,53.3975967186412 -2.20010969241866,53.3976013181156 -2.20090244644552,53.3976610847602 -2.20112659298091,53.3976517198447 -2.20112095069327,53.3977442833654 -2.20110802045913,53.397869298499 -2.20111012647034,53.398001387252 -2.20100236398095,53.3981058058177 -2.20083282776848,53.3982059252607 -2.20112914857269,53.3981973372018 -2.2013066930752,53.3982186025365 -2.20139245620919,53.3982355298657 -2.20213477743023,53.3984292625474 -2.20242687537008,53.398497148338 -2.20275369813136,53.3985918406066 -2.20346738253788,53.3987587465352 -2.20430166024523,53.3989891500761 -2.20455178090698,53.3990678854026 -2.2047897741652,53.3991519424949 -2.2050354106607,53.399252160626 -2.20528708555105,53.3993703393117 -2.20552838589769,53.3994967131009 -2.20574861870757,53.3996257277398 -2.20585868732231,53.3996930214075 -2.2061729086228,53.3999746327497 -2.20624999332333,53.4000680416777 -2.20649825810363,53.4004037712337 -2.20659684745624,53.4005590550404 -2.20664686515309,53.4006453213608 -2.20688973186239,53.4011212367794 -2.20694434346967,53.4012083047916 -2.20709293384563,53.4014453609417 -2.20725931199705,53.4016419497513 -2.20741334249249,53.4017719756634 -2.2072884758986,53.4017748892752 -2.20712013354063,53.4017886619535 -2.2070177158062,53.4017663758291 -2.20690166010351,53.4017189530672 -2.20689723926623,53.4017279464634 -2.20690343010159,53.4017773574512 -2.20694783816981,53.4019346218692</coordinates></LinearRing></outerBoundaryIs></Polygon>
  </Placemark>
