  <Placemark>
	<Style><LineStyle><color>ff0000ff</color></LineStyle><PolyStyle><fill>0</fill></PolyStyle></Style>
	<ExtendedData><SchemaData schemaUrl="#Wards__December_2019__Boundaries_EW_BFE">
		<SimpleData name="objectid">1551</SimpleData>
		<SimpleData name="wd19cd">E05003280</SimpleData>
		<SimpleData name="wd19nm">Alfreton</SimpleData>
		<SimpleData name="wd19nmw"></SimpleData>
		<SimpleData name="bng_e">441108</SimpleData>
		<SimpleData name="bng_n">355893</SimpleData>
		<SimpleData name="long">-1.38752</SimpleData>
		<SimpleData name="lat">53.098679</SimpleData>
		<SimpleData name="st_areashape">4570200.90044659</SimpleData>
		<SimpleData name="st_lengthshape">10588.6667352273</SimpleData>
	</SchemaData></ExtendedData>
      <Polygon><outerBoundaryIs><LinearRing><coordinates>-1.40684795920608,53.089271220781 -1.40673373536885,53.0892158344122 -1.40643531837397,53.0890903328666 -1.40594299813986,53.0889565855399 -1.40537450512019,53.0888117616825 -1.40496839508289,53.0887027040508 -1.4047526779009,53.0886513017212 -1.40459584876428,53.0886505182142 -1.40444485303847,53.0886641427287 -1.4041873223908,53.088716775076 -1.40376898954487,53.0887353514615 -1.40356552450561,53.088768572084 -1.40314083605333,53.088810479992 -1.40268856367134,53.0889061678412 -1.40206574182961,53.0890315524753 -1.40156750202295,53.0891037297376 -1.40086707091917,53.0892233268908 -1.40054684947067,53.0892774332022 -1.40052155355615,53.0892638267009 -1.40040452205724,53.0891985339056 -1.4003762331699,53.0891965946356 -1.40029421279768,53.0891898912931 -1.39990749064788,53.0891834508749 -1.39982695695278,53.0891848431489 -1.3997104660472,53.0891869522675 -1.39949017408362,53.0891373143866 -1.39913430506268,53.0890636279426 -1.39897190302739,53.08903854543 -1.39887184882111,53.0890361539458 -1.39872420377324,53.0890210300207 -1.39871974743264,53.0890228053697 -1.39863184331755,53.08901427336 -1.39778099281337,53.0892113664043 -1.39718773936331,53.0893513432702 -1.39715707333231,53.0894051078686 -1.39714203922892,53.0894149172027 -1.39697177367202,53.089520996273 -1.39680339516143,53.089606415858 -1.39667410620046,53.0896696554773 -1.39646349488132,53.0897818201721 -1.39631321517346,53.0898493568828 -1.39588908433796,53.0898588908108 -1.39568745411475,53.0898569695983 -1.39582219186658,53.0894046382847 -1.39584519004832,53.0891512432614 -1.39585428299471,53.0889238382285 -1.39590461408179,53.0885294922356 -1.39296024139036,53.08873928546 -1.39201964534132,53.0888387341985 -1.39175328521073,53.0888876999386 -1.39158850383855,53.0889183118708 -1.39153467925924,53.0889288213657 -1.39105711003865,53.0890181353305 -1.39040397063338,53.0891693648142 -1.3900053093626,53.0892760632186 -1.38987037337919,53.0893114082202 -1.38967690662098,53.0893679320386 -1.38760197251447,53.0899685551731 -1.38609221475317,53.0903949297735 -1.38505848942806,53.0906413146527 -1.38488179335722,53.0906691599697 -1.38475607467926,53.0906963694103 -1.38403465731989,53.0908148610813 -1.38364702378032,53.0908713596543 -1.38330901328222,53.0909100508871 -1.38295777654784,53.0909351934318 -1.38242592870222,53.0909602972972 -1.3818447157903,53.0909851427858 -1.38099658739909,53.0909843359794 -1.38073536180925,53.0909739925837 -1.38013393059722,53.0909492985798 -1.37991163361904,53.0909373579805 -1.37857512346253,53.0908414305057 -1.37767705688907,53.0907863299165 -1.37702349125478,53.0907487657613 -1.37638022701723,53.0907310236226 -1.37593537769603,53.0907251004828 -1.37544254852994,53.0907252149064 -1.37498079279235,53.0907560454002 -1.37426950628946,53.0907936519348 -1.37398249369484,53.0908129035445 -1.37366997874213,53.0908418159789 -1.37344569727917,53.090864900818 -1.37311058063634,53.0909071731734 -1.3724267557084,53.0910033267683 -1.37207806030193,53.091056308181 -1.37124716818652,53.0912074869153 -1.36848825904309,53.0916791676619 -1.36680135490798,53.0919533927587 -1.36657080137517,53.092000696065 -1.36539173270089,53.0921580762766 -1.36480966582576,53.0922394527256 -1.36424119097798,53.0923173938915 -1.36364586005428,53.0923879105143 -1.36316719527719,53.0924365802847 -1.36323243247631,53.0924710777586 -1.36337925283315,53.092541956781 -1.3635716689167,53.0926518126051 -1.36356567452559,53.0927578230336 -1.36463534322631,53.0930251271394 -1.36471557213565,53.0930534129569 -1.36481350978745,53.0930997660837 -1.36488894396332,53.0931442023722 -1.36493471763371,53.093179494178 -1.36500680587081,53.09325905058 -1.36480213211643,53.0935635075806 -1.36473826421775,53.0936450360099 -1.36475081078981,53.0937044146657 -1.36440933713755,53.0939758801265 -1.36418444381224,53.0942398775264 -1.36412201213459,53.0943240192732 -1.3640039908833,53.0945292750021 -1.36393816078953,53.0947437046377 -1.36392350698109,53.0948191144754 -1.36391653218774,53.094991710973 -1.36392862792098,53.0950816426009 -1.36397760149384,53.0953093554977 -1.36404259446428,53.0955614183804 -1.36405477002926,53.0956459577689 -1.36404115406937,53.0958598576142 -1.36404777680343,53.095920103672 -1.36446158767217,53.0961057258307 -1.36469887052248,53.0962220193133 -1.36487550089892,53.0962930559011 -1.36571067292199,53.0965707829745 -1.36597204450538,53.0966737207621 -1.36631421822062,53.0968670440828 -1.3663165535335,53.0969092941446 -1.36628876371217,53.0969738500711 -1.36622969624685,53.097030152253 -1.36613788457542,53.0970773838239 -1.36634140720106,53.0972546032746 -1.36649667657757,53.0973552692537 -1.36655447846122,53.0973852324735 -1.36691347358451,53.0975488970288 -1.36689173936706,53.0977043410558 -1.3672049339962,53.0978425990326 -1.36728521300403,53.0978681873734 -1.36736396878453,53.0978883758495 -1.36768579083047,53.0979422038934 -1.36777047614329,53.0979696130946 -1.36789232561181,53.0980152811516 -1.36813708137853,53.0981271133962 -1.36818010492143,53.0981489090428 -1.36846572589526,53.0983293462818 -1.36958735215305,53.0990391158488 -1.36904635586308,53.0992699971202 -1.36900088014735,53.0993146890433 -1.36896856405841,53.0993774245267 -1.36895158926571,53.0995193237925 -1.36890528652635,53.1000332940136 -1.36890899639848,53.1000827408289 -1.36893887130575,53.1001871432339 -1.3689970922184,53.1002899894846 -1.36920244139808,53.1007485856464 -1.36932725824691,53.1009964681376 -1.3699042093937,53.1017879162745 -1.36998834850966,53.1019546136252 -1.37029650588372,53.1024327135942 -1.37036137102908,53.1024941647719 -1.37041316225854,53.1025231956161 -1.37048897888995,53.102551454354 -1.37266857371902,53.1036532895871 -1.37280160049837,53.1037448441523 -1.37283708859977,53.1037773829578 -1.3728569724729,53.1038412920225 -1.37295837588166,53.1041600422824 -1.37312296663447,53.1046562506182 -1.37318630211788,53.1049253742595 -1.373188356012,53.1049873925891 -1.37318599152755,53.105048489672 -1.37317663634581,53.1050736030789 -1.37315205504167,53.1051211022679 -1.37310640772878,53.1051774781162 -1.37307161882497,53.1052069515103 -1.37294562763189,53.1052495145609 -1.3728017865854,53.1053763679563 -1.37273800702651,53.1054515202306 -1.37271499357933,53.1054927378297 -1.37270081326932,53.1055447862383 -1.37268879079391,53.1056517538522 -1.372688808167,53.1058539525999 -1.3727756902639,53.106460288192 -1.37281171301214,53.1066510847045 -1.37283033522506,53.1068103355708 -1.37283494129404,53.1069002257468 -1.37280421518238,53.1071670569285 -1.37302979524708,53.1073740374015 -1.37311110326944,53.1074319786535 -1.37319643731473,53.1075178902328 -1.3732533197572,53.107612548835 -1.37324216194422,53.1077617585654 -1.3736501798879,53.1078564640497 -1.37703223014424,53.1086678776066 -1.3771512445375,53.1086055928493 -1.37724432486599,53.1085737277268 -1.37736103071594,53.10844942323 -1.37736855694042,53.1084485636042 -1.37740719549071,53.1084595487658 -1.37755396465572,53.1085393973467 -1.37769850559388,53.1086713561696 -1.3777952934657,53.1086898350759 -1.37787317299465,53.1086785581138 -1.37792122987892,53.1086599368832 -1.37797860103313,53.1086188984167 -1.37802910631208,53.1085328898229 -1.37801845513583,53.1083404304255 -1.37802624584549,53.1083126126402 -1.3780415945625,53.1082902259912 -1.3780657838614,53.1082696832839 -1.37810041646712,53.1082509919719 -1.37812292130393,53.1082448186879 -1.37849434715059,53.1083842500781 -1.37849560591951,53.1083995337758 -1.37845506351307,53.1085207323558 -1.37845472705143,53.1085440953186 -1.37847454373253,53.1086133956238 -1.37849505382306,53.1086431587659 -1.37854966465458,53.1086910726021 -1.37870742069833,53.1087351199984 -1.37885873142386,53.1088078010544 -1.37894658124801,53.1088226367907 -1.37897356595831,53.108821879293 -1.37902739089171,53.1088131721715 -1.37907689883883,53.1087963558704 -1.37911467461337,53.1087731869322 -1.37914340191347,53.1087454780772 -1.37915263810773,53.1087284520847 -1.37911364001933,53.108631103734 -1.37908010644011,53.1085734144803 -1.37907171822644,53.1085401197751 -1.37907359626227,53.1085122711395 -1.37909055784053,53.108471919759 -1.37910888792549,53.108447751557 -1.37922883989718,53.1084142269475 -1.37928267191886,53.1084136082262 -1.37940863804875,53.1084843597332 -1.37945286468272,53.1085178400014 -1.37950689658026,53.1086061900737 -1.37962696493252,53.1085645780908 -1.37967211657107,53.1085423462638 -1.37948684128244,53.1080307619747 -1.37950115635717,53.107968828988 -1.37952998619911,53.1079339310131 -1.37957674363875,53.1079027210781 -1.37960834181443,53.1078894061616 -1.37981303689245,53.1078895719163 -1.37994911369595,53.1079765505965 -1.38008422498033,53.1080365646048 -1.38013937889187,53.1080467367061 -1.38017943051142,53.1080622220102 -1.38021943837151,53.1080893903296 -1.38024558914737,53.1081381433916 -1.38023413403761,53.1083097289333 -1.38061292302533,53.1082541821734 -1.38067267822369,53.1082526955665 -1.38073089170466,53.1082556937233 -1.3807785729903,53.1082631308641 -1.380861886006,53.108285131191 -1.38092295890696,53.1083034212332 -1.38101645778699,53.1083452451586 -1.38108641175075,53.1083626822916 -1.38122963508394,53.108372411984 -1.38125966566314,53.1083653791349 -1.38130626775499,53.1083449511561 -1.38133942660227,53.1083172647644 -1.38135933566705,53.1082859148541 -1.38136578232824,53.1082571909663 -1.38135132410815,53.1082175752002 -1.38118127093225,53.1081033715626 -1.38117267989467,53.1080754685734 -1.38117192417066,53.1080251395485 -1.38119499533807,53.1079794278564 -1.38122530106364,53.1079445371339 -1.38128707560271,53.1079053159706 -1.38130513370633,53.1079000179365 -1.38146947264695,53.1078972756137 -1.38158773653415,53.1078781180965 -1.38163724389756,53.1078613007317 -1.38167941205486,53.1078408496173 -1.38173673993814,53.1078025049855 -1.38197338543849,53.1077560124455 -1.38203335864327,53.1077392482541 -1.38213544963056,53.1077056281739 -1.38222867871688,53.1076629756042 -1.38234924336376,53.107586315491 -1.38239166808667,53.1075478924602 -1.38242480815758,53.1075300910864 -1.3824667359241,53.1075177269262 -1.38251768946947,53.1075117001223 -1.38254747958729,53.1075127523838 -1.38266612211665,53.1075789688283 -1.38271781206174,53.1076160821934 -1.38275794963749,53.107634262933 -1.38278910141696,53.1076434106574 -1.38280996099371,53.1076489103309 -1.38287414396819,53.1076564320333 -1.38298471510296,53.1076498145988 -1.38341211539339,53.1076394438325 -1.38342855908,53.1076350360498 -1.38349028678619,53.1076074967617 -1.38354168106241,53.1075619301364 -1.3835555152802,53.107533245218 -1.38356991548624,53.1074649307705 -1.38358048438042,53.1073544497863 -1.38360218941679,53.1073006429946 -1.38364328252898,53.1072433407259 -1.38366901145809,53.1072183111476 -1.38377248914804,53.1072943335311 -1.3838082578526,53.1073079985435 -1.38384991561768,53.1073145044146 -1.38391866121351,53.107313061733 -1.38404607942767,53.1072822667165 -1.38404064781104,53.1072400020405 -1.38393548494814,53.1070749134497 -1.38393284968935,53.1070524331454 -1.38394367627074,53.1070273265234 -1.3839633064523,53.1070067590745 -1.38402043884324,53.1069818916345 -1.38416263692219,53.1069682469083 -1.38441612891526,53.1068886762893 -1.38454037328094,53.1068731414982 -1.38463001452016,53.1068745030021 -1.38475675204929,53.106891332956 -1.38498103864946,53.1069769641674 -1.3850570520835,53.1069926334029 -1.38512557088096,53.1069983785218 -1.38517350212927,53.106996828775 -1.38519288855629,53.106993333972 -1.38525096746531,53.1069019697707 -1.38526016246458,53.1068876389703 -1.38548457898556,53.1067566026613 -1.38573351814223,53.106685093768 -1.38585497202812,53.106657861078 -1.38599171509718,53.1065947601297 -1.38604712433602,53.106586957911 -1.38607095254515,53.1065915734162 -1.38608879227184,53.1066015506956 -1.38610053233194,53.1066159902603 -1.38610179374962,53.1066312738868 -1.3860894898031,53.1066563730746 -1.386064737254,53.1068207010714 -1.38614122987926,53.1069065569895 -1.38619469476357,53.1069230083131 -1.38623358454695,53.1069250063677 -1.38627093855035,53.1069225019082 -1.38630839324977,53.1069128101983 -1.38634150574549,53.1068968045918 -1.38636417484904,53.1068789473859 -1.3863825308292,53.1068439049145 -1.38633933115989,53.1066253072443 -1.38633995719273,53.1065812760143 -1.38635249072464,53.1065399120414 -1.38639073336045,53.1064834931528 -1.38644966031639,53.1064361680973 -1.38661058753004,53.1063525220578 -1.3867141363394,53.1063198037597 -1.38679048118414,53.1063121088929 -1.38686651056419,53.1063178916467 -1.38692017405866,53.1063289519538 -1.3869572977693,53.106342622147 -1.38700027555959,53.1063689045992 -1.38704308900018,53.1064068685426 -1.38706643228917,53.1064456312901 -1.38707146206672,53.1065076645849 -1.38706790641677,53.1065498829146 -1.38702838517033,53.1066009936161 -1.38702194251459,53.1066297178096 -1.38702604530504,53.1066531036077 -1.38705247836135,53.1066909833226 -1.38708948755786,53.1067127422548 -1.38713554930809,53.1067300531159 -1.38715792452743,53.1067328639937 -1.38718630087068,53.1067294150792 -1.38721783213642,53.1067205906578 -1.38732343257397,53.1066474436046 -1.38737498758325,53.1065901939017 -1.3874293542765,53.1065517406371 -1.38749556212125,53.1065206276295 -1.38756149587258,53.1065002975086 -1.38761101844229,53.1064906664862 -1.38772010892708,53.1064840372403 -1.387919884018,53.1065093275797 -1.38800659590428,53.1065088738111 -1.38807088359636,53.1065002173099 -1.38813234425475,53.106482559773 -1.38816393884591,53.1064692417326 -1.38826189828991,53.106405040238 -1.38828463000294,53.1063826910955 -1.38831217344767,53.1063423927534 -1.38831870921832,53.1062983918458 -1.3883088262471,53.1062570025551 -1.38829716322709,53.1062370819995 -1.38817586039456,53.1061582760699 -1.38810743510279,53.1061372560523 -1.38807486042344,53.1061155201963 -1.3880572497499,53.1060893692434 -1.38805317343435,53.10606418578 -1.38806552703431,53.1060354918735 -1.38816806661621,53.1059695170274 -1.38822798562439,53.10595634433 -1.38827279908325,53.1059574732023 -1.38836819765367,53.1059696450196 -1.38845900896197,53.1059925775597 -1.3885673342868,53.1060398634737 -1.38860101870379,53.1060876654427 -1.38886762616289,53.106246298259 -1.38886295282767,53.1063676831776 -1.38887466831157,53.1063839192761 -1.38890572824664,53.1064083421026 -1.3889457688718,53.1064247233784 -1.38899195975415,53.1064330485888 -1.38903975506184,53.1064323946132 -1.38908619886748,53.1064227472021 -1.38913890731688,53.1063969558288 -1.38919961355053,53.1063280707909 -1.38924182759861,53.1063040225448 -1.38946726287466,53.1062044372015 -1.38950474316472,53.1061929467872 -1.38955713186065,53.10618962027 -1.38960788276185,53.1061889812017 -1.38967649796889,53.106196522037 -1.38972142607776,53.1061895624782 -1.38975453675014,53.1061735568221 -1.38977422585985,53.1061484950699 -1.38977609838069,53.1061206462644 -1.38976892545743,53.106105331527 -1.38952745113301,53.1058586715776 -1.38952177283712,53.105833479966 -1.38952801036341,53.1058191328011 -1.38954308998834,53.1058066287499 -1.38958960925674,53.1057915898181 -1.38984783611313,53.1058027970994 -1.39014295286309,53.105852834353 -1.39019512974146,53.1058557980063 -1.39025044993468,53.1058542831199 -1.39032520489779,53.1058456789448 -1.39036425892312,53.1058359932491 -1.39042449435007,53.1058003552939 -1.39044460169441,53.1057456393453 -1.3904438098164,53.1056971071712 -1.39043265082013,53.1056413333366 -1.39042107431476,53.1056151237007 -1.3903004054994,53.1054913898322 -1.39029921879785,53.1054707140256 -1.39032177573141,53.1054519574841 -1.39035623436465,53.1054449450481 -1.39051597858575,53.1054529504827 -1.39062072184201,53.1054400066387 -1.39075574430623,53.105402054014 -1.39084581845389,53.1053638715768 -1.39093456288811,53.1053237954486 -1.39100404061358,53.1052702305436 -1.39106707691476,53.1052453900048 -1.39113896359283,53.1052304800423 -1.39119886373456,53.1052271911728 -1.39122568407268,53.1052291259701 -1.3915498275831,53.1053342166203 -1.39177076740388,53.1052381987992 -1.39187841494664,53.1052288625476 -1.39199780411796,53.1052339642836 -1.39211253254033,53.1052552190724 -1.39221547529529,53.1053699641137 -1.39228852010898,53.1053865116216 -1.39231833436501,53.1053857655766 -1.39245322870145,53.1053567968718 -1.39251622912187,53.1053345613523 -1.39258095430349,53.1053034379917 -1.39260806560453,53.1052847042283 -1.39258431569276,53.1051695549209 -1.39259281726771,53.1050905158836 -1.39270329366572,53.1048887905883 -1.39272271647514,53.1048825988968 -1.39289493553487,53.1048529209068 -1.39295767946922,53.1048487476187 -1.39302489183716,53.1048508867806 -1.39308154879638,53.1048592636986 -1.39310988167331,53.1048674955049 -1.39322054460576,53.1049588234952 -1.39327840250527,53.1049869763429 -1.39339133529318,53.1050307764217 -1.39348944917029,53.1050600329107 -1.39362796671173,53.1050885959112 -1.3938773735765,53.105096154837 -1.39395069835211,53.1050839463517 -1.39399576340012,53.1050671013811 -1.39404863127856,53.1050296263269 -1.39405366984932,53.1048812827747 -1.394075057912,53.104849039413 -1.39411570602643,53.1048222865442 -1.39415773928587,53.1048108178176 -1.39420855158251,53.1048056834182 -1.39427424747306,53.1048105109236 -1.39430999446015,53.1048169831756 -1.39438279058633,53.104842515522 -1.39442897936411,53.1048508377192 -1.39447821366624,53.1048528856362 -1.39452913583945,53.1048486505762 -1.39490671701032,53.104761600788 -1.39502483318379,53.1048574577011 -1.39531631845138,53.1050612254519 -1.39544386674031,53.1051256775285 -1.39556135107053,53.1051613202545 -1.39587720631873,53.1052168410325 -1.39597855150618,53.1052353275098 -1.39624007697649,53.1053274177895 -1.3963130870547,53.1053466593957 -1.39640546520038,53.1053633921551 -1.39648896930653,53.1053719033631 -1.39662334894935,53.1053707857096 -1.39672067631367,53.105359595915 -1.39690669391237,53.1053029326148 -1.39729051971076,53.1053066714955 -1.39737695461294,53.1053169938335 -1.39746182309043,53.1053335988181 -1.39756006166393,53.1053629415502 -1.39772045655167,53.1054302529857 -1.3978468457784,53.1054722299467 -1.39827408183903,53.1055777329204 -1.39898653325794,53.1057908041005 -1.39956125347397,53.105927600907 -1.3999555041271,53.1060411091013 -1.40012028986263,53.1061120341227 -1.40018095683095,53.1061509820138 -1.40024484260871,53.1061800606723 -1.40030577349575,53.1062001370581 -1.40042203574841,53.1062177967346 -1.40052508710891,53.106220111874 -1.40111491147814,53.1064496284287 -1.40129011818773,53.1065241989176 -1.40179157214576,53.1067766329618 -1.40261001516122,53.1072094868313 -1.40271686595888,53.107266637748 -1.4027540315199,53.1072776981277 -1.40289549331615,53.107308062848 -1.40304322586541,53.1073213838752 -1.40314325120911,53.107320086828 -1.40327792067994,53.1073072807776 -1.40340818347152,53.1072836691223 -1.40357923772737,53.1072314142637 -1.40395208857897,53.1070589394278 -1.40416611555193,53.1065970196428 -1.40423448743142,53.1066135373298 -1.4042758487894,53.1065436483052 -1.40430085572276,53.1064628941488 -1.40429967619625,53.1064413205525 -1.40432953643018,53.1061160646799 -1.40433398030902,53.1060081584722 -1.40433180728242,53.105951532054 -1.40427755033302,53.1055548621102 -1.40426911734172,53.1054074398941 -1.40436735148245,53.1036972427596 -1.40438023620724,53.1035220686895 -1.40439528086469,53.1031903581256 -1.40440585409811,53.1028614118446 -1.4044131540976,53.1027607983825 -1.40437352017697,53.1027147690596 -1.40434112438658,53.1026795593013 -1.40427392599931,53.1024625566048 -1.40406623360799,53.1020390579279 -1.40402339770654,53.1018949684642 -1.40398203937796,53.101750976259 -1.40396490476571,53.1016897812848 -1.40394116499715,53.1015718486764 -1.40392452672387,53.1014836967472 -1.40391580872742,53.1013569417665 -1.40393849295739,53.1011143277571 -1.40398567229242,53.1008367874402 -1.404019490119,53.1005546874968 -1.40402117951508,53.1005394188431 -1.40401649746901,53.1003344107967 -1.4040706913828,53.1003068234699 -1.40420348976752,53.1003119801633 -1.40497747288802,53.0999697742408 -1.40550808054784,53.0997198089391 -1.40562837169117,53.0996584017226 -1.40618840364859,53.0993366876207 -1.40628815698169,53.099246420224 -1.40631602508891,53.099180957119 -1.40629506259955,53.0990756193995 -1.40599783662894,53.0983127958607 -1.40582438825197,53.0978975600502 -1.40575501858843,53.0977308725856 -1.40547600666099,53.0971667410867 -1.40528328094788,53.0968466662697 -1.40516851016245,53.0966151377832 -1.40511640295859,53.0964916714121 -1.40501102299031,53.0963383737184 -1.404422202813,53.0957232663402 -1.40439718690582,53.0956979788638 -1.40422881061652,53.0956665830726 -1.4041840954418,53.0956590800997 -1.40419830657605,53.0953877558468 -1.40447147529253,53.094962977571 -1.40511854907836,53.0938426166136 -1.40526565511061,53.0935763593265 -1.40550354994214,53.093217094518 -1.40557485152482,53.0931355823268 -1.40554779209712,53.092927857044 -1.40566585404994,53.0928124291302 -1.40575834118162,53.0927122405381 -1.40586037155549,53.0925716599162 -1.4059344408834,53.0925036414577 -1.40601680887741,53.0923782397572 -1.4060975266461,53.0922654110061 -1.40612897655176,53.0921450572469 -1.40614606767179,53.0918781508051 -1.40614066631679,53.0916264992066 -1.406133132503,53.0914133896986 -1.40613199659563,53.0912812810717 -1.40609535210307,53.0912243929895 -1.40608392279338,53.0910796518193 -1.40604810603717,53.0909716347784 -1.40601991049153,53.0908464900045 -1.40599740967564,53.0906386984551 -1.40601386276626,53.0905255493428 -1.40611842370246,53.0902006653879 -1.40612527316582,53.0901413881055 -1.40617135606469,53.0900400698459 -1.40618665911031,53.0900194764162 -1.40639680891219,53.0898317150012 -1.40662980585531,53.0896027284929 -1.40684538363161,53.0893511890819 -1.40684795920608,53.089271220781</coordinates></LinearRing></outerBoundaryIs></Polygon>
  </Placemark>
