  <Placemark>
	<Style><LineStyle><color>ff0000ff</color></LineStyle><PolyStyle><fill>0</fill></PolyStyle></Style>
	<ExtendedData><SchemaData schemaUrl="#Wards__December_2019__Boundaries_EW_BFE">
		<SimpleData name="objectid">3150</SimpleData>
		<SimpleData name="wd19cd">E05008505</SimpleData>
		<SimpleData name="wd19nm">Ryde North West</SimpleData>
		<SimpleData name="wd19nmw"></SimpleData>
		<SimpleData name="bng_e">458522</SimpleData>
		<SimpleData name="bng_n">92554</SimpleData>
		<SimpleData name="long">-1.17217</SimpleData>
		<SimpleData name="lat">50.729649</SimpleData>
		<SimpleData name="st_areashape">1436632.70472652</SimpleData>
		<SimpleData name="st_lengthshape">5973.85676646722</SimpleData>
	</SchemaData></ExtendedData>
      <Polygon><outerBoundaryIs><LinearRing><coordinates>-1.16103112146497,50.7371779770429 -1.16113207201918,50.7371495174438 -1.1613076306765,50.7370965313945 -1.16145442043637,50.7370482848779 -1.16167949471032,50.7369818132218 -1.16187559410427,50.7369252594988 -1.16210469605703,50.7368601468475 -1.16231150974565,50.7367908092411 -1.16251393384214,50.7367291737672 -1.16265012311684,50.7366911197639 -1.16283306962571,50.7366337238082 -1.16296991270247,50.7365788482857 -1.1630733511973,50.7365327237528 -1.16327314636573,50.7364436333159 -1.1634116828881,50.7363978432852 -1.16369845581278,50.7363193718991 -1.16392902565671,50.7362805345773 -1.16417295102219,50.7362691938208 -1.16435367816752,50.7362542623422 -1.16452685928409,50.7362468667201 -1.16469801325575,50.736224375165 -1.16485057105313,50.7361877125194 -1.16496860681756,50.7361446699288 -1.1650520055236,50.7360929534716 -1.16512323982811,50.7360399270518 -1.16524350860857,50.7359844448753 -1.16538131850898,50.7359458596597 -1.16554925975493,50.7359166711402 -1.16568568998102,50.7358910975239 -1.16591395271194,50.7358191996645 -1.16602644929722,50.7357807298697 -1.16614579192975,50.7357413825151 -1.16625580146099,50.7357000979497 -1.16636065064072,50.7356565192539 -1.16651330112824,50.7355977054189 -1.16667093896229,50.7355445115577 -1.1666922505806,50.7355371309438 -1.16677902271244,50.7355070797432 -1.16692247655984,50.7354633439781 -1.16721847186073,50.7353604417689 -1.16734226185997,50.7352867717426 -1.16744051639575,50.735209817186 -1.16757847598507,50.7351441885865 -1.16771612532299,50.7350856440683 -1.16786686653695,50.7350344049172 -1.16797853136141,50.7350074832637 -1.16804864462481,50.7349510657041 -1.16812806500119,50.7348852089975 -1.16822492785736,50.734823299838 -1.16843315027389,50.7347642080753 -1.16858476834547,50.7347374648042 -1.16869540972225,50.7347320393572 -1.16886649705893,50.7347525576208 -1.16900724016262,50.7347301428523 -1.16914477156018,50.7346794221635 -1.16924312297158,50.7346285841059 -1.16927467019203,50.7345579442649 -1.16938631858724,50.7345140084715 -1.16949843129299,50.7345246991391 -1.16964580335798,50.7345208113441 -1.16983655897754,50.734515703375 -1.16995328046552,50.7344901577881 -1.17005442490649,50.7344559938919 -1.1701650464038,50.7344380217241 -1.17023671343879,50.7343815522136 -1.17036988183537,50.7343827154164 -1.17047342184855,50.7344142168334 -1.17056064443032,50.734458956663 -1.17066472961326,50.7345125485058 -1.170782337791,50.7345474680889 -1.17095101815908,50.7345767073411 -1.17116120339061,50.7345658898927 -1.17131030802063,50.734527281481 -1.17139778649001,50.7344636842682 -1.17142863150879,50.7343804576976 -1.17142345070749,50.7342870379533 -1.17141721230269,50.7342085749858 -1.17153099490077,50.7341599759575 -1.17163907248899,50.7341608155865 -1.17177624568253,50.7341943713056 -1.17185390713915,50.7342501755604 -1.17200460885557,50.7342550855596 -1.17217781871253,50.7342436260612 -1.17230183881112,50.7342412238591 -1.17252235184816,50.7342802712936 -1.17275596815483,50.7343171809985 -1.17290912112792,50.7343406147349 -1.17303551446759,50.7343265826946 -1.17314803626938,50.7342778832197 -1.17323214921849,50.7342362395719 -1.17315383946763,50.7341729045282 -1.17305392596179,50.7341220963315 -1.17308441501121,50.7340572843854 -1.17322514336846,50.7340724729951 -1.17335317785897,50.7341148561157 -1.17345995147512,50.734116512167 -1.17353847924707,50.7340620766915 -1.1736462795304,50.7340698011053 -1.17362673975763,50.7341389354597 -1.17374637948166,50.7341655839294 -1.17387109156499,50.7341826187559 -1.17401024977525,50.7341751420188 -1.1741187911266,50.73419311423 -1.17418239664417,50.7342562545785 -1.17428706561099,50.7342978147364 -1.17436622327369,50.7343428543384 -1.17446089894022,50.7344063583695 -1.17456709147185,50.7344265887564 -1.17466322071335,50.7343977991307 -1.17477343529762,50.7343819060783 -1.17487612440452,50.7344047463328 -1.17501134169567,50.7344102803168 -1.17512252640724,50.7343835302965 -1.17522854127408,50.7343921129363 -1.17526859554785,50.7344795290119 -1.17530075256164,50.7345454230256 -1.17539352229893,50.734596520516 -1.1755304657671,50.7346054654425 -1.17566128910485,50.7346393314168 -1.17576152731942,50.7346799416485 -1.17584751915154,50.7347506944572 -1.17592049032761,50.7348092326855 -1.17601873599972,50.7348535966671 -1.17612387459209,50.734897631554 -1.1762540388508,50.7349360156658 -1.17640558019835,50.7349707465701 -1.1765148272704,50.7349922647588 -1.1766842715521,50.7350170226111 -1.1768077585375,50.7350572295026 -1.17691537476244,50.7350909572407 -1.17703592865367,50.7351594530361 -1.17713625924708,50.7351989655923 -1.17725718673383,50.7352203226846 -1.1774043035833,50.7352432043239 -1.17751701243795,50.7352661668768 -1.1776736782438,50.7352997002333 -1.17781281688927,50.7353395937456 -1.17794006479344,50.7353755363055 -1.17810724928112,50.7353878478856 -1.17822141734901,50.7353987334991 -1.17833359045831,50.7354118711723 -1.17847212588506,50.7354263725151 -1.17865043270465,50.7354460909255 -1.17877071567706,50.7354606252426 -1.17889886342628,50.7354800260413 -1.17903638170985,50.7354927479388 -1.17915308393045,50.7354689646236 -1.17927367475345,50.7354667197214 -1.17933497726693,50.7354019341387 -1.17945325110323,50.7354065703489 -1.17957493392638,50.7354188564516 -1.17963834626684,50.7353500836826 -1.17969178321873,50.7352804403426 -1.17980819843857,50.7352219505106 -1.17990986586816,50.735166459433 -1.18000710608562,50.7351218366099 -1.18014287932088,50.735093267236 -1.18027168156452,50.7351043796164 -1.18039512618863,50.7351325947903 -1.18049901110809,50.735178901131 -1.18057940918306,50.7352328572483 -1.18066758869798,50.7352818588959 -1.18076245459453,50.7353301880072 -1.1808446281028,50.735386377673 -1.18096265112224,50.7353940232325 -1.18108451354007,50.7353879184134 -1.18118964213136,50.7353589617768 -1.18126730581698,50.735305738084 -1.18138781328965,50.7352928067707 -1.18150200419416,50.7353024123313 -1.18161860118741,50.7353162523628 -1.18172658576355,50.7352982057594 -1.18182229925195,50.7352654773937 -1.18195669334432,50.7352411948691 -1.18207583801897,50.7352340717323 -1.18219655814027,50.7352333085522 -1.18225924372295,50.7351751049836 -1.18235171028389,50.7351269934369 -1.18245959572117,50.7351267964895 -1.18253815699474,50.7351360703363 -1.18265327793689,50.7332431485648 -1.18264633275345,50.7331522070673 -1.18265494677494,50.7330668585214 -1.18270993549365,50.7328343026172 -1.18269146135765,50.7327613516952 -1.18269194667049,50.7327334840883 -1.18270264289792,50.7326895060887 -1.18276677121152,50.7325828797799 -1.18277592520594,50.732546982839 -1.18279670628655,50.7323331569408 -1.1828239029322,50.7321534494442 -1.18286751991973,50.7320908222421 -1.18295387054585,50.7320096145592 -1.18297720530334,50.7319711199487 -1.18297795802673,50.7319278807277 -1.18295393206766,50.7318450013749 -1.18295700195804,50.7318297393284 -1.18301076648456,50.7317545965943 -1.18301973235667,50.7317294862776 -1.1830212361293,50.7316430986482 -1.18305291659531,50.7314473304608 -1.18302599304712,50.7313698239045 -1.18302797320691,50.7313365736756 -1.18303985390774,50.7313051005624 -1.18309483256235,50.7312407542535 -1.18310072040198,50.7312246135412 -1.18309533322851,50.7312119892461 -1.18300024381088,50.7311376015021 -1.18298505163599,50.7311177159389 -1.1829854584822,50.7310943442584 -1.18301165916692,50.7310522725216 -1.1830715723465,50.7310266206705 -1.18308462609944,50.7310149340091 -1.18307814261602,50.7309780282058 -1.18306841581934,50.7309662728099 -1.18296012490875,50.7309187642816 -1.18293640666449,50.7308988189831 -1.18293382195337,50.730886214313 -1.18293963156624,50.7308745677469 -1.18297124438605,50.7308505144793 -1.18303713003952,50.7308105193257 -1.1830458297154,50.7308006906931 -1.18304614264964,50.7307827123376 -1.18303512424349,50.7307646546099 -1.18301277592691,50.7307465175168 -1.18293679527974,50.7307154172454 -1.18292285853451,50.7306972491327 -1.18291631924948,50.730670232499 -1.18292267657772,50.7306271224629 -1.18299837399397,50.7305134752794 -1.18298776252003,50.7304720449649 -1.18290878393375,50.7303716085429 -1.18291824231464,50.7303114389784 -1.18291106873881,50.7302403640255 -1.18291846864315,50.7302179406304 -1.18298381291543,50.7301284938481 -1.18298551138141,50.7301114244938 -1.18297487028184,50.7300717017336 -1.18309242784537,50.7299088998443 -1.18309191846927,50.7298576516184 -1.1831143984564,50.7297876836641 -1.18315781101407,50.7297366522279 -1.18319076009553,50.7297162054419 -1.18324923761224,50.7296923411299 -1.18358423105558,50.7293331824857 -1.18353759168841,50.7292474470313 -1.18361669138616,50.729179673907 -1.18354802616706,50.7290505406629 -1.18351419595609,50.728960399274 -1.18349571532892,50.7288811542042 -1.18348729644507,50.7288009912425 -1.18348884454471,50.7287119968088 -1.1834971977936,50.7286347381841 -1.18352646489448,50.7285035934707 -1.18339505482708,50.7284019809317 -1.18336883868167,50.7283577443873 -1.18329385371838,50.7281890084302 -1.18328080000221,50.7281268834763 -1.18330526517089,50.727942751842 -1.18329039565538,50.7278976954309 -1.1832321774687,50.7278261739943 -1.18320912151012,50.7276003526779 -1.1824577542815,50.7277065698314 -1.18168656530767,50.7278171377503 -1.1807607093965,50.7279338967799 -1.18024224072352,50.7280084702683 -1.17933842757601,50.7281603456801 -1.17883280204673,50.7282350931814 -1.17838624731956,50.7283254482484 -1.17814293345313,50.728383969814 -1.17790247725585,50.7284461064025 -1.17691266286429,50.7287314032711 -1.1768089244818,50.7287513495705 -1.17666547141863,50.7287710145297 -1.1764967104303,50.7287816002798 -1.17634230486756,50.7287796115714 -1.17619940530465,50.7287677235292 -1.17605803300609,50.728748744352 -1.17592100766272,50.7287217038422 -1.17575738440691,50.7286791916523 -1.1739726105864,50.7280127831896 -1.17380957701879,50.7279370083473 -1.17370012299706,50.7278768964349 -1.17361885712108,50.7278214797314 -1.17353663907113,50.7277470855511 -1.17339750302034,50.7276013540759 -1.17312796500522,50.7272981753481 -1.17274634880391,50.7267594620427 -1.17232220710365,50.726148521694 -1.17219671431001,50.7259516400257 -1.17214577715531,50.7258657804956 -1.17199979020967,50.7255526870876 -1.17185828268808,50.7253035469246 -1.17182226411846,50.7252528548848 -1.17138278398965,50.7253469198304 -1.17047464723262,50.7255067872103 -1.17030145408593,50.7255307284823 -1.16994366523803,50.7255695388133 -1.16992242348729,50.7255684883405 -1.16981502330105,50.7251549744045 -1.16922055850182,50.7252010879471 -1.16919502214762,50.7255219531519 -1.16657116420722,50.7254376296107 -1.1664992216213,50.7257392846256 -1.16519521960823,50.7256113076651 -1.16475392002879,50.7264426443455 -1.16435994264848,50.7263670075307 -1.16395358709171,50.7262715008163 -1.16374776849701,50.726217884851 -1.16355601805883,50.7261615813492 -1.16330107143669,50.7260788436693 -1.16303906397119,50.7259924585889 -1.1629241022201,50.7261633518877 -1.16276260444575,50.7264806357994 -1.16273369818876,50.726588313007 -1.16272702420141,50.7267267174439 -1.16274617118461,50.7269238348657 -1.16277999953466,50.7270903994667 -1.16294496143736,50.7276141020578 -1.16323063426852,50.7285163560667 -1.1628789487298,50.7285381123206 -1.1628310102617,50.7285206878169 -1.16277754454038,50.7284987272273 -1.16272830512188,50.728482192662 -1.16266475056454,50.7284691509424 -1.16258276005481,50.7284613711236 -1.16241424419922,50.7284511737083 -1.16194231431421,50.7284549834827 -1.16156841743219,50.7284514043393 -1.16155215363618,50.7284854511071 -1.16141861258434,50.7289044345595 -1.16133340756174,50.7291484519982 -1.16126927044624,50.7293314862901 -1.16117041552999,50.7296266512201 -1.16111596514239,50.7298231499459 -1.16079337885008,50.7303469533471 -1.16018697308359,50.7313749659168 -1.15996652819876,50.7317393808002 -1.15984521998648,50.7319435803135 -1.1597225255436,50.732146870438 -1.15961030829273,50.732319578712 -1.15953110073699,50.7324692386797 -1.15983304967847,50.7325451304971 -1.15997709076447,50.7325722369846 -1.16015730495575,50.7326346667129 -1.1602215901056,50.7326854746884 -1.16024235304522,50.732713493921 -1.16017581415359,50.732788625262 -1.16012526814438,50.7328449016848 -1.16013815124103,50.7329933359091 -1.16017187991766,50.7331716775876 -1.16017581176672,50.7331869893758 -1.16035231286269,50.7339337405817 -1.16103112146497,50.7371779770429</coordinates></LinearRing></outerBoundaryIs></Polygon>
  </Placemark>
