  <Placemark>
	<Style><LineStyle><color>ff0000ff</color></LineStyle><PolyStyle><fill>0</fill></PolyStyle></Style>
	<ExtendedData><SchemaData schemaUrl="#Wards__December_2019__Boundaries_EW_BFE">
		<SimpleData name="objectid">3991</SimpleData>
		<SimpleData name="wd19cd">E05009510</SimpleData>
		<SimpleData name="wd19nm">Staithe</SimpleData>
		<SimpleData name="wd19nmw"></SimpleData>
		<SimpleData name="bng_e">547365</SimpleData>
		<SimpleData name="bng_n">309759</SimpleData>
		<SimpleData name="long">0.177711</SimpleData>
		<SimpleData name="lat">52.665531</SimpleData>
		<SimpleData name="st_areashape">991532.29579463</SimpleData>
		<SimpleData name="st_lengthshape">5854.20458217897</SimpleData>
	</SchemaData></ExtendedData>
      <Polygon><outerBoundaryIs><LinearRing><coordinates>0.18384177886579,52.6556620737875 0.18381770725268,52.6559790198739 0.183681181625574,52.6560282793687 0.18365373273091,52.656071932141 0.183629461156185,52.6561182229307 0.18355741034205,52.6563947044 0.183542523826723,52.6564507102676 0.183456930860066,52.6568983215159 0.183388631492214,52.6571620583061 0.183357307820548,52.6573335166519 0.183328950733585,52.6575058185851 0.183308856788003,52.6578146014717 0.183252239031223,52.6579262094421 0.183105232948705,52.6580907192621 0.1830547676338,52.6582058994326 0.183063268604138,52.6590887319774 0.183142319302812,52.6591924464439 0.183341425522903,52.6593884242644 0.184094352644263,52.6600183413781 0.184137977577824,52.6600912466034 0.184115493981913,52.6602345864567 0.184073443650759,52.6603693870764 0.184031388640447,52.6605040987472 0.183952679191239,52.6606764295775 0.183911593849761,52.6608893274745 0.183911657698519,52.6609811032135 0.183912553231294,52.66123637435 0.18388830586676,52.6616379097643 0.183818618008005,52.661812681764 0.183665083833844,52.6620861697169 0.183636950369237,52.6623510545037 0.183654589164497,52.662704985406 0.183580857319846,52.6629185745954 0.183590467366262,52.6630208716678 0.183936295562888,52.6630459603303 0.183989698028639,52.6632293400696 0.18402118741399,52.6635920053869 0.183653987569476,52.6636446157291 0.183632419010421,52.663862636846 0.183815478378712,52.6641838553506 0.183997990656165,52.6645527263372 0.184093699702263,52.6648386995811 0.184180395608144,52.665274056511 0.184208901359864,52.6660243812448 0.184354176322708,52.666653809291 0.184411426110532,52.6669998183075 0.184396750119121,52.6672410840091 0.184407922451792,52.6675825488657 0.184405221741786,52.6676482180752 0.184283574008464,52.6684416698409 0.184344992058203,52.6687831975931 0.184574023152741,52.6694901838749 0.18457959954266,52.6697193898029 0.184544849791211,52.6700031831672 0.184574793711304,52.6701878939047 0.184520933628862,52.6703525751427 0.184537158447524,52.6706192485419 0.184526352257754,52.6709062861274 0.184426616420997,52.6711023761007 0.184377802148201,52.6714269687723 0.184400895568982,52.6716234920958 0.184429622077569,52.6721408170752 0.18380218323646,52.672165863517 0.183607007438431,52.6721649659321 0.182942021345915,52.6721781159726 0.182746634757628,52.6721754225435 0.182454008140631,52.6721817101247 0.181659610670787,52.6721504935802 0.181078735157251,52.6720991603255 0.180126628344439,52.6719008508941 0.180628707237619,52.6714375824658 0.180920673946294,52.6710923374833 0.180957068277405,52.6710223628033 0.180965188615979,52.670977268259 0.180961178370763,52.6709261055403 0.180946899931472,52.6708769282704 0.180913013219926,52.6708209221558 0.180887722157791,52.6707881277924 0.180655345101739,52.6705469143558 0.180262585495277,52.6702637065008 0.179681626787728,52.6698841801323 0.178400590740727,52.6691667701945 0.177220650407565,52.668549154059 0.176743267924769,52.6682873538634 0.176268766312584,52.6680245106661 0.175771070683855,52.667741416159 0.175657080111856,52.6676805857403 0.175605755808053,52.6676293022171 0.175578918468411,52.6675947376757 0.175542464665934,52.6675163036413 0.175531018119856,52.6674356131884 0.17553896650607,52.6673869264284 0.175558370336628,52.667330748949 0.17560640182969,52.6672543599066 0.175693906928695,52.6670225457857 0.17573160781965,52.6668879183246 0.175737834547157,52.6668635340349 0.175711123571215,52.6666841546995 0.175704595671043,52.6666411276777 0.175582129922162,52.6664095719495 0.175556979245334,52.666379471314 0.175516863510508,52.6663451504762 0.175451083585344,52.6663023118175 0.17537086275148,52.6662633338838 0.175279281228218,52.666236249813 0.175186684360494,52.6662181731572 0.175013130404454,52.6661782112146 0.174395315500787,52.6660663076701 0.173156922866452,52.6658481154782 0.172357163619725,52.6657062782833 0.17217691983596,52.6656493553776 0.172550018016343,52.6655084919139 0.173131105281554,52.6652686205286 0.173710174627209,52.6650152096084 0.174223487885572,52.6647809797511 0.174881429417636,52.66444881129 0.175516317217282,52.664131445133 0.175919993853908,52.6639217825935 0.176229798210557,52.6637272360925 0.176474303659073,52.6635879118229 0.176616894382848,52.663480931053 0.176787004892586,52.6633339834487 0.177019832411536,52.6631093870762 0.17718872402499,52.6629354946815 0.177328900949678,52.6627800164414 0.177403459308102,52.6626438120613 0.17749706103959,52.6624442449347 0.17753332015418,52.6622807884325 0.177546341519941,52.6620962753193 0.177543195574817,52.6620648716572 0.177519201703605,52.6618494863163 0.177499105547036,52.6617419882983 0.177457282187118,52.6616437874892 0.177393514645874,52.6615505746025 0.177270100086626,52.6614494685594 0.177057407183649,52.6613355304059 0.176792891747426,52.6612190369582 0.176567071317682,52.6611377895679 0.176303546393047,52.6610436595333 0.175852780300207,52.660930584697 0.175598375803074,52.6608678370448 0.175425993373419,52.6608215620106 0.175390535438748,52.6607925487782 0.175382302996928,52.6607765204719 0.175351450546448,52.6607788841543 0.175308571391418,52.660779671151 0.175204750781874,52.6607734868891 0.17506671626549,52.6607633456268 0.174988077348856,52.6607584964602 0.174744675084453,52.6607404902753 0.174315274075002,52.6607285925007 0.173798876594721,52.6607227836738 0.173337842856032,52.6607294402383 0.173113885449711,52.660747030468 0.172955689797554,52.6607777966204 0.172773651227861,52.6608342587273 0.172584922293996,52.6609033378517 0.172461111717038,52.6609415636312 0.172311896600029,52.6609739626161 0.172135914229895,52.6610050536621 0.17196951629341,52.6610179910977 0.171836138177,52.6610132437866 0.171742715730651,52.661007764205 0.171561094038642,52.6609841254457 0.17138171640367,52.660944264101 0.171166440429016,52.6608664090184 0.170793203596115,52.6607059605141 0.170762758113265,52.6606894386837 0.171137909362065,52.6604406736836 0.171194147513195,52.6604117777561 0.171389392772126,52.6604126957867 0.171393886968337,52.6603532862905 0.171507760649643,52.6603556939758 0.171679463489289,52.66035884027 0.171673210726645,52.6604713168749 0.171693964146401,52.6604718357639 0.171852656998436,52.6604806133263 0.172012722057405,52.6604875681181 0.172163896087661,52.660494685641 0.172175666430126,52.6604935707687 0.172175396060908,52.660338066814 0.17217710985364,52.659986476458 0.172190431699669,52.6599871305599 0.172189942034291,52.6599772524218 0.172189140695468,52.6599610868075 0.172191827913949,52.6596562211848 0.172190099685032,52.6596508597247 0.172156202938842,52.6596532783728 0.172067969528018,52.6596638842654 0.171965086723516,52.6596765568619 0.171859323111245,52.6596901804147 0.171779981940027,52.6597006231441 0.171709444126605,52.6597091071015 0.171624089717025,52.6597187607534 0.171623822690904,52.6597133725124 0.171627788548696,52.6596728495465 0.171649677729984,52.6594871856089 0.171666360640041,52.6594671039051 0.171678377913021,52.6593823873837 0.171662480935803,52.6593593069201 0.171571058718858,52.6593645777405 0.171556127352186,52.6593019284236 0.171550540903768,52.6592777607775 0.171537395781695,52.6592806981901 0.171531550245315,52.6592537488076 0.171480036294354,52.6592573891996 0.171465809683384,52.6591794458136 0.171465676182648,52.6591767516926 0.171459568112547,52.6591445029989 0.171550481961871,52.6590969938607 0.17154127964193,52.6590908701771 0.171566015189132,52.6590832255235 0.171736429962648,52.6590899910274 0.171815021059256,52.6590939440552 0.171825297821499,52.659094654895 0.171831831068813,52.6590468934259 0.171848254175174,52.6589305447796 0.171986144283684,52.6589379059203 0.171992112822172,52.6589377965417 0.172000926918209,52.6589385332715 0.172012787377493,52.658939215072 0.172052874664114,52.6589411769902 0.172140284112772,52.6589459572627 0.172141867843916,52.6589459282374 0.172174402870909,52.6589480285258 0.172335968004354,52.6589558545105 0.172512484472441,52.6589652036256 0.17252463729796,52.658912755209 0.172534314567833,52.6588694300431 0.17253925906521,52.6588486651243 0.172547532162086,52.6588089614191 0.172548893293494,52.6588044424892 0.17255017777362,52.6588008232209 0.17257523940165,52.6586817094787 0.172577794460475,52.6586717746328 0.172587473200925,52.6586284503522 0.172600463634134,52.6585634011182 0.172607975559705,52.6585353976974 0.172923532823746,52.6585188264799 0.173175673488897,52.6585043154965 0.173240673493651,52.6585022244857 0.173373420504739,52.6584943971603 0.173606315491749,52.6584802381757 0.17369185766127,52.6584768710242 0.173780400105092,52.6584725505263 0.173812877829493,52.658471056589 0.173981025952698,52.6584616801152 0.174013382473887,52.6584601874469 0.174104803939282,52.6584549147401 0.174215426150422,52.6584483905755 0.174216887241984,52.6584483637721 0.174237550623983,52.6584470864489 0.174236490526894,52.6584551955985 0.174435576977759,52.6584452509118 0.174659834058509,52.658433945792 0.1749060050944,52.658419540647 0.175040212547158,52.6584116837483 0.174960481794151,52.6582962908519 0.174903258310119,52.6581848880485 0.174875963940974,52.6580820156842 0.174870169906286,52.6579652650368 0.174872025244985,52.6578527789823 0.174880077619778,52.6577177965236 0.174928853910405,52.6575091658936 0.17500073415814,52.6573189881167 0.175088247255627,52.6571465919224 0.17516866990397,52.6569787298506 0.17532001149405,52.6567512270234 0.175461975125247,52.6565435831408 0.175471525446036,52.6565272275256 0.175653795547829,52.6563260340789 0.175829875883874,52.6561205490023 0.176041962452871,52.6559233023954 0.176278783416009,52.6556914422507 0.17775674052083,52.6556184501286 0.180016851933646,52.6555768983533 0.1837639069822,52.6555231908532 0.18384177886579,52.6556620737875</coordinates></LinearRing></outerBoundaryIs></Polygon>
  </Placemark>
