  <Placemark>
	<Style><LineStyle><color>ff0000ff</color></LineStyle><PolyStyle><fill>0</fill></PolyStyle></Style>
	<ExtendedData><SchemaData schemaUrl="#Wards__December_2019__Boundaries_EW_BFE">
		<SimpleData name="objectid">5415</SimpleData>
		<SimpleData name="wd19cd">E05011144</SimpleData>
		<SimpleData name="wd19nm">Harborne</SimpleData>
		<SimpleData name="wd19nmw"></SimpleData>
		<SimpleData name="bng_e">402791</SimpleData>
		<SimpleData name="bng_n">284633</SimpleData>
		<SimpleData name="long">-1.96034</SimpleData>
		<SimpleData name="lat">52.459648</SimpleData>
		<SimpleData name="st_areashape">5132207.81421978</SimpleData>
		<SimpleData name="st_lengthshape">10987.8111509563</SimpleData>
	</SchemaData></ExtendedData>
      <Polygon><outerBoundaryIs><LinearRing><coordinates>-1.95199102469759,52.4459941657319 -1.95192188401258,52.4459905421887 -1.95184534536862,52.44598601745 -1.95177474090275,52.4459904815861 -1.95173203388226,52.4459967552151 -1.95169077269763,52.4460129158087 -1.95164367268177,52.4460434544927 -1.95158332215712,52.4461000507898 -1.95147282223465,52.4462025520348 -1.95145813173732,52.4462133304271 -1.95141699327873,52.4462285928806 -1.95138751291174,52.4462303777818 -1.95133899622593,52.4462249654196 -1.95128017917107,52.4462087633707 -1.95120512424531,52.4461772759124 -1.95112716023448,52.446144888188 -1.95099776482638,52.4461087948089 -1.9509816299114,52.4461096861762 -1.95087272043104,52.4460871726316 -1.95082566200874,52.4460790636494 -1.95077120162854,52.4460736485642 -1.95072413530807,52.4460727297975 -1.95064467257036,52.4460789876464 -1.95055343366105,52.4460933297448 -1.95048876138898,52.446107682088 -1.95045041590838,52.446119439296 -1.95041072262741,52.4461418914087 -1.95032974171191,52.4462047696651 -1.95030461253295,52.446221835662 -1.95025896714937,52.44625147456 -1.95022219278893,52.4462685356009 -1.95019719920239,52.4462721201226 -1.95015753072312,52.4462721032763 -1.95011484044864,52.4462639958668 -1.95001927949145,52.4462378911843 -1.94995889171752,52.4462162955685 -1.94988539977157,52.4461982894545 -1.94987072337768,52.4461973841778 -1.94984718993078,52.4461964760126 -1.94983093129298,52.4462000632915 -1.94980739380901,52.4462027502456 -1.94972648675282,52.4461991204774 -1.94946751624328,52.446181033587 -1.94935130249564,52.4461818824875 -1.94932194012,52.4461872620531 -1.94929390606501,52.4461980353277 -1.94925275910548,52.446218688405 -1.94920712574784,52.4462384414177 -1.94916733563195,52.4462393231937 -1.94909673310208,52.4462410897014 -1.94902018617772,52.4462419554766 -1.94896426149996,52.446244627288 -1.94892313692977,52.4462455084013 -1.94888638012293,52.4462454923962 -1.94884659455052,52.4462436770456 -1.94880838676991,52.4462400661544 -1.94876132546705,52.4462346524727 -1.94865980077109,52.4462265197346 -1.94863918104515,52.4462238145902 -1.94858035814889,52.4462148014592 -1.94846853691619,52.4461931816406 -1.94845531667365,52.4461913787201 -1.94835670895939,52.4461787528691 -1.9483096425804,52.4461778331411 -1.94827882144947,52.4461850098178 -1.94823161154509,52.4462038627498 -1.94820515442857,52.44621463646 -1.94817130304784,52.4462200137575 -1.94810506620239,52.4462226806078 -1.94802414420489,52.4462307331604 -1.94792417070609,52.4462450693533 -1.94774461787404,52.4462602681632 -1.94759310363797,52.4462610996116 -1.94751219560072,52.4462583673353 -1.94746064768735,52.4462511540162 -1.94741359011427,52.4462439426867 -1.94738120849836,52.4462367379189 -1.94734156055093,52.4462205434124 -1.94729888733527,52.4461971563804 -1.94727682319975,52.4461854629814 -1.94725329869508,52.4461782621571 -1.94716355923091,52.4461539558089 -1.94702531376915,52.4461170441168 -1.94691496827842,52.4460800558833 -1.94686355343822,52.4460638549973 -1.9468120058431,52.4460566422966 -1.94674590048607,52.4460503210778 -1.94673850148705,52.446050317721 -1.94669434583818,52.4460502976784 -1.94662809308514,52.4460664451976 -1.94654133428126,52.4460870765775 -1.94642509050981,52.4461131774811 -1.94639560504201,52.4461203533758 -1.94636914822611,52.4461293286598 -1.9463382094118,52.4461338086547 -1.94628676453751,52.4461427724949 -1.94623374567835,52.4461490394713 -1.94618522104699,52.4461508152498 -1.94616022829143,52.4461534999105 -1.94610283834805,52.44616335995 -1.94600855257452,52.4461884816128 -1.94579218640036,52.4462512943731 -1.94570396813597,52.4462737215726 -1.94568042094991,52.4462853950655 -1.94564206510108,52.4463033520453 -1.94560237079113,52.4463258025249 -1.9455670300885,52.4463590394898 -1.94551394203404,52.4464219273259 -1.94549633311525,52.4464381866713 -1.9454476488348,52.4464705192953 -1.94541536211445,52.4464857828995 -1.94538441858767,52.4464938568671 -1.94521368553137,52.4465369179263 -1.94588074773434,52.4472492160843 -1.94600559891967,52.4474318096247 -1.94604386316277,52.4474893465441 -1.94608939350181,52.447558571174 -1.9461363776386,52.447627796454 -1.94617306955614,52.4476827272901 -1.94618626746174,52.4477034041944 -1.94623920073765,52.4477699360427 -1.94631847740006,52.4479218612423 -1.94634916854418,52.4480244222235 -1.94639168443344,52.4481790266748 -1.94642683242043,52.448307563757 -1.94645313992527,52.4484245032084 -1.94650888704448,52.4485728215079 -1.94650741470491,52.4485872013388 -1.94650302412539,52.4486069720774 -1.94639532932868,52.4487822686555 -1.9462304553249,52.4488900424478 -1.94620094861642,52.4489133967807 -1.94585786602158,52.4491191418435 -1.94554276329539,52.4493572549985 -1.94542341214823,52.4495378475533 -1.94535844790529,52.4496862009106 -1.94529935451286,52.4498956713772 -1.94535830592893,52.4509915431347 -1.94539183009472,52.4512558809513 -1.94546789172442,52.4516577469232 -1.94575229309181,52.4525335296721 -1.94617626326494,52.4535828345566 -1.94635968361537,52.4540064088806 -1.94639465493161,52.4542842284693 -1.94639432769757,52.4545556498425 -1.9463646360358,52.4547291848054 -1.94617445897812,52.4550734086239 -1.9456876560356,52.455986581553 -1.9455682335247,52.4562104036172 -1.94545027086688,52.4564296439967 -1.94516545540923,52.4570552186273 -1.94479201033892,52.4579127182875 -1.94471962533616,52.4581617274012 -1.9442641118957,52.4587476743227 -1.9439959526107,52.459033438211 -1.9437999859362,52.4592247776426 -1.94363342455333,52.4593829674898 -1.94346407518956,52.4595383697334 -1.94307204956919,52.4598905782295 -1.94243718962438,52.4603497081467 -1.94247823082611,52.4605159966706 -1.94278651358641,52.4611238816368 -1.94289799391146,52.4613415223134 -1.94341240457535,52.4618982770114 -1.94367260929684,52.4621591292896 -1.94405788483396,52.462455991142 -1.94413419434966,52.4625683708617 -1.94414144877113,52.4626852117211 -1.94414573360583,52.4627526193677 -1.94389496740074,52.4632739529139 -1.94398767387531,52.4632793895455 -1.94438351850702,52.4632867685511 -1.94457490516141,52.4632769729835 -1.94470739449949,52.463299504484 -1.94484429486825,52.4632878856149 -1.94499277250843,52.463335589277 -1.94512238176312,52.4633320550065 -1.94522974850321,52.4633572702539 -1.94532835482132,52.4634005459168 -1.94553721376526,52.4634914167413 -1.94706439853425,52.4639406824866 -1.94747346447552,52.4640604902789 -1.94806208149582,52.464126361619 -1.94808865561724,52.464129070432 -1.9481295740361,52.4643169266592 -1.94828382802018,52.4646208612952 -1.94842041854895,52.4648780531638 -1.94860846639838,52.4651352674889 -1.94888629824641,52.4655183454769 -1.94918310419506,52.4658699748653 -1.94952561432954,52.4662675497748 -1.94976087814073,52.4665310738169 -1.95001089690862,52.4667342975718 -1.95049621362013,52.4670716244912 -1.95084490794522,52.4672740801264 -1.95132451839894,52.4675134368375 -1.95166878555524,52.4676654684255 -1.95253200454995,52.4683921903777 -1.95265100736526,52.4685594949039 -1.95291728533148,52.4687906710145 -1.95320093454757,52.4691234113226 -1.95349058832704,52.4695217617647 -1.95362719777755,52.469804112481 -1.95369747616967,52.4701475519593 -1.95371463628753,52.4705682622302 -1.95371012333258,52.4707058584445 -1.95372021041499,52.4709251565555 -1.95361955284471,52.4714249998345 -1.95354121563628,52.4717036698826 -1.95334498430057,52.4721332832752 -1.95306034276907,52.4727157364626 -1.95305437911571,52.4727310126395 -1.95491045075366,52.4730257244722 -1.95599821303189,52.4731924974482 -1.95633682472318,52.4732321690752 -1.95687558288249,52.4732826992041 -1.95758948822232,52.4733395818946 -1.95783090351325,52.4733522518508 -1.95830058667084,52.4732868122787 -1.95959613458495,52.4732297482291 -1.9603617104248,52.4731967577801 -1.96096824515429,52.473198759576 -1.96141431308331,52.473204301249 -1.96246834387558,52.4732468861641 -1.9631101694944,52.4732884337122 -1.96342962383175,52.4733119022827 -1.96391244445283,52.473351597418 -1.96439380706043,52.473393088142 -1.96473232430867,52.4734111659002 -1.96504597127552,52.4734121595474 -1.96574528552979,52.4733620377617 -1.96573935950177,52.4733341749989 -1.96573500955631,52.4733090088116 -1.96635350924731,52.4730619436679 -1.96719873033109,52.4726630519534 -1.96764347709523,52.4724752489471 -1.96831644884581,52.4722399617214 -1.9681798134978,52.4718487911185 -1.96812998118256,52.4716034198502 -1.96809179633192,52.4713669491215 -1.96811134420309,52.4708508947664 -1.96809682693498,52.4706144303801 -1.96804989826571,52.4703879332582 -1.96792943813109,52.4699635117747 -1.96781917393047,52.4697100349734 -1.96754731888195,52.4691903035319 -1.96734151908454,52.4688027966526 -1.96689309947017,52.4679414003014 -1.96677565599147,52.4675656000492 -1.96670961604177,52.4672653100881 -1.96668032367763,52.4671618559507 -1.9665672217733,52.466827400022 -1.96644232055422,52.4665306870377 -1.96571155728163,52.4654876568237 -1.96557628288984,52.4652782089179 -1.96533534172541,52.4647144422967 -1.96533244152779,52.4646982638358 -1.96530016559926,52.4645372891468 -1.96508130513643,52.4639906051359 -1.96491084175652,52.4636327623457 -1.96476234450756,52.4634295998023 -1.96450799880913,52.463111276404 -1.96399919920585,52.4624746260947 -1.96350821378563,52.4618847148275 -1.96286865451225,52.4610744708556 -1.96241279439575,52.4605961003643 -1.96165545209545,52.4599233199407 -1.96148041783858,52.4597084618597 -1.96146720644434,52.4596913808768 -1.96228988723683,52.4597213092131 -1.96319640111924,52.4597719291994 -1.96442233483996,52.4597687152735 -1.96562920257622,52.4597861538478 -1.96568065138104,52.4597870680486 -1.96698750397746,52.4598081182529 -1.96752323142342,52.4598145604696 -1.9686696833405,52.4598265561788 -1.96920092327809,52.4598401773483 -1.96979403618355,52.4598717857868 -1.97003099429481,52.459914986718 -1.97036792813865,52.4599798711334 -1.97095355665764,52.4601426898268 -1.97183643989331,52.4603820606172 -1.9723750186418,52.460508911568 -1.97332868091296,52.4607186285868 -1.97354791664983,52.4607842863737 -1.97376123943026,52.4607951192993 -1.97477107350407,52.4606218806569 -1.97521257117577,52.460556275702 -1.97534206479416,52.4605275427233 -1.97535092427971,52.4605257474606 -1.97643864330896,52.4603650933213 -1.97665215232281,52.4602482084099 -1.97673021260825,52.4601826153181 -1.97799054408184,52.4591355456026 -1.97828637668216,52.4588901530918 -1.97850731443736,52.4586969622537 -1.9789121504188,52.4583553315522 -1.979169740141,52.4581351839884 -1.97940389849862,52.4579338155873 -1.97951436186409,52.4578376691409 -1.97956728294967,52.4577990318861 -1.97963064383886,52.4577541051727 -1.97991465143774,52.4575895936779 -1.98010315919565,52.4574368379038 -1.98031219377838,52.4572336663506 -1.98056846964031,52.4569307414117 -1.98072010184856,52.4567410402423 -1.9808732077571,52.4565055932332 -1.98098371787632,52.45628353074 -1.9810839469581,52.4559832746029 -1.98112371508521,52.4557647957129 -1.98114586227755,52.4556120123984 -1.98113997207289,52.4554816026345 -1.9811121412547,52.4553009502329 -1.98107980338537,52.4551651439816 -1.98102391995426,52.4550447024264 -1.98094013883032,52.4549070907211 -1.98084897703572,52.4547210348398 -1.98077102504997,52.4545717404752 -1.98061367966311,52.4542480753755 -1.98045790592653,52.4539396889043 -1.98032552903171,52.4536772327225 -1.98016527801226,52.4533535664737 -1.97994623241698,52.4529219499508 -1.97973750416077,52.4524949187858 -1.97960221471792,52.4522557382674 -1.97955229326671,52.452114626124 -1.97946550596313,52.4519383662843 -1.97930814484525,52.4516865990568 -1.97915090724351,52.4514357306322 -1.97898179676654,52.4511507974186 -1.97888773424604,52.4509781309409 -1.97872155595093,52.4506580565938 -1.97859368712282,52.4504017995329 -1.97843638696616,52.4500457768079 -1.97833059945747,52.4497904224164 -1.97823064936313,52.4495126001223 -1.97815869158208,52.4492986852239 -1.97805877229344,52.4489597482812 -1.97798394234,52.4486720440347 -1.97793538742388,52.448485005555 -1.97754257035136,52.4484912224698 -1.9771070552187,52.4484875434008 -1.9770364407815,52.4485073023973 -1.97692458490775,52.448514469871 -1.97685545592993,52.4484785068049 -1.97678485678213,52.4484659103957 -1.97676133237957,52.4484470320006 -1.97668772343272,52.448391294293 -1.97668189942802,52.4483948882677 -1.97664369217795,52.4483822981885 -1.97655684773542,52.4483508246647 -1.97644951076638,52.448302181338 -1.97641858768149,52.4482824023855 -1.97639057299389,52.4482635230154 -1.97636704600778,52.4482500367838 -1.97629645983785,52.4482167692163 -1.97622150632369,52.4481817027097 -1.9761493450225,52.4481448396061 -1.97608761420674,52.4481133708222 -1.97600817539315,52.4480747081383 -1.97597724877096,52.4480594232041 -1.97593164313556,52.4480432362531 -1.97588021594537,52.4480261499831 -1.97584637861397,52.4480117625258 -1.97581545116457,52.4479981856621 -1.97576548215651,52.4479757064983 -1.97570957342642,52.4479451368218 -1.97566543052049,52.4479181655805 -1.97561837836539,52.4478866995834 -1.97556538654372,52.4478471439673 -1.97551106327728,52.4478048910286 -1.97548595708138,52.4477932023048 -1.97539924320511,52.4477500444535 -1.97525952922909,52.4476834176138 -1.97506390427561,52.4475926026724 -1.97500799500591,52.447564728782 -1.97494917654856,52.4475350580293 -1.97486525535566,52.4474883052466 -1.97480352790524,52.4474541396623 -1.97470056187296,52.4474055846674 -1.97460487463775,52.4473596382739 -1.97455054268747,52.4473326635121 -1.97450931180222,52.4473074895782 -1.97448578597752,52.4472913077439 -1.97445935146593,52.4472724282519 -1.97443279227702,52.4472580419649 -1.97436220501873,52.4472319625899 -1.9743401332931,52.4472202742812 -1.97431369473651,52.4472085850152 -1.97429307712078,52.4471986941304 -1.97427245890717,52.4471923983718 -1.97424456119066,52.4471852020094 -1.97416365707678,52.4471672095239 -1.97410337789693,52.4471465254004 -1.97405037889441,52.4471231458298 -1.97398864786059,52.4470970681827 -1.97384299561734,52.4470277422155 -1.97375762039027,52.4469827863286 -1.97369153419253,52.446935137671 -1.97366061130419,52.4469162569944 -1.97362823119787,52.4469009711133 -1.97357535072054,52.4468820854916 -1.97347080412085,52.4468461115661 -1.97342677789363,52.4468299239961 -1.97339730693736,52.4468191328458 -1.97337669078609,52.4468074437852 -1.97331787174513,52.4467822663494 -1.97328839775776,52.4467741703951 -1.97321489377111,52.4467588750587 -1.97312804999469,52.4467380944844 -1.9730281051022,52.4467138047154 -1.97296928092457,52.4466976135817 -1.9729280429557,52.4466841234873 -1.97288680922355,52.4466661383424 -1.97284424106507,52.4466481537741 -1.97281040156713,52.4466382595769 -1.97268535138226,52.4466085723667 -1.97256030322249,52.4465734918787 -1.97249844727941,52.4465546036792 -1.97248668529526,52.4465483096762 -1.97247941351758,52.4465375225838 -1.97247941852306,52.446529434215 -1.97248233651151,52.4465168523891 -1.97248089197791,52.4464997754049 -1.97247944132672,52.4464925857031 -1.97247350178914,52.4464853940526 -1.9724573732554,52.4464764029018 -1.97243821094194,52.4464674110385 -1.9724175916641,52.4464638110773 -1.9723896919225,52.4464611084122 -1.97236021476437,52.4464611014935 -1.97232940000347,52.4464637903763 -1.97231023079867,52.4464682791074 -1.97228960221812,52.4464772625291 -1.9722366917495,52.4465105034473 -1.97213802296991,52.4465832790592 -1.97211156925374,52.4465949562952 -1.97208354146681,52.4466039370287 -1.97205417977451,52.4466120193304 -1.97202324311286,52.4466165052207 -1.97198648398988,52.4466218887249 -1.97195409391001,52.4466236790269 -1.97191733841011,52.4466209741403 -1.97189380969594,52.4466137782629 -1.97185402871092,52.4466002872416 -1.97182164742363,52.44658589987 -1.97176876957167,52.4465670134371 -1.9717246224609,52.4465526232162 -1.97169514548747,52.4465499191095 -1.97165839210896,52.4465463160343 -1.97161132706839,52.4465418105547 -1.97149948715151,52.4465327961518 -1.9714317968239,52.4465318807363 -1.97137441584503,52.4465354619279 -1.97126110896107,52.4465426245828 -1.97119936408944,52.4465417104855 -1.97114053000683,52.4465398989611 -1.97096985319559,52.4465335657423 -1.97093746490304,52.4465326587437 -1.97072711549821,52.4465344037447 -1.97070650255877,52.4465191199845 -1.97068298239739,52.446499341358 -1.97065206347971,52.4464768656579 -1.9701045994051,52.4466573762965 -1.97008704738886,52.4465998515371 -1.9699076201243,52.4464380312003 -1.97002095733917,52.4463858421555 -1.97001950466782,52.4463822475532 -1.97013429482849,52.4463328447945 -1.9701299365312,52.4463202611784 -1.96993727818844,52.4461728171459 -1.96966499468186,52.4462752054095 -1.9696296928637,52.446275196309 -1.96941488609216,52.4462328990344 -1.96934867205597,52.4462041216622 -1.96930755614239,52.4461951235722 -1.96926922582268,52.4461897213265 -1.96922810410947,52.4461870144629 -1.96913979111317,52.4461887884666 -1.96908095092646,52.4461986594182 -1.96902356580402,52.4462085307233 -1.96898389353113,52.4462139125282 -1.96896181369677,52.4462166028343 -1.96893828002542,52.4462174956364 -1.96891474761145,52.4462165904188 -1.96887932897405,52.4462111888153 -1.96882935607767,52.4462021882177 -1.96880291391574,52.4461985860834 -1.96877938151467,52.4461976808388 -1.96875875803039,52.4461985743768 -1.96872782258922,52.4462012622894 -1.96869846308341,52.4462057486283 -1.96866752446375,52.4462129297648 -1.96862481560246,52.4462263999126 -1.96858659410598,52.4462398712422 -1.96856014219935,52.4462479525552 -1.96853357110898,52.4462560347294 -1.9685114905886,52.4462596239591 -1.96843506149904,52.4462667928622 -1.96841443669731,52.4462694834562 -1.96839090298663,52.4462703761495 -1.96837173666468,52.4462703710035 -1.96825698304809,52.4462640488717 -1.96822605138839,52.446261344406 -1.96819524056136,52.4462604370813 -1.96815836366252,52.4462595290075 -1.96805391614239,52.4462621967095 -1.96780972218569,52.4462675215917 -1.96745949738375,52.4462845007457 -1.96741837209475,52.4462871853531 -1.96738307204564,52.4462871754562 -1.96732861508756,52.4462745776561 -1.96730945223736,52.4462700781309 -1.96730217455633,52.4462691770769 -1.96727864088033,52.4462682723484 -1.96722708764909,52.4462664598149 -1.96719773085833,52.4462673505453 -1.96718001779243,52.4462700416716 -1.96716084897981,52.4462736313918 -1.96714616751985,52.4462772223767 -1.96713148819391,52.4462799143527 -1.96711826380542,52.446280809622 -1.96710200927759,52.4462808050249 -1.96701528131072,52.4462726911875 -1.96692988981724,52.4462618824416 -1.96691230139652,52.4462591813151 -1.96690053637136,52.4462582789598 -1.96688719201098,52.4462582751613 -1.96682253787615,52.4462555606123 -1.96681076936874,52.4462573543711 -1.96679609070038,52.446259148197 -1.96677692039128,52.4462627369555 -1.96676369478312,52.4462672273164 -1.96674452392093,52.4462735130925 -1.96671212474273,52.4462878834525 -1.9666679549957,52.4463067445706 -1.96660182263821,52.4463327896314 -1.96651931026517,52.4463651211973 -1.96648545642792,52.4463767949521 -1.96646786335766,52.4463821821301 -1.9664457814446,52.4463875689097 -1.96641484260726,52.4463947493458 -1.96637808047978,52.4464019289898 -1.96632809752227,52.4464091047966 -1.96624123163246,52.4464216621334 -1.96622364056441,52.4464243531515 -1.96620156201895,52.4464252457472 -1.9661514603146,52.4464279273056 -1.96607939857141,52.4464342874747 -1.96606763135977,52.4464342840435 -1.9660499202203,52.4464342788769 -1.96601765456993,52.4464332805493 -1.9659941193907,52.4464342625816 -1.96574979461747,52.4464512666729 -1.96568950492284,52.4464512489126 -1.96559682522327,52.4464512215507 -1.96554235881473,52.4464512054366 -1.96550705724321,52.4464529929944 -1.96547466661473,52.4464556795138 -1.96544530687334,52.4464601640404 -1.96540405499328,52.4464682410558 -1.965355524094,52.4464790111151 -1.96531427154882,52.4464897842226 -1.96529218874461,52.4464960688948 -1.96526865218351,52.4464987579976 -1.96524220474197,52.4465023452341 -1.96521867034908,52.44650413532 -1.96517742549017,52.4465050219956 -1.96508474074126,52.4465112854858 -1.96504652604528,52.4465148691482 -1.96500527905167,52.4465184518868 -1.96497592134621,52.4465202401736 -1.96495384202086,52.4465220315436 -1.96493904249468,52.4465220270871 -1.96491696671221,52.4465193243124 -1.96484491679835,52.4465103142987 -1.96479348759006,52.4465040075017 -1.9647346607976,52.4464959013257 -1.96461544290274,52.4464617127539 -1.96453600917209,52.4464338274417 -1.96451987889012,52.4464292384878 -1.96450508297989,52.4464247407383 -1.9644904048474,52.4464238372551 -1.9644639609783,52.4464229301798 -1.96429036677015,52.4464273712101 -1.96427714447549,52.4464273671545 -1.96426088772938,52.4464300582899 -1.96423880545828,52.4464355336585 -1.96422412515869,52.4464373271643 -1.96420799049653,52.4464382203148 -1.96419173663543,52.4464373172092 -1.96417414905841,52.4464355137845 -1.96413727683784,52.4464291212792 -1.96406814176753,52.446416517458 -1.96392987319968,52.4463895125788 -1.96388875635944,52.446381410567 -1.96386522635532,52.4463778081376 -1.96383866187118,52.446375103769 -1.96381658476433,52.4463741988038 -1.96378722930003,52.4463732906726 -1.96372985061585,52.446374171826 -1.96370328394267,52.4463741635499 -1.96367829446802,52.4463741557598 -1.96365925111865,52.4463732508122 -1.96363571893117,52.446370547344 -1.96361509985528,52.4463678447812 -1.96358417382089,52.446358846839 -1.96355324779809,52.4463498497877 -1.9635121369566,52.4463345582835 -1.96348121465214,52.4463210679748 -1.96345768914068,52.4463120723194 -1.96341354535018,52.4462976788369 -1.9633635812834,52.4462796883765 -1.96331652740576,52.4462634959275 -1.96327238370853,52.4462491014934 -1.9632606202425,52.4462464016605 -1.96325176842004,52.4462419056287 -1.96324291734261,52.4462365096899 -1.96321212845859,52.4462077407193 -1.96318558268437,52.4461843644298 -1.96316206178246,52.4461681793535 -1.96313999446738,52.4461555898636 -1.96311647208873,52.4461429999091 -1.96309294601621,52.4461331060724 -1.96307087202567,52.4461286058377 -1.96305764907323,52.4461294997543 -1.9630326582408,52.4461312898427 -1.96300463215324,52.4461366731943 -1.96298109636703,52.4461402608499 -1.96295464521431,52.4461483408138 -1.96287662540983,52.4461716838851 -1.96284726109386,52.4461815609118 -1.96279423356222,52.4462013167637 -1.96276183618677,52.4462120909091 -1.96273684078293,52.4462192731807 -1.96271475850557,52.4462246583641 -1.96269716507974,52.4462282478644 -1.9626823656149,52.4462300402418 -1.96265300804177,52.4462300308361 -1.96258968712723,52.4462291124158 -1.96256469848917,52.4462282053832 -1.9624955595796,52.4462227909046 -1.96246026493276,52.4462146902702 -1.9624396459985,52.4462119875027 -1.96241320153589,52.4462119789764 -1.96238966722945,52.4462119713834 -1.96235727810837,52.4462128599335 -1.96233956781696,52.446211955204 -1.96232343547911,52.4462101528736 -1.96231458147567,52.4462083519957 -1.96230572975491,52.4462038558933 -1.96229991253928,52.4461984608654 -1.96228816289913,52.4461777861834 -1.96227785991798,52.4461687954705 -1.9622661003933,52.4461598042852 -1.96224694343154,52.4461490126874 -1.96222936143527,52.4461391206046 -1.96221614303853,52.4461346230802 -1.96219843654105,52.4461310222073 -1.96218072781147,52.4461283203385 -1.96215877150269,52.4461274142042 -1.96211158380613,52.4461273988737 -1.96209399490231,52.4461273931546 -1.96208077199021,52.4461264898458 -1.96206451905,52.4461246874409 -1.96203067727105,52.44612108129 -1.96197039577267,52.4461119843578 -1.96192042396614,52.4461056767879 -1.96187918402425,52.446101169169 -1.9618364867737,52.4460975609651 -1.96179536440626,52.4460966484867 -1.96170851092283,52.4460957209806 -1.96168497745072,52.4460948142403 -1.96167175602683,52.4460939117853 -1.96159823299065,52.4461073682061 -1.96156438272917,52.446113648305 -1.96152908048891,52.4461163327839 -1.96148189202669,52.4461172162095 -1.96143482731912,52.4461145045261 -1.96139662046026,52.4461090996337 -1.96134664804621,52.4461018928137 -1.96127011608229,52.446088385898 -1.96116569028975,52.4460667812745 -1.96115101459529,52.4460649792694 -1.96113476181209,52.4460613787217 -1.96103033693338,52.4460388749715 -1.96088771175754,52.4460037758126 -1.96084501694002,52.4459992682443 -1.96081699778872,52.445996562709 -1.96076411397883,52.4459893546647 -1.96072881891892,52.4459839505365 -1.96067436259835,52.4459731467915 -1.96063167112601,52.4459632460012 -1.96060377742136,52.4459551482105 -1.96059055844599,52.445951548613 -1.96057576149354,52.445948847488 -1.96055368545768,52.4459470420078 -1.96051111136996,52.4459425343599 -1.9604816419887,52.4459344351079 -1.96044925714344,52.4459290318825 -1.9603992849531,52.4459236226777 -1.96030806768692,52.4459181985232 -1.96025214698808,52.4459163823628 -1.96020508095881,52.4459154673059 -1.96015206946433,52.4459163482143 -1.96010063354097,52.4459190267539 -1.96004616294256,52.4459244003552 -1.95999314578574,52.4459315724449 -1.95993430862531,52.4459351473809 -1.95986370665496,52.4459378192325 -1.95981372885139,52.445938701033 -1.95977988414698,52.4459386893685 -1.95968417325332,52.4459386563294 -1.95954891802141,52.4459386095077 -1.95947977027487,52.4459421806418 -1.95942238878307,52.4459466539371 -1.95938405265456,52.4459511347355 -1.95934292965038,52.4459511204118 -1.9592987620808,52.445964586528 -1.95924137232339,52.4459780471102 -1.95916190176461,52.4459932979528 -1.95912514110783,52.4459995763345 -1.9590603698257,52.4459923642627 -1.959011855283,52.4459842579608 -1.95897352404527,52.4459833463808 -1.95893239355953,52.4459914202819 -1.95886614236744,52.4460111697158 -1.95869990214767,52.4460668332759 -1.95866156604174,52.4460695158248 -1.95863801910486,52.4460847861125 -1.9585938578733,52.4460910617053 -1.9585556430191,52.4460946432703 -1.95852774208096,52.446094633358 -1.95848941327084,52.4460910245995 -1.95844381054777,52.4460811219846 -1.95840707236027,52.4460631341419 -1.95836729291756,52.4460532335728 -1.95831587353982,52.4460379365868 -1.95826142530477,52.4460190433645 -1.9582040631876,52.4460010480811 -1.95814233252972,52.445986645435 -1.95808933020565,52.4459776390369 -1.95803341290711,52.4459722266978 -1.95797458463522,52.4459677113926 -1.95792315361355,52.4459649967399 -1.95787159878512,52.4459640800351 -1.95783338908163,52.4459622682231 -1.95779518023131,52.4459595582906 -1.95775103092769,52.445953251065 -1.95769512028813,52.4459424454229 -1.9576303535872,52.4459307384317 -1.95759506065864,52.4459235353548 -1.95756716153673,52.4459217281008 -1.95751414998414,52.4459226078266 -1.95746259582706,52.4459225890522 -1.95742583781136,52.4459243727683 -1.95735086645406,52.4459297376493 -1.95727286049422,52.4459360003795 -1.95721111124986,52.4459413709093 -1.95712716484363,52.4459440362353 -1.95704770375859,52.4459502982826 -1.95695355701488,52.4459637451241 -1.95687700400753,52.4459736023604 -1.95681961786677,52.4459825694275 -1.95678880277393,52.4459852541505 -1.95675349599422,52.4459924304409 -1.95662099601541,52.44602743269 -1.95660485347973,52.4460364140688 -1.95658129536578,52.4460624693334 -1.95657097457474,52.446071452872 -1.95654888025246,52.4460885212976 -1.95652969753472,52.4461055899039 -1.95645015351008,52.446196423838 -1.95641190063148,52.4462386512238 -1.95639563557743,52.4462494305424 -1.95637354637656,52.4462611057913 -1.95634126719092,52.4462727772267 -1.95630595395179,52.4462862455326 -1.95625729543993,52.446300606938 -1.95622344076346,52.4463104806352 -1.95617781241695,52.4463284382739 -1.95614699174811,52.446336515972 -1.95611751051545,52.446340998136 -1.95606450021276,52.4463400800959 -1.95603514404177,52.4463400690478 -1.95600869862058,52.4463409571972 -1.95598358882481,52.4463391506202 -1.95587914987417,52.4463328199571 -1.95577617463341,52.4463192994955 -1.95568351364909,52.4463021886272 -1.95564531089529,52.4462931867491 -1.95558055406746,52.4462715913574 -1.95554672433854,52.4462562998572 -1.95550404505425,52.4462365117379 -1.95544523406815,52.4462131214213 -1.95540410992889,52.4462140047345 -1.9552716397883,52.4462175492132 -1.95522603009667,52.4462166327321 -1.95512753362633,52.446212100799 -1.9550024724158,52.4462057614386 -1.95489208819808,52.4462012256287 -1.95484939015713,52.4462003101267 -1.95478618735835,52.446202082798 -1.95474203003461,52.4462038637142 -1.95469641250953,52.446209238279 -1.95466851114682,52.4462110254705 -1.95464194457265,52.4462110151591 -1.95460519316763,52.4462074057546 -1.95456844029723,52.4462037963381 -1.95417120387837,52.4461622985501 -1.95413154092703,52.4461586878564 -1.95409030171518,52.4461541784219 -1.95403438560446,52.4461478651857 -1.9539770218478,52.4461343610926 -1.95391529328476,52.4461190581347 -1.9538505366981,52.4460982709034 -1.95381961093474,52.4460910693243 -1.95378286287533,52.4460829655283 -1.95374320281881,52.4460766585828 -1.95368874526186,52.4460685486451 -1.95363137330646,52.4460631336488 -1.95354901300406,52.4460568096876 -1.95347538235753,52.4460540833759 -1.95342395244632,52.446050468659 -1.95337689017229,52.446045955756 -1.95331649260316,52.446034248147 -1.9532621548768,52.4460270361691 -1.95321945650389,52.4460252219704 -1.95315916644519,52.4460260959311 -1.95311937738824,52.4460278779924 -1.95301351990803,52.4459864928361 -1.95289589890703,52.4459433057295 -1.95285466476222,52.44593430083 -1.95275618150911,52.4459180843287 -1.95267818731828,52.4459126596344 -1.95260310475267,52.4459072369683 -1.95251480197856,52.4459000108704 -1.95236475330814,52.4458945575764 -1.95234267570916,52.4458945485778 -1.95232217241287,52.4458972363401 -1.95230009193244,52.4458999234553 -1.95227351785692,52.4459071028692 -1.95225300686227,52.4459169808765 -1.95221914486667,52.445933144677 -1.9521838248903,52.4459520039941 -1.95215433195955,52.4459672705555 -1.95212338728562,52.4459780423777 -1.95207776485466,52.4459879100677 -1.95203360473814,52.4459923860945 -1.95199102469759,52.4459941657319</coordinates></LinearRing></outerBoundaryIs></Polygon>
  </Placemark>
