  <Placemark>
	<Style><LineStyle><color>ff0000ff</color></LineStyle><PolyStyle><fill>0</fill></PolyStyle></Style>
	<ExtendedData><SchemaData schemaUrl="#Wards__December_2019__Boundaries_EW_BFE">
		<SimpleData name="objectid">771</SimpleData>
		<SimpleData name="wd19cd">E05000990</SimpleData>
		<SimpleData name="wd19nm">Penistone West</SimpleData>
		<SimpleData name="wd19nmw"></SimpleData>
		<SimpleData name="bng_e">418795</SimpleData>
		<SimpleData name="bng_n">402678</SimpleData>
		<SimpleData name="long">-1.71799</SimpleData>
		<SimpleData name="lat">53.520451</SimpleData>
		<SimpleData name="st_areashape">79469541.7454661</SimpleData>
		<SimpleData name="st_lengthshape">52105.7925225751</SimpleData>
	</SchemaData></ExtendedData>
      <Polygon><outerBoundaryIs><LinearRing><coordinates>-1.80147063244941,53.4809917607504 -1.79984840312836,53.4811868387101 -1.7985306556136,53.4813590436211 -1.79723253487715,53.4815033224561 -1.79594801597526,53.4816593805963 -1.79479632785661,53.4817580542976 -1.79377433828501,53.4818066198712 -1.79235589491453,53.4819308696048 -1.79197282136713,53.4819896009445 -1.79163191394824,53.4820635902088 -1.79130148171046,53.4821546701095 -1.79102071767928,53.4822512269534 -1.79075044288042,53.4823622681985 -1.79045289710486,53.4825109124114 -1.79016419026984,53.4826803281461 -1.79002969458414,53.4827690519422 -1.7894141548584,53.4832038711751 -1.78901057989949,53.4834602439063 -1.78825337290553,53.4839209579718 -1.78749646870518,53.4842926185186 -1.78726095886662,53.4843793626213 -1.78687155918197,53.4845045616554 -1.7865002991948,53.4846045415629 -1.78630425477216,53.4846500192024 -1.78603424629363,53.484702554208 -1.7857672540374,53.4847479041853 -1.78551996561825,53.4847790018199 -1.7852545593344,53.4848054832806 -1.78502847364005,53.4848203534383 -1.78463353903413,53.484834021753 -1.78418454174907,53.4848260246928 -1.78364816833515,53.4847989979638 -1.78336348644192,53.4847796132209 -1.78307881441826,53.4847583411601 -1.78257571422544,53.4847124996953 -1.7819522310918,53.4846394800068 -1.78137998835634,53.4845575649411 -1.78109992486745,53.4845103273959 -1.78080934766017,53.4844540842857 -1.78041504411324,53.4843697037235 -1.78005231050182,53.4842836729535 -1.77864516476597,53.4839080805921 -1.77769714111253,53.4836735028221 -1.7771070382339,53.4835421127858 -1.77632319987143,53.4832997433201 -1.77588231874115,53.4831928864023 -1.77543075025341,53.4830868176686 -1.77464441519559,53.4827563718711 -1.77437516602299,53.4826651087665 -1.77399440545993,53.4825628513777 -1.7737023803332,53.4825029041144 -1.77355341410426,53.4824792591675 -1.77329441820558,53.4824464210765 -1.77315433162448,53.4824353725274 -1.77293735240461,53.4824214824657 -1.77271895536789,53.4824174738037 -1.77250798880471,53.4824179721299 -1.77236929675603,53.4824248975069 -1.77189895550147,53.4824635397408 -1.77155221097692,53.4824835466919 -1.77128406962161,53.4824650627605 -1.7710537993725,53.4824277813889 -1.77082949098331,53.4823680464072 -1.77070014919107,53.4823228697107 -1.76862082918426,53.4817507902584 -1.76826722620969,53.4816620459876 -1.76802825328312,53.481535692715 -1.76790944896191,53.4814959256225 -1.76764755006944,53.4814504889181 -1.76750749768251,53.481434042734 -1.76746227979507,53.4814330570565 -1.76733860259828,53.4814435994079 -1.76727834772346,53.4814434823997 -1.76718350695194,53.4814289213032 -1.76695488026428,53.4813655764055 -1.76627194223763,53.4811377146166 -1.76614862899299,53.4811051249384 -1.76599200362139,53.4810751665837 -1.76585046631571,53.4810578167062 -1.76567420371745,53.4810520809168 -1.76554769006018,53.4810590223195 -1.76542101321533,53.4810731512549 -1.76531542109233,53.4810936114052 -1.76521278263195,53.4811194693637 -1.7650452160952,53.4811811425639 -1.76491381354637,53.4812410897184 -1.76467373489573,53.4813170877707 -1.7645243313928,53.4813518389483 -1.76439013944414,53.4813767353596 -1.76413676311022,53.4814085850609 -1.76398006243027,53.4814145665536 -1.7638942490998,53.4814081074415 -1.76379034650589,53.4813926269501 -1.76367147026219,53.4813663344045 -1.76355561108634,53.4813337567429 -1.76344884657915,53.4812967045422 -1.7633495619472,53.4812550838549 -1.76316320880479,53.4811648572543 -1.76307602432298,53.4811368290746 -1.76297662491216,53.4811159655553 -1.76289989033836,53.4811077260105 -1.76274306854658,53.4811137056342 -1.76264061713824,53.4811278804974 -1.76251388250996,53.4811518907429 -1.7622437516517,53.4812250388838 -1.76217137033605,53.4812383732778 -1.76202207051227,53.481254251388 -1.76196031915687,53.4812550275596 -1.76189847789761,53.4812495134674 -1.76181421074035,53.4812331714306 -1.76172553677099,53.481205139299 -1.76164735442821,53.4811672434734 -1.76156332396662,53.4811086681241 -1.76124770154205,53.4809633683592 -1.76118015583731,53.4809119254847 -1.76112766089129,53.4808794717271 -1.76107351040574,53.4808542035351 -1.76100283135613,53.4808298011843 -1.76091858555322,53.4808098641024 -1.76065056548344,53.480772487477 -1.76051643649985,53.4807641317203 -1.76028895956294,53.4807636768104 -1.75960136015489,53.4808413742368 -1.75914501689421,53.4808224863786 -1.75896261129063,53.4808266119301 -1.7588526070599,53.4808362750722 -1.7587092443821,53.4808566542765 -1.75854482464817,53.4808877733172 -1.75823406317388,53.4809609195333 -1.75808172475535,53.4809866710991 -1.75767303393796,53.4810424557045 -1.75754949228401,53.4810511914354 -1.7574605429372,53.4810501125652 -1.75734754338255,53.4810399992515 -1.75723619502858,53.4810236000161 -1.75673359228051,53.4809029795368 -1.75650639208149,53.4808539942875 -1.75628202873118,53.4808086088213 -1.7558845540698,53.4807502910973 -1.75560476056854,53.4806868200428 -1.75530055732472,53.480655647617 -1.75500958229055,53.4806793143506 -1.75488284471792,53.4807033165228 -1.75479991270995,53.4807148281018 -1.754661254456,53.4807163419034 -1.75459047577363,53.4807099068747 -1.754143329541,53.4806478862219 -1.75387541048797,53.4805942300897 -1.75354450050868,53.4804983008898 -1.75307387543873,53.480329296797 -1.75261360856462,53.4801746001296 -1.75236235643803,53.4801183692488 -1.75222532245542,53.4800974180178 -1.75201911467253,53.4800718310612 -1.75110538937044,53.479917988274 -1.75084939778561,53.4798869047785 -1.75068064710176,53.4798721774631 -1.75031923227314,53.4798534548334 -1.74995447647777,53.4798535934604 -1.74974807727228,53.4798612510547 -1.74937571937092,53.4798865332574 -1.74923260205614,53.4798862343346 -1.74909700604052,53.4798742687552 -1.74898716087448,53.4798569665401 -1.74882169280888,53.4798125898557 -1.74871644573587,53.4797737302668 -1.74818837065053,53.4796395431775 -1.74728541908247,53.4794534362005 -1.7471490876034,53.4793146774036 -1.74709209362984,53.4792678311261 -1.74701710267321,53.4792182512604 -1.74691343584675,53.4791650164103 -1.74685185282543,53.4791379285137 -1.74656903085873,53.4790447780166 -1.74646682564572,53.4790175142314 -1.74639447859184,53.4790038832498 -1.74631167603516,53.4789938236825 -1.74622287773381,53.4789891426198 -1.74614299129113,53.4789898724861 -1.74601335376033,53.4790003815517 -1.74581558504474,53.4790611558355 -1.74571461236265,53.4790771165412 -1.74559392383161,53.4790867452813 -1.74547343012602,53.4790846920858 -1.74534095152037,53.4790718308455 -1.7452084055624,53.479049085664 -1.74497979807631,53.4789901017005 -1.74490754431608,53.4789818612529 -1.74479894982491,53.4789843259708 -1.74451088416681,53.4790413124897 -1.74442179912858,53.4790635866101 -1.74409414697965,53.4791752119534 -1.74375449152204,53.4792993900775 -1.74367596632923,53.479321687106 -1.74360505635951,53.4793377102655 -1.74352958864256,53.4793474326542 -1.74344981367151,53.4793500476393 -1.74333074064447,53.4793389206322 -1.74254535600493,53.479150332199 -1.74241159296679,53.4791033188503 -1.74229591940093,53.4790437640102 -1.74224793547729,53.4790076281824 -1.74196342208988,53.478723962414 -1.74181711243454,53.4784926210376 -1.74177693894477,53.4783980932594 -1.7417366473473,53.4783431933528 -1.74168876771073,53.4782900738776 -1.74164228715921,53.4782522332135 -1.7415567890087,53.4781954381927 -1.74145317369329,53.4781350095928 -1.74134489978748,53.4780852643778 -1.74086953359686,53.4779728135193 -1.74071599916829,53.4779500170031 -1.74061813720509,53.477924645047 -1.74054301933585,53.4778975254167 -1.74049038049994,53.4778713523123 -1.74043184546324,53.4778343839101 -1.74024596513338,53.4776973071384 -1.74010959600404,53.477569412051 -1.74002438105443,53.4774667889783 -1.73976040963089,53.4772612489189 -1.73969430850156,53.4772224660215 -1.73960573443666,53.4771818375106 -1.73951251422313,53.4771492866297 -1.73941165718915,53.4771265128751 -1.73930329122059,53.477112798331 -1.73917374582444,53.477108922209 -1.73901854912612,53.4771148747112 -1.73885111789,53.4771306849539 -1.73870787712309,53.4771520288136 -1.73851777248983,53.4771983408844 -1.73843771268971,53.4772278200613 -1.73806445932014,53.4774013308126 -1.73780548042849,53.4776174141496 -1.7377496217141,53.4776505402616 -1.73778817793776,53.4777440773243 -1.73769065268018,53.4779263671062 -1.73760725077581,53.4780142462108 -1.73759005449486,53.4781032579338 -1.73745862828411,53.4781622778729 -1.73730012419891,53.4782203386375 -1.73724414074965,53.4782534633603 -1.73723842314691,53.4784350559235 -1.737027781574,53.4786475592326 -1.73692644053028,53.4789439600038 -1.73685091228322,53.478983332713 -1.73683311016711,53.47917028913 -1.73671974958436,53.4792401304807 -1.73645712377882,53.4792997593859 -1.73633908669309,53.479382259326 -1.73632530070473,53.4794217673797 -1.73645909868888,53.4797231776158 -1.73649362674024,53.4797448194025 -1.73650642842137,53.479864359585 -1.73659276945331,53.4800254862157 -1.7365951522516,53.4801423069759 -1.73645029711613,53.4804026689178 -1.73645808109141,53.4806103494735 -1.73658532799387,53.4807463155619 -1.73668234248231,53.4808894041257 -1.73677396683654,53.4809400158415 -1.7368764293176,53.4809456317669 -1.73696957106309,53.4809916634492 -1.73699147168971,53.4811067310416 -1.73703178195005,53.481158038155 -1.73706938925284,53.4811841798067 -1.73714745386104,53.4812175980966 -1.7372996672182,53.4812143377421 -1.73738231621166,53.4812496525788 -1.7374015021208,53.4813215813383 -1.73744786737998,53.4813782937025 -1.73765516057824,53.4814892731624 -1.73767118003426,53.4815711694067 -1.73761798790064,53.4816546221944 -1.73761887456488,53.4817525692659 -1.73753559235754,53.4818197815706 -1.73752437823213,53.4819258798622 -1.73740642511439,53.4819939142221 -1.73740159093088,53.4820325431166 -1.73722101853532,53.4822416081337 -1.7372201089689,53.4823889741746 -1.73718368319163,53.4824329251755 -1.73697057582474,53.4825385822243 -1.7368795560309,53.4826309366818 -1.73681276038165,53.4827035759166 -1.7367241559493,53.4829074505511 -1.73656468105616,53.4830993984193 -1.73654557030638,53.4832764672704 -1.73648136093992,53.4834327700573 -1.73645530348909,53.4834875270342 -1.73638546391041,53.4835700439585 -1.73629016144405,53.4836309381337 -1.73620542764236,53.4836909575673 -1.73611597802976,53.4837896960119 -1.73612641446552,53.4840503992487 -1.73615298737308,53.4841331270907 -1.73614755133655,53.4842885712659 -1.73603501837767,53.4844429702483 -1.73596557381716,53.4847017011012 -1.73582964110447,53.4847625065758 -1.73579470777667,53.4848055617078 -1.73577248622766,53.484982534029 -1.73561029101916,53.4853705473102 -1.7356049421214,53.4855116137268 -1.73550468560129,53.4856291974151 -1.73550017345072,53.4858754008481 -1.73538165400789,53.4860324826137 -1.73539137708642,53.4861672920991 -1.73549031074327,53.4862628504367 -1.73548234528172,53.4863248352079 -1.73540751806331,53.4864891113749 -1.73538567886341,53.4866041729244 -1.73527320608549,53.4867476989535 -1.73520059852543,53.4867942653871 -1.73505247570857,53.4868758002131 -1.73482617777103,53.4871394858397 -1.73472872027568,53.4873055994699 -1.73456097284756,53.487385203206 -1.73441175312748,53.4873830770149 -1.7343031030145,53.4874106931522 -1.73423610555105,53.4875139725046 -1.73423556132542,53.4876011340746 -1.73415991407747,53.4876566799955 -1.73399814030818,53.4877344993529 -1.73399397238257,53.4879241814241 -1.73383188260973,53.4880523207769 -1.73375340902701,53.4880629305336 -1.73364196134844,53.4880608869912 -1.73357851070062,53.4880930949826 -1.73358087389939,53.4881920351519 -1.73354585105791,53.4882485686048 -1.73353784449673,53.4883168432867 -1.73341927712248,53.48847931458 -1.73312880214122,53.4886700695013 -1.73306042052149,53.48875537361 -1.73302074204168,53.4888208823222 -1.73302192925734,53.4888891773715 -1.73308966859228,53.4888866320774 -1.73309203649555,53.4890043527137 -1.73299293387504,53.4891731568773 -1.73285680202218,53.4892627129856 -1.7326908627173,53.4895275178242 -1.73259639499894,53.4896900418355 -1.73239375606234,53.4897830440134 -1.73234075790402,53.4898323490485 -1.73233597395151,53.4898817604662 -1.73235524065354,53.489920441967 -1.73235004926323,53.4900346411847 -1.73234938243706,53.4901406727821 -1.73241643949117,53.490266624246 -1.73241117962503,53.49037183756 -1.73231716165655,53.4904623855727 -1.7323135403524,53.4905639181631 -1.73206169710443,53.4908330232934 -1.73198288405881,53.4908966467704 -1.73173335431491,53.4910345628402 -1.73120189127948,53.4911870346216 -1.73106434775518,53.4912424402218 -1.73092099851601,53.4912727612117 -1.73075051423277,53.4912903511791 -1.73052739748313,53.4912988372471 -1.7303659519463,53.4913218390839 -1.73030594358289,53.4912803693877 -1.73003915226252,53.4912977423504 -1.7298012347025,53.491249492943 -1.72963882777812,53.4911889233836 -1.72951679123145,53.4911895469396 -1.72938531312469,53.491248557831 -1.72926117571928,53.4913256473793 -1.72890697847041,53.4913302408018 -1.7281202262637,53.4913311604843 -1.7276726371392,53.4913265533422 -1.72742835478443,53.4913412758105 -1.72714019964078,53.4913954366161 -1.72689857069383,53.4914613837715 -1.72662250502472,53.4914904094315 -1.72626817470029,53.4915156627615 -1.72569997623145,53.4915215570909 -1.72555526790952,53.4915113423523 -1.72527538650967,53.4914576867747 -1.72515780653283,53.4914610125948 -1.72499614692943,53.4915163552063 -1.72487390445782,53.4915295546777 -1.72450617751069,53.4915314084727 -1.72427884116176,53.4915003357407 -1.72411134760472,53.4915161254104 -1.72373128139152,53.4915620691926 -1.72339971156333,53.4915649014874 -1.72319933729166,53.4915536578996 -1.72306672541636,53.4915370879916 -1.72280754949395,53.4915293018988 -1.72271072426195,53.4915893740608 -1.72264224727967,53.4916853646404 -1.72263597876778,53.4917320775122 -1.72252998203834,53.4918073143501 -1.72240759728448,53.4918420760494 -1.722163474832,53.4918504980179 -1.72185428226598,53.4918705411635 -1.72178782987385,53.4919036347983 -1.72143006927075,53.4919773899844 -1.72142323900632,53.4921094656764 -1.72161907405179,53.4923400476857 -1.72164582379929,53.4924110985571 -1.72165603515197,53.49246503669 -1.72165251521846,53.4925280195713 -1.7216023898652,53.4925917035243 -1.72150418808184,53.4926337101461 -1.72123869878986,53.4926591533998 -1.72094344796603,53.4926369026211 -1.72069530608989,53.492556352721 -1.72051785205539,53.4924984305409 -1.72034470273371,53.4924664875264 -1.72017609589162,53.4924238612766 -1.72003803167461,53.492348058537 -1.71980522001478,53.4924499558036 -1.71965084027486,53.4925494288519 -1.71959142677961,53.4926454388286 -1.71956425664523,53.4928835917561 -1.71951871967198,53.492929313139 -1.71941751531483,53.4929551363354 -1.71928181547031,53.4929727911173 -1.7191488383069,53.4930111201366 -1.71891280002376,53.4931490410046 -1.71882027491646,53.493234189747 -1.7185815135912,53.4933324762316 -1.71815559457112,53.4934681533683 -1.71787147720591,53.4935843035499 -1.71769154846395,53.4936557680971 -1.71755369826408,53.4937723507569 -1.71725556598046,53.4939396863065 -1.71705016486853,53.4940101911396 -1.71672106732618,53.494086784239 -1.71664409298961,53.4940937918118 -1.71640450200475,53.4940914301225 -1.71607597294494,53.4940825669444 -1.7159925108932,53.4941677357787 -1.7159401870044,53.4943356475515 -1.71592724563906,53.4944498277502 -1.71589900770385,53.4946213908835 -1.71584813248334,53.4947956869249 -1.71583219710631,53.4951533767489 -1.71577677018269,53.495320473031 -1.71575682674277,53.4953662534628 -1.71566118739699,53.4954693647582 -1.7153388807486,53.4956618886797 -1.7148292396082,53.4959158790434 -1.71456004895854,53.4960447268686 -1.71401710499193,53.4963149001889 -1.7138413702901,53.4964438778743 -1.71365442772668,53.4966681699155 -1.71362176915551,53.496811865859 -1.71363290957421,53.4969476691031 -1.71366117741425,53.4970133331787 -1.71370722561337,53.497114983466 -1.71380458641164,53.4972006701726 -1.71404054723986,53.4973018733942 -1.71418623195484,53.4973911802003 -1.714212975576,53.4974433614489 -1.71413878773795,53.4977191419024 -1.71406551700521,53.4978583379391 -1.7139865793761,53.4979345303577 -1.71380650744474,53.4980419325872 -1.71336470299534,53.4982755008976 -1.71309876547284,53.4983800007946 -1.71274803623133,53.4985248246288 -1.71248357675695,53.4986122540473 -1.71229309359326,53.4986962654488 -1.71228800965405,53.4987862014993 -1.71237456484245,53.4989077183721 -1.712621513128,53.4991680900547 -1.71280292594667,53.4995442222856 -1.71280239204973,53.4996232967965 -1.71275808204798,53.4997059510938 -1.71269149500074,53.4997561128704 -1.71258730518879,53.4997792266052 -1.71243818286107,53.4997564052414 -1.71228172937425,53.4997146967194 -1.71211902943054,53.499696334886 -1.71201648242783,53.4996969881518 -1.71195010141107,53.4997165983083 -1.71184692737289,53.4998098038775 -1.71173979006679,53.5000477622476 -1.71146707520557,53.5002510872183 -1.71114202423036,53.5006017431787 -1.71101408659981,53.5007902285071 -1.71099226934997,53.5009096878858 -1.7110502913392,53.5010231389373 -1.71107056490902,53.5011310181178 -1.71104912594304,53.5011947654953 -1.7110094090154,53.5012594585658 -1.7108900519771,53.501300506683 -1.71075582665703,53.5013163576372 -1.71033705338005,53.5012632319829 -1.71020468820986,53.5012250825757 -1.70990755318179,53.5012342506326 -1.70985477820803,53.5012449058036 -1.7097082839449,53.5012733969536 -1.70959027698843,53.5013351150183 -1.70950701482808,53.5013870314502 -1.70938780476228,53.5014065125182 -1.70911494931685,53.5014094471993 -1.70889978077635,53.5013559091549 -1.70869514767511,53.5012889190027 -1.70846602583153,53.5012946537727 -1.7082575785588,53.5013489613754 -1.70809590875656,53.5013970929922 -1.70788039143087,53.5013947718891 -1.70758809970184,53.5013680030496 -1.70727905580846,53.5013555687953 -1.70707975324192,53.5013991141071 -1.70685019868382,53.5014677457351 -1.7064163981159,53.5016294209294 -1.70619588304109,53.5016845952441 -1.70606619739867,53.5016905683752 -1.70594585266563,53.5016579247615 -1.70578657880596,53.5015748649588 -1.70575542356716,53.5015144934463 -1.70573265937257,53.5013194454791 -1.70574261553644,53.5011738087768 -1.70570238779879,53.5011135049223 -1.70560757553637,53.501091706863 -1.70546730057955,53.5011012478729 -1.70533435941208,53.5011467496227 -1.70509958664888,53.5013044152789 -1.70492704327507,53.5013965457878 -1.70488440875213,53.5014503564384 -1.70472691567159,53.5015587890684 -1.70466170742176,53.5016233267205 -1.70444532732586,53.5017270311203 -1.70410533776832,53.5018385178798 -1.70392748135258,53.5018362832452 -1.70381010102207,53.5018063404018 -1.70358095844476,53.5018147614158 -1.7033047908741,53.5018464295841 -1.70330820692673,53.5019983883441 -1.70329582989099,53.5020441862159 -1.70329430758816,53.5020486748771 -1.70327746237879,53.5020935628771 -1.7032560175881,53.5021384395226 -1.70323166604186,53.5021725255689 -1.70320737501841,53.5021977159095 -1.70311925433893,53.5022855598091 -1.70298010302283,53.5023651898016 -1.70297542187595,53.5023768605014 -1.70296931690191,53.5023966136763 -1.70296917885109,53.5024163824908 -1.70296903452961,53.5024370492341 -1.70296902825285,53.5024379480617 -1.70297331445293,53.502464916753 -1.70298070926572,53.5024918922246 -1.70299258418895,53.5025180707025 -1.70299698962832,53.5025279661624 -1.70304136627835,53.5028660335738 -1.70298403959311,53.5028694864506 -1.70298234629538,53.5028982371556 -1.70221200376032,53.5029035197903 -1.70200829823395,53.5029173929984 -1.70168518155962,53.5029956674901 -1.70143897744929,53.5030606530468 -1.7013272675426,53.5030729557751 -1.70120645553095,53.5031068017237 -1.70108876364153,53.5031209760333 -1.7009320324887,53.503118789444 -1.70070742214783,53.5031001691063 -1.70046505254827,53.5030618248224 -1.70022121776245,53.5030019095456 -1.69985848197739,53.5029165374425 -1.69956361571844,53.5028313338731 -1.69952304162351,53.5028033764087 -1.69945681512277,53.5027996163807 -1.69854356324353,53.5025366498116 -1.69845750935049,53.5025418261425 -1.69826681505806,53.5024388183661 -1.69826269122772,53.502389386005 -1.69714393886852,53.5017663678461 -1.69680269043974,53.5016334153316 -1.6964806113318,53.5015490343169 -1.69631218893561,53.5014964013902 -1.69596047539651,53.5013499409578 -1.69579531995486,53.5012578671086 -1.69517145724346,53.50099920113 -1.69465740257346,53.5007857404776 -1.6938437378431,53.5005292808533 -1.69348122379901,53.5004178305927 -1.6935522525667,53.5003928512669 -1.69355293879803,53.500297602524 -1.69337126022761,53.5001883206165 -1.69298117498041,53.5001432940555 -1.69247879503767,53.4999856557884 -1.69217070959693,53.4998598738539 -1.69141397666644,53.4996413739109 -1.69096566314448,53.4995197211743 -1.69071129936715,53.4994597602318 -1.6905684046358,53.4998297001086 -1.69051560696996,53.4998430432364 -1.68984684061822,53.499766735904 -1.68918232606869,53.4997209884413 -1.68897608906294,53.4996916999788 -1.68886048785933,53.4996248161741 -1.68876771111228,53.4995302242661 -1.68873057785322,53.4994582412262 -1.68876329824706,53.4993009832598 -1.68879631378782,53.4991204522667 -1.68787897043691,53.499028215037 -1.68739952047144,53.4990359546728 -1.68705240312271,53.4990826765701 -1.68682005135835,53.499106332919 -1.6864383924201,53.4991511662258 -1.68590725673704,53.4992234629319 -1.6854515570381,53.4992797809372 -1.68492493147495,53.4993467836971 -1.68469844067809,53.4994010037479 -1.68446725821812,53.4994677902944 -1.6839847191014,53.4988867534324 -1.68366986768302,53.4990567456413 -1.68340804417819,53.4991989317613 -1.68319001270956,53.499318857002 -1.68283477435879,53.4994536065762 -1.68259310781451,53.4995257540761 -1.68230180065244,53.4995708116527 -1.68220470786909,53.4994402599381 -1.68214419277482,53.499471550441 -1.68220374784717,53.4995687554989 -1.68208553710468,53.499652999839 -1.68189058090073,53.4997279652252 -1.6812863684708,53.4998800223876 -1.6811157315059,53.4999272848244 -1.68115893575054,53.5000001853789 -1.68111016212656,53.5000566670655 -1.68062216222942,53.5002081306178 -1.68050258915559,53.5002743983442 -1.68046279339332,53.50034348376 -1.68044875956373,53.5004081443618 -1.68044939311894,53.5005222669371 -1.67900329228116,53.5005769096338 -1.67833986418307,53.5006011945221 -1.67729806806855,53.5006100820746 -1.67700734838224,53.5005760534521 -1.67698236527615,53.5004941249006 -1.67683919975552,53.5004910442428 -1.67684164989135,53.5005612299309 -1.67676277717867,53.5006194264689 -1.67457926059226,53.5007006943739 -1.67362198228497,53.5007097788101 -1.67235404419808,53.5007242996878 -1.6715036987954,53.5007282674967 -1.67010326280074,53.5007262264863 -1.66962103754786,53.5007042340362 -1.66905289349772,53.5006703206656 -1.66874277054701,53.5006227393811 -1.66836778834548,53.5005722826053 -1.66764086996879,53.5004174172797 -1.66723165710002,53.5003102466206 -1.66636815654145,53.5000750154521 -1.6656776621152,53.4998897735546 -1.66426809979116,53.4995199170268 -1.66365404474913,53.4993843010325 -1.66281883056524,53.4992075308566 -1.66138877577605,53.4989509846687 -1.66019354099745,53.4987390289903 -1.65988207193589,53.4986608641985 -1.6593134083256,53.4985252633961 -1.6588426425518,53.4983954212497 -1.65845328134587,53.498251342542 -1.65805344415967,53.4981118149163 -1.65756528804485,53.4978892712752 -1.65708614257518,53.4976749291601 -1.65663855903561,53.497477658706 -1.65601832234507,53.4971909285536 -1.65558712430776,53.4970125726018 -1.65514372185094,53.496853139477 -1.6550899928061,53.4967963723104 -1.65496499305427,53.4967771408548 -1.65494829726346,53.496797760208 -1.65429590067169,53.4965711343435 -1.65391257859767,53.4964370310905 -1.65377706013413,53.4964276526862 -1.65340714325891,53.4963114694419 -1.65327465959849,53.4962958090049 -1.65275907293333,53.4961199820422 -1.65206261479212,53.4959345513506 -1.65165507668235,53.4958147472962 -1.6512792564074,53.4956922491969 -1.65121939433306,53.4956417523333 -1.65087181995734,53.4955607611264 -1.65064013854811,53.4955178486328 -1.65031378361488,53.4954260443033 -1.64999667185989,53.4953136875559 -1.64976209175648,53.495245604732 -1.64929138691473,53.4951012543898 -1.64828940946266,53.494879047573 -1.64797637334012,53.4948161215437 -1.64755043647392,53.4947446836746 -1.64693908061671,53.4946727870496 -1.6463473730216,53.494584769504 -1.64509331380948,53.4944012375821 -1.64439153238599,53.4943245657235 -1.643806888368,53.4942994601049 -1.64309569648588,53.4942784660294 -1.64260746911196,53.4942563374446 -1.6417324912098,53.4941602607501 -1.64126140383285,53.4940805778943 -1.64077854467551,53.4939676986288 -1.6403651924473,53.4938360669728 -1.63967988234657,53.4935922756981 -1.6392996717848,53.4934661317245 -1.63898697059797,53.4933663395264 -1.63796842192873,53.4931457028721 -1.63730475819517,53.4930187828073 -1.63634330841763,53.4928225687485 -1.63538176666841,53.4926381182032 -1.63477822745377,53.492530147616 -1.63435081366446,53.4924623433523 -1.63391576743206,53.4924008035225 -1.633832964151,53.4923906648219 -1.63355882498969,53.4923610682899 -1.63328326497032,53.4923377570276 -1.63308143638185,53.4923245565284 -1.63282528667698,53.4923129864068 -1.63269723440346,53.4923045046122 -1.63136336103335,53.4922967998153 -1.63122929061515,53.492294589031 -1.63014116043651,53.4922804400971 -1.62973728697001,53.4922791885238 -1.62888418748859,53.4922756423796 -1.62757273620128,53.4922904303092 -1.62645896839695,53.4922806613188 -1.62591046395824,53.4922627692196 -1.62557626514392,53.4922238903567 -1.62444675704079,53.4921250906857 -1.62424738112935,53.492341118087 -1.62413908352373,53.4924881490557 -1.62409261805429,53.4926273773662 -1.62399287040252,53.4928193658251 -1.62391938337263,53.4929504209813 -1.62384191733821,53.4930256601615 -1.6237618437718,53.4930442787012 -1.62365326027284,53.493054719346 -1.62357163232234,53.4930805219895 -1.62350457909976,53.4931584894721 -1.62350812931738,53.4932628293363 -1.62348970485558,53.4933085999268 -1.62341650406306,53.4934072164977 -1.62335208202941,53.4935248204894 -1.62327537255711,53.4936827339737 -1.62326516179327,53.4938112926121 -1.6231833888915,53.4938532696232 -1.62315589018126,53.4938990115253 -1.62312064578732,53.4939635997655 -1.62302068036602,53.4940109106466 -1.62297530548256,53.4940404218829 -1.62291697806484,53.4939890167512 -1.62285767894939,53.4940472386924 -1.62283475835919,53.4940813142167 -1.62275674013824,53.4942042663336 -1.62268806544153,53.4942966064833 -1.62259838022886,53.4943897781624 -1.62254214192949,53.4944391135431 -1.62249804563853,53.4944785134654 -1.62248559977413,53.4945225059603 -1.62250748433242,53.4946052465201 -1.62246798653401,53.4946446609664 -1.62237832805765,53.4947207586066 -1.62234446648553,53.4947971234289 -1.62233182244189,53.4948635806299 -1.62231484682613,53.4949138490415 -1.62224228534112,53.4949396794491 -1.62205699783929,53.495091946209 -1.62195062502718,53.4951886591443 -1.62176519158407,53.4953571000741 -1.62175884219308,53.4954002129314 -1.62175837080276,53.4954532301298 -1.62168069934738,53.4955365543336 -1.62160915059074,53.4956163042216 -1.62160515173833,53.4957305041128 -1.62160911390428,53.4957880278861 -1.62156980602542,53.4958058752513 -1.62154690743902,53.4958372539945 -1.62153909898448,53.4958767685487 -1.62151620034502,53.4959081463868 -1.62148431704073,53.4959296127164 -1.62139199898795,53.4959688584752 -1.62129965445233,53.496010890562 -1.62125395263348,53.4960628645515 -1.62122357292793,53.4960969152035 -1.62119148129373,53.4961417441076 -1.62114743150983,53.496175751378 -1.62102324037941,53.4962490427382 -1.62093063863624,53.4963198293307 -1.62085502032508,53.4963537362852 -1.62077046197425,53.4963588591957 -1.62067393146328,53.4963684374486 -1.62063447841013,53.4964024591301 -1.62058585644321,53.4964472353586 -1.62049211631779,53.4964783888107 -1.62038624968095,53.4965175907364 -1.62037244658831,53.4965463024667 -1.62041574033582,53.4965832827819 -1.62039449563827,53.4966102639157 -1.62035049133968,53.4966388796406 -1.62030057054047,53.4966620842442 -1.62024297146236,53.4966960481005 -1.6201900802749,53.4967039678919 -1.62013271375854,53.4967118725259 -1.62008414708619,53.4967503584645 -1.62009412476116,53.4968159885104 -1.62017330840395,53.4968980137671 -1.61996054714952,53.4972578583476 -1.6198677510267,53.4973501200836 -1.61980509049733,53.4974496659149 -1.61972442845531,53.4975329793102 -1.61967990926803,53.4976191942383 -1.61952651148722,53.4977472065285 -1.61935526733874,53.4978553920956 -1.619284878613,53.497971177985 -1.61923702376707,53.4982631629428 -1.61912004851461,53.4985288675457 -1.61899288320949,53.4987665937956 -1.61899134407837,53.498771980279 -1.61895583101533,53.4990316543045 -1.61894072427216,53.499372268813 -1.61894360939566,53.4993830608048 -1.61897357191498,53.49957644746 -1.61953458220773,53.5007216246703 -1.61955855938878,53.5007369772616 -1.6196590149073,53.5008037943489 -1.61977136451809,53.5010558513459 -1.61995108611383,53.5013494596308 -1.62044643365145,53.5020997550974 -1.62062586309922,53.5024409868218 -1.6208752108648,53.5025388281329 -1.62125311211726,53.5025922368023 -1.62173204585179,53.5026485692214 -1.62220776591873,53.5027309494357 -1.62222277493779,53.5027345914715 -1.62244388962471,53.5027928018343 -1.6222712630855,53.5030412603468 -1.62211947757681,53.5031683821062 -1.62193627446088,53.503417704625 -1.62165719514577,53.5037826443292 -1.62145692633169,53.5040912209038 -1.62135385128142,53.5043174322583 -1.62132737226063,53.5044152966584 -1.62133574174673,53.5044944906717 -1.62163993617381,53.5045349930766 -1.6221566197267,53.504584255112 -1.62243219701016,53.5046138821848 -1.62285255024265,53.5046484584063 -1.62340713253161,53.5046717757282 -1.62376036540275,53.5048041753184 -1.62390435691467,53.5048837064132 -1.62389479917953,53.5049384908528 -1.62386523866488,53.5050480277329 -1.62379179503544,53.505171894501 -1.62358875241415,53.5054436222848 -1.6232832158453,53.5059046328674 -1.6229552960384,53.5063233370594 -1.62272706336816,53.5067289666839 -1.62264798564378,53.5069686443313 -1.62260709599001,53.5071636027637 -1.62261855662454,53.5072310348927 -1.62270916716573,53.5073868695529 -1.62284131532735,53.5074430012031 -1.62311931820599,53.5075517109593 -1.62342009155811,53.5076444075925 -1.62362762334547,53.507695383742 -1.62387941841533,53.5077033660506 -1.62407387762712,53.5077003837098 -1.62425949009678,53.5076856915881 -1.62443160644896,53.5076646664918 -1.62452198786851,53.5076784291237 -1.62452347902133,53.5076784338115 -1.62463955668435,53.5076823932274 -1.6245785259416,53.5077657714684 -1.62454675453338,53.5079427873069 -1.6245160771556,53.5079957085475 -1.62441625298043,53.508037629591 -1.62430443501402,53.5080579454886 -1.62420924432735,53.5080819081538 -1.62409738446421,53.5081210953698 -1.62388403380992,53.5082075883191 -1.62351623893183,53.5083547896989 -1.62309757012012,53.5084765785395 -1.62270103331127,53.508639860861 -1.62236359677436,53.5087834701499 -1.62208465030583,53.5089480210343 -1.62183448373924,53.5091053842997 -1.62177527385425,53.5091510262831 -1.62166960864799,53.5091641700963 -1.62143761617517,53.5093046060754 -1.62114169728416,53.5095176261459 -1.62084446778529,53.5097098838722 -1.62081321473521,53.5098266926715 -1.62081180430407,53.5099848432589 -1.62081561117181,53.5102410476642 -1.62074048590699,53.5103702086642 -1.62032051812,53.5111356554747 -1.61946570888249,53.5126421443323 -1.61930788484231,53.512911224103 -1.6192711250349,53.5129758961268 -1.61916603247694,53.513603866631 -1.61910970752275,53.5141591153539 -1.61904416309794,53.5147440788892 -1.61891825193785,53.5158349438532 -1.61890890555133,53.515878945744 -1.61894272477088,53.5159761029523 -1.61905802169804,53.5162362573041 -1.61914659486493,53.5164397150587 -1.61898944062325,53.5164796511421 -1.61875813455079,53.5167045530425 -1.6186608237315,53.5167959004419 -1.61849512394002,53.5169427427276 -1.61840091671812,53.5170207103261 -1.61831784330504,53.5170357211432 -1.61821061597019,53.5170542492759 -1.61807296451044,53.5170960439887 -1.6176478428443,53.5172465472153 -1.61749043367635,53.5173143377548 -1.61723194822962,53.5173800953901 -1.61705665884142,53.5174172748057 -1.61679354299186,53.5175000015425 -1.61652814543145,53.5176564953948 -1.61647324196569,53.5177326998914 -1.61648459835862,53.5178109149164 -1.61652581079057,53.5179152856398 -1.6164799813806,53.5179781307221 -1.61639349926273,53.5180398564453 -1.61628733174389,53.5181060122607 -1.61627192033467,53.5181463998522 -1.61624273450178,53.518197526824 -1.61616250469573,53.51822782128 -1.61602473489849,53.5182957619802 -1.61598347203122,53.5183486477746 -1.6159347469084,53.5184015086538 -1.61587090208568,53.5184624079371 -1.61564929637898,53.5186154461087 -1.61556569218512,53.5186888629949 -1.61549081409763,53.5188009473064 -1.61550671824686,53.5188710899886 -1.615451995807,53.5189132375895 -1.61535639365648,53.5189794265846 -1.61528807910196,53.519039413185 -1.61523035766599,53.5190832588577 -1.61516084909413,53.5190965141923 -1.61511193494234,53.5191700416505 -1.61510225447264,53.5192365972472 -1.61505674785755,53.5192634083224 -1.61494148135355,53.5193313313066 -1.61483590938885,53.5193309908143 -1.61475009148013,53.5193190314549 -1.61468061646628,53.5193286920677 -1.61461831853829,53.5193833063191 -1.61456778781394,53.5194703076646 -1.61450716712539,53.5194907795043 -1.6144236236261,53.5195570965562 -1.61436568184692,53.519638682507 -1.61433195787694,53.5196960845706 -1.61423047127895,53.5197388895242 -1.61414422036462,53.5197745554268 -1.61401718095738,53.5198100885247 -1.61359746189663,53.520196209695 -1.61334512744148,53.5202394245013 -1.61329192056655,53.5202922697604 -1.61324935548575,53.5203235830737 -1.61321607254377,53.5203324611872 -1.61321005408674,53.5203378330645 -1.61318277989937,53.5203422381216 -1.61315115460039,53.520346628177 -1.61312232336953,53.5203582172721 -1.61304968161523,53.5203876353363 -1.61285754189075,53.5204571938489 -1.61270787564531,53.5204917542162 -1.61261056930693,53.5205803998028 -1.61257784386912,53.5206917210147 -1.61259817108379,53.5207808389907 -1.61253814039558,53.5209136370821 -1.61248404604313,53.5210500498521 -1.61240368517851,53.5211073889705 -1.61230639914115,53.5211798602458 -1.61217757688205,53.5212468376429 -1.61195824188115,53.5213252023863 -1.61190489853183,53.5213789445301 -1.61185615580807,53.5214327923896 -1.61173863231481,53.521419829832 -1.61166499547584,53.5213944294337 -1.61160032206192,53.5213680702983 -1.6113541343942,53.5215677477092 -1.61128890985419,53.5216151615667 -1.61117665532926,53.5216785963618 -1.61116105756092,53.5217388420933 -1.61107460114337,53.5217960714663 -1.61086058913228,53.5219445420309 -1.61077864278395,53.5219981913377 -1.61079029192346,53.5220432496818 -1.61076710780999,53.5221033807413 -1.61073031138881,53.5221697567509 -1.6107066003341,53.5222873970257 -1.61065745483939,53.5225479218466 -1.61062915075518,53.5226782165703 -1.61051654654077,53.5227793918702 -1.610419286507,53.5228617464342 -1.61037027739255,53.5229442574812 -1.61027915868957,53.5230078511616 -1.61013973964805,53.5230765885562 -1.60995194643659,53.523158647093 -1.60982491133509,53.5232058572961 -1.60973238289939,53.5232603701459 -1.60970611870504,53.523316986255 -1.60970952389806,53.5234472944969 -1.60968326177225,53.5235173000407 -1.6096390835242,53.5235611872238 -1.60956514703618,53.5235681345663 -1.60942642697369,53.5235604917819 -1.60929211749856,53.5235600523603 -1.60916537037746,53.5235759024333 -1.60909527397444,53.5236520545813 -1.60907764314578,53.523757133039 -1.60908297624031,53.5238398223443 -1.60912461345301,53.5238966606099 -1.60919790576837,53.5239732812387 -1.60936883867903,53.5240753831248 -1.60953251041187,53.5241558946489 -1.60980303501862,53.5242611062395 -1.6102454312399,53.5243802687232 -1.61070314049345,53.5244707240404 -1.61109781376419,53.5245323058271 -1.61183313035486,53.524620965048 -1.61218414728147,53.5246697318694 -1.61254754673722,53.5246834921506 -1.61272228631653,53.524696639531 -1.61290897754052,53.524735884287 -1.61307890771964,53.5247993373936 -1.61320921048718,53.5248986963315 -1.61341223762741,53.5251383826141 -1.61354936679262,53.5253078535868 -1.61379946891101,53.5255136336108 -1.61394299118534,53.5256506844064 -1.6140582766123,53.525747207788 -1.61414514442858,53.5258230599005 -1.61422147236052,53.5258817160257 -1.61433399408636,53.5259539673607 -1.61443450773842,53.5260064103623 -1.61455037377178,53.5260391342887 -1.61464221105591,53.5260609969746 -1.6147506449334,53.5260766229415 -1.61491486401568,53.5260987189283 -1.61511835766301,53.5261237277431 -1.61538057885913,53.5261461389387 -1.61577275011713,53.5261429081547 -1.61612268061727,53.5261485270521 -1.61638810861991,53.5261601627653 -1.61668960395237,53.5261719145744 -1.61699885084707,53.5261791971059 -1.61711642159046,53.5261885600267 -1.61725037971746,53.5262150491225 -1.61752322591704,53.5262455766555 -1.61771447016981,53.5262776400438 -1.61787266078689,53.5262925244888 -1.6179886029727,53.5263171573788 -1.61815874108457,53.5263590372321 -1.61823680294521,53.5263916362424 -1.61830432819102,53.5264341751057 -1.61834164961701,53.5264747309169 -1.61835044485577,53.526506209901 -1.61835592724922,53.5265745205903 -1.61834841197616,53.5267326501685 -1.61831230124855,53.5268898795995 -1.61827627023166,53.5270380335431 -1.61830107514458,53.527128960811 -1.61834407023409,53.5272162616517 -1.61841610851307,53.5272551312581 -1.61848987536537,53.5272814250524 -1.61858336248353,53.5272862163024 -1.61867087494698,53.5272775092248 -1.6187660891192,53.5272562462424 -1.61893848085817,53.5272136626546 -1.61919723864323,53.5271237269019 -1.61958475501254,53.526974803622 -1.61969092339134,53.5269104423768 -1.61980285283565,53.5268694623509 -1.62000384757515,53.526826968194 -1.62023803213811,53.5267863758278 -1.62040565131191,53.5267626456594 -1.6205719255238,53.5267361245579 -1.62066850104923,53.5267292425246 -1.62078027677953,53.5267053339686 -1.62086035902409,53.5266930073148 -1.62091621650294,53.5266913874238 -1.62106087131868,53.526704425798 -1.62148588734342,53.5267426126967 -1.62187161487243,53.5267933441546 -1.62226319865007,53.5268709612587 -1.62237769564941,53.5268767138128 -1.6224425701692,53.5268823106537 -1.62248923697166,53.5268932404477 -1.62255983307164,53.5269267115496 -1.62266192857425,53.5269845427751 -1.62271297686464,53.5270062697944 -1.62283798720251,53.5270327231877 -1.62296619005235,53.5270358226816 -1.62311867949352,53.527021026889 -1.62324253491793,53.5269953572895 -1.62340118181461,53.5269733924244 -1.62353161560862,53.5272299910355 -1.62359524988493,53.5273757634105 -1.6237104231198,53.5276565754654 -1.62387947237117,53.5281461210308 -1.62397167962924,53.5284646013616 -1.62404579866332,53.5287893158138 -1.62411528613514,53.5291176092144 -1.62418776095315,53.5296284168098 -1.62423042095228,53.5299242771845 -1.62424026545825,53.5299926007699 -1.62429721479994,53.5302057452922 -1.62436023614595,53.5304216943136 -1.62446022900532,53.5307186329689 -1.62454692447482,53.5309723967911 -1.62471097664254,53.5313683801744 -1.6248988637611,53.5317842069733 -1.62507503660002,53.5321605480392 -1.62517295059648,53.5323558482177 -1.6252754611144,53.5325377733992 -1.62539433404758,53.5327404176303 -1.62558614556626,53.5330511194909 -1.6258005801182,53.5333780661916 -1.62599277884152,53.5336455453216 -1.62617621678732,53.5338915157217 -1.62637920183821,53.5341501265067 -1.62654935416823,53.5343511261163 -1.62687818032458,53.5347152589774 -1.62707992687373,53.5349315422623 -1.62730120958339,53.5351614534593 -1.62762583838176,53.5354806419702 -1.62770367419362,53.5355563627979 -1.62795974946532,53.5357773947136 -1.6279971602074,53.5358098591925 -1.62847026274862,53.5362230457726 -1.62879979348597,53.5365098077456 -1.62927746111608,53.5369292942987 -1.62996454696511,53.5375596868983 -1.63027408528763,53.537529189726 -1.63057765755179,53.5374977746209 -1.63060251427625,53.5375868089106 -1.63064202623192,53.5377217144942 -1.6306993974713,53.5378918088356 -1.63073472895307,53.5379925562888 -1.63078370303576,53.5380979277946 -1.63086679712216,53.5382572279671 -1.63090534708676,53.5383310287453 -1.63101267791724,53.538478811993 -1.63103445692109,53.5385786188781 -1.631084841544,53.5386937898221 -1.63114869941785,53.5388045978432 -1.63119067246116,53.538842466137 -1.63119814398235,53.5388559677232 -1.63120690786784,53.5388784587546 -1.63123780675284,53.5389738012331 -1.63124948626876,53.5390187644542 -1.63125540265127,53.5390395398929 -1.63124406724342,53.539127564124 -1.63125834297202,53.5392174636081 -1.63126379466536,53.5392776840371 -1.63127076991028,53.5393487812348 -1.63127073106949,53.5393532743059 -1.63127192041883,53.5393883219586 -1.63127188935558,53.5393919153369 -1.6312702572561,53.5394080845602 -1.63126704591741,53.539434133242 -1.63124549974426,53.5394798934219 -1.63123778726946,53.5394942472698 -1.63121947514103,53.5395256407701 -1.63119959357859,53.5395516383481 -1.63114016572263,53.5396188477169 -1.63113262354188,53.5396278100744 -1.63111281181699,53.5396457202933 -1.63109303892776,53.5396591383367 -1.63095814661889,53.5397342936548 -1.63096405662183,53.5397415005304 -1.63105221701935,53.5398478008821 -1.63127672192528,53.5400561465692 -1.63146071265463,53.5402454079839 -1.63150690750351,53.5403130308637 -1.63182413128282,53.5406196023031 -1.63231643593122,53.5410965353277 -1.632612661723,53.5414012422504 -1.63279961016181,53.5415950921221 -1.6331005656152,53.5415096585763 -1.63324562468623,53.5414966218931 -1.63345096195738,53.5414765807412 -1.63344116083495,53.541560206313 -1.63342540490289,53.5416419271435 -1.63337244667173,53.5418394485948 -1.63335049307129,53.5419329214372 -1.63340093418355,53.5420283216774 -1.63343675365573,53.5420733585233 -1.63344688296368,53.5421255049303 -1.63350661639033,53.5422111390898 -1.63351853730893,53.5422282473241 -1.63351332595663,53.5422992175075 -1.63351177039745,53.5423064005395 -1.63351174726649,53.5423090968925 -1.63350380398098,53.5423504052939 -1.6334976309701,53.5423737492181 -1.63348985724227,53.5423952906546 -1.63346999183596,53.5424338681426 -1.63350465849736,53.5424393646987 -1.63354683489877,53.542439493048 -1.6335891842929,53.5424342308596 -1.63361628384358,53.5424370088348 -1.63365095052682,53.5424425053485 -1.63368263091029,53.5424479936672 -1.63371119976161,53.5424534716147 -1.63374282624625,53.5424652487113 -1.63380160624539,53.5424735149388 -1.63381962469727,53.5424762652532 -1.63387653273836,53.54252864373 -1.63390643592845,53.5425673725855 -1.63393464302468,53.5426150816583 -1.63392975625302,53.5426626892323 -1.63392825614776,53.54266358348 -1.63391454074925,53.5426815125491 -1.63390980587754,53.5426967742915 -1.63391434825686,53.5427039758653 -1.63392633106905,53.5427138964795 -1.63394727435812,53.5427238443292 -1.63401821464548,53.5427213644146 -1.63409811600478,53.5427332881143 -1.6341387254737,53.5427567742015 -1.6341595617425,53.5427936778301 -1.63417723953952,53.5428360527896 -1.63418442056553,53.5428836979278 -1.63419300256699,53.5429277529888 -1.6342319414177,53.5429719002529 -1.6342466045189,53.543017771394 -1.63430210677715,53.5430601713223 -1.63439516285294,53.5431197580883 -1.63449275101018,53.5431731585607 -1.63459060376286,53.5432102967305 -1.634701831577,53.5432546631547 -1.63473184208961,53.5432808115114 -1.63476014427985,53.5433177385728 -1.6348400392977,53.5433305605603 -1.63490798798704,53.5433289688214 -1.63496970199997,53.5433435330803 -1.63502668244575,53.5433877346339 -1.63506098932901,53.543435460939 -1.63505919678532,53.543470588999 -1.63508294230234,53.5435164874991 -1.6351369833155,53.5435409117254 -1.63517615388475,53.5435581022521 -1.63518038716113,53.5435868688175 -1.63518906338291,53.5436345183958 -1.63521735852032,53.5436723431687 -1.63525953097006,53.5436877460369 -1.63531688185189,53.5436888183928 -1.63537114411262,53.5436871849545 -1.63538613947682,53.5437087963071 -1.63538555589284,53.543777174017 -1.63538945191654,53.5438454753973 -1.63539965305481,53.5438895352397 -1.63549128746987,53.5439410300549 -1.6355648803233,53.5439780929233 -1.63563524932852,53.5440430009405 -1.63567117936783,53.5440755475169 -1.63565299920061,53.544091666599 -1.63562724419408,53.5440915887386 -1.63557160243767,53.5440797396071 -1.63553548849827,53.544068757531 -1.63550961774478,53.5440822476921 -1.63550489355563,53.5441109871533 -1.63555294589423,53.5441371897913 -1.63560875895443,53.5441436484023 -1.6356449427172,53.5441464533173 -1.6356568052304,53.5441707506861 -1.63565947596183,53.5442075990772 -1.63568194463722,53.5442283332751 -1.63574829500701,53.5442393168099 -1.63579188558001,53.5442637091502 -1.63584732850078,53.5442989202774 -1.63587695750429,53.5443699958019 -1.63591695340028,53.5444510758009 -1.63598587719259,53.5445105881914 -1.63611948066623,53.5446017450995 -1.63621843901446,53.5446703334024 -1.63627385279817,53.5447236048729 -1.6363019048383,53.5447901823881 -1.63636189325595,53.5448469720698 -1.63642789011215,53.5448849102854 -1.63644581174197,53.544913718087 -1.63643037189103,53.5449442219727 -1.63640137890557,53.5449881634846 -1.63637818980053,53.5450519807462 -1.63642896408623,53.5451096413994 -1.63642577113067,53.5451338923724 -1.63645117363482,53.545160925123 -1.63655496588254,53.5452025715901 -1.63658324178946,53.545257468809 -1.63658266086579,53.5453257566296 -1.63661549010872,53.5453573947543 -1.63662723269483,53.5454104444994 -1.63657828861144,53.545474094266 -1.63655828698236,53.5455288450135 -1.63656210859175,53.5456061323799 -1.63657699678988,53.5456259447369 -1.63662517598777,53.5456522380936 -1.63665060185415,53.5456765753464 -1.63663836385497,53.5456963068173 -1.6366094302585,53.5457186834748 -1.6365835534037,53.545747359194 -1.63658330880595,53.545776111296 -1.63658275079424,53.5458417045562 -1.63659223436719,53.5459703155936 -1.63662187342599,53.5460404912323 -1.63667253458623,53.5461116299384 -1.63673540195136,53.5461666304784 -1.63673062486709,53.5462016596687 -1.63670628004615,53.5462258468937 -1.6366771069472,53.546276167654 -1.63665853796196,53.5463381113885 -1.63665800298893,53.546401008291 -1.63668326119551,53.5464451133885 -1.63673735419003,53.5464785232972 -1.63679767868408,53.5464814006101 -1.63679270911133,53.5465245157875 -1.63675919807638,53.546572936898 -1.63667685550088,53.5466716186077 -1.63661276918663,53.5467451069145 -1.63662159287339,53.5467756839646 -1.63668016539596,53.546809107401 -1.63673415952757,53.5468541970062 -1.63675306819508,53.5469280253686 -1.63675082534648,53.5470160765212 -1.63670663686789,53.5470617690148 -1.63665789116334,53.547116434026 -1.63663650329461,53.5471586008931 -1.63666171456322,53.5472080968908 -1.63667641153496,53.5472504633122 -1.63666518568191,53.5473268064874 -1.63665181606703,53.5474795193112 -1.63664169211996,53.5476017813504 -1.63669426341211,53.5476387801111 -1.63671538550147,53.5476424381017 -1.63673591772577,53.547700906247 -1.63678073758745,53.5477567511575 -1.63671104476528,53.5477870915708 -1.63666258101626,53.5478085105657 -1.63661113053909,53.5478299205366 -1.63660351791129,53.5478325931076 -1.63656865457386,53.5478496507111 -1.63651255651706,53.5478908149833 -1.63645786542544,53.5479274903375 -1.63645785777609,53.5479283891212 -1.63643810579727,53.5479391116329 -1.63642599856295,53.5479435682494 -1.63635935291804,53.5479811063061 -1.6363003353018,53.5479997977928 -1.63616757813863,53.5479832231139 -1.63610727300733,53.5479776500259 -1.63605596135823,53.5479828861492 -1.63600729797745,53.5480276669617 -1.63595276708892,53.5480454730194 -1.63587274036402,53.5480470280052 -1.63578515571161,53.5480593430855 -1.63576504338308,53.5481122975317 -1.63572975955314,53.5481787727147 -1.63566030135756,53.5481812592036 -1.6355706564897,53.548260059829 -1.63552635658495,53.548318332145 -1.63546142498994,53.5483154402644 -1.63540915560591,53.5482577747151 -1.63519419241035,53.5481627765491 -1.63508581351413,53.5481183296477 -1.63501202196958,53.5481037298045 -1.634919895346,53.548108841841 -1.63484262479469,53.5481518277811 -1.63463770232915,53.5482796988556 -1.63457694486765,53.5483271378142 -1.63451937238271,53.5483512237206 -1.63443481945115,53.5483581557752 -1.63438154377816,53.5484181970435 -1.63435993461458,53.5484712356484 -1.63433977413479,53.5485295798099 -1.63432749574783,53.5485538040251 -1.63427473515091,53.5485536438295 -1.63422185079897,53.5485534832348 -1.63418987333602,53.5485821389472 -1.63416390839533,53.5486206979911 -1.63416824365499,53.5486521604093 -1.63414387841115,53.5486637672937 -1.63407890069385,53.5486806427364 -1.63398223010541,53.5486929287003 -1.63390785969788,53.5487313405781 -1.63386377388098,53.5487789188297 -1.6338468072868,53.548813012922 -1.63376538646358,53.5488028811921 -1.63370971586388,53.5487937265278 -1.63367154041838,53.5488340450445 -1.63362769393083,53.5488536791348 -1.63356261357539,53.5488678584639 -1.63348849111601,53.5488918935222 -1.63340831605966,53.5489105190693 -1.63336293631765,53.5489202651162 -1.63333132858675,53.5489201688951 -1.63330580204676,53.5488931350651 -1.63325005427411,53.5488929653239 -1.6331970614688,53.5489053836473 -1.63315614591405,53.5489313163415 -1.63313914010098,53.5489699024513 -1.63310723876444,53.548989573634 -1.63303776530222,53.5490082315323 -1.6330089587546,53.549015331519 -1.63300574035949,53.5490422787264 -1.63303276691327,53.5490540419686 -1.6330660312404,53.54904965018 -1.63309776282434,53.5490497468483 -1.63312328905812,53.5490624043063 -1.6331352194564,53.5490786146752 -1.63309743013803,53.5490884736226 -1.63304904020262,53.5491009059024 -1.63302004829372,53.5491295712976 -1.63300464322796,53.5491699589797 -1.63300417997252,53.5492238706961 -1.63295415822123,53.5492524719937 -1.63289813948213,53.5492693732002 -1.63285713824814,53.5492908132945 -1.63283284967957,53.5493078120881 -1.63282057171603,53.5493320352509 -1.63279187321309,53.5493409331286 -1.63271492332651,53.5493317131243 -1.63264084594005,53.5493503567532 -1.63259237827388,53.5493717739834 -1.63256357146333,53.5493932520747 -1.63255571013716,53.5494247672217 -1.63252387004381,53.5494372488803 -1.63244537175874,53.5494343138287 -1.63238945312427,53.5494539115235 -1.63230290991392,53.5495039661445 -1.63222579730952,53.549527991294 -1.63208817030763,53.5495563246902 -1.63199006643415,53.5495614160141 -1.63192239409493,53.5495297599698 -1.63186525993031,53.5495026292333 -1.63179741734961,53.5494907409544 -1.63173997340594,53.5494995506978 -1.6316582725477,53.5495361411533 -1.63157319769777,53.5495888952607 -1.63151552098729,53.5496246611987 -1.63142640026497,53.5496414604377 -1.63129648650868,53.5496554401139 -1.63125552288168,53.5496723866407 -1.63121460689141,53.54969831957 -1.6312188528117,53.549725378567 -1.63126263263755,53.549728209032 -1.63132761274404,53.5497257115372 -1.63137724061188,53.5497429362762 -1.63135590073784,53.5497644360322 -1.63135562927093,53.5497958844513 -1.63138397787508,53.5498274204678 -1.63137168341118,53.5498534410455 -1.63128232790082,53.5498971964726 -1.63121255767331,53.549935620762 -1.63117155493585,53.5499570602755 -1.63111580577033,53.549956889539 -1.6310629817798,53.5499495390804 -1.63097363502207,53.5499923954977 -1.630892063554,53.5499993341914 -1.63083174991748,53.5499946561987 -1.63079412994188,53.5499702802872 -1.63077526062153,53.5498929475259 -1.63076350031016,53.5498569690861 -1.63070287513346,53.5498738560436 -1.63063327481315,53.5499068885754 -1.630584681731,53.5499283046098 -1.63047001069169,53.5499351414859 -1.63033717180502,53.5499275451764 -1.63027990668727,53.5499300649189 -1.63024314957189,53.5499784741632 -1.6301777706517,53.5500412618078 -1.63014112302994,53.5500914680716 -1.63007891820931,53.5501326104566 -1.63002721319014,53.550168393122 -1.62987153778039,53.5501966685297 -1.62970242299933,53.550210525101 -1.62959202107936,53.5502272584422 -1.62951923853213,53.5502683680016 -1.62949019570544,53.5503167997897 -1.62942505007142,53.5503382551856 -1.62943672363944,53.5503841167162 -1.62940774301129,53.5504253609254 -1.62934262135133,53.5504440300523 -1.62923368691737,53.5504778394776 -1.62909589095961,53.5505250384147 -1.62906810752339,53.5506004309607 -1.62905702085042,53.5506588919918 -1.62902338169238,53.5507064116017 -1.62888327720833,53.5506754295533 -1.62878384019172,53.5506616446118 -1.6287078673725,53.550711729161 -1.62869822703903,53.5507898730712 -1.62865554981028,53.5508319736764 -1.62862658500467,53.5508570437353 -1.62860362268443,53.550907290769 -1.62853200318474,53.5509862322053 -1.62843181633329,53.5510443293455 -1.62831805728043,53.5511032824239 -1.62818160873871,53.5511810348751 -1.62807284516515,53.5511950754403 -1.62793523979447,53.5512198097806 -1.6277843144065,53.5512166479084 -1.62766191443513,53.551238733409 -1.62750604628807,53.5512742836465 -1.62730296333735,53.5513724952255 -1.62713808731238,53.5514133182646 -1.62690645864344,53.5515024554305 -1.62679722301818,53.5515560300424 -1.62669281907422,53.5515836512363 -1.62643457139393,53.5515999232827 -1.6262172217793,53.5516073354532 -1.62601925922362,53.5516318802492 -1.62586803972608,53.5516619609756 -1.62575006353352,53.5516903481092 -1.62559926118839,53.5516728074675 -1.6254303913778,53.5516579050621 -1.62531286432464,53.5516350756124 -1.62525096012441,53.5516411728409 -1.6252172449334,53.551696778603 -1.62517894593831,53.5517640500702 -1.62512292078009,53.5517809485034 -1.6250322539117,53.5517887527957 -1.62491906179486,53.551796487765 -1.62486721621408,53.5518475429306 -1.62484861088421,53.5519113720902 -1.62478606771909,53.5519758723872 -1.62467675601918,53.5520519086836 -1.62454017132945,53.552144033865 -1.62443507688864,53.5522498245711 -1.62433922558074,53.5523375834143 -1.62441730304907,53.5523746671882 -1.62443347251093,53.552432225003 -1.6246322625477,53.5524840614185 -1.62445300027159,53.5526174767279 -1.62419920150718,53.5526364524553 -1.62387167957844,53.5526327344606 -1.62368453547802,53.5526294543026 -1.6235725088411,53.5526740318942 -1.6234271802062,53.552713113317 -1.62328500022325,53.5527477121818 -1.6231685041117,53.5527770002112 -1.62296791408383,53.5529292151931 -1.62282986183255,53.5530177395055 -1.62267195758866,53.5531133892088 -1.62255863362638,53.5531355878173 -1.62252254709586,53.5531210075334 -1.62245635304264,53.5530911484302 -1.62227348812186,53.5531103433365 -1.62205286231614,53.5531492767761 -1.62183670589522,53.5531755542784 -1.62171551282741,53.5532290867113 -1.62160625458632,53.5532979317269 -1.62157225454236,53.5533849838803 -1.62158771457476,53.5535082236731 -1.62162008220207,53.5536053685303 -1.62166933642361,53.5536648273753 -1.62177299970607,53.5537217615762 -1.62190080679938,53.5537788613718 -1.62201359552139,53.5538313317812 -1.62205402796202,53.5538611102775 -1.62199645825796,53.5538833934392 -1.62183785637049,53.553902663841 -1.62166396774464,53.5539335668871 -1.6214766587573,53.5539482534914 -1.62130624719562,53.553937833571 -1.62125616793068,53.5539574444133 -1.62124821465778,53.5540122303671 -1.62122221068427,53.5540534819556 -1.62122189897833,53.5540886143894 -1.62132060680627,53.5541850691544 -1.62138651488363,53.5542472768925 -1.62134830311242,53.5543037653275 -1.62124830734918,53.5543384935099 -1.62115300931043,53.554362455214 -1.62106949710628,53.5544188909235 -1.62100695808357,53.5544959689372 -1.62091449511516,53.5545370112876 -1.62086879527788,53.55458179512 -1.62078558636085,53.5546039960808 -1.62072621730709,53.5546604176923 -1.62064235111544,53.5547563886488 -1.62058921003001,53.5547840761211 -1.62052257296168,53.5548180108849 -1.62047994744912,53.5548529200909 -1.62046734775899,53.5549121844734 -1.62047443698214,53.5549688153874 -1.62050722569022,53.5550184285214 -1.62044963611677,53.5550425075899 -1.62040698634979,53.5550801122106 -1.62040657088457,53.5551268362061 -1.62044390589574,53.5551691851589 -1.62049349575782,53.5551909064838 -1.62056448717667,53.5551992176314 -1.62065224281469,53.5551698416002 -1.62073826449798,53.5551674170192 -1.62089173727274,53.555221813299 -1.62104039388186,53.5553139332699 -1.62104005808299,53.5553517611381 -1.62099001305221,53.5553812552415 -1.62088584406769,53.5553809273601 -1.62075755379271,53.5553778279124 -1.62068358682028,53.5553820880887 -1.62059592260661,53.5553872029744 -1.62056226618332,53.5554490965393 -1.62052408020666,53.5554885119763 -1.62038650188815,53.555522224002 -1.62015079236375,53.5555484368432 -1.61993000493376,53.5555899724139 -1.61976672633427,53.5556164130699 -1.61982084891945,53.5556463263154 -1.61971535857473,53.5557942530075 -1.6196404904122,53.5558856686593 -1.61955242028737,53.555950085584 -1.61944776850803,53.5560037578571 -1.61931406681998,53.5561048715383 -1.61923014878111,53.5562061424873 -1.61919357904905,53.5562455626096 -1.61910985856834,53.5563244601345 -1.61909579219078,53.5563666469161 -1.61914508164775,53.5564359910486 -1.61922430381844,53.5565126184517 -1.61922701413337,53.5565575547076 -1.61919033908796,53.5566087452497 -1.6191021655265,53.5566704668951 -1.61903999648284,53.5567053128708 -1.61897616600171,53.5567590239765 -1.6189634799471,53.556813795686 -1.61896249259303,53.5569244040431 -1.61895001849071,53.5569692913594 -1.61888646828033,53.5569915541041 -1.61877463521276,53.5570127651762 -1.61867028564648,53.5570322031285 -1.61861964605598,53.5571138106872 -1.61859311451884,53.5573806853241 -1.61857998301386,53.5574992518787 -1.61859894033382,53.557578474193 -1.61865708010232,53.5576604262181 -1.61865198167738,53.5577295983042 -1.61858481167049,53.5578084579783 -1.61854674620711,53.5578479630407 -1.61847695786972,53.5578854810042 -1.6184131281256,53.5579248145191 -1.61839635755642,53.557949022829 -1.61843369302779,53.5579913723896 -1.6185915764424,53.5580682493898 -1.61865782682912,53.5580783433504 -1.61874404402844,53.5580687321649 -1.6187775160138,53.5580418820586 -1.6188275030576,53.5580195764438 -1.61892406141346,53.5580225775364 -1.61899034887485,53.5580425555907 -1.61902318712249,53.5580866883472 -1.61900615671966,53.5581261702143 -1.6189391383507,53.5581880476384 -1.61886746371183,53.558269588729 -1.61880228213409,53.5583071214598 -1.61867502658623,53.5583543417846 -1.61858441673613,53.5583540548493 -1.61848047820246,53.5583411459443 -1.6183688293916,53.5583273137108 -1.61829639167762,53.5583270841413 -1.61819641454221,53.558358216415 -1.61814156842555,53.5584227382382 -1.61812262521069,53.5585090280609 -1.61812215090521,53.5585620407774 -1.61802286629346,53.5586965072078 -1.6179223078334,53.5587924224538 -1.61769648747413,53.558893239488 -1.61759628736712,53.5589630076118 -1.61757734208928,53.5590492081809 -1.61752197144111,53.5591722219658 -1.61748498522507,53.5592574663018 -1.61744049718066,53.5593328026083 -1.61737643853825,53.559397293654 -1.61731231888751,53.5594825414321 -1.61735131690613,53.559506028188 -1.61760224932005,53.5596452029612 -1.617914277971,53.5598700224571 -1.61845655138341,53.5601683538558 -1.61879573908831,53.5603914584477 -1.61913151933028,53.5606621743867 -1.61933876376852,53.5609557558675 -1.61942503313733,53.5610944945335 -1.61950541673989,53.5612232405221 -1.6196124077587,53.5614114643055 -1.61938283464478,53.5614296084051 -1.61929662677057,53.5614374233339 -1.61937275215048,53.5618762438613 -1.61942895779179,53.5625109745394 -1.61940395616097,53.5631229847191 -1.61973024177206,53.5631069427615 -1.62002604619338,53.5631168627271 -1.62021864333198,53.5631840517992 -1.62053569987164,53.5630160350216 -1.6206474201456,53.5630091983852 -1.62089898189637,53.5630809762323 -1.62104242040266,53.5630769345838 -1.62123466697118,53.5630155399797 -1.62145616928395,53.5628976286247 -1.62177990340998,53.5628320633852 -1.62207809663791,53.5629094661034 -1.6222189133672,53.5628639916814 -1.62233488054386,53.5628976920179 -1.62260686036805,53.5628706898451 -1.62283488800507,53.5628732009204 -1.62296928068699,53.563033562842 -1.62332366988206,53.5630769038784 -1.62357049569302,53.5631639355677 -1.62374229175559,53.5632049967653 -1.62406254119083,53.5631816465194 -1.62448196479722,53.5632189862835 -1.62459785651752,53.5632615796519 -1.62474556289914,53.563281808259 -1.62474895247013,53.5632503697004 -1.62490135195572,53.5632607286007 -1.62519962574657,53.5633299465 -1.62523094985565,53.5633776670634 -1.62539510787746,53.5634240032657 -1.62556259449843,53.5634317127427 -1.62567060152252,53.5635076162701 -1.62583858332414,53.5634730049578 -1.62594574430894,53.5634751345445 -1.62610223147735,53.5635305220684 -1.62638915927482,53.5635170352635 -1.62650903099509,53.5634607087667 -1.62662940634767,53.5635033140783 -1.62681363603516,53.5635038850827 -1.62693707736297,53.5635376032321 -1.62704074044577,53.5635981270332 -1.62725293931608,53.5635034488137 -1.62774955173131,53.563340550523 -1.62787791367024,53.5633382516852 -1.62797087321003,53.5632414959747 -1.62806483292151,53.5633729737092 -1.62804925346969,53.5634322295367 -1.62820730128876,53.5634803406261 -1.62830840078264,53.5634923335245 -1.62837956549074,53.5634682926292 -1.62842126309729,53.5633543056166 -1.62888488531413,53.5633485473524 -1.62906425980987,53.5633778526478 -1.62925608255693,53.5633640669135 -1.62945966708787,53.5634006356667 -1.62995519492629,53.563361723771 -1.63025807618957,53.5634318420437 -1.63046213556733,53.5633992224587 -1.63063492902467,53.5633260712743 -1.6308388865895,53.5633051315817 -1.63099094602894,53.5633550182554 -1.63113440785065,53.5633482690645 -1.63125412494527,53.5632947227071 -1.63147470109295,53.5632810214362 -1.63177425775103,53.5632027754775 -1.63210656908454,53.5631948056023 -1.63224259878222,53.5631691628956 -1.63247469880045,53.5632193810257 -1.63263796721524,53.5631964275099 -1.63278210220988,53.563111504944 -1.63291404630233,53.5632134431853 -1.63304090524544,53.563212032129 -1.63308236782667,53.5631384781093 -1.63319822170263,53.5631864531835 -1.63330079159557,53.56318676549 -1.63349117645507,53.562992360261 -1.63349146959582,53.5629582164976 -1.63357451094476,53.5629566724363 -1.63368269578762,53.5630279863187 -1.63385501007919,53.5629952643815 -1.63408605620663,53.562994168871 -1.63422239414028,53.5629469607415 -1.63456643717102,53.5629641780662 -1.63464272503842,53.5628645811391 -1.63495594135133,53.56278915523 -1.6354957369741,53.5626955452529 -1.63563226808733,53.5626105965517 -1.63589171781874,53.5626356423776 -1.6360279748899,53.5625974176302 -1.63622378373598,53.5626555161565 -1.63635525075621,53.5626388415854 -1.63649899276408,53.5625988412866 -1.63675830525791,53.562640058854 -1.63677565052956,53.5625618476774 -1.63708645394956,53.5625789593564 -1.63716725470874,53.5624893475179 -1.63751201739589,53.5624211980713 -1.63780448215561,53.5622962815319 -1.63796403177633,53.5623587621802 -1.6380805094674,53.5623186769409 -1.63822380897827,53.5623451659848 -1.63839161829092,53.5623142209884 -1.63873078623446,53.5623772392839 -1.63901947294697,53.5623304829983 -1.63904635337115,53.5623754905556 -1.63916259065714,53.5623785346202 -1.63929140017881,53.562307935506 -1.63975765217936,53.562342577944 -1.64000236655248,53.5623289336663 -1.6400511036867,53.5622768738698 -1.64040287090836,53.5622779253025 -1.64063008726685,53.5623613600544 -1.64128458424198,53.56245137072 -1.64139926683293,53.5624615966866 -1.64139665693415,53.5624166609434 -1.64180726420303,53.5624223767586 -1.6418037979694,53.5624645988969 -1.64215554257727,53.5624683407262 -1.64233843172881,53.5624500146772 -1.64249545528161,53.5624432924798 -1.64259840401803,53.5624130475878 -1.64272197791364,53.5624466606315 -1.64283847422997,53.5624038759569 -1.64296692938573,53.5623898796486 -1.643185942248,53.5623833412856 -1.64327860968914,53.5623171226616 -1.64335870773806,53.5623101713015 -1.64353499921689,53.5623511284162 -1.64380678922514,53.5623447451863 -1.64398616649835,53.5623740289134 -1.64450617533588,53.5622919104632 -1.64484749617761,53.5622767438132 -1.64500902754475,53.5622817134602 -1.64538331484779,53.5622989908468 -1.6460005688973,53.5623179696395 -1.64657687386904,53.5623663880333 -1.64711627607718,53.5623167532242 -1.64757583479927,53.5622434284463 -1.64791905490175,53.5621941133138 -1.64808659729578,53.5621946031941 -1.64823447446973,53.5621950353801 -1.64867026588286,53.5620750024593 -1.64910453154103,53.5619584678725 -1.64925018794193,53.5618807165552 -1.64969381240443,53.5615341745659 -1.65015931157747,53.5616604279091 -1.65079779307566,53.5616703687509 -1.65091141749701,53.561627567354 -1.65101443247899,53.5615883285799 -1.65114057983899,53.5614754749133 -1.65137930631144,53.5612649142948 -1.65150541534757,53.5611718278233 -1.65159045327735,53.5611082770422 -1.65159523567948,53.5610867245805 -1.6516046241253,53.5610345455338 -1.65134956901868,53.5608531955989 -1.6514296336176,53.560834557434 -1.65188344830996,53.5607297520151 -1.65226551087673,53.5607074969564 -1.65289136585449,53.5606149584669 -1.65351540240956,53.5605466724263 -1.65423876467692,53.5605092210513 -1.65477173978376,53.5605107546076 -1.65479045095005,53.5606132446686 -1.65492951903879,53.5605938765761 -1.65537035961384,53.5605987361734 -1.65573547231392,53.5606249434438 -1.65656026625189,53.5605581156573 -1.65637239919058,53.5604550519322 -1.65636358852944,53.5604208812655 -1.65635479390758,53.5603849129946 -1.65750456785972,53.5600870878299 -1.65767629688235,53.5599375167758 -1.6580490936267,53.5597659638824 -1.65791729130339,53.5596406877182 -1.65768949607061,53.5594260894218 -1.65751179489605,53.5591891692462 -1.65813372771113,53.5590076336155 -1.65824563204884,53.5589756033178 -1.65852561613704,53.5588909455164 -1.65875898972608,53.559154979177 -1.65918854528481,53.5596191419805 -1.65927769603742,53.5598018045416 -1.65937722721902,53.5598074780363 -1.65940147388773,53.5597949668291 -1.66046541666913,53.5592677335779 -1.66048050827217,53.559279457394 -1.66086897620571,53.5595915499481 -1.66089926173413,53.5595709687266 -1.6616050267807,53.5590983342885 -1.66249616586805,53.5584770545895 -1.66333080050649,53.557914023357 -1.66393036379029,53.5575013753588 -1.66328247913929,53.5569566512454 -1.66304083413768,53.5567915382928 -1.66286821789732,53.5566642672608 -1.66270620019961,53.5565344200911 -1.66254601430521,53.5563622562125 -1.66232878960618,53.5561630646093 -1.66200673419692,53.5560317793991 -1.66192280523651,53.5559587600665 -1.66175341811789,53.5558172101451 -1.66174856085563,53.5556607575901 -1.66172692930692,53.555532202944 -1.6618861334192,53.5552468189741 -1.66178098870927,53.5549930393352 -1.66160241308981,53.5546770537483 -1.66179145396176,53.5546308602828 -1.66225028457177,53.5544469559538 -1.66204067417521,53.5542307126759 -1.66187299475245,53.5538589577999 -1.66193714157668,53.5537737746924 -1.66191052764474,53.5536928298488 -1.66198625478251,53.5536696795732 -1.66219658900608,53.5536055740603 -1.66238051603543,53.5536231621534 -1.6625301721488,53.5535993209071 -1.66263876654098,53.5536059151971 -1.66275193056581,53.5536170153791 -1.66298252708094,53.5536661829155 -1.6632027460238,53.5536739879705 -1.66344551323393,53.55371060885 -1.6636355532998,53.5537264154144 -1.6637946484645,53.5536576706108 -1.6639065561506,53.5536229399558 -1.6649722500749,53.5536223160096 -1.66585860485944,53.5535743698858 -1.66586840851673,53.553482743466 -1.66628539555162,53.5534416670655 -1.66684533702226,53.5534378266016 -1.66740100500979,53.5534231885366 -1.66778266955767,53.5534431120935 -1.66814017410431,53.553480939828 -1.66832553807756,53.5535057128454 -1.66836320945691,53.553526483568 -1.66855106808266,53.5536304273204 -1.66870421362,53.5537332871878 -1.66882402999493,53.5536572394183 -1.66946580092353,53.5532275163473 -1.66949128395821,53.5532473552387 -1.66951082783826,53.5532626845547 -1.66957412926991,53.5532682508526 -1.6695967578009,53.5532710087082 -1.66962974018495,53.5533026392093 -1.66962516979389,53.5533143077454 -1.66960981268028,53.5533529041175 -1.67049720023685,53.554149856119 -1.67060122009794,53.5541528372158 -1.6706028312113,53.5541537404616 -1.67063594209731,53.5541529325038 -1.67496087132009,53.5541108083397 -1.67571467945452,53.5540292806198 -1.67670098434187,53.5539447791804 -1.67723851284773,53.5539092946772 -1.67909676139148,53.5538855223067 -1.67982736272891,53.5538928652482 -1.68482791554562,53.5538998080295 -1.68994181331949,53.5538915725104 -1.69201464270228,53.5538447968067 -1.69262586587394,53.5538562493937 -1.693979747239,53.5538597117486 -1.69527185485443,53.5538522185523 -1.69619421214742,53.5538455729879 -1.69660778795052,53.5538421275754 -1.6973716273148,53.5538305785636 -1.69783343343176,53.5538353373885 -1.69820644222136,53.5538138121062 -1.69903667978221,53.5538105072075 -1.69958248830713,53.5545201310375 -1.69993409002405,53.5549758690472 -1.70036173305243,53.5555386363626 -1.70053672039764,53.555768299472 -1.70131929382977,53.5567625452684 -1.70259048672882,53.558459155354 -1.70339849132453,53.5594795097761 -1.70397735943532,53.560252993937 -1.70412687028509,53.5602497684249 -1.70580107165104,53.56023861105 -1.70732454707654,53.5602081925104 -1.70983531498936,53.5601594793087 -1.71178600011274,53.5601237466462 -1.71615551595179,53.5600299312967 -1.72070906371854,53.5599605574373 -1.7231775076069,53.5599267415214 -1.72353440520002,53.5591348446041 -1.72420496350688,53.5576865407266 -1.72463817427624,53.5567509542045 -1.72526579308118,53.5554068696793 -1.72568489599624,53.5550114680022 -1.72594079475883,53.5546605311396 -1.72600744355945,53.5546310309719 -1.72636001194914,53.5544970498199 -1.72527194482836,53.5532784335888 -1.72440780165785,53.5522356343071 -1.72483754180831,53.5518275899067 -1.72518257548255,53.5514697599373 -1.72548557054492,53.5512808543093 -1.72626565412964,53.5508637223717 -1.7265854718399,53.5506505910775 -1.72702135791643,53.5504618944577 -1.72724857209584,53.5503285241065 -1.72746747232375,53.550074635254 -1.72792323500241,53.5496172171905 -1.72813329293433,53.5493436279983 -1.72847129772636,53.5488706652427 -1.72856525344355,53.5485769545308 -1.7286421849059,53.5483380177794 -1.72880233473255,53.5480840833731 -1.72899618076019,53.5479703122975 -1.72947869127167,53.5480360992861 -1.72955864881171,53.54804436636 -1.72920745902528,53.5475025421071 -1.72925898227932,53.5474622226575 -1.72945088995247,53.5474374056481 -1.72995697214914,53.5468858327107 -1.73008274770267,53.5467916755195 -1.7325770101691,53.5454166920393 -1.73309643260959,53.5451284177743 -1.73426606528983,53.544624936992 -1.73506344849349,53.5442932403203 -1.73532219772949,53.5441814889565 -1.73853311292149,53.5427539558875 -1.73986610351848,53.5421888648078 -1.7401096930317,53.5420697923861 -1.74092505073839,53.5414882014926 -1.741093602772,53.541329517958 -1.74127840107533,53.5411995329762 -1.74155538329141,53.5410707350573 -1.74183916224224,53.5410515780781 -1.74226596578617,53.5410821482778 -1.74250003979816,53.5410529984745 -1.74380036166932,53.5406270719674 -1.74535900501061,53.540127008489 -1.74657464843852,53.5397260329891 -1.74777335511072,53.5393447775157 -1.7491566840954,53.5388964136133 -1.74983696474395,53.5386811875392 -1.75053832377809,53.5384553080056 -1.75147868956605,53.5381390746615 -1.75190348929639,53.5379969897824 -1.75232080739301,53.5378576743177 -1.75329128752553,53.537535197332 -1.75495574876996,53.5369831079938 -1.75581896258099,53.5366810591405 -1.75627053079893,53.5366172790157 -1.76054741453188,53.536177318836 -1.76277846616375,53.5359633953656 -1.76367527451022,53.5358707239729 -1.76549452622074,53.5356586339488 -1.76694367534829,53.5352425397537 -1.76833545153244,53.5348264068545 -1.77140160680355,53.533913665872 -1.77168396842655,53.5338692736761 -1.77178353885853,53.5338586804364 -1.77187711533163,53.5338525681019 -1.77215465705168,53.533871964819 -1.77242140384886,53.5339326741838 -1.77270600707171,53.5340275633982 -1.77312287326618,53.5342333166204 -1.77371878028807,53.534503204829 -1.7740740184131,53.5346737032488 -1.77440529203895,53.5347894337707 -1.77508436801187,53.5350486879241 -1.77581026758339,53.5352998479737 -1.7768109503124,53.5355075748036 -1.77704625292964,53.5355187939792 -1.77745374619017,53.5355015780325 -1.7810701334073,53.5352313691906 -1.78198491182428,53.5351413772338 -1.78326485408568,53.5350142971624 -1.78484700002948,53.5348274510678 -1.7853481372771,53.5347888090027 -1.78563307217275,53.5348243619535 -1.78610932799256,53.5349348362471 -1.78651045426805,53.534969694921 -1.78694451675672,53.5350604128181 -1.78758047930223,53.5352008166105 -1.7881391911613,53.5354166520299 -1.788387716278,53.5354961644345 -1.78859566608884,53.5355549372423 -1.7892173666024,53.5355380574494 -1.79035963064524,53.535504110985 -1.79077485584657,53.5354311515295 -1.79133481218955,53.5353970799659 -1.79170297534893,53.5353824426197 -1.79251517388727,53.5349721196606 -1.79314719164903,53.5346981550888 -1.79380920550909,53.5344449953406 -1.79401931187997,53.5343670896022 -1.79463725394291,53.5341965180608 -1.79522157913697,53.534083306183 -1.79623462496204,53.5339304718491 -1.79743124240259,53.5338875643393 -1.79855098927218,53.5341591073505 -1.79941138153657,53.5343788995543 -1.79984679055938,53.5345055153333 -1.80072286618294,53.5349392740223 -1.80125625200754,53.5351046859147 -1.80190792500905,53.5354347299462 -1.80243306270054,53.5357447939058 -1.80306699573092,53.5360145990139 -1.80375029483314,53.5363716417864 -1.80410250253883,53.5365546271534 -1.80418498214198,53.5366896374426 -1.80428301600162,53.5370133734778 -1.80472694277855,53.536620431471 -1.80702167758923,53.5346349690901 -1.80891209505391,53.5329742910592 -1.8109264795821,53.5311789174917 -1.81329513963775,53.5290793681309 -1.81628449558318,53.5264181497616 -1.81965790784159,53.523428414203 -1.822118126682,53.5212345248479 -1.82222878111984,53.5210909218023 -1.82228250214477,53.520882447298 -1.82234661428573,53.5206866588245 -1.82258927530432,53.520018317016 -1.82130066490047,53.5190852159429 -1.82103467106892,53.5188502037677 -1.82087869120121,53.5186539939076 -1.82079325774115,53.5185074011744 -1.82077020805034,53.5182520868438 -1.82032746632706,53.5163198836288 -1.82025296078591,53.5160896498347 -1.81993302631255,53.5150896984849 -1.81969001768793,53.5144260139511 -1.81960936710445,53.5138865767224 -1.81952377656311,53.5134280919329 -1.81880068570392,53.5132741489926 -1.81801867358524,53.513118404011 -1.81723815693766,53.5129634654149 -1.815918341398,53.5127115440204 -1.81469367338901,53.5123977550187 -1.81405531145098,53.5121811064574 -1.81376304501922,53.512116762046 -1.81360025733534,53.5120976376852 -1.81343000076573,53.512080298138 -1.812508795727,53.5120348223666 -1.81139634804488,53.5119387176042 -1.81073460035595,53.5118981318777 -1.8099324522044,53.5118932603882 -1.8096894309967,53.5119395973004 -1.80952642100911,53.5119707863111 -1.80801653855166,53.512060015662 -1.80726237807598,53.5121100159707 -1.80687045494961,53.512090511539 -1.80647395752306,53.5120656064063 -1.80559969570478,53.5119788208209 -1.80317656058249,53.5116467788071 -1.80196789724762,53.5115010071644 -1.80077865319122,53.5113785292377 -1.80150576946277,53.5109941709561 -1.80205159231914,53.5106930738654 -1.80265013419523,53.5103624096552 -1.80281800118634,53.5102755277418 -1.80400599640868,53.5096635929131 -1.80462282854481,53.5092961080195 -1.8052804013469,53.5089339867264 -1.80661036586351,53.508252163457 -1.80804454054732,53.5075255570908 -1.80911150806241,53.5069789597064 -1.81039889127308,53.5063401493489 -1.80985348331567,53.506267394642 -1.80926180304131,53.5060623827558 -1.80911842795521,53.50609989352 -1.80895845438331,53.506123898603 -1.80862358248668,53.5061737717139 -1.80825739903712,53.5061371500115 -1.80809624921994,53.5060910637065 -1.80799798647521,53.5061313413199 -1.80789859749258,53.5061177023126 -1.80775994711488,53.5060995075545 -1.80768641134025,53.5060319962345 -1.80753573925652,53.5060056941266 -1.80743484149828,53.5059686898282 -1.80741237713408,53.5059605658417 -1.80740194514404,53.5059308964804 -1.80739152129036,53.5058994294648 -1.80726806292736,53.5058480108451 -1.80723064595772,53.5057930469236 -1.80711301896859,53.505799146725 -1.80703752439708,53.5058349680108 -1.8068958005188,53.5058095784229 -1.80672013415621,53.5056484484962 -1.80657846948745,53.5056374363717 -1.80599544335686,53.505557414344 -1.80597889687762,53.5055331261211 -1.80592050003775,53.5054448807374 -1.80572139011837,53.5054643245266 -1.80550611724235,53.5054028709286 -1.80519874885519,53.5053646289968 -1.80490501014938,53.5053093352532 -1.80449981412176,53.5052161188313 -1.80437784744116,53.5051933644032 -1.8041637952324,53.505164258513 -1.8041264154918,53.5051021956489 -1.80404356324697,53.5050885806386 -1.80395015358775,53.5050731514492 -1.80370598408833,53.5050520829273 -1.80341189990972,53.5050722653428 -1.80306690866803,53.5050258691564 -1.80265391572938,53.505007214282 -1.80253030903167,53.5049899372506 -1.80237962452486,53.5049681219624 -1.80222726833295,53.5049849418104 -1.80191807932779,53.5050185743825 -1.80191975145039,53.5049799390668 -1.8019229856298,53.5049260297957 -1.80180541877975,53.5049195444414 -1.80171323539897,53.5049616237259 -1.80154450070507,53.5049451694708 -1.80132759730332,53.5049151547897 -1.80131543013448,53.5049384978451 -1.80130010540012,53.5049726180224 -1.80111753633124,53.5050172416172 -1.80105584546414,53.5049713117133 -1.8010528701832,53.5049695099819 -1.80106994810211,53.504879590584 -1.80098428780131,53.5048021705066 -1.80075220501828,53.5048017827487 -1.8006769445477,53.5047603223287 -1.80062558658316,53.5047907877225 -1.80051065220645,53.50485978568 -1.80037060214707,53.5048236087001 -1.80030591343638,53.5048073258549 -1.80027273077339,53.5048054725899 -1.80014460452363,53.5047980698552 -1.80003296341713,53.5048005781967 -1.7999770782613,53.504815760067 -1.79993193718734,53.5048192787294 -1.79989295614313,53.5047554142132 -1.79997914138974,53.5047205143298 -1.79998385642302,53.5046693041127 -1.79988748235988,53.50465027227 -1.79983016535176,53.5046528716201 -1.79968382568376,53.5046589157872 -1.79954962283746,53.504674864639 -1.79929196619269,53.5046411832557 -1.79926485919468,53.5046429352696 -1.79913499547141,53.5046876445867 -1.7990340361147,53.504665908735 -1.79898455948447,53.5046137083492 -1.79899102564893,53.5045075977998 -1.79893245778916,53.5044589755897 -1.7988813024287,53.5044463092368 -1.79885721732806,53.5044399785711 -1.7987440223925,53.5044559619716 -1.79862517421957,53.5044054410514 -1.79845514723939,53.5043476446332 -1.79809981314318,53.5042301385511 -1.79807312347721,53.5041438306796 -1.79789694630998,53.5040986031049 -1.79803150981059,53.5040062784982 -1.79797145269111,53.5039576533025 -1.79788411720101,53.5039467228655 -1.79785544171214,53.5039384966707 -1.7975540705684,53.5039236084059 -1.79753768317008,53.5038669703675 -1.79746253402976,53.5038291025677 -1.79731181623008,53.503815367511 -1.79710276894056,53.5037035891298 -1.79702797600253,53.5035910494452 -1.79693661683008,53.50345970221 -1.79679815538499,53.503404653729 -1.79683035859276,53.5032985862818 -1.7966979420309,53.5032273735178 -1.79667549829798,53.5032156540264 -1.7966785332692,53.5032048759215 -1.79674557457182,53.5030396528875 -1.79659495491683,53.5030322071369 -1.79657378437548,53.5030402578002 -1.7964816298999,53.5030760438836 -1.79647247416895,53.5030931015564 -1.79644228583163,53.503115513609 -1.79639232855144,53.5031387916214 -1.79633658078503,53.5031512764394 -1.79628821898355,53.503152990572 -1.79626758998923,53.5030738815231 -1.79639170057515,53.5029580876751 -1.79631679876685,53.502869000578 -1.79618293485081,53.5027887982642 -1.79612916985793,53.5026988492536 -1.79603746177152,53.5026410934739 -1.79604378128016,53.5025674216766 -1.79596313432398,53.5024064386881 -1.79608322818835,53.5022205491802 -1.79608364078946,53.5021342872252 -1.7959241542036,53.5017466386144 -1.79594622351429,53.501550697841 -1.79607049234875,53.5014007579277 -1.79608145837437,53.5013172096065 -1.79603956632474,53.5012659189303 -1.79586821465232,53.5011506085025 -1.79565952918242,53.5009668516465 -1.79566492123802,53.5007753746856 -1.79567633574835,53.5005983756329 -1.79568362361801,53.5003484940219 -1.79574972800341,53.5000672612685 -1.79577147426257,53.4999388007133 -1.79563173363548,53.4998423221396 -1.7958655876539,53.4994930831796 -1.79578028240224,53.499371627399 -1.79565119795734,53.499256387587 -1.7956034658713,53.4991277181221 -1.79563114706431,53.4990316171273 -1.79548133561414,53.4988326826741 -1.79545459442831,53.4987589523189 -1.79537518492448,53.4986527831577 -1.7953637587836,53.4985214802475 -1.79533235841012,53.4984603220976 -1.79529050190418,53.4984027413783 -1.79508196676373,53.4981911255366 -1.79500282363661,53.4977200405032 -1.79506269159196,53.4974954072247 -1.79526868392565,53.4972782126449 -1.79527952395048,53.4972207214077 -1.79522552208934,53.4971559309057 -1.79515640336279,53.4971333475206 -1.79516711989701,53.4970758560833 -1.79526979322713,53.497047277289 -1.79522678315513,53.49689345538 -1.79534683477433,53.4967138546838 -1.79531448007023,53.4965412697166 -1.79521981313865,53.4964818007776 -1.79520172364494,53.4964700883775 -1.79517322440663,53.4964520680093 -1.79500336154982,53.4963420591427 -1.79499464317751,53.4962683596536 -1.79497874459394,53.4961371389081 -1.79498372886199,53.4960310245642 -1.79500092224839,53.4959187309494 -1.79506020544852,53.4958154944008 -1.79507688180424,53.4957849713082 -1.79516931144138,53.4956888915266 -1.79531437457691,53.4956055710754 -1.79582830701721,53.4953143208349 -1.7958556319897,53.4952658434158 -1.79587409552891,53.4951993793503 -1.79584274033664,53.4951291457896 -1.79564435629303,53.495006598818 -1.79557536137906,53.4949327971153 -1.79556208672859,53.4948761633849 -1.79556985227793,53.4948375371503 -1.79558806794151,53.4947970421193 -1.79562143495239,53.494758459677 -1.79569023384389,53.4945617870286 -1.79581892002778,53.4944459994181 -1.79583267262642,53.4944028909601 -1.79583269845315,53.4943974988355 -1.7958419171441,53.4943669628579 -1.79584677809681,53.4942860985175 -1.79615037537519,53.4941589277997 -1.79645545251723,53.4940336454568 -1.79660642532569,53.4939862771823 -1.79694435559119,53.4939293418913 -1.79728956345452,53.4939101586878 -1.79747662237434,53.4938789362165 -1.79767612106536,53.4937669498481 -1.79776280870921,53.4935954664538 -1.79778557625274,53.4935639644739 -1.79784939108619,53.493472416205 -1.79795220132782,53.4933863259872 -1.79818909702275,53.4933543766888 -1.79843623038305,53.4933646782596 -1.79866195389908,53.4934351479896 -1.79888621565223,53.4934993256242 -1.79903228596732,53.493515746037 -1.79922834741972,53.4934990019158 -1.79926600591882,53.4934981672137 -1.79933233928853,53.4935045687176 -1.79957941889482,53.4935265492768 -1.7997089314362,53.4935492312387 -1.79981600762287,53.4935332358596 -1.79998058956265,53.4934715089075 -1.80013021320116,53.4933926831053 -1.80026299053966,53.4933551642397 -1.80018516999183,53.4932543021837 -1.80012675113425,53.4931769261424 -1.80007114526474,53.49313549788 -1.80003052246531,53.4931057760735 -1.80002315464961,53.4930868933534 -1.80000673026227,53.4930383425177 -1.79994949489556,53.4930265644443 -1.79987276672888,53.4930111601261 -1.79987300715549,53.4929599406294 -1.79989122060081,53.4929185468503 -1.80001347326035,53.4928989821598 -1.80016575753232,53.4928884533151 -1.80028653733567,53.4928383340589 -1.80029579035267,53.492799710766 -1.80026896879039,53.4927421559175 -1.80020139848145,53.4926818373383 -1.80014362526497,53.4924668884322 -1.80015595227463,53.4924085001408 -1.80018826794224,53.4922485152784 -1.80016176275088,53.4921235671681 -1.80016672614298,53.4920453982153 -1.80019110952513,53.4919869410698 -1.80021075349412,53.4919582188599 -1.80024294364086,53.4918513409225 -1.80030365715317,53.4917570909313 -1.80030254597975,53.4916761268405 -1.80030141182739,53.4915997450036 -1.80021280993107,53.4915196226374 -1.80014379758178,53.4914494183986 -1.80010936661932,53.4913981412918 -1.8001036012557,53.4913558079153 -1.80011432375237,53.4913216797495 -1.80016287704334,53.4912498742366 -1.80023555004713,53.4911754133562 -1.80021950308758,53.4910728584145 -1.80012959310154,53.49095409442 -1.80007249967737,53.4909126648973 -1.80007702925859,53.4909009902254 -1.80009694973663,53.4908399202753 -1.80014082123004,53.4908121375809 -1.80017261041786,53.4907906238823 -1.80010998660151,53.4906304814443 -1.80012699169083,53.4905550287447 -1.80015315579533,53.4904345728641 -1.8001868439781,53.4903258998686 -1.80019927309219,53.4902459470988 -1.80020565816177,53.4901560996731 -1.80020567922938,53.4901516063993 -1.80018509495754,53.4900364636794 -1.80013738602267,53.4899285535721 -1.80009242386235,53.4898709687823 -1.80008255792967,53.489722596701 -1.80019546440408,53.4894414379615 -1.80031283132201,53.4891629830471 -1.80033500050885,53.4889401710971 -1.80042777231005,53.4887389529064 -1.80029188022689,53.4884897281773 -1.80027705889082,53.4884438759963 -1.80024498609514,53.4882083034417 -1.80024832238574,53.4881328278648 -1.80024993501943,53.4881067713323 -1.80025911554019,53.4880834239535 -1.80033184186677,53.4879963818882 -1.80039857121471,53.4879164297261 -1.80040836301728,53.487735830051 -1.80053691449778,53.4876416928624 -1.80059603303104,53.4875680179869 -1.80062028114807,53.4875375067305 -1.80089545022734,53.4873645375791 -1.80101484096876,53.487289165012 -1.80104360076407,53.4872505733769 -1.80111186794511,53.4871599297968 -1.8013674135342,53.4869841413688 -1.80154107902146,53.4869134415802 -1.80163917577718,53.4868740669754 -1.80163923014889,53.4868623848096 -1.8016320361172,53.4867797036329 -1.8017528285445,53.4867493514089 -1.80178442759909,53.4867413169087 -1.80176524569715,53.4866711052798 -1.80175632544828,53.486638742046 -1.80185017415718,53.4865508361953 -1.80185615978979,53.4865463527998 -1.80184419028541,53.4865283615061 -1.80177529465969,53.4864338958087 -1.80177132380827,53.4863259687894 -1.80183524229397,53.4861814024108 -1.80178019161515,53.4860491291696 -1.80183507937139,53.4858955620796 -1.80182953402807,53.4858056946866 -1.80182254344339,53.4856788923486 -1.80176036584188,53.4854496500183 -1.80167853990058,53.4852238796647 -1.80168784211459,53.4851475150258 -1.80169572204368,53.4850827404021 -1.80157175282453,53.4848354240464 -1.80157653918677,53.4847949058615 -1.80158439144323,53.4847095530894 -1.80164688545415,53.4845766657491 -1.80164033202192,53.4843564114148 -1.80171597932568,53.4843071148531 -1.80176438810977,53.4842640632082 -1.80177066595933,53.4841966792671 -1.80162769869582,53.4838404231718 -1.80155461355801,53.4833397020509 -1.80152434450331,53.4830628001254 -1.80145380859045,53.4823355550373 -1.80145523382978,53.4817099677863 -1.80142517179539,53.481389035875 -1.80147063244941,53.4809917607504</coordinates></LinearRing></outerBoundaryIs></Polygon>
  </Placemark>
