  <Placemark>
	<Style><LineStyle><color>ff0000ff</color></LineStyle><PolyStyle><fill>0</fill></PolyStyle></Style>
	<ExtendedData><SchemaData schemaUrl="#Wards__December_2019__Boundaries_EW_BFE">
		<SimpleData name="objectid">2646</SimpleData>
		<SimpleData name="wd19cd">E05007054</SimpleData>
		<SimpleData name="wd19nm">Churnet</SimpleData>
		<SimpleData name="wd19nmw"></SimpleData>
		<SimpleData name="bng_e">405022</SimpleData>
		<SimpleData name="bng_n">347281</SimpleData>
		<SimpleData name="long">-1.92657</SimpleData>
		<SimpleData name="lat">53.022812</SimpleData>
		<SimpleData name="st_areashape">31870455.8953287</SimpleData>
		<SimpleData name="st_lengthshape">43526.6683727455</SimpleData>
	</SchemaData></ExtendedData>
      <Polygon><outerBoundaryIs><LinearRing><coordinates>-1.93124097765825,53.0359949500686 -1.93131109811446,53.0359734227072 -1.93139902537341,53.0359653855548 -1.93161379201415,53.0359915685605 -1.93183443428555,53.0360330323993 -1.93205354973503,53.0361086436683 -1.93214291946904,53.0361212754291 -1.93239055333504,53.0361241111497 -1.93284102895042,53.036073140795 -1.93303332134023,53.0360813367326 -1.93359097660933,53.0361346672794 -1.93383108460167,53.0361536717243 -1.93389821691079,53.0361555056672 -1.93425015778524,53.0361332335644 -1.93440215090686,53.0362025131114 -1.93467937893614,53.0363123899018 -1.93510427768564,53.0364249519611 -1.93533837247693,53.036437659526 -1.93554115711748,53.0364206938614 -1.93606204277014,53.0361503880219 -1.93614111717167,53.0361423426419 -1.93635431789859,53.0361478475983 -1.93643485784795,53.036146093375 -1.93653029628443,53.0361308669201 -1.93663028970546,53.0361111491414 -1.93673620008427,53.0360815490814 -1.93683916713364,53.0360474546233 -1.93693316172524,53.0360097606174 -1.93701978006752,53.0359711646538 -1.93694231682579,53.0358874587832 -1.93715412935791,53.0358327525566 -1.93723472368324,53.03579325347 -1.93741685039088,53.0356900035623 -1.93751677745697,53.035630744627 -1.9376197948112,53.035559715082 -1.93782747191806,53.0353019092603 -1.93791263590302,53.0351616738711 -1.93794410614587,53.0350808106731 -1.93797262507829,53.0349999468391 -1.93800109418095,53.0348686684708 -1.93805548973464,53.0344066987544 -1.93817937366267,53.034271874795 -1.93844368890809,53.0340365634662 -1.9385572067213,53.0339277950053 -1.93874543283833,53.0336770762341 -1.93904259048226,53.0334274021584 -1.93930678004626,53.0331875051934 -1.93951711040393,53.0331265033729 -1.93974977395177,53.033095167468 -1.94017049566396,53.0330153073636 -1.9403795342753,53.0328195053508 -1.94044661617937,53.032764720343 -1.94060485763264,53.0326712490398 -1.94075266767873,53.0325625852726 -1.94115385145152,53.0324693218549 -1.94131803245541,53.032345298514 -1.9414122232026,53.032245594121 -1.94191022994639,53.0321928155646 -1.9422713332109,53.0320949463253 -1.94238609940326,53.0320518662756 -1.94253249525889,53.0318928740524 -1.9431156300603,53.0317987030154 -1.94333963579043,53.0316127881649 -1.94340982457866,53.0315292458624 -1.94380348103734,53.031444867362 -1.94385874246462,53.0313990622 -1.94388872763104,53.031315500817 -1.94396034749844,53.0312643115749 -1.94403946988278,53.031211327961 -1.94418412567245,53.0311546901186 -1.94443628850801,53.0310559546016 -1.94461700829731,53.0308699265014 -1.94482889246027,53.0307325300635 -1.94494383254654,53.0306454135312 -1.94494391067192,53.0305843046605 -1.94491270636487,53.0304700719586 -1.94491279602889,53.0303999766723 -1.9449218640286,53.0303271896648 -1.94498611676993,53.0301707635317 -1.9450308879331,53.0301546081052 -1.94529345255765,53.0300873293249 -1.94546946422261,53.0300218067477 -1.94552471865532,53.0299786966315 -1.94568892299847,53.0298187206241 -1.9458336521105,53.0296983668289 -1.94610670610314,53.0295959525134 -1.94635139384211,53.0294675544522 -1.94646635170242,53.0293597668572 -1.94652909040288,53.0292294004372 -1.94656638008334,53.0291970651835 -1.94660821482937,53.0291692255968 -1.94666196789804,53.0291458849442 -1.9467976241671,53.0291010120531 -1.9468737480337,53.0290794781275 -1.94693336365891,53.0290875919679 -1.94699149652818,53.0291010976965 -1.94712556952591,53.0291442919208 -1.94726125732022,53.0291731086078 -1.94727772756421,53.02917671058 -1.94758777607415,53.0291777450536 -1.94780847769665,53.0291553745552 -1.94803222937112,53.0291518767201 -1.94807539885012,53.0291366183632 -1.94812765478545,53.0291312483451 -1.9481858075532,53.0291285775806 -1.94833185215275,53.0291331340811 -1.94847049366205,53.0291601528346 -1.94856292836964,53.0291727735771 -1.94897742473326,53.0292169842402 -1.94906689934371,53.0292376917438 -1.94911894549352,53.0293051123832 -1.94914269825174,53.0293869899228 -1.94918152873907,53.0294031822538 -1.94922319117638,53.0294139840949 -1.94934849255205,53.0293924684388 -1.94967381973914,53.0291552707033 -1.94989895502427,53.0291248106703 -1.9502256344135,53.0290961891923 -1.95037774382104,53.0290665960286 -1.95072357048751,53.0290640423312 -1.95086982094904,53.0289967035253 -1.95098473105136,53.0289211734755 -1.95107427444798,53.0288816685821 -1.95120541636852,53.0289104789235 -1.95133362394156,53.028924909838 -1.95147232745818,53.0288980056991 -1.95164535100634,53.0288531424454 -1.95171543764059,53.0288423872828 -1.95178699686781,53.0288334295948 -1.95204344618599,53.0288317343932 -1.95211804586584,53.0288533317349 -1.95230876352041,53.0289261987639 -1.95247725174846,53.0289801849417 -1.95257706844546,53.0289883127804 -1.95290506008839,53.0289939233184 -1.95338232570488,53.0289742488151 -1.95358355388027,53.0289941872462 -1.95367744023158,53.0290292711371 -1.9539904212869,53.0291623916335 -1.95423640023323,53.0291822561865 -1.95437954255867,53.0291418712402 -1.95495107839191,53.0287942177285 -1.95502416786765,53.0287313392337 -1.95546265839828,53.0286379517718 -1.95575340249845,53.028639856915 -1.95596671047272,53.0285069339888 -1.95615164388949,53.0284710558595 -1.95677503912154,53.0283642516352 -1.95723436586697,53.0282026574802 -1.9574476525028,53.0282081256743 -1.95769513758401,53.0281920370203 -1.95785176233229,53.0281884972335 -1.9581753438468,53.0280456336849 -1.9583992472253,53.0278785621974 -1.95868413108435,53.0277051298554 -1.95878269528258,53.0276072101007 -1.95876181144447,53.0275910270251 -1.95879780717116,53.0273590966644 -1.9589007938573,53.0272629761445 -1.95914243717536,53.0271794829515 -1.95960020488066,53.0270833918199 -1.9599820650217,53.026918167153 -1.96018955513487,53.0266719142204 -1.96045370168704,53.0264409574472 -1.96069690641984,53.0262541163547 -1.96117566337546,53.0260429975849 -1.96291439092546,53.025741508078 -1.96310377118126,53.0256597885505 -1.96319774490772,53.0255951135699 -1.96336049084075,53.0253182873542 -1.96337542241731,53.0252517921559 -1.96332776790795,53.0252031599941 -1.96301033233737,53.0251042114072 -1.96300578897275,53.0250979194243 -1.96300140725207,53.0250475933708 -1.96311942048569,53.0247572736506 -1.96320753662493,53.0246395772112 -1.96349372225179,53.0246216904602 -1.963874109168,53.024407835104 -1.96394572334729,53.0243233830347 -1.96396669125734,53.0242379278928 -1.9638251847291,53.0241165664947 -1.96373887423797,53.0239916276861 -1.96371348340257,53.0239277253447 -1.96369718609273,53.0238666123643 -1.96374050643072,53.0238064153364 -1.96381209341876,53.0237516184553 -1.96370029740185,53.0236760977715 -1.96354835015695,53.0235492522242 -1.96343515790234,53.0233811689383 -1.96341752675603,53.0231555113504 -1.96345192383699,53.0230342036294 -1.96448728582039,53.0221427770674 -1.96504076165028,53.0217212892112 -1.96522541183769,53.0218373589544 -1.96557568443466,53.0220441500025 -1.96582452909205,53.022124291376 -1.96629695242636,53.0223769458922 -1.96644599687208,53.0224498685622 -1.96683347118606,53.0225650031938 -1.96736558496461,53.0227350840243 -1.96765327716585,53.022817838014 -1.9679468753778,53.0228969981231 -1.96853715898309,53.0230374329982 -1.96883226977039,53.0230680634318 -1.96935864472205,53.0230303653165 -1.96970300138431,53.0229513701451 -1.97005794334701,53.0228508089803 -1.97034279172802,53.0227897700897 -1.97049176943995,53.0227916043078 -1.97097335751129,53.0228096935366 -1.97118499592382,53.0228546771128 -1.97127592467299,53.0229041245235 -1.97136230388166,53.0229553686145 -1.97143085940377,53.0230057095286 -1.9715470740066,53.0231082731501 -1.97159927988904,53.0231631028914 -1.9717035484506,53.0233006222715 -1.97182412888757,53.0234975454982 -1.97199544534602,53.0237412102976 -1.97207885209367,53.0238301967136 -1.97225464594897,53.0239992739828 -1.97262566936566,53.024322065199 -1.97276734031953,53.0244191526681 -1.97318303108769,53.0246799451486 -1.97344978784541,53.0248642278049 -1.97381501419267,53.0250459251813 -1.97420251329484,53.025190691648 -1.97437539998679,53.0253103393112 -1.97455125103282,53.0254083298365 -1.9751087053229,53.0256583608409 -1.97528616498259,53.0257437694242 -1.97550368023401,53.0258616266544 -1.97580785614466,53.0259928918408 -1.97618787343238,53.0261358524694 -1.97653378454488,53.0261592850663 -1.97660683181473,53.0263346265203 -1.97666634444461,53.0265351276749 -1.97670059413565,53.0266214055117 -1.9767348483825,53.0267022907652 -1.97681075591906,53.0268219162632 -1.97687490016141,53.0268695573074 -1.97702089288777,53.0269621458956 -1.97710433972915,53.0270070946172 -1.97729373367525,53.0270898056816 -1.97740102175382,53.0271519233556 -1.97765439018446,53.0273784311309 -1.97869472231188,53.0282227232568 -1.97904045330841,53.0283981104177 -1.9793996699128,53.0286614771156 -1.97909685373789,53.0289580718937 -1.97882082847116,53.0292681497184 -1.97877764962507,53.0293239484462 -1.97875525116182,53.0293715733774 -1.97874182779638,53.0294183009553 -1.97875812437044,53.0295279395307 -1.97883109859111,53.0296304883371 -1.97894294653126,53.0296853259895 -1.97921881574899,53.0297033460648 -1.97960199845134,53.029744748859 -1.98026392419082,53.0299750030513 -1.98052624974601,53.0300379508888 -1.98083636488421,53.030181784282 -1.98107495392736,53.0302726752401 -1.98142531463623,53.030323053491 -1.98163994772257,53.0303770052127 -1.98222743745226,53.0304921190949 -1.98236008117446,53.0305173005467 -1.98286116321464,53.0305929483317 -1.98313689941434,53.030653196431 -1.98340982067816,53.0306801927852 -1.98383175580828,53.0306919320707 -1.98431933134602,53.0307315354821 -1.98489789059616,53.0307549730688 -1.98535413206682,53.0307568249973 -1.98565238662528,53.0307703400812 -1.98579106697927,53.0307667613604 -1.9858671720128,53.0307568847598 -1.98595065471263,53.0307434142032 -1.98618475480867,53.0306913190066 -1.98643534439495,53.0305880016006 -1.98681257727028,53.0304432690824 -1.98745377650752,53.0302509334995 -1.98818149953769,53.0301323826323 -1.98841853174742,53.0301270132123 -1.98861990352295,53.0301477004109 -1.98870926481318,53.0302079185021 -1.98876592209033,53.0302799057303 -1.98881816466911,53.0303113633236 -1.98887925869861,53.0303419227706 -1.98907607217601,53.0304021500996 -1.98934898719429,53.0304632825109 -1.98953683287136,53.0305055345836 -1.98986630416267,53.0305648726928 -1.99004075210666,53.0305928346932 -1.99048665027443,53.0306521811517 -1.99093390012001,53.0307277010442 -1.99117988395086,53.0308409479893 -1.99141555882185,53.0308769107349 -1.99168098325978,53.0309282418516 -1.99186427672334,53.0310073345219 -1.99224745306952,53.0312132405187 -1.99283345687526,53.0316285428274 -1.99354758872511,53.0320061042965 -1.99390103702263,53.0321661724784 -1.99425141379116,53.0323216550263 -1.99448106878703,53.0324043413204 -1.99470912508375,53.0324835213535 -1.99561878596549,53.0327757066432 -1.99625846701334,53.0329914031376 -1.99650743014314,53.0331056279199 -1.99693995338637,53.0332754835304 -1.99751399140677,53.0335281062987 -1.99763632702241,53.0335254124145 -1.9977168603607,53.0335110346506 -1.99780477078022,53.0334939620008 -1.99824026762261,53.0333680658412 -1.99833420297004,53.0333626751079 -1.99897096177726,53.0333483005069 -1.99929296960393,53.0333527950789 -1.99939882966383,53.0333599837805 -1.99959124632544,53.0333734638091 -1.9997552614166,53.0334148916376 -1.99984624348548,53.0334813919163 -1.99987759568716,53.0335254258634 -1.99994017780843,53.0336440477137 -1.99999980748224,53.0338005029249 -2.00004898703125,53.0339802336574 -2.00007886458382,53.0341501690318 -2.0000848889091,53.034225655947 -2.0000416084245,53.0343623409629 -2.00050981415023,53.0343848042847 -2.00076334248999,53.0343155155474 -2.00086330396952,53.0342975415955 -2.00117486562728,53.0342391245133 -2.00134342748902,53.0340396212728 -2.00138068225975,53.0340233548862 -2.00144781354633,53.0340044820524 -2.00160740269453,53.0339200059816 -2.00176096947598,53.0339128136854 -2.00183252650864,53.0338993331394 -2.00190555407666,53.0337393713706 -2.00193837955108,53.0336880572663 -2.00204276177539,53.0335954933282 -2.00212033961691,53.0335128161163 -2.00221279528234,53.0334391240294 -2.00234852924299,53.0333869094234 -2.0024393883227,53.0333644407393 -2.00272278558042,53.0333051223789 -2.00317006646705,53.0331469460707 -2.00335349886345,53.0330381136246 -2.00356975615775,53.0328961189496 -2.0037651137453,53.032797260672 -2.00383064123457,53.0327513365397 -2.00405131821566,53.0325742940758 -2.00410651788017,53.0325356495655 -2.00434059988082,53.0324232188714 -2.00439285026566,53.032391763838 -2.00444055077143,53.0323576131358 -2.00446439556921,53.0322929085221 -2.00451061999153,53.0322470756035 -2.00471335747141,53.0322272962557 -2.0047953583561,53.0321904480701 -2.00490869731382,53.0320169126744 -2.00494754000556,53.0319459175967 -2.00500112641346,53.031775080657 -2.0050965134915,53.0316178116961 -2.00513830862202,53.0315656881552 -2.0053426272501,53.0314289925621 -2.00598226909838,53.0311287195069 -2.00618794388972,53.0310532211593 -2.00638329370055,53.0310001895432 -2.00677842814831,53.030964219486 -2.00696037984175,53.0309345531418 -2.00704840436105,53.0309129800151 -2.00721535217352,53.03085626419 -2.00732267143449,53.0307987430416 -2.0072347488685,53.030683721388 -2.00725109477459,53.0306495706814 -2.00727493955984,53.0306163192934 -2.00737341024226,53.0305785693316 -2.00752843887998,53.030571279596 -2.00768801964298,53.0305803450383 -2.00784305364083,53.0306036996809 -2.00789825607729,53.0306054927242 -2.00795640663274,53.030600096938 -2.00801455620101,53.0305893094529 -2.00818444526057,53.0304939496496 -2.00822919262625,53.0304750746311 -2.00833504384304,53.0304651814948 -2.00842602123116,53.0304705663799 -2.00845442017402,53.0304678684122 -2.00851699426592,53.0304453971964 -2.00852141897967,53.0304409041019 -2.00846630462588,53.030251201994 -2.0084930870783,53.0301550443135 -2.00861228965874,53.0298970314711 -2.00864963759261,53.0297640274556 -2.00868539937075,53.0296948282895 -2.00876886198519,53.0296264344281 -2.00902823600739,53.029485325287 -2.00929069121905,53.0293909452427 -2.00944717724404,53.0293172430927 -2.00965147005242,53.0291733505481 -2.00973050598982,53.0291176274412 -2.00982442021562,53.0290654977394 -2.01018525434615,53.0291175874901 -2.01034924455694,53.0290789302429 -2.01052970049796,53.0290043255654 -2.01068766285731,53.0289520993375 -2.01081882439064,53.0288981675186 -2.01091877182791,53.0288972590607 -2.01106186660303,53.0288765765709 -2.01134224536941,53.0287201833168 -2.01159718132857,53.0285834718603 -2.01166872123556,53.0285502147217 -2.01182667744621,53.0284863937124 -2.01199225630264,53.0284261664408 -2.01207117595554,53.0284027936168 -2.01237234936271,53.02833167728 -2.0125825475617,53.0282570662566 -2.01264068610911,53.0282229110918 -2.01289117599441,53.0280394674092 -2.01296727050858,53.028031371313 -2.01309547848437,53.0279918163017 -2.01327728726867,53.0279495582233 -2.01338619234844,53.0279010178105 -2.01352632778901,53.0278668526146 -2.01376789914833,53.0278847976397 -2.01400343333075,53.0278551131671 -2.01408543472503,53.0278703801519 -2.01421514235844,53.027903614933 -2.01426432140508,53.0279206827732 -2.01432557249422,53.0280132370085 -2.01438225710463,53.0280473786944 -2.01467141417444,53.0280878714191 -2.01465065996022,53.0281525768364 -2.01466703389624,53.028222670095 -2.01475505964523,53.0282370369376 -2.01511274326144,53.0280626519968 -2.01524991999741,53.0280122193495 -2.01538711874882,53.0280211875335 -2.01549297311579,53.0280418429328 -2.01563766893048,53.0280427214113 -2.01569724720879,53.02791869944 -2.01568382499433,53.0278557954149 -2.01568822200477,53.0277767130458 -2.01580597372973,53.0277217887349 -2.01583288996096,53.0277029132877 -2.01586704473932,53.0276462933266 -2.01619954294478,53.0275429019252 -2.01633525091436,53.0275159235358 -2.01643210928801,53.0274808621163 -2.01648286114604,53.027425048634 -2.01649623701373,53.0273621408674 -2.01651700401126,53.0273396713933 -2.01678842201093,53.0272920034193 -2.01689425099517,53.0272497517194 -2.01692854052891,53.0272299760325 -2.01697916738622,53.0271733533333 -2.01693894563054,53.0271130593211 -2.01695084640713,53.0270546453771 -2.01725493749327,53.0269440656779 -2.01728626114836,53.0268829529616 -2.01728771414825,53.0268245396439 -2.0173159735612,53.026789397844 -2.01741147398565,53.0267462483138 -2.01751581926579,53.0266860225336 -2.01754851412471,53.0266734364058 -2.01760826228703,53.0266824137516 -2.01761417470235,53.026713865784 -2.01765144930154,53.0267776648797 -2.01767677561822,53.0267830526878 -2.01770517265182,53.0267830483464 -2.01786471328097,53.0267228138026 -2.01806595047593,53.0267218845597 -2.01824937255861,53.0267398285956 -2.01842528425717,53.0267317131705 -2.01858337901825,53.0267451670481 -2.01870558797751,53.0267801950213 -2.01876816382527,53.0267900702171 -2.01891285869654,53.0267981341562 -2.01899042801817,53.0267981214468 -2.01911113665065,53.0267765339727 -2.01922595171353,53.0267693263521 -2.01931840354988,53.0267854859779 -2.01961666667692,53.0268556210666 -2.01975078536521,53.0268546993543 -2.01981495092237,53.0268448039563 -2.02000130121504,53.0268142170073 -2.02045299579436,53.0266451013486 -2.02053792271546,53.0266037480646 -2.02085098021645,53.026505738641 -2.02109986229527,53.0263950699184 -2.02150848637593,53.0264012854741 -2.02158900470278,53.0263994726998 -2.02169779130771,53.0263850743164 -2.02185425872822,53.0263410108603 -2.02190207065093,53.0263230290031 -2.02194225837649,53.0263032507436 -2.02210913484752,53.0261792042841 -2.02228661656333,53.0261215671782 -2.02239097607151,53.0261080670232 -2.0231198642009,53.0259488627038 -2.02331370437083,53.0259119784881 -2.0234374628544,53.0258534515118 -2.02356715514953,53.0258588169769 -2.02364017103623,53.0258507146468 -2.02367298672851,53.0258399237241 -2.02365205559906,53.025779717951 -2.02365053868815,53.0257015353789 -2.02371162980266,53.025693435429 -2.02372662613177,53.0256916354458 -2.02383693583339,53.025770693788 -2.02387126038376,53.0258201134315 -2.02391606410993,53.0259253362717 -2.0239907331731,53.0260196796983 -2.02413679513324,53.0260573930101 -2.0242784152202,53.0260672488856 -2.02434548401961,53.0259764708257 -2.02437826397636,53.0259018758365 -2.02439607911671,53.0258830003436 -2.02441696608051,53.0258650222167 -2.02450495691837,53.0258172849776 -2.02456605714588,53.02582536051 -2.02455713079146,53.0259099257491 -2.02457364523853,53.0259854093035 -2.02460488630293,53.0260141598 -2.02473622440383,53.0261022001783 -2.02479293467664,53.026171384566 -2.02480783758403,53.0262226939865 -2.02507030272169,53.0262397126064 -2.02514184085421,53.0262280149237 -2.02519544066391,53.0262306991775 -2.0252506388515,53.0262360788978 -2.02532219772683,53.0262576309584 -2.02539229954523,53.0263142309734 -2.02539383315423,53.0264130830916 -2.02540576996452,53.0264364450089 -2.02542372966391,53.0264562117605 -2.02546553100431,53.0264651890528 -2.02551175692221,53.0264705706126 -2.02554899884179,53.026461576028 -2.02565628910235,53.026412126674 -2.02576506588722,53.0263833455775 -2.02605888837143,53.0264147331735 -2.02615871089596,53.0264219003098 -2.02632270258292,53.0264236603165 -2.02640633504042,53.026490231901 -2.02643465867904,53.0265711041856 -2.0264540956505,53.0265944651946 -2.02647500393325,53.0266124332935 -2.02650328134002,53.0266169205293 -2.02653155492348,53.0266151162745 -2.02655699576305,53.0266061240596 -2.02674477054605,53.0265009390049 -2.02698026625983,53.0264378890084 -2.0270503012001,53.0263803586009 -2.02708459211705,53.02637136422 -2.0271233119085,53.0263659635483 -2.02732013042632,53.0263758020527 -2.02776602865977,53.0264233256382 -2.02811029471361,53.0263270875104 -2.02813264652958,53.0262938313717 -2.02820575113949,53.0262318067817 -2.028281704223,53.0262057271482 -2.02847555993429,53.0261975925119 -2.0285485798699,53.0261984735912 -2.02861865424814,53.0262047470217 -2.02887363647394,53.0262424277644 -2.028922780061,53.0262001784269 -2.02885427234007,53.0261461860465 -2.02872898470341,53.0261120681711 -2.02866786969354,53.0260833260988 -2.02864991162132,53.0260680534973 -2.02866931289876,53.0260356977916 -2.0286960898502,53.0260033393712 -2.02886451113025,53.0260140812089 -2.02910016152865,53.0260059352169 -2.02909558504569,53.0259645980912 -2.02912246796011,53.0259061791903 -2.02931169886859,53.025787419738 -2.02942045134121,53.0257307771215 -2.02945323903846,53.0256786463442 -2.0293891614783,53.0256319325399 -2.02950682548511,53.0254817378231 -2.02964398715367,53.0254457565066 -2.02969605476723,53.0253648645695 -2.02968109042449,53.0252336649569 -2.02969888304044,53.0251877395088 -2.02978678867928,53.0250259587888 -2.02993283680308,53.0248631752178 -2.02997739378477,53.0247697038958 -2.02999090574744,53.0247544225173 -2.03012348451803,53.0246708138565 -2.03024567872753,53.0245035423779 -2.03050352728467,53.0244333809 -2.03070619920992,53.0243892937315 -2.03090442663391,53.0243182472165 -2.03100432976882,53.024270502015 -2.03119208230467,53.0241635129927 -2.03128447795626,53.0241050751983 -2.03158251845764,53.0238649648534 -2.03162415435918,53.0238182227508 -2.03173003043243,53.0237022676551 -2.03250484622767,53.0232543454171 -2.03274335558288,53.0231455420076 -2.03325301196795,53.0228568393948 -2.03340059421595,53.0227983851649 -2.0338669998978,53.0225411460886 -2.03405473213315,53.0224287599658 -2.03450016190188,53.0220815685275 -2.03469095450841,53.0219565993162 -2.03485190580596,53.0218684833288 -2.03501433302596,53.0217812656265 -2.035313885466,53.0216328076565 -2.03550754493228,53.021562653825 -2.03556861178908,53.0215347771368 -2.03582342878863,53.0213998115285 -2.03610522072336,53.0213323265356 -2.03620644843024,53.0212666936247 -2.03630925744268,53.021181289457 -2.03645092392396,53.0211146550223 -2.03661926297983,53.0210498998208 -2.03675182131422,53.0209707765806 -2.03688301332093,53.0208754776912 -2.03707672845421,53.020732441064 -2.03727179141753,53.0205858979351 -2.03700340497215,53.020509507805 -2.03673206024658,53.0204224227285 -2.03654715656487,53.0203712576759 -2.03630263380697,53.0203147182023 -2.03557499174062,53.0201683696027 -2.03537229278475,53.0201486610611 -2.03475494167519,53.0200437023447 -2.03437028781347,53.0199665317554 -2.0340602392838,53.0198838557868 -2.03369484524745,53.0197545548443 -2.03316394845518,53.0195389393887 -2.03272254917352,53.0193413593315 -2.03253024172842,53.0192406735324 -2.03225138778966,53.019114039896 -2.03197846010503,53.0190206547749 -2.03150426240574,53.0188328745744 -2.03123441622928,53.0187475744284 -2.03111664677286,53.0187161528324 -2.03082446140637,53.0186712979931 -2.03081106392179,53.0186704026087 -2.02978534841711,53.0186049766092 -2.02949022484088,53.0185744964536 -2.02922338675172,53.0185673748466 -2.02919953989343,53.0185646849647 -2.02891031654889,53.0185333038808 -2.02863597829063,53.0185225871575 -2.02835280080763,53.0185262509617 -2.0281127527482,53.018512828865 -2.02786533845677,53.0185119892303 -2.02712733979328,53.0184187029819 -2.02689035208813,53.0183819131518 -2.02674126505664,53.0183828463138 -2.02663394803936,53.0183514178761 -2.0265265057569,53.0183172036373 -2.02643712745455,53.0182776825208 -2.02635364832947,53.0182363630769 -2.02628946616012,53.018195040127 -2.026234257021,53.0181546122404 -2.02610599775759,53.0180423092026 -2.02539022728732,53.0174743368526 -2.0250486542476,53.017226291731 -2.02494130028096,53.0171256651987 -2.02480113545126,53.0170285504157 -2.02434478220281,53.0167887051709 -2.02399589195715,53.0166233353068 -2.0231788940426,53.0162720365445 -2.02277780039474,53.0161454049147 -2.02264517200043,53.0161102940757 -2.02211150071669,53.0160438960068 -2.02110669676981,53.0158589596398 -2.02069827800173,53.01581769478 -2.02030177529517,53.0157592625815 -2.02024511541113,53.0157538798922 -2.01930009793323,53.015668668393 -2.0192643326612,53.0156650804829 -2.01806133424798,53.0155358675481 -2.01725938946091,53.0154702987065 -2.01539605318747,53.0153016160915 -2.0145464223641,53.015207368091 -2.01249382232682,53.0149540994943 -2.01152793443842,53.0148291986647 -2.01096749956339,53.0147348953457 -2.00723205690803,53.0140942769114 -2.00376045968379,53.0135173366967 -2.00334765134322,53.0134131066428 -2.0031225049798,53.0133196537607 -2.00302713754147,53.0132917085465 -2.00275590584971,53.0131677013703 -2.00185855843876,53.0136072558837 -2.0018585516198,53.0134275252691 -2.0018049614336,53.0131740146792 -2.00171696578119,53.0130625834437 -2.00165588668047,53.0130185504043 -2.00159173593334,53.012978920269 -2.00146662998665,53.0129366861006 -2.0014472132461,53.0129339905872 -2.000819722068,53.0126967533656 -2.00013853448323,53.0123821400013 -1.99965410284175,53.0121672724108 -1.99934417785926,53.0120180050404 -1.99891038225614,53.0118454616241 -1.9986510901755,53.0117276465795 -1.99889552704457,53.0114004469445 -1.99894026139671,53.0112917100179 -1.99832325020123,53.0111119739109 -1.99695052248754,53.0105339361496 -1.99640665373611,53.0102911956973 -1.99564506122557,53.0098461586825 -1.99489835735781,53.0093724500438 -1.99437836012007,53.0090775794139 -1.9941130757825,53.0089607420506 -1.99405041212375,53.0089194008092 -1.9940296514203,53.0088779715801 -1.99487617374227,53.0088968793628 -1.99550506762043,53.0089832635998 -1.99584925366021,53.0090165246301 -1.99595813405978,53.0089491291158 -1.99597153593463,53.0088672617735 -1.99598198878337,53.0087809905588 -1.99594479907253,53.0083531384103 -1.99563184191113,53.0081966724983 -1.99561685305502,53.0081742054304 -1.99554240479757,53.0080250262543 -1.99552300369529,53.007901819435 -1.99538602830956,53.0075943840693 -1.9952503892731,53.0074505942465 -1.99521316267816,53.0074011669668 -1.9951803607718,53.0073526378521 -1.99513122624182,53.007219544498 -1.99509845115728,53.0069336802211 -1.99510141382746,53.0068204502953 -1.99512970169137,53.006598392352 -1.99496580129869,53.0064860541686 -1.99486000528258,53.00649863129 -1.99469169904507,53.0062478092816 -1.9944979816529,53.0058487071914 -1.99441899958168,53.0056616935054 -1.99437281047219,53.0055880011396 -1.99419701421524,53.0053515562089 -1.99405402877472,53.0050935448431 -1.99388416413889,53.0046549021609 -1.99376498633282,53.0046234433995 -1.99367702097148,53.0045632288529 -1.99354594071434,53.0044292326958 -1.99350871722825,53.004398676682 -1.99333880197627,53.0043303692666 -1.9932031660959,53.0042629632483 -1.99303927866656,53.0041559241492 -1.99296176242002,53.0040813314813 -1.99286200321914,53.0040283051981 -1.99275167735207,53.0039752782288 -1.99238518655721,53.003861935894 -1.99224512895453,53.0038044129836 -1.99212890425014,53.0037702569055 -1.99188000341301,53.0036345435552 -1.99179953265712,53.003603085295 -1.99141805953629,53.003481651445 -1.99131376505802,53.0033899809556 -1.99112015691068,53.0032614593338 -1.99109929051489,53.0031679076971 -1.99111417712856,53.0030690558866 -1.99117980837057,53.0029675117983 -1.99151210004214,53.0026277525942 -1.9915941984556,53.002497362274 -1.99165233785466,53.0023679591172 -1.99165381948557,53.0023356081333 -1.99158528939461,53.0021962212767 -1.99140346837086,53.0021252153069 -1.99135289238302,53.0019202275519 -1.99134099839947,53.0018034009231 -1.99132908657818,53.0017737448651 -1.99131262956995,53.0017458845256 -1.99117406128451,53.0016604131266 -1.9911621503692,53.0016271613872 -1.99115773488456,53.0015930121576 -1.99120542651468,53.0014887709191 -1.99120838609242,53.0014303586666 -1.99114132200037,53.0013484860755 -1.99112941079897,53.0013242216931 -1.99117119540367,53.0012631154304 -1.99124418462588,53.0012056060979 -1.99130231464478,53.0011256299828 -1.99134411338675,53.0009934400746 -1.99130384258676,53.000862233302 -1.99136357895441,53.0007282467902 -1.99141568106667,53.0006761285088 -1.99168696640278,53.0005943687388 -1.99167802745897,53.0004433933888 -1.99176738035701,53.0002617805199 -1.99176898015244,53.000249199408 -1.99159468338509,53.0000630755965 -1.99157675223713,53.0000325202704 -1.99155293217657,52.9999660178268 -1.991491913534,52.9997646243476 -1.99152768698094,52.9996504977894 -1.99159317853485,52.9995983794819 -1.99159920042299,52.9995875964969 -1.9915843519454,52.9995067156051 -1.99157084201384,52.9994833500954 -1.9914770040777,52.9993736176798 -1.99143684527801,52.9993053171661 -1.99142935610012,52.9992774574732 -1.99143084507318,52.9992091597887 -1.99133849994554,52.9990104599149 -1.99080360248938,52.9989960436878 -1.99022852706722,52.9990013917611 -1.98999302062297,52.9989977783325 -1.989395585464,52.9990049184113 -1.98911843281424,52.9989968069133 -1.98884877402351,52.9989868976127 -1.9888487914797,52.9989203967617 -1.98875493661467,52.9988997195309 -1.98856267395642,52.9988961071827 -1.98833171818604,52.9988727201421 -1.98811119510682,52.9988834834465 -1.98739006553347,52.9988383889094 -1.98705922125919,52.9988518347906 -1.98588968960123,52.9987861043989 -1.98537408642674,52.9987671722879 -1.98442346377305,52.9987508795697 -1.98392135799813,52.9987768764283 -1.98343555895025,52.9988856391893 -1.98264136052906,52.9990895249525 -1.9829808016145,52.9997098257155 -1.98316694022308,52.9999858299596 -1.98339318579227,53.0004389634866 -1.9834795872068,53.0006699309738 -1.98368806971464,53.001011538848 -1.98374318945558,53.0011248671086 -1.9835240960917,53.0012173993905 -1.98284296475127,53.0015310289155 -1.98224977362966,53.0018860039056 -1.98196957634416,53.0020612921411 -1.98189645354242,53.0021098084554 -1.98185024000503,53.0021529370101 -1.98170425687476,53.0022059369834 -1.98163126145657,53.0022445677728 -1.98157605678216,53.0023345158082 -1.98157458304509,53.0023345155868 -1.98142847287357,53.0023965007629 -1.98132856133933,53.0024540000232 -1.98085162211412,53.0027002482393 -1.9806519424113,53.0027613260484 -1.98051346910278,53.0025032990503 -1.98038392719086,53.0023343307112 -1.98005481142111,53.0020016840098 -1.97974190283495,53.0019646970267 -1.97921139801641,53.0019457361171 -1.97822336992613,53.0021505482057 -1.97739616902778,53.0023338143023 -1.977051982312,53.0024281091799 -1.97653332221976,53.0025349507945 -1.97575094145895,53.0027379838901 -1.97574934097837,53.0027433752674 -1.9757866584283,53.0028017951375 -1.97577160054244,53.0029231115965 -1.97595333004377,53.0031173475765 -1.97601887226472,53.0032386790592 -1.97605165250166,53.0032819116682 -1.97625567134678,53.0033879931122 -1.97637035069123,53.0035273068895 -1.97649097415781,53.0035840356314 -1.97645053356925,53.0040622041416 -1.97646685524323,53.0040981540295 -1.97653683847574,53.0041917176715 -1.97646985597178,53.0042294484083 -1.97626854465834,53.0043255654196 -1.97638925535325,53.0044496041675 -1.97643090302908,53.0044585986956 -1.97645175116288,53.0045314840972 -1.97631907591273,53.0047138860521 -1.97625344304009,53.0047507180092 -1.97626534832405,53.0047749838557 -1.97629065312395,53.0047839752448 -1.97641732323822,53.0047992769192 -1.97645448015942,53.0049323757257 -1.97643205917619,53.0050393117522 -1.9764067220531,53.0050860369584 -1.97651701924729,53.0051571427141 -1.97665402639393,53.0053701508718 -1.97645878501544,53.0053701132717 -1.97639609104108,53.0054240207664 -1.9763782584039,53.0054546613291 -1.97636779749755,53.0054861123443 -1.97638262896111,53.0055499193311 -1.97644073544088,53.0055706002505 -1.97664346922478,53.0055787268603 -1.97667465045657,53.0056290577116 -1.97653448368175,53.005801662954 -1.97647938416443,53.0058978092817 -1.97652850362319,53.0059508394807 -1.97647930036541,53.0060505808055 -1.9764569222335,53.0060785246513 -1.97635845162374,53.0061683710122 -1.97666689032517,53.0063418717246 -1.97685315938215,53.0063544885015 -1.97689331133184,53.0064076067335 -1.97689328517678,53.0064561346636 -1.9768634334199,53.0066718066029 -1.97679482830069,53.0067464718168 -1.97668751152653,53.0068345198208 -1.97676935323505,53.0070494049377 -1.97680193177015,53.0072435210692 -1.97688690060209,53.0073577569724 -1.97687037417755,53.0074718827799 -1.97688969682499,53.007641732842 -1.97620411319899,53.0077360496897 -1.97588671588631,53.0077449736244 -1.97560641399827,53.0077772696566 -1.97486723043543,53.007907424834 -1.97424859389304,53.0080242099004 -1.9736777843958,53.0080878924397 -1.97327383152274,53.0081713789427 -1.97275524719164,53.0082305757644 -1.97248537710594,53.0082737400439 -1.97235277492821,53.0082988722999 -1.97215894999721,53.0083671256833 -1.97151184480687,53.0087732586337 -1.97135120358777,53.0084594995625 -1.97103871029704,53.0077484070934 -1.97094194789016,53.0074697104508 -1.97068012349555,53.0068934276656 -1.9704746979664,53.00650327027 -1.97038682538772,53.0063521852623 -1.97002038937782,53.0062137017531 -1.96974181147523,53.00607434019 -1.969582394202,53.0059753575699 -1.96945137665957,53.0058522091826 -1.96935150448393,53.0058189330722 -1.96891490763339,53.0056956155416 -1.96828314007804,53.0056442287176 -1.96798656561197,53.0055938257494 -1.96769909800043,53.0055263495948 -1.96750686476105,53.0054472160638 -1.96732073263681,53.0052610545485 -1.96694842636484,53.0049535226135 -1.96667578621536,53.0047862073169 -1.96641814363362,53.0046099989919 -1.96623950218034,53.0044427087566 -1.96602055471356,53.0042817874219 -1.96582552673419,53.0040192347916 -1.96562151306128,53.003780043878 -1.96546380695745,53.0035597376773 -1.96529557120483,53.0032972816859 -1.96504850595467,53.0029736035963 -1.96484161717017,53.0026571262002 -1.96478979045002,53.0023308083587 -1.96463797305448,53.0019828027645 -1.96460229684017,53.0018902309703 -1.96439087328765,53.0017176264426 -1.96404964792492,53.0017669512983 -1.96375147971199,53.0018962691332 -1.96348905366693,53.0020355723036 -1.96337279753799,53.0020705840026 -1.96320298821971,53.0020876072516 -1.9629524866353,53.0022160386894 -1.96277952140229,53.0023302052763 -1.96260510275124,53.0024182199076 -1.96251864952687,53.0025125522522 -1.96245747221518,53.0026438270431 -1.96211743938868,53.0028629932257 -1.96198772199697,53.0029726785471 -1.96191610028767,53.0031029609533 -1.96179220881159,53.0032908319709 -1.96169373624872,53.0034929982914 -1.96162509381915,53.0035874255199 -1.96155350612649,53.003677269098 -1.96144766866258,53.0037329518932 -1.96130439304549,53.0038848685629 -1.96120891615481,53.0040313197527 -1.96107317754162,53.0041355205387 -1.96103732662545,53.004240741388 -1.96103123789001,53.0044528232133 -1.96100128402822,53.004558944867 -1.96092211757468,53.0047386501639 -1.96052574783151,53.0047322304652 -1.96022172346623,53.0047824554292 -1.96007264765389,53.0048202397022 -1.95992506956941,53.0048336708732 -1.95980585893565,53.0048632873027 -1.95968952321949,53.004971985747 -1.95965814839084,53.0050178064471 -1.95954181864474,53.0051193161216 -1.95942701462096,53.0051651995215 -1.95940470583121,53.0052379825717 -1.95921379407896,53.0053385678682 -1.9591198456098,53.0054167191941 -1.95886489037347,53.0055443323478 -1.958794814872,53.0055847479093 -1.95834914175007,53.0057310756358 -1.95822388071897,53.0057877376444 -1.95800916517702,53.0058478732516 -1.95790625853185,53.0059107434302 -1.957787015354,53.0059691141202 -1.95777213799976,53.0059798931923 -1.95771528415003,53.0061929449091 -1.95762430484015,53.0062477314872 -1.95736933266759,53.0063815412385 -1.95724557893591,53.0064013580147 -1.95707420824729,53.0064866688398 -1.95694294341165,53.0065225687103 -1.95673875237934,53.0066186516003 -1.95657923611138,53.0066437566352 -1.95643160698765,53.0067004086873 -1.95634662021172,53.0067803588845 -1.95628390144918,53.0069537773036 -1.95625841773938,53.0070004981501 -1.95610199475243,53.0070040359998 -1.95594996667862,53.007033725589 -1.95581425393251,53.0070911902549 -1.95567408838904,53.0071756124875 -1.95558159288202,53.0072654438398 -1.95535166757123,53.0076438739349 -1.95511010363389,53.0078675492245 -1.95498630299101,53.0079286121427 -1.95482527519671,53.0079825613398 -1.95466875994257,53.0079527565181 -1.95455862211663,53.0078736329558 -1.95443974844729,53.0075733468297 -1.9544711105177,53.0074295736429 -1.95453836295489,53.0072776356742 -1.95466959729663,53.007157265601 -1.95484569307134,53.0070270259473 -1.95488006941757,53.0069361845892 -1.95483542961672,53.0068534910344 -1.95466409857608,53.0067788382569 -1.95456581609224,53.0067617272106 -1.95446593189572,53.0067500062711 -1.95429302638503,53.0067697114825 -1.95401584839077,53.0067435445653 -1.95365079983156,53.0067335191723 -1.95344515939525,53.0066848228732 -1.95339149427779,53.0066560449064 -1.953346799208,53.0066272703928 -1.95333802399477,53.00656166506 -1.9534394194201,53.0064251087759 -1.95346785950775,53.0063729071853 -1.95348425516572,53.0063234875698 -1.95349935441786,53.0062228436657 -1.9535008841075,53.0061725193864 -1.95344284260277,53.0060997054863 -1.95330724645945,53.0060492381872 -1.95322825656323,53.0060330315315 -1.95314189052012,53.0060204167132 -1.95290341950414,53.0059987559376 -1.95259795001979,53.0060067244201 -1.95233853626495,53.0060326823859 -1.95218352039749,53.0060992116185 -1.95208352542084,53.0061890381896 -1.9520834394551,53.0062663223949 -1.95221450806408,53.0064102495074 -1.95226211256102,53.0064740734087 -1.95230222609726,53.0065334006434 -1.9523275780492,53.0066079990795 -1.95227823485705,53.0066726834331 -1.95216047474062,53.0067140640702 -1.95197863238888,53.0067032082363 -1.95176561602444,53.0066607957955 -1.95147218190471,53.0065600280379 -1.95132323410871,53.0064736971021 -1.95129341466701,53.0064386372108 -1.95126666922399,53.0064026796434 -1.95122226593671,53.0061176973925 -1.95121342338072,53.0060052718586 -1.95116143049748,53.0059126885249 -1.9510393694302,53.0057400066461 -1.95101116972368,53.0056860764092 -1.95098891038039,53.0055953029464 -1.95101282137228,53.0055297098544 -1.95107250228221,53.0054524499247 -1.95120819077921,53.0054173674048 -1.95133930329181,53.0054093330391 -1.95149727930038,53.0054418378563 -1.95160891956201,53.0054850190758 -1.95171928643366,53.0054599009871 -1.95179540507897,53.0054050230671 -1.95186246617925,53.0053178802989 -1.95185666976017,53.0052280125066 -1.95166172953166,53.0049600440393 -1.95162751007628,53.0049052117203 -1.95159777179761,53.0047999673171 -1.95157557831071,53.0047586199572 -1.95154870997144,53.0047226624048 -1.95148021763323,53.004662425433 -1.95124487922762,53.0045940314684 -1.95078756287666,53.0044859167021 -1.95047476820732,53.0043545842284 -1.95039127775156,53.0043033259699 -1.95038249565348,53.0042467068412 -1.95050777752342,53.0040705315176 -1.95052723870052,53.0040283021867 -1.95052286329466,53.0039869628506 -1.95051099537019,53.0039429236805 -1.95047077897375,53.0038710145281 -1.95038751315754,53.0037315978984 -1.95024472900617,53.0035301493613 -1.95022094357821,53.0034870041368 -1.9502283735687,53.0034366823189 -1.95024342437579,53.0033836678092 -1.95031802446783,53.0032587844616 -1.95037768864285,53.0031931172627 -1.95057312326222,53.0030161626781 -1.95067007376438,53.0028992868507 -1.95068509607331,53.0028705358042 -1.95066869363454,53.0028175083184 -1.95040679440958,53.0025638891262 -1.95022806327863,53.0024281175519 -1.95014918247417,53.0023256380911 -1.95014770724748,53.0023256374788 -1.95009713245492,53.0022868839873 -1.95010459612927,53.0022087038784 -1.95013303006845,53.0021628835617 -1.95026727433012,53.0019868029441 -1.95029130094448,53.0019274107279 -1.95029280680283,53.0018995530472 -1.95027783583373,53.0018851686896 -1.95025708563483,53.0018725788696 -1.95018399720698,53.001860866264 -1.95035113348156,53.0017153524373 -1.95000857546012,53.0015228072554 -1.94962441018494,53.0012978925419 -1.94935034730933,53.0011638765176 -1.9492863820159,53.0011261058311 -1.9492312624119,53.0010892377664 -1.94915542533461,53.0010127303912 -1.94915236487772,53.0010037417321 -1.94953692506422,53.0008870790287 -1.94937482542702,53.0006155255404 -1.94931999872388,53.0004339734839 -1.94924560874549,53.0002783837076 -1.94883451726223,53.0001874447442 -1.94849474743753,53.0001450629801 -1.94834268605993,53.0002195861302 -1.94759517608629,52.9998588101602 -1.94751474133119,52.9998300177842 -1.94743872364523,52.999805720971 -1.94725700667305,52.9998182224956 -1.94697535628667,52.9997730752776 -1.9468353402579,52.9997415602559 -1.9466998738719,52.9997073512399 -1.9465300466161,52.9996425716999 -1.94634096718238,52.9995490269764 -1.94631408629016,52.9995292450868 -1.9463725158786,52.9992721640381 -1.94644322597808,52.9987220371589 -1.94658702772833,52.998173738766 -1.94667972026569,52.997923953069 -1.94674408054507,52.9976363202171 -1.9468657926177,52.9968641561229 -1.94689584030622,52.9966052660899 -1.94691874935066,52.9961576533684 -1.94689649572891,52.9960731696078 -1.94584809229492,52.9957212355487 -1.94562614004204,52.9957012745472 -1.94525684869831,52.9955276660653 -1.94512130053469,52.9954718865991 -1.94499176763211,52.9954206043201 -1.94475647799936,52.9953601960067 -1.94455836138103,52.9953394349577 -1.94446598852405,52.9953357983814 -1.94421121101506,52.9953374771544 -1.94375981663067,52.9952986238228 -1.9436181806253,52.9952985573605 -1.94324111594276,52.9954386609793 -1.94308460179428,52.9954484722312 -1.94296107745548,52.9954070750839 -1.9428761608992,52.9953386459878 -1.94289284251352,52.9951715039233 -1.94293173880883,52.9950195587221 -1.9429035743275,52.9949530443459 -1.94277415859152,52.9948154879502 -1.94279818733079,52.9946671304613 -1.94279232205519,52.9945512006304 -1.94278340704486,52.9945116557167 -1.94251134797257,52.994119530427 -1.9424801546132,52.9940215613822 -1.94245065083398,52.993854396297 -1.94232637849195,52.9931818692859 -1.94229254701828,52.9928528538066 -1.94219675535838,52.9921049426542 -1.94211970876914,52.9917606293153 -1.94208109488942,52.991611342858 -1.94162251599285,52.9903769913822 -1.94149908752154,52.9901854268999 -1.94132947907072,52.9899929416962 -1.94113319750661,52.9898158092513 -1.94087872835407,52.9896160912969 -1.94073135920215,52.9895108758605 -1.94066582293503,52.9894722008232 -1.94051838305037,52.9894190171042 -1.94021455528075,52.9893883119043 -1.94013263916611,52.9893828793528 -1.94001644543963,52.9893828213171 -1.94006898019952,52.9891429050215 -1.9399930455781,52.9890753772677 -1.9398710106486,52.9890375733352 -1.93973248668737,52.9890222258336 -1.93958347391093,52.9890410227508 -1.93928541657938,52.9891019815611 -1.9385001093496,52.9892517474171 -1.93836145167387,52.9893298595569 -1.93823332067617,52.9893468685733 -1.9376179974541,52.9894094563296 -1.93722463491131,52.9894623617918 -1.93694017589391,52.9894586177836 -1.93666163420315,52.9894404980427 -1.93658866883032,52.9894449522687 -1.93651705078608,52.9894530028313 -1.93629958685005,52.9894951240224 -1.93591498743451,52.9896000627147 -1.93568560494639,52.9896439742439 -1.93560366343978,52.9896556125878 -1.93521915250953,52.9896985408811 -1.93454574234428,52.9897494888882 -1.9344236419721,52.989756611696 -1.93406904647558,52.9897537204417 -1.93379809658771,52.9896708051233 -1.93343326167421,52.9895385000199 -1.93271584709899,52.9892162889085 -1.93255947099358,52.9891505989413 -1.9322125543755,52.989031690417 -1.93213687720764,52.9888869632721 -1.93205496389215,52.9888024429116 -1.93192393649897,52.9887861026408 -1.93184217006629,52.9886863051165 -1.93166350446009,52.9886601419509 -1.9315890668778,52.9885864098368 -1.93150574276592,52.9885405300412 -1.93145970201283,52.9884523451005 -1.93136441263978,52.9884388112907 -1.9313331242041,52.9884190225774 -1.93130786255752,52.9883938456052 -1.93134230338987,52.9882851278151 -1.93133339583499,52.9882482769894 -1.93124561273783,52.9882266589265 -1.93117724797395,52.9881204881049 -1.93097325768506,52.9880332009438 -1.93093154756099,52.9880017237879 -1.93086009185537,52.9879855065559 -1.93075588665469,52.9879423109265 -1.93071426868257,52.9879306036366 -1.93060546977589,52.9879179594198 -1.93053107068893,52.987899044431 -1.93047741804827,52.9878864320606 -1.93040305674242,52.9878441523523 -1.93032275737429,52.9877514533603 -1.93029146414419,52.9877361580542 -1.93025721276727,52.9877262527243 -1.93016939637632,52.9877262015685 -1.93005473569807,52.9876928846203 -1.92999689833685,52.9875346863112 -1.92987034930224,52.987485995241 -1.92975268158282,52.9874895210679 -1.92972284880783,52.9874823140278 -1.92949523508772,52.9873491782405 -1.92948643058039,52.9872503208961 -1.92944030556336,52.9872170427754 -1.92909798026849,52.9870091610124 -1.92892536865025,52.9868912438739 -1.92887488551037,52.9868202200903 -1.92870370081668,52.9867311506369 -1.92864417664086,52.9867059526863 -1.92848936647216,52.9866672176815 -1.92841041380274,52.9866563870981 -1.92826144903485,52.986648209501 -1.92818702176277,52.9866481648961 -1.92791286284503,52.9866659740472 -1.92717398651001,52.9866691208743 -1.92696686407119,52.9867004478648 -1.92671524485724,52.9866796253251 -1.92634738014057,52.9866227839856 -1.92615979913131,52.9865740513892 -1.92577115079317,52.9864623767404 -1.92557462687923,52.9864011454115 -1.92479321011986,52.9860806441478 -1.92451869036435,52.9863061258369 -1.9239947281138,52.9869494150062 -1.92360066854131,52.9873985835096 -1.92341958350307,52.9879108841618 -1.92332807900958,52.9882577988158 -1.92341526652648,52.9894444455291 -1.92341906860822,52.9898633138064 -1.92347810335154,52.9901653904743 -1.9236101725541,52.9904261761009 -1.92376916238586,52.9906761952959 -1.92395929687613,52.9910277820221 -1.92412864066553,52.9912597435373 -1.92425516281409,52.9913255155929 -1.92425360903753,52.991371346798 -1.92413418215863,52.9915312326002 -1.92407597095358,52.9915949999454 -1.92333961204458,52.9917932247655 -1.92288359499834,52.9918971766827 -1.92264823432094,52.9919051124353 -1.92189734330256,52.991913611481 -1.92148608171237,52.991924216708 -1.92091251618964,52.9919570892558 -1.92072583372175,52.9922121855547 -1.92066750083081,52.9923389482266 -1.9206135878029,52.9924665219253 -1.92050577524018,52.9927801725996 -1.92033219680904,52.9931864317377 -1.9202603481492,52.9933804943362 -1.92019145534907,52.9935701559591 -1.92014345524079,52.9937534500593 -1.91946920874209,52.9934186074632 -1.91934706572375,52.9933762878067 -1.91899718433584,52.9932682120505 -1.91855485411862,52.9932005128975 -1.91835672597265,52.9931976820812 -1.91805573008052,52.993222638952 -1.91781879722657,52.993212591266 -1.91761777239876,52.9931827970144 -1.91720977602776,52.9930844726237 -1.91712184915469,52.9930727285962 -1.91704138521464,52.9930762676737 -1.91695207109021,52.9930824964152 -1.91684467624244,52.9931012937893 -1.91658833180441,52.9931577311916 -1.91636177721469,52.9932448329392 -1.91633188030502,52.9932690765395 -1.91630652530531,52.9932951193426 -1.91627354207456,52.9933912534906 -1.91631052863259,52.9935117891043 -1.91637736598051,52.9936313576365 -1.9164142786509,52.9937895479117 -1.91607429897696,52.9939610438551 -1.91576022488066,52.9938233285839 -1.9155729516467,52.9936074286975 -1.91599837661678,52.9931447376895 -1.91571695439884,52.9930843296144 -1.91547890878806,52.9929538566025 -1.91543116857651,52.9929322551792 -1.91534633439051,52.9929088296914 -1.91508433627039,52.9928420533297 -1.91430235149671,52.9927264681972 -1.91404330272472,52.9926597815448 -1.9139480756195,52.9926138818549 -1.91390942231912,52.9925319860655 -1.91390866392535,52.9921733300161 -1.9139028766831,52.9921185071672 -1.91387315451624,52.9920555795467 -1.91368613221017,52.9917219528177 -1.91348557346806,52.9914026932887 -1.91339797865339,52.9912885007094 -1.91333395546867,52.9912416333743 -1.91319114106754,52.9911615496441 -1.91314644903233,52.99115253076 -1.91310027462094,52.9911480035736 -1.91298259755421,52.9911506139771 -1.91276648268595,52.9911783159978 -1.91258350618813,52.9910982013722 -1.91249267864031,52.9910648849696 -1.91240478848592,52.991036961455 -1.91228864310712,52.9910117139349 -1.91222158913604,52.9910062730922 -1.91173298839687,52.9909987243784 -1.911543884114,52.9909725243064 -1.91143968617259,52.9909310188653 -1.91134301665241,52.9908725347557 -1.91129703471583,52.9907745465355 -1.9110358497004,52.9909775396207 -1.91085342920289,52.9912838467758 -1.91078776386746,52.9913791460632 -1.9104923767871,52.9915469755651 -1.9106395190142,52.9917296026044 -1.91062757600811,52.9917430738589 -1.91050368296588,52.9918400365527 -1.91042615509869,52.991909175457 -1.910175305679,52.9921580065571 -1.90985618889268,52.9923330951735 -1.90923562703705,52.9926867880892 -1.90913093329742,52.9928800109545 -1.90914856882721,52.9930220128215 -1.90919444381453,52.9931704157213 -1.90950663678897,52.9934897668344 -1.90966893707495,52.9935330248449 -1.90984019759909,52.9935205726943 -1.90983275990307,52.9935529191241 -1.90981622527202,52.9935888525722 -1.90965951867019,52.9937486958437 -1.90950418962037,52.9939544620265 -1.90933671023994,52.9942123407077 -1.90913489609096,52.994558260887 -1.90875968581252,52.9951665486014 -1.90853554341264,52.9954360652115 -1.9083769913395,52.9957658419573 -1.90813173321277,52.9961997957385 -1.90798942266996,52.9965143072926 -1.90829179984834,52.9965468913658 -1.90856738081578,52.996586642842 -1.90867620632301,52.9965939154562 -1.90898305972143,52.99660133871 -1.9092870405684,52.9965719132963 -1.90903772639691,52.996834223069 -1.90867473285517,52.9972906448792 -1.90854923563419,52.9974397269706 -1.9084627758399,52.9974279776612 -1.90825071415695,52.9976714423632 -1.90781445014762,52.997569558335 -1.90726332261342,52.9974683927846 -1.90712705733072,52.9977667319077 -1.90693736055791,52.9980030220617 -1.90673714614814,52.9982734526417 -1.90654568243773,52.9985861261884 -1.90684209222508,52.9986573510117 -1.90696575396519,52.9986799138268 -1.90708930287894,52.9986988816593 -1.90736491764458,52.9987287514651 -1.90822123242152,52.9989415842345 -1.90865600527821,52.9990587427105 -1.90885719953826,52.9990768690234 -1.90888989829896,52.9991254219189 -1.9094607518991,52.9990296989094 -1.90960226641104,52.9990351975702 -1.90962591106264,52.9991250809951 -1.90961654743634,52.9993138823182 -1.90962778731468,52.9996374979859 -1.90982403862469,52.9998471231603 -1.90989507795345,53.0000691460514 -1.90986383042494,53.0000889822808 -1.90949540344193,53.0002567539523 -1.90893900902403,53.0005386005684 -1.90880624051486,53.0006355545442 -1.90880014282155,53.0006723946682 -1.9088015399766,53.0007093312934 -1.90883415073272,53.0008001205875 -1.90899462547102,53.001022301036 -1.9092519746031,53.0012166065549 -1.90942289372768,53.0014396932445 -1.90956394534937,53.0016699466454 -1.90961426125564,53.0018146687575 -1.90963039461123,53.0019720361584 -1.90961064990373,53.0021310835044 -1.90955967420866,53.0023018803481 -1.90972304350355,53.0025545261994 -1.90977319026472,53.0027802170293 -1.9098990410512,53.0031740144282 -1.91000452159584,53.003320664676 -1.91015482311253,53.0034205293582 -1.90977593511059,53.0036423025739 -1.90948019643849,53.0039360300566 -1.90911625001226,53.0041181819623 -1.9088536256515,53.0042618572677 -1.90804187186722,53.0047663719411 -1.90774650861792,53.0049324862169 -1.9074855013605,53.0050625906 -1.90713957436272,53.0051423935563 -1.90704858222473,53.0051737750626 -1.90670874563942,53.0052211396402 -1.90642688879323,53.005273940293 -1.90603037586532,53.0053356376477 -1.90594086763315,53.0053625266919 -1.90572183806972,53.0053965032136 -1.90531175367276,53.0054816419751 -1.90477070928143,53.0055575988144 -1.90470801310361,53.0055719270479 -1.90464691243359,53.0055871554352 -1.90441425085067,53.0056723424704 -1.90395795799022,53.00581495403 -1.90349244577031,53.0060131821717 -1.9031478559638,53.0062017118585 -1.90251815144849,53.0065742331278 -1.90235842922646,53.0066766403225 -1.90205840035637,53.0068803903632 -1.90191513650713,53.0069846073619 -1.90163738894427,53.0072225234799 -1.90143563448682,53.0074345301352 -1.90131177159444,53.0075431662168 -1.90093703563587,53.0078484895144 -1.90079039095641,53.0080848051404 -1.90066908501761,53.0083624791085 -1.90049714591113,53.0085897869047 -1.9003507474511,53.0087172741307 -1.89992673049525,53.009070182959 -1.89967295986317,53.0092381088534 -1.89933548646343,53.0095191955906 -1.89876808174993,53.009962742952 -1.89816478513017,53.0104575715758 -1.89758251606374,53.0108885193828 -1.89729597343775,53.0110320587361 -1.89662598061799,53.0113974154395 -1.89583513116866,53.0117823431386 -1.89541273913256,53.011994956225 -1.89502922115455,53.012188820006 -1.89424133673889,53.0125557667991 -1.89313556752964,53.0131004493985 -1.89259231269072,53.0133759403324 -1.89159247442157,53.013856807902 -1.89101793419384,53.0141520339921 -1.89091325469276,53.0142868269206 -1.89062159426712,53.0146865530474 -1.89043304992674,53.0149848244221 -1.89008924383367,53.0153467569438 -1.88972354240815,53.0155693770865 -1.88924419456199,53.0158727707024 -1.88860706636627,53.0161158045167 -1.88889859675476,53.0163983435334 -1.88933432762579,53.0167645908985 -1.88961843199853,53.0170237557792 -1.88987858806003,53.0172765183414 -1.89010755808223,53.0175176583919 -1.89021454157319,53.0176408727094 -1.89030369861418,53.0177659574033 -1.89047152456899,53.0180331019501 -1.89073265150509,53.0184890493719 -1.89075285452815,53.0187623491682 -1.89078362971033,53.0189862327508 -1.89079058117486,53.019153388427 -1.89088391064374,53.0193800248915 -1.89093426324467,53.0195419192305 -1.89100501113844,53.0198530085651 -1.89103159817251,53.0199357085226 -1.89117548014007,53.0202468643183 -1.89141583228951,53.020712676506 -1.8914897549954,53.0209365989778 -1.89149112766823,53.0209770396216 -1.89148816162412,53.0209833275249 -1.89124054904714,53.0210567928987 -1.89098546556311,53.0211195556833 -1.89092725283007,53.0211482597553 -1.89087198947532,53.0211778654018 -1.89069726627657,53.0212990241056 -1.89040446396905,53.02154777402 -1.89014537346844,53.0219753865871 -1.88975506094379,53.0224757579744 -1.8896130226509,53.022645472983 -1.8893124816382,53.0229822812999 -1.88907602038646,53.0233021633145 -1.88899358279998,53.0234764255718 -1.88864152116573,53.0241484724383 -1.88848268391891,53.024489005146 -1.88830442411834,53.0247809917034 -1.88809609577241,53.0251961547947 -1.8874362036664,53.0261465832599 -1.88705739290377,53.0267349346838 -1.88700801829901,53.0268122628301 -1.88664661045999,53.0270419759393 -1.88638813444562,53.0272565995192 -1.88517676640572,53.0280842722137 -1.8849183115228,53.0282394906759 -1.88461672382097,53.0283875682944 -1.88442862984953,53.0284799486039 -1.8841164884579,53.0286657573872 -1.8835087994843,53.0289896716952 -1.88313257549512,53.0291843128871 -1.8827532782112,53.0293772419365 -1.88202465834899,53.0297234965257 -1.88118137043664,53.0295167795787 -1.88073137248762,53.0293986084375 -1.88027388051564,53.0292786302678 -1.87885699498442,53.0288924000834 -1.87800713521322,53.0288906373277 -1.8775630105072,53.0288308723762 -1.87744369702021,53.0288100805886 -1.87707728709661,53.0287009676669 -1.87684942068363,53.0285946023077 -1.87671248322943,53.0285036971837 -1.87659693810621,53.0282401824361 -1.87626449730741,53.0277338063252 -1.87605346824326,53.0274603068496 -1.87585597385735,53.0271832262897 -1.87568483926123,53.0270599326121 -1.87549848028333,53.0270579418143 -1.87505119419889,53.0270781439894 -1.87475581376441,53.0271119837626 -1.87454862974035,53.0271270435999 -1.87444981097703,53.0272473599494 -1.87415486036658,53.0271751576184 -1.87405496291941,53.0271588765217 -1.87395665749182,53.0271452928564 -1.87370611760906,53.0271468263315 -1.87339145983242,53.0271716559296 -1.87298879011252,53.0271945934169 -1.87175706932857,53.0272561845673 -1.87093989401301,53.027311920569 -1.86999577549318,53.0273918663128 -1.8691173763624,53.0274870645415 -1.86922235166916,53.0272875876928 -1.87000768450377,53.0254375750135 -1.86970968901478,53.0253626624967 -1.86911226841811,53.0252388940237 -1.86747057919087,53.0247992601779 -1.86699393810393,53.0246585408855 -1.86672762729225,53.0249548898467 -1.86660808681977,53.0250527100874 -1.86654511923449,53.0251416069557 -1.86644644913107,53.0252476277361 -1.86609082826482,53.0254836662778 -1.86580978245147,53.0257313798659 -1.86562908622512,53.0258471931806 -1.86529396604271,53.0262072662902 -1.8651055482286,53.0263930755808 -1.86501721929814,53.0264928162378 -1.86481237476553,53.0266633294922 -1.86454462277282,53.0269399011701 -1.86438030199303,53.0270449477743 -1.86427252555468,53.0271904078389 -1.86408248838526,53.0274194387252 -1.86395827004276,53.0275540955509 -1.86377866867217,53.0277867316665 -1.86338948679859,53.0282437931927 -1.86328625432342,53.0283498060853 -1.86317697489624,53.0285015539934 -1.86303188745953,53.0286641340046 -1.86300283187952,53.0288707910937 -1.86319565254717,53.0292027050074 -1.86324900906523,53.0292801407953 -1.86353890529621,53.0295888006461 -1.86380176196505,53.0298965300526 -1.86398161653766,53.0300935398775 -1.86419658159204,53.0299949319011 -1.86432944484109,53.0299672246146 -1.86445774454764,53.0299440056639 -1.86468581071784,53.0299397704119 -1.86491387834523,53.0299750760488 -1.86535187863418,53.0301049766692 -1.86561117237091,53.030140316139 -1.86591064735625,53.0302225199343 -1.86636668776539,53.0302850375562 -1.8671953998421,53.0304162655429 -1.86802387350558,53.030587118699 -1.86886885728235,53.0307480089468 -1.86906297320789,53.0306700388815 -1.86936836697462,53.0307494547088 -1.86982590475274,53.0308488960579 -1.87035193477854,53.0309447244024 -1.8712625471627,53.0310778106238 -1.87147876286621,53.0310915233145 -1.87157122428161,53.0310889268331 -1.87166369904885,53.0310818366357 -1.87196215054616,53.0310174538643 -1.87286887707612,53.0309689947468 -1.87389627531587,53.0309395286856 -1.8742139390782,53.0309470527667 -1.87461631453871,53.0309951041865 -1.87448137282559,53.0312736350636 -1.8742701789411,53.0316033091893 -1.87418464255623,53.0317604837683 -1.87413633131786,53.0319690100274 -1.87412266304616,53.0320606585282 -1.87411771277112,53.0322404742351 -1.87490033492335,53.0323024035647 -1.87620646275145,53.0323657706407 -1.87672676068479,53.0324140259235 -1.87772849667462,53.0325139066994 -1.8783917993043,53.0326008542288 -1.8784424364241,53.0326071962886 -1.87891067695414,53.0326310357912 -1.8797975207788,53.0327560349785 -1.88030442503815,53.0328041712597 -1.88077836965379,53.0329008011563 -1.88099596637007,53.0329091053556 -1.88122712621854,53.03290304454 -1.88206386521342,53.0328310813361 -1.88337787488904,53.0327631732451 -1.88377454636248,53.032748282306 -1.88440380987166,53.0327426014385 -1.88652110468356,53.0327886628149 -1.88712144385623,53.0324665243137 -1.88759750554833,53.032321300373 -1.88818843086153,53.0321627926442 -1.88882102414703,53.0320069266477 -1.88910306035816,53.0319604584924 -1.88938200970657,53.0319184795735 -1.88991588939135,53.0318992022227 -1.89097714709867,53.0314660338233 -1.89202619243008,53.0311387960164 -1.89308267587243,53.0308296192116 -1.89354679046532,53.0306781600443 -1.89435286645837,53.0303498771634 -1.89448864421081,53.0302790035934 -1.89497946918919,53.0302110478964 -1.89530897799461,53.0301996534276 -1.89577261318526,53.0302405873138 -1.89641665999113,53.0302582212552 -1.89662697322401,53.0302745789949 -1.89687303882267,53.0302496289166 -1.89736384779182,53.0301340345246 -1.89751009069604,53.0301063016559 -1.89764882624507,53.0300821560376 -1.89776365986059,53.0300786594231 -1.8978783620429,53.0300796562457 -1.89813322088003,53.0301301980773 -1.89856999411127,53.0301979684692 -1.89899481123583,53.0302792962426 -1.89940587548011,53.0304593734777 -1.90009556484245,53.030783556538 -1.90043665951911,53.0309214245165 -1.9008476883847,53.0311221653983 -1.90132129719347,53.0313778646664 -1.90151039642615,53.0315344759723 -1.9017724746913,53.0316605031294 -1.90211506696483,53.0318477935144 -1.90244997420851,53.0321186520405 -1.90262566739506,53.032226633997 -1.90291740582436,53.0324516241459 -1.90329401402424,53.0327719398508 -1.90403665508759,53.0334206475592 -1.90441456483653,53.0337715146625 -1.90480001855901,53.0341610288347 -1.90563172298331,53.034978833586 -1.90638910420684,53.035781207407 -1.907094452194,53.0364927711168 -1.90735337046168,53.0367374961878 -1.90788938402649,53.0371253188023 -1.90813056592521,53.0373304872321 -1.90821386200675,53.0374213150277 -1.90829559689075,53.0375535696482 -1.9084664329056,53.0378817982088 -1.90858695302436,53.0380481410892 -1.9087460761746,53.0382181979178 -1.90878924215334,53.0382739479779 -1.90889325587821,53.0384547459149 -1.90901830803667,53.0385725650249 -1.90917595415804,53.0387453159719 -1.90928901703854,53.0388936787487 -1.90933490552242,53.0390582572213 -1.90932873006523,53.0391885567531 -1.90921034720087,53.0394060311088 -1.90919090091343,53.0394725168217 -1.90919960138584,53.0396037265343 -1.90919452853975,53.0398518407249 -1.90932677350953,53.0401189307366 -1.9093280803334,53.0401989122389 -1.9093023436297,53.0403912936193 -1.90930368593491,53.0404550992614 -1.90933617816655,53.0406169717066 -1.90933158807789,53.0406358399431 -1.90929423800528,53.04067894673 -1.909111962569,53.0408109104365 -1.90905212162821,53.0409053134324 -1.90896528487002,53.0410894708863 -1.90896946107468,53.0412080959971 -1.90889173142432,53.041271032445 -1.90873502096059,53.0413499946263 -1.9087303068768,53.0414272747976 -1.90869744552313,53.0414982438254 -1.90856433418919,53.0416402193744 -1.90851206000392,53.0417030851251 -1.90847614934714,53.0417614697181 -1.90836821091502,53.0419780522199 -1.90835602786537,53.0420975637071 -1.90832300846172,53.0422423113965 -1.90831213359648,53.0424409054405 -1.90832543248586,53.0424904311604 -1.90838919201716,53.042636959985 -1.90844690329343,53.0428518722774 -1.90860835925455,53.0433795943815 -1.90870756675843,53.0437456008106 -1.90874928437615,53.0437905655064 -1.90876680018819,53.0439397546552 -1.90876666704493,53.0440026602249 -1.9087423812274,53.0442049286531 -1.90878379486102,53.0443937671181 -1.90882092775355,53.0444558021703 -1.90888338046444,53.0445241470557 -1.90889667324041,53.0445771775355 -1.90888889908288,53.0447641815801 -1.90899729300129,53.0449754474671 -1.9090566429916,53.0451157718399 -1.90906702368733,53.0451508272938 -1.90907444912968,53.0451867785119 -1.90904512562467,53.0456200861287 -1.90915532982391,53.0457325019899 -1.90919998660704,53.0457846573166 -1.90922506823847,53.045905095987 -1.90921581168865,53.0460372807213 -1.90920526975102,53.046078609952 -1.90915887795066,53.0461495687821 -1.90913943420234,53.0462133576808 -1.90914084821939,53.0462431045496 -1.90919275591903,53.046356374105 -1.90919725431726,53.0463806408669 -1.90914925744959,53.0464542943 -1.90904919441086,53.0465476778635 -1.90893107506952,53.0466887661818 -1.90893671173379,53.0468145817536 -1.90884107025591,53.0469107542198 -1.90882009696757,53.0469412930543 -1.90881847382875,53.0470104880211 -1.90893137077266,53.0472470085606 -1.90887137435535,53.0474105175494 -1.90885927245065,53.0474922856594 -1.9088515942425,53.0475750459356 -1.90889296806729,53.0477844629387 -1.90885703893725,53.0478501269337 -1.90882840947567,53.0479534499642 -1.90888786537015,53.0480460567614 -1.90893257359024,53.0480748477719 -1.90898318834262,53.0481018454396 -1.90918452725145,53.0481605002409 -1.90929012844889,53.0483007705078 -1.90938225835353,53.0484716733743 -1.90949698116943,53.0485445510887 -1.90951329408812,53.0485661309347 -1.90952517770642,53.0485886063392 -1.90951906593378,53.0486874537947 -1.90953383946337,53.0487395863751 -1.90955758817623,53.0487927145342 -1.90968851227654,53.0489410910403 -1.90971389074137,53.0489797524633 -1.90971381919986,53.0490139010444 -1.90969716318812,53.0490975525905 -1.90975070691326,53.0491955461286 -1.90971030774497,53.0492224748276 -1.90959234594372,53.0492852914085 -1.90950384578909,53.0495513158159 -1.90948565211078,53.0496636332508 -1.90940626784903,53.0498056501643 -1.90948662858679,53.049901866285 -1.90930446224147,53.0499637351023 -1.90928638582034,53.0500788392043 -1.909375655879,53.0502083118666 -1.90949919509599,53.0503018657255 -1.90967194622782,53.0504485661153 -1.90967641285743,53.0504890087414 -1.90960751654348,53.0506138692413 -1.90959524357685,53.0507766057896 -1.90960064617857,53.0510157414353 -1.90970948840683,53.051080527108 -1.90996744846936,53.0511265523242 -1.90945539109354,53.0513041888493 -1.90942824549772,53.051403020508 -1.90945479387988,53.0515882528359 -1.90942603283149,53.0517535828015 -1.90927971153149,53.0518460336017 -1.9090183218544,53.0519663438977 -1.9090226912119,53.0520526182639 -1.90906257479412,53.052212698516 -1.90902640695703,53.0523897058593 -1.90889639101958,53.0525064310266 -1.90879318930404,53.0526223692656 -1.90856917168955,53.0527507055114 -1.90850941040589,53.052799186561 -1.90845555170209,53.0528486608957 -1.908389611567,53.0529690301284 -1.90826421189661,53.0529949952412 -1.9080612697639,53.0530442651198 -1.90809511884177,53.0532645508665 -1.9081008683912,53.0533373462585 -1.90801715283069,53.0534280457009 -1.90791112241875,53.0534846691381 -1.90770923711508,53.0537280478702 -1.90751783667298,53.0538996321818 -1.90742224982774,53.0539615659096 -1.90721324972589,53.05402251185 -1.90697292624914,53.0540627644529 -1.90715481130063,53.054140280237 -1.90741408850637,53.0542671904867 -1.90763451091534,53.054444485499 -1.90761509194053,53.0544938961215 -1.90759265204775,53.0545181430437 -1.90753734570197,53.0545531469794 -1.90679273768692,53.0546217653994 -1.90672405806379,53.0546396855556 -1.90666730260441,53.0546621068235 -1.90663145799973,53.0546845452851 -1.90657461497181,53.0547465984366 -1.90646361466658,53.0550503456093 -1.90667706854166,53.0549803273089 -1.90681228514054,53.0552519157905 -1.90697604498673,53.0554093972461 -1.90711464594129,53.0554822949909 -1.9075054054124,53.0555643750999 -1.90813028507024,53.055634951731 -1.90823317556964,53.0556692692428 -1.90829129950159,53.05569807081 -1.90834055804702,53.0557304602934 -1.90838364149767,53.055775425258 -1.90841636339614,53.0558329643031 -1.90844302341711,53.0559066745654 -1.90845932274704,53.0559939459232 -1.90845766229745,53.0560802147361 -1.90845006169309,53.0561260406874 -1.90831791667334,53.0565430035167 -1.90830437396487,53.0566059886644 -1.90829674099417,53.0566661926222 -1.90831741328327,53.0567794386127 -1.90940609055243,53.0570238921277 -1.90981477121835,53.057074525444 -1.91030994392942,53.0571207285921 -1.91131083133332,53.0572932077402 -1.91162394713083,53.057395885406 -1.91180416469984,53.0575182349534 -1.91194263296554,53.0576640087356 -1.91200333805062,53.0578771235706 -1.91212602901259,53.0584596302634 -1.91211381795106,53.0585963057639 -1.91177301144402,53.05891337007 -1.91169651508342,53.0590813618394 -1.91163635662017,53.0593204498708 -1.91168985583386,53.0594481889875 -1.91180603904599,53.0595444305729 -1.9121976486207,53.0591725857601 -1.9123456580919,53.0590458936157 -1.91268019220081,53.0589086441125 -1.91279684495644,53.05877384095 -1.91316006681298,53.0584397158461 -1.91324078505545,53.0583705782047 -1.91352463373304,53.0581675988407 -1.91387419439984,53.0579539717844 -1.91421331406925,53.0577923677473 -1.91510389459808,53.0570855848251 -1.91544018382206,53.0567936711327 -1.91588116982082,53.0563679303549 -1.91648773223764,53.0559386197931 -1.9176053096109,53.0551079613438 -1.91842246235814,53.0545323055455 -1.9185975996384,53.0542879006691 -1.92047244079058,53.0529300388255 -1.92088772111085,53.0525887361572 -1.92131216913466,53.0522078068444 -1.92175165044939,53.0517407054196 -1.92189212319166,53.0516033033571 -1.92290783792423,53.0508685931796 -1.92330665150244,53.0505659135263 -1.92369955492404,53.0502632280086 -1.92445251870713,53.0496506452724 -1.92476177645856,53.0494135964006 -1.92508598572923,53.0490649430989 -1.92533002228728,53.0485599637104 -1.92578658413803,53.04769727266 -1.9259662903216,53.047258751449 -1.92626123516473,53.0466027380042 -1.92645264993025,53.0463601304766 -1.92660227657483,53.0461004213693 -1.92659052564706,53.0459952723926 -1.92636338420948,53.0453398355934 -1.92616613514682,53.0446835187033 -1.92611402583271,53.0445908360236 -1.92639242171946,53.0440363588192 -1.92687108255544,53.0432276856493 -1.92687108408137,53.0432267867409 -1.92704606600469,53.0429455257651 -1.92721951436611,53.0426975133467 -1.92824782640979,53.0414540389802 -1.92848829137618,53.0412006730918 -1.92881261716834,53.0407999776024 -1.92960760962904,53.0399078153114 -1.93035913453195,53.0390327870385 -1.93027716059709,53.0390047904846 -1.93072548030093,53.0384792491695 -1.93113924197516,53.0380263865332 -1.9314456302696,53.0376634168177 -1.93153662369489,53.0375852861029 -1.93181432147682,53.0373993330941 -1.93144339908979,53.0371339286923 -1.93106504892759,53.0369027583396 -1.93106659860161,53.0368560293815 -1.93116669945533,53.0366951379123 -1.93152081052646,53.0363169183375 -1.93155378988042,53.0362225785523 -1.93151662866688,53.0361622575268 -1.93141825791188,53.0360885113221 -1.93124097765825,53.0359949500686</coordinates></LinearRing></outerBoundaryIs></Polygon>
  </Placemark>
