  <Placemark>
	<Style><LineStyle><color>ff0000ff</color></LineStyle><PolyStyle><fill>0</fill></PolyStyle></Style>
	<ExtendedData><SchemaData schemaUrl="#Wards__December_2019__Boundaries_EW_BFE">
		<SimpleData name="objectid">6686</SimpleData>
		<SimpleData name="wd19cd">E05012459</SimpleData>
		<SimpleData name="wd19nm">Wheatlands</SimpleData>
		<SimpleData name="wd19nmw"></SimpleData>
		<SimpleData name="bng_e">461335</SimpleData>
		<SimpleData name="bng_n">522696</SimpleData>
		<SimpleData name="long">-1.05223</SimpleData>
		<SimpleData name="lat">54.595741</SimpleData>
		<SimpleData name="st_areashape">1093294.62364631</SimpleData>
		<SimpleData name="st_lengthshape">4791.31094286927</SimpleData>
	</SchemaData></ExtendedData>
      <Polygon><outerBoundaryIs><LinearRing><coordinates>-1.06319452723218,54.6011717235328 -1.06288366914335,54.5987338529049 -1.06268045191516,54.5971344197588 -1.06253770196519,54.5960702014445 -1.06252377401838,54.5960709923165 -1.06194591025135,54.5960943689043 -1.06193840739274,54.5960502696552 -1.06191597701375,54.5960497364337 -1.06190845889366,54.595966010289 -1.06190796373769,54.5959606143218 -1.06190393856153,54.595913491859 -1.06189942236827,54.5958607937226 -1.0618969775613,54.5958324660929 -1.06189013809813,54.5957798398275 -1.06188645531725,54.5957515026074 -1.06187729510268,54.5956449370441 -1.06187705784861,54.595641789796 -1.06186804323264,54.5955491011108 -1.06186691553114,54.5955375532125 -1.06186479258532,54.5955154290257 -1.06185223818854,54.5954286083138 -1.06184437960511,54.5953731882121 -1.06183556991983,54.5953120091336 -1.06183143123298,54.595283308902 -1.06177276217743,54.5952433120819 -1.06176090695607,54.59520691321 -1.06172679184934,54.5951019516615 -1.06172606147226,54.5951000587563 -1.06172173081953,54.5950864550032 -1.06169094383687,54.5949915845415 -1.06168343589964,54.5949680705924 -1.06164153261649,54.5948450748941 -1.06163239273749,54.594818492754 -1.06160140392899,54.5947256876841 -1.06155766496279,54.5945950388703 -1.06154984562117,54.5945716123666 -1.06152433318305,54.5944695033454 -1.0615101514013,54.5944131355202 -1.06149155266978,54.5943334574203 -1.06146998317135,54.5942416239929 -1.06148052629691,54.5942408070125 -1.06147096602762,54.5941988540186 -1.06146115204421,54.5941544725971 -1.06143940950325,54.594056706473 -1.06143870806605,54.5940535556254 -1.06143448912059,54.5940350998045 -1.06143421061087,54.5940337496126 -1.06141680895179,54.5939491379836 -1.0614143023753,54.5939369862557 -1.06139262020423,54.5938231340543 -1.06138529656287,54.5937848830101 -1.06136757543571,54.5936939780707 -1.06134266491043,54.5935657218081 -1.06134100421415,54.5935571713903 -1.06123648437819,54.5935728970779 -1.06117012386701,54.5935828343879 -1.06110873296908,54.5935920283318 -1.06108925815662,54.593594941871 -1.06105926714066,54.5934588275593 -1.06102508467791,54.5932963491472 -1.06102410272811,54.593291937957 -1.06097455167985,54.5931566820767 -1.06093607604045,54.5931649320541 -1.06059895639911,54.5932198173177 -1.060024753597,54.5933519238123 -1.05939011826399,54.5934926313822 -1.05891624235095,54.5935734022684 -1.05877731778725,54.5933557106159 -1.05866620663627,54.5932048089993 -1.05856822078516,54.5930269668507 -1.05852900991187,54.5929640368489 -1.05851684647146,54.5929413636135 -1.05833043398612,54.5925939044074 -1.05768801781949,54.5926445468778 -1.05735387680282,54.5926447996722 -1.05705949979327,54.5926253878018 -1.05671658586328,54.5925799170947 -1.0560581129904,54.5924749192888 -1.05570596940934,54.5924036937049 -1.05511893678331,54.5922906877997 -1.05411649582304,54.5920802738771 -1.05356903903523,54.5919561561674 -1.05276784041696,54.5917558640362 -1.05223595623839,54.5915961934153 -1.05146759753085,54.5913576274096 -1.05019217741405,54.5909495839261 -1.0498241248909,54.5908240016222 -1.04913419913947,54.5905945960672 -1.04744388518866,54.5900705570368 -1.04735187671474,54.590080880914 -1.04676851350764,54.5901512414746 -1.04679375467175,54.5901593019928 -1.04667212619273,54.5901885066111 -1.04625089970201,54.5902717414788 -1.04577523327068,54.5903716670071 -1.04571265129924,54.590386391493 -1.04562858197557,54.5904095067026 -1.04551983851567,54.590437183279 -1.04552946493573,54.5904462299718 -1.04538895397362,54.5904856536554 -1.04506881522948,54.5905761447572 -1.04490599031897,54.5906233903308 -1.04475564833853,54.5906662406667 -1.0445640298645,54.5907204482265 -1.04446197875769,54.5907497493854 -1.0444050720084,54.5907677236421 -1.04422816232005,54.590821597399 -1.04415104603104,54.5908434561654 -1.04410975907672,54.5908552626879 -1.04408875505419,54.5908600397239 -1.04406621425431,54.5908643552747 -1.04404445760776,54.5908682276624 -1.04397369853029,54.5908829469112 -1.04395110512771,54.5908895087731 -1.04392928536189,54.5908960767391 -1.0439090023612,54.5909031061845 -1.04381854448499,54.5909329476897 -1.04378653056597,54.590945276676 -1.04372794974171,54.590968629591 -1.0437224921519,54.5909703838893 -1.04366282394356,54.5909939079254 -1.04365843262151,54.5909963896012 -1.04360289363847,54.5910220132276 -1.04359664135071,54.5910246599426 -1.04347540053678,54.5910803203304 -1.04343317115937,54.5910993087718 -1.0434199034112,54.5911041468058 -1.043390315401,54.5911120013565 -1.04337629503969,54.591115934741 -1.04337085845936,54.5911167904905 -1.04323218094046,54.5911570349977 -1.04310836036521,54.5911906565086 -1.04300563865996,54.5912154576517 -1.04286089757821,54.5912502616196 -1.04277382758098,54.5912675473398 -1.04272099821472,54.5912765660497 -1.04257964614774,54.5912988146866 -1.04255563136398,54.5912999728561 -1.04253393753292,54.5913011493728 -1.04250679654614,54.5913036308623 -1.04248894990509,54.5913057364908 -1.04242768398838,54.5913115429145 -1.04239666419785,54.5913144430557 -1.04234395055763,54.5913185196714 -1.04231421588431,54.5913260133207 -1.0422885939717,54.591336640003 -1.04228371941487,54.5913698901655 -1.04230268521331,54.591434241437 -1.04241989627349,54.5919077673573 -1.04245530947605,54.5920145422752 -1.04248120235391,54.5920983252809 -1.0425120475919,54.5922019186387 -1.04251707357803,54.5922185841617 -1.04252202584284,54.5922383945197 -1.04252852545131,54.5922582171122 -1.04253883022312,54.5922807658638 -1.04255791352266,54.5923249526056 -1.04258989086465,54.5924132771443 -1.04261668431175,54.5924916750883 -1.04264423047358,54.5925709776667 -1.04266369805688,54.5926317932078 -1.04267577643199,54.5926777219295 -1.04269222311053,54.5927353681644 -1.04273612160132,54.5928763603111 -1.04277074170085,54.5929840275342 -1.0428208773764,54.5931560737775 -1.04282576672202,54.593178579694 -1.0428570082686,54.5932983525048 -1.04288128677049,54.5934180702696 -1.04288974441222,54.5934864376123 -1.04290338570531,54.5936968390532 -1.0429031372084,54.5938864787944 -1.04290311103953,54.5939066811535 -1.04290299522438,54.5939116230368 -1.04289709945762,54.5940971560558 -1.04288226693901,54.5942017362807 -1.04287820852769,54.594275846179 -1.04286276285328,54.5945077525276 -1.0428622077603,54.5945165786737 -1.0427624681178,54.5944956012145 -1.04276112803438,54.5944985625913 -1.04275998691671,54.5945014212927 -1.04272632301932,54.5945857893679 -1.04271046716819,54.5946944487214 -1.0426711226869,54.5949753110003 -1.04260586084102,54.5954010143038 -1.04254613988752,54.5957649377477 -1.04248065209659,54.5961127667349 -1.04242811618098,54.5964321637704 -1.04240820589438,54.5965390070983 -1.04240402616645,54.5966299242029 -1.04240887205116,54.5966852463542 -1.04241804804373,54.5967304969722 -1.0424296074455,54.5967614997271 -1.04245392885642,54.5968157860056 -1.04249086212503,54.5968998952795 -1.04255091157613,54.5970460100033 -1.04258361116372,54.5971360297087 -1.04260394970587,54.5971855294937 -1.042627262583,54.5972392146228 -1.04264502016662,54.5972678884191 -1.04268024994271,54.597326518874 -1.04304956674663,54.5972666939573 -1.04319788213005,54.5972453986134 -1.04334695007434,54.5972250077235 -1.04343077968015,54.5972144362908 -1.04373189429216,54.5971786200729 -1.04383122000373,54.5971672720368 -1.04390570110314,54.5971593225336 -1.04397939789333,54.597151816138 -1.04403445073425,54.5971473079399 -1.04409336185903,54.5971432795171 -1.04415225194019,54.5971401495897 -1.0442118842286,54.5971383735266 -1.04423665514233,54.5971381196832 -1.04435654626989,54.5971408632192 -1.04448802282924,54.5971445967384 -1.04451322436432,54.5971457841403 -1.04460709818844,54.5971491309695 -1.04476328266463,54.5971553058383 -1.04480348680859,54.5971569709943 -1.04495961881125,54.5971653919206 -1.04497197800711,54.5971663880784 -1.04505618161179,54.5971728935812 -1.04514033271762,54.5971816453362 -1.0452097928552,54.5971898318613 -1.04528924892897,54.5972007932206 -1.04536792077915,54.5972121976904 -1.04542190573039,54.5972202621026 -1.04565091575806,54.5972562172708 -1.04580277007996,54.5972821278491 -1.04584593298969,54.5972896574554 -1.04598540730333,54.5973154702611 -1.04602313292704,54.5973238556596 -1.04609472588265,54.5973401466849 -1.04616550735027,54.5973580489178 -1.04621781500266,54.5973716716394 -1.0462824337195,54.5973883569692 -1.0463478682258,54.5974032513088 -1.0463886890789,54.597411660967 -1.04645571316237,54.5974247703854 -1.04652354252838,54.597436538072 -1.04659219814977,54.5974460655009 -1.0466083948491,54.5974484397375 -1.046670160009,54.5974547674613 -1.04673194616414,54.5974601966289 -1.04679377428479,54.5974638287157 -1.04685640764557,54.597466119074 -1.04687343056945,54.5974662530535 -1.04693380554472,54.5974658295278 -1.046994201489,54.5974645074472 -1.0470538446291,54.5974622807229 -1.0470979914113,54.5974608307253 -1.04719174328228,54.5974561762474 -1.04720725011321,54.597454950217 -1.04728322623435,54.5974492571229 -1.04752056544886,54.5974268594345 -1.04768503398403,54.5974097297488 -1.04860634352627,54.5973280009295 -1.04869006736142,54.5973219184762 -1.04877454400851,54.5973167405678 -1.04884968311117,54.5973137359865 -1.04893408647764,54.5973117028049 -1.04898593931698,54.5973116606728 -1.04905634163595,54.5973126628683 -1.04912592834632,54.5973154559979 -1.04919549414538,54.5973191476128 -1.04920553219535,54.5973201251136 -1.04927737747242,54.5973256319572 -1.04934995470083,54.597332941883 -1.04942173727198,54.5973411442171 -1.04944103962699,54.5973430931069 -1.04953363030696,54.5973550534591 -1.04964239698,54.5973702860972 -1.05052249442306,54.5974990967658 -1.05061884364517,54.5975131976728 -1.05063687886176,54.5975163946027 -1.05069360699558,54.5975263654095 -1.05074546462628,54.5975416425182 -1.0505646694643,54.597709131205 -1.05044302522704,54.5978330108098 -1.05037369602681,54.5979085565189 -1.05031238882496,54.5979912988935 -1.05024643360264,54.5980977814094 -1.0502100821121,54.5981640748193 -1.05016454539345,54.5982730953587 -1.05011640639715,54.59840587389 -1.050086306988,54.5985554385257 -1.05007734559616,54.5986766355717 -1.05008570211689,54.5988455234958 -1.05010695186393,54.598988357991 -1.05013514611738,54.5990967678359 -1.05018179394592,54.5992041343363 -1.0502307936425,54.5992984415354 -1.05027207361726,54.5993724766535 -1.05034334582141,54.5994776582586 -1.0504308049101,54.5995912885998 -1.05050869033442,54.5996763104354 -1.0505906419156,54.5997625530608 -1.05068286058378,54.5998476880425 -1.05073512566928,54.5998897088246 -1.05084798284845,54.5999678716517 -1.05093475069203,54.6000232404736 -1.05103369187378,54.6000834604827 -1.05118943476701,54.6001667139769 -1.05131485503102,54.6002330860028 -1.05146481702464,54.6003008381809 -1.05159867679733,54.6003565762204 -1.05171646029527,54.6003991096033 -1.05187906773846,54.6004515045984 -1.0520602123725,54.600499289506 -1.05221490633976,54.6005397342551 -1.05234323226691,54.6005692718009 -1.05254097754267,54.6006076741603 -1.05281458846245,54.6006419145918 -1.05303936476472,54.6006626948616 -1.0532622866811,54.6006751374639 -1.05341174922758,54.6006763057417 -1.05363503104354,54.600673294827 -1.05389748724061,54.6006587007845 -1.05427697824864,54.6006307543483 -1.05462371096424,54.6006025501216 -1.05526383014026,54.6005504775306 -1.05612741920503,54.600487066562 -1.05653775467286,54.6004534086065 -1.05678978164222,54.6004470489072 -1.05690847689004,54.6004503511783 -1.05712154542074,54.6004460662391 -1.05751836285547,54.600465798625 -1.05790859764188,54.6005045019333 -1.05803925096469,54.6005221627863 -1.05821265167418,54.6005508556999 -1.05850425659149,54.6006042457088 -1.05866952255264,54.6006304967982 -1.0587145657828,54.6006308468869 -1.05895174011068,54.6006469566679 -1.05894271924155,54.6007846850992 -1.05893784017729,54.600895635152 -1.05892960074383,54.6009856187637 -1.05891478031657,54.6012732149493 -1.05891086244951,54.6014431964846 -1.05904304091417,54.6014423155784 -1.05948582514069,54.6014328137932 -1.05960990972962,54.6014294905869 -1.05961593502388,54.6014293306727 -1.05965001122138,54.6014284269611 -1.05981419520039,54.6014241297589 -1.05997901063743,54.6014192980226 -1.0600906797419,54.6014160037755 -1.06014537580133,54.6014143882193 -1.06019261358756,54.6014133168847 -1.06030368050734,54.6014099548602 -1.06042930194359,54.6014064360403 -1.06046013515435,54.6014058664172 -1.06047018589586,54.6014056747802 -1.06051277437845,54.6014048368598 -1.06063421494078,54.6014013752643 -1.06075813386218,54.6013978428983 -1.06080150444654,54.6013966514666 -1.0608447202591,54.6013954588192 -1.06096584709746,54.6013921741959 -1.06108541175988,54.6013895064222 -1.06112956237276,54.6013880513138 -1.06129418557656,54.6013848339352 -1.06145995410494,54.6013789291452 -1.06147669810361,54.6013784747521 -1.06162646545961,54.6013743779152 -1.06167216373322,54.6013729346002 -1.06174654596181,54.6013694667662 -1.06178685826778,54.6013666336513 -1.06195199731415,54.6013544324978 -1.06211560921098,54.6013413206054 -1.06228076869796,54.6013282204745 -1.06244201758655,54.6013168872211 -1.06246453133551,54.6013139160966 -1.06248942851316,54.6013082673547 -1.06260350361908,54.6012952206807 -1.06278495675584,54.601273618572 -1.06280803797237,54.601272898494 -1.06279901719731,54.6012073143609 -1.06279556955764,54.6011853435273 -1.06295629118351,54.601181507755 -1.06303997960467,54.6011795103858 -1.06319452723218,54.6011717235328</coordinates></LinearRing></outerBoundaryIs></Polygon>
  </Placemark>
