  <Placemark>
	<Style><LineStyle><color>ff0000ff</color></LineStyle><PolyStyle><fill>0</fill></PolyStyle></Style>
	<ExtendedData><SchemaData schemaUrl="#Wards__December_2019__Boundaries_EW_BFE">
		<SimpleData name="objectid">797</SimpleData>
		<SimpleData name="wd19cd">E05001067</SimpleData>
		<SimpleData name="wd19nm">Birtley</SimpleData>
		<SimpleData name="wd19nmw"></SimpleData>
		<SimpleData name="bng_e">427564</SimpleData>
		<SimpleData name="bng_n">554979</SimpleData>
		<SimpleData name="long">-1.57183</SimpleData>
		<SimpleData name="lat">54.888802</SimpleData>
		<SimpleData name="st_areashape">3822447.55728304</SimpleData>
		<SimpleData name="st_lengthshape">9962.48741446659</SimpleData>
	</SchemaData></ExtendedData>
      <Polygon><outerBoundaryIs><LinearRing><coordinates>-1.58756210206553,54.8943410072082 -1.58702594036241,54.894325711865 -1.58675176889953,54.8942977398171 -1.58665847089958,54.8942821496096 -1.5865573241637,54.8942548549256 -1.58637552275444,54.8941949441093 -1.58629318909088,54.8941632209283 -1.5861225371903,54.8940817867866 -1.5858624498217,54.8939092213622 -1.58571636049898,54.8938647034258 -1.58554043762989,54.8938335595367 -1.58545664653015,54.8937937458381 -1.58530786815775,54.8937105878599 -1.58524596870461,54.8936671651686 -1.58506224286515,54.8934823710581 -1.58449085374674,54.8932566360415 -1.58428754200793,54.8931643070036 -1.58417787526491,54.8930660091538 -1.58411927483966,54.8930019340682 -1.58396997010248,54.8928208506424 -1.58392820300899,54.8926328577799 -1.58393465911868,54.8923183586874 -1.58401111015217,54.892159608116 -1.58406056654208,54.8919009550321 -1.58406599921576,54.8918228150857 -1.58404130016301,54.8916501535121 -1.58397418995218,54.8915016928266 -1.58387076586581,54.8913970381642 -1.58353975529818,54.8911496627953 -1.58345090679361,54.8910029237472 -1.58336727395655,54.8907869390228 -1.58327550977517,54.8904748011473 -1.58315362160877,54.8898938560953 -1.58310390904969,54.8895800648776 -1.58304102443233,54.8893220170521 -1.58299841016959,54.8892292494832 -1.58290757295855,54.8891139470477 -1.58278832503625,54.8890362777731 -1.58278833432748,54.8890353800764 -1.58271560493237,54.8888347035078 -1.58268032287065,54.8886296649134 -1.5825991412741,54.8883392124608 -1.58247543201652,54.8876377894089 -1.58239670844396,54.8872592159202 -1.58229558530376,54.8866486952842 -1.58214949140864,54.8861486096662 -1.58197964383916,54.8861426362114 -1.58162789178607,54.8848896377711 -1.58139546766057,54.8838553524133 -1.58121807819653,54.883079268531 -1.5809658859807,54.881995504833 -1.58078403077401,54.8813415833556 -1.58071218336433,54.8810582591003 -1.58056563366723,54.8804701296632 -1.58031807778824,54.8795490757288 -1.58010756922585,54.8788105174519 -1.58000197363165,54.8781658411816 -1.57990946563576,54.8777701487896 -1.5788535468557,54.8778482495684 -1.57790422296445,54.8780175363318 -1.57723130939412,54.8781364793363 -1.57680502255468,54.8782149525333 -1.5758767613831,54.8782980527098 -1.57590429117139,54.8786495015147 -1.57591200883812,54.8789541660445 -1.57582316073961,54.8789592462443 -1.57485588101153,54.8790484022278 -1.57381241250452,54.8791238077903 -1.57240064236555,54.8792483090189 -1.57189659398318,54.879302234991 -1.57147976062799,54.8793717383187 -1.57102207062036,54.879464454193 -1.57080466389908,54.8795347490628 -1.570168044108,54.8797526014109 -1.57004749779039,54.8798015864867 -1.56967332555869,54.8799548724302 -1.5694244050914,54.8800635937209 -1.56896661671486,54.8801644763415 -1.56855630952616,54.8803552734497 -1.56807032931337,54.8804722234123 -1.56687786985622,54.8806323842045 -1.5665780295362,54.8806834221522 -1.56580607670162,54.8807201968002 -1.56389621935254,54.880778136987 -1.56299807375691,54.880814441257 -1.56238047733901,54.8808490536593 -1.56201124902173,54.8808396396321 -1.56144258864666,54.8811009030143 -1.56123735088251,54.8811962881866 -1.56116823295553,54.8812535348716 -1.56115967963528,54.8813190850145 -1.56111684606816,54.8813819063391 -1.5609765789213,54.8813876887144 -1.56061660356778,54.8815193480809 -1.55941079225447,54.8820371188128 -1.55940131469121,54.8820577475416 -1.55927228118969,54.8824463645592 -1.55918185244932,54.8827363000868 -1.55911710745278,54.8829571549301 -1.55902441632182,54.8830188062832 -1.55895571089025,54.8834606454315 -1.55890682731563,54.8839466677044 -1.55888435049573,54.8840040813606 -1.55885558643774,54.8840605744796 -1.55882232555074,54.8841170512813 -1.55878588894543,54.8841700128005 -1.55874468945155,54.8842237657964 -1.55869900135994,54.8842766038647 -1.5586485674652,54.8843285269656 -1.55859186591162,54.8843777314146 -1.55852902448947,54.8844242185653 -1.55845838368825,54.8844670837553 -1.55845527937899,54.884468869744 -1.55839570984263,54.884498389113 -1.5583330943772,54.8845242148123 -1.55826729591938,54.8845473339325 -1.55819857166941,54.884567746504 -1.55812818628188,54.8845872552722 -1.55805474574592,54.8846040570131 -1.55798131499218,54.8846199610152 -1.55790636235108,54.8846340621842 -1.55783139979144,54.8846490627986 -1.55777667195063,54.8846587451621 -1.55764868343432,54.8846807392036 -1.55751907160511,54.8846982358587 -1.55738795758744,54.8847121323944 -1.55725532997708,54.8847233282915 -1.55712272202852,54.8847327277566 -1.55701982210008,54.8847404389146 -1.55678897973394,54.8847539715665 -1.55655819650477,54.8847621140195 -1.55643659220677,54.8847643656176 -1.55612908447976,54.8847956753708 -1.5561060868888,54.8851918634835 -1.55626275785667,54.8852616097877 -1.55705253063855,54.885307609939 -1.55714906680472,54.8853178436604 -1.55724558329067,54.8853298735923 -1.55734206037402,54.8853454969203 -1.55743542325345,54.8853638038284 -1.55752707582318,54.8853856989578 -1.55760793440494,54.8854075538623 -1.55769491064604,54.885434012167 -1.55777876385562,54.8854639637069 -1.55786105435701,54.8854957058667 -1.55794009461916,54.885531029774 -1.55801448748265,54.885568133101 -1.55808744857871,54.8856070284373 -1.55815549523629,54.8856486008649 -1.55820817908461,54.8856847265841 -1.55827000634644,54.8857308584642 -1.55832551935621,54.8857786729821 -1.55837805588594,54.8858282748231 -1.55842582701707,54.8858787570713 -1.55846881460813,54.8859319169235 -1.55850717598088,54.8859850599689 -1.55854088988577,54.8860399824933 -1.55855627311331,54.8860670798506 -1.55858517395784,54.8861273757669 -1.55860788570666,54.8861894455761 -1.55862583194748,54.8862523967173 -1.55863927969189,54.886315331533 -1.55864951546427,54.8863783445555 -1.55865516214211,54.8864259788727 -1.55866654713821,54.8865248405539 -1.55866854999203,54.8866236690926 -1.55866438228618,54.8867225642068 -1.55865237648128,54.8868213419179 -1.55864579374808,54.8868590496447 -1.55864930184446,54.8873838900988 -1.55860704939919,54.8878267237089 -1.55852825268809,54.8881912664768 -1.55721878182532,54.8881909996725 -1.55717156556402,54.8889439322921 -1.5571855552249,54.8889457795715 -1.55719734193424,54.8890078098529 -1.55706917409931,54.8908809866123 -1.55706187834059,54.8909833739917 -1.55830790762466,54.8910922049202 -1.55832110326221,54.8914480968542 -1.55832221342689,54.8914876297229 -1.55852036609898,54.8914811616583 -1.5585703478257,54.8920349200008 -1.55861354883398,54.8925041167495 -1.55865510814746,54.8929823818559 -1.55867353992922,54.8934362173402 -1.55864644085901,54.8934927165603 -1.55863869698168,54.8936248383003 -1.55867548231823,54.8942576062999 -1.55860967415066,54.8954201316478 -1.55856672523562,54.8969251984016 -1.55853268121498,54.8977572371999 -1.5585116640113,54.8988202043569 -1.55841270935339,54.9003205764598 -1.55832633859844,54.9022253574128 -1.55826815100488,54.9024201825166 -1.5581953311693,54.9026597844859 -1.55978138483567,54.9029378310607 -1.56012468600288,54.9033399283773 -1.56049531245328,54.9036773491991 -1.56084114666101,54.9040012053567 -1.56110590121808,54.9041782424769 -1.56136873632039,54.9043903978654 -1.56161164811905,54.904566457434 -1.56183942090543,54.9047039205594 -1.56215465673813,54.9048272346434 -1.56267363368498,54.9050043745299 -1.56278496954189,54.9050892219773 -1.56309900860229,54.9051810862161 -1.56318081306596,54.9051193923329 -1.56333651404884,54.9049896873691 -1.56349729634529,54.9048419423968 -1.56365330706769,54.9046834899392 -1.56372285044733,54.9046019871454 -1.56393013602121,54.9043268392754 -1.56407842566378,54.9040254264339 -1.56419500204617,54.9036240903625 -1.56419873074861,54.9032781388838 -1.5641167119773,54.9029309815638 -1.56405897952268,54.902787933339 -1.56405289269032,54.9027681469861 -1.56397397575051,54.9025746238579 -1.56392789266569,54.9025079786951 -1.56381376220166,54.9022415606173 -1.56460017697841,54.9022012547166 -1.56557699898153,54.9021382673229 -1.56565818414928,54.9021331662671 -1.56582235863152,54.9020987154012 -1.56655290963076,54.9011523651404 -1.56676219754241,54.9011188824052 -1.5675399823208,54.9010057585952 -1.56814543840014,54.9009683797618 -1.56834856346823,54.9009340638536 -1.5687623550484,54.9008816292983 -1.56917942389345,54.9008111477617 -1.56932814589731,54.9007541790444 -1.56933912305583,54.9007497256473 -1.56922126162273,54.9005408850177 -1.56892910585239,54.9001587573814 -1.56877208641064,54.8999695421222 -1.56873691738592,54.8996153693994 -1.56875123196904,54.8994428430221 -1.57037365855873,54.8992230048835 -1.570401877277,54.8984808693634 -1.57171665007939,54.8983048446249 -1.57194082219881,54.8984907883823 -1.57225198162133,54.899142483667 -1.57226447962763,54.8991398326391 -1.57456110167754,54.8985763444706 -1.57473547599623,54.8987432431032 -1.57471986410094,54.8987485793866 -1.5744334246477,54.8988454992033 -1.57445807266173,54.8988734357853 -1.57488806730708,54.8993548501633 -1.57494816742123,54.8994224376989 -1.57506403230418,54.8996762732508 -1.57536739592268,54.9003297335342 -1.57544665245071,54.9005078890881 -1.57546505460827,54.9005430801401 -1.57548800089738,54.9005862822228 -1.57586292506397,54.9006711395101 -1.57587960986625,54.900710726933 -1.57792708648357,54.9004060233008 -1.57800107272448,54.9007944706328 -1.5782383329278,54.9007656468882 -1.57834005299421,54.900739048645 -1.57848856533184,54.9007009329431 -1.57866363742232,54.9006557217905 -1.57880416370588,54.9006436313147 -1.57922393325216,54.9006082512834 -1.58060875536234,54.9004494402963 -1.58183912818725,54.9003054454975 -1.58249298517717,54.900248308444 -1.58349472087853,54.9001942479396 -1.58353203148362,54.900204258056 -1.58357717617262,54.9002151927291 -1.58362693965294,54.9002270418393 -1.58372380236491,54.9003595254365 -1.58372836563066,54.9003658297295 -1.58605371034386,54.8998884648926 -1.58604143264303,54.8998695572284 -1.58562692542041,54.8992310184508 -1.58565977375224,54.8992248417739 -1.58628938809574,54.8990976196625 -1.58628331940579,54.8990877167647 -1.58624328230428,54.8990300851977 -1.58629959321236,54.8990176995631 -1.58678101763962,54.898910542933 -1.58676558146107,54.8988862346133 -1.58641878503616,54.8983395628683 -1.58642355914052,54.8983377818439 -1.58661575816803,54.8982881264407 -1.58662839362748,54.8982845757701 -1.58648980158762,54.8981089217147 -1.58689006501148,54.8980041844184 -1.58739647948115,54.8978783350247 -1.58700692668978,54.8974015923842 -1.58688199635254,54.8974236275108 -1.58679652849496,54.8972328820194 -1.58679052280435,54.8972166907347 -1.58671122704588,54.8970384526433 -1.58609656422699,54.8963129913995 -1.58530365835654,54.8953334873119 -1.58529287053874,54.8953199746435 -1.58563371778903,54.8952276158878 -1.58585273347119,54.8951564920661 -1.58605634212595,54.8950709417852 -1.58630702693494,54.894945123652 -1.58649699869403,54.8948226023374 -1.58667907244409,54.8947055346299 -1.58698478300638,54.8945411817995 -1.58756210206553,54.8943410072082</coordinates></LinearRing></outerBoundaryIs></Polygon>
  </Placemark>
