  <Placemark>
	<Style><LineStyle><color>ff0000ff</color></LineStyle><PolyStyle><fill>0</fill></PolyStyle></Style>
	<ExtendedData><SchemaData schemaUrl="#Wards__December_2019__Boundaries_EW_BFE">
		<SimpleData name="objectid">7944</SimpleData>
		<SimpleData name="wd19cd">W05000911</SimpleData>
		<SimpleData name="wd19nm">Rhosnesni</SimpleData>
		<SimpleData name="wd19nmw">Rhosnesni</SimpleData>
		<SimpleData name="bng_e">335265</SimpleData>
		<SimpleData name="bng_n">351525</SimpleData>
		<SimpleData name="long">-2.96731</SimpleData>
		<SimpleData name="lat">53.057049</SimpleData>
		<SimpleData name="st_areashape">929070.04002317</SimpleData>
		<SimpleData name="st_lengthshape">4843.06384725421</SimpleData>
	</SchemaData></ExtendedData>
      <Polygon><outerBoundaryIs><LinearRing><coordinates>-2.96607157705617,53.0545417351772 -2.96585930151013,53.0545218898022 -2.96545104558267,53.0544847633909 -2.96472316759849,53.054424166153 -2.96368878820507,53.0543381889553 -2.9629713247634,53.0542810025467 -2.96251122927575,53.0542523735624 -2.9620716047761,53.0542757015661 -2.96161883562299,53.0543108168766 -2.96145518707224,53.0543311020927 -2.96075824466745,53.0543888569478 -2.96036480365721,53.0544091087458 -2.96019179368856,53.0544123033788 -2.96000970515135,53.0544110772171 -2.95975753230966,53.0544113143402 -2.95918000992206,53.0544015942815 -2.95889050988689,53.0543994346376 -2.95885162349935,53.054398850072 -2.95885381961544,53.0544976873046 -2.95884915532826,53.0546199460567 -2.95884702125508,53.0546622917755 -2.95884359266185,53.0547737559471 -2.95878396618844,53.0550466287977 -2.95880512048003,53.0553952372318 -2.9587394493173,53.0557283708148 -2.95871549342142,53.056062065273 -2.95871287293763,53.0566140595244 -2.95877667852273,53.0567339684864 -2.95889243818856,53.0567725780798 -2.95894115892661,53.0568171189678 -2.95899339955329,53.0569479964532 -2.95923710892793,53.0569702957151 -2.95956267858182,53.0569838463879 -2.95969278368956,53.0569980743386 -2.95997475889261,53.0569984950425 -2.96000718192809,53.0570458638558 -2.96023634471624,53.0577577503655 -2.96121133500697,53.0582560150601 -2.9601065999366,53.0585669846312 -2.95929277382202,53.0588046003759 -2.95891764994848,53.0589145669161 -2.95855742953684,53.0590199184288 -2.95828366121805,53.0591237643372 -2.95812994805328,53.0591879096183 -2.95823615935079,53.059400129461 -2.95826891887673,53.0594681645292 -2.95838193714513,53.0597153778053 -2.95847477718027,53.059934804893 -2.9585060261483,53.059995662415 -2.95864358469508,53.0602121230484 -2.95885200301875,53.0604558711548 -2.95909330288531,53.0607065425451 -2.95938774009317,53.0609288371736 -2.95953224785777,53.0610535758815 -2.95965341102162,53.0611298840818 -2.95984273643588,53.0612560587267 -2.96026738008617,53.0614961717819 -2.96062956876371,53.0616829579126 -2.9608782816544,53.0617905873301 -2.96103049384952,53.0618576567271 -2.96123967839489,53.0619360379899 -2.9615388725744,53.0620396641958 -2.9620709830826,53.0622097941751 -2.96256643310122,53.0623468779852 -2.96342733884969,53.0625404028585 -2.96382010433629,53.0626243933609 -2.96458507815337,53.0627971190086 -2.96549091380148,53.0630018572478 -2.96599791949145,53.0631155578845 -2.96619326569524,53.0631741818407 -2.96647610590134,53.0628105278669 -2.96687086460553,53.0624504573863 -2.96712830257595,53.0622164173822 -2.96740532701591,53.0620604020081 -2.96762849224531,53.0619606314772 -2.9679127105168,53.0618621616598 -2.96811712022809,53.061793006894 -2.96832450440274,53.0617248158391 -2.96853015015741,53.0616449560782 -2.96895822432706,53.0614382778705 -2.96986712708837,53.0609805402856 -2.97053379029642,53.0606335136366 -2.97075576712676,53.0604815328974 -2.97088926294745,53.060383385968 -2.97114122688365,53.0601754411077 -2.97136851807147,53.059997444737 -2.97142872353913,53.0599502209115 -2.9716546957929,53.0597847262972 -2.97214833926347,53.0595083014506 -2.97217048353567,53.0594973367678 -2.97284927874419,53.0591609810872 -2.97384120292239,53.058613474276 -2.97386623777852,53.0585997885658 -2.97408613610861,53.0585584447878 -2.97403158487635,53.0583872415018 -2.97395917328322,53.0582205893818 -2.97386324355678,53.0580038922708 -2.97395468470698,53.0579563213949 -2.97400331722899,53.0579307595702 -2.97414144135054,53.0577004617859 -2.97427511130392,53.0574799961366 -2.97472517558021,53.0567904254852 -2.97481098724769,53.0566952692979 -2.97492257735848,53.0565487658534 -2.97514128759178,53.0562593011603 -2.97527244295192,53.0560532334253 -2.97553970911485,53.0556645129892 -2.97576087549246,53.0553480664066 -2.97601070388023,53.0549828533098 -2.97622679069801,53.0547086853791 -2.97651529083468,53.0544707680658 -2.97672694368135,53.0543270352159 -2.9776679684083,53.0537825983065 -2.97806055552381,53.0534647353916 -2.9787852051706,53.0527863667963 -2.97902257889453,53.0525299913014 -2.97922422237407,53.0522766065761 -2.97958330116431,53.0518601574635 -2.97980340271004,53.0516344778813 -2.980065399495,53.051412137953 -2.98055727716973,53.0510646883684 -2.98063799778805,53.051006415566 -2.98059960157581,53.0508269944046 -2.97954138542639,53.0510703723137 -2.97901589130213,53.0511834451266 -2.97858111401497,53.0512885795103 -2.97747278538789,53.0516231190414 -2.97697907720652,53.0518258807186 -2.97640894089347,53.0520760001818 -2.97564079583214,53.0522845150448 -2.9752636077528,53.052358698609 -2.9751968215515,53.0523754233381 -2.97508678725263,53.0523942999441 -2.97468583645227,53.0524730796819 -2.97417573445491,53.0525446642422 -2.97394063843651,53.0525762486587 -2.97384687990208,53.0525860039061 -2.9733380694157,53.0526494863969 -2.97291151370922,53.0527222688273 -2.97260587273882,53.0527948690855 -2.97238211843309,53.0528658995062 -2.97210981874076,53.0529606920753 -2.97175938857275,53.0531694486739 -2.97131016074084,53.0534922457555 -2.97121910838564,53.0535567971921 -2.97089404654353,53.0537617478899 -2.96992147048863,53.0543018938961 -2.96972684305789,53.0544050343424 -2.96941444683342,53.0545775242718 -2.96920830995349,53.054699630152 -2.96905083261353,53.0546002613057 -2.96635094620287,53.0545583382763 -2.96607157705617,53.0545417351772</coordinates></LinearRing></outerBoundaryIs></Polygon>
  </Placemark>
