  <Placemark>
	<Style><LineStyle><color>ff0000ff</color></LineStyle><PolyStyle><fill>0</fill></PolyStyle></Style>
	<ExtendedData><SchemaData schemaUrl="#Wards__December_2019__Boundaries_EW_BFE">
		<SimpleData name="objectid">8011</SimpleData>
		<SimpleData name="wd19cd">W05000978</SimpleData>
		<SimpleData name="wd19nm">Penyrheol</SimpleData>
		<SimpleData name="wd19nmw">Penyrheol</SimpleData>
		<SimpleData name="bng_e">258435</SimpleData>
		<SimpleData name="bng_n">200846</SimpleData>
		<SimpleData name="long">-4.04938</SimpleData>
		<SimpleData name="lat">51.688469</SimpleData>
		<SimpleData name="st_areashape">9551299.95580012</SimpleData>
		<SimpleData name="st_lengthshape">16131.1955661586</SimpleData>
	</SchemaData></ExtendedData>
      <Polygon><outerBoundaryIs><LinearRing><coordinates>-4.02873481046015,51.6980947802202 -4.02876110081053,51.698132983768 -4.02878902246486,51.698175653667 -4.02870260454664,51.6982814318025 -4.02903070847748,51.6986912862663 -4.02918065598398,51.6989062552743 -4.02940265212145,51.6991767075986 -4.02976652971293,51.6995804581514 -4.03008367333407,51.6998438700532 -4.03051683311719,51.7003049459399 -4.03092096391881,51.7006028121957 -4.03133940370378,51.7008977325123 -4.03161140774643,51.7010908094694 -4.03181168787545,51.7012330735499 -4.032144765658,51.7013990221141 -4.03316269674772,51.7018292906031 -4.03342862363063,51.7018867181684 -4.03359187094551,51.7019108624715 -4.03360224722512,51.7019160766065 -4.03364446046446,51.7019234363779 -4.03430250768878,51.7022681380739 -4.03424006412793,51.7022620272975 -4.03397101271403,51.7022334240713 -4.03399315686284,51.7022429298092 -4.03482736329967,51.7026440021147 -4.03548753486065,51.7029373266314 -4.03578086548224,51.703057294562 -4.0362518817087,51.7032649811408 -4.03668082210349,51.7034364464396 -4.0372512282473,51.7036675777804 -4.03761238987268,51.7038123462184 -4.03791884573909,51.7039320820851 -4.03853822795002,51.7041560643829 -4.03883101927142,51.7042318927567 -4.03913371699303,51.7042679923544 -4.0400422717308,51.7045480789806 -4.0403273067342,51.7046105529758 -4.04070763847363,51.7047010382566 -4.0415103743947,51.7048490000564 -4.04174755446102,51.7049087071675 -4.04183533566094,51.704931454177 -4.04234517194425,51.705067420351 -4.04269036568541,51.7051486210382 -4.04331459772198,51.7052860996694 -4.04403252472159,51.7053815781098 -4.04456838566845,51.7054540611109 -4.04506170700728,51.7055146962369 -4.04559986334,51.7055718515284 -4.04591010463685,51.705584427715 -4.04628148804281,51.7056032201263 -4.04670763514609,51.7056164725903 -4.04744745186878,51.7056521242411 -4.04818771175469,51.7057318159811 -4.04878533903282,51.7057924141607 -4.04931921664207,51.7058524139419 -4.04975459498198,51.7059113435253 -4.05008673455482,51.7059567904897 -4.05041887817495,51.7060049324578 -4.05045039788986,51.705965725318 -4.05048445268714,51.7059192806584 -4.0509850141475,51.7060103316605 -4.05107259510504,51.7060258829638 -4.05130297456971,51.7060641135497 -4.05133810546125,51.7059439313637 -4.05141474091554,51.7056862840849 -4.05161253866349,51.7055479774781 -4.05182270347041,51.7054588108768 -4.05205229495088,51.7053190488223 -4.05236890826041,51.7050877749316 -4.05266705195531,51.7048334482479 -4.05290835042368,51.7045361526997 -4.05305891363037,51.7042511413369 -4.05307466805596,51.7037984830258 -4.05284294895558,51.703509365147 -4.05283996488131,51.7035067203942 -4.05238928948515,51.7031441137028 -4.0519194070724,51.7028025177517 -4.05169437701968,51.7026265572423 -4.0511573837659,51.7021782488096 -4.05084100612724,51.701903192743 -4.05057956880763,51.7015633455521 -4.0505571667261,51.7013874411808 -4.05063183343942,51.7011838593767 -4.05086653915993,51.7009018759348 -4.05113177477032,51.7005905911463 -4.05121991573949,51.7003947753721 -4.05139614772501,51.7000679633407 -4.05162848746678,51.699733877836 -4.05179335095759,51.6996698646363 -4.05208512402546,51.6994336315836 -4.05234467577884,51.6993158208275 -4.05277332024199,51.6992274188763 -4.0531960247375,51.6991975545955 -4.05364647653118,51.6991743959691 -4.05432788780835,51.6992029345406 -4.05495785084562,51.6992125908201 -4.05533547295201,51.6992410446631 -4.05582653724892,51.6992845932616 -4.05621960662569,51.699335248416 -4.05658890037757,51.6993431671414 -4.05696481260689,51.6993338871661 -4.05738959571351,51.6993498206263 -4.05775524897233,51.6994036487172 -4.05820402090264,51.6995352222738 -4.05854425326389,51.6996650095734 -4.05875466626312,51.6997737876855 -4.05887104345759,51.6998823263445 -4.05897777952408,51.7000648432651 -4.05915366085617,51.7001462668448 -4.05933428654468,51.7001404029956 -4.05955320030746,51.7001158865642 -4.05977146516663,51.7000167632951 -4.05991779941485,51.6998603758432 -4.06042632054015,51.6994584982543 -4.06048622615628,51.6993458793702 -4.06048986299514,51.6992343384655 -4.06055189588183,51.6991343583304 -4.0607784016263,51.6988650851482 -4.06114232804607,51.6986239670024 -4.0614902372569,51.6983849264813 -4.06196011976861,51.6981204596217 -4.0621583405238,51.6980242906846 -4.06265007857428,51.6978259643798 -4.06306793714259,51.6976926731721 -4.06360597406284,51.6976229866973 -4.06429335689608,51.6974634687824 -4.064643821401,51.6973412457252 -4.06475287759423,51.6972889837424 -4.06491337812094,51.6971611992897 -4.06535259510821,51.6967010926117 -4.06552235713603,51.6965201018262 -4.06558645331922,51.6964029119342 -4.0656274225643,51.6962547532001 -4.06557987042546,51.6960046749534 -4.06542198625068,51.696064089554 -4.06511242281366,51.6960677355985 -4.06482969032711,51.6959585317172 -4.06471284791529,51.695777096869 -4.06457623217658,51.6955727255836 -4.06422343214067,51.6950699054874 -4.06400507828986,51.6945980755551 -4.06388190991908,51.6944347310836 -4.06379577609947,51.6943876984755 -4.06363167600606,51.6943105694114 -4.06341310780445,51.6942136302451 -4.06306371326946,51.6941990914725 -4.06291894653623,51.6941665727562 -4.06272628473427,51.6940333071471 -4.06253260287941,51.6939431207276 -4.06242534374473,51.6938748819189 -4.06232805282722,51.6937399399072 -4.06225923673994,51.6935333861614 -4.06226502570036,51.693277875372 -4.06230624847836,51.6931351071519 -4.06232810814226,51.6931068539824 -4.06237888835751,51.6930456382524 -4.06256213572858,51.6929695998619 -4.06291527864119,51.6929094563134 -4.06321497159392,51.6928178868475 -4.06347870109959,51.6926360573624 -4.0636726424834,51.6924150880121 -4.06387907668707,51.6921488587745 -4.0640768558217,51.6919807731348 -4.06457935498308,51.6918316946164 -4.06467209008673,51.6917382748342 -4.06523013006021,51.6906170123354 -4.0654563743685,51.6900581624722 -4.06556426578278,51.6899492821801 -4.06579719430104,51.6896942704247 -4.06590703021238,51.6894998591681 -4.06606734523998,51.6891148674214 -4.06617143987063,51.6887632302384 -4.06631268807581,51.6882427331711 -4.06671982392156,51.6874631358916 -4.06695919760973,51.686970577956 -4.06710987737748,51.6867539602422 -4.06747717267769,51.6863985869273 -4.06780336786915,51.6863190351193 -4.06800793630398,51.6861724893226 -4.06817849899798,51.6859473395725 -4.068429280457,51.6853889498573 -4.06851818535038,51.6852120763136 -4.06860139658064,51.6849444126422 -4.06864761325567,51.6847835740024 -4.0687726300019,51.6846374397843 -4.06895567061272,51.6845290302106 -4.06918422022987,51.6844638703118 -4.06952744298106,51.6844388535031 -4.06991672174182,51.6844428717221 -4.07073767169256,51.6844571684686 -4.07136442301185,51.6844973602329 -4.07177547463149,51.6845314637115 -4.07211321351035,51.6846109119087 -4.07242662140366,51.6847556071228 -4.07250777473866,51.6848530671188 -4.07259400855704,51.6849989837079 -4.07287423096342,51.6850543622171 -4.07353673854699,51.685114588234 -4.07459338320025,51.6851570603439 -4.07508913936788,51.685212132315 -4.07556971196352,51.6853107129269 -4.07592186271251,51.6854519272339 -4.07620698420898,51.6856114970633 -4.07658534075636,51.6859132598474 -4.07689361483051,51.6861667243712 -4.07725019583408,51.6864356068934 -4.07748243333684,51.6865133984201 -4.07780523783659,51.6865814074372 -4.07817291641701,51.6865847912046 -4.07857631412864,51.6865165189541 -4.07891527741159,51.6864322152167 -4.07935458326727,51.6862626158819 -4.07976262302912,51.6860745984419 -4.08036874179214,51.6857581090841 -4.08076694968931,51.6855146135513 -4.08100007889031,51.685393520913 -4.08115294314843,51.685288324852 -4.08142579573437,51.6851179802399 -4.08161449147074,51.6849411267249 -4.08165099127703,51.6848865387452 -4.08170654610027,51.6848027544611 -4.08163099438086,51.6845757441352 -4.08137682927163,51.6840514480088 -4.08118949230996,51.6836887799521 -4.08084577131951,51.6828809973472 -4.08072373979374,51.6826493267031 -4.08048789568269,51.682300104722 -4.08027554011101,51.6819297884535 -4.08003100984574,51.6813909380808 -4.07981091983704,51.6808517433604 -4.07973952033325,51.6803349984975 -4.07970169909717,51.6801395947542 -4.07965557555468,51.6797968995748 -4.07966350473798,51.6793714382147 -4.07963046523192,51.6792803240838 -4.07958898435025,51.6792288255476 -4.07954081042075,51.6791874255718 -4.07948582070829,51.6791560345962 -4.07941510475494,51.6791276198329 -4.07933029782676,51.6791066459399 -4.07928066860675,51.6790985346139 -4.07894232591671,51.6790703609956 -4.0787938829097,51.6790505140272 -4.07854143440714,51.679001939686 -4.0784535668976,51.6789792216868 -4.07835952606044,51.678946723624 -4.07826515202398,51.6789069491148 -4.07817045455169,51.6788600787383 -4.07806942281271,51.6788025318514 -4.07792136215258,51.6786972699951 -4.07786248516974,51.6786434716373 -4.07767860673846,51.6784488525635 -4.0773594794918,51.6780822179731 -4.07726671442204,51.6778248535101 -4.07703061505714,51.6775340639684 -4.07690058519079,51.677348380551 -4.0766974190424,51.6770812809506 -4.07651864178918,51.6768102435337 -4.07637815976628,51.6764898928114 -4.07635438987204,51.6763796446563 -4.07632864159094,51.6763225638051 -4.07626375666605,51.6762338092703 -4.07622142766135,51.6761923045642 -4.07616308608892,51.6761500937069 -4.07607999998996,51.6761066116114 -4.0759917642968,51.6760731097275 -4.07592297761793,51.6760554463374 -4.07576274413715,51.6760331060813 -4.07557773471234,51.675941080347 -4.0753959661619,51.6757608049483 -4.07505754519759,51.6755086785083 -4.0747100741,51.6752801764537 -4.073540498452,51.6746272056451 -4.0729154685758,51.6743397689151 -4.07215328006648,51.6740231037798 -4.07155169449804,51.6736767212528 -4.07121775213252,51.6733310098224 -4.07066576096708,51.6729630705024 -4.07041554243155,51.6728029633375 -4.07017414290388,51.6726165397363 -4.06985642320183,51.6727857586049 -4.06966717740687,51.6728539116023 -4.06945713499019,51.6728791887783 -4.06923822335496,51.672866864488 -4.06858434436637,51.6728009779272 -4.06842776265729,51.6728244132972 -4.06812636610709,51.6729071249566 -4.06798583036459,51.6728718412893 -4.06778132397169,51.672793542583 -4.0674444686016,51.6727967761817 -4.06707331728223,51.6728744203541 -4.06697554327988,51.6729165963571 -4.06688496350403,51.6729622418184 -4.06638933641563,51.6732893015964 -4.06622029479331,51.6733246402429 -4.06597945523631,51.6733414633199 -4.06590483591248,51.6733526651615 -4.06584512991277,51.6733770890718 -4.06565726238428,51.6734756884813 -4.06550876166496,51.6734854926477 -4.06521408717374,51.6733675109381 -4.0649485737816,51.6732849763774 -4.06480321434484,51.6732065309976 -4.06470339380547,51.6731093957995 -4.06463641411684,51.6730683196573 -4.06449538799349,51.6730824865485 -4.06432908304855,51.6731150765776 -4.06420447601203,51.6731100744846 -4.06390070028163,51.6730147246949 -4.06330061650674,51.6727941349199 -4.06305638978356,51.6727363942363 -4.06292226884603,51.6727135780343 -4.06265006463596,51.6726752070671 -4.06251790144298,51.6726613459518 -4.06243818062679,51.6726573513028 -4.06243230133848,51.6726565561868 -4.06242944133952,51.672656606412 -4.06229299146339,51.6726455172129 -4.06161866352269,51.672767035194 -4.06145860972249,51.6727141065876 -4.061320484362,51.6727291171103 -4.06102724442155,51.6727369605299 -4.06094294949485,51.6727609151083 -4.06078554739532,51.6727663740813 -4.06070635860602,51.6727425914204 -4.06067907268706,51.6727772323094 -4.06065991671113,51.6728018413431 -4.06060192297936,51.6727983643799 -4.06052792063301,51.6727942680988 -4.06042863972765,51.6727088065749 -4.06039168156167,51.672627555453 -4.06048329445874,51.6725441385777 -4.0604830549871,51.6724416564211 -4.06039532589031,51.6724845499945 -4.06021704796524,51.6725712847747 -4.06014121502988,51.6724953008649 -4.06003058460684,51.6723830673734 -4.06003552819042,51.6723001818703 -4.06010569965103,51.6722225360661 -4.06010370189487,51.6721785197866 -4.06001615277117,51.6719704974059 -4.0600292280482,51.6718749730962 -4.05994608041014,51.6718611485534 -4.05969515644657,51.6718763370655 -4.0594689494871,51.6718002929595 -4.05929202778897,51.6717881123324 -4.05913961828845,51.6717142788948 -4.05906714108433,51.6715833956331 -4.05893643377799,51.6713149962179 -4.05888989498296,51.6711512944915 -4.05867995230498,51.6709867702066 -4.05863287477414,51.670871623667 -4.05848738292113,51.6706610195578 -4.05845033073074,51.6703541189348 -4.05847010135442,51.670311518697 -4.05847827814696,51.6702367580566 -4.05854575303352,51.6701312005133 -4.05859733738033,51.6700880435195 -4.05860032277821,51.6700592228377 -4.05859869320095,51.6700232907359 -4.0585548374804,51.6699818066316 -4.05842203598611,51.669922102174 -4.05871832454216,51.669887242072 -4.05898442792599,51.669886173297 -4.05909865330089,51.669854413139 -4.05918548234045,51.6697917588044 -4.05942797685664,51.6693675802293 -4.05954114836499,51.6692153718251 -4.05962152244843,51.6691366481107 -4.05983458760169,51.6689890705216 -4.05986264667168,51.6689373347368 -4.05961415089441,51.6688795716969 -4.05930612244369,51.6687842843699 -4.0588036706242,51.6686429585946 -4.05879929928297,51.6686753997394 -4.05865086074541,51.6686231628437 -4.05864996042431,51.6686033102835 -4.05828909140873,51.6684891680634 -4.05803460153491,51.6684280004742 -4.05779892691665,51.6684267362784 -4.0576244336768,51.6684073182072 -4.05746194641881,51.6683634166082 -4.05678336632381,51.6682610382601 -4.05657154071606,51.6682782330867 -4.05626680688419,51.6683186302885 -4.05597135010152,51.668308519881 -4.05591949215844,51.6682824569484 -4.0558513825477,51.6682476894289 -4.05578846529757,51.6681669810849 -4.05567502787285,51.6681213191426 -4.05566623677699,51.6679271977203 -4.05566505703137,51.667901146894 -4.05474683356452,51.6679360943033 -4.05326074552518,51.6678829717466 -4.05243830358279,51.6678290230358 -4.05181407779587,51.6678102625068 -4.0513217827325,51.6678269536361 -4.05089028771984,51.6678803386678 -4.05053955875654,51.6679583835442 -4.05057970153528,51.6681132113919 -4.05060769391678,51.6685084656997 -4.05060719388339,51.6694553993188 -4.05011538036524,51.6694540966465 -4.05010096421895,51.669454348306 -4.04991828167147,51.6696364396253 -4.04961235807074,51.669941237927 -4.04888663711049,51.6706832662249 -4.04829975561265,51.6712680592495 -4.04808237966337,51.671482308013 -4.04782670851193,51.6716486782541 -4.04779272410123,51.6716645538551 -4.04734675892391,51.6718791009186 -4.04683802636183,51.6720795472184 -4.04676842294757,51.6721068318048 -4.0466884891191,51.6721298009638 -4.04649141443766,51.6721862767146 -4.0463098484737,51.6722640579595 -4.04615788972223,51.67235849453 -4.04599820131549,51.6724745517011 -4.0458501921932,51.6725931020893 -4.04571210879329,51.6727043778973 -4.04493419774554,51.6734813632134 -4.04487588488278,51.6735660758544 -4.04473310415085,51.6737690403881 -4.04466906631498,51.6737584685124 -4.0441298285408,51.6736689645973 -4.04377021631816,51.6741625754822 -4.0426905832515,51.6738890922294 -4.04133864970121,51.6735771804108 -4.04102934398118,51.6735196259217 -4.0399719590686,51.673419329446 -4.0396689561238,51.6733400858098 -4.03956653403121,51.6733139055988 -4.03947688133541,51.6734099474627 -4.03933689484516,51.6736092617377 -4.039246739019,51.6738878116935 -4.03922140414095,51.6741625382188 -4.03923520139605,51.6743394933917 -4.03926023340062,51.6746708820628 -4.03926283376041,51.6746969083946 -4.0393516037872,51.6752231741784 -4.03944780183986,51.6756253383613 -4.03955811315404,51.6759885117284 -4.03965571121758,51.676294368705 -4.03971993153954,51.6764361967055 -4.03989787754545,51.6767253747922 -4.0401070382164,51.6770005248866 -4.04030828588128,51.6772641251683 -4.04042048833434,51.6774411690366 -4.04059346421788,51.677717756274 -4.04075398140671,51.6781017220945 -4.04079361515564,51.6785344470428 -4.04075652585552,51.6788974836491 -4.04072020264401,51.6790231672538 -4.04058250229445,51.6794032351755 -4.04018810886304,51.6801537499753 -4.0399843739688,51.6804792249248 -4.03970596107003,51.6809157667765 -4.03963192534759,51.6810384189177 -4.03963049580152,51.6810384437462 -4.03955405826812,51.6812349468578 -4.03953547986787,51.6813044934492 -4.03952913519056,51.6816777831972 -4.03832205970417,51.6818255015373 -4.03834466806639,51.6820391639143 -4.03826501243031,51.6820369503067 -4.03787921215933,51.682080505046 -4.03743142239361,51.6821592972401 -4.0372336595249,51.6821033934727 -4.0371039499674,51.6820490058056 -4.03681269630562,51.6818130320334 -4.03667561456659,51.6817246094234 -4.03662888823147,51.6817146321551 -4.03645815199064,51.6816178020477 -4.03636420658845,51.6815231472894 -4.0362990250681,51.6814235881809 -4.03624349190472,51.6813157710159 -4.03613363762735,51.6812519580714 -4.03606105477948,51.6812478217984 -4.03600231113952,51.6812597187214 -4.03596094752825,51.6813053867074 -4.03595390969689,51.681244285583 -4.03590540869927,51.6811947817442 -4.03585306257038,51.6811579307141 -4.03574009559804,51.6811230298054 -4.03554213379223,51.6809988019565 -4.03513233189081,51.6807945465295 -4.0344655853956,51.6807647445789 -4.03438041556811,51.6807698163161 -4.0342069318698,51.6807071939531 -4.03344419899947,51.6805369156932 -4.03326042659595,51.6805374009534 -4.03188173811513,51.6805333956363 -4.03170602232441,51.6804528282325 -4.03137525523434,51.6801752719207 -4.0309603436223,51.6802130148917 -4.030900614555,51.6799766193399 -4.03071556034332,51.679817997156 -4.03049485955128,51.6796383249854 -4.03036428382433,51.6795003372806 -4.03023738749409,51.6794125405633 -4.03004411159805,51.679456337435 -4.02990593855124,51.6794389475304 -4.02975461567725,51.6794208863927 -4.0294588144296,51.6794044228625 -4.02942052522939,51.6795508138174 -4.02935562553481,51.67971555559 -4.0292867848031,51.6797949591695 -4.02908793646563,51.6800367231561 -4.02901170378958,51.6801774774107 -4.02890433345713,51.6802647388464 -4.02876347155004,51.680349881004 -4.02843576057807,51.6803986955213 -4.02840422029755,51.6804028365167 -4.02827383626502,51.6804636139549 -4.02820296009353,51.6805295666011 -4.02809598997725,51.6806285072641 -4.0279466431694,51.6807479581801 -4.02765948540991,51.6808608885375 -4.02751501992725,51.6808975452826 -4.02725905658318,51.6809639960118 -4.02695477411286,51.6810834234177 -4.0268534428289,51.6811778600726 -4.0267872067924,51.6813156534399 -4.02676174553825,51.6815544205945 -4.02671358357475,51.6816082933828 -4.02652558796497,51.6816744686679 -4.02648999943115,51.681686769723 -4.02626886890393,51.6818228302051 -4.02610128573787,51.681956078811 -4.02597511069438,51.682111177211 -4.02597293976033,51.6822253893543 -4.0260290538515,51.6823466866221 -4.02603708618854,51.6823636287382 -4.02606553722535,51.6824504325215 -4.02600333126451,51.6825476995924 -4.02599515285963,51.6825595275829 -4.02586693168842,51.6826021950754 -4.02565829499315,51.6826282696566 -4.02554409213718,51.6826617049935 -4.02551496485552,51.6827225312107 -4.0255401647304,51.682832675041 -4.02560821003235,51.6829007251667 -4.02568894049247,51.6829910318387 -4.0256853769345,51.6830073646673 -4.0256769331701,51.6830452687913 -4.02565394706861,51.6830807268647 -4.02563218981369,51.6831116691943 -4.02558614712742,51.6831169579517 -4.02551408455653,51.6831244940402 -4.02526764596744,51.6831134614766 -4.02515898646543,51.6831081430921 -4.02488699256458,51.6830750750419 -4.02442873313272,51.6830829760976 -4.02407746588031,51.6830242129089 -4.02395672722575,51.6830101116331 -4.02387402418017,51.6830358100698 -4.02380950327979,51.6831134281702 -4.02380303673901,51.6832277142629 -4.0238775888409,51.6832785716466 -4.02398326717866,51.683278547893 -4.02402653014092,51.6832778022185 -4.02414870057841,51.6832918787455 -4.02417034543063,51.6833545263432 -4.0241574914836,51.6834887010538 -4.02411666557263,51.6836107708579 -4.02405234489252,51.6836928801729 -4.02389006335607,51.683718152582 -4.02367381549791,51.683704798687 -4.02366519324103,51.6837040480062 -4.02353809009194,51.6836783690882 -4.02348413089579,51.6836666228134 -4.02334093557147,51.6836358262646 -4.02315052064078,51.6836480969708 -4.02302852397386,51.6836699772268 -4.02287949144674,51.6837328683683 -4.0227658082813,51.6837806758133 -4.02260142867771,51.6839219549222 -4.02258590164175,51.6840256984541 -4.02251241842358,51.6840656218263 -4.02236355468283,51.684068185623 -4.0222212686235,51.6840256851396 -4.02213016774398,51.6839300709014 -4.02206678994813,51.6838061999296 -4.02203968544405,51.6837814943313 -4.02196740724898,51.6837494758561 -4.02177476025922,51.6837438028017 -4.02165110448632,51.6837953770379 -4.02161260877721,51.6839030221012 -4.02162569540408,51.6840359397536 -4.02161395987487,51.6840963756654 -4.02159816150416,51.6841326084731 -4.02150456111839,51.6842376059494 -4.02125815604107,51.6844226380748 -4.0211382915219,51.6845244911399 -4.02123661893921,51.6846216903612 -4.02120524967553,51.6847607679236 -4.0216146723579,51.6851817394831 -4.02215709441986,51.685730865472 -4.02238692358311,51.6859868113431 -4.02270116185303,51.6863833467583 -4.02311341162798,51.6869311151393 -4.02339877906596,51.6873272467965 -4.02365275197361,51.6877014433655 -4.02394401564735,51.6881973528583 -4.0241599859101,51.6885964772179 -4.02427210497773,51.6888391652109 -4.02444492891583,51.6891455350026 -4.02458251872775,51.6894722913767 -4.02480394752072,51.6899586141244 -4.02498857885378,51.6904328948887 -4.02518776166737,51.6911659287297 -4.02540475349778,51.6919742627338 -4.02559371617397,51.6925744192204 -4.02570780532863,51.6929914793606 -4.0258747189208,51.6935839250064 -4.02600697430166,51.6939215593057 -4.0261661726487,51.6944080537452 -4.02634667321004,51.6948185736061 -4.02653231903432,51.6951840545285 -4.0267009541112,51.6954599271779 -4.0270037890892,51.6959565277351 -4.02726801648425,51.6963314396821 -4.0274099299076,51.6965592256602 -4.02839830108496,51.6979180037056 -4.02845935919385,51.6980185375403 -4.02848259262842,51.6980550853401 -4.02866784318347,51.6980221287608 -4.02871150250513,51.6980592229501 -4.02873481046015,51.6980947802202</coordinates></LinearRing></outerBoundaryIs></Polygon>
  </Placemark>
