  <Placemark>
	<Style><LineStyle><color>ff0000ff</color></LineStyle><PolyStyle><fill>0</fill></PolyStyle></Style>
	<ExtendedData><SchemaData schemaUrl="#Wards__December_2019__Boundaries_EW_BFE">
		<SimpleData name="objectid">1316</SimpleData>
		<SimpleData name="wd19cd">E05002256</SimpleData>
		<SimpleData name="wd19nm">Peninsula</SimpleData>
		<SimpleData name="wd19nmw"></SimpleData>
		<SimpleData name="bng_e">579655</SimpleData>
		<SimpleData name="bng_n">175246</SimpleData>
		<SimpleData name="long">0.584013</SimpleData>
		<SimpleData name="lat">51.447701</SimpleData>
		<SimpleData name="st_areashape">126872053.734423</SimpleData>
		<SimpleData name="st_lengthshape">51724.77693051</SimpleData>
	</SchemaData></ExtendedData>
      <Polygon><outerBoundaryIs><LinearRing><coordinates>0.58283903025275,51.3996468152422 0.58317773396536,51.3996870970639 0.583415710810518,51.3997259113647 0.583652619332949,51.3997710425532 0.583869504026715,51.3998184132329 0.584101389383586,51.3998753424947 0.584321925585696,51.3999370174006 0.584616261096256,51.4000313216657 0.584918708178674,51.4001433385955 0.585521954276033,51.4003863780136 0.585733053839881,51.4004824248343 0.586325917825504,51.4007472714477 0.586327338056081,51.4007472401249 0.58661847979165,51.4008856685105 0.586693728754032,51.4009208727614 0.586858469488082,51.4010125468182 0.587016003984501,51.4011025808488 0.587469944668153,51.401375881581 0.587639732545125,51.4014792215689 0.58797502109597,51.4017127890659 0.588497222441484,51.4020484179425 0.588680358925312,51.4022117027403 0.589001536750868,51.4024744410847 0.589107592114042,51.4025701049106 0.589495067475207,51.4029906146383 0.58957830547042,51.4030894791491 0.589876455847597,51.4034795003333 0.590099679726778,51.403919819899 0.590277298073376,51.4042369761402 0.590658966568797,51.4051143676224 0.590777522207794,51.4054058534528 0.59134513936629,51.406543658735 0.591533959072668,51.4068803458416 0.59177510716463,51.4072554384379 0.592143235782745,51.4078651845677 0.592241686866796,51.4080042616562 0.592342772639686,51.4081395938399 0.592447529894516,51.4082622569628 0.592553408485429,51.4083795906235 0.592620506252173,51.408446440927 0.592756313567107,51.4085855911492 0.592947931348138,51.4087953476027 0.59313021279108,51.4089406622019 0.593350656343413,51.4090751529982 0.593622383479598,51.4092023052786 0.594104856859649,51.4094433903872 0.594353174703302,51.4095863429539 0.594658249777537,51.4097432353392 0.595605037698403,51.4101324677403 0.59637106921107,51.4104033221095 0.59716013456789,51.4106745608046 0.597315433777613,51.4107241700471 0.597626876411482,51.4108152774413 0.598067645305382,51.410928694732 0.598347992677435,51.4109774201558 0.598840746922884,51.4110456252135 0.599367782451063,51.4111328494774 0.599858762600951,51.4111947956708 0.600688669138527,51.4113221429539 0.601368705903812,51.4114203508658 0.601859962321743,51.4114849798067 0.602023635277537,51.4115065240862 0.6027618877739,51.4115648593593 0.603515537348318,51.4116416408464 0.604526239142387,51.41168663306 0.605194741690145,51.4117068507728 0.606683729549901,51.411792539135 0.607343998987019,51.4118201208681 0.608264532560694,51.4118724799861 0.60944410959798,51.4119280603235 0.609714340809578,51.4119508194606 0.609881633938016,51.4119587858954 0.610228929233165,51.41197092667 0.610916428129037,51.4119727065575 0.611555442620218,51.4119809566256 0.612817091882017,51.4119618456411 0.61366420257541,51.4119366754302 0.61407446411836,51.4119176407432 0.614902208411111,51.4119063804558 0.615694317060098,51.4118752213145 0.616156677547285,51.4118631050406 0.616780427237933,51.4118303003212 0.617183363784998,51.4118096150966 0.617719214227224,51.4117741828318 0.618587948830505,51.4116999315734 0.619067683126396,51.4116640378842 0.619784183296737,51.4116192541468 0.620486542472436,51.4115532031444 0.62098232993387,51.4114953637036 0.621567618978658,51.4114184375142 0.622024401403431,51.4113586778876 0.623124301118573,51.411202796256 0.624400377571162,51.4109844268467 0.624971101429494,51.4109060100093 0.627739484049717,51.4105022221311 0.628971273993081,51.4103145562573 0.629407180896575,51.4102426489851 0.629645852607595,51.410217513669 0.630264069022745,51.4101631820495 0.631136283713748,51.4101256243622 0.632552806436106,51.4100992121239 0.633692729436189,51.4101167609984 0.634558247522751,51.4101359720222 0.635472416443484,51.4101784489588 0.635670164068415,51.4101901867865 0.635855142943301,51.4102067065864 0.636196806023917,51.4102466765446 0.636781597232391,51.4103369220681 0.637108853901525,51.4104005913067 0.63776497965621,51.4105063998582 0.638432073486986,51.4106523296538 0.638599915243707,51.4106944965642 0.639722054431907,51.411001997912 0.640324713514596,51.4112024169121 0.641911794979616,51.4116883306298 0.642434764693212,51.411855468792 0.643365816652928,51.4121384720059 0.644217577342948,51.4124178613049 0.644499655665544,51.4125221798122 0.644781901188102,51.4126273042266 0.644999951441399,51.4127419684846 0.645579112506554,51.4131076117059 0.645801026172482,51.4132644469584 0.645984101284538,51.4134222476292 0.646218785029167,51.4135742977679 0.646618222398991,51.4138665784133 0.647105878077832,51.4143412782412 0.647188535285856,51.4144275265375 0.647462915442098,51.4147451072176 0.647814713813006,51.4151094910917 0.648101070186632,51.415484344581 0.648542039204046,51.4159960581921 0.648778337984539,51.4163028069921 0.649123727590112,51.416752840537 0.649419950528758,51.4171256691169 0.650570712994825,51.4186924678265 0.651232561654915,51.4195400382247 0.651494041025752,51.4199082533105 0.651654996579582,51.4201789382915 0.651723030747685,51.4203113698226 0.651788502755707,51.4204466473931 0.652132139909328,51.4212401808911 0.652346082601568,51.421631048787 0.65242542365375,51.4217579194557 0.652496166587447,51.4219370441085 0.652859215797866,51.422543116803 0.653231662729066,51.4230860353795 0.653293275083705,51.4231565722665 0.653544180069609,51.4234153270981 0.653827721180794,51.4236661500871 0.653931707135499,51.4237474157786 0.654163931337511,51.4239067886117 0.655197580799707,51.4247386355202 0.655594331141737,51.4250309474724 0.655878252377189,51.4252143224288 0.656223215507793,51.42540710259 0.656569322260278,51.4256195470304 0.656975406462982,51.4258496026106 0.657291056956968,51.426058329061 0.657908868211729,51.4263923763397 0.658076438273151,51.4264775911318 0.658245380656056,51.4265618751764 0.658793987685792,51.4268192627073 0.659759369511149,51.4273145439882 0.659760790496862,51.4273145117456 0.660083138624552,51.4274645446754 0.660586938715718,51.427691471946 0.661184133209359,51.4279414517006 0.661811777562141,51.4282213073173 0.663373870204981,51.4288567596579 0.663592497578604,51.428905739331 0.664054239837954,51.4289780569165 0.665228072367864,51.4290745551852 0.665750803993716,51.4291328014554 0.666011211570296,51.4291556506699 0.666641176029865,51.4292015634529 0.667231233983915,51.4292547647807 0.667436281554451,51.4292680813807 0.667785826918778,51.4292673200098 0.668128787377932,51.4292756987015 0.668521402860496,51.4292730553835 0.668941917076201,51.429254490363 0.669338482664402,51.4292463589086 0.669863944175287,51.4292271994396 0.670572541393552,51.4292137551577 0.671819818433105,51.429163753125 0.673258403371583,51.4291111729239 0.673494401973357,51.4291120845456 0.673827297747752,51.4290963996689 0.674428125132207,51.4290880875253 0.67540523832068,51.4290900664266 0.67607059341997,51.4290532993412 0.676274450759841,51.4290441491005 0.676501590705418,51.4290416611351 0.676734589217372,51.429039936541 0.677281706439272,51.4290463235201 0.677798407712134,51.4290255296706 0.678198337318522,51.4290262834507 0.679708324635498,51.4290142522711 0.680211110810006,51.4290009592191 0.68114694622062,51.42896247353 0.681750150487495,51.4289441787533 0.682386671933849,51.4289053380295 0.68325011985662,51.4288604000521 0.683662495307399,51.428826593175 0.68419585469156,51.4287703231107 0.68486764760848,51.4287180732258 0.685650386690087,51.4286461935483 0.686397333059824,51.4285526503361 0.686898267096732,51.4285079010669 0.68778537242941,51.4283993576026 0.688309021067241,51.4283495853412 0.688975151885032,51.4282515850518 0.689595211716486,51.4281771166765 0.690410917803449,51.4280306297409 0.690901188519106,51.4279519399474 0.691113997842473,51.4279236772447 0.691524136954955,51.427878294371 0.692213448612602,51.4278076173324 0.69303211925084,51.4278085916802 0.693680481495106,51.4278242651595 0.694142883333443,51.427832519942 0.695133925921735,51.4278780715154 0.695641333166545,51.4278951762348 0.697055149794449,51.4279850266194 0.698183778672037,51.4280462685076 0.699716263256659,51.4281467530255 0.700061214232068,51.4281667708646 0.7017648496631,51.4282426053894 0.703270556475626,51.4283292748605 0.704476807152977,51.4284130329141 0.705055290776833,51.4284383478179 0.706112254706096,51.4285029663998 0.706515998731909,51.4285421978553 0.706933598955869,51.4285730160487 0.707269189156779,51.4286291949167 0.707823549617307,51.4286838250881 0.708918089061588,51.4288239776915 0.709937836912189,51.428965038882 0.710489005489338,51.4290637891443 0.710943424482388,51.4291333035715 0.711699317095606,51.4292876458329 0.712446492865159,51.4294169181346 0.712805622908677,51.4295058043944 0.713506111286212,51.4296478399745 0.713793494026384,51.4297150060193 0.714137343363516,51.4297861694685 0.714457310577845,51.4298686750657 0.715141636302455,51.4300300462148 0.715532523798844,51.4301441739061 0.716084691775878,51.4302833360031 0.716261736399261,51.4303341706157 0.716722084704602,51.4304772553674 0.719693968859995,51.4313634983132 0.720210734716484,51.4314873678853 0.721262875414985,51.4317606528669 0.722028380639576,51.4319775550796 0.723323345212673,51.4323657582919 0.72421418183956,51.4326589493766 0.725592006701347,51.4331808832932 0.725754235729396,51.433245535727 0.726529331151887,51.4336007452463 0.72819856244911,51.4343272588636 0.728347040491798,51.434403917328 0.728752075584144,51.4346327625341 0.729052143324941,51.4347904098289 0.7292114934342,51.4348802115966 0.729840362795269,51.4353171185108 0.73033191726189,51.4356456370933 0.73053525080425,51.435796452499 0.73066729221188,51.4358877869492 0.731486672778988,51.436429044228 0.732277072649389,51.4370608851392 0.732725884384435,51.4373724062691 0.73284306681305,51.4374551832399 0.733205615816432,51.4377426390715 0.733490448122649,51.4380300173844 0.733727000075101,51.4383294010626 0.734373651266764,51.4390366017076 0.734902138480586,51.4396682403331 0.735746627530719,51.4407466607721 0.735995102407055,51.4412211847347 0.736209319074876,51.4416029070234 0.736411992523832,51.442031653822 0.736470653322379,51.4421931194515 0.736597941313663,51.4425418025816 0.736857777790361,51.4432039796587 0.737006701503834,51.4436484549146 0.737149043102673,51.444151438478 0.737266728674606,51.4446766668011 0.737325499802623,51.4452743026158 0.737427701286162,51.4460444587443 0.737558730946988,51.4464533857039 0.737756576509076,51.4469218040594 0.737937369066946,51.4472737308185 0.738048367814338,51.4475877266012 0.73814144328039,51.4478203180997 0.73831734789613,51.4481876445406 0.738518469461382,51.4485399947507 0.738975109090503,51.4491481145459 0.736655492962787,51.4501952161105 0.736290543406358,51.4503737639358 0.735730322522589,51.4506350927026 0.735166400512373,51.4508802293287 0.734531287368064,51.4511397019847 0.734241660585519,51.4513038968953 0.733902149564226,51.4514754586225 0.735091739481218,51.4533157478578 0.735378654844566,51.4538999623005 0.73575470043399,51.454531549491 0.7363394948165,51.4553309846536 0.736591074605764,51.455758583124 0.737311327927235,51.4566312766813 0.737516876027547,51.4570113943424 0.738318430452885,51.4585216455805 0.738589138524798,51.4591233125206 0.739000713839841,51.4600571515868 0.739172653111228,51.4603076768638 0.739511235658665,51.4607440235696 0.739851613410225,51.4613548479104 0.740078954952217,51.4620978777292 0.740121978271942,51.4629584175746 0.740120656661614,51.4635385670655 0.740074694509665,51.4639245582278 0.739374198004854,51.4655463265902 0.739362757939402,51.465644689095 0.739284409858182,51.4659460202137 0.739172613843534,51.4663865978966 0.739000067557474,51.4669923273702 0.738760338711215,51.4674854362455 0.738671318104217,51.4676106959388 0.73855181007448,51.46777802876 0.738282440388823,51.4680658383108 0.737455580635867,51.4691914378603 0.737340740861011,51.4692921248187 0.737149017412186,51.4695781182444 0.736898396504749,51.4700346129982 0.736686811234961,51.4703974953926 0.736127710585733,51.4709195432741 0.735584977422009,51.4712847586487 0.734969632218695,51.4718792339697 0.734380213181256,51.4722563228053 0.733701421922676,51.4726580603092 0.733177636995315,51.472953589586 0.73286276627726,51.4730832122245 0.732634139659494,51.4731856478979 0.732302736969555,51.4733526082533 0.732171182970821,51.4733925386291 0.732089540359848,51.4734232137664 0.732012488117479,51.4734591763522 0.731891736638369,51.4735348200398 0.731835594188818,51.4735828829262 0.731777190630409,51.4736427776955 0.731742468133348,51.4736876440782 0.731688837010585,51.4737797055191 0.731540676716318,51.4738299126383 0.731443626850505,51.4738690380628 0.731278936148603,51.4739565838606 0.731143901357882,51.4740595337993 0.731029561490988,51.4741709916401 0.730950735487889,51.4742249779577 0.730832347470579,51.4742925627035 0.730717483328364,51.4743455896746 0.730539619931744,51.4744054785858 0.73028074519423,51.4744609603203 0.730052805227195,51.4745274102717 0.729854435093524,51.4746058479297 0.729273938170527,51.4747955940712 0.728806792707544,51.4749089708177 0.727730753241257,51.4752677701636 0.725360223016349,51.4759929369317 0.724396529713882,51.4763049467614 0.723184288095102,51.4767944551452 0.722675502746437,51.4769330504849 0.721859673807791,51.4772380079186 0.721656667843255,51.4772868685107 0.721478918427426,51.477325161954 0.721208682137637,51.4774555141201 0.721002628898132,51.4774791789164 0.720836193449536,51.4774641606086 0.720755363954171,51.4774129885914 0.720524548397157,51.4774794864589 0.72055372188806,51.4776064844741 0.720495170687922,51.477640301983 0.720294147271596,51.4776746377506 0.71938475845253,51.478076156709 0.718839494015845,51.4781589366615 0.718438589610421,51.4781511508216 0.716539161042436,51.4785675110032 0.715760667035103,51.4787744549984 0.715488145052247,51.4788428075105 0.715222697114175,51.4789082982878 0.713178446185518,51.4794826950644 0.713044330593054,51.4795280581918 0.712838546610404,51.4795804742099 0.712566816325419,51.4796622885074 0.711370362504859,51.4801792695341 0.710798496893789,51.4805189659188 0.710637358620053,51.4806674506434 0.710371199878541,51.4808193526697 0.709672720879589,51.4811610714681 0.709532357449318,51.4811733069563 0.709380605933743,51.4811156746425 0.70919926748136,51.4809255657255 0.709131446813589,51.4808012560755 0.709111790211082,51.4807621484787 0.709105478078378,51.4807037618953 0.709062302422344,51.4805824792671 0.709018587155958,51.480550221491 0.708944707260982,51.4805420383155 0.708907350485585,51.4805689763599 0.70886745733691,51.4811581034869 0.708804447713952,51.4812872343712 0.708540740358504,51.4814786365259 0.707553086217742,51.4818270246062 0.707030669189004,51.4819316985736 0.706602484839459,51.4820954251169 0.705603149600335,51.48236934873 0.704143483524276,51.4828482741282 0.703181134261507,51.483284154425 0.702721229330421,51.4833738814253 0.701598533835324,51.483585069025 0.700725506124227,51.4837283651337 0.69828313736134,51.4840580298591 0.697339789179813,51.4842075027709 0.696474834340398,51.4842444842491 0.695342726657618,51.4843190700232 0.694977027793457,51.4843229821989 0.694472248340024,51.4842644534907 0.694097984696198,51.4841452904979 0.693740804578016,51.4839511962528 0.693711076984418,51.4839123184929 0.693241802729764,51.4842585608282 0.692898156488117,51.4845137120921 0.692827299345947,51.4852178199981 0.692501763417963,51.4855607584613 0.69137483176321,51.4859940248834 0.689701426144955,51.4862483073269 0.685862502659825,51.4868866698312 0.683228044060539,51.4871394967558 0.681214953803205,51.4874967374955 0.680046284915138,51.4878589176398 0.67812103703233,51.4880459601608 0.678117870710581,51.4880891898964 0.678102734332329,51.4883476724605 0.678110024454025,51.4893574842099 0.678028737766192,51.4931052405077 0.678051702247925,51.4948988976702 0.678041693520441,51.4959559448296 0.678040670112905,51.4960620634028 0.678005174491459,51.4997071604283 0.677976287584576,51.5017205746191 0.677921484374007,51.5036851302883 0.676113670513323,51.5035762538062 0.674518270705761,51.5035010774402 0.673515924525126,51.5034627973288 0.671094343286387,51.503330075351 0.668713781235052,51.503209766789 0.635381429179867,51.5015595942516 0.634753013131293,51.5014811051545 0.633490926856182,51.5013359238511 0.632862963220914,51.5012672156982 0.631695000369649,51.5011531685745 0.630427915681946,51.5010466355436 0.629157189245125,51.5009510500386 0.628445848492329,51.50090944986 0.627837449903775,51.5008790259642 0.627226305864078,51.500850459144 0.626004464430261,51.500803104583 0.625129850421126,51.5007795260575 0.624521165693731,51.5007688721137 0.623906770165552,51.5007601406093 0.622682987654562,51.5007533457076 0.621715252260287,51.5007632929773 0.618380144063148,51.5008279038766 0.612264433269742,51.5010263095117 0.608980998739476,51.501111977085 0.606841981882156,51.501177518037 0.604663902352033,51.5012915405884 0.602549941087687,51.5013925016013 0.599630682093761,51.5015480486686 0.598581079537407,51.501639639897 0.597301256408717,51.5017381097291 0.595843997011472,51.5018315895152 0.594558054865924,51.5018977956172 0.594104846962008,51.5019114131755 0.593854926389847,51.5019250301184 0.593346831565393,51.5019596389103 0.592968298753571,51.501993180151 0.592480156646055,51.5020507207118 0.592065251941296,51.502155193009 0.59206382856009,51.5021552244541 0.590937804852163,51.5024499200542 0.590751399055306,51.5024648250257 0.590644686113881,51.5024644840493 0.590542057224745,51.5024586583716 0.590424508934196,51.5024432707001 0.59029034725059,51.5024156629697 0.590193668470808,51.5023890254685 0.589808518008679,51.5022535792809 0.589519309628769,51.5021610594579 0.589202979604698,51.5020700376979 0.588872377362661,51.5019829256825 0.588233819143183,51.5018287886174 0.587711866129723,51.5017216183451 0.587343366058327,51.5017288455403 0.586846523887787,51.5017586820298 0.586008825097897,51.5018517752094 0.585299113052152,51.5019159669036 0.585076226493764,51.5019496496004 0.584832506876913,51.50197210169 0.584701671167001,51.5019758833104 0.584442069289843,51.5019717113885 0.584022219819299,51.5019387006582 0.583828628928602,51.5019294769981 0.583550124867568,51.501923022135 0.583272197427226,51.5019246464642 0.583014730190555,51.5019330119917 0.58272919000959,51.5019303066619 0.582418341227179,51.5019380471629 0.581670299212975,51.501933829542 0.581172520032144,51.5019241041847 0.580515696161177,51.5019025918079 0.579922624916059,51.5019138389074 0.579509146730547,51.501915740169 0.578816806848276,51.5019048887843 0.578504704844242,51.5018883725756 0.5781557634898,51.5018590892158 0.577807946956028,51.501824475591 0.577191364119974,51.5017517087772 0.57537315973986,51.5017323012924 0.575016416846715,51.501743729883 0.574729926470939,51.5017473215364 0.574180208548152,51.5017351098808 0.57358420233995,51.5016942417964 0.573284357961898,51.5016674623518 0.572618690949938,51.5015921524604 0.572139445450686,51.5015253377893 0.571323835049449,51.501473089201 0.570945807196132,51.5014651911313 0.570585662126518,51.5014667903636 0.570226072807523,51.5014782667313 0.569854035720312,51.5015008036059 0.569664659918325,51.5015157421969 0.569081352237852,51.501571676617 0.568656354874682,51.5015989662214 0.568324106435651,51.5016107374154 0.568040514471935,51.5016151477135 0.567492424186741,51.501606466495 0.566473896339911,51.5016368477048 0.566074693882351,51.5016347925602 0.565680316398593,51.5016425200486 0.565385498210992,51.5016543626756 0.564858882242663,51.5016937532227 0.564369085528365,51.5017476226148 0.564270469941584,51.5017623667648 0.563849973838663,51.5018443897877 0.563554141557941,51.5018868215765 0.563303332144182,51.5019121750535 0.563003173683947,51.5019304240785 0.562579731399813,51.5019324850187 0.561933910565455,51.50190334889 0.561630765446524,51.5018937871457 0.561006500856818,51.5018867430165 0.56038307331472,51.5018967599795 0.559139472255087,51.5019472834799 0.558683356702895,51.5019599337511 0.558041398595357,51.5019721403763 0.557279391015604,51.5019770720096 0.556913516331435,51.502005730344 0.556622017069358,51.5020237741229 0.556328590068009,51.5020328681821 0.555964155197944,51.502036316051 0.555690198073939,51.5020323974447 0.555417262296491,51.5020212618777 0.555042757802749,51.5019997511376 0.553797456377208,51.5019945099986 0.553018492067087,51.5020042782063 0.552584121264732,51.5020191284648 0.55252080502496,51.5020214060335 0.550454066152371,51.5023227097746 0.549399925640207,51.5024643145284 0.548041647046372,51.5026296889036 0.547871214448022,51.502647777627 0.547452824373874,51.5026658565874 0.547177321528644,51.5026853269619 0.546923696906403,51.5027115138366 0.546671897554952,51.5027448536612 0.546403392523983,51.5027875465988 0.546138234631389,51.5028391581214 0.545761101863031,51.5029238589118 0.545176914595887,51.5029644095262 0.544762437470546,51.5029994764919 0.544037530477041,51.5030754426319 0.543399853470825,51.503062299413 0.542908245865761,51.5030585725612 0.542418579827657,51.503061995587 0.54199541140654,51.5030711676184 0.540758239708064,51.5031096622697 0.540310524522056,51.5031175612114 0.539791670576765,51.503115311648 0.538713641804166,51.5031377509683 0.537435061424361,51.5029998931649 0.536100289143752,51.5029154742925 0.535648635937081,51.5028524114372 0.535288835773111,51.5028088499477 0.534925369302698,51.5027762462106 0.534569320956441,51.5027488754368 0.534436289846554,51.5027409613144 0.533802184213065,51.5027384774949 0.531975740766981,51.5026745225293 0.530818127147067,51.5026392665042 0.530507715563665,51.5026270828133 0.530012062900322,51.5026017217945 0.529025142950178,51.5025528757181 0.528615637731839,51.5025212452406 0.528401187482055,51.5024997940045 0.527745433308969,51.5024195221132 0.52741391469493,51.5023672355199 0.527613953157052,51.5019717231945 0.527784032311219,51.5016595751428 0.528083795209379,51.5011405335817 0.52819183459049,51.500776584067 0.528233447414987,51.500590471169 0.528282351446036,51.5002764374132 0.52837747069297,51.4995225545334 0.528397774310514,51.4992648825008 0.528390576605958,51.4991606511632 0.528380352264217,51.4990017299793 0.528381979835893,51.4988487562094 0.528395122625965,51.4986956250315 0.528421574369644,51.4985232357461 0.528461012551772,51.4983515548863 0.528513599192694,51.498181299336 0.528586322236443,51.497986423023 0.528609811517609,51.4976296909647 0.5286670850746,51.4971536375947 0.52898618867987,51.4953713799711 0.529053275903297,51.4947358829625 0.529116553726737,51.4942911684289 0.529165926203553,51.4939600413001 0.52924129227928,51.4936049763708 0.529309448294501,51.4931690583542 0.529335215852658,51.4929329364448 0.529361297015297,51.4925716512066 0.529524694288752,51.4916463618879 0.529739087465978,51.4906253846376 0.529981811931502,51.4893655318732 0.530013723102076,51.4891868201826 0.530162993182998,51.4883435628394 0.530351974547076,51.4871280252137 0.530484156556542,51.4863409703098 0.53066537725284,51.4851399854453 0.530679194557255,51.4850506751282 0.530720021873355,51.4849301225205 0.530762117358573,51.4848581847933 0.530821083946911,51.4847777904566 0.530939487687398,51.4846276913011 0.531007330579447,51.4845767763173 0.531047922816275,51.4845570189245 0.531137254869167,51.4845317136209 0.531154573746398,51.4845313398195 0.531224605493252,51.4845478102122 0.531276542266119,51.4845484879247 0.531323592012823,51.4845402792279 0.531358788292728,51.4845260326017 0.531386517697334,51.4845056542693 0.531405220819409,51.4844809739332 0.531410367578321,51.4844431002079 0.531374107825321,51.4844124140385 0.531334422574269,51.4843970874423 0.531293544759327,51.4843880794461 0.531222984465875,51.4843878037168 0.5310365370944,51.4844286920347 0.53101067824503,51.4844292501317 0.530971322792199,51.484422007002 0.530943195379043,51.4844073293002 0.530929151606905,51.4843896504426 0.530926579550067,51.4843689359678 0.530940683184517,51.4843362642645 0.530924022600075,51.4842970624671 0.530881392373297,51.4842800005421 0.530776823065512,51.4842660731204 0.530696311711613,51.4842426354728 0.530629972193379,51.4842134975519 0.530542932784948,51.4841515386774 0.530446482202291,51.4840483345791 0.530379179595519,51.484003931657 0.530222626290548,51.4839326836227 0.530136433399571,51.4838859909309 0.530003172847869,51.4837935609228 0.529893597546197,51.4836870420677 0.529806621339726,51.4835747320365 0.529767217948965,51.4835387187939 0.52970740182777,51.4834986499352 0.529639119042808,51.4834622703114 0.529529916436565,51.4834160735221 0.529495696740745,51.4833943337534 0.529462236528696,51.4833626881544 0.529441307698807,51.4833235782197 0.529433724323835,51.4832895757354 0.529437877293164,51.4832616138786 0.529451813998064,51.4832280465911 0.529497968832489,51.4831758015301 0.529615690047281,51.4829618813403 0.529687227191052,51.4827696373233 0.529634131297885,51.482722230331 0.529569666366728,51.4827011429996 0.529536652621123,51.4826775793981 0.529524880363158,51.4826472638403 0.529527608992909,51.4826193326997 0.529546531272629,51.4825964466636 0.529572718114194,51.4825761011266 0.529641853762704,51.482548536271 0.529658356434866,51.4825355927488 0.529667588058698,51.4825200180321 0.529665002664357,51.4824733202041 0.529673544665223,51.4824452636568 0.529692415679554,51.4824214802333 0.52971747787041,51.4824065533261 0.529751497447898,51.4823968284885 0.529788831491281,51.4823933259114 0.529833728413336,51.4823977517771 0.529861457905046,51.4824052460799 0.529966270547611,51.4824515363551 0.530036248980225,51.4824671101127 0.530109970192246,51.4824709140032 0.530188689261801,51.4824620224721 0.530265238137405,51.4824396917013 0.530314337265196,51.482417053793 0.530333605753615,51.4824004539262 0.530348058786929,51.4823740676181 0.530350836650011,51.4823470347571 0.530329907561502,51.4823079249786 0.530301282934859,51.4822842668865 0.530255280043551,51.4821826713459 0.530254335148047,51.4821656082526 0.530262098991639,51.4821492566235 0.530280093839796,51.4821353823463 0.530313914160269,51.4821220650715 0.530322125537077,51.482113795389 0.530333743311305,51.482064093903 0.530328359505501,51.4820462281202 0.530300512731501,51.4820108641686 0.530262732054524,51.4819784126511 0.53017497093543,51.4819290566468 0.530160675248988,51.4818789249722 0.530178849590196,51.4818425689505 0.530178881416938,51.4818173931753 0.530169078715193,51.4817969246246 0.530149461514657,51.4817793659281 0.530119843534065,51.4817656186686 0.530086302507365,51.481758250713 0.530050214283364,51.4817563321076 0.530017319682389,51.4817606383626 0.530003265122166,51.481766335985 0.529952146339691,51.4818061008224 0.529904321286667,51.481826013897 0.529849939842716,51.4818325814818 0.529791964180001,51.4818257405663 0.529737712766959,51.4818089280424 0.529694468744152,51.4817828879728 0.529662551741239,51.4817512082452 0.529652848747708,51.481732536237 0.52964822503992,51.4816490191109 0.529661813067576,51.4816091646352 0.529684650235682,51.4815798113102 0.529714879002558,51.4815530847698 0.529763647936293,51.4815223616996 0.529789978519962,51.4814273871072 0.529719617965234,51.481325507387 0.529714035615672,51.4813040492907 0.529717853825133,51.4812679130904 0.529737601589315,51.4812342194965 0.529762265413441,51.4812121089245 0.529787376666416,51.4811980803021 0.529831229776628,51.4811836482585 0.529945903793113,51.4811721824747 0.529980023324853,51.481164254138 0.530013843028266,51.4811509369552 0.530044467695153,51.481131394922 0.530064712450165,51.4811066824216 0.530074676682161,51.481078594251 0.530070168880302,51.4810508192136 0.530052853452188,51.4810233204992 0.530028648645074,51.481002264191 0.530000404272588,51.480987588802 0.529963818004356,51.4809766899455 0.529919021891554,51.4809740598026 0.529871925779865,51.4809813696037 0.529828271760689,51.4809993939398 0.529782816352477,51.4810363393361 0.529697939767915,51.4810390696758 0.529557211137644,51.4810196274769 0.529526368502514,51.4810095030585 0.529471122530699,51.4809747308234 0.529452527459392,51.4809498668911 0.529438685263392,51.4809079068943 0.529497797517323,51.4808580804083 0.529508209497303,51.4808380751365 0.529509931551392,51.4808155601053 0.529501603286918,51.4807959590641 0.529484863436322,51.4807810353979 0.529461157571326,51.4807689591879 0.529417355558724,51.480756417071 0.529377967309642,51.4806970270296 0.529396391804261,51.480665160767 0.529461043120896,51.4805845544913 0.529652897810268,51.4804077869878 0.52972065476779,51.4804090225475 0.529818575582033,51.4804338830719 0.529853440344696,51.4804394247031 0.529922272038681,51.4804343431881 0.529868153184402,51.4803662801247 0.529850992939975,51.4803180080432 0.529875277004549,51.480286914656 0.529953644338588,51.4802717370593 0.529967598982143,51.4802642428581 0.529966983155447,51.4802273928721 0.530039929208739,51.4801143299043 0.530115660823083,51.4800515560752 0.53016585207604,51.4800208021257 0.530227692968729,51.479992404961 0.53031385298452,51.4799635729609 0.530359444301035,51.4799526988695 0.530470006005571,51.4799485144152 0.530494260646375,51.4799425966238 0.530503725692948,51.4799055291008 0.530465201652367,51.4798874790798 0.5304411962037,51.4798700151267 0.530424278825909,51.479849700118 0.530415700306424,51.4798256094982 0.530419920651707,51.4797967467629 0.530441539043089,51.4797711051769 0.530479129867746,51.4797487154932 0.530523079381144,51.4797360789275 0.530605106624365,51.4797334094537 0.530660611174751,51.4797214219477 0.530713779290548,51.4796950994519 0.530740755127529,51.4796611606427 0.53074802105638,51.4796358287372 0.530740070764803,51.4795973382963 0.530684627045888,51.4795311020283 0.530616176564193,51.4795172944554 0.530579025769282,51.4794983154714 0.530558961818944,51.4794726739768 0.530551707955428,51.4794467560449 0.530556077424634,51.479420588187 0.530572660139042,51.4793833670583 0.530604832212151,51.4793403242673 0.53068489958257,51.4792765580097 0.530688355239493,51.4792360235804 0.530679945802802,51.4792128277971 0.530662758596094,51.4791898223411 0.530634235249812,51.4791679599878 0.53059593062864,51.4791517031144 0.530556430672613,51.4791417666979 0.530494288262771,51.479136813912 0.53025559577745,51.4790916142226 0.530181681057446,51.4790842171793 0.530095136851444,51.479082488785 0.529979112138297,51.4790930836431 0.529950192085727,51.4790919097433 0.529907964841696,51.4790820310498 0.529875147503462,51.4790619699525 0.529856289411854,51.4790345035915 0.529858938223635,51.4790029775764 0.529866534073574,51.4789857311187 0.530019645443261,51.4788106980944 0.53007625562333,51.4787672181273 0.530178601509419,51.4787154691481 0.530242196408233,51.4786952156559 0.530318987621644,51.4786773745879 0.530652476041222,51.4786396087147 0.53074017528353,51.4786107422516 0.530826320759673,51.478605286522 0.530865452257907,51.4786107357563 0.530931404304435,51.4786308917714 0.530965689232216,51.4786517303313 0.531037372983186,51.4787239097241 0.531064477092554,51.4787458925492 0.531166969564655,51.4786968367348 0.531175229949111,51.4786894652911 0.531085355833942,51.478342460351 0.531063153382751,51.478278203972 0.531061362761311,51.478245874371 0.531082612167177,51.4781878732638 0.531128692039154,51.4781365284423 0.53120810490083,51.4780888692059 0.531251903406094,51.4780735384016 0.531320253815678,51.4780576766986 0.531269880875658,51.4778771438906 0.531264895198224,51.4778385894808 0.531321390054137,51.4776880281222 0.531294253124669,51.4776139879488 0.531292492238359,51.4775564825959 0.531305331636971,51.477503158018 0.531337004332221,51.4774511347928 0.531373767134581,51.4774116800696 0.531408260142707,51.4773848609885 0.531765675485559,51.477181138036 0.531876952864793,51.4771363874043 0.531925499025024,51.4771038701447 0.531951453251459,51.4770772351642 0.53198238555686,51.4770118315262 0.531984714469036,51.4769767157606 0.531970224297793,51.476923081881 0.531930569914228,51.4762844900702 0.531906228023559,51.4762094912957 0.531858834347807,51.4760827505212 0.531832841407105,51.4760293650352 0.531749735802103,51.4759331573227 0.531660923342727,51.4757317854594 0.531607185743779,51.475672705039 0.531563649587194,51.4756412775795 0.531519087382315,51.4756170645034 0.531460323498309,51.4755958552035 0.531398963234042,51.475579197866 0.531349648035777,51.4755720799959 0.531288914549582,51.4755688959973 0.531076281062067,51.4755779808762 0.530876854642173,51.4755661011476 0.53076885179755,51.4755648364556 0.530524850071978,51.4755799917315 0.530424808239434,51.4755938396833 0.530359579779121,51.4756124197765 0.530303452996049,51.4756388060127 0.530257804264408,51.4756721592747 0.530226703852611,51.4757087942764 0.530217717300481,51.4757287688837 0.530222968185022,51.4757978871352 0.530258642763333,51.4758438710112 0.530277927195831,51.4758812175602 0.530285931052007,51.4759206961911 0.530285122923697,51.4759575769251 0.53027423437024,51.4759946751729 0.530224663367066,51.4760622791414 0.530155308401337,51.4761114286313 0.529694378248688,51.4762662199033 0.529541683088476,51.4763693149156 0.529438381350851,51.476427287856 0.529275636950325,51.4765054241733 0.528426648280436,51.4767009480619 0.528269844823107,51.4767555784933 0.528070845872653,51.4768030258943 0.527956548527766,51.4768189768682 0.527801677322235,51.4768313064297 0.527666374105645,51.4768324242815 0.527501603126233,51.476822489848 0.527304739307798,51.476803355619 0.527158112618717,51.4767822399421 0.52705907636162,51.4767627957127 0.526868963998013,51.4767111470318 0.526790369852445,51.4766705829262 0.526723151607674,51.4766252777123 0.526664268497967,51.4765761063589 0.526621361552773,51.476530277254 0.526585592142638,51.476482495613 0.526552551580316,51.4764067828755 0.526573278499934,51.4763371056996 0.526570840799546,51.476293011881 0.526555878053072,51.4762564701041 0.526535451659162,51.4762263407157 0.526509580200068,51.4762008236788 0.526488674549183,51.4761877880896 0.526438799615854,51.4761726785418 0.526303003499316,51.476136942192 0.526134000116772,51.4761019210558 0.52598864987471,51.4760780792392 0.525839477210975,51.4760624111846 0.525569452604637,51.4760493458639 0.524606049390501,51.4760503106121 0.524526923721338,51.476025850628 0.524036482701319,51.4756982525189 0.523857406378586,51.4755861218785 0.523450508223522,51.4753628188732 0.523471184987812,51.475320115372 0.523486800635303,51.4752631354113 0.52346949006612,51.4751861848795 0.523452229075117,51.4751595834245 0.523403431655086,51.4751101934363 0.523323172803928,51.4750651669422 0.523158196789131,51.4750255589678 0.523101114397735,51.4749809329959 0.523061144577444,51.4749107637252 0.523050325791003,51.4748696373297 0.523053123449906,51.4747912647791 0.523071981162267,51.4747414073503 0.523090505578403,51.4747113386602 0.523162945474971,51.4746405485205 0.523209263596592,51.4745676232162 0.523221699497293,51.4745304914795 0.523224050675908,51.4744440369231 0.523172900168007,51.474300380881 0.523126514401727,51.4742150649458 0.523030187561492,51.4740875756968 0.523010871693423,51.4738946823002 0.523013517963753,51.4736823460128 0.523007413271144,51.473649209783 0.522931142511446,51.4734160935797 0.522870259852559,51.473278940562 0.522789713881808,51.4731232393132 0.522802325771365,51.4729602293369 0.522801053176151,51.4728855409117 0.522794092657633,51.4728110647951 0.522723378907169,51.472469935438 0.522703854004623,51.4722194141252 0.522706224563642,51.4721591226261 0.522741243886256,51.4719847509204 0.522646392049548,51.4718042721988 0.522546756831416,51.4714080203354 0.522546821445616,51.4713575788437 0.52256209014971,51.4712943126666 0.522585265467236,51.4712452617688 0.522646445361961,51.4711792100507 0.522704426405688,51.4711348056337 0.52287317152402,51.4708514620596 0.523147483132533,51.4708653404821 0.523255382271394,51.4708369442265 0.523328122158162,51.4708254885931 0.523401378001246,51.4708212149501 0.523464901531142,51.470823444478 0.523530075177746,51.4708319322314 0.523601525808518,51.4708465777304 0.523698328695385,51.4708795597611 0.523756684854828,51.4708935885233 0.523883330762081,51.4709187349478 0.524000991559868,51.470935983034 0.524119560215398,51.47094601832 0.524253770934635,51.4709512217189 0.524387535294007,51.470948342066 0.524592587487063,51.4709313398992 0.524680619099741,51.4709366367752 0.524777786788622,51.4710793913507 0.52478702000473,51.471141230908 0.524781126268142,51.4711656344349 0.524765319185545,51.4711911498797 0.5247381402664,51.4712214052116 0.524700800025059,51.4712482836499 0.524568786736359,51.4713086692767 0.524490582190335,51.4713544993293 0.524422919974967,51.471406306203 0.524363115240985,51.4714714298925 0.524297302036319,51.4715825380379 0.524255142430285,51.4716275020266 0.524237948229215,51.4716558343949 0.52423227124646,51.4716820310589 0.52423577807888,51.4717197182001 0.524249164634229,51.4717535960905 0.524269240318862,51.4717774405388 0.524336599094823,51.4718254412815 0.524631237647512,51.4719449734396 0.524975551615223,51.4721039849796 0.525265629043628,51.472140895365 0.525439846838561,51.4721416392743 0.525539932432617,51.4721286939605 0.525636577576582,51.4721050338525 0.52571850663366,51.4720771947051 0.525871162187664,51.4719992805573 0.525978301051103,51.4719313377032 0.526142439153536,51.4717991391383 0.526249676390117,51.4717329917438 0.526342363321822,51.4716914343638 0.526503639454288,51.4716385078378 0.526583083909291,51.4716430898479 0.526633116700233,51.4716375167402 0.526682772398002,51.471622959859 0.526721981018333,51.4716041330333 0.526761583223344,51.4715645277164 0.526812793907307,51.4714492377713 0.526839723272501,51.4714144904887 0.526882128356314,51.4713740161964 0.526931895268784,51.4713378782802 0.527028024173881,51.4712791626796 0.527054999461725,51.4712452246852 0.527064417522232,51.4712072590624 0.527058192352055,51.4711741256093 0.527042353334209,51.4711474940193 0.527018156713754,51.4711264369486 0.526989888496091,51.4711090641899 0.526950099818229,51.47109373753 0.526923849806314,51.4710871100783 0.526765938484372,51.4710698338029 0.526661552547998,51.4710307239129 0.526620499547974,51.4709667820833 0.526540642144128,51.4709289422928 0.526457409516605,51.4709073583939 0.526413896985426,51.4709020021347 0.526349050114089,51.470901601452 0.526289616742438,51.470893890959 0.526232582996832,51.4708780362279 0.526197180022369,51.4708626148287 0.526139932480209,51.47081709452 0.526121148576585,51.4707887284159 0.526109431498132,51.4707593098006 0.526126118507142,51.4703587559724 0.52611947950447,51.4703417264714 0.52608129929553,51.4702760146683 0.526007999299636,51.4701741961371 0.52594198015324,51.4701009923912 0.525852968931258,51.4700263952125 0.525767005598824,51.4699832911278 0.525732580773455,51.4699597569118 0.525694666078997,51.4699246087747 0.525660226287089,51.4698750012913 0.52564324731548,51.4698277140098 0.525642041408519,51.4697800869863 0.525651260471929,51.4697385291908 0.525697167956657,51.4696583285505 0.525719151858096,51.4695598518165 0.525713544974998,51.4694583737116 0.525698282682906,51.46941635393 0.525669237997144,51.4693612349315 0.525622818326944,51.4693010948634 0.525572488277815,51.4692518287172 0.525458512099559,51.4691679694483 0.525390338727794,51.4691073094105 0.525318530506297,51.4690324312665 0.525262247255639,51.4689527236919 0.525217484164768,51.4688709692598 0.525193252208444,51.468797674604 0.525177681733422,51.4687242824514 0.52517447591276,51.4686146600994 0.524921893715014,51.4680310017194 0.524782585363854,51.4678280156162 0.524748761013293,51.467737933858 0.524669684191164,51.4674518316112 0.524651266135515,51.4674063730064 0.524558079374818,51.4673355512842 0.524498403011715,51.4673233501065 0.524419049632531,51.4672944881404 0.524386049893663,51.4672709228592 0.524355465215111,51.4672373252908 0.52433876745205,51.4671972249104 0.524337830056012,51.4671522892153 0.524356913050274,51.4671087212386 0.524411516378324,51.4670526994297 0.524375110864041,51.4669158293092 0.52437649413301,51.4668097045028 0.524359598480366,51.4667660117338 0.524365378944869,51.4667137391421 0.524393533258542,51.4666753702744 0.524428221088141,51.466652145521 0.524476033126793,51.4666322347719 0.524551483614724,51.4666162239807 0.524711117648191,51.4665596493853 0.524745642221514,51.4665076572117 0.524629439224884,51.4664112564972 0.524489605026034,51.4663297507796 0.524415135676617,51.4663097755246 0.524378043064656,51.4662916028063 0.524332403255105,51.4662476295029 0.524322627104995,51.4662253620285 0.524322845445494,51.4661777042299 0.524352173917364,51.4661348150366 0.524391428606783,51.4661168863838 0.524424594604,51.4660918965467 0.524449952089507,51.4660544872394 0.524458295032802,51.466022838671 0.524454308616977,51.4660022443928 0.524437126343888,51.4659791479741 0.524403881229674,51.4659510920001 0.524362593893781,51.4659322001594 0.524288304754867,51.4659176153741 0.524176649761993,51.4658777613272 0.52408896592006,51.4657753517404 0.524042123296088,51.465683752031 0.523969178206961,51.4655881283063 0.523970060137299,51.4655503465932 0.523979678284963,51.465515972502 0.524102936851394,51.4654800523656 0.523976411767181,51.4653793782157 0.523918076762309,51.4653140095362 0.523881574692955,51.4652527567532 0.523859717903384,51.4651965831355 0.523849120129726,51.4651077988511 0.523710430393294,51.4649695336184 0.523673448308806,51.464925373734 0.523624737641174,51.4648257224564 0.523515188532091,51.4647443723622 0.523505562527485,51.4646753478726 0.523473136707103,51.4645825383055 0.523575746858787,51.4645101988228 0.523631801292589,51.4644568441964 0.523677475284463,51.464398227715 0.523693199189642,51.4643691175388 0.523670946597763,51.464305760151 0.523612400664954,51.4642881389157 0.523575432843943,51.4642700532233 0.523543909059534,51.4642473543994 0.523525409713048,51.4642261739849 0.523514260290923,51.4642048353774 0.523511132764386,51.4641761309586 0.523519228230523,51.4641399918322 0.523536470018712,51.4641125578094 0.523559755484181,51.4640913774301 0.523651705486627,51.4640345520811 0.523677588928991,51.4640088198088 0.523701305210451,51.4639696472297 0.523713688880626,51.4639316179444 0.523712053316075,51.4639019829439 0.52366365692739,51.4637563797225 0.523619478471521,51.4636871995719 0.523509123113367,51.4636428210594 0.523477798029859,51.4636237145265 0.523451886219119,51.4635972992201 0.523437426289639,51.4635697380683 0.523437361752842,51.4635427655638 0.523448552304779,51.4635110557734 0.523490699523609,51.4634660021967 0.523507124574156,51.463372141219 0.523443795962231,51.4633474296982 0.523264104270491,51.4633243239734 0.523137163548329,51.4632955868464 0.523194955389849,51.4632457906939 0.523200236380439,51.4631844479641 0.523209805154009,51.4631491765187 0.523255087036785,51.4630834662947 0.523317346211019,51.4630371705112 0.523392726978914,51.4629941888672 0.523370525020757,51.4629317288098 0.523226076709724,51.4628718097122 0.523116701341459,51.4628193181474 0.523049685522071,51.4627794009907 0.522986907118675,51.4627366954042 0.522865934929027,51.4626332034903 0.522760792045656,51.4626057947864 0.522738154810685,51.4625612360467 0.522732952853567,51.4624669411589 0.522659106823803,51.4624064915524 0.522375387106745,51.4621436717074 0.521790851170924,51.4615941211512 0.521489917539531,51.4613073928868 0.520580265068898,51.4603979010749 0.519777072581103,51.4596426489094 0.519814861728997,51.4594646223788 0.519824109727914,51.459371814698 0.51982258812361,51.459266651819 0.519807169858383,51.4591419169632 0.519775949214157,51.4590212073562 0.519709620374601,51.4587824806774 0.519581206566289,51.4582807481169 0.519532100116565,51.4581477461374 0.519512757808052,51.458057351572 0.519511299377202,51.4579791602393 0.51951981363463,51.4578988659049 0.519554915781367,51.4577776310474 0.519695372604261,51.4575047878934 0.519910103307934,51.4571431352221 0.520024659760341,51.4570013099919 0.520135814849778,51.4568774507161 0.520313219611975,51.4567001079091 0.520397848571291,51.4565903055723 0.520468793250057,51.4565186491765 0.520525139293751,51.4564706839464 0.520608573151703,51.4564167418397 0.520710421446744,51.4563588062347 0.520870806667799,51.4562905317426 0.520981816937662,51.4562674644291 0.521061025046274,51.4562423846153 0.521125689947457,51.456214020928 0.521203363384421,51.4561611007188 0.521252050918999,51.4561034094323 0.521081527082257,51.4560135692031 0.520226765326275,51.4561758061692 0.520128776948474,51.4562003906675 0.520050991851623,51.4562254392489 0.519956688384287,51.4562652291791 0.519840475220684,51.4563252707218 0.519689497454844,51.456432903044 0.519270963044877,51.4566477943758 0.519158578470164,51.4566717880206 0.51914565664564,51.4566720656948 0.519036983331175,51.4565026707694 0.519082463075831,51.4564405534503 0.519023795874088,51.4563149499179 0.518800334964858,51.4556560265821 0.518609774081996,51.4551763086574 0.518562126669356,51.4550675508125 0.518439004864372,51.4548705926156 0.518378554214904,51.4547405312004 0.51833536589172,51.454609289483 0.518306122006714,51.4544704659942 0.51829530778404,51.4543538135595 0.518299527070436,51.454195478856 0.518240349970664,51.4532757894507 0.518330642936296,51.4530597718003 0.518154941193734,51.4527181965938 0.51807916931642,51.4526245190488 0.517982714077532,51.4524655598406 0.517947839444309,51.4523817925323 0.517919252428338,51.4522807166919 0.517905013077816,51.4521794234853 0.517901738938344,51.4520940779923 0.517908920531384,51.4519895365993 0.517856304799542,51.4518701854763 0.517766298747318,51.4517507390072 0.51772779557244,51.4516786478597 0.517705506587285,51.4516143908966 0.517693444122714,51.4515526114814 0.517690626774574,51.4515014223239 0.517698565225141,51.4514365160924 0.517715982278589,51.4513605265899 0.517814054481534,51.4511543215554 0.517846500289675,51.4510646121846 0.517864114727026,51.4509922149851 0.51787637960372,51.4509002418961 0.517878556239585,51.4507824109861 0.51786725654702,51.4506827625239 0.517840927778533,51.4505709392614 0.517771196485033,51.4504015154464 0.517671454741511,51.4502624972564 0.517637620427204,51.450197588864 0.517608803588434,51.4501181872637 0.517586985132995,51.4500106721173 0.517583168459734,51.4499154478269 0.517632134104184,51.4494962194354 0.517657721588091,51.4490468318139 0.517731580625755,51.4487673298887 0.517760052847868,51.4486291541467 0.517784300137608,51.4484163521403 0.517790846224022,51.4481967381098 0.517509480406118,51.4472413603893 0.517469800629869,51.447147805783 0.517439443036483,51.4470144903152 0.517435238064659,51.4469380657849 0.517351896556407,51.4462860206872 0.517330141804036,51.4457072797732 0.516908092978908,51.4457532977635 0.516906671272699,51.4457533282959 0.516422934123761,51.4457781014119 0.516188018500408,51.4457723563812 0.516049561470564,51.4457663370345 0.515690328684109,51.4457505823351 0.51535046076733,51.4457201145405 0.515479911424141,51.4451436128502 0.515627169228362,51.4443147962288 0.515748322763474,51.4437428780565 0.515879191404126,51.4431923287569 0.516008016170679,51.4428118454426 0.516076120172626,51.4425333663538 0.516127561507703,51.4422129871399 0.516154246814509,51.4418868439003 0.516694754759352,51.4419004122865 0.516696176354929,51.4419003817558 0.517181012398666,51.4419502091849 0.517317183937131,51.4417314965151 0.51754558999151,51.4414100111529 0.517648451831331,51.4412135023683 0.517812242548976,51.4409986906885 0.517979720989982,51.4408250690686 0.518082409954876,51.4407311524186 0.518715411496857,51.4402048718189 0.519039854212177,51.4398759243989 0.519151277592415,51.4397575430372 0.519266140269025,51.4396219140594 0.519484276942816,51.4393491969781 0.519832835820844,51.4388830622803 0.519990907096403,51.4386961536077 0.520072513853037,51.4386116794539 0.520251476486323,51.4384378971456 0.520352048317458,51.4383574209076 0.520513714859214,51.4381561376425 0.520726685362698,51.4379212920082 0.520962366947288,51.437575366533 0.521194960222321,51.437278958209 0.521283223392928,51.4371043384733 0.521482835947517,51.4367843622907 0.521549560819411,51.4366624442307 0.521589790477229,51.43653120678 0.522379053042724,51.4367282091696 0.522928551271876,51.4368801084075 0.523214437684623,51.4369503769255 0.524210771246709,51.4371951473498 0.525035585642518,51.4374103369197 0.525706177724042,51.4375676165155 0.526027764416763,51.4376568896909 0.526343533371602,51.4377481761319 0.526682088802062,51.4378847352128 0.526940350033262,51.4380024355181 0.527500734882107,51.4381962472949 0.527820317506832,51.4382748599189 0.528258431023054,51.4383921840027 0.528264188068896,51.4383911604067 0.528630913394641,51.4377357002252 0.52831651524276,51.4376714543759 0.528323050432994,51.4376587256671 0.528457645695809,51.437492091362 0.528597206749528,51.4372821921538 0.529057996316276,51.4367147020024 0.529371522809215,51.4362950584096 0.529772885177188,51.4357989796168 0.530079389086074,51.4353812833116 0.530262237343576,51.4351498566706 0.530351441999452,51.4350444413832 0.531560192846649,51.4340047507277 0.532163924668238,51.4334746182467 0.532171152073925,51.4334744620471 0.532257912040374,51.4335094507593 0.532646479862578,51.4335873683015 0.533166611434749,51.4337037990579 0.534057121683736,51.4338051150476 0.534469700062056,51.4338258615466 0.534754790488075,51.4338817343629 0.53506997945843,51.4339090816391 0.536292778976279,51.4340850097581 0.536581264454575,51.4341506951184 0.537264366672274,51.4342725703914 0.537604271975771,51.4343048600424 0.537726063415073,51.4343211037573 0.538426782161733,51.4344524821012 0.538948058764844,51.4345355952198 0.539957245128798,51.4347269038991 0.539897128669792,51.434941389138 0.540019918781414,51.4349755910505 0.540184741288893,51.4350403517949 0.540390011967955,51.4350835540516 0.540697357461419,51.4351254428043 0.541013979400198,51.4351527430747 0.541326175906338,51.4345551577711 0.542219227042259,51.4331992359586 0.542248520863262,51.433156342007 0.542121717953047,51.433126724611 0.542214639356102,51.4329862432903 0.542475968220993,51.4325883749557 0.542610050139237,51.4323858601532 0.542738441668105,51.4324163410227 0.543024081123374,51.432482071406 0.543189569934577,51.4321978624517 0.546458645306297,51.4297921012635 0.546506178377132,51.4296911746878 0.546554907241555,51.4295840190619 0.546581275562741,51.4295142133054 0.546602436085021,51.4294553106238 0.546625307776686,51.4293738025503 0.546657956561783,51.4292121493737 0.54667313928027,51.429043592638 0.546680587758855,51.4289706014711 0.546713467577857,51.4289411155421 0.546725832500738,51.4289309562633 0.546741955568552,51.4288838514186 0.546798041472007,51.4287810308668 0.5468241044071,51.4287057472512 0.546953671926986,51.4285015266354 0.546971816445553,51.4284651667996 0.546987884213117,51.4284170746978 0.54700017193017,51.4283799427964 0.547005229685468,51.4283663466086 0.547022081959915,51.4283345108681 0.54703808174588,51.4283107853993 0.547051419597753,51.4282925131917 0.547113507776605,51.4281931586176 0.547131002845415,51.4281451245026 0.547140043591565,51.4281007808769 0.54716120423432,51.4280418780759 0.54717867205334,51.4279677696546 0.547198909409398,51.4279178780428 0.547227346236887,51.4278597155191 0.547261070942309,51.4277942456615 0.547282253455409,51.4277613264132 0.547363410580048,51.4276678509799 0.547295625728568,51.4276135792515 0.547184883300402,51.4275611408094 0.546992678667277,51.4274942879336 0.54679812525879,51.4274363878859 0.546592285859266,51.4273824193949 0.546151292283768,51.4272400514895 0.545931834088742,51.4271224497125 0.545350960837833,51.4268706379883 0.544834861694904,51.4266444806725 0.544873970842088,51.4265968758949 0.544891586925705,51.4265766231985 0.544936331962639,51.426527997497 0.545017641527122,51.4264372176191 0.545072581408516,51.4263649936612 0.545093819790133,51.4263330629124 0.545104214419463,51.4263130560936 0.545127341941162,51.426263911494 0.545137236136442,51.4262349244179 0.545199819803875,51.4261166784384 0.545303955226828,51.4259201153831 0.545461331485443,51.4256207940798 0.545516412749166,51.4255233913171 0.545542288168362,51.4254724781126 0.545584512437823,51.425404125921 0.545644052429158,51.425310132935 0.545661522910132,51.4252872750777 0.545692554223668,51.4252245614388 0.54580286979865,51.4250090710844 0.545944858901517,51.4247424522839 0.546207246232286,51.424234858868 0.546283764409934,51.4240857394532 0.546593943865323,51.4234800009848 0.546669584868262,51.4233919504476 0.546736463852345,51.4228859979584 0.546753573945638,51.42275426311 0.546742353031957,51.4226825771025 0.546512432958857,51.4226857768711 0.546543359631285,51.4225700169685 0.546564941261784,51.4224931219389 0.546564953686467,51.4224399834461 0.546629951241804,51.4222650392679 0.546648888912226,51.4221917983205 0.54666523943916,51.4219674705491 0.546659981376781,51.4217427139869 0.546647777821367,51.4215487683467 0.546633455441049,51.4213700638277 0.546621453815027,51.4212309599462 0.546596881343078,51.4210470837174 0.546585236603621,51.4209421387223 0.546560698350193,51.4208122094151 0.546526911384489,51.420643908397 0.546504464107115,51.4205238232386 0.546480407506088,51.4204793895663 0.546488452483902,51.4203659248438 0.54659709795017,51.4203788492594 0.546866187273957,51.4204062672281 0.547107811898122,51.4204324838151 0.547376252708878,51.4204482263312 0.547468425068042,51.4204507182143 0.547491890972081,51.4203288254604 0.547431803986863,51.4197131525686 0.547383691744694,51.4193661464534 0.547329475080063,51.4188816179527 0.547274198324986,51.4183801186013 0.547217138692681,51.4178444013477 0.5471660033468,51.4174173491255 0.54710166848053,51.4170877795787 0.547014768831015,51.4166615967829 0.546895413395438,51.4161443178618 0.546879890030093,51.4158650278886 0.54687823014386,51.415681553375 0.546859914701805,51.4155056332818 0.546919014337112,51.4152759704743 0.547075702392489,51.4148093360143 0.547192768487454,51.4144299681073 0.54707324250386,51.4120725460742 0.546974452463522,51.4100879887069 0.547046745293798,51.4100702326047 0.547797130965029,51.4098578172054 0.548208849590944,51.4097346733372 0.549101261359064,51.4093879023762 0.549389227590068,51.4092656549418 0.549669332343487,51.4091300006646 0.549794857205309,51.4090589379635 0.550220191754041,51.4087951475308 0.550538508014292,51.4085706400983 0.550812274478378,51.4084000589668 0.550830185663784,51.408385283087 0.55112013409602,51.4081433190017 0.551551598672099,51.4078344385287 0.551751188872425,51.4076754482188 0.551945186435738,51.4075182880052 0.552150814615715,51.4073357882025 0.552323200363592,51.4071269496255 0.552595602494007,51.4068278196071 0.553064209657267,51.4063347047555 0.55371619753309,51.4055964509405 0.555666705940262,51.4032605799571 0.556216755810019,51.4026028432878 0.556773562735616,51.4019134857706 0.557028247602282,51.4016336097842 0.557152406745455,51.4015131175 0.557309925855817,51.4013998989275 0.557486896214467,51.4012719592456 0.557842108923213,51.4010941851318 0.558191904731171,51.4009723638489 0.558708541541918,51.4007748791836 0.559097888743769,51.400639602926 0.559494937199012,51.4005149472055 0.559694491388164,51.4004583518119 0.560082823873908,51.4003581617426 0.560546067887499,51.4002599303456 0.560886252522619,51.4001976532328 0.561914217937496,51.3999907815131 0.562426485342095,51.3998959667634 0.563018637068762,51.3997903210774 0.563799550370025,51.3996896251215 0.566450820163837,51.399458987412 0.566890365988705,51.3994268888505 0.567693026976141,51.3993823431159 0.56840714363365,51.3993738963075 0.568673134127448,51.3993734653365 0.570535073315926,51.3994000970696 0.571256694782201,51.3993986623812 0.573407418801923,51.3993937407586 0.574351739470481,51.3993640221906 0.575112001348268,51.3993329436811 0.575650630160269,51.3993238111876 0.576121858777665,51.3993683050862 0.576508951106419,51.3993732873868 0.577545965355897,51.3993792690025 0.578414707061831,51.3993610692204 0.579261456072683,51.3993586306354 0.579958174174541,51.3993738742173 0.580422442316171,51.39939782482 0.581313194621563,51.3994610277064 0.582069712396297,51.3995423759548 0.58283903025275,51.3996468152422</coordinates></LinearRing></outerBoundaryIs></Polygon>
  </Placemark>
