  <Placemark>
	<Style><LineStyle><color>ff0000ff</color></LineStyle><PolyStyle><fill>0</fill></PolyStyle></Style>
	<ExtendedData><SchemaData schemaUrl="#Wards__December_2019__Boundaries_EW_BFE">
		<SimpleData name="objectid">710</SimpleData>
		<SimpleData name="wd19cd">E05000929</SimpleData>
		<SimpleData name="wd19nm">Town Centre</SimpleData>
		<SimpleData name="wd19nmw"></SimpleData>
		<SimpleData name="bng_e">351208</SimpleData>
		<SimpleData name="bng_n">394895</SimpleData>
		<SimpleData name="long">-2.73612</SimpleData>
		<SimpleData name="lat">53.448559</SimpleData>
		<SimpleData name="st_areashape">5846826.23360287</SimpleData>
		<SimpleData name="st_lengthshape">13302.3313263898</SimpleData>
	</SchemaData></ExtendedData>
      <Polygon><outerBoundaryIs><LinearRing><coordinates>-2.72279882641909,53.4367670854699 -2.72268584249083,53.4369403930719 -2.72250002253097,53.4371661707079 -2.72237534611477,53.4372721532595 -2.72229349808189,53.4373274643124 -2.72217406283269,53.4373839006683 -2.72206496395438,53.4374276937952 -2.72193176964747,53.4374779228316 -2.72181955309601,53.4375136474491 -2.72177902965609,53.4375246762119 -2.72170269992507,53.437546704279 -2.7215584409303,53.4375665370777 -2.72139757132276,53.4375729007383 -2.72120480873676,53.4375722686 -2.72043198515081,53.4375382044986 -2.71989875699453,53.4375144632804 -2.7188291366391,53.4374633972923 -2.71835450232594,53.43744019433 -2.71793870643077,53.4374175341433 -2.71780931345015,53.4374210075095 -2.71764380453722,53.4374318868867 -2.71746662254728,53.4374572135666 -2.71722965974319,53.4375071621421 -2.7168951565752,53.4375801602535 -2.71669686188845,53.4376048044222 -2.71651499982217,53.4376175771971 -2.71632983922783,53.4376186877705 -2.71617893992894,53.4375980260631 -2.71576506797253,53.4375123529421 -2.71518337053657,53.4373882346752 -2.71493553626921,53.4373304100231 -2.7144529314052,53.4371867333828 -2.713747978641,53.4369724956362 -2.71307458062213,53.4367671412244 -2.71286867768241,53.4366928867786 -2.71274762349475,53.4366530818468 -2.71252050073362,53.4365789534164 -2.7122799154922,53.4365013102519 -2.71214205509954,53.436450911068 -2.71177617174489,53.4363541551199 -2.7110643064768,53.4361777733849 -2.71045811469538,53.4360267290504 -2.71013915636039,53.4359450551343 -2.70986869337942,53.4358837598815 -2.70951849591993,53.4358265322465 -2.70909589584853,53.4357589496798 -2.70868998379804,53.4356947712985 -2.70832785611524,53.4356439012399 -2.70790517027136,53.435570923539 -2.70737243655264,53.4354851175433 -2.70711125594453,53.4354443388906 -2.70691208671618,53.435415864057 -2.70689778671885,53.4354591717489 -2.70687605009024,53.4355105215933 -2.70687755351922,53.4355114106673 -2.7069081269597,53.4357161136591 -2.70693352919219,53.4358858910886 -2.70695409968816,53.4360412288947 -2.70696803086337,53.4361553604457 -2.70697484145654,53.4361993521759 -2.70699034920108,53.4363187759243 -2.7066904317653,53.4363897439267 -2.7066260303069,53.4364054911123 -2.70638606244146,53.4364617262611 -2.70623759958648,53.43649764929 -2.70615233683411,53.436527807998 -2.70608955744659,53.4365515425502 -2.70604184838488,53.4365859726311 -2.70600342623095,53.4366266371942 -2.70595786448228,53.4366934039761 -2.70589943322518,53.4367998752706 -2.70575353963214,53.4370811937468 -2.70573339347457,53.4371388242662 -2.7057051601387,53.4372477228583 -2.70565476498133,53.4374799532546 -2.70566182869215,53.4375392198474 -2.70565611617989,53.4376515799507 -2.70564110571204,53.4378395683486 -2.70561326745267,53.4382424012387 -2.70559212904282,53.4385175909944 -2.70558077381299,53.4386489460626 -2.70557679543453,53.4386786232702 -2.70555504068962,53.4387290740893 -2.70552272244059,53.4387786884302 -2.70547254147695,53.4388364962933 -2.70543251950698,53.4388780689799 -2.70537454555473,53.4389225332653 -2.70531049641915,53.4389597543505 -2.70517154292105,53.439023477666 -2.70489354855722,53.4391455329081 -2.70482629090193,53.4391764823795 -2.70448568821111,53.4393331431392 -2.70422728227547,53.4394541824265 -2.70387765469492,53.4396207786297 -2.70357751433705,53.4397627310461 -2.70334739694022,53.439868324609 -2.70323542194174,53.4399274841429 -2.7031773257049,53.439964669035 -2.70300684484188,53.4401265243345 -2.70286166810783,53.4402649560647 -2.70251032877303,53.4405995992687 -2.70246900940015,53.4406456711369 -2.70242392615959,53.4407420883261 -2.70237451942974,53.4408547950628 -2.70222058508854,53.4411927698592 -2.70216166734551,53.4413611562454 -2.70213727812588,53.4414403776414 -2.70212139919777,53.4415690623193 -2.70211963334713,53.4416427593027 -2.70212635145732,53.4417793982693 -2.70214152830638,53.4419698144626 -2.70215659693931,53.4420631821412 -2.70216837703317,53.4421377872909 -2.70221792102409,53.442131205743 -2.70221144301608,53.4423783616517 -2.70211595637945,53.4427906667655 -2.70210653223651,53.4428590163887 -2.70211088752553,53.4431232724765 -2.70215648212829,53.4432461143533 -2.70219982938857,53.4435865225177 -2.7021961188668,53.4437304126956 -2.70216475546355,53.4440191409845 -2.7021616632795,53.4441027296391 -2.70215514410438,53.4441665696312 -2.70216953230158,53.4442186041181 -2.70221618076956,53.4443073825283 -2.70227153357932,53.4443744524073 -2.70233872795336,53.4444369600817 -2.70239199964345,53.4444680982002 -2.70248645048344,53.4445349389318 -2.70262146442362,53.4445998331139 -2.70335251217701,53.4448336618754 -2.70385593103676,53.4449565915735 -2.70431065720296,53.4450473661471 -2.70467315863918,53.4451162186516 -2.70570256945947,53.4453672328029 -2.70611070637952,53.4454627691783 -2.70626155379402,53.4454789503203 -2.70643044537496,53.4454977211441 -2.70656624621272,53.4455122839493 -2.70683775157868,53.4455430276256 -2.70793351431202,53.445527551498 -2.70852179319757,53.4455042933212 -2.70876087213243,53.445481218352 -2.70940152995592,53.4454351796159 -2.71031280244256,53.4453740497881 -2.71122433218359,53.4453209985974 -2.71134180123659,53.4453229947065 -2.71154362861301,53.4453217924447 -2.71173621260979,53.4453170503591 -2.71226622380455,53.4454100424241 -2.71255642686656,53.4454748984939 -2.71294159838743,53.4455471841935 -2.71467483759347,53.4459251137185 -2.71485937632512,53.4459734325435 -2.71504659026171,53.446010952266 -2.71521136542676,53.4460504029035 -2.71530528506943,53.4460840773322 -2.71545996758297,53.4461433577291 -2.71581035502458,53.4463021093275 -2.71608475360213,53.4464155758359 -2.71638996668639,53.4465674074212 -2.71649031710393,53.4466216209587 -2.71665922689116,53.4467294286713 -2.71700794793414,53.4469654666511 -2.71741772787034,53.4472443605469 -2.71776499901708,53.4474822916671 -2.71804985242883,53.4476774649955 -2.71816882880838,53.4477684069319 -2.71833592183698,53.4479444282106 -2.71840978056189,53.4480321374945 -2.71843451430527,53.4480706291431 -2.71848537916215,53.4482302753699 -2.71850480585791,53.4483147174703 -2.71851275448827,53.4484251986375 -2.71851351306781,53.4484701238609 -2.71849760770438,53.4485133533973 -2.7184713049856,53.4485584414091 -2.71842985910215,53.4486037112881 -2.71838236148872,53.4486435353709 -2.71831079564831,53.4486844039481 -2.71820193708517,53.4487443666116 -2.7180076288492,53.4488318007838 -2.71790612565665,53.4488863276512 -2.71782148629044,53.4489543223382 -2.71765239692389,53.4491090005022 -2.7175209092561,53.4492554544088 -2.71741604156269,53.4493755993676 -2.71733797754405,53.4494803070178 -2.71729075222767,53.4495363940366 -2.71724046995061,53.4495879169826 -2.71719584387857,53.4496214331284 -2.7171318615456,53.4496703426108 -2.71705425724267,53.4497139415618 -2.71695147582771,53.4497738667016 -2.71689805946959,53.4498236105918 -2.71684836817027,53.449910265571 -2.71683124394997,53.4499696763904 -2.71683224290857,53.4500289784195 -2.7168455203592,53.450190738497 -2.71687281569693,53.450381078645 -2.71687386207904,53.4504430757802 -2.71684825699918,53.4505295857378 -2.71679191902265,53.450671004603 -2.71677205769528,53.4507448088242 -2.71679092510945,53.4507960061418 -2.71686051126306,53.4509025223032 -2.71691302552757,53.4509758920562 -2.71690760997584,53.4510154636521 -2.71688160880282,53.451078522014 -2.7168373322188,53.4511327940492 -2.716768878356,53.4511817290345 -2.71656005405297,53.4512998008751 -2.71629963876843,53.4514802750999 -2.71608292159115,53.4518447000992 -2.71593648444663,53.4520918856518 -2.715795927971,53.4523344524723 -2.71555105946304,53.4527233979873 -2.71542509998947,53.4529335268872 -2.71534997887268,53.4530365071974 -2.71514832283696,53.4533082845031 -2.71507175509895,53.4534138799858 -2.7149535383967,53.4535457836242 -2.71481892885146,53.4536922524182 -2.71469324248044,53.4538304916212 -2.7146294515254,53.4538838908352 -2.71441113825762,53.4539778425488 -2.71411048255784,53.4541000538569 -2.71394745615169,53.4541666265039 -2.71383056760044,53.4542005731801 -2.71363836575467,53.4542304773159 -2.7134777308407,53.4542620801582 -2.71336835111157,53.45429957606 -2.713307235897,53.454334986767 -2.71323570387318,53.4543785466989 -2.71313022673006,53.4544636451675 -2.71299228110749,53.4545894642897 -2.71271081219547,53.4548715087025 -2.71233634689699,53.455257626154 -2.71195148467613,53.4556535983448 -2.71169851791242,53.4559256754902 -2.7116169857879,53.456002542841 -2.71150794470098,53.4560607024724 -2.71143308166006,53.4560836136654 -2.71115265228012,53.4561545661983 -2.71093380674783,53.4562178734125 -2.71081415568981,53.4562653128456 -2.71057930163902,53.4564554170252 -2.71036215843659,53.4566131553193 -2.71013130883252,53.4567681891467 -2.70987218225567,53.4569477425004 -2.70963850058307,53.4571118679734 -2.70935846189038,53.4572959479616 -2.70933611972978,53.4573113567793 -2.70935584198521,53.4573175298543 -2.70955481584166,53.4574169913248 -2.70980508252265,53.4575243254422 -2.70986600619131,53.4575661971338 -2.70994681923234,53.4576241264332 -2.71005484976397,53.4576908788566 -2.71014174536661,53.4577560499239 -2.71019878629676,53.4578329910569 -2.71026900029531,53.4578882865897 -2.71030731377087,53.4579293945633 -2.71006530239891,53.4580486399978 -2.71026939868873,53.4581867099852 -2.71037979712539,53.4582983784085 -2.71048425934327,53.4584263469016 -2.71055989628639,53.4585310337732 -2.71077615932989,53.4587652705113 -2.71096665215212,53.4589879778158 -2.71106678201777,53.459123969678 -2.71115741637111,53.4592267691891 -2.71124311183954,53.459309020456 -2.71127215242495,53.4593376020187 -2.71131480544986,53.4593634077201 -2.7114029985638,53.4594167987002 -2.71150332844855,53.4594683195929 -2.71153191763838,53.4594699469885 -2.7116636110194,53.4595033090932 -2.7118089396589,53.4595500690834 -2.71213395787514,53.4596263997068 -2.71243961664024,53.4597108420892 -2.71276415588089,53.459751140385 -2.7129739264836,53.4597750491623 -2.7133630531493,53.4598086691282 -2.71372959688597,53.4598433225472 -2.71420738822937,53.4598620326083 -2.71472690901189,53.4598589247013 -2.7149661423456,53.4598404189466 -2.71554748757077,53.4597551644799 -2.71579671334424,53.4597033492651 -2.71593190858854,53.4596863639271 -2.71625076860762,53.4596547986976 -2.71676586240944,53.4596544041419 -2.7174499558407,53.4596754574682 -2.71797440293337,53.4596920753602 -2.71825049508839,53.459723663568 -2.71837763073549,53.4597588436505 -2.71849139775127,53.4598111769466 -2.71857199901602,53.4598556216843 -2.71868954106929,53.4599475610236 -2.71877564688577,53.4600530779079 -2.71891811499381,53.4602823530696 -2.71897703150945,53.4603808443383 -2.71906782689183,53.4605798780319 -2.71910078241172,53.4606632493683 -2.71920663493792,53.460863989136 -2.71924091471227,53.4609302795146 -2.71929288091231,53.4609775927334 -2.71933917562354,53.4610420130224 -2.71952672598571,53.4611757637978 -2.71965441529557,53.4612432891513 -2.71986393932128,53.4613471628577 -2.72024983834811,53.4614527594538 -2.72087446292317,53.461604449857 -2.72109793542613,53.4616372479838 -2.72114176588546,53.4616441724984 -2.72123389977938,53.4616579935768 -2.72154136656294,53.4616714140014 -2.72203990762213,53.4616746921679 -2.72228787746523,53.4616363498588 -2.72267642570651,53.4615468358648 -2.72334342154815,53.4613566983883 -2.7235728606344,53.4612951024358 -2.72368708714167,53.4612791344244 -2.72385829634511,53.4612547340126 -2.72396969691822,53.4612477687559 -2.72423761781636,53.4612362600935 -2.72429928581909,53.4612331905505 -2.72441488020207,53.4612100244672 -2.72470756624652,53.4611507384826 -2.72534481677385,53.4610739942372 -2.72786048572715,53.4608304489835 -2.72944906034101,53.4606283687667 -2.7300146916138,53.4605907669473 -2.7302285615841,53.4605849673742 -2.73034284559099,53.4605797753664 -2.7305206115424,53.4605831818881 -2.73073780044845,53.4605971297423 -2.73083890545598,53.4606054971794 -2.73094910631697,53.4606227947851 -2.73103535646291,53.4606483267945 -2.73109768956958,53.4606767007908 -2.73116172757881,53.4607248329539 -2.73119900775548,53.4607911914544 -2.73123007964029,53.4608431207868 -2.73126142892902,53.4609184115882 -2.73128366688405,53.4609838733875 -2.73130446188037,53.4610520396968 -2.73132648668233,53.4611122013141 -2.73138004846978,53.461157701807 -2.73139867206984,53.461193532312 -2.73145956168828,53.4612246106376 -2.73148976769167,53.4612334115971 -2.73151399587001,53.4612413502921 -2.73164178942291,53.4611408230057 -2.73180986046842,53.4610138992197 -2.73202516490221,53.4608391495574 -2.73213831793693,53.4607611766526 -2.73244610934342,53.4606136260818 -2.73276505948698,53.4605083309051 -2.7332382273223,53.460344487673 -2.73446141475212,53.4599199323691 -2.73482061528629,53.459794614725 -2.734839039652,53.4598115752613 -2.73515130576407,53.4601026890513 -2.73517200762281,53.4600791077001 -2.73535814462289,53.4598703847306 -2.73571763536908,53.4600128467475 -2.73572513216416,53.4600154962652 -2.73580968733848,53.4599358991873 -2.73619041186787,53.4595695287513 -2.73730336811366,53.4600012745592 -2.73730636404048,53.4600021540325 -2.73808402014442,53.4602894883963 -2.73781162182125,53.4605644361868 -2.73863176579479,53.460780515291 -2.7391544780567,53.4608743316657 -2.73925523050647,53.4607766592246 -2.7392853564439,53.4607737771334 -2.73974393991496,53.4603871449321 -2.73983667200315,53.4604350957272 -2.73998592355467,53.4605267270918 -2.74002710618352,53.4605597208699 -2.7400839388596,53.4606213722434 -2.74010007614398,53.4606850725101 -2.74009389602287,53.4607579877165 -2.74009025650053,53.4608128254788 -2.74007817840993,53.4608964700633 -2.74004367307422,53.4610755957059 -2.74008681387184,53.4612209025442 -2.74069776489413,53.4617879091024 -2.74076771178706,53.4618252167987 -2.74084507936873,53.4618606816183 -2.74094592285953,53.4618537660437 -2.7409909498061,53.4618436020269 -2.74100148848404,53.4618426378053 -2.74088461749352,53.4615359504935 -2.74084173864574,53.4614059184552 -2.74076503457968,53.4611591885187 -2.74068539613722,53.4609079833123 -2.74054997660283,53.4604845919964 -2.74047827658651,53.4602611949153 -2.74036040934404,53.4598898132056 -2.74025841350665,53.4595668580246 -2.74011797096554,53.459118336353 -2.74003515645348,53.4588554687242 -2.73989482667358,53.4584131463247 -2.73978976385335,53.458084818181 -2.73969721811818,53.4577905592775 -2.73964011054134,53.4576201777093 -2.73984891440773,53.4575883325482 -2.74001410785409,53.4575621485237 -2.74033844160239,53.4575115251349 -2.74067801450867,53.4574590985522 -2.74104142583043,53.4573993340506 -2.74152481582969,53.4573127649409 -2.741718501383,53.4572756180699 -2.74190610134246,53.4572385095739 -2.74206801423185,53.4572023684099 -2.74216861093232,53.4571819739793 -2.7422601122484,53.4571598391479 -2.74246682707809,53.4570938546315 -2.7427301030414,53.4569960678745 -2.74285426820133,53.456945872899 -2.74292889600876,53.4569103631399 -2.74299706035192,53.4568460481622 -2.7430246563789,53.4567838730648 -2.74302327296339,53.4567048043168 -2.74302472244078,53.456532173417 -2.74302620907818,53.4564467965821 -2.7430346125406,53.4564090029144 -2.74306291568628,53.4563872604962 -2.74318483544581,53.4563011345545 -2.74357661412407,53.4564865058796 -2.74386061537576,53.4566223141303 -2.74404903383938,53.4567172911775 -2.74421004182602,53.4567926700101 -2.74433137404844,53.4568431348835 -2.74442676711397,53.4568730928378 -2.74465845327851,53.4569427282665 -2.74510325710926,53.4570567737742 -2.7452649245093,53.4570917099838 -2.74546289344846,53.4571291142592 -2.74565476322236,53.4571656583104 -2.74578617679794,53.4571819119314 -2.74600784014395,53.4571967929294 -2.74606013530116,53.4571766069278 -2.74610369833019,53.4571682478266 -2.74613523442066,53.4571680508796 -2.74618160387421,53.4571497885426 -2.74625580009107,53.4570828282294 -2.7463027902666,53.4570151398565 -2.74638914533534,53.4568698351237 -2.74652133307503,53.4566829978793 -2.74667489420293,53.4565112140724 -2.74682889665668,53.4563574881327 -2.74689707006685,53.4562941596068 -2.746962345114,53.4562424417831 -2.7472138163164,53.4560674383721 -2.74746723476038,53.4559183921586 -2.74747018166013,53.4559165759977 -2.74758815956309,53.455861023419 -2.74786165077864,53.4557380004446 -2.74819933518658,53.4555866274264 -2.7485399165873,53.4554308326699 -2.74889705386552,53.4552703498597 -2.74908823617855,53.4551837845694 -2.74931240607149,53.4550808361588 -2.74937503083581,53.4550480933199 -2.74957748834698,53.4549110438383 -2.74971580796857,53.4548194169177 -2.74982320798272,53.454755840532 -2.75000772792293,53.4546296865386 -2.75019921981886,53.4544766205885 -2.75045001619174,53.4542646820727 -2.75059100646185,53.4541487743607 -2.75069060712196,53.4540726657092 -2.75069059123598,53.4540717669468 -2.7508673743038,53.4539366742928 -2.75109767930518,53.4537599988042 -2.75129955661031,53.4535977890543 -2.75145857319798,53.4534763764834 -2.75158041458106,53.4533802677508 -2.75169032917334,53.4532978031568 -2.75176307233472,53.4532407333123 -2.75188415046459,53.4531015861398 -2.75202563580144,53.4529298704435 -2.75215544101067,53.452771798232 -2.75221569276956,53.4526895558973 -2.75232643865102,53.4525630537879 -2.75243213542978,53.4524949923567 -2.75249316786874,53.4524568665263 -2.7526078298565,53.4523832672066 -2.75269522493653,53.4523054369329 -2.75273337325137,53.4522440910119 -2.7528084385856,53.4521501633016 -2.75288063126897,53.4520552648954 -2.75299224542197,53.4519009000222 -2.75305247596273,53.4518105703126 -2.75313745439515,53.4516806352812 -2.75319421474325,53.4515697488078 -2.75325345898406,53.451430900103 -2.75330110578299,53.4513101871368 -2.75333074268177,53.4512030661581 -2.75335907444612,53.4510994580656 -2.75337769322208,53.4509591576121 -2.75341379139889,53.4507054335783 -2.75341980833629,53.4505336723779 -2.753416731488,53.4501921313002 -2.75342231293712,53.450079768602 -2.75343601340286,53.4498369670644 -2.75345714993123,53.4496705901333 -2.75345499869869,53.4495492002826 -2.75344095058091,53.4494360633941 -2.75343432416098,53.4493983633552 -2.75342433845485,53.4493463070464 -2.75335939252365,53.4491633090041 -2.753128320219,53.4486991943277 -2.75338360159843,53.4486588541714 -2.75371957535213,53.4485902373591 -2.75389820595946,53.4485540641367 -2.75393212018544,53.448345282161 -2.75396508118614,53.4482507195562 -2.75399365572125,53.4481678663652 -2.7540150689849,53.4481012335662 -2.75407000786426,53.4480559557928 -2.7541370980089,53.4480168026078 -2.75424635095584,53.4479819656513 -2.75453337837655,53.4479469039123 -2.75435408522468,53.4478545804287 -2.75424844862487,53.4477572982127 -2.7542143955467,53.4477062028845 -2.75419257516909,53.4476659021803 -2.75418423476619,53.4476156323774 -2.75418503994915,53.4475769874796 -2.75420952619227,53.4475157266731 -2.75423818097352,53.4474373663664 -2.75429293249293,53.4472976460689 -2.75435204097082,53.4471445077322 -2.75440670017095,53.4470065848023 -2.75447128686291,53.4468264537265 -2.75451575731255,53.4467020745709 -2.75462522900405,53.4464209250909 -2.75472579571924,53.4461488177785 -2.75481086006066,53.4459335118812 -2.75489126494021,53.4457145499795 -2.75499634590412,53.4454451104913 -2.75506784456638,53.4452280923662 -2.7551447611473,53.4449875856608 -2.75522609020975,53.4447299778139 -2.75528585198073,53.4445372071057 -2.75541280132598,53.4441364303697 -2.75573367435788,53.4431294791616 -2.75577208915339,53.4430070244868 -2.75559537264118,53.4429748040502 -2.75519740603488,53.4428631960259 -2.75450745746598,53.4426661757755 -2.75428105282924,53.4426388496664 -2.75349371740188,53.4425566528092 -2.75257712117028,53.4424860480253 -2.75200699136447,53.4424231406252 -2.75176582481724,53.4424102810477 -2.75164394231585,53.4424110479858 -2.75153720425446,53.4424189087104 -2.7514200579977,53.442434921966 -2.7512219975419,53.4424730107198 -2.75101512993577,53.4425255329174 -2.75086823596929,53.4425650962448 -2.75076350976496,53.4426025984139 -2.7506904509372,53.4426407994494 -2.75061610783249,53.4426906902578 -2.75051206451479,53.442766917634 -2.75036261962602,53.442915229374 -2.75014513785016,53.4431332515039 -2.74981959514696,53.4429464963075 -2.74938758402936,53.4426912148323 -2.74930071251224,53.4426360458981 -2.74919083855719,53.4425504676042 -2.74905929476222,53.4424326755839 -2.74892795581235,53.4423264739951 -2.74873615288535,53.4422054648382 -2.74866000816022,53.4421601131042 -2.74850305471513,53.4421359355037 -2.74836587120452,53.4421278090449 -2.74833119485892,53.4421253305777 -2.74820004836396,53.4420299098661 -2.74746039698636,53.4423428556614 -2.74650408532482,53.4427524935034 -2.74644729218255,53.4427771116782 -2.74577348652627,53.443073460153 -2.745547675905,53.4431647308989 -2.7452877987924,53.4432813749903 -2.74481864504183,53.443483884078 -2.744182048872,53.4437584247692 -2.74378639039644,53.4439478004384 -2.74328532249547,53.4442214922921 -2.74282011677464,53.4444805815436 -2.74228379515021,53.4448119990087 -2.74183129140741,53.4451096451621 -2.74046105418736,53.446051177472 -2.74043233357097,53.4460414706116 -2.73957332668547,53.4457375794568 -2.73801777469604,53.4452042578272 -2.73686649718926,53.4448024059336 -2.73655831802432,53.4446550464077 -2.73628194833136,53.4445165668286 -2.73581957670008,53.4442461475283 -2.73542712397612,53.4440202269581 -2.73500305526875,53.4437820080497 -2.73461054961184,53.4435524907944 -2.73433386754765,53.4433950485366 -2.73419412414785,53.4433249177651 -2.73409557348507,53.4432823895887 -2.73400313640104,53.4432488106593 -2.73389121233953,53.4432153514334 -2.73362410721511,53.4431810478994 -2.73349896376468,53.4431728307101 -2.73326228430771,53.4431536166656 -2.73314952364887,53.443078735659 -2.7329725806117,53.4429387397947 -2.73289916770604,53.4428780843307 -2.73283383598327,53.4428398455878 -2.73276100974707,53.44280605547 -2.73253840627239,53.4427319378397 -2.73222338481521,53.442625137384 -2.73186247488041,53.4424700029127 -2.731531727507,53.4423219616351 -2.73138285609439,53.4422473901438 -2.73115483117319,53.4421174995697 -2.73097358427447,53.442000890641 -2.73080808435178,53.4419192319832 -2.73062486373218,53.4418537658323 -2.73041455893133,53.441793946413 -2.73014562399171,53.4417389786414 -2.72970579119632,53.4416347333675 -2.72943099842069,53.4413245033769 -2.72926193745773,53.4410342956423 -2.72910921769844,53.4408212683161 -2.72887568099032,53.4405494258053 -2.72866258667177,53.4403187944696 -2.72840227800196,53.4400633786265 -2.7282127740379,53.4398982012879 -2.7280005639854,53.4397260637331 -2.72781895527427,53.4395797085402 -2.72761772671688,53.439432663673 -2.72741364186436,53.4392927351615 -2.72706347096707,53.439065631901 -2.72686282833429,53.4389527294309 -2.72651648539425,53.4387678365415 -2.72616274570506,53.4385929615313 -2.72555593185213,53.4383233826668 -2.72519937250572,53.4381574190187 -2.72491386268108,53.4380090839191 -2.72473750655433,53.4379077130989 -2.72457644316207,53.4378151453272 -2.7242596961348,53.4376031973582 -2.72417125792963,53.4375407410288 -2.72381177274424,53.4372895125365 -2.72344619426357,53.43703733116 -2.72325031581353,53.4369333798937 -2.72283364743751,53.4367785563471 -2.72279882641909,53.4367670854699</coordinates></LinearRing></outerBoundaryIs></Polygon>
  </Placemark>
