  <Placemark>
	<Style><LineStyle><color>ff0000ff</color></LineStyle><PolyStyle><fill>0</fill></PolyStyle></Style>
	<ExtendedData><SchemaData schemaUrl="#Wards__December_2019__Boundaries_EW_BFE">
		<SimpleData name="objectid">7381</SimpleData>
		<SimpleData name="wd19cd">W05000212</SimpleData>
		<SimpleData name="wd19nm">Holywell East</SimpleData>
		<SimpleData name="wd19nmw">Treffynnon - Dwyrain</SimpleData>
		<SimpleData name="bng_e">319786</SimpleData>
		<SimpleData name="bng_n">376384</SimpleData>
		<SimpleData name="long">-3.20445</SimpleData>
		<SimpleData name="lat">53.278351</SimpleData>
		<SimpleData name="st_areashape">2422958.75986645</SimpleData>
		<SimpleData name="st_lengthshape">13230.6108309021</SimpleData>
	</SchemaData></ExtendedData>
      <Polygon><outerBoundaryIs><LinearRing><coordinates>-3.21127748937197,53.2783415454009 -3.2113601960533,53.2782445474618 -3.21149431534534,53.2781596098069 -3.21162371649502,53.2780171147555 -3.21163376677825,53.2780008364874 -3.21171279469268,53.2778787137219 -3.21175070097866,53.2777892701362 -3.21187098094431,53.2775867461544 -3.21200060377228,53.277447843211 -3.21207680908063,53.2773877569499 -3.21220560412696,53.2773289333639 -3.21233810073302,53.2772916409275 -3.21242168491131,53.2772782102883 -3.21255063172668,53.2772247765531 -3.21263329761684,53.2771789127467 -3.21276132554592,53.2770886437096 -3.21285859491216,53.2770301397993 -3.21293857525246,53.2769942784845 -3.2130338706094,53.2769708428387 -3.21316636538465,53.2769335494768 -3.21326386286237,53.2768831314696 -3.21347008003378,53.2767506367564 -3.21353502558857,53.2767122320338 -3.21368873093958,53.2765812597786 -3.21370742027173,53.276551324109 -3.21372604227053,53.2764666596041 -3.21375802733213,53.276273119272 -3.21381122767188,53.2760864637549 -3.21384484126816,53.2759504221196 -3.21385932995099,53.2757722471351 -3.21385331986182,53.2755601321429 -3.21383541646846,53.275403945479 -3.21379882085565,53.2750681244502 -3.21373291511178,53.2748062922215 -3.21376226575771,53.2747817297557 -3.21373330770342,53.2745015484713 -3.21381385678444,53.2743812065201 -3.21414236230592,53.2742753250909 -3.21448981809037,53.2741531644019 -3.21463951307195,53.2740905304664 -3.21493310203041,53.2739220960461 -3.21520304137669,53.2737089678338 -3.21542455868232,53.2735368622997 -3.21555893551037,53.2734618026803 -3.21571498929856,53.2734098870235 -3.21597581046444,53.2734072291797 -3.21635928987282,53.2734437605471 -3.21657050924084,53.2734883379512 -3.21705031853949,53.2736470032512 -3.21725778168523,53.2737159715907 -3.21745668204204,53.2737489906274 -3.21758693963261,53.2737422696591 -3.21771645659768,53.2737094943152 -3.21781074012815,53.2736464339111 -3.21795899655624,53.2735334846845 -3.21814713839036,53.2734012565819 -3.2183558270447,53.2733046748263 -3.21853442417089,53.273254321931 -3.21851796525238,53.2732059612602 -3.21846118223932,53.2731571144242 -3.21827517069479,53.273103296632 -3.21824485315606,53.273093720697 -3.21781239149092,53.2730216585434 -3.21772046071154,53.2730064214798 -3.2173775562052,53.2729182558753 -3.21661173308276,53.2727237756367 -3.21563857033214,53.2724640931784 -3.21526092973489,53.2723671989918 -3.21498023472411,53.2723053536422 -3.21483344424745,53.2722565226703 -3.21458067009563,53.2721197116945 -3.21453545306093,53.2720599607699 -3.21449961775249,53.2720126966517 -3.21449813357037,53.2720127117597 -3.21449031407762,53.2720029058243 -3.2140495794285,53.2720091883351 -3.21381678970759,53.2719971784983 -3.21361342524763,53.27196329998 -3.21385003673518,53.2718439754397 -3.21386039653282,53.2717863556103 -3.21373064232145,53.2717058964272 -3.21362744463921,53.2716638092681 -3.21324999774017,53.2715732874605 -3.21311821567879,53.2715260097655 -3.21281501507317,53.2714113657725 -3.21267022287199,53.2713804859756 -3.21255863928303,53.2713609500921 -3.21232907031641,53.271353397509 -3.21224785442042,53.271345236144 -3.21209391236166,53.2713099548735 -3.21176975076034,53.2711972291804 -3.21181741381372,53.2712911955876 -3.21184660452506,53.271317858885 -3.2117986617352,53.271371367397 -3.21164052390397,53.2715068761959 -3.21149895033598,53.2716423055679 -3.21114916716671,53.2718435646418 -3.21100211155584,53.2718900811209 -3.21082361163998,53.2719440153755 -3.2106584178089,53.2720400523184 -3.2104803334396,53.2720562384977 -3.21026978720009,53.2720350085748 -3.21007249639299,53.272054084857 -3.20988513444454,53.272061376748 -3.20972589214618,53.2720486130923 -3.20954576664499,53.2720450466283 -3.20951889650991,53.2720480149163 -3.20949936671995,53.2720482128991 -3.20925695533876,53.2720632514788 -3.20920007299112,53.272067422804 -3.20903110124356,53.272034086863 -3.20901906012655,53.2720324119223 -3.20893269566019,53.2720521591618 -3.20881194918838,53.2720803423489 -3.20853497569852,53.2720930337339 -3.20840160492303,53.2720988783543 -3.20822060092427,53.2721123939305 -3.20803098077122,53.272144868573 -3.20779403243965,53.2721957960978 -3.20741980691942,53.2722193548407 -3.20732447237465,53.2722410785284 -3.20727118938023,53.272267679419 -3.20711299771876,53.2723492612339 -3.20697847923084,53.2724153269677 -3.20690224333028,53.2724259827703 -3.20684694568595,53.2724337317479 -3.2066088542098,53.2724442283687 -3.2063076300475,53.2725047885888 -3.20621331919285,53.2725102358215 -3.20609075660652,53.2725267521092 -3.2059253169372,53.2725617647045 -3.20579064620086,53.2726269316789 -3.2057115924468,53.2726385150164 -3.20548234970069,53.2726471220949 -3.20537979677026,53.2726805097072 -3.20521812907831,53.2727441518013 -3.2048536471597,53.272740643358 -3.20466659828066,53.27286475116 -3.20454693344846,53.2729271582949 -3.2044283696266,53.272975984881 -3.20431224213494,53.2730059146722 -3.2042206175603,53.273001447694 -3.20406061915888,53.2729662171918 -3.20385226101434,53.2729701166152 -3.20381938026698,53.2729704483698 -3.20362386452855,53.2729517518292 -3.2033899175817,53.2729514148411 -3.20334195625983,53.2729518985642 -3.20314945819367,53.2729349677695 -3.20294356085122,53.2729163748045 -3.20283243156786,53.2729130014391 -3.20279191044733,53.2729098160242 -3.2027873867859,53.2729116585819 -3.20254243643075,53.2729995014327 -3.20248032578342,53.2730288849888 -3.20244621602525,53.2730427081603 -3.20238855492678,53.2730720468246 -3.20238106580306,53.2730739201496 -3.20236774360731,53.2730794461658 -3.20236482707124,53.2730812725115 -3.20228863925099,53.2730937236048 -3.20214387702764,53.2731167501832 -3.20209006485278,53.2731775033714 -3.20202888729054,53.2732402175826 -3.20202300687205,53.2732465675142 -3.2019083344477,53.2732755813499 -3.20164829388747,53.2733060591918 -3.20161838288859,53.273310854162 -3.201567680925,53.2733194524112 -3.20140193846716,53.2734541248012 -3.20137541805691,53.2734696690931 -3.2012278219806,53.2735548209209 -3.20113448890242,53.2735953025062 -3.20109431983225,53.2736046934422 -3.2009646656572,53.2736374519707 -3.20089996370211,53.273680340167 -3.20074221063104,53.2738311073814 -3.20065536970477,53.2739444046234 -3.20074089569705,53.2741592243111 -3.20073524012313,53.2741691667206 -3.20072380849563,53.2741936354786 -3.20070754388475,53.274200089841 -3.20066159261859,53.2742194243108 -3.20065266929392,53.2742231089111 -3.20054422537705,53.274205328038 -3.20041026630648,53.2741860068148 -3.20034900730636,53.2741974066283 -3.20032578182852,53.2742246008818 -3.20034041359867,53.2742657926186 -3.20041082649102,53.2743163077665 -3.20042651276974,53.2743907401739 -3.20041319282008,53.2744007587781 -3.20030952646757,53.274447634353 -3.2002843886238,53.2744595696808 -3.20021106264881,53.2744639020955 -3.20011948561591,53.2744612284259 -3.2000369623927,53.2745124738252 -3.20000853313223,53.2745172534831 -3.19994589006438,53.2745277689801 -3.19988860081897,53.2745175606902 -3.19983558142919,53.2744964360217 -3.19978726604247,53.2744843404892 -3.199721179241,53.274482309122 -3.19966897039835,53.274494516512 -3.19963631733995,53.2745030223495 -3.19959237783035,53.2745412082392 -3.19971701326293,53.2746028619858 -3.19973694851469,53.2746700621419 -3.19970075007154,53.274715359847 -3.19965746445655,53.2747238827036 -3.19961123541816,53.2747333340639 -3.19949376631982,53.2747686643482 -3.1994184048987,53.2747577394822 -3.19936284846477,53.2747520072537 -3.19932665121796,53.2747487762913 -3.19925975898595,53.27476652375 -3.19916868776876,53.2748349286648 -3.19911584906433,53.2748776975465 -3.19905239988125,53.2749124844928 -3.19900220189562,53.2749965648121 -3.19896703410103,53.2750256757537 -3.19894466150442,53.2750303942959 -3.19889224786605,53.2750309209542 -3.19877520426652,53.2750285021323 -3.19869194956592,53.2750580961075 -3.19862035532705,53.2751244180792 -3.19856842331632,53.2752526403248 -3.19859765784953,53.2753296318394 -3.19868865861084,53.2753691585588 -3.19871756624166,53.2753814495161 -3.19871168503793,53.2753877992867 -3.19868579241044,53.275425803525 -3.19863408587718,53.2754560684331 -3.19847088806202,53.2755188176589 -3.19839517098519,53.2755438419769 -3.19833028889248,53.275584933606 -3.19831716634631,53.2756506681292 -3.19829275603208,53.2756886573911 -3.19826138376487,53.2756943642116 -3.19817905472808,53.2756996847078 -3.1980697039199,53.2757600947866 -3.19801344610046,53.2757868112124 -3.19792714363269,53.2758622669885 -3.19788322634377,53.275901350932 -3.1976496350193,53.276020522933 -3.19757120320676,53.2760590542626 -3.19756828626207,53.2760608804922 -3.19744485751215,53.2760999532417 -3.19720400287118,53.2761760604861 -3.19720558175595,53.2762856830481 -3.19720510323152,53.2763216341003 -3.19716864965876,53.2763579470052 -3.19707825018124,53.2763974961049 -3.19694629756717,53.2764546278684 -3.19684332673885,53.2765266552378 -3.1967978210747,53.2766151812416 -3.19678512454645,53.2766431672005 -3.19674987860718,53.2766695823722 -3.19640365424622,53.2768915203511 -3.1963437231227,53.2768930201805 -3.1962207927614,53.2768969485345 -3.19591780847294,53.2770555447504 -3.19588773913403,53.2771079694316 -3.19587066699557,53.2771386950198 -3.19575617728917,53.2772279119642 -3.19576728127325,53.2773599050044 -3.19578651262808,53.2773489278661 -3.19615846244279,53.2771358102937 -3.19627266581659,53.2771957752504 -3.19632563412953,53.2772150142685 -3.1963711349722,53.2772325320825 -3.19639966682147,53.2772313470785 -3.19648654953946,53.2772295769698 -3.19665812681704,53.2771964029463 -3.19705656374514,53.277072883413 -3.1971904495866,53.2771910631339 -3.19734171255,53.2772407697476 -3.19722694764364,53.2774262379641 -3.19721612651833,53.277844317353 -3.19726866807915,53.2778437901641 -3.19726869319734,53.2778446888378 -3.19825685804137,53.2778401612813 -3.1983747610869,53.2777625900865 -3.19842018793846,53.2777774119882 -3.19872284560423,53.2778768197058 -3.19879756462378,53.2780810556033 -3.19889671672513,53.2782481099961 -3.19932140819445,53.2783643539173 -3.20039783970053,53.2786672548582 -3.20037881035023,53.2786854194194 -3.19999302411979,53.2790488575511 -3.19964546746181,53.2793822535787 -3.19917494703615,53.2798292177124 -3.19904542589841,53.2800220255091 -3.19892731774668,53.2801985423153 -3.1987654602046,53.2803098059413 -3.19802759194376,53.2806875575599 -3.19783251943119,53.2807919646581 -3.19702506880994,53.2812028497457 -3.19638263372087,53.2815625594221 -3.19599475719748,53.2818532119677 -3.19465032915277,53.2813524619377 -3.19462359640654,53.28141383939 -3.19460803209509,53.28144994142 -3.19445889965762,53.2816411434422 -3.19444408924509,53.2816466834446 -3.19424766734418,53.2815435057868 -3.19420814565973,53.2815232314424 -3.19273690817383,53.2826094276774 -3.19247640328283,53.2828430791266 -3.19197960684852,53.2832075989764 -3.19200570083626,53.2832298051392 -3.19231480234581,53.2834487774651 -3.19236276832066,53.2835013194496 -3.19283041409728,53.2838130672375 -3.19292547746912,53.2838336848452 -3.1934099004283,53.2841524514303 -3.1932152712311,53.284327031753 -3.1929206156953,53.2845204949255 -3.19219216940842,53.2851300614303 -3.19138125524541,53.2857458392734 -3.19137678124011,53.2857494787384 -3.19069697957309,53.2861706389172 -3.19041513087039,53.2863406920397 -3.18870593837442,53.2873968576189 -3.1869625884409,53.2884731984526 -3.18427266443855,53.2901539168539 -3.18319317454161,53.2908298163575 -3.18108078524396,53.2921343939826 -3.17942826709664,53.2931449298882 -3.1764540623728,53.2949820400358 -3.17446289418723,53.2962331805481 -3.17442457588396,53.2962569223738 -3.17377979275939,53.2966542745157 -3.17274094068777,53.2972946294327 -3.17247096979418,53.2974609285629 -3.17078981542786,53.2984842037391 -3.17061275072083,53.2985919825342 -3.16680964165248,53.3009305185765 -3.16539516346226,53.3018332953475 -3.16225384254174,53.3037525536146 -3.16134349818989,53.3043259536637 -3.16006986613296,53.3051195460653 -3.15878700588598,53.3059077315655 -3.15835206599895,53.3061960194716 -3.16171890884583,53.3084825641405 -3.16189025953461,53.3085995194383 -3.1910785567676,53.2903954168774 -3.19334642229051,53.288980276832 -3.19358824649022,53.2888295791158 -3.19574688413503,53.2875350970026 -3.19552855400223,53.2873970027457 -3.19553142161861,53.2873933792176 -3.19666281835449,53.28632763274 -3.19670237263554,53.2862957827034 -3.19691708821682,53.2860877440003 -3.19728895551644,53.2858161204094 -3.19760200693067,53.2855820218335 -3.19777525075157,53.2854480889046 -3.19731504388852,53.2851389822939 -3.19826384949727,53.2846279122139 -3.19917383587931,53.2841270191807 -3.19918421935561,53.2841224220034 -3.19945287397472,53.2840217668597 -3.19951218734133,53.2839978048726 -3.19961569989855,53.2839446418928 -3.19973801838198,53.2839181595415 -3.19981548568736,53.2839021034153 -3.19998839384988,53.2838626206584 -3.2001112415777,53.2838550945425 -3.20024148257911,53.2838465950108 -3.20034904581818,53.2838320327729 -3.20039975751374,53.2838189412782 -3.20043242000983,53.2838105250662 -3.20052094582907,53.2837566131244 -3.2006109293279,53.2837017875226 -3.20071471837353,53.2836585062791 -3.20094143443157,53.283667907239 -3.20116007338328,53.283601001931 -3.2012706949108,53.2835323988531 -3.20139112882646,53.2834961383172 -3.20148470834496,53.2834637428849 -3.20185492269112,53.2832892680391 -3.20204504513729,53.2832243575096 -3.20217259011015,53.2831727473801 -3.20228276227425,53.2831410821936 -3.20233901093248,53.2831710709206 -3.20262829670339,53.2831097422239 -3.20274255018345,53.2831705987609 -3.2029024936943,53.2832597531219 -3.20311189913081,53.2833970252747 -3.20324393624051,53.2835053316555 -3.20331875013292,53.2836062171151 -3.20337946015622,53.2837377094803 -3.20343134009302,53.2838234581738 -3.20346721378322,53.2839777577004 -3.20356615249683,53.2839776589334 -3.20365322186883,53.2839776788894 -3.20384438402852,53.2839496900555 -3.20397844196247,53.2839141884389 -3.2041794714704,53.2838105204299 -3.20427315061538,53.2837817165609 -3.20444990255491,53.2837691485075 -3.20445581268415,53.283768190835 -3.20449777486596,53.2837650705674 -3.20450677564802,53.2837640817006 -3.20452907972684,53.2837611607156 -3.20467361250213,53.2836716322291 -3.20465864479726,53.2836187618843 -3.2047197409776,53.2836055638016 -3.20484349018806,53.2835773539978 -3.20490385069858,53.2835380116983 -3.20499812859047,53.2834777478053 -3.20504581178566,53.2834098666685 -3.20518293069508,53.2833293990652 -3.20528657448204,53.2832240167294 -3.20539399756342,53.2831519373043 -3.20558876752022,53.283089758987 -3.20561695238261,53.2830804877038 -3.20566306252837,53.2830665415964 -3.20571075538685,53.2830561742882 -3.20575555798605,53.2830485329404 -3.20592670505361,53.2830521954773 -3.20611612396999,53.283015233105 -3.20615197646127,53.2830103770386 -3.20622199597101,53.2829934940911 -3.20632354217776,53.2829762915415 -3.20641173977008,53.2829637166756 -3.20645782273926,53.2829488725031 -3.20648598200346,53.282938702343 -3.20685756330259,53.2828180282716 -3.20695032851149,53.2827568800463 -3.20705443633716,53.2827252717239 -3.20706338618424,53.2827224853231 -3.20710519524693,53.2827139748108 -3.20712752026864,53.2827074583137 -3.20717946194594,53.2826898578161 -3.20720769685989,53.2826823834967 -3.20730871159195,53.2826463133984 -3.20745145903033,53.2825990365679 -3.20771128395136,53.2825064510143 -3.20800371572386,53.2823992454907 -3.20806580843764,53.2823644676256 -3.20810471699909,53.2823101534167 -3.20815763174673,53.2822700766434 -3.20820579284951,53.282223666486 -3.20826819154783,53.28220416268 -3.20847720027272,53.2821121797658 -3.20853104352346,53.2820568152481 -3.2086571827552,53.2819557856547 -3.20872097010182,53.2818759665936 -3.20878342028524,53.2818582598415 -3.20888264292391,53.2818114220861 -3.20898844810387,53.2817348619445 -3.20902162274887,53.2816877951199 -3.20904093976679,53.2816272993664 -3.20912185685822,53.2815716602742 -3.20935469696939,53.2814785353728 -3.20946397151868,53.2814154199467 -3.20952198170161,53.2813456343723 -3.2095194674882,53.2812566012943 -3.20964468863454,53.2811232274854 -3.20980600047341,53.2810461039348 -3.20989478785165,53.281002067867 -3.21000551942236,53.280942442064 -3.21001637019062,53.28090189108 -3.21004902456201,53.2808889785873 -3.21010832760248,53.2808650123289 -3.21014129729046,53.2808107576171 -3.2101490911969,53.2807145211671 -3.21025634250912,53.2806324626028 -3.21033136268685,53.2805301525729 -3.21033973851061,53.2804545792495 -3.21038145513781,53.280390350236 -3.21033450634003,53.2802694162948 -3.21031377297165,53.2801177508914 -3.21026129995187,53.2800157450436 -3.21014603743496,53.2798623423722 -3.21014831468814,53.2797328206079 -3.21017494406909,53.2796642518078 -3.21018972581169,53.2793908160866 -3.21029140094075,53.2793259790155 -3.21047905824662,53.2791748967011 -3.21063812580634,53.2790186215576 -3.21073087595898,53.2789574694483 -3.21080621973754,53.2788623444911 -3.21096816480148,53.2787554672517 -3.21110507594876,53.2786642101378 -3.21112520410446,53.2786325523479 -3.21112695216786,53.2785893986267 -3.21106146838282,53.2784470850619 -3.21108291124677,53.2783569997659 -3.21108385623096,53.2782329740045 -3.21127748937197,53.2783415454009</coordinates></LinearRing></outerBoundaryIs></Polygon>
  </Placemark>
