  <Placemark>
	<Style><LineStyle><color>ff0000ff</color></LineStyle><PolyStyle><fill>0</fill></PolyStyle></Style>
	<ExtendedData><SchemaData schemaUrl="#Wards__December_2019__Boundaries_EW_BFE">
		<SimpleData name="objectid">4317</SimpleData>
		<SimpleData name="wd19cd">E05009927</SimpleData>
		<SimpleData name="wd19nm">Stansted South &amp; Birchanger</SimpleData>
		<SimpleData name="wd19nmw"></SimpleData>
		<SimpleData name="bng_e">552192</SimpleData>
		<SimpleData name="bng_n">223305</SimpleData>
		<SimpleData name="long">0.210057</SimpleData>
		<SimpleData name="lat">51.887531</SimpleData>
		<SimpleData name="st_areashape">11808249.3952344</SimpleData>
		<SimpleData name="st_lengthshape">16443.0796965516</SimpleData>
	</SchemaData></ExtendedData>
      <Polygon><outerBoundaryIs><LinearRing><coordinates>0.195594279900795,51.8680863196043 0.195610070684204,51.8681129944858 0.195863802726447,51.868460845996 0.196011858162611,51.8686972161051 0.196503231529358,51.8692123377436 0.196658272610845,51.8693830394933 0.197173639517391,51.8698814381163 0.197868811774228,51.870910661152 0.197870261480947,51.8709403914293 0.197788583397965,51.8710830609056 0.19780389466737,51.8710998553041 0.19796224716717,51.8711589278311 0.197965995466437,51.8711768375591 0.197747550076233,51.8714623966741 0.197713754349539,51.8715160691605 0.197670927514271,51.8716203453068 0.19767679123649,51.8716202357384 0.197655147335677,51.8717438026223 0.197653597897926,51.8718913576352 0.197682594429433,51.8720094846661 0.197750065085121,51.872140377133 0.197886675864236,51.8722619759188 0.198061054982339,51.8723818804143 0.198335341969201,51.8724946125566 0.198543737612907,51.872538364394 0.198804682010024,51.8725568606738 0.199011654030455,51.8725395058053 0.199186729061468,51.872526343139 0.199414735751709,51.8724933113423 0.199641477596583,51.8724368393057 0.199860704854628,51.872376101919 0.20010986510702,51.8723004205475 0.200351023772969,51.8722105038051 0.200712640259851,51.8720903738291 0.200809777384738,51.8720265253478 0.200983009185559,51.8719756364274 0.201205377952313,51.8719768685954 0.201430466584985,51.8720337881769 0.201620070364189,51.8721391078234 0.201899459077791,51.872385597988 0.202287560200541,51.8726580107411 0.202657936878494,51.8728642279071 0.202964295802635,51.8730104215005 0.203292810378909,51.8731320154847 0.203804546484327,51.8732599747318 0.204297724846008,51.873331732394 0.20476689193262,51.8733606963659 0.205225157152339,51.8733431149277 0.205713580332536,51.8732907142685 0.205918249434555,51.8732581075309 0.206228317958142,51.8731812707964 0.206463355180473,51.8731157291354 0.206726065478316,51.8730209005083 0.206973685096943,51.8729163753967 0.207213909269786,51.8728075830842 0.207588248989692,51.8726197676869 0.207760109831165,51.872541025595 0.207866430271643,51.8725156562251 0.208025365997765,51.8724982879713 0.208156265622656,51.8725003258124 0.208363965723282,51.8725296887561 0.208466901919417,51.8725843930117 0.208501702885248,51.8726737301241 0.208600790214122,51.8728282954462 0.208729280130077,51.872930256736 0.208870518842587,51.8729941295622 0.209087030707437,51.8730565893007 0.209536357619146,51.8731524331232 0.210002194314252,51.8732624385625 0.210291469626778,51.8733235287888 0.210671764339454,51.8734062819338 0.210676072217948,51.8734062009616 0.210975724233541,51.8734419215187 0.211137992131175,51.873463144634 0.211272147645249,51.873563198102 0.211375838823257,51.8736331685017 0.211792822467127,51.873899612997 0.211956056308664,51.8739990289064 0.212296613603993,51.8741895943135 0.212398034628096,51.8742425259953 0.212544647304413,51.8743278701056 0.212618708339109,51.8744163765748 0.212765415597974,51.8746231742405 0.21317817986514,51.8744203244488 0.213382929481618,51.8742698437188 0.213526334252245,51.8741727497072 0.213664279115055,51.8740522948374 0.21374004345446,51.8739681604145 0.21405658784765,51.8736088050396 0.214284113940354,51.8733320346501 0.214418693466785,51.8731748724635 0.214560247495436,51.8730084989819 0.214668977421662,51.872885985159 0.214771506537723,51.8727859732423 0.214860695927554,51.872706979923 0.214954072332874,51.8726279076823 0.215052140049221,51.8725541407781 0.215146473537808,51.872492130939 0.21520422338721,51.8724558921685 0.215249286929186,51.8724271745061 0.215376698968647,51.8723582484445 0.215521507738518,51.8722898938031 0.215665188239286,51.8722278532472 0.215776495898457,51.8721870990439 0.215873761347936,51.8721555092508 0.216029754290492,51.8721076208204 0.216193325827097,51.8720676800112 0.216364372742381,51.8720311933431 0.216586323209809,51.8719946463693 0.216748069606083,51.8719736182173 0.216885352751959,51.8719593439521 0.217096887036418,51.8719472651301 0.217330610538989,51.8719455569172 0.217629329767482,51.8719623992711 0.217770766468263,51.8719741169638 0.217975155724471,51.8719945356074 0.218144810371183,51.8720174074856 0.218495772566265,51.8720638290689 0.21901344677933,51.8721341640301 0.219673384195246,51.8722304911397 0.220164881703801,51.8722994275012 0.22108105429486,51.8724350497616 0.221082489730502,51.8724350226546 0.22132663484348,51.8724672716384 0.221625161406426,51.8725092795373 0.221847570305358,51.8725428363689 0.221876872027422,51.8725467782303 0.222606911183986,51.8726507535736 0.223219726814246,51.8727336566376 0.22429366700729,51.872888657755 0.225383699715987,51.873044331978 0.226900775836247,51.8732584385672 0.227411381452048,51.8733305790154 0.227787768329535,51.8733917743002 0.228527729023528,51.8735189893569 0.229356881807637,51.8736597030826 0.230100923844209,51.8737796386168 0.231182078163583,51.8739317423187 0.231618129882575,51.8739953896329 0.231724929545376,51.8740113429906 0.232086541201062,51.8740666028332 0.232782158353499,51.8741783608586 0.233104470595302,51.8742333735199 0.233381462674714,51.8742802568693 0.233631858901789,51.8743222499829 0.233875020648051,51.8743608737545 0.234048009284126,51.874392649353 0.234172505921885,51.8744127597836 0.234271282513805,51.87455921899 0.23444710591186,51.8748535382497 0.23471074544654,51.8755103741702 0.234769553870778,51.8756720646163 0.234833838284408,51.8759127626798 0.234877324969781,51.8762050988501 0.235234838495845,51.8763825988703 0.235301697528073,51.8764118947483 0.235535005303793,51.8765172278376 0.236068753520321,51.8767336287608 0.236515577048159,51.8768663654107 0.236989563009199,51.8769598368044 0.237458651725199,51.8769859753349 0.238284931509132,51.8772984768146 0.238592205003622,51.8774311642367 0.238641344297291,51.8777161991908 0.238755411769097,51.8779360803845 0.238922149071965,51.878193704062 0.239278463844191,51.8786959317262 0.239761972237714,51.8790985550685 0.240394931182453,51.879586521245 0.240701245964282,51.8798729493787 0.240803317738451,51.8800247328187 0.241126897055678,51.8803378012797 0.241691069321202,51.8808126866365 0.241998411765947,51.8809749411079 0.242128656467319,51.8810812363821 0.242534639918766,51.8814440620806 0.243453465898185,51.8822124412459 0.243960723343359,51.8825948161111 0.243779007885502,51.8829130206961 0.243727704112361,51.8831963732879 0.243733090877188,51.8835667458853 0.243777256621862,51.8838689551185 0.243805513076185,51.8842030239915 0.243919213141924,51.8845614441884 0.244042901027276,51.8848846133959 0.243340949775451,51.8856434549475 0.242906269513335,51.8861346889101 0.242349634971049,51.8867180553024 0.241942824778328,51.887276179007 0.241728587901458,51.8875266790498 0.241386263556991,51.8877724274012 0.240361880641996,51.8884465962576 0.23967673964502,51.8888445076258 0.239144145963254,51.8892404093666 0.238421080535838,51.8896930647261 0.237808864676398,51.8901534058964 0.236898867150742,51.8907345703435 0.236547767174114,51.8909228453535 0.236061834284884,51.8911155712286 0.235681745425776,51.891248656943 0.235622959579974,51.8914404522619 0.235616016814051,51.8915637475948 0.235687717260307,51.8916901324876 0.235794565387664,51.8918220522885 0.235849360764585,51.892105185355 0.235913485574408,51.8922865536991 0.235935392891194,51.8924623416825 0.235927885154929,51.8925452819028 0.235902651265702,51.8926815110803 0.235886319540951,51.892733963295 0.235780091662575,51.8927908221723 0.235669906896954,51.8928234824628 0.23557766859408,51.8928990442072 0.23494954239574,51.8932454996712 0.234202631521681,51.8934538752088 0.234036856610011,51.8935110533686 0.233717442710444,51.8936043237878 0.23351664636032,51.893689946212 0.233325223586821,51.8939912402685 0.233311047794575,51.8939978024518 0.233171823198679,51.894034607905 0.232917028667504,51.8940825971913 0.232753538895932,51.894127954337 0.232703175766237,51.8941370010115 0.232634723590157,51.8941365027887 0.232335227457826,51.8941917222704 0.232168349543137,51.8942847892142 0.232090997003076,51.8943078331132 0.231829584273787,51.8944593315664 0.231750571159155,51.8944779113549 0.231674334967779,51.8945234988848 0.231454981187833,51.8945249638227 0.231354254608973,51.8946059870316 0.231282678699558,51.894627123183 0.231168145113979,51.8946931243592 0.230901833883442,51.894714358043 0.23075536275406,51.8947791669595 0.23064509341332,51.894812723335 0.230467726480516,51.8948997845527 0.230278428991855,51.8949806878905 0.230171618310141,51.89514462371 0.230010671532459,51.8951809379824 0.229811300633949,51.8953222647363 0.229615213498874,51.8953556494101 0.22907535719668,51.8956662375742 0.228428506238583,51.8960768415707 0.228374055265128,51.8962092178634 0.228381209203729,51.8963538214404 0.228082519526178,51.8964863282948 0.227787171550502,51.8966573393335 0.227680049241221,51.8967546616491 0.227553181267364,51.8969810055812 0.227496397756996,51.8970081522297 0.227435007273316,51.8970317890648 0.227212098560408,51.8970512939511 0.227071187060706,51.8970809317275 0.226407649417629,51.8970674222313 0.226261418802696,51.8970791799679 0.226118862665801,51.8970755851028 0.225975949749964,51.8970962704645 0.225860222815463,51.897077783023 0.225745917740447,51.8970880375949 0.225578443840071,51.8970822167201 0.225378718870093,51.8971003792879 0.225130007367072,51.8970682258825 0.224893629143503,51.8971086568903 0.224736277158375,51.8971306021479 0.224684427001222,51.8971387751104 0.224357455301965,51.8972303641199 0.223954747175008,51.8973755258419 0.223551508805011,51.897509998626 0.223282943931309,51.8976049749304 0.223014512394098,51.8977026458599 0.222982391086157,51.8977293232843 0.222764182833462,51.8979340136569 0.222622121678442,51.8980886293462 0.222469673163311,51.8983873706998 0.222344311296188,51.8984383747149 0.222180789608334,51.8986293556626 0.22204072420201,51.8988244767601 0.221790230773854,51.8990819175795 0.221705502809589,51.8991913981369 0.221468020440995,51.8994162273415 0.221191260824737,51.8996102437561 0.220823974120109,51.8999445045028 0.221079972704584,51.9002723900995 0.221192340773456,51.9004267837164 0.221495095241637,51.9008787470138 0.221620878500316,51.9010985136684 0.221850785198556,51.9015167899406 0.222097222115318,51.9020319360678 0.222163916614828,51.9021763141915 0.222333499018697,51.9025499704968 0.222334936869973,51.9025499433314 0.222580104940547,51.9033330132819 0.222645458163375,51.9037148415537 0.222707854032672,51.9040950179707 0.222754287296865,51.9044772036631 0.222796633689749,51.9048639610285 0.222825420837487,51.9052698544589 0.222851484068133,51.9056812829953 0.222716499240735,51.906863588406 0.222691248194713,51.907029571672 0.220411429721881,51.905934136813 0.220277509211783,51.9058728355271 0.218794905487633,51.9052003115626 0.218295278569467,51.9050028755462 0.217417601360533,51.9046570376013 0.216490257391601,51.9043660699573 0.215283741520617,51.9040138261347 0.213730879691208,51.9036258362321 0.212320681683075,51.9033574063946 0.21148608127344,51.9032354640868 0.210149010448857,51.9030375531409 0.206840889480827,51.9025448925456 0.205635548881881,51.9023633379485 0.204793143518775,51.9022280994135 0.204599749412536,51.902197472531 0.202405396435076,51.9018869817608 0.201500237038763,51.9017475009833 0.200989680777485,51.9016526817658 0.200294959642591,51.9015074554384 0.199725622631411,51.9013697702956 0.19945490641569,51.9013019238661 0.198996770335997,51.9011783370313 0.198651797707899,51.9010796027526 0.198194050222861,51.9009343396584 0.197888114107792,51.9008321773435 0.197532830253349,51.9007011780523 0.197252813222093,51.9005922369339 0.197049845849991,51.9005124208215 0.196833132965434,51.9004210853781 0.196457144758801,51.9002537009693 0.196041728269187,51.9000519014722 0.195812434442121,51.8999384139619 0.195473893255815,51.8997621469246 0.19518426326225,51.8996057326164 0.195036292199328,51.8995229992525 0.194910425194961,51.8994462370579 0.194646889941371,51.8992866376771 0.194415728206323,51.8991371321972 0.194334407571792,51.8991997803567 0.19433175236559,51.899204325249 0.194277989762282,51.8992053281305 0.194241664221201,51.8992051064769 0.19421839162256,51.8992046422336 0.194200953060584,51.8992058658694 0.194182284835693,51.8992089109436 0.194159274754818,51.8992138355064 0.194104774446791,51.8992292356072 0.194074546969796,51.8992360923783 0.194061583044798,51.899238132684 0.194026870230314,51.899241476993 0.193968972276505,51.8992461529728 0.193928303382078,51.8992478107344 0.193895028286588,51.8992511281899 0.19385309805817,51.8992564046599 0.193779537048099,51.8992667663759 0.193743561444058,51.8992737302605 0.193715945437507,51.8992751445231 0.193678139836398,51.8992740519437 0.193622633174395,51.8992687940828 0.193581746957323,51.8992659604157 0.193510708484941,51.8992690827052 0.193480218447205,51.8992705505048 0.193429886245752,51.8992804788547 0.193362908587332,51.8993078887713 0.193327501473545,51.8993265286079 0.193296012476456,51.8993370048085 0.193258775403596,51.8993475881733 0.193228460212117,51.899352647857 0.193198363713668,51.8993621988163 0.193154129303607,51.8993792055748 0.193061478345269,51.899415993867 0.193034605680727,51.8994326768987 0.192954620756551,51.8994908047245 0.192906948937753,51.8995258551142 0.192857158539458,51.8995789255212 0.192843588950818,51.899598056475 0.192825160929257,51.8996380462189 0.192801543541612,51.8996600622264 0.19273308578316,51.8997161774123 0.192643550361447,51.8998194321521 0.192538012336147,51.89995094463 0.192465610347151,51.9000466885616 0.192477399187629,51.9000500649473 0.19247478888738,51.9000555073114 0.19246696574402,51.9000745320145 0.192453919123019,51.9001044423971 0.192447390452011,51.9001180483603 0.192400309587316,51.9002268054908 0.192395010689322,51.9002385909262 0.192410592056726,51.900287834916 0.192424261025016,51.9003298333043 0.19243637460891,51.9003718606799 0.191978968231932,51.90043971839 0.191919599025,51.9004462183696 0.191845946725828,51.9004547829576 0.191753212061581,51.9002830046972 0.191303623373878,51.9003021680158 0.190711933789194,51.9003320675351 0.190578431632395,51.9003372514482 0.190505911176037,51.9003395002569 0.190466624702614,51.9003375349646 0.190382976066431,51.9003229105305 0.19028748314073,51.9003013152581 0.190168242784128,51.9002719806626 0.190003448287829,51.9002300987926 0.18974725375677,51.9001620494333 0.189146527957373,51.9000060181775 0.188949454760878,51.8999583526502 0.18886258817202,51.899966262013 0.18884496002891,51.8999315291101 0.188780104759608,51.8999435241963 0.188666261784869,51.8999339548212 0.187375128908488,51.8997467073869 0.187360943113827,51.8997235969278 0.187142776790378,51.8993328155713 0.187194798200292,51.8993255553682 0.187695132072636,51.8992434327245 0.187708274201624,51.8992746531202 0.187748636576165,51.8992667102509 0.188356408487823,51.8991807889864 0.188385331472219,51.8991766548137 0.188380065300008,51.8991003379824 0.188078881690372,51.8984341223972 0.187787976363926,51.897952188248 0.187446218098269,51.8974693115079 0.187215023591913,51.8971678622455 0.187037125824676,51.8968878975307 0.186778325741665,51.8963163632261 0.186463164943682,51.8957242102885 0.186126107655837,51.8953671915505 0.18564890032364,51.8949075033189 0.186064079408893,51.8949582234302 0.186581811149704,51.8949935497251 0.185413108564688,51.8940611659412 0.184909535235148,51.8937467926981 0.184482361663734,51.8935398664545 0.183901307345926,51.8933671715309 0.183892556491505,51.8932756363901 0.183881112699352,51.893160687965 0.183818518738479,51.8929793540907 0.183661665806461,51.8928608112691 0.183434365080511,51.8927598487875 0.183286388835276,51.8926439283806 0.183199347035819,51.8924971197064 0.182916064345172,51.8921112241604 0.182860732806973,51.8920178564916 0.18274303666684,51.8919876773828 0.182557936090568,51.8920081924282 0.182435679298571,51.8920050671025 0.182370127693159,51.8919703240242 0.182284179319499,51.8917866358279 0.182189879741067,51.8914304946653 0.182166252344857,51.8912420549883 0.182176084573128,51.8910863460362 0.182302203207417,51.8909292890246 0.182349038151384,51.8908151466975 0.182317032583845,51.8907258413618 0.18227448568169,51.8906860861429 0.18222308459628,51.8906465850988 0.181843956446217,51.8904980915861 0.18154990913963,51.8903695055262 0.181251950489615,51.8902491716277 0.180894662561948,51.8901928666196 0.180567087337867,51.8901512925325 0.180439351805708,51.8901239939985 0.180126948135378,51.8900047334572 0.179649459071732,51.8898068134297 0.179354380172372,51.8895056340111 0.179024731944725,51.8891213972683 0.178591664060908,51.88869960959 0.178242201534421,51.8883266159166 0.178150341311542,51.88825810513 0.178030624769796,51.888188402382 0.177934249910124,51.8881479336626 0.177723150927476,51.8880790241727 0.177672450396274,51.8880538916865 0.177609561658516,51.8880146012783 0.177423955846351,51.8878732090257 0.177160548774521,51.8876839019638 0.177072572664114,51.8876386927126 0.176982032996898,51.8875999128307 0.176517576539824,51.887430507052 0.176216892479957,51.8873424851415 0.176071340365099,51.8873083193242 0.175984845569384,51.8872937373574 0.177089104113214,51.8868974346646 0.177137296407138,51.88687316935 0.177190789893212,51.8868371183179 0.177243847695927,51.886792085503 0.17728512092087,51.8867436746851 0.177310566301886,51.886699962262 0.177324006375705,51.8866161073286 0.177293195100093,51.8863405964835 0.177303982337863,51.8863233155194 0.177920614826942,51.8860618899358 0.177980724837843,51.886014028441 0.178009730542758,51.8859820265387 0.177994680632955,51.8859706185217 0.177650571731251,51.8859185552202 0.177359592711799,51.8858502237751 0.177153377018042,51.8857929096075 0.176961554414379,51.8857334402769 0.17680778200151,51.8856778508763 0.176668450348296,51.8856210957025 0.176527335853167,51.8855571811366 0.176393230492014,51.8854895415082 0.176155270200668,51.8853455198636 0.175843835137865,51.8851264429492 0.1754422564029,51.8848146370321 0.17544295475691,51.884799341329 0.177002875150625,51.8844539452544 0.177015435560508,51.8844411268542 0.176529110366075,51.8840913376472 0.17585971693544,51.8835903055233 0.175092135977595,51.8829813187007 0.174976393666944,51.8828125594953 0.175837551717602,51.8825915716803 0.176237582343699,51.8824502211239 0.176480020369691,51.8823252696322 0.176903220089911,51.8821824988813 0.177142217210985,51.8820459229821 0.176819823009822,51.8818081724069 0.176748206675088,51.8817393757853 0.176685335602186,51.8816730251205 0.176707291681664,51.8815845171622 0.176923340758161,51.8812460019573 0.177482117756318,51.8809317086302 0.1778782669413,51.8808021108768 0.178307921263178,51.880760892213 0.17861047781022,51.8807075517619 0.178809816431436,51.8806553132245 0.179181419545405,51.8805854993802 0.180038617211231,51.880674798068 0.180433529372103,51.8804283448141 0.180784777602074,51.8801808122252 0.181111844396005,51.8800029488475 0.181349566162851,51.8799023481119 0.181549410024921,51.8798285197003 0.181825252637172,51.8796444129278 0.182005150396885,51.879337124996 0.182266065804534,51.8789959694282 0.182308613293838,51.8787343809283 0.182333223812529,51.8786736913316 0.182538270629385,51.8786159466113 0.18290140485472,51.8783744797003 0.183232675833356,51.8783134926839 0.183328259722453,51.8784268796242 0.183730638949076,51.8784266017734 0.183979562069874,51.8784066071194 0.184257666142987,51.8784177138916 0.184552381697743,51.8784428069244 0.184740007467617,51.8784483117556 0.185016661542288,51.878370263685 0.185059915522297,51.8782444997009 0.185323287009319,51.8776532798656 0.185419695749786,51.8774528107862 0.185524935397594,51.8772565811756 0.185613660426861,51.8771101047758 0.185696428805942,51.8769889999674 0.185955134126642,51.8766622606137 0.186232705407427,51.8763639380513 0.186239612982014,51.8763557190563 0.186489932198787,51.8761253276637 0.186676958846735,51.8759681221083 0.186961839731168,51.8757316924841 0.187152467271782,51.8755870051717 0.187357744762857,51.8754455512082 0.187572122422143,51.8753139064401 0.188149365343448,51.8749929239425 0.188614451059599,51.8747576323371 0.188831611782571,51.8746538014278 0.189050369824931,51.8745508405385 0.189827164098568,51.8742423175662 0.190794501594284,51.8739086635112 0.191209590291049,51.8737812738751 0.191367435095048,51.8737387773782 0.191807576469491,51.873648766793 0.19241282418947,51.8735178289803 0.193088510144973,51.8734018466924 0.193180241823503,51.8733767617601 0.193264399554636,51.8733437273718 0.19334081911254,51.8733018473482 0.193409587892196,51.873252917691 0.193465178117134,51.8732014469707 0.193506335046669,51.8731512345915 0.193534666146934,51.8731057558966 0.193550007302768,51.8730641155978 0.193552599494306,51.8730263092059 0.193544943100252,51.8729895932139 0.19345720269793,51.8728284207175 0.193432237945102,51.8727929258725 0.193330596949996,51.8726734566263 0.193201746369992,51.8725633946476 0.193071075921527,51.8724750322872 0.192857282501337,51.8723522591878 0.192611738805465,51.8722317862065 0.192513990234222,51.8721922542799 0.192324907310049,51.8721292527704 0.192108604247607,51.872073051309 0.19191365126468,51.8720371290961 0.191487186630141,51.8719893384252 0.190885563946403,51.8719555067577 0.190867305571891,51.8719396647266 0.190856773466063,51.8718733347131 0.190850587958479,51.8718347935335 0.190870495972352,51.8718254328093 0.190950272171643,51.8718230474623 0.191747414198743,51.8717542549515 0.192387582737936,51.8717162521484 0.192912576954207,51.8716965764169 0.193590296647284,51.8716524731459 0.193617415771373,51.8716411789419 0.193677041612179,51.8714044386892 0.193802476900725,51.870548677704 0.193823498402385,51.8704736678263 0.193858433420697,51.8703867125464 0.193894488541209,51.8703203230831 0.19399444645624,51.8701961943738 0.194064579069424,51.8700843087396 0.194262638354564,51.8699160062623 0.194251722346576,51.869900927023 0.193923853561696,51.8697892748754 0.193919944146458,51.8697704687692 0.19430974463103,51.8692721620328 0.194438035098185,51.8691322213966 0.194855562839061,51.8687583563913 0.195304451664018,51.8683399442065 0.195594279900795,51.8680863196043</coordinates></LinearRing></outerBoundaryIs></Polygon>
  </Placemark>
