  <Placemark>
	<Style><LineStyle><color>ff0000ff</color></LineStyle><PolyStyle><fill>0</fill></PolyStyle></Style>
	<ExtendedData><SchemaData schemaUrl="#Wards__December_2019__Boundaries_EW_BFE">
		<SimpleData name="objectid">5601</SimpleData>
		<SimpleData name="wd19cd">E05011330</SimpleData>
		<SimpleData name="wd19nm">Harrogate Valley Gardens</SimpleData>
		<SimpleData name="wd19nmw"></SimpleData>
		<SimpleData name="bng_e">429588</SimpleData>
		<SimpleData name="bng_n">454824</SimpleData>
		<SimpleData name="long">-1.55024</SimpleData>
		<SimpleData name="lat">53.988628</SimpleData>
		<SimpleData name="st_areashape">910266.806505185</SimpleData>
		<SimpleData name="st_lengthshape">4466.07223528047</SimpleData>
	</SchemaData></ExtendedData>
      <Polygon><outerBoundaryIs><LinearRing><coordinates>-1.55101749531327,53.983808591909 -1.55084006712356,53.9838573477866 -1.55041180485547,53.9839761496234 -1.54902299325323,53.9843700716365 -1.54734940224747,53.9848535672762 -1.54620073267694,53.9851736940119 -1.54412766574876,53.9857788233455 -1.54399308738354,53.9858169496984 -1.54139403700753,53.9865549023938 -1.53923896304366,53.9871263888169 -1.53924797362785,53.9871416980129 -1.53946433756546,53.9872934777685 -1.53944349141274,53.9873823505454 -1.53943983890312,53.987439931824 -1.53946646888614,53.9875110172204 -1.53953845667718,53.9876307948381 -1.53962841340137,53.9877633112286 -1.53982979082179,53.9880318403916 -1.53999226360844,53.9882365152716 -1.54013823337031,53.9884213591812 -1.54034147137608,53.9886584464975 -1.54059131915146,53.9889569001191 -1.5407657402027,53.989184981461 -1.54087236577091,53.989334631913 -1.54100722246259,53.9895588777617 -1.54108350700789,53.9897003259362 -1.54124436868438,53.990041568056 -1.54133688882491,53.9902279142676 -1.54146490690708,53.9905142199494 -1.54178898562963,53.9912929427761 -1.54194330087527,53.9916817796524 -1.54197046800942,53.9917043462105 -1.54207961931065,53.9917622673375 -1.54222837873825,53.9918321095207 -1.54243773495693,53.991938032295 -1.54270335072193,53.992051356944 -1.54293727215266,53.9921421883002 -1.54366023713285,53.9924198795183 -1.54430740712895,53.9926605301757 -1.54460660737204,53.9927740686915 -1.5448132119382,53.992856615915 -1.54493038140916,53.9928831157403 -1.54503861674611,53.9928871195392 -1.54515251743979,53.9929252881171 -1.54544070163506,53.9930809227059 -1.54570832839564,53.9931494122072 -1.54598625673976,53.9932654724634 -1.54616865447315,53.9933191733438 -1.54633602227289,53.9933557450662 -1.54648377453138,53.9933805630276 -1.54656452870246,53.9933907505008 -1.54667875211965,53.99339926837 -1.54680533016578,53.9934051363844 -1.54694401687835,53.9934192269204 -1.54703375836102,53.9934357384487 -1.54704735850346,53.9934456734801 -1.54705938054834,53.9934618912718 -1.54703129439884,53.9935237836455 -1.54715554541181,53.993605117793 -1.5472149322233,53.9936143264769 -1.54737315091034,53.9936481668872 -1.5475557368355,53.9936847951043 -1.54775384192305,53.99370530802 -1.54789434212037,53.9936914596676 -1.54807011329756,53.9936606724592 -1.54823224451204,53.9936118636955 -1.54848174681868,53.9935310360526 -1.54864423644664,53.9934606638387 -1.54889875115409,53.9933348382439 -1.5491549274657,53.9932064127933 -1.54943855693032,53.9930627251611 -1.5501117404575,53.9927362998383 -1.5503752999449,53.9926222761383 -1.55057893267019,53.9925493588117 -1.550909508241,53.9924480737472 -1.55129495695846,53.9923425894748 -1.55185780890019,53.9921937385262 -1.55273721703137,53.9919713973842 -1.55323133402715,53.9918401646145 -1.55347297301897,53.9917754708816 -1.55346388899429,53.9917664520709 -1.55341716390418,53.9917141647509 -1.5527823571804,53.991031445463 -1.55271164134536,53.9909413307982 -1.55265281719392,53.9908799223119 -1.55240551285732,53.990616634544 -1.55247605522708,53.9905817649883 -1.55253737025843,53.9905514438948 -1.55260939247649,53.9905193650756 -1.55269826409075,53.9904873498215 -1.55287273860422,53.9904233051566 -1.55304887478054,53.9903565718859 -1.55319583983914,53.9903014095053 -1.55331073069738,53.9902586180288 -1.55338887487206,53.9902301556959 -1.55355113024948,53.9901678621839 -1.55367829393951,53.9901180174094 -1.55401059879284,53.9899934582993 -1.55421728711206,53.9899150663012 -1.55492474663798,53.9896444486271 -1.55520048106931,53.9895412410326 -1.55535195730481,53.9894869914659 -1.55537002964604,53.9895140144165 -1.55538649578695,53.9895383350943 -1.55543753009223,53.9896229845572 -1.55549599366079,53.9897185339681 -1.55554836392488,53.9898076804059 -1.55560083081597,53.9898995235055 -1.55565318147412,53.9899905572531 -1.55571010048747,53.9900896051735 -1.55576848993048,53.9901922518073 -1.55579238925577,53.99023906301 -1.55582680330577,53.9903020865407 -1.5558328588249,53.9903120826367 -1.55594274240091,53.9903025149576 -1.55617167608285,53.9902844916793 -1.55640224296405,53.9902664739922 -1.55647548415914,53.990261353436 -1.55670594477097,53.9902415381202 -1.55675023664818,53.990239005148 -1.55676395233698,53.9902381578532 -1.55679756422165,53.9902346875995 -1.55681128144273,53.9902338394062 -1.55724636583237,53.990199502725 -1.55767835532394,53.9901606591964 -1.55777462448338,53.9901421445479 -1.5577823052695,53.9901412749314 -1.55830451497668,53.989930156506 -1.55846386080972,53.9898687435233 -1.55844713333675,53.9898570015753 -1.55815218627655,53.9896249087798 -1.55811742747302,53.9895942306901 -1.55813587039368,53.989586212206 -1.55827534786297,53.9895247273201 -1.5582921573662,53.9895167019098 -1.55838869044232,53.9894730291893 -1.5584744691383,53.9894356065199 -1.55870126159021,53.9893339187385 -1.55920851806757,53.98910845447 -1.55933725676259,53.9890513320602 -1.55953482736601,53.9889657980069 -1.55984434348435,53.9888294586659 -1.55995310858209,53.9887822352645 -1.56010635346819,53.9887144191232 -1.56016609371638,53.9886894792065 -1.56022737051571,53.9886618494515 -1.56042360144509,53.9885718169365 -1.56064889411995,53.9884684122829 -1.56078525819812,53.9884032289897 -1.56083580892847,53.9883791530329 -1.56101360332401,53.9882962405926 -1.56123588442001,53.9881919259497 -1.56143666647997,53.98809912217 -1.56165274515082,53.9879983783235 -1.56181207447873,53.9879252802921 -1.56196535931225,53.9878530587952 -1.56204966179071,53.987811944982 -1.56205117945024,53.9878110517353 -1.56204057677507,53.9878029259092 -1.56166221646372,53.9875266000689 -1.56138208706901,53.987332306982 -1.56118682980638,53.9871986130726 -1.5609855159801,53.9870549229988 -1.56079317001106,53.9869194424285 -1.56046776633929,53.9866908381322 -1.55987889575063,53.9862752738342 -1.55959115982985,53.986076455732 -1.55941714596762,53.9859563148392 -1.5591869231401,53.9858008361749 -1.55898882934335,53.9856392742973 -1.55894205618753,53.9855913911047 -1.55880524061574,53.9854138811767 -1.55859610360439,53.9851434667925 -1.55855694067284,53.9850894125314 -1.55831515855872,53.9851720862834 -1.55801067805851,53.9852742967034 -1.55759585715989,53.9854184209721 -1.55709538771288,53.9855881947852 -1.55680454652225,53.9856842526249 -1.55676540724889,53.9856400808248 -1.55655423918531,53.9854199734509 -1.5562450713946,53.9855248575173 -1.556039991618,53.9855960715424 -1.55600326063088,53.9856094139208 -1.55587618027847,53.9856529718991 -1.55569558065459,53.985716099613 -1.55565734930427,53.9857285375621 -1.55564510506298,53.9857329843822 -1.55560990262557,53.9857445347371 -1.55534817697765,53.9858334192884 -1.55530678339176,53.9858476420812 -1.55519208205524,53.9858858542678 -1.55506347979481,53.985930394403 -1.55502524003231,53.9859437299963 -1.55480174378692,53.9860201755957 -1.55455074142324,53.9861055030105 -1.55450026488876,53.9861223881909 -1.55430428326871,53.9861890500938 -1.55403031609902,53.9862815704468 -1.554002800976,53.9862913512977 -1.55396815187271,53.9862507894649 -1.55391391603249,53.9861840077243 -1.55390646788249,53.9861749950127 -1.55393548308639,53.9861661176284 -1.55385124068018,53.9860597798909 -1.5537655097025,53.9859516390139 -1.55368426781253,53.9858470199725 -1.5536165382713,53.9857605101756 -1.55358637765562,53.9857235591078 -1.55355326790306,53.9856803065412 -1.55352029283975,53.9856361574866 -1.55349134473095,53.9856270639841 -1.55341768672635,53.9855305592253 -1.55339659144141,53.9855044235145 -1.55337550424609,53.9854773899522 -1.5533168393542,53.9854016962887 -1.55325818427494,53.9853251038559 -1.55323559870501,53.9852971659229 -1.55315584836883,53.9851943487173 -1.55312882336929,53.9851583070679 -1.55306569909048,53.9850763070616 -1.55301150365714,53.9850060216264 -1.55299041849663,53.9849789871042 -1.55297836625854,53.9849654642272 -1.5529017327453,53.984865353873 -1.55288213512395,53.984840122418 -1.55286252944257,53.9848157897064 -1.55276626921628,53.9846932330035 -1.55273013372817,53.9846508677249 -1.55282803743388,53.9846196939246 -1.55279799529463,53.9845836418728 -1.55278593362244,53.9845710177176 -1.55258885185213,53.9843177100554 -1.55254979521977,53.9842663496756 -1.55250938432297,53.9841889260076 -1.55240423523817,53.9841804482029 -1.55237976771723,53.9841875455039 -1.55230757540524,53.9840956274753 -1.55232758434542,53.9840822239435 -1.5522684135324,53.9840541495604 -1.55225939877149,53.98403884127 -1.55217061929549,53.9839225117099 -1.55209846639005,53.9838269994923 -1.55205789310297,53.9837765311772 -1.55189394504225,53.9835646778825 -1.55101749531327,53.983808591909</coordinates></LinearRing></outerBoundaryIs></Polygon>
  </Placemark>
