  <Placemark>
	<Style><LineStyle><color>ff0000ff</color></LineStyle><PolyStyle><fill>0</fill></PolyStyle></Style>
	<ExtendedData><SchemaData schemaUrl="#Wards__December_2019__Boundaries_EW_BFE">
		<SimpleData name="objectid">4951</SimpleData>
		<SimpleData name="wd19cd">E05010670</SimpleData>
		<SimpleData name="wd19nm">Stowe</SimpleData>
		<SimpleData name="wd19nmw"></SimpleData>
		<SimpleData name="bng_e">412488</SimpleData>
		<SimpleData name="bng_n">310213</SimpleData>
		<SimpleData name="long">-1.81667</SimpleData>
		<SimpleData name="lat">52.68948</SimpleData>
		<SimpleData name="st_areashape">2132975.15518299</SimpleData>
		<SimpleData name="st_lengthshape">7814.69549522363</SimpleData>
	</SchemaData></ExtendedData>
      <Polygon><outerBoundaryIs><LinearRing><coordinates>-1.82311982183047,52.6893761769111 -1.82318678095891,52.689287304954 -1.82299034138596,52.6892088248928 -1.82318151249435,52.6891111500302 -1.82340693818424,52.6889882719996 -1.82623178343303,52.6873140960054 -1.82689232229988,52.6867765536607 -1.82721877794489,52.6865145150921 -1.8279815960948,52.6858917376211 -1.82826517119874,52.6856125590588 -1.8289851153865,52.6861269406785 -1.82962522285847,52.6866313166424 -1.83004072349036,52.6870579904559 -1.82999188560054,52.6870705025468 -1.83017729424244,52.6873215973862 -1.83041144486354,52.6875853434309 -1.83042030765214,52.6875961409833 -1.83072674444328,52.687936379229 -1.83078121900472,52.6880128474129 -1.83082863115157,52.6879904470318 -1.83127754039964,52.687822937015 -1.83140186070585,52.687784468651 -1.83156923133371,52.6877478591078 -1.83165677304704,52.6876940604047 -1.83176944617721,52.6876070453235 -1.83179477032276,52.6875873092877 -1.83179477376033,52.6875864103255 -1.83185851573443,52.6875361727545 -1.83192967363832,52.68749214671 -1.83200823111045,52.6874590058851 -1.83218898080203,52.6873999464905 -1.83261847186887,52.6872675427672 -1.8328141472585,52.6871643767378 -1.83285698229996,52.6871904998371 -1.83312825052367,52.6870309107209 -1.83352563861378,52.6868067001436 -1.83375675248163,52.6867171529836 -1.8342782235426,52.6865137842027 -1.83435977951654,52.6864608741051 -1.83439681226413,52.6864411538234 -1.83423303633977,52.6863348779578 -1.83388929779354,52.6860817702896 -1.833638726535,52.6858341849635 -1.83328982819159,52.685399529066 -1.83308373051565,52.6851340309646 -1.83291154194393,52.6849009331074 -1.83283202532737,52.6848028617202 -1.83270225854229,52.6846722767254 -1.83251659111915,52.6844886780323 -1.83218185130007,52.6842167051248 -1.8319296089209,52.6840293275196 -1.83172307877788,52.6838807479146 -1.83164792364119,52.6838231237494 -1.83156230836506,52.6837582956701 -1.83154769135008,52.6837213381773 -1.83153748663939,52.6836790839739 -1.83146514604463,52.6836511215902 -1.83139718361668,52.6836267603348 -1.83130115312885,52.6835744984749 -1.83113158418136,52.6834574263573 -1.83103693621897,52.6834266452235 -1.83096747535806,52.6834112685465 -1.83090858311811,52.6833437821594 -1.83047180505671,52.683065368909 -1.83005726438889,52.6827779997731 -1.82959853893733,52.6824384393208 -1.82896726201501,52.6819692165131 -1.82863566747907,52.6816523030036 -1.82832341353247,52.6813183424315 -1.82798313813742,52.6809474918594 -1.82761953080018,52.6805252916832 -1.8272954295869,52.6801688423973 -1.82670207745309,52.6794677049488 -1.82584412505606,52.6798700613393 -1.82475645677348,52.680378209391 -1.82364205251061,52.6808871177251 -1.82295161502377,52.6811683753635 -1.82246422821558,52.6813600619819 -1.82191772878719,52.6815408731356 -1.82158590425227,52.6816545108094 -1.82110453374982,52.6818029731974 -1.82051075544176,52.6819711247521 -1.81995399266831,52.6820934057591 -1.81947730914405,52.6821970228365 -1.81925217371971,52.6822550963066 -1.81885644783897,52.682098028796 -1.81877225774866,52.6820772296188 -1.81850762397458,52.6820426749453 -1.81808332041222,52.681984509452 -1.81771814523444,52.6819318243175 -1.81742246791471,52.6818837387691 -1.81720223706015,52.6818474524046 -1.81701610887779,52.6817931534255 -1.81682116232629,52.6817182605398 -1.81662922399258,52.6816244981876 -1.81627799477661,52.6814459218784 -1.81580425578345,52.6811961561845 -1.81557845010145,52.6810654937076 -1.8153290381763,52.6809222112909 -1.81511952056598,52.6808049642344 -1.81497790317657,52.6807238593818 -1.81485243985915,52.6806589573169 -1.81473579877605,52.6806129417623 -1.81462641872819,52.6805803275163 -1.81450970747164,52.6805513865877 -1.81421404069172,52.6805041919878 -1.81402171988721,52.6805029922057 -1.81382948758083,52.680509881146 -1.81370218109917,52.6805348454988 -1.81353188061279,52.6805750201886 -1.81336749172383,52.6806305717414 -1.81321476669132,52.6806959374317 -1.81311102409878,52.6807434060407 -1.81300566007262,52.6808277188243 -1.8127518592373,52.6810296188957 -1.81259895943456,52.681164184115 -1.81245646796502,52.6812889695302 -1.81234065474767,52.6813921381181 -1.8121714163639,52.6815249698441 -1.81193686719249,52.6817295046865 -1.81176758154385,52.6818731197515 -1.81160286065462,52.6820040699873 -1.81147968183173,52.6820892521281 -1.81137733336231,52.6821511902827 -1.81126327092951,52.6822148177805 -1.81111797758253,52.6822801925673 -1.81103356032736,52.6823133102115 -1.81082910449847,52.6823812874527 -1.81064984052871,52.6824331266949 -1.81054923270869,52.6824590291669 -1.81046927824517,52.6824751684643 -1.81036416105568,52.6825001646217 -1.81015240665117,52.6825348754064 -1.81020381613106,52.6826329169248 -1.81023748659142,52.6827156521715 -1.81026234270469,52.6827777924131 -1.81027114902763,52.6828002743236 -1.81027983646797,52.6828218570779 -1.81023053944654,52.6829404076838 -1.81021859216367,52.6829673503851 -1.8102095916603,52.6829898038615 -1.81018272841056,52.6830535686444 -1.81017831089253,52.6830598525505 -1.81014540894223,52.6831380774305 -1.81012001234499,52.6832009464742 -1.81008237982215,52.6833294015742 -1.81006879060594,52.6833976823687 -1.81005065364278,52.683501992728 -1.81004456869311,52.6835271468482 -1.8100400733641,52.6835514054422 -1.81003397674051,52.6835792555409 -1.81003092882301,52.6836071105126 -1.8100233381162,52.6836421481493 -1.81002332645461,52.6836448441285 -1.81001879075198,52.6836780887171 -1.8100049679566,52.6838003809282 -1.80995610078897,52.6838191757039 -1.80993821587347,52.6838371219453 -1.80992775990697,52.6838577751686 -1.80992477805641,52.6838703523402 -1.80992175733432,52.6838919164215 -1.80991555959576,52.6839431332378 -1.8099109592671,52.6839916557077 -1.80989138540759,52.6840618139327 -1.8098658169978,52.6841642255843 -1.80940235224674,52.6842749235969 -1.80894767983343,52.684382128856 -1.80861155874933,52.6844615726783 -1.80794076265276,52.6846231566929 -1.80748169401708,52.6847303492076 -1.8068360468566,52.6848847777565 -1.80654435396029,52.6849553018391 -1.80555512670316,52.6851892390099 -1.8050723475601,52.6853044713692 -1.80475697017227,52.6853785462548 -1.80445036633075,52.6854544326703 -1.80399579670533,52.6855606301869 -1.80362254869867,52.6856463794401 -1.80328053700624,52.6857293942332 -1.80280360950821,52.6858427391837 -1.80240225189514,52.6859401217974 -1.80208686134932,52.6860150885032 -1.80170626910535,52.6861052235089 -1.80124862046002,52.6862150901597 -1.80089769568453,52.6862980822072 -1.80064152485054,52.6863578663108 -1.80025346102538,52.6864533760595 -1.79994684957214,52.6865275436105 -1.79970542728137,52.6865891475553 -1.79947743425407,52.6866480776741 -1.79897819727988,52.6867811413554 -1.79905898885214,52.6869044912332 -1.79942181807377,52.686834016768 -1.79975825432699,52.6870144161628 -1.79984718215939,52.686985807178 -1.80049830140944,52.6872772746451 -1.8008669416417,52.6875395074913 -1.80074749617824,52.6877612880378 -1.80092906926711,52.687853350766 -1.80099108856865,52.6878947954145 -1.8011132930658,52.6880064394667 -1.80129591492647,52.6881901718481 -1.80165145338962,52.6880882235458 -1.80173845624521,52.6881621522863 -1.80182241739293,52.6882341889594 -1.8019331166313,52.688300878149 -1.80204524307174,52.6883486967204 -1.80217082435981,52.6883884486922 -1.8022299219741,52.6884020279668 -1.80234239015545,52.6884013161465 -1.80299555810441,52.6888968708462 -1.80350894764893,52.6892294339791 -1.80366516962622,52.6893465245257 -1.80383937901276,52.6894511525324 -1.80402521269113,52.6895754805152 -1.80433667272404,52.6897306617897 -1.80425776181584,52.689837478189 -1.80460436936119,52.6900718031713 -1.8047430900733,52.6901484208334 -1.80530077415699,52.6905116057002 -1.8056283063413,52.6907036567144 -1.8060680694681,52.6906468576639 -1.80645181395001,52.6908451992039 -1.80697551444504,52.6912020298561 -1.80766719498037,52.6916994182969 -1.80832385271448,52.6920915072804 -1.80863215802907,52.6923068868181 -1.80919424812886,52.6926817451864 -1.81013135290988,52.6932253494377 -1.81062281106487,52.6935201031719 -1.81102705959059,52.6937841593123 -1.81104918899116,52.6938012695369 -1.81102547288537,52.6938129157307 -1.81145333881533,52.6940895899495 -1.81165406012074,52.6942229171525 -1.81189749493434,52.6943814764995 -1.8125335200312,52.694796068856 -1.81303628610223,52.6951941822202 -1.81313332261527,52.6953552944731 -1.81324366454077,52.6954857807853 -1.81375153670012,52.696122147601 -1.8137897043812,52.6961842183361 -1.81391725474322,52.6964586155279 -1.81397161628702,52.6965575585199 -1.814099419232,52.6967726409975 -1.81421262881106,52.6969481566492 -1.81423034658532,52.6969706522928 -1.81432089640276,52.6968781361578 -1.81439962769159,52.6968108562385 -1.81445754984041,52.6967597198287 -1.81450508938676,52.69671126409 -1.81454677899058,52.6966618993331 -1.81460020693345,52.6966350217188 -1.8149410060759,52.6965069473212 -1.81524755742229,52.6968067856788 -1.8158355275276,52.6973803572145 -1.81605317793489,52.6973519354296 -1.81607538991362,52.697350172774 -1.81646618880685,52.697315727134 -1.816609701405,52.6973069617214 -1.81672967488591,52.6972963618921 -1.81673689029086,52.6973215369711 -1.81679024667712,52.697311733286 -1.81683615264807,52.697303716031 -1.81685092687328,52.6973010427953 -1.81686423245525,52.6972992653645 -1.81687314626894,52.6972974820629 -1.81688205634851,52.6972965968252 -1.81689389327968,52.6972957169961 -1.81690279588877,52.6972966287851 -1.8170093162294,52.697294096868 -1.81708178849384,52.6972933094857 -1.8171454787057,52.6972925094439 -1.81716914657959,52.6972925458635 -1.81719134729871,52.6972934780916 -1.8172904097908,52.6972945294264 -1.81733335525764,52.697294595454 -1.81737922385345,52.697295564928 -1.81741179807162,52.697295614987 -1.81742509617733,52.6972956354206 -1.81742504402869,52.6973082173158 -1.81742643071431,52.6973270924095 -1.81743084100237,52.6973522631364 -1.81749893648143,52.6973478737959 -1.81758179497279,52.6973435079802 -1.81764684074887,52.6973391138727 -1.81772384253273,52.6973347389695 -1.81780669726268,52.6973312710612 -1.81789699861596,52.6973269155381 -1.81802281960941,52.6973181213001 -1.81804503149234,52.6973163582752 -1.81805394526524,52.6973145739857 -1.81813978763785,52.6972967314089 -1.81815152215331,52.6973210143524 -1.81827884881822,52.6973023362105 -1.81826857914459,52.6972780555202 -1.81836784452626,52.6972593343554 -1.81854854571181,52.6972262685979 -1.81876026005663,52.6971870478888 -1.81887722371562,52.6971665562542 -1.81900307364152,52.6971505710913 -1.81901198734508,52.6971487867316 -1.81873965476016,52.6964427029898 -1.81849032779393,52.6958993204505 -1.81835828678107,52.6956419971578 -1.8181351035837,52.6952101835523 -1.81853048072562,52.6951254102542 -1.8188253392143,52.6950386853564 -1.81922280038729,52.6948019411818 -1.81938912427521,52.6946726894423 -1.81950505053245,52.6945461468223 -1.81952282028427,52.6945264027723 -1.81972208938631,52.6943055317404 -1.8198260585358,52.6941789706534 -1.81992606219054,52.6939777215356 -1.8199964361019,52.6937728315608 -1.82003596511823,52.6935032777566 -1.82031303401939,52.6937967667051 -1.82045005923453,52.6939398696213 -1.82051467283741,52.6940406231118 -1.82055129166692,52.6941252472213 -1.82062675469414,52.6941379431534 -1.82079211900228,52.6942127856132 -1.82101922605864,52.6940440802392 -1.8211719865361,52.6939481483375 -1.82137814120327,52.6938316256026 -1.82169698620533,52.6936621578223 -1.82187779533543,52.6935680641309 -1.82258175654161,52.6932796418064 -1.82268277590611,52.6931863266815 -1.82319520646484,52.6927141879338 -1.82323242601581,52.6926504344058 -1.82322754340238,52.6923771285093 -1.82320009982352,52.6922243058864 -1.82317268183369,52.6920345472994 -1.82313639166154,52.691867243332 -1.82309119772275,52.691700016011 -1.82295237403165,52.691276427672 -1.82277367981981,52.6908185389608 -1.82261959363711,52.6905207467297 -1.8225490856232,52.6904002141393 -1.82253875739231,52.6903903127831 -1.82276586888089,52.6901838589341 -1.82277059286778,52.6901317412167 -1.8227720865218,52.690124553512 -1.82277357869585,52.6901173658049 -1.82277506724534,52.6901110770588 -1.82277516144222,52.6900877112668 -1.82277373448875,52.6900787212734 -1.82277230390813,52.6900706311397 -1.82277087547271,52.690061642043 -1.82276944489679,52.6900535510104 -1.82276498903424,52.6900391653981 -1.82272389795321,52.6899743075086 -1.82267830879752,52.6899059369234 -1.82265770178845,52.689873553271 -1.82262949147514,52.689881599166 -1.82250518648173,52.6899128683872 -1.82250515745203,52.6899200582765 -1.8224281764072,52.6899226392638 -1.82236900504139,52.6899252468254 -1.82234264280606,52.689838032851 -1.82233698689327,52.6897885956293 -1.82232405466189,52.6896986149321 -1.82231964620242,52.6896725464065 -1.82231870972797,52.6895422317394 -1.8223173555298,52.6895152688135 -1.82231457301448,52.6894793158858 -1.82231190311088,52.6894155032583 -1.82230772753676,52.6893318275136 -1.82230649322896,52.6892752069647 -1.822509199062,52.6892818008791 -1.82273990511066,52.6893019171191 -1.82290838812175,52.6893255342639 -1.82311982183047,52.6893761769111</coordinates></LinearRing></outerBoundaryIs></Polygon>
  </Placemark>
