  <Placemark>
	<Style><LineStyle><color>ff0000ff</color></LineStyle><PolyStyle><fill>0</fill></PolyStyle></Style>
	<ExtendedData><SchemaData schemaUrl="#Wards__December_2019__Boundaries_EW_BFE">
		<SimpleData name="objectid">3432</SimpleData>
		<SimpleData name="wd19cd">E05008935</SimpleData>
		<SimpleData name="wd19nm">Anston and Woodsetts</SimpleData>
		<SimpleData name="wd19nmw"></SimpleData>
		<SimpleData name="bng_e">453373</SimpleData>
		<SimpleData name="bng_n">383992</SimpleData>
		<SimpleData name="long">-1.19967</SimpleData>
		<SimpleData name="lat">53.350151</SimpleData>
		<SimpleData name="st_areashape">19236344.0515635</SimpleData>
		<SimpleData name="st_lengthshape">24052.3463950124</SimpleData>
	</SchemaData></ExtendedData>
      <Polygon><outerBoundaryIs><LinearRing><coordinates>-1.23878069497932,53.3365175634351 -1.238415332987,53.3365359916449 -1.23818197311146,53.3365749404002 -1.23794920925381,53.3365734555125 -1.23775161280035,53.336537148983 -1.23755278763651,53.3364863671385 -1.23737935450184,53.3364421272002 -1.23711912640332,53.3363766642783 -1.23693534688922,53.3363224728481 -1.23605012882327,53.3361073500893 -1.23594750980349,53.3362236020384 -1.23577705270624,53.3361792880177 -1.23558805910694,53.3360010544714 -1.2351428536514,53.3359559695352 -1.23496733006846,53.3359458594712 -1.23478589892933,53.3359267254112 -1.23457623362965,53.3358939308477 -1.23421419068182,53.335816936463 -1.23366728835151,53.3356633613687 -1.23292544913518,53.335408698281 -1.23282840410976,53.3353793195527 -1.23263714537305,53.3353214789083 -1.23255070439385,53.3352876755795 -1.23240542635319,53.3355176824746 -1.23239032177438,53.3355175854001 -1.23223915670636,53.3354887572168 -1.23180433379766,53.3353691427824 -1.2317579440994,53.3353598585009 -1.2315571285405,53.3353378991594 -1.23143381045561,53.3353442938645 -1.23141593954416,53.3353396863633 -1.23103305128448,53.3352518544071 -1.23057772370063,53.3351850310394 -1.23024694327937,53.3351190994704 -1.23008117284865,53.3350695060229 -1.22995864235991,53.3350390627003 -1.22953050049874,53.3349617168544 -1.22889142981648,53.3348397861492 -1.22867133235956,53.334802420418 -1.22845708968091,53.3347767745874 -1.22802136941666,53.334701172071 -1.22759676676282,53.334599580998 -1.22718061081576,53.3345240120364 -1.22694353136925,53.3345152886632 -1.22689554357928,53.3345122823649 -1.22679594663505,53.3346177624792 -1.22619031906194,53.3347288619754 -1.2260037258128,53.3347492192658 -1.22589776283814,53.3347134868602 -1.22577643588398,53.3346920320379 -1.22568949801955,53.3346860770768 -1.22568343168925,53.3346860377479 -1.22566846830883,53.3346850418765 -1.22558175794858,53.3346665078613 -1.22550030836651,53.3346857492494 -1.22540861051986,53.3346896470858 -1.22522436517098,53.3346623931631 -1.22512669312999,53.3346680497488 -1.22506277184759,53.3347107677394 -1.22501468642254,53.3347131514164 -1.2249877948055,53.3347075855549 -1.22495186526249,53.3347019610379 -1.22491114304361,53.3347079869981 -1.22485406996887,53.334707616601 -1.2248059032236,53.3347144921709 -1.22475773644676,53.33472136862 -1.22468883125407,53.3347110365732 -1.2246186052283,53.3346917100034 -1.22450315006001,53.3346810756335 -1.22440430051153,53.3346696510261 -1.22424358517026,53.3346695052124 -1.22420907719901,53.3346674842479 -1.22415819924051,53.3346599646717 -1.22403272600675,53.3346214081817 -1.22386531538387,53.3345807822177 -1.22385936306085,53.3345744533107 -1.22379006605421,53.3345038217314 -1.22373464117539,53.3344944756005 -1.22364439036244,53.3345073682934 -1.22360958785417,53.3345215193377 -1.22350855891426,53.3345416208368 -1.22344534739601,53.3345519925881 -1.2233943450825,53.3345444718766 -1.22333606434705,53.3345287268781 -1.22325262026427,53.3344940374091 -1.22323641491436,53.3344795547402 -1.22320730905875,53.3344254490849 -1.22291855648025,53.3342006271974 -1.2227765545196,53.3341655563766 -1.22274655255711,53.3341608677285 -1.22249875601373,53.3341628494003 -1.22237819361606,53.3341881242605 -1.22227154975726,53.3341901255482 -1.22217246460915,53.3341849868799 -1.22210817477442,53.3341728865728 -1.22203816149245,53.3341418782676 -1.22195934054579,53.3340982320893 -1.2217867167668,53.3340108410562 -1.22132611563756,53.3339018039336 -1.22116308693145,53.3338656053459 -1.22102348706065,53.3338619992342 -1.22094403893808,53.3338596833029 -1.2207646299372,53.3338935585783 -1.22058474178996,53.3338789063528 -1.2204910728405,53.3338279732088 -1.2203872739271,53.3337554074966 -1.22029954703935,53.3337045129871 -1.2201543646771,53.3336810998647 -1.22007781293011,53.3336761065836 -1.220014716414,53.3336801879384 -1.21994250035848,53.3336887022042 -1.21984468888716,53.3336952524124 -1.21977999123785,53.3337056125144 -1.21972894296755,53.3337007865126 -1.21969055096954,53.3336672868192 -1.21968418342819,53.3335206833146 -1.21969258738878,53.3334740109645 -1.21968862201527,53.3334470264359 -1.2196664339911,53.3334280107933 -1.21960339328351,53.3334222075239 -1.21955521078705,53.3334299797265 -1.21926065121353,53.3335251044885 -1.21921702484685,53.3335275149739 -1.21912543719913,53.3335323075544 -1.21911028422057,53.3335349041625 -1.21902790451252,53.333523582778 -1.21895192025066,53.3334943304464 -1.21889480300511,53.3334148796574 -1.21885173881853,53.3333049684873 -1.21881301166789,53.3332831488259 -1.21875332968069,53.3332629889028 -1.21869951565449,53.3332536509661 -1.21842352348993,53.3333965203527 -1.218378673096,53.3333845443489 -1.21790653249595,53.3332574461686 -1.2176658684694,53.3331946742157 -1.21743602217621,53.3332039516347 -1.21741793212693,53.3332047319302 -1.21733383898983,53.3332059775564 -1.21716595509411,53.3331851074271 -1.21704311128779,53.3331726203629 -1.21694000024606,53.3331440875874 -1.2168282954345,53.3330912363055 -1.21672152308067,53.3331004197892 -1.21666286738749,53.3331054272535 -1.2165675286827,53.3331461376471 -1.21650463572782,53.3332203088357 -1.21643852591719,53.3332198750119 -1.21631133282791,53.3331947781961 -1.21624104614657,53.3331790398096 -1.21608481959666,53.3331843044471 -1.21598805947571,53.3332214105051 -1.21589761886786,53.3332379803649 -1.21584536666926,53.3332177777832 -1.2158304863561,53.3332122886897 -1.2157485692212,53.3331758061206 -1.21568004899148,53.333144803763 -1.2155657072263,53.333154836252 -1.21548855770497,53.3331893750592 -1.21543702487365,53.3332177910157 -1.2153932671008,53.3332273882554 -1.21538120867385,53.3332300047002 -1.21532268435976,53.3332278232815 -1.21523916739229,53.3331976200751 -1.21508121139239,53.3331282881474 -1.21492788639299,53.3330562907721 -1.21489494767977,53.3330497839619 -1.21485125585264,53.3330557868913 -1.21481486646528,53.333075316247 -1.21478437205094,53.3330975809421 -1.21475844070631,53.3331207744999 -1.2146704699842,53.3331714166189 -1.21464018964098,53.3331820001894 -1.21460705163269,53.3331862756247 -1.21456058590248,53.333181476567 -1.21452781970948,53.3331722751065 -1.21436081246158,53.3331037806354 -1.21428841236587,53.3330413007936 -1.21424237544249,53.3330131412354 -1.21422739499707,53.3330130426498 -1.21416130353659,53.3330117088216 -1.21409157956339,53.3330462956032 -1.21406229716136,53.3330901344678 -1.21405629948611,53.3331673754688 -1.21397209091037,53.3331749081956 -1.21381508690689,53.3331415245033 -1.21378668722504,53.3331305547657 -1.21373169549283,53.3330978426376 -1.21366947238552,53.3330543001219 -1.21355118548526,53.3329555730608 -1.2133746665573,53.3328321103004 -1.21324537833757,53.3327593702302 -1.21319643699497,53.3327275965767 -1.21315786957675,53.3327039783221 -1.21312719227857,53.3326552520273 -1.21310068335944,53.3326290175368 -1.2130696759875,53.3325982608831 -1.21288777727223,53.3325250837724 -1.21280725135985,53.3324939996973 -1.21275698934463,53.3324532312341 -1.21272439828956,53.332427855416 -1.21243578388961,53.3321185396272 -1.21239050996845,53.3319681742661 -1.21248265095114,53.3318590625196 -1.21239370069086,53.3317946745989 -1.2123862655423,53.3317883353195 -1.21238027542043,53.3317101173254 -1.21217475841535,53.3316961809504 -1.21196328226999,53.3316831037508 -1.21175408307503,53.3317077826084 -1.21161262638014,53.3317248204751 -1.21153025254895,53.3317134928793 -1.21113683649904,53.3316299301169 -1.21106802268299,53.3316150981428 -1.21100733689911,53.3313271431777 -1.21097630053162,53.3312980927049 -1.21083067789936,53.3312926377549 -1.21072613883805,53.3312613944206 -1.21067865289085,53.3312314261498 -1.21066400577185,53.3312133574735 -1.21062341055473,53.3310513397986 -1.21062344366834,53.3310495431928 -1.21054796841537,53.3309932410216 -1.21049253897405,53.3309039123435 -1.21030241093386,53.3308747983158 -1.21021034557188,53.3308184760789 -1.21006038448999,53.3308067003436 -1.20996000505541,53.3307916588668 -1.20986126987555,53.3307748304627 -1.20972683428488,53.3307335035949 -1.20943030451633,53.3306937990533 -1.20939576597173,53.330693570349 -1.20933707961385,53.3307003699217 -1.2092962265229,53.3307135787068 -1.20927804486373,53.3307260387674 -1.20924224551917,53.3307940954106 -1.20923005468955,53.3308038994546 -1.20921485238625,53.3308091901399 -1.20912632415479,53.3308095026149 -1.20899914260283,53.3307843979983 -1.20892901197117,53.3307605692277 -1.2088340437686,53.3307006321316 -1.20873484678052,53.3306217063336 -1.20868109802639,53.3306024793944 -1.20865409505419,53.3306031992815 -1.20863438525801,53.3306111557045 -1.20861000492212,53.3306307636775 -1.20860304792319,53.3306856218618 -1.20857770453684,53.3307573430679 -1.20855765466783,53.3308641432968 -1.20843283703303,53.3308785928941 -1.2083625072661,53.330865546119 -1.20832066708325,53.3308517893535 -1.20829088360384,53.3308354168352 -1.20825265280759,53.3307938273415 -1.20817581432872,53.3306440599003 -1.20814640485387,53.3306142104866 -1.20809298863769,53.3305770136345 -1.20803040944347,53.3305532344165 -1.20794955846347,53.330540117602 -1.20787152925002,53.3305351074166 -1.2076116629969,53.3305414700737 -1.2075144739817,53.3305147660888 -1.20749039097388,53.3305181998833 -1.20747818469395,53.3305289025105 -1.2074733793624,53.3305477413286 -1.20743515469407,53.3305861278811 -1.20738012619867,53.330636084481 -1.20734829295562,53.3306502504464 -1.20730768033114,53.330657169912 -1.20723110262487,53.3306539657717 -1.20717575987705,53.3306473080437 -1.20702770106288,53.3306130758517 -1.20695834131543,53.3306278913296 -1.20688796639166,53.330697605235 -1.20678678496268,53.3308128530461 -1.20668126962682,53.3308346172538 -1.20655685952917,53.3308203111938 -1.20639927218663,53.3308192638212 -1.20639764601265,53.3308201518746 -1.20614740461135,53.3309550758072 -1.20609758788917,53.3309709195927 -1.20581055075657,53.3310670486353 -1.20570320664655,53.3311004814361 -1.20557758739853,53.3311580555387 -1.20537236000807,53.3312088085657 -1.20530934943859,53.3312083891816 -1.20521625619349,53.331207769513 -1.20504087676561,53.3311913257459 -1.20494911836786,53.331198801823 -1.2048088286672,53.3312329132962 -1.20475765818654,53.3312415584073 -1.2047248559119,53.3312278614735 -1.20466381413273,53.3312013950381 -1.20460552683311,53.3311866285395 -1.20457851562671,53.3311810572114 -1.20455151222927,53.3311817761698 -1.20454355951923,53.3312032895962 -1.20453569803341,53.3312266013552 -1.20455899536993,53.331345462165 -1.20455680923562,53.3314631644423 -1.20452242142496,53.3315348236674 -1.20447043271291,53.3315874948881 -1.20443709449023,53.3316026397049 -1.20439617228385,53.3316194400171 -1.20434500125775,53.3316280849504 -1.20432390691736,53.3316306400635 -1.20427430575676,53.3316348029134 -1.20422475318538,53.3316362694788 -1.2041422828442,53.331630328402 -1.20368959286171,53.3315059087285 -1.2036574403115,53.3315371454859 -1.20345553383986,53.3317353785096 -1.20342359819847,53.3317549350325 -1.20339347264396,53.3317637199684 -1.20334545647138,53.3317625007313 -1.20331415590823,53.3317479145679 -1.20327089966353,53.3316505766166 -1.20317291456634,53.3316732859559 -1.20311691153456,53.3316953774616 -1.20301844133234,53.3317441441648 -1.20299582698758,53.3317484857242 -1.20294469963088,53.3317481444201 -1.20289986308552,53.3317424537139 -1.20285075584804,53.3317133703374 -1.2028072872082,53.3317139789707 -1.2027905639154,53.3317210555148 -1.20273970802454,53.3317926042833 -1.20270508500396,53.3317968664983 -1.20259551039099,53.3317970335954 -1.20256564482368,53.3317851516087 -1.20243641323988,53.3317106032288 -1.20237224424368,53.3316859124541 -1.20217349965754,53.3316342626191 -1.20211379317318,53.3316158908665 -1.20208557087178,53.3316022238112 -1.20158062062832,53.3312995222932 -1.20150057723714,53.3312431830215 -1.20138085793269,53.331143533602 -1.20121079989686,53.3310013126194 -1.20081701326524,53.3307802213413 -1.20064406505828,53.3307134630686 -1.20038729911429,53.3306335615878 -1.20025712143442,53.3306101327323 -1.19931668079346,53.3303926441027 -1.19903165447404,53.3302154104564 -1.19883176343252,53.3299876176238 -1.19851092182854,53.3297993581797 -1.19807824091333,53.3296534789468 -1.19773436957358,53.3294921100644 -1.19733700548991,53.3293842972723 -1.19698044631584,53.3293386719205 -1.19677832927384,53.3292303752604 -1.19635948811041,53.3290667000694 -1.19594424597455,53.328948787277 -1.1957075466634,53.3288429510666 -1.19503287872241,53.3284653830811 -1.1946981849645,53.3282976870905 -1.19431759309013,53.3280956235744 -1.19394045582519,53.3278746206214 -1.19362375409682,53.3277052473124 -1.19346739900941,53.3276394886605 -1.19304522107018,53.3275755251162 -1.1927356966397,53.3275051334011 -1.19259859116017,53.3274493897376 -1.19240920853626,53.3273824179928 -1.19230915077676,53.3273511872818 -1.1922390043991,53.3273291443431 -1.19191355157356,53.3271517089453 -1.1915730743885,53.3269767764937 -1.19145895931457,53.3268969244094 -1.19088150153674,53.3266260274918 -1.19048644951142,53.3264768709968 -1.19013025426933,53.3263350756553 -1.18974301373381,53.32617249035 -1.18937367232157,53.32601263136 -1.18913104317747,53.3259013500105 -1.18904303752011,53.3258746919608 -1.1888058112873,53.325870380329 -1.18877023539768,53.3258467747575 -1.18859234495198,53.3258077318351 -1.18776624232574,53.3255882334793 -1.18727890271195,53.3255543574462 -1.18679209615183,53.3255708052033 -1.18637783969232,53.3255670779317 -1.18585349422519,53.3255850623235 -1.18558182699749,53.3255823066288 -1.18394301195888,53.3255477259507 -1.18198321415639,53.3254938420566 -1.18022405504924,53.3254673664127 -1.17884726042241,53.3253903952345 -1.17866281444843,53.3253774406287 -1.17831016598817,53.3253696163953 -1.17741327160361,53.3253202912162 -1.1770474766898,53.3252943995793 -1.17688390240009,53.3252905733327 -1.17650663760763,53.3253140249853 -1.17608178014343,53.3253919608879 -1.17571603187288,53.3255180208175 -1.17570843056858,53.3255206639045 -1.17565361521707,53.3255580261007 -1.17562823875631,53.3255515601565 -1.17549974880653,53.3255192192234 -1.17541392491554,53.3256111822365 -1.17535192506647,53.3256359139979 -1.17518386979196,53.325703943106 -1.17511085119313,53.3256773773655 -1.17498738747415,53.3256989874573 -1.17486706417883,53.3257053429314 -1.17479803383213,53.3257030668611 -1.17465872940082,53.3256859263322 -1.17458515548763,53.325688112086 -1.17434359563832,53.3257611126902 -1.1742771880965,53.3257768264575 -1.17425460930195,53.325779366496 -1.17388000366372,53.3257417223801 -1.17376779698866,53.3257957586418 -1.17374190059856,53.3258162475189 -1.17373568303426,53.3258305817617 -1.17374956206847,53.3259645715437 -1.17372545586921,53.3260462668271 -1.17358045115939,53.3262474482258 -1.17345766506299,53.326387767652 -1.1732036300536,53.3264012804127 -1.17314648238737,53.3264053770616 -1.17303965135752,53.3264181146512 -1.17293867529582,53.326435385348 -1.17263116958339,53.3264997465682 -1.17259497742328,53.3265084810843 -1.17248004079603,53.3265499166196 -1.17226781866815,53.3266544783701 -1.17219494586678,53.3266971947553 -1.17220999544569,53.3268536573331 -1.17218910160549,53.3269227050961 -1.17207297256909,53.3269488557011 -1.17195071985235,53.326907568343 -1.17177999670026,53.3268057367327 -1.17157719436976,53.3265768883919 -1.17147769638157,53.3265240762585 -1.17144732407691,53.3265391411916 -1.17142135658716,53.326563223641 -1.17141200785412,53.3265793337107 -1.17140458658749,53.3266557532114 -1.17137595067506,53.3267346318103 -1.17128723152418,53.3268220782723 -1.17127777836048,53.3268435790103 -1.17128404130785,53.3269101198983 -1.17113598657166,53.3271850525266 -1.17107506669083,53.3272304572387 -1.17103869965212,53.3272481769407 -1.17093915621665,53.327274441896 -1.17075444364805,53.3272749535326 -1.17053305716305,53.3271556933537 -1.17040992156058,53.3272303188885 -1.17034485850132,53.3272595201482 -1.17024962926931,53.3272930936127 -1.17018611917247,53.3273124198642 -1.16977741713528,53.327411114471 -1.16976350473027,53.327426293727 -1.16974769215794,53.327469316529 -1.16980703272651,53.3275820571776 -1.16958642596614,53.327658787901 -1.16930390596358,53.327902228015 -1.16922599931769,53.3280445630821 -1.16889661121463,53.3280746149636 -1.168903905706,53.3282409985496 -1.16858386604841,53.3282549396965 -1.16822878388557,53.3282884040186 -1.16802561294251,53.3283148415653 -1.1676736081839,53.3284256067354 -1.16736803623866,53.3285421777217 -1.16703880004244,53.3287169009157 -1.16689036492198,53.3287868533195 -1.16622968144546,53.3290204508697 -1.16596101637861,53.3290913571282 -1.16593691558663,53.3290956808725 -1.16587196856564,53.3291122999639 -1.1658283088049,53.3291164866875 -1.16546136776521,53.329148152772 -1.16475567638901,53.3292258777921 -1.16437803741474,53.3292663616078 -1.16392435447985,53.3292766567432 -1.16388225082516,53.3292772600088 -1.16210114075234,53.3303712896108 -1.16086720623404,53.3311158163915 -1.16080177231889,53.3315422849282 -1.16078476742692,53.3316455959583 -1.16075333629462,53.3317963401198 -1.16068192264837,53.3319909251913 -1.16059151498927,53.3321565307944 -1.16051159129964,53.3323303881224 -1.16048681863497,53.3323688539997 -1.16033477854254,53.3325394163348 -1.16015729102383,53.332782676476 -1.16012302214101,53.3328507289367 -1.16009913267265,53.3329198433411 -1.15998481102524,53.3330798884163 -1.15965255771083,53.3333292452257 -1.15953541589687,53.3334056987017 -1.15938481429022,53.3335089646057 -1.15932546369131,53.3335489830081 -1.15887780929327,53.3337857515909 -1.15867135448566,53.333895810463 -1.15842104006819,53.3340261377463 -1.15790830917309,53.3342912885199 -1.1573101159754,53.3346205311793 -1.1567840533276,53.3348703065997 -1.15613356308512,53.3351883903542 -1.15462606804721,53.335859925448 -1.15336589938087,53.3364011032904 -1.15225991329414,53.336895739849 -1.15139796001126,53.3372716022894 -1.15139184017463,53.3372742544049 -1.15000850972349,53.3378900067768 -1.14921588623381,53.3382519716676 -1.14863732631531,53.3384968437892 -1.14862053823827,53.3385066086986 -1.14835006761833,53.3386637298156 -1.14808143759237,53.3388838572096 -1.1479107638982,53.339003949157 -1.14748741435407,53.3393011479839 -1.14681129852632,53.3397610713236 -1.14658877929913,53.3399284169253 -1.1460824127612,53.3403140685276 -1.14571005148364,53.3406116259907 -1.14553292186153,53.3406822450054 -1.14541632628097,53.3407290355762 -1.1452592259907,53.340770144093 -1.14500951672024,53.3407917162092 -1.14425351919888,53.3408159444022 -1.14378907412178,53.3408377695042 -1.14338301809344,53.3408627082576 -1.14149194567024,53.3409426452722 -1.14090882816725,53.3409662999489 -1.14052320368141,53.3410219299052 -1.14013897312231,53.3410820612609 -1.13981171335548,53.3411479940785 -1.13968942082808,53.3411821574587 -1.13920548359388,53.3412677151522 -1.13883267763473,53.3413629710851 -1.13871810210376,53.3413828117799 -1.13872226985762,53.3413972193836 -1.13895471669537,53.3425351165775 -1.13914577613073,53.3435638976976 -1.13936776584331,53.3445515642222 -1.13935974458255,53.3447286260758 -1.13969445866962,53.3454078870325 -1.13975624208542,53.3455503159895 -1.13998036828791,53.3459834525883 -1.14028636046273,53.3465276209307 -1.14029976602586,53.3465323000783 -1.14054623763276,53.3465996762084 -1.14065228070931,53.3466291965568 -1.14083162734488,53.3466781160762 -1.14087489105842,53.3466946031482 -1.14100746087464,53.3467476780075 -1.14120820530612,53.3467733872935 -1.14136100878819,53.3467933586814 -1.14155178271676,53.3467974278112 -1.14180500695424,53.3467507241724 -1.14204617332343,53.3466383347006 -1.14240221812285,53.3464853433453 -1.1425246323918,53.3464457856481 -1.14280400090916,53.3464477940937 -1.14286322209362,53.3464158690454 -1.14294376547079,53.3463706184987 -1.14323077873353,53.3462135350227 -1.14326396755448,53.3462074831054 -1.14351769880092,53.3462155961185 -1.1435812868014,53.3461881947173 -1.14383588720961,53.3460785941872 -1.14396768200964,53.3460220282453 -1.14418036887466,53.3459768266225 -1.14430184675918,53.3459839887665 -1.14455302435844,53.3458967371787 -1.1446042112844,53.3458144317604 -1.14461049453601,53.3458036929796 -1.14471240974843,53.3457361289921 -1.14490705105285,53.3456952893276 -1.14504900394626,53.3457313536028 -1.14507143344947,53.3457369067936 -1.14541650347528,53.3456053953357 -1.14566142499411,53.3456017589689 -1.14575048170454,53.3455826270967 -1.14579747356866,53.3455613969645 -1.1459122931061,53.3455235784907 -1.14610902408692,53.345526785257 -1.14623334691158,53.3454719612617 -1.14638888723093,53.3455036277269 -1.14688642519854,53.3454892163953 -1.14716931514341,53.3454633820894 -1.14731859050448,53.3454365925921 -1.14746113555131,53.3454430042412 -1.14761288220805,53.3453668073318 -1.14768065523026,53.3453529142823 -1.14778600251373,53.3453428834686 -1.14793828682796,53.3453142279962 -1.14799884465727,53.3452894993955 -1.14807954133652,53.3452361587164 -1.14811289122896,53.3452220185772 -1.14817924798771,53.3452108108716 -1.14839531205205,53.3452195435003 -1.14845257773606,53.3452855515558 -1.14865202697177,53.3452267682475 -1.14883391720336,53.3452226753991 -1.14899796029596,53.345206772213 -1.14912720623673,53.3452777871054 -1.14925732814117,53.345304775798 -1.14940112769468,53.3453228749658 -1.14956513524225,53.3453087684883 -1.14963466041588,53.3452876976587 -1.14978643825462,53.345209701551 -1.14989824349769,53.3451799460147 -1.15016403567403,53.3451791450563 -1.15030303288608,53.34513969805 -1.1504261908207,53.3451432713954 -1.15052161693613,53.3451026148019 -1.15080900827477,53.3449994336021 -1.15084870837051,53.3449709613907 -1.15093253345836,53.3449095531803 -1.15097452966371,53.3449089542729 -1.1512826161049,53.344904857479 -1.15131612505023,53.3448826304725 -1.15134347584505,53.3448648530909 -1.15137709016639,53.3448372344803 -1.15143712997854,53.3448385606904 -1.15178694402663,53.344847341341 -1.15200166341516,53.3448488698191 -1.15225882091155,53.3448336266969 -1.15237506421464,53.3448047990572 -1.15242643796854,53.3447871924856 -1.1524839666364,53.3447651362125 -1.15263561397953,53.3446933369874 -1.15267034033808,53.34468459794 -1.15271698796983,53.3446804362282 -1.15279356639676,53.3446845753949 -1.15284743164897,53.3446912487291 -1.15305792986982,53.344755738278 -1.15317190461888,53.3447664333429 -1.15325062828889,53.3447372482892 -1.1533047944477,53.3447286472194 -1.1534688333758,53.3447127397076 -1.15360835101986,53.3447218181001 -1.15370476224622,53.3447126180876 -1.1537107761379,53.344709066217 -1.15384136809554,53.3446372067232 -1.15388214385024,53.3446294082661 -1.15395598233868,53.3446155551815 -1.15406061386318,53.3446414593794 -1.15421084657486,53.3447162119193 -1.15432332798954,53.3448024688242 -1.15439944475307,53.3448236777449 -1.1545233991763,53.3447868156215 -1.15489776907521,53.344768803088 -1.15514678686168,53.3447831498017 -1.15525931087401,53.3447920357294 -1.15540864719698,53.3448308362854 -1.15555598447439,53.3448264883443 -1.15572518963924,53.3447746693958 -1.15584001779728,53.3447421448264 -1.15595954435643,53.3447727353121 -1.15605982635192,53.3447932154822 -1.15613601547436,53.3448171195054 -1.15627889457519,53.3448819323869 -1.15631722744378,53.3449163510518 -1.15632890114283,53.3449335077706 -1.15635573385895,53.3450235588026 -1.15639429721069,53.3450462973441 -1.15643772619752,53.3450546928827 -1.15648133235129,53.3450541027486 -1.15667974310676,53.3449656454085 -1.15671146126975,53.3449586816457 -1.15684339220656,53.344969500268 -1.15694392270572,53.3450528835068 -1.15692575196093,53.3451391121305 -1.15695752159496,53.3452049356149 -1.15693919402684,53.3452928700849 -1.15703795538465,53.3453906190371 -1.15705861589645,53.3454106248573 -1.15705971182875,53.3454304014714 -1.15706068376885,53.3455319519575 -1.15695733529338,53.345666911544 -1.15688367082459,53.3457473551667 -1.15687692922685,53.3458632285092 -1.15691789930193,53.3459147396567 -1.15697578103271,53.34595019527 -1.15710115112761,53.3459924177028 -1.1571904670534,53.3460353746298 -1.15721548115455,53.3460607127461 -1.1572466501908,53.3461570844777 -1.15727062025013,53.3462354332663 -1.15727134463391,53.3462740790289 -1.15728570970781,53.3463056321022 -1.15731070383131,53.3463382491039 -1.15735783107484,53.3463853101701 -1.15759958878738,53.3465424792305 -1.15749141110391,53.3466207924862 -1.15750614543766,53.3467090506668 -1.15756986650909,53.3467562289608 -1.15768443173217,53.3468064632586 -1.15771255973441,53.3468309243951 -1.15772128140971,53.3468471612138 -1.15771546085344,53.3469100229985 -1.15770399787853,53.3469575677017 -1.15767735376956,53.3470149807494 -1.15783308648568,53.3472703889254 -1.15789868146334,53.3472979013002 -1.1580048796945,53.3473202183441 -1.15806802125181,53.3475417226595 -1.15815403315524,53.3476017285607 -1.1581490629813,53.3477032369705 -1.15831327140887,53.3477547192696 -1.15831092044568,53.3478742181775 -1.15849915333158,53.3479259597787 -1.15869796720509,53.3479749901793 -1.15872765267884,53.3479958674621 -1.15880128499446,53.3480682761492 -1.15882203773752,53.3480836989296 -1.15887721659478,53.3481056549945 -1.15893549153066,53.3481213434954 -1.15916899941833,53.3481634287884 -1.15922253314113,53.3481871699194 -1.15926679808109,53.3482288185237 -1.15930512040883,53.3483459985147 -1.15937454833286,53.3485568533408 -1.15938930262379,53.3485686391212 -1.15947220699239,53.3486294310473 -1.15963693357027,53.3486611453454 -1.15979774720871,53.3486523944049 -1.15987582390392,53.3487320228521 -1.1598993910016,53.3487555532927 -1.16010306338313,53.348942192754 -1.16011753577864,53.3489683547556 -1.16012302178331,53.3489980471003 -1.16011341829983,53.3490267351298 -1.16009726864538,53.3490859295729 -1.16003825102612,53.3491079790435 -1.15990124737819,53.3491213907352 -1.15983115656557,53.3491712188919 -1.15981112938311,53.3491945318852 -1.15980928949052,53.3492124908982 -1.15984701270374,53.3492846456808 -1.15985469350606,53.3493476026706 -1.15984670323642,53.3494517854642 -1.15984394404338,53.349516555579 -1.15991188440486,53.3495763427806 -1.15993308628922,53.3497202707867 -1.15992058225432,53.3498209170705 -1.15986811483155,53.3499697162886 -1.15988133278948,53.3499841877695 -1.15994672368386,53.3500161001194 -1.1600890031472,53.3500431620079 -1.16042845893322,53.350045553807 -1.16047359688096,53.3501186594484 -1.16054442020515,53.3501830498861 -1.16054918849347,53.3503187732287 -1.16067583258701,53.3503726844943 -1.16084403135225,53.3503792603492 -1.16102766643985,53.35051453692 -1.16116910242518,53.3505784357663 -1.16127032376982,53.3506276739218 -1.16142615801932,53.3506458436813 -1.16152635051765,53.3508991505367 -1.16182098132306,53.3508886421417 -1.16192840098802,53.3510008256288 -1.16194019194161,53.3510944553492 -1.16192156415341,53.3511221814107 -1.1618547968656,53.3511540615583 -1.16187958763067,53.35119737019 -1.16206901916687,53.3511888170763 -1.16215447537497,53.3511957081103 -1.16212597931077,53.351271889689 -1.16216379444772,53.3513332618961 -1.16215790874738,53.3514060985913 -1.16239948335393,53.3515749393382 -1.16241972726773,53.3516101268986 -1.16246115551609,53.3518729045781 -1.16251295532292,53.3519918857489 -1.16246196969204,53.352065304461 -1.16246098432634,53.3521156201178 -1.16246035088794,53.3521479652551 -1.16236679301406,53.3521688746226 -1.16230007377764,53.3523500171073 -1.16222256517082,53.352398896175 -1.1621862410884,53.3525648850583 -1.16230357123851,53.3526331053227 -1.16226720161682,53.3527254976586 -1.16221123001642,53.3528257495366 -1.1622262767431,53.352898643421 -1.1623048724603,53.3531041695677 -1.16236374363212,53.3531656895385 -1.16230466848878,53.3531904357985 -1.16232913201602,53.3534782546217 -1.16214315027583,53.3536136280706 -1.16202561859209,53.35386531309 -1.16187924746512,53.3539704118355 -1.16183365139624,53.3541543076237 -1.16195415042171,53.3542126662887 -1.16199532631552,53.3542606714969 -1.16217522808431,53.3543535946596 -1.16259612600745,53.3544940390861 -1.16271892503584,53.3545173668474 -1.16288246015185,53.3546048723564 -1.16371681796834,53.3548866907602 -1.16384470223148,53.3549540851108 -1.16458346723511,53.3552091665483 -1.16516437999588,53.3553839710714 -1.16537798268379,53.3550645707909 -1.16556894321864,53.3549023591955 -1.1657253290599,53.3548233872252 -1.16598357633595,53.3547488110224 -1.16636214242731,53.3546786699778 -1.16672657863656,53.3545580168462 -1.16716947611197,53.3546510622593 -1.16765368215878,53.3547793494592 -1.16807089579688,53.3548047259265 -1.1686490673706,53.3548213410247 -1.1691458493473,53.3548445751099 -1.1697766591815,53.3548552625851 -1.17003999119396,53.3548310381372 -1.17021196776419,53.3547971900297 -1.17037850104167,53.3547309535324 -1.17064268684763,53.3546689920692 -1.17088898827485,53.3546734019948 -1.17090687213916,53.3546007388572 -1.17097755290589,53.3545202661 -1.17110641677659,53.3544609556483 -1.17124372266039,53.3543558750346 -1.17128460197834,53.3542599176582 -1.17134466536054,53.3541839541739 -1.17136631181121,53.3541535513282 -1.17143519803446,53.3541657129924 -1.17149509336776,53.3541751154924 -1.17156849037089,53.3541846118442 -1.17167520012082,53.3541817592139 -1.17204663822055,53.3541654702174 -1.17211737553558,53.3541587726342 -1.17219758917502,53.3541296763673 -1.17230302978011,53.3540387505636 -1.17232576274739,53.3540290236522 -1.17236788776927,53.3540221271508 -1.17239954062611,53.354018753359 -1.17259624295893,53.3540255109781 -1.17276949138829,53.3540024518096 -1.17295966594734,53.3539560557601 -1.17317402046579,53.353901830008 -1.17355511038631,53.3537705807882 -1.17376531716815,53.3537001501263 -1.17402487710532,53.3536398562261 -1.1741199714967,53.3536162532713 -1.17434343375091,53.3535584931413 -1.17478904710659,53.3534339784064 -1.17517166908841,53.3533062403614 -1.1752530875205,53.3532915269049 -1.17547329470711,53.3532418310723 -1.17573760392123,53.3531726694271 -1.17587392482805,53.3531178990222 -1.1759829134257,53.353073722213 -1.17628338250161,53.352992139982 -1.17640215352578,53.3529866708772 -1.17684288034586,53.3529609613277 -1.17686554254316,53.3529548276516 -1.1771925078798,53.3529058662967 -1.17773200195167,53.3528197298458 -1.17815438519934,53.3527299984531 -1.17829338091952,53.3526905200218 -1.17840359268188,53.3526598288767 -1.17854258795986,53.3526203492607 -1.17861240539652,53.3525839879908 -1.17871489237624,53.3525685195129 -1.17894600370697,53.3525764028422 -1.17915146598818,53.3525975883681 -1.1794460509529,53.3525897329974 -1.17989083256962,53.3525847087093 -1.180352453681,53.3525672172241 -1.18077809686908,53.3525395926428 -1.18125443790035,53.3524583085557 -1.18167376269593,53.3523659371638 -1.18184571862566,53.3523320733637 -1.18202826847657,53.3522883963597 -1.18209334776436,53.3522663779023 -1.1821365988049,53.3522846467308 -1.18280236114358,53.3520330233983 -1.18317790390548,53.3518783428946 -1.18342158478858,53.3517855699846 -1.18355099986623,53.3517738765555 -1.18359614961607,53.3517705914424 -1.18397070644381,53.3517453012024 -1.18402788709908,53.3517411994792 -1.18433300919798,53.3517325063733 -1.1844795438025,53.351764960864 -1.18492857083556,53.3518551983594 -1.18533430029748,53.3519299491489 -1.18560852646442,53.3519632734986 -1.18585166714474,53.352211241893 -1.18589005307195,53.352251042229 -1.18607070162443,53.352307090727 -1.18619354121544,53.352328596658 -1.18635238410178,53.3523458556102 -1.18638649513137,53.3523694524822 -1.18677396190718,53.3523756891554 -1.18680363041286,53.3523983567471 -1.1872151605662,53.3524811386976 -1.1879382005832,53.3526173507066 -1.18852844254626,53.352708533153 -1.18928192880631,53.352826882397 -1.18985516525302,53.3528614203935 -1.19010077956359,53.3529017290462 -1.19023125975134,53.3529124999352 -1.19039178337694,53.3529261703426 -1.19075338633521,53.352951090047 -1.19092130903145,53.3529666067749 -1.19116687404469,53.3530096085702 -1.19143639885201,53.3530563668632 -1.19173216787701,53.3531500297348 -1.19261987236536,53.3536333807727 -1.19319780493223,53.3539779533446 -1.1935389116972,53.3542166835038 -1.19386722989256,53.3544112038199 -1.19409597385588,53.3545521236175 -1.19411229760767,53.3546456884794 -1.19433846889782,53.3548378110796 -1.19456861688667,53.3550622192935 -1.19502304150206,53.3555075799026 -1.19499177578979,53.3555693722503 -1.19521050741897,53.3557623408378 -1.19543166307577,53.3559911799935 -1.19562075599941,53.3562387621184 -1.19580540769996,53.3564854160064 -1.19597844247788,53.3567176139972 -1.19609120610645,53.3568675417818 -1.19616480679289,53.3569525064514 -1.19620898092304,53.3570014190228 -1.19624997468471,53.3570547127592 -1.19680707901121,53.3573910387209 -1.1970902023505,53.3575996235275 -1.19781250652541,53.3581051856666 -1.1980789671895,53.3582382632105 -1.19820860578473,53.3582948479067 -1.19834892629196,53.3583434172191 -1.1985029003591,53.3583839901818 -1.19868569068345,53.3584139738358 -1.19912239324511,53.358440271135 -1.19957863408093,53.3584684947768 -1.19977203817738,53.3584940545904 -1.19987992652214,53.3585082577126 -1.20003278493509,53.3585290516916 -1.20045279632442,53.3585669137228 -1.20091713338749,53.3585664311069 -1.20160035349775,53.3585872711105 -1.20195001673272,53.3586111742148 -1.20278560060698,53.3586868454021 -1.20319198639122,53.3587317917735 -1.20356523220438,53.3587801094267 -1.20440723144796,53.3589107160939 -1.20456442263221,53.3589387215822 -1.20487871012129,53.3590064119699 -1.20510885563389,53.3590753384105 -1.20529825365372,53.3591502844124 -1.20533851582674,53.3592503866709 -1.20576900919468,53.3593718651524 -1.20631637413499,53.3595111925621 -1.20682123971493,53.3596709925826 -1.20730109942323,53.359809867187 -1.20810020082519,53.3600641705502 -1.20878843804306,53.3603914190391 -1.20915914156414,53.3605781769151 -1.21035325170411,53.3611739424055 -1.21123225197804,53.3615788192645 -1.21119736551578,53.3616028508532 -1.2111501383112,53.3616375845285 -1.21137436252418,53.3617801455244 -1.21240099499506,53.3623370434145 -1.21270871301347,53.3625143890664 -1.21351815718934,53.3630320144176 -1.21420028928797,53.3634464455739 -1.21455603317465,53.3636338972981 -1.21596552256693,53.3643775854494 -1.21630172296804,53.3645640048374 -1.21666407233129,53.3647165379508 -1.21708134023236,53.3648271063461 -1.2170880323643,53.3648675871448 -1.21717626676005,53.3650560627993 -1.21718799224473,53.3653222151299 -1.2172157070889,53.3656082417282 -1.21724547172773,53.3657081812817 -1.21793336214722,53.3656497855334 -1.21838672314289,53.3655897620942 -1.21878310507959,53.3655285541774 -1.21918233722464,53.3653927799306 -1.2195667412089,53.3652478317027 -1.21997664780611,53.3651040375219 -1.22010947795102,53.3650698592667 -1.22022275976029,53.3650409446038 -1.22038569032909,53.3650887352483 -1.2205679740671,53.3651420442024 -1.22077880984454,53.3651991327701 -1.22160568219831,53.3654274667506 -1.22183129319478,53.3655035203524 -1.22198967553397,53.3655494823471 -1.22240951782449,53.3656897917204 -1.22274872962461,53.3657944395308 -1.2229055773451,53.3658430859912 -1.22295482340784,53.3658604801562 -1.2234735284426,53.3659339434927 -1.2241205117301,53.3660532589333 -1.22454471207937,53.3661180167018 -1.22559858517315,53.3662596435374 -1.22582957821892,53.3662854926747 -1.22677593492331,53.366391367571 -1.2274968254897,53.3664193948613 -1.22799931596298,53.3664720661921 -1.22846939247627,53.3664876836844 -1.22911398565742,53.3664936429949 -1.22935396838831,53.3665158588986 -1.22978632820804,53.3665411126016 -1.23064614480721,53.3667812776567 -1.2314220865262,53.3670074190236 -1.23187228207933,53.3671298300658 -1.23228612377914,53.3672619804977 -1.23265804877432,53.3673892769013 -1.23306025999381,53.3675068817423 -1.23378696785686,53.3677920018605 -1.23454085215404,53.3680754939243 -1.23500392881113,53.3682340103276 -1.23544016014289,53.3683832763973 -1.23609549641769,53.368628386252 -1.2358590852813,53.3689873073672 -1.23718029126572,53.3694029117582 -1.23782820296133,53.369648863482 -1.23839709201771,53.3698583630706 -1.23876878572563,53.3700009160352 -1.23956620144794,53.3702864505154 -1.24000232580744,53.3704437871413 -1.24145533391267,53.3709717004184 -1.24228422330114,53.371266403379 -1.24305941877084,53.371542787488 -1.24457363966152,53.3720962115636 -1.24535820072789,53.3723491866709 -1.24553552507343,53.3724411561034 -1.24572976326165,53.3725016908424 -1.24587335978493,53.3725457313676 -1.24609839297728,53.3725678194362 -1.24650090782893,53.3727573601758 -1.24660966621823,53.3728092662583 -1.24688937095954,53.3728865131997 -1.24724187253456,53.3730101377301 -1.24742276417203,53.373068787865 -1.24766015134375,53.3731565500837 -1.24796740803165,53.3732950729466 -1.24841912511495,53.3734220142515 -1.24860549410821,53.3735076558469 -1.24889044260474,53.3737099274128 -1.24902579272223,53.3737934507082 -1.24915508586818,53.3738760369111 -1.24929821650305,53.3739470273675 -1.24945036219376,53.3740127736788 -1.24977401727513,53.374156786288 -1.24932515589379,53.3745503430742 -1.24943947269856,53.374632025863 -1.24952896214316,53.3746667360253 -1.24971584422281,53.3747236234581 -1.24991343321024,53.374770692997 -1.24991504437762,53.3747707031137 -1.25003170496193,53.3748037857729 -1.25030527814706,53.3748854787003 -1.25066311584679,53.3749677903915 -1.2514638613738,53.3751651131539 -1.25146825915119,53.3751687352761 -1.25155950439219,53.3751953660161 -1.25161610536144,53.3751409059738 -1.25162834666059,53.3751284021332 -1.25190246623401,53.3748397781691 -1.25262696978693,53.373976885772 -1.25371692372217,53.3727658154407 -1.25462497347111,53.3717206518086 -1.2551349996105,53.3711693009692 -1.25549965510424,53.3707742096911 -1.25561411914912,53.3706769744651 -1.25551751635802,53.370609875197 -1.25542987724359,53.3705545142884 -1.25539895772532,53.3705155912008 -1.25535756471772,53.3704730990344 -1.25532359133148,53.3704387402094 -1.25527213644899,53.3703764147174 -1.2552430295774,53.3703187228707 -1.25516954598694,53.3701411484445 -1.25515410177827,53.3700745548962 -1.25538120909435,53.3699843124879 -1.25527418648891,53.3699107687997 -1.25515381329495,53.3698354330211 -1.2549976045836,53.3697401048512 -1.25430249985104,53.3692674121947 -1.2534453868329,53.3686922505736 -1.25281024374827,53.3683142778442 -1.25229010894054,53.3679784477284 -1.25130584648142,53.3673718312591 -1.25048129224031,53.3668310009456 -1.25005876187853,53.3665910284997 -1.2500571510197,53.3665910183866 -1.24950377340305,53.3662738420947 -1.24850861780051,53.3656078339998 -1.24809400307367,53.3653418455456 -1.24759910012834,53.3650268260631 -1.2472722046026,53.3648179980872 -1.24690162155821,53.364613477946 -1.244876349976,53.3626349153603 -1.24422957951557,53.3619853600619 -1.24379534227329,53.3615646728066 -1.24376001192254,53.3615168240746 -1.24370243518391,53.3614589488455 -1.2436627385322,53.3614128692536 -1.2436156452847,53.3613576661487 -1.24362090060448,53.3613127691423 -1.24362267460293,53.3612966054373 -1.24362441525049,53.3612822392357 -1.24372793789186,53.3612083111325 -1.24382507039384,53.3611523142408 -1.24383446390382,53.3611326042374 -1.24385478606801,53.3610904991715 -1.24382685282941,53.3610516822595 -1.24377340068341,53.3610198029584 -1.24367913919531,53.3609976398637 -1.24363596288079,53.3609731036131 -1.24363040229665,53.3609443139532 -1.24363993910849,53.3609165178514 -1.24381000913851,53.360820545001 -1.24384366134174,53.3607812199967 -1.24384472917497,53.3607209305 -1.24378358533006,53.3606127119812 -1.24377594261103,53.3605335866084 -1.24378524051866,53.360519267349 -1.24379754209027,53.3605031702885 -1.24384325426566,53.3604684150207 -1.24389922652852,53.3604489998663 -1.24399989503168,53.3604451436665 -1.24413317302371,53.3604747424785 -1.2441915617821,53.360486793502 -1.24422640893428,53.3604708399525 -1.24425106242698,53.3604359503847 -1.24427119562301,53.3603973477956 -1.24430391377044,53.3603337538907 -1.24433097543355,53.3602467610872 -1.24434108415192,53.3601866186638 -1.24429237660506,53.3601386854483 -1.24414275117648,53.3601017044171 -1.24412474439036,53.3600970970805 -1.24405914786167,53.3600724199967 -1.24401013847814,53.3600415576542 -1.24400459368742,53.3600118683512 -1.24410298133021,53.3598848900995 -1.24412911897926,53.3598500099463 -1.24412993025399,53.3598041868267 -1.24413660612246,53.3597699924857 -1.24411923727609,53.3597294456675 -1.24406567209975,53.3597039458631 -1.24396814185713,53.3596916461371 -1.24392150011772,53.3596949454426 -1.24389909538789,53.3596939047643 -1.24387953923563,53.3596928830128 -1.24386322540986,53.3596766047992 -1.24388027121931,53.3596515518815 -1.24398845396195,53.3595659705889 -1.24408144286449,53.359491975497 -1.24410433967381,53.3594722610374 -1.24413025585119,53.3594499607908 -1.24418972332371,53.3594009134061 -1.24437097093092,53.3592609799337 -1.24440297246808,53.3592378192665 -1.24444087280797,53.3592173906792 -1.24461526777588,53.3591285441073 -1.2447859297666,53.3590757070845 -1.24481797712915,53.3590498500229 -1.24483479963597,53.3590373759681 -1.24482378466803,53.3589806944751 -1.24475708747325,53.3589272554529 -1.2446870039257,53.3588971589869 -1.24443825525216,53.3588542500021 -1.24434733473949,53.3588185393949 -1.24411664872005,53.3586930733638 -1.24394404621206,53.3585967290105 -1.24391106667725,53.3585911289064 -1.24390659170664,53.3585919985386 -1.24382202497352,53.3586103338168 -1.24374507320322,53.3586323117809 -1.24349146837212,53.358611835223 -1.24334097314688,53.3586243612355 -1.24330222386049,53.3586088396744 -1.24328764851688,53.3585853833284 -1.24328507747469,53.3585557137237 -1.2432830770153,53.3585007961231 -1.24328035852786,53.3584864016712 -1.243275037194,53.35844413333 -1.24327874007869,53.3584100100818 -1.24327643821343,53.3583650651948 -1.24327682030561,53.3583435013212 -1.24329688676744,53.3583157719461 -1.24333837926103,53.3582603217982 -1.2435234644944,53.3579945198916 -1.24388934134722,53.3575230944202 -1.24459301289014,53.3568219649144 -1.24483610506386,53.3565816886258 -1.2452897374453,53.3561621240288 -1.24492576890135,53.3559314894971 -1.24436513061583,53.3555162948693 -1.24423121592412,53.3553554068038 -1.24402943965188,53.3551303780198 -1.24383113948879,53.3549609940328 -1.2437438218063,53.3548831618629 -1.24337289019982,53.3546201284932 -1.24314548652843,53.3544785062742 -1.24275599744272,53.3542495000863 -1.24260916946809,53.3541398387026 -1.24246539490635,53.3540256132209 -1.24215437036425,53.3536892701999 -1.24202316670337,53.3535509518275 -1.24178216010701,53.3533318704773 -1.24124874170289,53.3529150368228 -1.24098377894689,53.3526922070908 -1.24044756599083,53.3522591770421 -1.24006370388479,53.351966397563 -1.2398459124568,53.3517106174692 -1.23982007849482,53.3516448543185 -1.23981527445775,53.3515737446711 -1.23979461991751,53.3514675784084 -1.23964520844219,53.3511699984437 -1.2396098556564,53.3510475635977 -1.23952971094604,53.3509085786908 -1.23948550380818,53.3505182148175 -1.23936354239691,53.3499448494343 -1.23925214996193,53.3494525153548 -1.23912527088449,53.3488979903071 -1.23904995456876,53.3484876584449 -1.2390278807983,53.3483777987678 -1.23899969106685,53.34810345683 -1.23902258129104,53.3478331238538 -1.23904372114328,53.3476543472318 -1.23905154711706,53.3475555506203 -1.23907171023073,53.3472644429143 -1.23908029399544,53.3470325689501 -1.23904807678815,53.3467339384386 -1.2389861116983,53.3459074600634 -1.23894720573199,53.3453931229755 -1.23888367207727,53.3447455457776 -1.23940581511038,53.3447803229931 -1.2399056811532,53.3447933889595 -1.24026298388116,53.3439632890529 -1.24056748561583,53.3431419270992 -1.24068213126487,53.3428577089 -1.2407981810434,53.3425779937915 -1.24105269824015,53.3420321831191 -1.23916186940788,53.3415185545232 -1.23873131442532,53.3414052829593 -1.23842754446868,53.34134224205 -1.23862277449405,53.3410046232512 -1.23874339599141,53.3407258371254 -1.23885468923942,53.3404631663875 -1.23895742116781,53.3401734833099 -1.23907300733222,53.3396691158621 -1.23914617030275,53.3391059784847 -1.23928617176735,53.3385792112075 -1.23932258464816,53.3384743071632 -1.23935816672985,53.3383324645923 -1.23939518576959,53.3381934167232 -1.23942593034969,53.3380659214717 -1.23939157336281,53.3376369792014 -1.23938366804004,53.337573128728 -1.23920288169881,53.3372663624408 -1.23908302736705,53.3370777013787 -1.23889650930997,53.3367592165023 -1.23878069497932,53.3365175634351</coordinates></LinearRing></outerBoundaryIs></Polygon>
  </Placemark>
