  <Placemark>
	<Style><LineStyle><color>ff0000ff</color></LineStyle><PolyStyle><fill>0</fill></PolyStyle></Style>
	<ExtendedData><SchemaData schemaUrl="#Wards__December_2019__Boundaries_EW_BFE">
		<SimpleData name="objectid">3506</SimpleData>
		<SimpleData name="wd19cd">E05009018</SimpleData>
		<SimpleData name="wd19nm">Hill</SimpleData>
		<SimpleData name="wd19nmw"></SimpleData>
		<SimpleData name="bng_e">457951</SimpleData>
		<SimpleData name="bng_n">263460</SimpleData>
		<SimpleData name="long">-1.15223</SimpleData>
		<SimpleData name="lat">52.26627</SimpleData>
		<SimpleData name="st_areashape">5108549.92735833</SimpleData>
		<SimpleData name="st_lengthshape">14059.8355270308</SimpleData>
	</SchemaData></ExtendedData>
      <Polygon><outerBoundaryIs><LinearRing><coordinates>-1.14204466481089,52.2480977912907 -1.14185876205764,52.2483940402482 -1.14136596392612,52.2493416810223 -1.14116621263081,52.2496728821475 -1.14099570669298,52.2499278964034 -1.14093181119418,52.2502034595464 -1.14094202326966,52.2502062301857 -1.14103954242932,52.2502348030329 -1.14088555467909,52.2505474605962 -1.14081863893642,52.2506790998661 -1.14064641754452,52.251097684616 -1.14013448479591,52.2520452654644 -1.13998973676207,52.2523354277215 -1.13954268322821,52.2521937527687 -1.13879671687296,52.2519886872636 -1.13844729876177,52.2519510841209 -1.13790463061586,52.2519821771371 -1.13758517323998,52.2520689164346 -1.13703444174642,52.252216793006 -1.13675787962395,52.2524269817484 -1.13650965084126,52.2526832172794 -1.1363804153009,52.2529258520894 -1.13632964787169,52.2530523033217 -1.13620030523239,52.253449622929 -1.13604039025141,52.2538413260378 -1.13603658468736,52.2540373306016 -1.13607548253813,52.2541490680807 -1.13614404448083,52.2544624485124 -1.13621978517094,52.2550905565206 -1.13625449484696,52.255262574079 -1.13639785812775,52.2558794921414 -1.13650521974656,52.2562353999062 -1.13647344510741,52.256285501307 -1.13633366756459,52.2564670288341 -1.13622557713884,52.2566028587945 -1.13608780618133,52.2567556384307 -1.13594421926909,52.2569091836171 -1.13578743215241,52.2570582292561 -1.13562793823286,52.2572035686711 -1.13531666300197,52.2574638337178 -1.13514764959349,52.2577134556097 -1.13492819196194,52.2579293619628 -1.1347492130399,52.2585421224809 -1.13464027998258,52.2590187718854 -1.1347063286426,52.2591630645558 -1.134826972221,52.2593635728456 -1.13507308745038,52.2596656668384 -1.13529805944337,52.2600053543201 -1.13536687088816,52.2601568573288 -1.13538609130744,52.2602244986873 -1.13540803793015,52.260375657633 -1.13542502185152,52.2606329306166 -1.13534650366901,52.261278775468 -1.13532501924358,52.2615573370536 -1.13535119364438,52.2616402189501 -1.13537223028897,52.2618381997005 -1.13537566076127,52.2622643474465 -1.13543949531453,52.2625228614872 -1.13555063536937,52.2627592515013 -1.13564938038782,52.2628813123906 -1.13583234313261,52.263046323522 -1.13608999468233,52.2632037019485 -1.13633400831376,52.2638456142502 -1.13644669425848,52.2642267219868 -1.13650519279708,52.2646111186733 -1.13651471161181,52.2647990379699 -1.13681515901901,52.2651734280184 -1.13724481760557,52.2655389649429 -1.13738763383676,52.2656505609799 -1.13772329464008,52.2657986173673 -1.13792005028523,52.2658513755176 -1.13801464886086,52.2658889165884 -1.13856055847414,52.2661481594365 -1.13909800028366,52.2663957427884 -1.13944156237764,52.2665106872236 -1.13953788044684,52.2666030660179 -1.140110778838,52.2669857240495 -1.14016748460046,52.2670086070304 -1.14028983688091,52.2670481454651 -1.14088239683437,52.2674021822768 -1.1414735065261,52.2676753125155 -1.14167476515484,52.2677271082775 -1.14229917393742,52.2680220484343 -1.14229721437808,52.2681236894606 -1.14227182041868,52.2682250695153 -1.1423199513371,52.2684672876177 -1.1425121182088,52.2685333973338 -1.14267751776273,52.2686154902004 -1.14306404269619,52.2687846638403 -1.14344158196551,52.2689689607133 -1.14363910063916,52.2690585657392 -1.14384400787534,52.2691472350162 -1.14515358939635,52.2695594746092 -1.14522367698094,52.2695716660279 -1.14546904501587,52.2696174828294 -1.14656859482867,52.2700516462799 -1.14763601011867,52.2704045844987 -1.14794619693701,52.2705047923078 -1.148600590244,52.270695652697 -1.148843812644,52.2707720070273 -1.14915534010283,52.2709603932528 -1.14921570040699,52.2710201490474 -1.14923553501056,52.2710571435715 -1.14924359705812,52.2710967486925 -1.14923381633059,52.2711470113552 -1.14919440132145,52.2712177327146 -1.14918791286238,52.2714811265224 -1.14933227598133,52.2717483021592 -1.14909336562235,52.2719767656158 -1.14898551911825,52.2721000233174 -1.14872924614096,52.2723957708241 -1.14852112694646,52.2727008537059 -1.14855255100087,52.2728962108602 -1.14849356217538,52.2729919574241 -1.14844922971916,52.2731678935687 -1.14839805732702,52.2732340363721 -1.14812074903833,52.2734855894118 -1.14782890127557,52.2736443705841 -1.14757600841066,52.2738385746853 -1.14736072265924,52.2739871211194 -1.14729721214544,52.2742429124154 -1.14712495462501,52.2743594117725 -1.1470996853913,52.2744545928209 -1.14706968799608,52.2744876316275 -1.14703533968627,52.2745206399081 -1.14682866285572,52.274673741936 -1.14674156797787,52.2748610527463 -1.14675741505828,52.2749483510399 -1.14682399293791,52.2750747545266 -1.14681391401333,52.2751402943625 -1.14675426060774,52.2751946909747 -1.14682056482906,52.275404680952 -1.14658616284392,52.2755476951279 -1.14652329875505,52.2756182460414 -1.14646628622642,52.275686232825 -1.14640739198702,52.275776587193 -1.14633318932173,52.2759783710323 -1.14607069758617,52.2760609611637 -1.14602476616119,52.2760866946729 -1.14598472073222,52.2761142679402 -1.14594598771326,52.2762182492348 -1.1456730835438,52.2762387460062 -1.14534131781373,52.276417094946 -1.14531357895382,52.2764896974477 -1.14524593098438,52.2765763916317 -1.14509747879469,52.2766733769262 -1.14504640228816,52.2767404178919 -1.14500248767001,52.276812004176 -1.14495680976795,52.2769753456483 -1.14489667002452,52.277054903285 -1.14462220412486,52.2772255760842 -1.14449613657495,52.2774529587339 -1.14418800463523,52.2776269820057 -1.14402426811777,52.2778335090203 -1.14390562321912,52.2779009579724 -1.14368557275056,52.2781448260726 -1.14365793126867,52.2782812441242 -1.14361033559985,52.2783932491755 -1.14364385284921,52.2784852601095 -1.14365468682795,52.2786821761105 -1.14337341896687,52.278904028609 -1.14333916857336,52.2789316429756 -1.14312400175126,52.2790658016526 -1.14257661734807,52.2794062502633 -1.14180685942207,52.279796222942 -1.14135356551129,52.2800383916736 -1.14106951892436,52.2802529377714 -1.14121002254464,52.2804122387966 -1.14160396160732,52.2802837865969 -1.14196134531658,52.2802207707941 -1.14224043800744,52.2801877444246 -1.14233260401385,52.2801965034212 -1.14239279945183,52.2801960414295 -1.1424515637795,52.2801883792387 -1.14251338296648,52.2801726494582 -1.1425755315782,52.2801461369188 -1.14266017489308,52.2800874295709 -1.14266238781296,52.2800478987024 -1.14285327042124,52.2799575161187 -1.14292651675328,52.2799571485584 -1.14328720809911,52.2799543726308 -1.14373338504843,52.2799243525762 -1.1440289619595,52.2798761619416 -1.14423140497808,52.2797877480132 -1.14439225932712,52.2798068899838 -1.14449978900959,52.279858899954 -1.14457009973366,52.2799358076673 -1.14468199367957,52.2800625402595 -1.14486945055728,52.2801501829702 -1.14539181006376,52.2801180109783 -1.14539547131702,52.2802357801258 -1.14565158496229,52.2802538114435 -1.14553797569946,52.2804490188352 -1.14592282140453,52.2803276770757 -1.14617085673802,52.2803132925963 -1.14658795015694,52.2803504612309 -1.14714591194853,52.2804534489257 -1.14763917098261,52.2804893665498 -1.14801537073919,52.2805163480886 -1.14826687911559,52.280547822827 -1.1485371538566,52.2805965090546 -1.14878729807352,52.2806234784531 -1.14886496557444,52.2806258353544 -1.14896319268686,52.2806211505551 -1.14908223839555,52.2806085259103 -1.14915862686238,52.2805955947795 -1.1492824691947,52.280559635218 -1.14946284440054,52.2804809412222 -1.1495365553825,52.2804563054826 -1.14988591800967,52.2803571654834 -1.14998143281108,52.2803425733496 -1.15001946361202,52.2803446442456 -1.1500677311674,52.2803548785315 -1.15011720937184,52.2803714131309 -1.15047730093135,52.2805520560505 -1.15052650498542,52.2805829698723 -1.15061169032779,52.2806536884762 -1.15069040264732,52.2807532131111 -1.15095032680854,52.2809582109001 -1.1511541577209,52.2807268858617 -1.1511731817963,52.2807243262936 -1.15134023812151,52.2807291220236 -1.15160267189988,52.2809548095599 -1.15190123308519,52.2809021267189 -1.15195737051504,52.280880059657 -1.15200584451296,52.2808732179643 -1.15205421752085,52.2808780588118 -1.15208769346627,52.2808908824207 -1.15211333482991,52.2809279180967 -1.15212463824851,52.2810260579319 -1.15211639261792,52.281071838204 -1.15202755261316,52.2812752284985 -1.15238980056521,52.2813435314812 -1.15259748043991,52.2814429915739 -1.15269915277665,52.2814922559494 -1.15291087656338,52.2816142146991 -1.15322762887072,52.2816092956651 -1.1535175587574,52.2815466607794 -1.15360725856098,52.2815329223432 -1.15382538614194,52.2815470687316 -1.15396262191866,52.2814995171425 -1.15406044357173,52.2814399979864 -1.15412842114095,52.2814117230898 -1.15419177518025,52.2813977963998 -1.15425780765414,52.2813955730386 -1.15431769678523,52.281404989828 -1.15441536390027,52.2814362482349 -1.15459279511298,52.281505827321 -1.15471540676346,52.2815345677671 -1.15482518803507,52.2815452404618 -1.15491893027385,52.2815477094398 -1.15506130042422,52.2815352458589 -1.15509948693908,52.2815355190702 -1.15517254839889,52.2815450296646 -1.15551525272298,52.2816373607184 -1.15559575351334,52.2816433298073 -1.15562807144163,52.2816408646053 -1.15569149358662,52.2816233413604 -1.1557639057842,52.2815906037319 -1.1558024325724,52.2815666117318 -1.15587396002914,52.2815104984559 -1.15594176524726,52.2814849175682 -1.15602416093368,52.281473822273 -1.15612095707601,52.2814682223841 -1.15619862675714,52.2814705745943 -1.15646466662449,52.2815075286318 -1.1566696912229,52.2815179808282 -1.15683245275225,52.281520042087 -1.15685881517399,52.2815193312474 -1.15699079265905,52.2815130827612 -1.15712301092292,52.281500545127 -1.1572522764866,52.281484390036 -1.15776696573335,52.2813981820021 -1.15792895686434,52.2813579022462 -1.15801747609316,52.2813297715936 -1.15815786245107,52.2812687553188 -1.15822124908282,52.2812530285866 -1.15827110556697,52.2812497886185 -1.15830768815245,52.2812518465807 -1.15834136871743,52.2812538847477 -1.15842763896361,52.281267981864 -1.15864640211717,52.2813252661366 -1.15871322106841,52.281358099313 -1.15879248115279,52.2814297588419 -1.15883321134464,52.2814489238163 -1.15887694406618,52.2814627176043 -1.15896020967172,52.2814758938684 -1.15905407095752,52.2814720678946 -1.15910561626139,52.2814625479825 -1.1591557107104,52.2814467261008 -1.15923569623301,52.2814032542641 -1.15931907630912,52.281333652005 -1.15936797425116,52.2813043392232 -1.15944777400773,52.2812707528766 -1.15949636752424,52.2812639080639 -1.15957400174388,52.2812617643038 -1.15969695545152,52.2812725262092 -1.1598387817698,52.2812951064285 -1.15990594095098,52.2813099655564 -1.1607966369907,52.2815689511294 -1.16096536150992,52.2816393577747 -1.16104366783281,52.2816848544659 -1.16111308294107,52.2817339722893 -1.16116791217128,52.2817810993424 -1.16124393768335,52.2818706210023 -1.16133335133311,52.2820258501156 -1.16139914929456,52.2821899892586 -1.16149294671329,52.2823434512486 -1.16161491433225,52.2824837216641 -1.16177060005387,52.2826241404733 -1.16201137430137,52.2828416520988 -1.16216432938682,52.2829667714887 -1.16225680406305,52.2830367251648 -1.1624960036029,52.2831840278894 -1.16297665871047,52.2835003079617 -1.16313464860375,52.2835958017992 -1.16329294028305,52.2836752089057 -1.16341945892965,52.2837282362155 -1.16351995218046,52.2837640004718 -1.16372264346661,52.2838220600745 -1.16385843985829,52.2838508850352 -1.1641129324839,52.2838859416349 -1.16422720722806,52.2838894466601 -1.16435190395311,52.2838786449712 -1.16451823367679,52.2838456676626 -1.1647395103234,52.284085503412 -1.16495918614581,52.2842497386692 -1.16483932628163,52.2843118967255 -1.1652751946424,52.2846781811599 -1.16549676417358,52.284741764569 -1.1655663252222,52.2847835999145 -1.16563291962166,52.2848290104702 -1.16576074220226,52.2849738104416 -1.16634899876647,52.2848718168464 -1.1672188223959,52.2847665035346 -1.16757121699245,52.2847375301 -1.16791740500102,52.2847237912844 -1.16804338868865,52.2847282741702 -1.16874143111777,52.2847988030306 -1.16888652568104,52.2847962292914 -1.16911994168533,52.2847825929387 -1.16935178768537,52.2847689450791 -1.16948984758333,52.2847546361168 -1.16959672546432,52.2847661738889 -1.16962556971747,52.2847879477452 -1.16962204009652,52.2847438819333 -1.16961947220884,52.2847195966463 -1.16961987497978,52.2846980285129 -1.16962184908009,52.2846764714321 -1.1695751095849,52.284506180379 -1.16936952091653,52.2840525501177 -1.16909409801302,52.2834940761358 -1.16881353563115,52.2829005101305 -1.16850124126046,52.2821943697907 -1.16843521945405,52.2821184053724 -1.16816401680897,52.2818072174654 -1.16798653567689,52.2812674051146 -1.16790623164886,52.2809341930625 -1.1677194813021,52.2804185831781 -1.16753211127112,52.2799363137545 -1.16746494404219,52.2797667758508 -1.16745222420023,52.279736127169 -1.16730691379404,52.2794348125024 -1.16715990346065,52.2791469688297 -1.16711321697614,52.2790585569632 -1.16694913856412,52.2787400327029 -1.16693631692719,52.2787147757948 -1.16679322349454,52.2784503275825 -1.16664207183672,52.2781516670561 -1.16648160599954,52.277795417866 -1.16634867221584,52.2775373323757 -1.1662660658628,52.2774118159094 -1.16605933056724,52.2771001797634 -1.16591926551886,52.2768294601419 -1.16588486148097,52.2767887711469 -1.165735863496,52.2766078680511 -1.16573006078572,52.2766015354377 -1.16570859171145,52.2765735210078 -1.16568710582408,52.2765464046154 -1.1656641690921,52.2765192788668 -1.165659903731,52.2765147543317 -1.16563976615994,52.2764930409141 -1.16561244762558,52.276467681414 -1.16560519409899,52.2764613385427 -1.16558935930323,52.2764486434166 -1.16557338748618,52.2764368463795 -1.16555753584893,52.2764250501895 -1.16554009635603,52.2764141409369 -1.16552278017757,52.2764031435463 -1.16550534070156,52.2763922342886 -1.16548802287085,52.2763813258879 -1.16546913401174,52.2763704072809 -1.16545169456142,52.2763594980153 -1.16543439213539,52.276347691555 -1.16541995770684,52.276337702582 -1.16537658192836,52.2763050388603 -1.16533467243922,52.276271487326 -1.16530284926033,52.2762478931313 -1.16519295950151,52.2761662243315 -1.16517707580851,52.2761562250822 -1.16515816878693,52.2761462053554 -1.16514083426776,52.276136195844 -1.16512191187748,52.2761270741631 -1.16510457590826,52.276117064636 -1.1650856535334,52.2761079429492 -1.16506673118309,52.2760988203605 -1.16504634280203,52.2760904974553 -1.16502754208619,52.2760813766193 -1.16502310460273,52.2760795471228 -1.16498967908673,52.276064031249 -1.16495477047955,52.2760503029969 -1.1649213281543,52.2760356851451 -1.16488640273476,52.2760228549141 -1.16485004483685,52.2760091154819 -1.16481510258479,52.27599718417 -1.1648093359009,52.2759953461633 -1.16362606435173,52.2757028592956 -1.16302064942424,52.2755538623881 -1.16158932540996,52.2752092644939 -1.16036005214139,52.2748786683162 -1.16034839932113,52.2748749901149 -1.1598515118463,52.2747203678512 -1.15937903953701,52.2745911727759 -1.15905746826765,52.2744701504474 -1.15875063664855,52.274343031417 -1.15868677802439,52.2743075229759 -1.15843006931185,52.2741627843892 -1.15840417355154,52.2741391406366 -1.15837829164602,52.2741146887214 -1.15835230808066,52.274089337015 -1.15832787700323,52.2740648954294 -1.15830492928344,52.274038666291 -1.15829203163087,52.2740241938789 -1.15826908541762,52.2739979647438 -1.15824903783773,52.2739717562676 -1.15822900874358,52.2739446497579 -1.15821186237526,52.2739247535831 -1.15815878620957,52.2738623579872 -1.15810277781313,52.2738016487745 -1.1580467678642,52.2737410294282 -1.15800950772285,52.2736985204745 -1.15795499835911,52.2736352154987 -1.15792217281282,52.2735882437353 -1.15791789048213,52.2735783262251 -1.1579137268515,52.2735684095612 -1.15790956468806,52.2735584929076 -1.15790673165269,52.2735485857329 -1.15790401878207,52.273538679415 -1.15790275666721,52.2735287834436 -1.15790006250419,52.2735178891914 -1.15789101805794,52.2734531111985 -1.15788343995897,52.2733874437022 -1.1578809993512,52.2733631588492 -1.15787787518144,52.2732984230766 -1.1578765765375,52.2732840324394 -1.15787604464644,52.2732354937519 -1.15787698222247,52.2731859765776 -1.15787790109,52.2731374473373 -1.15787972618604,52.2731176864121 -1.1578838523837,52.2730592939742 -1.15789067334966,52.2730054142606 -1.15789742728873,52.2729614210394 -1.15790697661169,52.2729165486933 -1.15791663222457,52.272872486259 -1.15791983848026,52.2728563314259 -1.1579456789038,52.2727360757324 -1.15795444241948,52.2726561442964 -1.15803223799338,52.2720318509008 -1.15805994804179,52.2718063590431 -1.15814738833275,52.2713682767694 -1.15821713246874,52.2711691492426 -1.15824034578405,52.2711046012341 -1.15833378090551,52.2708858694926 -1.15855068799253,52.2704253404799 -1.15876873438498,52.2699746162627 -1.15886179164979,52.2697820369019 -1.15902226282987,52.2693533713491 -1.15912534379329,52.268866864807 -1.15913839374468,52.2686367738256 -1.15913058367785,52.2684299035588 -1.15911113794993,52.2682185459055 -1.15907086355591,52.2679458317848 -1.15898301280748,52.2676332308016 -1.15887534528588,52.2673591373854 -1.1588204824324,52.2672382165063 -1.15875157917752,52.2670867263584 -1.15866966247884,52.2669206735592 -1.15854972359568,52.2666762439899 -1.15854273056905,52.2666627118636 -1.15796685401434,52.2654978942685 -1.15761562732704,52.2647779651387 -1.15723487300797,52.263997515394 -1.15711532471363,52.263733222525 -1.15702555602016,52.2634403812722 -1.15693897989212,52.2630621773413 -1.15691192744639,52.2627113611515 -1.15691451910245,52.2621925921492 -1.15681407746975,52.2617684487705 -1.15658112204009,52.2613820084928 -1.15657832508654,52.2613765959593 -1.15628222147768,52.2608422098381 -1.15608695419699,52.2600937306514 -1.1559850963849,52.259439393964 -1.15595631259316,52.2592566414841 -1.15563978619122,52.2584119255906 -1.15547820484579,52.2580466593299 -1.15501470882072,52.2569905591747 -1.15439778955431,52.2556123925956 -1.15358581139447,52.25370854558 -1.15336699482483,52.2531981575454 -1.1528604132741,52.2521012058382 -1.15231233370516,52.2514211853056 -1.15228517531082,52.2513886337186 -1.1539027689642,52.2506720049575 -1.15493443144545,52.2501902473603 -1.15631894823248,52.2495573001611 -1.15658114835171,52.2494809740348 -1.15680947102374,52.2494142928306 -1.15656840825523,52.2490700303723 -1.15630106072541,52.2488064737773 -1.15593569314484,52.2485278356783 -1.15527055913232,52.2481481828608 -1.15559971193742,52.2477828256994 -1.15598503995278,52.247473596674 -1.15778151913407,52.2452710783426 -1.15810917851651,52.2448292131548 -1.15815165916358,52.2447477226267 -1.15818970664233,52.2446706950181 -1.15821982771131,52.2445530739852 -1.1582218646605,52.2443688286498 -1.15782251396986,52.24418343167 -1.15778834703885,52.244131955722 -1.15761853245345,52.2437441603114 -1.15747817092483,52.2436504902719 -1.15695050689795,52.2433608104848 -1.15665383347543,52.243174434581 -1.15598809269428,52.2426778433803 -1.15564214223306,52.2424605530674 -1.15511392278392,52.2422014207898 -1.15485047519347,52.2420403550455 -1.15407834736951,52.2418254039361 -1.15383163872055,52.2417813923328 -1.15362274148267,52.2417555383134 -1.15346914386374,52.2417427526777 -1.15336523987511,52.2417393119309 -1.15321873449616,52.2417409585257 -1.15270270374816,52.2417688084022 -1.1522614623295,52.2417944063289 -1.15133967733082,52.2418992442746 -1.1509330723229,52.2419448584124 -1.15061845410344,52.2420109079716 -1.14965159077282,52.242325820636 -1.1493348947711,52.2423487074377 -1.14883944434836,52.242524993521 -1.14842174199459,52.2426136631793 -1.14821921311423,52.2427093658132 -1.14811938301304,52.2428021234721 -1.14802546902193,52.2428886319323 -1.14801648276725,52.2428975552411 -1.1469575720709,52.2428216020062 -1.14651721396277,52.2427941528815 -1.14636987799461,52.2428389278649 -1.14629853727047,52.2428941391533 -1.14678317335658,52.2441266940157 -1.14690018114375,52.2445933103664 -1.14693257247644,52.2453478379596 -1.14645793502059,52.245431594328 -1.14609460592408,52.2452779653697 -1.14538691060352,52.2452162204742 -1.14521206960195,52.2452464139977 -1.14496957466754,52.2452904982759 -1.14477594660058,52.2453807764675 -1.14459132248701,52.2454612323511 -1.14442568824087,52.2455401181532 -1.14353578757702,52.2457403970601 -1.14308839011697,52.2458513923615 -1.14252255773182,52.2459479526405 -1.14210453480926,52.2460572702412 -1.14191725600679,52.2461998109526 -1.14195352459427,52.2462917545461 -1.14194532787158,52.2463348382351 -1.14194302894152,52.2463788638555 -1.14225900920341,52.2466266279019 -1.14225500233551,52.2466841228288 -1.14216630903186,52.247789389854 -1.1421004610192,52.2480164038052 -1.14204466481089,52.2480977912907</coordinates></LinearRing></outerBoundaryIs></Polygon>
  </Placemark>
