  <Placemark>
	<Style><LineStyle><color>ff0000ff</color></LineStyle><PolyStyle><fill>0</fill></PolyStyle></Style>
	<ExtendedData><SchemaData schemaUrl="#Wards__December_2019__Boundaries_EW_BFE">
		<SimpleData name="objectid">4807</SimpleData>
		<SimpleData name="wd19cd">E05010486</SimpleData>
		<SimpleData name="wd19nm">Fulford</SimpleData>
		<SimpleData name="wd19nmw"></SimpleData>
		<SimpleData name="bng_e">394701</SimpleData>
		<SimpleData name="bng_n">338957</SimpleData>
		<SimpleData name="long">-2.0803</SimpleData>
		<SimpleData name="lat">52.947979</SimpleData>
		<SimpleData name="st_areashape">14905766.4295506</SimpleData>
		<SimpleData name="st_lengthshape">21331.9509547564</SimpleData>
	</SchemaData></ExtendedData>
      <Polygon><outerBoundaryIs><LinearRing><coordinates>-2.07129988845031,52.9691001818383 -2.07298331830026,52.969634938457 -2.07393242993278,52.9699858153605 -2.07589777367193,52.9707099706952 -2.08196238715689,52.9721595281903 -2.08305290172076,52.9724238771967 -2.08366217147471,52.9725772111186 -2.08443102781251,52.9727789559213 -2.08545747611137,52.9730271032854 -2.08595663637249,52.9731750769566 -2.08646179240326,52.9733103729199 -2.08688785920816,52.9734359337263 -2.08771180975893,52.9736518482407 -2.08795627397804,52.9737119509506 -2.08804713979047,52.9737747832543 -2.08812772094549,52.97385200276 -2.08820644158546,52.9737387089357 -2.08823611627535,52.973659513507 -2.08799306050717,52.9735069394695 -2.08776791301834,52.9734046741922 -2.08702105023414,52.9729935115537 -2.08681081530062,52.972856186133 -2.08672423101413,52.9727834643415 -2.08646466824785,52.9725373514739 -2.08606021506213,52.9720998498454 -2.08587661360061,52.971891508085 -2.08550194078472,52.9714207318106 -2.08529753508563,52.9711817629638 -2.08502732628309,52.9708827248729 -2.08469148349598,52.9704802076119 -2.08458104210004,52.9703194274887 -2.08446010036411,52.9701873226154 -2.08371759307599,52.9696206176601 -2.08334786394016,52.9693917208856 -2.08316596476289,52.9692866163938 -2.08296015044118,52.9691294959788 -2.08283046484372,52.9690433153237 -2.08239363945266,52.9687748321652 -2.08190179842085,52.9684956010545 -2.08144727358897,52.9682747543134 -2.08195638485927,52.9682123992499 -2.08121832441748,52.9669059044845 -2.08179730923252,52.9667994628392 -2.08263221729688,52.966613665892 -2.0833703211827,52.9663964762815 -2.08364861578685,52.9663324735718 -2.08382275091473,52.9663008968475 -2.08397756657468,52.9662459678539 -2.08450601513532,52.9662312147216 -2.08453540973336,52.9660091260327 -2.08453945038947,52.9658167118241 -2.08451531093935,52.9656513689413 -2.08443308145543,52.9654733955653 -2.08443148015133,52.9654077909913 -2.08504157034302,52.9652725325778 -2.08523507278326,52.9652256479764 -2.08553424891641,52.9651678057827 -2.08604482364089,52.9651116809403 -2.08637820892111,52.9650341278445 -2.08647343544151,52.96501607815 -2.08676226509853,52.9650032653388 -2.08680986917346,52.9649897464976 -2.08701668534158,52.9649113941694 -2.08780673933445,52.9646554377106 -2.08906561059446,52.9642867567568 -2.0893810190326,52.9641884503003 -2.09024096594788,52.9639081582203 -2.0908049249641,52.9637396337534 -2.09137035322525,52.9635710166321 -2.09185546463775,52.9634456905653 -2.09347116637195,52.9629318883437 -2.09431925113183,52.9626407942745 -2.09487861405841,52.9624623714918 -2.09507352118543,52.9623956996248 -2.09605083515227,52.9620459782245 -2.09647492013049,52.9619269801271 -2.09730348005638,52.9616502636146 -2.09766197291358,52.9615151424223 -2.09837460504547,52.9612762668465 -2.09886696536153,52.961121163311 -2.09964495238779,52.9608580470521 -2.09985320273639,52.960782279535 -2.09999317152045,52.9607444081024 -2.10007047354723,52.9607317564513 -2.1001479039051,52.9607218005481 -2.10026991758673,52.9607225886186 -2.10039653511247,52.9607503323854 -2.10054853576966,52.960818583225 -2.10074101040911,52.9609774743863 -2.1009768361713,52.9612487490958 -2.10118594185544,52.9615353259957 -2.10168903393223,52.9620805524428 -2.10202640889322,52.9624676774615 -2.10207125075542,52.9625871623576 -2.10209825544483,52.9626383635876 -2.10213555491708,52.9626832641253 -2.10217887079929,52.9627282501596 -2.10272932828681,52.9632077491951 -2.10300821883991,52.9634115923924 -2.10506701057358,52.9627077050422 -2.10601006623991,52.9623967155126 -2.10610827460708,52.9623507039206 -2.10611369108546,52.9621583815974 -2.10668980879256,52.9621326920797 -2.10713943619756,52.9621322792269 -2.10715792166295,52.9624073482232 -2.10784435472935,52.9624148022853 -2.10786639641836,52.9622960666228 -2.10859282438612,52.9622962905173 -2.10860195132421,52.962361885442 -2.10872851059662,52.9623635643449 -2.10920786610733,52.9623712045468 -2.10959645832491,52.9623591561428 -2.10958086491621,52.9620688981271 -2.1095289029324,52.9615726966084 -2.10948067579102,52.9613371982452 -2.1094162983947,52.961170104281 -2.10933411700113,52.9610487702509 -2.10927872099294,52.9609373856305 -2.10932111671357,52.9606191233788 -2.1093029850992,52.9605364625457 -2.10922637020411,52.9602866113011 -2.1091661344806,52.9600097855524 -2.1091495070005,52.9598902767841 -2.10915794187849,52.9596843810249 -2.10913963615765,52.9595324321123 -2.109142402368,52.9594623322691 -2.10915266256751,52.9593940232741 -2.10921790302682,52.9592753357809 -2.10933658726157,52.959128650156 -2.10957382691359,52.958737412347 -2.10972660901487,52.9585349754858 -2.10985706938552,52.9583398390993 -2.11001294142398,52.9581472845995 -2.10996215868471,52.9581113858885 -2.1101046629203,52.9579233376777 -2.11018341672463,52.957859456736 -2.11028444796293,52.9578189207061 -2.11040944141148,52.9577900444616 -2.11067141042827,52.9577619370025 -2.11079039417556,52.9577348630438 -2.110907893888,52.9577032974986 -2.11148061866638,52.9575301148881 -2.11156387614477,52.9574994803924 -2.11194454208085,52.9573363648889 -2.11266882007427,52.9571109979448 -2.11340785772994,52.9568073366344 -2.1135403201882,52.956773957019 -2.11416087591448,52.9567338088497 -2.11442133954,52.9566966181686 -2.11468158776439,52.9566253673854 -2.1151173720777,52.9564739602156 -2.11537328954035,52.9564359629244 -2.11579139508302,52.9563743483316 -2.11687168619538,52.9562402667578 -2.11771829391957,52.9561082092375 -2.11787957336818,52.9562895790311 -2.11797334986431,52.9562930791193 -2.11806858762722,52.9562920847825 -2.11823668395278,52.9562317048002 -2.11828392814163,52.956095957112 -2.1191323391344,52.9560870169763 -2.12165690294565,52.9560862416133 -2.12147963243249,52.956026122566 -2.12128413541826,52.9558573722515 -2.12108847681061,52.955631016264 -2.12091655160382,52.9553767767901 -2.12074582420431,52.9549814435712 -2.12071129376384,52.9548790299817 -2.12062075688413,52.9544565638651 -2.12064257825897,52.9542741099907 -2.1206572917782,52.9542255668759 -2.12081224575674,52.9542523684643 -2.12088071950158,52.9542496025156 -2.12094316817936,52.9542432478559 -2.12098928160852,52.9542324161193 -2.12105916380971,52.9542071824492 -2.12108587291276,52.9541908888533 -2.12115701562759,52.9540479257456 -2.12118004560459,52.9537728173018 -2.12117500019993,52.953594883729 -2.12115246833874,52.953525619641 -2.12108096001793,52.9534960361989 -2.12103187378971,52.9534969854361 -2.12092771448715,52.9535087746655 -2.12088012316899,52.9535178100259 -2.12080569968261,52.9535421502069 -2.12067921732139,52.9535584558193 -2.12064527406133,52.953663726085 -2.12053944207043,52.9536045215112 -2.12032652662119,52.9535642074137 -2.11989175605215,52.9535340946977 -2.1195793012823,52.9535335133842 -2.11954219222184,52.9536046360006 -2.11922662767989,52.9535896775466 -2.11909413690754,52.9535636593995 -2.11904787959208,52.9535232656589 -2.1190313201973,52.9534819430418 -2.11928797195825,52.9531877271005 -2.11934120527044,52.9530456820969 -2.11938565006176,52.9529647564297 -2.1194733279976,52.9528962777187 -2.11949250016396,52.952862108692 -2.11950577360747,52.952825249725 -2.11951738407887,52.9527200931733 -2.11957025395162,52.9524485487676 -2.11961608929458,52.9523388637689 -2.11963980550097,52.9523063971886 -2.1197706090599,52.9522568375796 -2.11981519577718,52.9522271355956 -2.11985388781274,52.9521956426058 -2.11990274834036,52.9521147122436 -2.1199055527586,52.9520643834247 -2.11989006285875,52.9518360454073 -2.11985073768849,52.9516409822769 -2.11985008786953,52.951409124231 -2.11986614571827,52.9512715205356 -2.11997463423084,52.9512300710438 -2.11997406418847,52.9510268808368 -2.12000486512594,52.9508516066396 -2.11995429578062,52.9508480640759 -2.11990654480029,52.9508427198599 -2.11982271210902,52.9506611823078 -2.11976730655555,52.9505515998937 -2.11970754781514,52.9504653869884 -2.11964048661403,52.9504006606082 -2.11956879204576,52.9503459143654 -2.11951812026977,52.9503055244056 -2.11902315338485,52.950019257287 -2.11873389139958,52.9498335222433 -2.11869235391787,52.94985603106 -2.11868336227195,52.9498434586198 -2.11867142875879,52.9498326861046 -2.11865198555377,52.9498129353917 -2.11864152874139,52.9498038684649 -2.11863119970055,52.9497957911351 -2.11861472037746,52.9497832262124 -2.11859382274192,52.9497697667914 -2.11855213310082,52.9497374569257 -2.11850737610986,52.949705149225 -2.11845068826713,52.9496629679008 -2.11841046976903,52.9496297575752 -2.11833285827667,52.9495651310197 -2.11828660978255,52.9495256350563 -2.11823888024281,52.9494833556606 -2.11818070610208,52.9494357838889 -2.11817172812077,52.9494286032013 -2.11809720608695,52.9493711621863 -2.11798087531416,52.9492823111718 -2.11790770081364,52.9492239704154 -2.11784215032698,52.9491718236766 -2.11778398417486,52.9491269481337 -2.11773320552651,52.949091052669 -2.11770935562099,52.9490749003483 -2.11764825430393,52.9490336225244 -2.11758862502791,52.9489923431872 -2.11749616830806,52.9489277316927 -2.11738883973755,52.9488540576052 -2.11726651643196,52.9487715025896 -2.11712487847283,52.9486709925827 -2.11707865495495,52.9486404831666 -2.11704878303997,52.9486207427897 -2.11703980783491,52.948614461025 -2.11700858951732,52.9485965180551 -2.11698769285349,52.9485830594289 -2.11696383956205,52.9485660080166 -2.11694441729415,52.9485534459438 -2.11692805967344,52.9485398919771 -2.11691613182014,52.9485309172486 -2.11689374952367,52.9485129663156 -2.116866930367,52.9484878301314 -2.11682953820982,52.9484555148198 -2.11679078641673,52.948419606912 -2.11676089267698,52.9483917778656 -2.11673555048725,52.948368437145 -2.11671020095868,52.948342400521 -2.11670869467962,52.9483298205347 -2.11669822164358,52.9483145535868 -2.11668185707294,52.9482983935782 -2.11665799818937,52.9482786470985 -2.11662665578632,52.9482598061084 -2.11659088126674,52.9482354878222 -2.11653862638542,52.9481977954082 -2.11643883895401,52.9481430750131 -2.11639410702105,52.9481188554701 -2.11635381188758,52.948101820279 -2.11632556153255,52.9480919627808 -2.11629571970846,52.948083005792 -2.11625114419994,52.9480713675287 -2.11620938950324,52.9480588275119 -2.11616024551533,52.9480364092292 -2.11610949490293,52.9480103976789 -2.11604843231802,52.9479817004272 -2.11599325492677,52.9479520992731 -2.11593072888511,52.9479269982494 -2.11610146046366,52.94776317968 -2.11604771178155,52.9477165018595 -2.11594328394737,52.9476249400685 -2.11590748595943,52.9475916349284 -2.1158850850701,52.9475664941232 -2.11588213251892,52.9475638011407 -2.11577015771088,52.9474488806359 -2.11562692047911,52.9472989432192 -2.11547010464218,52.9471183743037 -2.11544933364509,52.9471058132955 -2.11517982492409,52.9470881046069 -2.11500386527178,52.946951589111 -2.11490094388391,52.9468708093713 -2.11485028510901,52.9468322156503 -2.114814498536,52.9468025939773 -2.11477870477039,52.9467702772909 -2.11473540360275,52.9467298793295 -2.11471301591872,52.9467092311473 -2.11470255754663,52.946698457765 -2.11469207021878,52.946676898981 -2.11463228041311,52.9465735197254 -2.11457689998109,52.9464666311674 -2.1144992518227,52.9463381063005 -2.11444832271325,52.9462437948184 -2.11441242858779,52.94617373359 -2.11436007640081,52.9460524625695 -2.11430020799361,52.9459185283556 -2.11424923655408,52.945808040456 -2.11422982540767,52.9457532404871 -2.11420124337624,52.9456642089899 -2.11416223690301,52.9455312422639 -2.11412164472115,52.9454017829135 -2.11410663068567,52.9453388900038 -2.11409019141748,52.9452939718057 -2.11407659774468,52.9452580374958 -2.11406910379644,52.9452086176974 -2.11406909899759,52.945206820729 -2.11394854958693,52.9452312021624 -2.11382225016323,52.9452618798193 -2.11362887012398,52.9453061028992 -2.11344149562401,52.9453485228798 -2.11316488080973,52.9454234705626 -2.11293289132022,52.9454839062018 -2.11259533706078,52.9455758967562 -2.11239744701395,52.9456327037292 -2.11221156913084,52.9456850050834 -2.11205549732151,52.945733773571 -2.11190531514832,52.9457824454364 -2.11175513733794,52.9458329149867 -2.11154846274725,52.945909500186 -2.11138787678765,52.9459689658769 -2.11138344812096,52.9459644763063 -2.11133115757182,52.9459097070895 -2.11125660213828,52.9458342888577 -2.11118792230518,52.9457525742315 -2.11116552491336,52.9457273425683 -2.11113871086199,52.9457022049878 -2.11112367578432,52.9456770562185 -2.11110729328465,52.9456528076629 -2.11109090145087,52.9456249633654 -2.1110833621583,52.9456043012616 -2.11107437125021,52.9455908293341 -2.11105654122222,52.9455764677543 -2.11104756519632,52.9455692865717 -2.11103709166966,52.9455522220972 -2.11101021940804,52.945504617405 -2.11096834265914,52.9454435464697 -2.11094445126071,52.9454102284377 -2.11091454474832,52.9453752081191 -2.11088621111514,52.9453320985646 -2.11085936948285,52.9452961763895 -2.11084433704488,52.9452719265126 -2.11082353565285,52.9452467831577 -2.11079966569134,52.945221642703 -2.11077727603153,52.9451991967548 -2.11076077887292,52.9451776441642 -2.11072792527179,52.945141727643 -2.11069361941095,52.9451139011219 -2.11065929706296,52.945079693949 -2.11063544507445,52.9450608442034 -2.11060114399415,52.9450348155232 -2.11056240749314,52.9450016004216 -2.11053707301305,52.9449791572042 -2.11050127934607,52.9449450412638 -2.11046093608373,52.9449073347536 -2.11041464619463,52.9448471666947 -2.11036246611266,52.9447869151726 -2.11032960469317,52.9447483026221 -2.11030424876415,52.9447168726921 -2.11030277085612,52.9447150762096 -2.11027743204187,52.9446908359587 -2.11023560120517,52.9446468399996 -2.11022809413639,52.9446378603893 -2.10967194073946,52.9447966406444 -2.10897747575984,52.9449940999649 -2.10900442079213,52.9450228327958 -2.10903272479739,52.9450551592062 -2.1090580539439,52.945075804886 -2.10907601281578,52.945093761514 -2.10911476684453,52.9451342558009 -2.10914761827894,52.9451692738555 -2.10918047287269,52.9452060888737 -2.1092162817961,52.9452464968757 -2.10937435642657,52.9454045164473 -2.10946687184308,52.9454997802647 -2.10918591695788,52.9456078837919 -2.10897336927588,52.9456925586975 -2.10879493391687,52.9457781885562 -2.10846795206587,52.9459303695028 -2.10826727736805,52.9460051456638 -2.10818693264371,52.9460151056151 -2.10818708312787,52.9460745081975 -2.10818727891906,52.9461517951086 -2.10816509727169,52.9462111284485 -2.10812793581284,52.946218351613 -2.10757291480681,52.9462530140344 -2.10697329505165,52.9463146738441 -2.10634679925603,52.946326029823 -2.10629171271093,52.9463287758254 -2.1062277571658,52.9463180493756 -2.10620235801891,52.9463180724465 -2.10613403913669,52.9463289190434 -2.10604020200135,52.9463415857246 -2.10601945199181,52.9463362118069 -2.10598520399165,52.9463308510199 -2.10594645042775,52.9463389747909 -2.10591678083181,52.946348886401 -2.10586914721428,52.9463390448088 -2.10583184540749,52.9463390785772 -2.10552092182544,52.9463420555108 -2.10529466356613,52.9463449554121 -2.10497469130358,52.9463605206185 -2.10465922699353,52.9463634993784 -2.10438971849852,52.9456895493189 -2.10420092285547,52.945154012685 -2.10263516850455,52.9456731292906 -2.10151539109034,52.9460336698109 -2.10123315396911,52.9456123471412 -2.10065075959524,52.9447606427787 -2.10034305570737,52.9443033934259 -2.10033111121523,52.9442854304984 -2.09899457184664,52.9448268917138 -2.09817974492478,52.9451611021356 -2.09797012370225,52.94524845582 -2.09663388140717,52.9433420405026 -2.09407052528231,52.939613522553 -2.09319742570264,52.9383988374871 -2.09321966574105,52.9383583781903 -2.09276447879987,52.9377186938625 -2.09269730690281,52.9376315744703 -2.09260479291239,52.9375120320934 -2.09212313291535,52.9369892860402 -2.0914564946382,52.9362966486984 -2.09113150014411,52.9359957511544 -2.09107801503547,52.9359966923007 -2.09027867577251,52.9351280951698 -2.08957632108937,52.9343977247609 -2.08881882860184,52.9335668275881 -2.08846838264911,52.9331589088377 -2.08752221930217,52.9324818310313 -2.0877154022405,52.9323549691964 -2.08689081694997,52.9314305625868 -2.08609443473698,52.9304845582923 -2.08562025409726,52.9298808049312 -2.08484644601434,52.9290318322612 -2.08464664483268,52.9287847449788 -2.08427337539653,52.92889204668 -2.08390612084172,52.9289390401702 -2.08343597606229,52.9289321832605 -2.08319787358425,52.9289161744852 -2.08295387440469,52.9288947774515 -2.08242423117853,52.9288178606078 -2.08206565063082,52.9287847680589 -2.08191563462436,52.9289071855706 -2.08186210540368,52.9289440689736 -2.08108763891429,52.9292511478687 -2.08096137028632,52.9293509894702 -2.08084849912574,52.9294652913069 -2.08060043655752,52.9296317193935 -2.08028996435068,52.9298773645971 -2.08022010569562,52.9299070693794 -2.08002239178015,52.9299764020788 -2.07972647305207,52.9300701569365 -2.07926258821956,52.9302043741571 -2.07938432950883,52.9292487096757 -2.07940467575211,52.9289763017144 -2.07905663754633,52.9290052935441 -2.07859842862587,52.9290190800124 -2.07827116907647,52.9290094115456 -2.07812690006529,52.9289933304162 -2.07798998228266,52.9289736493503 -2.07773242090741,52.9289127083865 -2.0774258545487,52.9288149518758 -2.07709530693105,52.9286802741242 -2.07699110605749,52.9286425969241 -2.07689145369541,52.9286103085858 -2.07679317009499,52.9285888039993 -2.07669354540933,52.9285717931643 -2.07655961376843,52.9285745769379 -2.07642581039832,52.9285800555339 -2.07618925719582,52.9286044729139 -2.07582258413141,52.9281542839749 -2.07551285670149,52.9279972109971 -2.07513029058146,52.9278472826581 -2.07483543122558,52.9277027811346 -2.07470295390329,52.9276246779104 -2.0745778326073,52.9275437849451 -2.07436634515305,52.927380356102 -2.07427389403269,52.9272545971635 -2.07422171444296,52.9271529883138 -2.07399274034501,52.9272295205363 -2.07387684734236,52.927306971278 -2.07356699039143,52.9270671235039 -2.07323638780534,52.9268857034716 -2.07226573235434,52.9263667674391 -2.07199176701354,52.9262374340968 -2.0713740569417,52.9259789858702 -2.07076818712605,52.9257554866979 -2.07038871230273,52.925600150766 -2.06992258515207,52.9252525463705 -2.06836340901527,52.9241792773456 -2.06812067229234,52.9240058840148 -2.0677440498585,52.9237786473183 -2.0674610406362,52.9235739134483 -2.06725705669936,52.9233960026788 -2.0671378551054,52.9233205823268 -2.06688782511325,52.9231823293327 -2.06675833698681,52.9231158120846 -2.06659904086826,52.923044008829 -2.06643680601511,52.9229740039884 -2.06628354808965,52.9229201701168 -2.06612870025698,52.9228690328386 -2.06593681378064,52.9228160293313 -2.06574186657489,52.922765813018 -2.06535496134313,52.9226941354673 -2.06473162734799,52.9225506936232 -2.0638000144907,52.9222581465366 -2.06338787505865,52.9221189864082 -2.06295685717658,52.9223952012366 -2.0630432575224,52.922439189818 -2.06283674191792,52.9226056451409 -2.06264511577363,52.922808847613 -2.06237644896817,52.9231623497292 -2.06210783165434,52.9235526057446 -2.06190292526271,52.9238197099691 -2.06160728936023,52.9241057336862 -2.06105326724878,52.9245770181164 -2.06104726700404,52.9245833119557 -2.0608750051207,52.924788389106 -2.06075340174064,52.9249996405655 -2.06042226461592,52.9254286598371 -2.06006864130892,52.9257470678686 -2.05968701851008,52.9262173669375 -2.05943020007033,52.9265707725697 -2.05914527510712,52.9270878422165 -2.05844897490842,52.9280509570237 -2.0580540804799,52.9286211008288 -2.05717215043997,52.9298548930081 -2.05693310299768,52.9302280551702 -2.05680539274814,52.9303935651293 -2.05639697953621,52.930883636498 -2.0559483006118,52.9313558418522 -2.05568976058266,52.9315635614727 -2.05547560222617,52.9316644047252 -2.05537598579088,52.9317462322547 -2.05511886068292,52.9319144080154 -2.05489294734177,52.9320332300668 -2.05468625201235,52.9321204987825 -2.05389813921694,52.9324067349031 -2.05379262971554,52.9324885637277 -2.05360374545206,52.9325992784837 -2.05351468158181,52.9326891873453 -2.05335267625339,52.9328141790534 -2.05306262654818,52.9329536959481 -2.05261808310919,52.9331471136335 -2.05183011025093,52.9335727210839 -2.05173366241602,52.933748009816 -2.05156873308913,52.9339989108373 -2.05133107009378,52.9342597292975 -2.05107401673193,52.9345142647958 -2.05081992401932,52.9347849743281 -2.05048400120224,52.9350529334232 -2.05004998377647,52.935464006692 -2.04970508891653,52.9357248672002 -2.04928732272784,52.9359856672752 -2.04871035787009,52.9362807723315 -2.04820178076344,52.9365246209412 -2.04783303729285,52.9366496910233 -2.04771996515006,52.9366812814646 -2.04760542172352,52.9367118835332 -2.04706679644449,52.9367516436386 -2.04665479918114,52.9368165139687 -2.04643605597853,52.9368049175809 -2.04626495191885,52.9368319456943 -2.04619241553245,52.9371376234736 -2.04612709291177,52.9373102899558 -2.04613017885802,52.9374406002601 -2.04611834694765,52.9375035141474 -2.04598647300548,52.9379611859906 -2.04582041445891,52.9384619176088 -2.04611198591977,52.9384249573249 -2.04658216361036,52.9384849857362 -2.04717898806354,52.9385801011749 -2.0473635370159,52.9386141778104 -2.04776382734586,52.938707481319 -2.0484396350832,52.9388843396921 -2.04899178234662,52.9390602577565 -2.0499326366261,52.9393780948885 -2.04943025985223,52.9399150122779 -2.04893980369149,52.9403736453191 -2.04896669372044,52.9404995426558 -2.04877325709648,52.9405346722481 -2.04873168664381,52.9405526632242 -2.04869294197715,52.9405733499034 -2.048527971785,52.9407181091095 -2.04791409210525,52.9413044935693 -2.047139700618,52.9420959338091 -2.04720968828126,52.9421444366814 -2.04698823184968,52.9423674949404 -2.04674010981135,52.9426678520712 -2.04665371506364,52.9426499122119 -2.04634462328378,52.9430743150163 -2.04613658073763,52.9433432002625 -2.04592131431954,52.9437424013834 -2.0458946903421,52.9439716727238 -2.04571940125277,52.9442414434532 -2.04545195000265,52.944611904951 -2.04537024187152,52.9447359587692 -2.04522918177227,52.9450075126418 -2.04501063842164,52.9452251739827 -2.04493485024014,52.9453797811361 -2.04461075850948,52.945691845477 -2.04511828801087,52.9457276017773 -2.04543086692194,52.9457841907944 -2.04557827934953,52.9458281708996 -2.0460546595766,52.9459924497623 -2.04617081146942,52.9460616051887 -2.04626170786414,52.9461515311292 -2.04627807515918,52.9461955615369 -2.04629007626455,52.946286326462 -2.04628865856437,52.9463375537648 -2.04620409561299,52.9465443798434 -2.04628303716639,52.9465838918549 -2.04614633640963,52.946802422146 -2.04592346645818,52.9471081594928 -2.04582663953097,52.947095615098 -2.04564085869544,52.9473194658984 -2.04543719068559,52.9474571366047 -2.04516499074009,52.9476522609559 -2.0446563398792,52.9479724845273 -2.04424139011026,52.9482540270011 -2.04395440151411,52.9483989153171 -2.04355569554406,52.9486139446681 -2.04318987666545,52.9488333638069 -2.04321688675696,52.9490877786269 -2.04348219382323,52.9494562424731 -2.04381156909975,52.9499496922953 -2.04386079367131,52.9500853784611 -2.04387583232187,52.9501509794684 -2.04389675694281,52.9503317017456 -2.04389100354899,52.9504638133949 -2.04388955700464,52.9504899665054 -2.04385994605443,52.9506921852787 -2.04379624749013,52.9509223671523 -2.04380975718416,52.9510526737278 -2.04379333778734,52.9510760464971 -2.04377262111898,52.9510976229318 -2.04369817962711,52.9511444728252 -2.04357772248994,52.9511930476518 -2.04313126769984,52.9513028529865 -2.04303752968467,52.9513199619783 -2.0430316722824,52.9513532166664 -2.04307034636521,52.9513711764169 -2.0432250739651,52.9513531461762 -2.04345136414306,52.9513530632994 -2.0436493417912,52.9513871410616 -2.04371931745403,52.951413177903 -2.04388918393313,52.9515578962688 -2.04394123644929,52.9515776478004 -2.04402160975606,52.9515713270045 -2.04413323710237,52.951527248934 -2.04419421936397,52.9515191382269 -2.04432073511934,52.9515127999883 -2.044472540633,52.9515172360501 -2.04456041529465,52.951525291849 -2.04465567595174,52.9515567105903 -2.04474652638679,52.9515935228916 -2.04487315327123,52.9516941298182 -2.04499813180615,52.9517427026799 -2.04499814981419,52.9517597775383 -2.04497891774832,52.9517930374147 -2.04493575214485,52.9518218115702 -2.04490300101727,52.9518353048167 -2.04475270029534,52.9518632214323 -2.04469922817684,52.9518955952394 -2.04471705670752,52.951928840172 -2.04485702910512,52.9519979874325 -2.04498978110893,52.952202032657 -2.0450269747117,52.9522119043917 -2.04535122681725,52.9520058880034 -2.0454687607262,52.9519779832211 -2.04556854161838,52.9519869317717 -2.04566676878464,52.9520363223999 -2.04573383402038,52.952093004776 -2.04574429026185,52.9521154684707 -2.0457458094893,52.9521595043906 -2.04573393129403,52.9521837737361 -2.04571015228734,52.9522098455971 -2.04558520421593,52.9523060547282 -2.04556733097681,52.9523474021275 -2.04556588634177,52.952374453319 -2.04559283447367,52.9524418461432 -2.04567771672164,52.9525182035425 -2.04571946825846,52.9525433511475 -2.04576403705196,52.9525640037434 -2.0458951305975,52.9525891167295 -2.04603943297633,52.9525746818386 -2.04611393857585,52.9525872347106 -2.04626435100899,52.9526608692827 -2.04635212245065,52.9526851896185 -2.04641312156217,52.9526914566602 -2.04679725807504,52.9527092802367 -2.04688956257634,52.9527272175612 -2.04694768296594,52.9527927998261 -2.04700877830579,52.9528862405882 -2.04704305410702,52.9529203776169 -2.047239640398,52.9530183481824 -2.04744962248419,52.953134196998 -2.04755974386508,52.9531701014024 -2.0477071604293,52.9531934079341 -2.04787091797392,52.9532346824132 -2.04797516488786,52.9532849676956 -2.04812716190136,52.9534521551027 -2.04812425982562,52.953490800828 -2.04811091862872,52.9535222608996 -2.04809450722669,52.9535528232542 -2.04805294058933,52.9535842947705 -2.04789219624911,52.9536059286201 -2.04782974470165,52.953618535704 -2.04778804028683,52.9536375152164 -2.04775529422275,52.9536573001692 -2.04774341823211,52.9536815697142 -2.04773755709222,52.9537085328196 -2.04774201299652,52.95374268166 -2.04777193313955,52.9538298445625 -2.04779874396126,52.9538810592553 -2.04791201246025,52.9539844542823 -2.04812058261709,52.954147933973 -2.048211299632,52.9541685678233 -2.04826488077991,52.954124509506 -2.04829905487656,52.9540669782508 -2.04836452932458,52.9540130291626 -2.04843741186465,52.953998620516 -2.04855645954988,52.9540030648146 -2.04869338128874,52.9539688580043 -2.04876781971304,52.9539211060399 -2.04880189351857,52.9538833464279 -2.04890150765959,52.9537422088936 -2.04899519087038,52.9536747678764 -2.04905337512653,52.9537933725487 -2.04909380351846,52.953945327025 -2.04925469832325,52.9540549020975 -2.04912513915003,52.954088207543 -2.04896598132516,52.95410175422 -2.04887066449149,52.9541368431577 -2.04887376923793,52.9541691945951 -2.04895721808353,52.9542726018367 -2.04896913007444,52.9542788869487 -2.0491998533078,52.9542787914169 -2.04940674248119,52.9542562385307 -2.04939333974785,52.9543407222102 -2.04940242046302,52.9544458663375 -2.04943377702036,52.9544988767029 -2.04947995045284,52.9545240211673 -2.0495336089049,52.9545473654634 -2.04996068574495,52.9545390983148 -2.05012617913527,52.9546936947761 -2.05038386142577,52.9548643396924 -2.05031098770736,52.9548869282711 -2.05021737892152,52.9550181785542 -2.05054197461852,52.9551070126705 -2.0506565229364,52.9551429114684 -2.05065823762184,52.9552445545057 -2.05071639483508,52.9553335007615 -2.05080712411991,52.9553613225442 -2.05107948160515,52.9552785244861 -2.05108991626498,52.9552812159773 -2.05114052377153,52.9553171427384 -2.05116585015167,52.9553539784491 -2.05123596065385,52.9554833617806 -2.05125832646339,52.9555077067822 -2.0512821578592,52.955526569279 -2.05134182348257,52.9555427202815 -2.05138046693972,52.9555292227233 -2.0514295028261,52.9554832780255 -2.05157384585671,52.9553924463155 -2.05165861803535,52.9553654477745 -2.05177472187523,52.9553680931425 -2.05185513051104,52.9553860327574 -2.05209331019996,52.9554560267335 -2.05236737146187,52.9555638408012 -2.05256104696984,52.9556707010276 -2.05268308864363,52.9557101895257 -2.05280971826338,52.955788320423 -2.05285312416984,52.9559537531949 -2.0528502539213,52.9560148658871 -2.05289339756287,52.9560678701192 -2.05327024632876,52.9562196728196 -2.05360545045908,52.9564361096292 -2.05347011433563,52.9565629782141 -2.05350149278825,52.9566294674608 -2.05342416399963,52.9567211703106 -2.05336916554861,52.9568075609925 -2.05338416811402,52.9568309200568 -2.05343183909426,52.956871340195 -2.05346610513707,52.9568910965282 -2.05373118673975,52.9569718600147 -2.05380263950576,52.9569898023907 -2.0539484744292,52.9570113049936 -2.05431764887175,52.9570066427415 -2.05453940862549,52.9569921621744 -2.05471213177498,52.9570217394469 -2.05482538123026,52.9570909773797 -2.05488059059134,52.9571709369992 -2.05479893088706,52.9573291461476 -2.05485103220472,52.9573776525414 -2.05498953132333,52.9574208159555 -2.05511172653041,52.9574791756374 -2.05515185813836,52.9574764601183 -2.05524413016267,52.9574575444189 -2.05530211702145,52.9574062918826 -2.0552738503635,52.9573774564599 -2.05528865193538,52.9573388049961 -2.05543603761251,52.9573252563396 -2.05558936402452,52.9573494494322 -2.05567568108202,52.9573772687173 -2.0557978962798,52.9574491975215 -2.0558232161442,52.9574770453497 -2.05584116937231,52.9575039985741 -2.05583229523339,52.9575696080892 -2.0559530083346,52.95771253476 -2.0559887498966,52.9577322896824 -2.05602301221413,52.9577466524195 -2.05609898060964,52.9577430216073 -2.05618675477903,52.9577573599055 -2.05628220488659,52.9578220210889 -2.05630601845514,52.9578247057875 -2.05632835271012,52.9578219992091 -2.05639973954149,52.9577869156991 -2.05655737102522,52.95772393137 -2.05665280138345,52.9577733153087 -2.05670490531228,52.9578218200069 -2.05680478283546,52.9578927704984 -2.05692388393306,52.9579286611653 -2.05710715888931,52.9580427988947 -2.05720393593152,52.9580885859031 -2.05730372943534,52.9580957276958 -2.05738849517751,52.9580615360971 -2.05746132802233,52.9580083875036 -2.05755359049961,52.9579822801194 -2.05759826868947,52.9579840554854 -2.05769659948846,52.9579983875557 -2.05775012857021,52.9580109434138 -2.05784248939438,52.9580577209131 -2.05784406150513,52.9581305154073 -2.05779068489521,52.9582320944477 -2.0577059727385,52.9583049308897 -2.05780423549729,52.9583597944148 -2.05795170445511,52.9584046571824 -2.05808556560835,52.9583722390509 -2.05825833705899,52.9584314688644 -2.05846539972042,52.9585248322332 -2.05849527572286,52.9585625631507 -2.05851768394884,52.9586137785771 -2.05852962310431,52.9586380374832 -2.05853409668453,52.9586785664838 -2.05851485010426,52.958785519759 -2.05857451719147,52.9588870422886 -2.05859707756473,52.9590497832154 -2.05868219843712,52.9591854431447 -2.05872110201203,52.9593625546016 -2.05866611758962,52.9594542479779 -2.05855613044673,52.9595351837801 -2.05848475235327,52.9595765586398 -2.05848921484931,52.9596089993359 -2.05859205003014,52.9596835395106 -2.05862779065011,52.9597005973451 -2.0587990156236,52.9597014108836 -2.05886591824296,52.9597085675533 -2.05900150245312,52.9597651176972 -2.05908347604155,52.9598423646562 -2.05910439453876,52.9598800982439 -2.05914322896207,52.9600041881067 -2.05921493758483,52.9601128932574 -2.05943990787795,52.9602791281075 -2.0595890165173,52.9604399187991 -2.0597275788251,52.9605171370418 -2.05977672453409,52.9605522503316 -2.05981860203206,52.9606564772207 -2.05979181459378,52.9607238926408 -2.05978301449579,52.9608380297634 -2.05980714232692,52.9609774044097 -2.05982643107552,52.9609899763557 -2.05985025810616,52.9609998500847 -2.05998285486215,52.9610240477282 -2.06007816029025,52.9610635416001 -2.06013916688853,52.9610653087184 -2.06020323666973,52.9610634784789 -2.06032816825727,52.9610472396849 -2.06049636893688,52.9609887391703 -2.06060501673259,52.9610030634852 -2.06069746670281,52.9611063654516 -2.06074979288955,52.9612187644631 -2.06077512946504,52.9612546994637 -2.06087797635093,52.9613319337925 -2.06098664448911,52.9613588385139 -2.06111771438929,52.9613434938125 -2.0613943532587,52.9612373066547 -2.06168613934576,52.9611670580131 -2.0623840179667,52.960963501462 -2.0629569512525,52.9608553570809 -2.06365940459047,52.9606823455064 -2.06381878041304,52.9607191071493 -2.06429541597576,52.9608977799573 -2.0643579150246,52.9609130238176 -2.06442200595988,52.9609255708424 -2.06501602652923,52.9609656890862 -2.0650904529788,52.9609944066811 -2.065248446196,52.9610886828058 -2.06537513731579,52.9611821668626 -2.06582067700153,52.9614866676903 -2.06598911900061,52.9615890249856 -2.06623211785631,52.961802868686 -2.06668968985131,52.9621810529934 -2.06693571609387,52.962364247678 -2.06723082426561,52.9626131094394 -2.06772717236466,52.9629714968679 -2.06830484115785,52.9629756603704 -2.06888093561219,52.9629933019409 -2.06888421157458,52.9631228018026 -2.06885180650835,52.963352975871 -2.06874209768197,52.9636793542807 -2.0686769326189,52.9638429539039 -2.06857633585003,52.9642654865279 -2.06850696534944,52.9646413599807 -2.06841373229285,52.9649874999278 -2.06837657761331,52.9650899717664 -2.06820149585131,52.9654568279325 -2.06797585280797,52.9658344969577 -2.06786293183456,52.9660009087222 -2.06774860834836,52.9662122559818 -2.06758669647821,52.9664505003974 -2.06751103081163,52.9665782467279 -2.06737443209283,52.9668345408755 -2.06731509100817,52.9669603909741 -2.06725738872565,52.9671941621837 -2.06726942126672,52.9672750332577 -2.06724721259313,52.9673613160417 -2.0672890782126,52.9675213411869 -2.06737128619836,52.9677297810018 -2.06746820054204,52.96776486282 -2.06778834403588,52.9678275875052 -2.067876277151,52.9678500040409 -2.06796863665903,52.9678760127128 -2.0680729415571,52.9679253787962 -2.06817577261618,52.9679747454446 -2.06831585180099,52.968055544105 -2.06846491629553,52.9681517032879 -2.06844733488644,52.9683673878394 -2.06902379536563,52.9684929563374 -2.07024218227041,52.9687574366471 -2.07017533403051,52.9688698063868 -2.07045535552875,52.9689388372802 -2.0705222690369,52.9688669062673 -2.07129988845031,52.9691001818383</coordinates></LinearRing></outerBoundaryIs></Polygon>
  </Placemark>
