  <Placemark>
	<Style><LineStyle><color>ff0000ff</color></LineStyle><PolyStyle><fill>0</fill></PolyStyle></Style>
	<ExtendedData><SchemaData schemaUrl="#Wards__December_2019__Boundaries_EW_BFE">
		<SimpleData name="objectid">5381</SimpleData>
		<SimpleData name="wd19cd">E05011110</SimpleData>
		<SimpleData name="wd19nm">Peckham</SimpleData>
		<SimpleData name="wd19nmw"></SimpleData>
		<SimpleData name="bng_e">533948</SimpleData>
		<SimpleData name="bng_n">177110</SimpleData>
		<SimpleData name="long">-0.07257</SimpleData>
		<SimpleData name="lat">51.4771</SimpleData>
		<SimpleData name="st_areashape">855236.64976515</SimpleData>
		<SimpleData name="st_lengthshape">4802.56467335087</SimpleData>
	</SchemaData></ExtendedData>
      <Polygon><outerBoundaryIs><LinearRing><coordinates>-0.064665790692744,51.4739821040039 -0.06394300057671,51.4748649674099 -0.063886495459606,51.4749404515588 -0.063790878269885,51.4750899985496 -0.063728540439172,51.4752022462225 -0.063690247926607,51.4752906176713 -0.063652689867078,51.475395272948 -0.063529887647583,51.4758446459712 -0.063493165303932,51.4759295369623 -0.063474477552594,51.4759642904009 -0.063391113679293,51.47606270465 -0.063341675264311,51.4761086369447 -0.063225854076059,51.4761912312203 -0.063116487039254,51.4762560416603 -0.063037058622656,51.4762951848675 -0.062895089666385,51.4763503760532 -0.062701346152597,51.4764029124672 -0.062199995739521,51.4765078998776 -0.061995233883736,51.4765486557085 -0.061806787939007,51.4765770047245 -0.060953649891759,51.4766617830977 -0.060956002399858,51.4766735091696 -0.060989465869375,51.4767999272247 -0.06107068604629,51.4769901576071 -0.061319264150393,51.4772433913406 -0.062268893033385,51.4783139318485 -0.062645332814596,51.4788453696667 -0.06266357784228,51.4789247851796 -0.06268454216461,51.4789736797895 -0.062718324390193,51.4790254832762 -0.062758032694134,51.4790747767948 -0.062831664992901,51.4791389262001 -0.063019268519173,51.4792651947297 -0.063068101914136,51.479233636633 -0.063244594549312,51.4791457520683 -0.063428991301475,51.4790786751731 -0.063707230581574,51.4790022709789 -0.064075347778485,51.4789148546082 -0.064680419259244,51.4788061781506 -0.065632768909309,51.4786617866998 -0.066792222041919,51.4784858323311 -0.067717412926509,51.4783346828189 -0.068530864752489,51.4782060468763 -0.068839898445241,51.478150814619 -0.069018012867252,51.4780944137321 -0.069274731053201,51.4779817694856 -0.069531912579205,51.4778609515198 -0.070020579781121,51.4776766077871 -0.070246834728806,51.4776048151953 -0.070603820674688,51.4775413777631 -0.071030314261638,51.4774683854418 -0.07118222176994,51.4777910293429 -0.071180288932764,51.4778368475774 -0.071331332801108,51.4781828521465 -0.071786825577466,51.4791651629422 -0.072012419028937,51.4796554278199 -0.072020712981087,51.4796276945322 -0.072116120928111,51.4798234537329 -0.072269793839199,51.480174983954 -0.07246692810276,51.4806251329322 -0.073028832089955,51.4817800926154 -0.073130315884606,51.482175625087 -0.073056445379182,51.4826294078411 -0.072925695188405,51.4827253411797 -0.073513790030938,51.4826791800317 -0.07394379123227,51.482659276904 -0.073948191393437,51.4826224893677 -0.073960715028509,51.4825309943002 -0.074044521417215,51.4825260783201 -0.074045770439444,51.4824964305709 -0.074039500304981,51.4822337222502 -0.074149175100006,51.4822292312913 -0.075139546264318,51.4821726796037 -0.07559867986257,51.4821460564321 -0.075629580162996,51.4824388372751 -0.075776786840741,51.4824313647976 -0.075714050849662,51.4821416575408 -0.07658215084081,51.4820811984999 -0.077379229227057,51.4820322433942 -0.078610915229435,51.4819580443298 -0.079343462165935,51.4819017256687 -0.080942484792806,51.4817893791972 -0.080984518253885,51.4817837742689 -0.081000414031643,51.4817813375921 -0.081405025467511,51.481749303477 -0.081852075335505,51.4817359436959 -0.082576440296754,51.4817046436917 -0.083417597047799,51.4816689550935 -0.08378545235509,51.4816524951867 -0.083799967269455,51.4816518332202 -0.08377333947062,51.4814966754326 -0.083754281183306,51.4813309435337 -0.08374049436263,51.4812830696384 -0.083782344937385,51.4812450056212 -0.083856156581504,51.481135633056 -0.083937987699894,51.4810021163246 -0.08401394830651,51.4808414441585 -0.084011057380142,51.4808395992319 -0.084062074370196,51.4806875984068 -0.083991928226538,51.4806783608152 -0.082604517008787,51.4805198278665 -0.082593232362579,51.4805142493498 -0.082552555216511,51.4804875118504 -0.082520692785581,51.4804573223215 -0.082152559182278,51.4798946229068 -0.082189757692848,51.4798655633818 -0.081904122344762,51.4794310649822 -0.081856131154656,51.4794428658965 -0.081607004585605,51.4790638043016 -0.080749733114835,51.4776684154271 -0.080808760246841,51.4776001570356 -0.080967151305048,51.4774616037253 -0.080517744511288,51.477189840222 -0.080424821104892,51.4771406696921 -0.07899123939561,51.4763005940121 -0.078775628096126,51.4761873783905 -0.078599126695029,51.4760702181332 -0.078533722879385,51.4760161033386 -0.078467193276188,51.4759520806206 -0.078119602066572,51.4755552147758 -0.078005197285832,51.4753986157251 -0.07790387919645,51.475241422704 -0.07767911296344,51.4748320946606 -0.077405258023817,51.4742547414209 -0.07665134895351,51.4743080893677 -0.075922790555576,51.4743401822195 -0.075605764016798,51.4743125008616 -0.075110345856535,51.4742468272751 -0.07435963384883,51.4740860642945 -0.073716258789729,51.473908271151 -0.072819126310947,51.4736695728521 -0.072497241189856,51.4736193281468 -0.072258653026106,51.4735758458278 -0.071890564508456,51.4734950811026 -0.071116232255862,51.4733825463494 -0.070720612161463,51.4733409715926 -0.070477052519758,51.4733450524703 -0.070331070357878,51.4733579330316 -0.070207802478861,51.4733783781584 -0.070104513330662,51.4734036486094 -0.069911721076221,51.4734679002052 -0.069764656405229,51.4735401880119 -0.069540281463404,51.4736353848449 -0.069285599224575,51.473700414464 -0.069091551495499,51.4737268856873 -0.068924714879191,51.4737556026638 -0.068729945854849,51.4737991424649 -0.068506931178215,51.4738620852558 -0.067843270477807,51.4739599260535 -0.067701598866704,51.4739746707929 -0.067526860270427,51.4739852746357 -0.067041125092338,51.4739970412263 -0.066108239003817,51.4739897382594 -0.065440819012857,51.4739742257494 -0.064799926444971,51.4739771270301 -0.064665790692744,51.4739821040039</coordinates></LinearRing></outerBoundaryIs></Polygon>
  </Placemark>
