  <Placemark>
	<Style><LineStyle><color>ff0000ff</color></LineStyle><PolyStyle><fill>0</fill></PolyStyle></Style>
	<ExtendedData><SchemaData schemaUrl="#Wards__December_2019__Boundaries_EW_BFE">
		<SimpleData name="objectid">7164</SimpleData>
		<SimpleData name="wd19cd">E05012937</SimpleData>
		<SimpleData name="wd19nm">North Baddesley</SimpleData>
		<SimpleData name="wd19nmw"></SimpleData>
		<SimpleData name="bng_e">439893</SimpleData>
		<SimpleData name="bng_n">120644</SimpleData>
		<SimpleData name="long">-1.43305</SimpleData>
		<SimpleData name="lat">50.98381</SimpleData>
		<SimpleData name="st_areashape">7966233.65192575</SimpleData>
		<SimpleData name="st_lengthshape">14736.1439019657</SimpleData>
	</SchemaData></ExtendedData>
      <Polygon><outerBoundaryIs><LinearRing><coordinates>-1.41303989945207,50.9972022981177 -1.4130768966841,50.9972033832989 -1.41411988038755,50.997214013784 -1.41524855506344,50.9972124790564 -1.41650811480418,50.9972205762882 -1.41724637815769,50.9972170701851 -1.41749007020906,50.9972164882964 -1.41835104157901,50.9972001029251 -1.41919500501379,50.9971719390388 -1.4194665372712,50.9971058643518 -1.41968884614201,50.9971051715596 -1.41986294043073,50.9970889552485 -1.42037344993692,50.9970609245297 -1.42161648629438,50.9970275317424 -1.42173237348758,50.9969867518889 -1.42180940546615,50.9969808403333 -1.42208444258079,50.9969822016032 -1.42316928631125,50.9970657766657 -1.42355265225657,50.9970577804324 -1.42370231966366,50.9970594182904 -1.4243019758192,50.9970812544776 -1.42458104265751,50.9970988116873 -1.425590894426,50.9971379442137 -1.42576893857863,50.9971442134201 -1.42599975637424,50.9971489441382 -1.4262305978341,50.9971518760218 -1.4274335864708,50.997126315118 -1.4280808779124,50.9971061133909 -1.42862668406309,50.9971024919351 -1.42877916077281,50.9971050353793 -1.42896422133689,50.9971140317726 -1.42951672082669,50.9971490948185 -1.43010100710638,50.9971501497625 -1.43017797367572,50.9971496260555 -1.43123691728492,50.9971332121357 -1.43136515860057,50.9971383319192 -1.43136656929552,50.9971383387875 -1.43157915460852,50.9971159994936 -1.43205674806432,50.9970985448977 -1.4329062835232,50.9970846934302 -1.43539418159528,50.9970976466294 -1.43622903896826,50.9971115689417 -1.43692987467006,50.9971320304487 -1.43750173077526,50.9971015240408 -1.43819591141053,50.9970796938887 -1.43864898087386,50.997088165524 -1.43927330594404,50.9970812758637 -1.44050439338569,50.99709167486 -1.44139376913644,50.9970761552934 -1.44395906036158,50.9970514495221 -1.44537963309914,50.9970644976895 -1.44614892433821,50.9970789360463 -1.45006489491374,50.9970857557862 -1.45139606011341,50.9970686426814 -1.45137015161157,50.996964238045 -1.45135766406486,50.9969372100755 -1.45130996095098,50.9968776527678 -1.45122939440851,50.9966955886261 -1.45116325661988,50.9966251563656 -1.45097212135296,50.9965235710845 -1.4510332808663,50.9964086983801 -1.45104960863621,50.9963593309559 -1.45107206157967,50.9962587496493 -1.45107704591957,50.9962048335656 -1.45058970239235,50.9960846838442 -1.4503053661596,50.996025811098 -1.45023580337818,50.9960066048553 -1.45016771511079,50.9959820109325 -1.45003017080945,50.9959193332204 -1.44990985283097,50.9958504435618 -1.44985904658797,50.9958150535743 -1.44976740477538,50.9957256215741 -1.44963698496021,50.9956665730511 -1.44948186479489,50.9956496599529 -1.44903868307489,50.9955316003349 -1.44894773009108,50.9955131017253 -1.44890364099736,50.9955057014979 -1.44860593983836,50.995494407227 -1.44834634675081,50.9955192522012 -1.4482620887783,50.9955306306854 -1.44803787841303,50.9955736216778 -1.4477776225597,50.9956541993717 -1.44786069235501,50.9953767149948 -1.44796020004439,50.9951595398085 -1.44803706351469,50.9949198725511 -1.44836672961215,50.9941579183243 -1.44847418703337,50.9938742557125 -1.44859868908396,50.9935897733243 -1.44869279321878,50.9933420964546 -1.44881953162647,50.9928687473831 -1.44888748950231,50.9925471403015 -1.44889417311439,50.9924590707898 -1.44888984189876,50.9922198289881 -1.44878818889022,50.9914198765632 -1.44872754587389,50.9906489762024 -1.44870540045912,50.9902379431954 -1.44868103890034,50.9895282539942 -1.44869291255446,50.9890023110077 -1.4486938531488,50.9884474576821 -1.44863648419781,50.987757481317 -1.44863082356628,50.9876306066067 -1.44873070885965,50.9876175939445 -1.44932437582872,50.9875403843109 -1.44974656837771,50.9875001223462 -1.44973121251889,50.9872293636092 -1.44973293062392,50.9869649782543 -1.44972541953287,50.9868750440853 -1.44990623015855,50.9865251989026 -1.45010403734749,50.9861781312032 -1.45028768290818,50.9858363901802 -1.45046491545102,50.9854208119303 -1.45053862406226,50.9852170877468 -1.45083680233092,50.9851726412599 -1.4514203559383,50.9851033749118 -1.45205258526144,50.9850092528036 -1.45211006981368,50.984845816131 -1.45211258158741,50.9847523330184 -1.45217004286125,50.9842319069875 -1.4523030341215,50.9839403586706 -1.45242483305179,50.9836414756556 -1.4525256579924,50.9833083326089 -1.45256904262783,50.9831250515252 -1.452925937627,50.983189653834 -1.45329140706775,50.9832444070636 -1.4536694987222,50.9833145899724 -1.45415546995019,50.9834202469551 -1.45452913567118,50.9835073976908 -1.45461923296238,50.9832263438512 -1.45485402495789,50.9826456138355 -1.45515559952762,50.9819582140162 -1.4558673708971,50.9804121210435 -1.45635348648392,50.9792876793548 -1.45554518700684,50.9790995288576 -1.45546679131795,50.978974203547 -1.45532520262045,50.978779271039 -1.45527664029316,50.9786738619636 -1.45530649432445,50.9785615375151 -1.45534294216507,50.9784879906793 -1.45561062090339,50.9781349456105 -1.45561063141792,50.9781340473092 -1.45585939380638,50.9778114798369 -1.45621506925295,50.9773545610518 -1.4562423975313,50.9773375171621 -1.45644713514675,50.9772440762939 -1.45683329888615,50.9769913687571 -1.45695345677962,50.9769397865169 -1.45743142868379,50.976749624156 -1.45782893851538,50.9766210274316 -1.45819336515867,50.9765193351517 -1.45782147478851,50.9759213962023 -1.45757561961309,50.9757448609239 -1.45740914890481,50.9756092385642 -1.45722666619684,50.9753763604893 -1.4571639350432,50.9752672910684 -1.45902635868887,50.9749450161307 -1.45884101761797,50.9744729052212 -1.4587540150068,50.974481491719 -1.45839710870298,50.9736966338027 -1.45815167500778,50.9731217580586 -1.45802294901229,50.9728010292569 -1.45792428445001,50.9727223588994 -1.45751396868412,50.9726025946211 -1.45644834720965,50.9722658203033 -1.4558156975383,50.9720498119772 -1.4549810409104,50.9718066963769 -1.45413375227331,50.9715500305783 -1.453720966083,50.9714123526037 -1.45330090378756,50.9712844373294 -1.45163951326853,50.9707389578098 -1.45117452510395,50.970677349694 -1.4494795117089,50.9707026329842 -1.44897665011898,50.9707056547915 -1.4485163911913,50.9707305421954 -1.44769534042519,50.9707895911357 -1.44719933162187,50.9708187087797 -1.44634827096703,50.9708829998803 -1.44587239385889,50.9708978238266 -1.44439684428149,50.9710212557431 -1.44428688935821,50.9708084805717 -1.44417800541256,50.970388041916 -1.44333766001473,50.9705089995971 -1.44300608856284,50.9704858418242 -1.4430242092399,50.9707575145704 -1.44309344994223,50.9710456122368 -1.44237233749005,50.9710835246328 -1.44221745007352,50.9710540169375 -1.44220430651438,50.9710827220805 -1.44198792055864,50.9710700015565 -1.44183897015809,50.97137773443 -1.44176058144487,50.9715005210652 -1.44167876892923,50.9716737257438 -1.44164706800874,50.9718201106411 -1.44157258627438,50.9720967335255 -1.44143484772912,50.9721841761034 -1.44125892758564,50.9722435671523 -1.44091593640866,50.9723391065304 -1.43984803969467,50.9726685043844 -1.43868991584342,50.9730388117026 -1.43771661467355,50.9733120081386 -1.43760959165504,50.9733348660527 -1.43748255226098,50.9733522346403 -1.43735288853959,50.9733632965913 -1.43724024316914,50.9733654506123 -1.43706666640863,50.9733565233889 -1.43666341175985,50.9732484967726 -1.43588524675746,50.9730585592318 -1.43560963977459,50.9729996916031 -1.43538904353575,50.973101110041 -1.43538656713329,50.9733052593799 -1.43536368171941,50.9735461693984 -1.43533747379406,50.973712356318 -1.43537180643959,50.9739054088273 -1.43526248922178,50.9739076040116 -1.43516489941791,50.973968281012 -1.43510385928466,50.9740194138571 -1.43509775007803,50.9740169743117 -1.43507936407075,50.9740332427256 -1.43505632968355,50.9740640115391 -1.4350625837189,50.9740662539523 -1.43519495877327,50.9741320899589 -1.43529663978177,50.9741815090445 -1.4352889690705,50.9741869690651 -1.43517887518686,50.974220599103 -1.43494200937014,50.9742590084491 -1.43447432684037,50.974301694352 -1.4336441866697,50.9743965599268 -1.43340754699074,50.9744161792866 -1.43316209480527,50.9744554426788 -1.43214587716415,50.9745062428154 -1.4322654064214,50.974748743025 -1.43243317406139,50.9750129633458 -1.43280925670191,50.9758187599506 -1.43303668057099,50.9762092181898 -1.43309469900691,50.9763633175394 -1.43261594289111,50.9763780736829 -1.43162043773681,50.9763642428421 -1.43161902767115,50.976364235979 -1.43137126526001,50.9763513422575 -1.43112353186392,50.9763456412559 -1.43095276368052,50.9763367177939 -1.43060556262079,50.9763017630366 -1.43040094005165,50.9762665135985 -1.42964325538717,50.9761378556116 -1.42775531561571,50.9758471441724 -1.42691219802454,50.9757144536675 -1.42630807692895,50.9756196999812 -1.42536231617443,50.9754972822877 -1.4250053277686,50.9754568680975 -1.42428679752217,50.9753930952572 -1.42379765911902,50.9753268548666 -1.4218586928046,50.9747911800509 -1.42138556261568,50.9746944423231 -1.42097736838447,50.9746455815627 -1.41973130603802,50.9745081435594 -1.41899053184688,50.9744028736398 -1.41875870419311,50.9743846395934 -1.41848240336032,50.9743823647586 -1.4182842589472,50.9743939638025 -1.41737255401083,50.9744064994743 -1.41664349514272,50.9743884748709 -1.41577466586955,50.974381434024 -1.41561240009886,50.9743788244041 -1.41280124961241,50.9743368513604 -1.41121333961559,50.9743216636543 -1.41096690472981,50.9743258135338 -1.41092128493995,50.9743300787443 -1.41019780635465,50.9744280131164 -1.40942440037424,50.9745454677228 -1.408817768294,50.9746431751568 -1.40880777430206,50.9746440238071 -1.40752571543347,50.9747723744936 -1.40752288682434,50.9747732584928 -1.40589692345182,50.9749412895471 -1.40582271021232,50.9749499017333 -1.40533789879001,50.9749977773273 -1.4052108314447,50.9750160089982 -1.40506388386204,50.9750368369917 -1.404693825685,50.9751293443743 -1.4042501195376,50.9752961828331 -1.40403478294712,50.975398417799 -1.40394126117818,50.9754820060215 -1.40391579206281,50.9755066953357 -1.40380968808677,50.9757276356919 -1.40365909014092,50.9761075099797 -1.40354740276728,50.9763504586484 -1.40351945744161,50.9764248224869 -1.40353943515936,50.9764271133179 -1.40358184564985,50.9764043990378 -1.40364551292555,50.9763779714905 -1.40369603416133,50.9763547860197 -1.4036923454977,50.9763625277232 -1.40363983780926,50.9764584794773 -1.40359902395123,50.9765311103957 -1.40354522985265,50.9766162645165 -1.4035119060448,50.976660157614 -1.40325648836045,50.9772062269479 -1.40317334376253,50.9773807064111 -1.40311802439815,50.9774957976057 -1.40301836730869,50.9777026555207 -1.40294421975265,50.977852990947 -1.40293195183937,50.9778765785295 -1.40288872282892,50.9779596281565 -1.40283253308708,50.9780647330679 -1.40274308858509,50.9782354912614 -1.4030170991032,50.978322546175 -1.40325768037837,50.9783713607006 -1.40348376893037,50.9783748953301 -1.40383180931399,50.9783851167733 -1.40409591985612,50.9784172193103 -1.40422139655754,50.9784408804244 -1.4044993273938,50.9784727908788 -1.40482905357254,50.978096247812 -1.40500750965374,50.9781101874315 -1.40502460191865,50.9781102745248 -1.40505307753183,50.9781113188673 -1.40507159415275,50.9781114132111 -1.40509009927929,50.9781124067446 -1.40525581727128,50.9781192759178 -1.40528430553544,50.9781193310921 -1.4054518166691,50.978119644586 -1.40555296890422,50.9781183610815 -1.40558861225393,50.9781158447786 -1.40562566847139,50.9781142349079 -1.40567981695425,50.9781127120228 -1.40581104136628,50.9780989918356 -1.40613898732116,50.9780736826502 -1.40627443866835,50.9780635804453 -1.40640705271904,50.9780525644088 -1.40653970110762,50.978038850643 -1.40667236088319,50.9780242375335 -1.40667769621812,50.978023617183 -1.40670815178042,50.9780157236339 -1.40679734817044,50.9780024991967 -1.40684740465333,50.9779956763782 -1.40687441634891,50.977991991772 -1.40692698413811,50.9779848309679 -1.40696069725609,50.9779839860425 -1.40728584059683,50.9779482191015 -1.40743280063907,50.9779291814622 -1.40764255785732,50.9779005704634 -1.40780237107517,50.9778788998102 -1.40787371437557,50.9778693698538 -1.40851566564227,50.9777943886011 -1.40897109333524,50.9777467862667 -1.40898935007718,50.9777449003221 -1.40903116531143,50.9777498779924 -1.40906008319746,50.9777476035621 -1.40902424147203,50.9779066696319 -1.40901212380749,50.9780748096056 -1.40901651570201,50.9781728223149 -1.40903322156633,50.9783185441569 -1.40904456148835,50.9784337623226 -1.40904284923464,50.9785686026283 -1.40904341672297,50.9787457974954 -1.40904022724672,50.9788860240246 -1.40902154695375,50.979126950293 -1.40950617951689,50.9792166042165 -1.40980451350484,50.9792711530061 -1.40988422529124,50.979283242537 -1.40994108273661,50.9792916213229 -1.41000503510938,50.9793054287364 -1.41006883538368,50.9793220230235 -1.41017392150893,50.9793522210663 -1.41024914103264,50.9793759743181 -1.41033982108574,50.979412392407 -1.4104462152557,50.9794506873669 -1.41074213008144,50.9795852314656 -1.41094202675776,50.9796690376465 -1.41112608159483,50.9797517744161 -1.41131152758815,50.9798453062151 -1.4114871952616,50.9799226055209 -1.41168690974673,50.9800118031998 -1.41154992078056,50.980145063498 -1.41137647626412,50.9803375623465 -1.41129379716625,50.9804576109382 -1.41124697863135,50.9805562636674 -1.41122178262051,50.9806353381128 -1.41121942839987,50.9807099424487 -1.41125378678641,50.9808072068564 -1.41111716849985,50.9809108912636 -1.41135797771436,50.9810199849022 -1.41153176051784,50.9811260425283 -1.4116817961733,50.9812059100842 -1.41181177515072,50.9812929585486 -1.41192197091019,50.9813654329035 -1.41195211323321,50.9813503019411 -1.41220546856234,50.9814801334522 -1.41247717164608,50.981617337951 -1.41262293254089,50.9816917890705 -1.41235847562533,50.9817713676662 -1.41274898712287,50.982322796535 -1.41320429187304,50.9829248932356 -1.41362428641276,50.9835151241095 -1.41365085926854,50.9835503183928 -1.41367099674188,50.9835369343537 -1.41387475812371,50.983875169655 -1.41387444102607,50.9839003398559 -1.4138729008225,50.9840225949841 -1.41374604669793,50.9841434117368 -1.41361992992525,50.9843081936608 -1.41353305412656,50.9844256148208 -1.41340952190229,50.9846182781314 -1.41331194261141,50.984783292086 -1.4132086133667,50.9849571769342 -1.41314154132728,50.9850782943023 -1.41306465536104,50.9851857863376 -1.41300990616554,50.9852331578756 -1.41271989958202,50.9854088914623 -1.41242420945261,50.9855881010056 -1.4123122417558,50.9856550523174 -1.41241262493191,50.9858263662573 -1.41243924683213,50.9858669547327 -1.41275477603553,50.9863775510865 -1.41255464808466,50.9864304832964 -1.41255442104612,50.9864484626413 -1.41260522102266,50.9867140101594 -1.41261927705358,50.986838142166 -1.41264960476408,50.9869201929171 -1.4126927967025,50.9871091984953 -1.41269202496733,50.9871703255645 -1.41271752160857,50.9874024834184 -1.41274107769325,50.9875743998019 -1.41281783322368,50.9881476226193 -1.41290044740059,50.988601219834 -1.41293107391384,50.988771373189 -1.41291249666796,50.988782067187 -1.41264400642422,50.9889452328852 -1.41247900473462,50.9890343016897 -1.41232262193158,50.9891199083624 -1.41040798695034,50.9899941464485 -1.41027044192828,50.9900573696566 -1.40818516421191,50.9910135069421 -1.4067649012385,50.9916627444434 -1.40594838568681,50.9919958049708 -1.40578339403705,50.9920624901721 -1.40580757178826,50.9921134243311 -1.40590229819419,50.9923275677537 -1.40620096837912,50.9930184508725 -1.40629870781207,50.9932290311776 -1.40632342002703,50.9932822844176 -1.40639492354419,50.993451886485 -1.40648777103331,50.9936685377548 -1.4065432446121,50.9938102714701 -1.40661305367854,50.9939787856769 -1.40675171005887,50.9942908998778 -1.40682810041844,50.994289849096 -1.40683239246149,50.9942996727046 -1.40683334513449,50.9943031846126 -1.40684464276325,50.9943446973508 -1.40684865357717,50.9943654004377 -1.40685241211901,50.994405885711 -1.40685475727841,50.994445464557 -1.40686777888717,50.9945417502822 -1.40688113307989,50.9946119594869 -1.40689884216479,50.9946758960658 -1.4069028988949,50.9946930023889 -1.40690276130019,50.994703792672 -1.40692252903398,50.9948297878453 -1.40692532143964,50.994834298268 -1.40692799918786,50.9948478005931 -1.40694554790696,50.9949243258261 -1.40695193847458,50.9949819101779 -1.40696074312552,50.9950736782275 -1.40696260686525,50.9951510230556 -1.40696024183252,50.9952247494158 -1.4069553924975,50.9952696872114 -1.40694770627874,50.9953137113524 -1.40693399946571,50.9953828838743 -1.40692065952922,50.995423282309 -1.40691908558291,50.995434964545 -1.40691311084726,50.9954565161647 -1.40690705584076,50.995484362115 -1.4069097336194,50.995497864439 -1.40691383628782,50.995511373999 -1.40692015487716,50.9955410812822 -1.40691887622406,50.9955519556941 -1.40691581286489,50.9955575154774 -1.40690554050751,50.9955808437685 -1.40690395508519,50.9955934251941 -1.40690080717122,50.9956167896649 -1.40689775098765,50.9956329606146 -1.40689618849483,50.9956437436598 -1.40692813505707,50.9956528084519 -1.40734344980116,50.9957701104503 -1.40769700079274,50.995869922102 -1.40776091859898,50.9958861629414 -1.40794812175879,50.9959341427835 -1.40813268381203,50.9959881339031 -1.40848181476906,50.9960996109962 -1.40863237466959,50.9961381418832 -1.4091730371021,50.996316231687 -1.4092259185255,50.9963600228072 -1.40923310992226,50.9963772348238 -1.40918771131975,50.9964511032184 -1.40909035675456,50.9965989866248 -1.40903747644954,50.9966672417663 -1.40895851764619,50.9967691766387 -1.40887675357943,50.9968563495896 -1.40886574446113,50.9968671774669 -1.40950879714695,50.9969642454634 -1.4104167921633,50.9970569338788 -1.41166249426324,50.9971477217397 -1.41213251006886,50.9971725625268 -1.4123347322264,50.9971807724271 -1.41260965646656,50.9971911452473 -1.41303989945207,50.9972022981177</coordinates></LinearRing></outerBoundaryIs></Polygon>
  </Placemark>
