  <Placemark>
	<Style><LineStyle><color>ff0000ff</color></LineStyle><PolyStyle><fill>0</fill></PolyStyle></Style>
	<ExtendedData><SchemaData schemaUrl="#Wards__December_2019__Boundaries_EW_BFE">
		<SimpleData name="objectid">2313</SimpleData>
		<SimpleData name="wd19cd">E05005628</SimpleData>
		<SimpleData name="wd19nm">Leasingham and Rauceby</SimpleData>
		<SimpleData name="wd19nmw"></SimpleData>
		<SimpleData name="bng_e">501420</SimpleData>
		<SimpleData name="bng_n">347469</SimpleData>
		<SimpleData name="long">-0.48967</SimpleData>
		<SimpleData name="lat">53.014938</SimpleData>
		<SimpleData name="st_areashape">35634148.4375309</SimpleData>
		<SimpleData name="st_lengthshape">40994.3459632714</SimpleData>
	</SchemaData></ExtendedData>
      <Polygon><outerBoundaryIs><LinearRing><coordinates>-0.378039791410232,53.0188388316 -0.378069124911026,53.0189318931602 -0.378124476895948,53.0190063462505 -0.378323571232968,53.0192239522774 -0.378464731641209,53.0193966404095 -0.378588164152607,53.0195241485427 -0.378658576235953,53.0196330483557 -0.378713788371868,53.0197506395697 -0.378826946018762,53.0201918548411 -0.379093178609689,53.0206880915966 -0.379273952273999,53.0209980193663 -0.379310663516443,53.021091092069 -0.379351704611203,53.0212687970685 -0.379429524877202,53.0218200774363 -0.379434419338732,53.0221653580937 -0.379410126342889,53.0222953481095 -0.379325423849973,53.022646599123 -0.379179624264173,53.0229583710682 -0.379511523606625,53.0230115128379 -0.379474304061922,53.0230927933606 -0.379256017055963,53.0235051386785 -0.379129902589282,53.023845939042 -0.378845122638467,53.0243626223995 -0.378781427977766,53.0244318584246 -0.378697417362265,53.0244855388629 -0.378633795432439,53.0245134317653 -0.378101139287551,53.0246797253027 -0.377783754159828,53.0248326829907 -0.37762141851518,53.0250669343963 -0.377467807224139,53.0253471409075 -0.377239652822206,53.0258250484487 -0.377064447908577,53.0262415723215 -0.376861763354808,53.0264761721116 -0.376841897640614,53.0264911800314 -0.376786952768328,53.0265236845351 -0.376712544996876,53.0265604177593 -0.37662033091128,53.0265933128804 -0.376528522692654,53.026615428821 -0.376446256562448,53.026622395113 -0.376374773496525,53.0266205218464 -0.376112565830818,53.0265738032677 -0.37569890060704,53.0267101631331 -0.375299390435586,53.0268656786923 -0.375258837328109,53.0268750116149 -0.37515722287284,53.0268799157364 -0.375060876866629,53.0268624225004 -0.375025624460966,53.0268484594931 -0.374989166528925,53.0268272905546 -0.37495596179195,53.0267980766442 -0.374926201436339,53.0267590232347 -0.374585152166662,53.0269062571872 -0.374305938764298,53.0269554705087 -0.373811470254047,53.0270171109538 -0.3727409325616,53.0271327997345 -0.372350508316935,53.027206552211 -0.371837476391615,53.027287613655 -0.371537242040176,53.0273006718812 -0.369546453931885,53.0275430441424 -0.369284348605174,53.0275718987262 -0.368657345988077,53.027629814561 -0.368275053077735,53.027842972512 -0.367941613646149,53.0279049996468 -0.366853656865794,53.0282856226435 -0.366290616301951,53.0283488981731 -0.365933913655752,53.0283170395257 -0.365161428572449,53.0280825508885 -0.364858926252449,53.0278788713164 -0.364545510054417,53.0276875328862 -0.36421601026745,53.0279248619362 -0.363904859040659,53.0280670842764 -0.363653484721061,53.028286611542 -0.363420739689333,53.0284101365081 -0.363366877648783,53.0284526270456 -0.363317532226609,53.028495987878 -0.363293712773811,53.0286933877438 -0.363001645786894,53.0288054014638 -0.362869857109213,53.0288602109415 -0.362807571878393,53.0288881147742 -0.362737809922151,53.0289186109909 -0.362412860890836,53.0290742111706 -0.36215915071453,53.029157001078 -0.36178790222988,53.0292363757221 -0.361356883617998,53.0292771784339 -0.361229846140484,53.0292844170154 -0.361123562643026,53.0292955363822 -0.360835695109741,53.0293743487894 -0.360626608151781,53.0294604469493 -0.360520812366051,53.0294976359237 -0.360007114019806,53.0296370580529 -0.359765245258279,53.0297218939105 -0.359503549063753,53.0298593928868 -0.359377924685351,53.0299070930778 -0.359023312672458,53.02997868979 -0.358621780986274,53.0300684216392 -0.35850215661577,53.0301135074811 -0.358365117949174,53.0301898105665 -0.358109369215289,53.0302870333614 -0.357558235733909,53.0304663725913 -0.356731982087176,53.0307444597141 -0.355574744925658,53.0310961610326 -0.35538522366107,53.031178115921 -0.355286983369665,53.0312136074635 -0.355184367619251,53.0312445451733 -0.355026352042533,53.0312837046798 -0.354867080016631,53.031313858233 -0.354435488068945,53.0313690085355 -0.355075719989377,53.0317509329383 -0.3553419247001,53.0318868190959 -0.355708093705443,53.032100480506 -0.355974101870768,53.0323225531323 -0.356376171730333,53.0322193560812 -0.356950835732351,53.0320492448214 -0.358147908180245,53.0317466131251 -0.358849942587382,53.0315603643876 -0.359328346576047,53.0314509294943 -0.359807537690362,53.0313595683766 -0.360078618716419,53.0313282525035 -0.360975360339306,53.0312372462775 -0.361155701474139,53.0312415265009 -0.361497038239483,53.0312056915445 -0.361849848470454,53.0311817870453 -0.362206648992317,53.0312505990702 -0.36271591731537,53.0313097328745 -0.363336523772279,53.0314225240742 -0.363979840143004,53.031526636692 -0.364412435952545,53.0315226951457 -0.364609937474123,53.0315056357895 -0.364624876389135,53.031504043898 -0.364839048843758,53.0314818208903 -0.365796017647277,53.0313358817855 -0.366258628778185,53.0312468741523 -0.366693346727079,53.0311899266435 -0.367561479460641,53.031103870446 -0.367820837431952,53.0310669829179 -0.370229185794428,53.0308716109756 -0.37106903921426,53.0307851449775 -0.372141038330235,53.0305939060972 -0.372411611804061,53.0305364914468 -0.373229925885837,53.030348963367 -0.373658939946309,53.0302829259395 -0.373985936868638,53.0301930239906 -0.3741434911738,53.0301655169494 -0.374590258192444,53.0301014267988 -0.374938852673546,53.0299929431574 -0.375301648634072,53.0298630821796 -0.375614876512061,53.0297827843419 -0.3760823477685,53.0297630994948 -0.378457574743513,53.0295725025464 -0.379255634055044,53.0295240551134 -0.380636129563846,53.0294161210557 -0.382182200007927,53.0293058385718 -0.383272853874681,53.0292119084819 -0.384497406644894,53.0291242810777 -0.384989376532259,53.0291264639227 -0.385368735031606,53.0291118390651 -0.385976052614479,53.0291003061802 -0.386643377455296,53.0290391622312 -0.387787112571532,53.0289620918997 -0.38802668822691,53.0289338809046 -0.388118598645514,53.0289486067859 -0.38926147600461,53.0293335650737 -0.389608905787766,53.0294929440494 -0.390368279815998,53.02976664607 -0.390766180230965,53.0298915634314 -0.391623213755398,53.0301845539849 -0.391943465243818,53.0303147091551 -0.392236936236564,53.0305236819419 -0.392424062269719,53.0307059629592 -0.392554235950441,53.030852512333 -0.392786999718849,53.0310111429035 -0.393067008664789,53.031099498113 -0.393398411768036,53.0311713797798 -0.393857495693976,53.0312584665921 -0.394102649858822,53.0313219917312 -0.394532675058242,53.0314698890518 -0.394659088751298,53.0315192291428 -0.394756913725343,53.0315735757595 -0.395198789331854,53.0318429631689 -0.396125569857685,53.0323094240264 -0.396493809166775,53.032472658357 -0.397482530788123,53.0328743336263 -0.397725215973987,53.0329683765791 -0.398046025459848,53.0330446866767 -0.398365341289809,53.0331181897388 -0.398918154463349,53.0332119098619 -0.399542286051684,53.0332724346849 -0.399924061856125,53.033273074668 -0.400139269337277,53.0332624865736 -0.400615000518758,53.0330999145578 -0.400754915621556,53.0330271979838 -0.40116476695945,53.0329535243501 -0.402193519756586,53.0326392046123 -0.402592800315337,53.0325286249642 -0.403703785535521,53.0324077304728 -0.404397867572587,53.0323918739877 -0.404641966701473,53.0323645891569 -0.404901316761742,53.0322871766622 -0.405471927665443,53.0321383498098 -0.405911987318428,53.032055267992 -0.407106320102778,53.0319409414397 -0.408168516291213,53.0318085676281 -0.408615004189547,53.0317911713468 -0.408791949087166,53.0318043231086 -0.409337251003824,53.0318583491077 -0.409651612183437,53.0319498204289 -0.409612999151592,53.0324715749665 -0.40960128124904,53.0327501240612 -0.409543908320154,53.033216892838 -0.409497979912835,53.0333690680986 -0.409386459102559,53.0336831330288 -0.409324171396803,53.0338387746313 -0.409203820478979,53.0341086820358 -0.40912116658088,53.0343700149975 -0.40912331507872,53.034595722561 -0.409015102675911,53.0351840428017 -0.408985755133507,53.0354569637427 -0.408921477047626,53.035703354195 -0.40892883847274,53.0358274812038 -0.408978558604669,53.0362173993556 -0.408989538975017,53.0366509287399 -0.408886680540996,53.0372572961656 -0.408772615610244,53.0382482727035 -0.40875072697276,53.0383585277846 -0.408679891126839,53.0386192092363 -0.408530492612024,53.0393570717686 -0.409302830882893,53.03956701218 -0.410294432591926,53.0398176255549 -0.411030074921216,53.0400125947476 -0.411807744863453,53.0402019188066 -0.412926265641055,53.0404901536619 -0.414293933481092,53.0413057646182 -0.415754364965495,53.0421990781723 -0.417762997011877,53.0433990406801 -0.418001421429258,53.0436089246811 -0.418079769008272,53.0436693740138 -0.418191892765603,53.0437445629893 -0.418308803730349,53.0438099280991 -0.418427519712155,53.0438663304989 -0.418572993043066,53.0439275816138 -0.418786371112984,53.0440086986046 -0.418980854204558,53.044075094535 -0.419154998530707,53.0441259403083 -0.419540832157813,53.0442200421285 -0.419629808458612,53.0444810545645 -0.420807527475141,53.0447457338842 -0.42081605503919,53.0450038807263 -0.421251961779459,53.0450743741918 -0.421494964311591,53.0451225356286 -0.421736018653055,53.0451769620408 -0.421827647524103,53.0452006453082 -0.422308687707321,53.0453859667548 -0.423500362030094,53.0458862777946 -0.424185648119426,53.0461578809846 -0.424063157923587,53.0464071022971 -0.424079181619425,53.0464163019266 -0.424266217907473,53.0464816914569 -0.425109355159894,53.0467221244467 -0.425496824215873,53.0468567622175 -0.425312628649351,53.0473244651149 -0.425789474994657,53.047423344765 -0.426017178272051,53.0474766867664 -0.426221052498752,53.0475325001813 -0.426430276496828,53.0476035719281 -0.426627306537314,53.0476852675808 -0.427355019618488,53.0480598700983 -0.427874322951775,53.0483445370234 -0.428606399789521,53.0486436946379 -0.428862064167797,53.048834999806 -0.430592021171695,53.049550046666 -0.431610172498212,53.0499023887221 -0.432291741037975,53.0501541215732 -0.432929849145235,53.0502883507636 -0.432848708508885,53.0508806425774 -0.433281483383228,53.0510022799099 -0.433168655243514,53.0515626992531 -0.433367406407911,53.0515536310002 -0.434978955424403,53.0517115339215 -0.435381161050771,53.0517707477222 -0.435764264760322,53.0518207207476 -0.436353263028631,53.0518716006244 -0.436886781815721,53.0518884952692 -0.437793853805863,53.0518896202585 -0.43798064559812,53.0518812864306 -0.438191648950182,53.0518633844556 -0.438477967820989,53.0518275954516 -0.439350675259976,53.0516663908795 -0.439434584297265,53.0516558075287 -0.439658533841744,53.0516506553242 -0.440650557617465,53.0516564665021 -0.441160115277992,53.0516316850224 -0.441642601780364,53.0516173323925 -0.441655757597934,53.0515015640442 -0.441803272484291,53.0515043944425 -0.441737205493604,53.0513102070167 -0.441687034597236,53.0509652353569 -0.441687053242621,53.0508385112967 -0.441950645471739,53.0493208171685 -0.442033375004367,53.0489298632499 -0.442175741866772,53.0477954305363 -0.442155049388075,53.0477484245038 -0.442318035105929,53.0477379752277 -0.442274916763223,53.0474838712972 -0.442341521565897,53.0472500782304 -0.442317594367156,53.047006112812 -0.442304243983499,53.0464242632543 -0.442317840070565,53.0458797049781 -0.44233509092061,53.0452371409321 -0.442315156961393,53.0449608722128 -0.442612122241122,53.0449593655305 -0.442623969253044,53.0444632284545 -0.44256824428946,53.0439411308936 -0.443296194840444,53.0439388807133 -0.443254961702793,53.0433864155748 -0.443202042575164,53.0424138980292 -0.443103435787944,53.041589976765 -0.443964537778208,53.0415365289263 -0.444643866318729,53.0414762051479 -0.445145650737783,53.0414179622284 -0.445320257088474,53.0413744063205 -0.445209695836544,53.0409639380343 -0.444952067866332,53.0403717075989 -0.444496899404975,53.0393840483003 -0.444357547767608,53.0391520550636 -0.444242593331308,53.038990573762 -0.443823533783842,53.0384492555314 -0.443653696434781,53.0381521526218 -0.44359410635409,53.0380686882861 -0.443462656669683,53.037907798628 -0.443193397883236,53.0375168230669 -0.442904062128174,53.0370995190213 -0.442796295290885,53.0369470277727 -0.442718776447378,53.0368219853895 -0.442648505190724,53.0367005421568 -0.442540802860478,53.036460962217 -0.442380646778819,53.0361891491752 -0.442259914639492,53.036021208931 -0.442186530732315,53.0359043087158 -0.441824410104612,53.0352756508056 -0.441712217945169,53.0349936793195 -0.441650062378926,53.0348553557173 -0.441510521261753,53.0345918997476 -0.441280972289702,53.0342158191678 -0.441161299679112,53.0339777882028 -0.440847450281584,53.0334162666765 -0.440787504756138,53.0332986435061 -0.440384819168085,53.0324320870443 -0.440212371733456,53.0321268551345 -0.44009452501423,53.0318385174133 -0.439904521019495,53.0316076514599 -0.439728658364156,53.0313563903611 -0.440070497923062,53.0311819298001 -0.440523363138107,53.0310313916459 -0.440834506875309,53.0309204285852 -0.440992281731397,53.030885647111 -0.441405148133898,53.0307291892823 -0.441935744087354,53.0304889804298 -0.442280665332439,53.0303514028164 -0.442666656667687,53.0302342245972 -0.442775560851355,53.0301907127115 -0.443574457633705,53.0299530188876 -0.443902246991386,53.0298368725047 -0.444303649746744,53.029704521969 -0.444474675011217,53.0295917165565 -0.444559761834202,53.0295505878351 -0.4447505495249,53.0294694069797 -0.444974211301041,53.0293869491419 -0.445331506586436,53.0292774758132 -0.445850860886962,53.0291026221986 -0.446108617790488,53.0290224038406 -0.446405104838113,53.0289489828491 -0.446541687008277,53.0289220058298 -0.446661535075362,53.0289091009085 -0.446739182922818,53.0289038232953 -0.447037737605665,53.0288960359411 -0.447653947607515,53.0288861022716 -0.448100796969323,53.0289018178614 -0.449568007938471,53.0288625270206 -0.451023999253044,53.0288446411464 -0.451780023562575,53.0287619101998 -0.452627948548555,53.0286533186735 -0.4536177955833,53.0284540838728 -0.453714058175125,53.0284301700728 -0.453866592797395,53.0283763402878 -0.454095585483895,53.0282678712919 -0.454298236823922,53.0281464761093 -0.454368926952759,53.0280880769192 -0.454484324201574,53.0279483819211 -0.454823523736415,53.0275940952372 -0.455024795451981,53.0274285529036 -0.455109904372828,53.0273829231253 -0.455161174657583,53.027365613231 -0.45542261186778,53.0273123866239 -0.456185555270915,53.0272414030724 -0.458081973158545,53.0270825649734 -0.459927717169849,53.0268790007669 -0.462574152766036,53.0264682615518 -0.463376402506617,53.0263005838816 -0.464678543123491,53.0259937564397 -0.466020683260793,53.0256955199686 -0.466837515752132,53.0255352873401 -0.467253557978842,53.0254480778086 -0.467675891591975,53.0254400374501 -0.468550598444027,53.0254539983611 -0.469798657535022,53.0253675131151 -0.470437861864047,53.0252966440268 -0.471335075018109,53.0252650381199 -0.471974861129308,53.0252193333463 -0.472678125690494,53.0251933140415 -0.474368917881835,53.0251088697672 -0.47479178576217,53.0250855325216 -0.476287941909787,53.0249806801937 -0.476563035570969,53.0249608358448 -0.477475883404183,53.0249527509144 -0.478243511961736,53.024917547129 -0.478771107648401,53.0249224977167 -0.479721557686158,53.0249463327752 -0.482309847647458,53.0249506262955 -0.485010637672611,53.0251055777275 -0.485976807516958,53.0251511334541 -0.487496772497727,53.0251767611728 -0.489814193724,53.0252529401152 -0.4921130565115,53.0253468133418 -0.49477447487808,53.0254371420274 -0.495235300277784,53.0254745186079 -0.496464869532405,53.0256212838542 -0.496506309315643,53.0256280988943 -0.49869725452287,53.0259560441186 -0.500480056977707,53.0262311697388 -0.501432651896521,53.026364506191 -0.502642985901187,53.0265497018964 -0.503983538749181,53.0267202556334 -0.504842512721448,53.0268452863465 -0.506160965788028,53.0270083484395 -0.50886158759637,53.0272202759187 -0.509833606435916,53.0272693055703 -0.510260006007061,53.0272683553357 -0.510419331785566,53.0272757428902 -0.511147398198903,53.0272650861528 -0.513335728174102,53.0273239128133 -0.514341794921148,53.0273805214389 -0.514813296944037,53.0273729279141 -0.515180447955427,53.0274934503947 -0.515222168515481,53.0274921740546 -0.51589282549284,53.0274169590948 -0.518349052344596,53.0269270225851 -0.520365765378092,53.0265143458694 -0.524577492711626,53.0267041761248 -0.526402676992457,53.026790613951 -0.526827476172733,53.0234687055039 -0.527360944359108,53.0204114750152 -0.527850497853913,53.0177214663061 -0.52826822071108,53.0148173888178 -0.528664355710023,53.0122862040187 -0.528915049036684,53.01065583197 -0.529358347692957,53.007743170475 -0.529880892379596,53.0045104553198 -0.530411972001009,53.0012446789156 -0.530920612754747,52.9981997189883 -0.531313392590231,52.9955840054602 -0.531606096305465,52.9932772122946 -0.531704566808987,52.9919559219341 -0.531942418692271,52.9898166040046 -0.530061649470753,52.9897483411374 -0.527922578412406,52.9896940174604 -0.526091459066992,52.9896542573334 -0.52494252146869,52.9889630731002 -0.523517970834893,52.9881857702105 -0.52354212634956,52.9881761837847 -0.523324004715494,52.9881068776524 -0.523307338424383,52.9881129619181 -0.523164272755538,52.9882020485383 -0.52262403265146,52.9885809903597 -0.522503742238169,52.9886576876787 -0.522264907675641,52.9887995073767 -0.521996730309365,52.9889768232316 -0.52145352135368,52.989308988058 -0.521233708974665,52.989418687904 -0.521113781841174,52.9894846029735 -0.520900357195934,52.9896266469931 -0.520499837769544,52.9898805932875 -0.520302337170568,52.9899950631773 -0.520248863983707,52.9900321452133 -0.5201019223318,52.9901911927737 -0.519840017921867,52.9903569874127 -0.519765303030739,52.9904513250381 -0.519625110627521,52.9905852901519 -0.519538174828879,52.9906454130374 -0.519170328643704,52.9909455984426 -0.518987988626605,52.9910044419698 -0.518807980210175,52.9910848850219 -0.518578880601203,52.9912070468247 -0.518278411948651,52.991408218073 -0.518146994136419,52.9914614045094 -0.517930080710262,52.9915324879633 -0.517572232965723,52.9917122705107 -0.517153692901982,52.991841954077 -0.516665413305684,52.9919167521255 -0.516259520750546,52.9920213354384 -0.51587033434598,52.9920290610517 -0.515577937954534,52.9920406898435 -0.51511289821844,52.9920465670203 -0.514667813454382,52.9920365149253 -0.51419083796194,52.9919999977842 -0.51358256800003,52.9919663325829 -0.512990699562649,52.9918915258517 -0.512428400445281,52.9917784404796 -0.511646172019065,52.9916058886746 -0.51110074393573,52.991434588886 -0.510577474051422,52.9911870810997 -0.510036365347493,52.9909761959532 -0.50989974673496,52.9909196598359 -0.509625870709264,52.990782314015 -0.508821001816887,52.9903190731447 -0.508561464951548,52.9901971832808 -0.508176300701056,52.9904773450099 -0.507693980476825,52.9908569462713 -0.507604429604896,52.9909924328198 -0.507378199146456,52.9910696713948 -0.50730385699411,52.9908493534074 -0.507050766868742,52.9906294873387 -0.506873565483965,52.9904960450143 -0.506629512120387,52.9904453462575 -0.506215943062456,52.9904266708533 -0.505756194421259,52.9903650812342 -0.504627134054124,52.9901423780004 -0.504309286556677,52.9900304400602 -0.504046521792706,52.9899597287276 -0.503897244639042,52.989882355513 -0.503798957263701,52.9897939393191 -0.503714134569474,52.9897460471413 -0.503620405656557,52.9896999307381 -0.503373880685186,52.989635712629 -0.503163754113259,52.9895063435095 -0.502877896970404,52.9892438151126 -0.502767518050251,52.9891606389482 -0.502654102483637,52.9890800306631 -0.502183171922635,52.9887846116435 -0.501852724405268,52.9885153176475 -0.501574149723952,52.988344549628 -0.50136482532055,52.988234960106 -0.500813405266821,52.9880688402813 -0.500646305509016,52.9879921362665 -0.500602578068681,52.9879637236897 -0.500554804092161,52.9879244755623 -0.500507310838545,52.9878735465431 -0.500474675387802,52.9878263092173 -0.50044239870185,52.9877261409926 -0.50045051777498,52.9876228870855 -0.500475195208873,52.9875557924509 -0.500449207088263,52.987401688405 -0.500387426179337,52.9872490199466 -0.500417652650494,52.9870641685538 -0.500404787621358,52.9870064859361 -0.500383561885793,52.9869738638151 -0.500354566312298,52.9869492311737 -0.500291814283005,52.986913388251 -0.500201107333308,52.9868654192628 -0.500086579759423,52.9868172396148 -0.499689002301217,52.9866819050938 -0.499656998218453,52.9866590323332 -0.499602389018502,52.9866044180007 -0.499556966689074,52.9865363490378 -0.499533852786647,52.9864731447257 -0.499531362206018,52.9864173900391 -0.499540501910515,52.9863662771639 -0.499564433369827,52.9863207423049 -0.499634177280521,52.9862433412167 -0.500085196865171,52.9859524441701 -0.50038014650021,52.9857808174205 -0.500428683942474,52.985755366426 -0.500885480717085,52.9856415028046 -0.501231170982826,52.9855119463144 -0.501682828204242,52.9854151814135 -0.501984797455975,52.9853848337803 -0.502137565148,52.9853606943003 -0.502294971941554,52.9853338270316 -0.502779404094097,52.9852374706931 -0.503551146025775,52.9851510199456 -0.503873006455746,52.9851029421909 -0.504433523469548,52.9850047504428 -0.504990468209036,52.9849245758186 -0.505622074642511,52.9848839826458 -0.506580776957788,52.9848142415012 -0.506835680318966,52.9848093544559 -0.506998506900543,52.984796119565 -0.507383175250867,52.9847001998993 -0.50787435969743,52.9845391970077 -0.508350071012636,52.9843922877187 -0.508578445286876,52.9842944923576 -0.509091001511008,52.9839440267468 -0.509351289435913,52.9837395887624 -0.50963701897606,52.9833988594938 -0.509747725601701,52.9832582442867 -0.509929171309466,52.9830033858429 -0.510164025804615,52.9827168410559 -0.510360342909081,52.9825080042227 -0.510498484695226,52.9823479601567 -0.510635095683667,52.9821860088395 -0.510874977550836,52.9818815508667 -0.511159932984204,52.981605517988 -0.510494056746461,52.9816943329963 -0.508793867189875,52.9818428857384 -0.507715928020744,52.9819569839001 -0.507146012186873,52.9820263136518 -0.506336336004309,52.9822246555416 -0.505655294626799,52.9824498627671 -0.505339272226822,52.9825429555964 -0.505029383159092,52.9826326194735 -0.504506393725766,52.9827653493678 -0.503841850000454,52.9828999808708 -0.503244443142156,52.9829895270761 -0.502177952250607,52.9830731620151 -0.501016809781326,52.9831377090599 -0.500447700742058,52.9831404181906 -0.499197349300873,52.9831138573719 -0.498859067057583,52.9831185742299 -0.498464636731577,52.9831522402638 -0.49693155679815,52.983246112048 -0.496831991002506,52.9830254671335 -0.49636640550451,52.9831347107284 -0.495743191678177,52.9832382723901 -0.494552026547953,52.9833499204195 -0.494147344612241,52.9834239759984 -0.492732525571682,52.9836271411667 -0.491962731823396,52.9837459913758 -0.491061292128477,52.9839241916549 -0.490579575606846,52.9840691575873 -0.490429219403511,52.9841085914701 -0.490079745628403,52.984176953026 -0.489446443839552,52.9841814913504 -0.488984244020703,52.9841504532464 -0.488804865910196,52.9841275016254 -0.488631475312891,52.9841019306104 -0.488376454059342,52.9838109972179 -0.488218830184668,52.9835905066296 -0.488005834066419,52.9833343491506 -0.488094613360669,52.9833067187742 -0.487871846376386,52.9830314730555 -0.487699718198343,52.9828431526461 -0.487507351808901,52.9826330036604 -0.486969604432303,52.9821245667129 -0.486669148766699,52.9822807217541 -0.486520461248123,52.9821880542032 -0.485756016888885,52.9816866129666 -0.485251638964265,52.9813276966651 -0.483833555021471,52.9804349546176 -0.483175298391918,52.9800066600156 -0.482576491802995,52.979581907371 -0.482145538702733,52.9792563600382 -0.481347742658595,52.9787283099964 -0.48109629434744,52.978509397078 -0.481115853708132,52.9781230026017 -0.48108265172317,52.9778790154074 -0.480795093858952,52.9777970598443 -0.480203049868378,52.9775206759629 -0.479999965606482,52.9774497745933 -0.479799792758486,52.9773834033622 -0.479383213001774,52.9772864028445 -0.478866896293506,52.9772285686901 -0.478434786366863,52.977234723782 -0.478257729153007,52.9772270644903 -0.478088346917697,52.9772177069549 -0.477894347108581,52.977185474193 -0.477680092445507,52.9773068495462 -0.4774042388168,52.9773150006581 -0.477239663076186,52.977378501906 -0.477030366485168,52.977358745191 -0.476843491734129,52.9773788193298 -0.476588915583938,52.9773755575773 -0.476418702907539,52.977428200911 -0.476252049685061,52.9775088408227 -0.476086441416419,52.9775597446708 -0.475795870853796,52.9777348721211 -0.47550399608594,52.9778597417237 -0.475105665964888,52.9780469672886 -0.474717432725396,52.9782856394067 -0.474360795182337,52.9784743853908 -0.474020844349044,52.9786111271368 -0.473700392020622,52.9787032709871 -0.473004503615336,52.9787958941206 -0.472441182266918,52.9788902174244 -0.471978831241624,52.9789489870588 -0.471515066839322,52.9790060277064 -0.470904224309915,52.9790547947461 -0.470770479529186,52.9790863290445 -0.470528368384149,52.9791506208866 -0.470410914160049,52.9791868576161 -0.469276336103123,52.9796829290945 -0.468471523645334,52.9799935104558 -0.467966210775017,52.9802144747744 -0.46742465368627,52.9804079175735 -0.467245425195245,52.980461330668 -0.466759355999378,52.9805198633482 -0.466108562487752,52.9806417881969 -0.465498930883394,52.9807804194152 -0.464442180173409,52.981177687083 -0.464193486731987,52.9812607559163 -0.463943261481944,52.981342006418 -0.463063278729503,52.9815850722586 -0.462181538748631,52.9819188832515 -0.461870266988538,52.9820866089156 -0.461233651066028,52.982520649479 -0.460985564326847,52.9827107615369 -0.46084429231536,52.9829156466916 -0.460799178741738,52.9830931060951 -0.460754626138157,52.9831752152343 -0.46070712915852,52.983253780983 -0.460613413226096,52.9833334555477 -0.460255038706273,52.9834851985738 -0.459717531657739,52.9836454954534 -0.459357100104197,52.983727105827 -0.459047788261099,52.9838390369941 -0.45861718048397,52.9838838757416 -0.458176048757889,52.9840138686044 -0.457904246731014,52.9840759528298 -0.457652325967708,52.9841212184674 -0.457707064692611,52.9842154888938 -0.457568493135935,52.9842990733858 -0.457379146635247,52.9843047053487 -0.457187947354731,52.9844037843435 -0.456984640927266,52.9844668451486 -0.456778398558666,52.9845675253979 -0.456535753921378,52.9845625786872 -0.456461197831841,52.9845661041046 -0.456415967336224,52.9846221386169 -0.456414081284594,52.9847578265807 -0.456418172866388,52.984770552199 -0.456621254239523,52.9849241796531 -0.45730512282066,52.9852971408235 -0.457557089803578,52.9854577820961 -0.45772339283731,52.9855579039721 -0.457778838532818,52.9855909777543 -0.457815464331437,52.9856489735003 -0.45781328989271,52.9857100611437 -0.457735822998106,52.9857918312299 -0.457655887600947,52.9858635937903 -0.457586648630974,52.985924709588 -0.457402358164998,52.985995118218 -0.457065266452632,52.9861346351288 -0.456940259566712,52.9861303167596 -0.45689768370674,52.9861117893384 -0.456893264302279,52.9861117319834 -0.456687872437896,52.9860227851803 -0.456334363432292,52.9860334749283 -0.455982548027414,52.9860414894757 -0.4558499817675,52.9860424649771 -0.455704681348046,52.986063046052 -0.455385772671102,52.9862746058205 -0.455372902638436,52.9863014009535 -0.455292285865254,52.9865988307389 -0.455272078187441,52.9867074082165 -0.455290034518063,52.9869134563188 -0.455343041976279,52.9871389235588 -0.455469196892144,52.987321302775 -0.4555629641434,52.9874061047592 -0.455728053405256,52.9874990233039 -0.455908321099144,52.9876209889691 -0.456033135489102,52.9877169792127 -0.456222340370357,52.9878398695487 -0.456310309261792,52.9879219893984 -0.456351766287278,52.9879719589732 -0.456394984461117,52.9880552059044 -0.456437436413457,52.988201355833 -0.456418065139319,52.9883692612304 -0.456356916230972,52.9885375232757 -0.456159419325373,52.9887713322688 -0.45542428470472,52.989500832607 -0.455307717152043,52.9897590585962 -0.455240305934822,52.9903128947538 -0.455215932365308,52.9904969135883 -0.455130800266934,52.990627924753 -0.454905656692617,52.9908821333975 -0.454561987989211,52.9911186234682 -0.453997591797178,52.9914025732925 -0.452843949524802,52.9917920983581 -0.452573945466647,52.9918847523998 -0.452209776747898,52.9919861556146 -0.451610248032708,52.992128442537 -0.451386401908269,52.9922631271693 -0.451302831688764,52.9923087749731 -0.451216932294691,52.9923337195299 -0.451154817758161,52.9923221259004 -0.451054159927204,52.9923028389519 -0.451031009464564,52.9923250064729 -0.4509832356189,52.9923693223142 -0.450966703612606,52.9924571852629 -0.450792339316498,52.992668009062 -0.450764350773145,52.9927017970995 -0.450774489482026,52.9927927036432 -0.450954843332604,52.993039605105 -0.451007529043684,52.993149940689 -0.451062105335492,52.9932487053777 -0.451072186675179,52.9935095663179 -0.450958747512228,52.9935143799283 -0.450393216581314,52.9935366709232 -0.449937693552115,52.9935675827006 -0.449128636126824,52.993566920031 -0.4476789828081,52.9936468674223 -0.447066113640909,52.9937044753437 -0.44682405590743,52.9937228840081 -0.446397306486353,52.993780312218 -0.446137368283674,52.9938416260286 -0.446015369342455,52.9938795767551 -0.445898650842919,52.9939346731675 -0.445677046527435,52.9940882512749 -0.445045022873309,52.9945114815562 -0.444752226214142,52.9946973806748 -0.443654114298534,52.9954444409858 -0.442867099312975,52.9959915481781 -0.444077529154192,52.9966807419884 -0.444338514870059,52.9969260122938 -0.445135401027939,52.9981366349003 -0.445474586347572,52.9984422429295 -0.447067365112767,53.0000254537502 -0.448103172170588,53.0011043639579 -0.448950018707184,53.0020503906405 -0.449401733773467,53.0025434984911 -0.449883412690359,53.0031197701744 -0.450207032168227,53.0034880758466 -0.450227140375977,53.0035099079741 -0.451026001489368,53.0042575669375 -0.451505120754663,53.0046935025172 -0.451932196274214,53.0051315446157 -0.452311111792254,53.0056623399434 -0.452639688451123,53.0061440356137 -0.45275048342343,53.0063791544607 -0.452414120827685,53.0064899084529 -0.45210437463327,53.0065676643607 -0.452269065699411,53.0067972828121 -0.452402912307368,53.0070957049114 -0.452804182827497,53.0081707165587 -0.453235608546225,53.0081925061211 -0.453287801029809,53.0083173037639 -0.45333403925577,53.0084437311744 -0.453582684592811,53.0092408365136 -0.45369753989135,53.0101161016441 -0.453891679794221,53.0109808026507 -0.454011959739237,53.0113293766427 -0.454108166196228,53.0115158609156 -0.454919306756378,53.0125521518278 -0.455773664007709,53.0135494530409 -0.454775935482246,53.0137693625256 -0.453680326526062,53.0140212447688 -0.453229296284522,53.0141268261815 -0.452490406882741,53.0142395353025 -0.451492175368469,53.0143901167495 -0.450953040301781,53.0145017323084 -0.450440423144847,53.0146209711391 -0.449754885034347,53.0147432565656 -0.448736598823846,53.0149520631865 -0.447905196220046,53.0151074873207 -0.446947414204848,53.0152532571278 -0.446363667296039,53.0153606744785 -0.445738718273817,53.0154550588019 -0.444508007074476,53.0156843319112 -0.444110114742423,53.0157637010097 -0.443539195719814,53.0158865512223 -0.443062949361318,53.0159504218858 -0.442532078888446,53.0160361335442 -0.442043743576426,53.016142083941 -0.44164736616948,53.0161791327657 -0.441070812396552,53.016253364951 -0.439844594043814,53.0164827391248 -0.439363595285728,53.0165519250793 -0.438313640594326,53.0167296704195 -0.437345231359223,53.0169192625031 -0.437031226173674,53.0169861395384 -0.436389203564722,53.017136782019 -0.436226452420519,53.0172255071291 -0.435824775087288,53.0173271783446 -0.435380727609072,53.0174040246276 -0.434917229853778,53.0174816015347 -0.433515598505893,53.0176141480737 -0.4306663167268,53.0178696871456 -0.429585772378168,53.0179839529217 -0.429443016916837,53.0179344341387 -0.42857438875459,53.0180416912469 -0.428313248793018,53.0180094814978 -0.428176134773577,53.0179671361557 -0.427683959024404,53.017974114846 -0.427348051958112,53.0179868421834 -0.427034604966991,53.0179970785449 -0.42616845975506,53.01807639954 -0.42540510550768,53.0181615688126 -0.424540231293577,53.0182058429434 -0.423807615602628,53.0182231024258 -0.42308367316097,53.0182081175456 -0.421965817574208,53.0181986891089 -0.421691422116155,53.0182031388872 -0.421190111872943,53.0182144628362 -0.420624336053053,53.01823400726 -0.419467022333111,53.0182851468943 -0.419132383409319,53.0183067654832 -0.418289633960893,53.0183171352892 -0.418059769372107,53.0183239658691 -0.417605177636854,53.0183215161599 -0.417032496214812,53.0182878341262 -0.416321726836155,53.0182756796665 -0.415771171112783,53.0182890224933 -0.415094501234402,53.0183258474103 -0.415006210815573,53.0182932146005 -0.41477647760965,53.0182964454016 -0.414102853077656,53.0183306090894 -0.412834023981164,53.0183352605568 -0.412493327343699,53.018357678773 -0.41162909764685,53.01838389286 -0.41041031051014,53.0184449994738 -0.410232462598579,53.0184579021716 -0.410172808706243,53.0184589031415 -0.407106875462495,53.0185203557599 -0.40520243164796,53.0186179752887 -0.404487904145899,53.0186309549945 -0.404158765160395,53.0186597947794 -0.402484975571698,53.0186490170872 -0.401557089795926,53.018664416899 -0.401130886863046,53.0186586911808 -0.400228994841647,53.0186591525951 -0.398907838462907,53.0186656513836 -0.398147691958566,53.0186590165598 -0.396695768766325,53.0186151958933 -0.396224902629976,53.0185675075615 -0.394576726110928,53.0185488783478 -0.394426731430425,53.0185729190479 -0.39429540503139,53.0188192955457 -0.394243641595575,53.0189686902931 -0.394121966220433,53.0190344559802 -0.392941984864,53.0191714054914 -0.390367369664942,53.0194917086103 -0.389055531536689,53.0194056508453 -0.388670559571772,53.0193752732284 -0.387563365466374,53.0193197415333 -0.386396671478706,53.0192248355879 -0.385392181516565,53.019174361409 -0.384273508251048,53.0191465971397 -0.383341789851255,53.0190665383427 -0.382381992746098,53.0190175482366 -0.381613435912242,53.0189594662591 -0.380563666661465,53.0189235280268 -0.379579785038851,53.0186414074193 -0.379142962574507,53.0186435491291 -0.37870305485395,53.0187247374729 -0.378039791410232,53.0188388316</coordinates></LinearRing></outerBoundaryIs></Polygon>
  </Placemark>
