  <Placemark>
	<Style><LineStyle><color>ff0000ff</color></LineStyle><PolyStyle><fill>0</fill></PolyStyle></Style>
	<ExtendedData><SchemaData schemaUrl="#Wards__December_2019__Boundaries_EW_BFE">
		<SimpleData name="objectid">7596</SimpleData>
		<SimpleData name="wd19cd">W05000458</SimpleData>
		<SimpleData name="wd19nm">Ammanford</SimpleData>
		<SimpleData name="wd19nmw">Rhydaman</SimpleData>
		<SimpleData name="bng_e">262859</SimpleData>
		<SimpleData name="bng_n">212088</SimpleData>
		<SimpleData name="long">-3.98986</SimpleData>
		<SimpleData name="lat">51.790588</SimpleData>
		<SimpleData name="st_areashape">1769263.24953353</SimpleData>
		<SimpleData name="st_lengthshape">7779.73923502312</SimpleData>
	</SchemaData></ExtendedData>
      <Polygon><outerBoundaryIs><LinearRing><coordinates>-3.99807275993119,51.7853864175836 -3.99815451397729,51.7853346847619 -3.99825864773192,51.7852294414898 -3.99831686868394,51.7851700180913 -3.99844545479167,51.7850608528236 -3.99861749547003,51.784785445634 -3.99866032250709,51.7845428004287 -3.99856183905838,51.7843161318356 -3.99815961411595,51.783808570152 -3.99783391486857,51.7834283516348 -3.99765356799692,51.783218267329 -3.99759748756856,51.7830312418021 -3.99761399630919,51.7828475688592 -3.99775898860988,51.7826499350531 -3.99797645788884,51.7823557764846 -3.99817085914367,51.7821942513266 -3.99867432367286,51.7818421896127 -3.99900931495049,51.7815810913956 -3.99934270574436,51.7813514848254 -3.99952499475043,51.7811784759214 -3.99967200374963,51.7809942904006 -3.99974391550619,51.7809148545292 -4.00001985496869,51.7805675574291 -4.00024144419932,51.7801671543735 -4.00029942098596,51.7800699757976 -4.00041441549542,51.779851273481 -4.00048326673757,51.7796703053233 -4.00051162184026,51.779492632313 -4.00037014938765,51.7791128813276 -4.00031521991945,51.7789519981587 -4.0001453532136,51.7787165676045 -4.00009273558287,51.7784782426309 -4.00008132075461,51.7783498819423 -4.00000456781385,51.7782225430209 -3.99967601492169,51.7780366486773 -3.99924931878974,51.7778936862353 -3.99888919473214,51.7777505784945 -3.99878317948227,51.7776803725102 -3.99856766045963,51.7774934522564 -3.99816621632908,51.7769723923749 -3.99770608124806,51.7769595368506 -3.99735363347288,51.7769547378579 -3.99639521917976,51.7769503427713 -3.99584669235652,51.7770010100311 -3.99565591374985,51.7770141380637 -3.9954593567875,51.777061525223 -3.99520411579308,51.7771251907711 -3.99503267364565,51.7772135943398 -3.99487647342705,51.7773223253615 -3.9946875009678,51.7774739549425 -3.99457997091418,51.7776645666384 -3.99452488767269,51.7777977421499 -3.99446996002531,51.7779317243104 -3.99432413267432,51.7783082664386 -3.99420062459447,51.7785621668681 -3.99407620921089,51.7789635169914 -3.99388173011792,51.7795162756786 -3.99360294525054,51.7801333927959 -3.99337728589912,51.7804726317259 -3.99317332936664,51.7807782392284 -3.9928124232131,51.7812411319116 -3.99271752006373,51.7813579004139 -3.99245108525542,51.7818245849644 -3.99216077538943,51.7822107650599 -3.99163405529168,51.7828284825681 -3.9910303637352,51.7835716515719 -3.99078800074727,51.7839938741462 -3.99056185607772,51.784358286266 -3.99024376818442,51.7848717778969 -3.98977399926368,51.7855298757955 -3.98928218945958,51.7860840631946 -3.98925900546205,51.7861168183149 -3.98919244459047,51.7861853688562 -3.98893416541966,51.7864775034308 -3.98834249437716,51.7870693350282 -3.98800183221869,51.7874320826042 -3.98762392703029,51.7878071462667 -3.98733515425852,51.7881321563611 -3.98663945292059,51.7888659785952 -3.9861950390611,51.7893114729879 -3.98569065820406,51.7897120399197 -3.98534348230699,51.7900281423498 -3.98509947809436,51.7901509283646 -3.985034235228,51.7901843936825 -3.98477350050542,51.7903237332538 -3.9839545175914,51.7906612808324 -3.98357128511524,51.7907828178517 -3.98317636093168,51.7908695793917 -3.98282813157538,51.7908979278559 -3.98221225573413,51.7909083136159 -3.98215431281855,51.7909092905641 -3.98164695870201,51.790913348302 -3.98110350665706,51.7909530735059 -3.98091357177289,51.790986839162 -3.98081530507871,51.7910280497383 -3.98072978636961,51.7910627534726 -3.98045898169816,51.791234615632 -3.98014655406601,51.791485300544 -3.9797868493222,51.7917485571878 -3.97950258084366,51.7919134525867 -3.9785737313584,51.7923265287181 -3.97808258228725,51.7926000833448 -3.97771587598272,51.7928049269353 -3.97758476651223,51.7928908281509 -3.97736205812177,51.7930366124702 -3.97734192489792,51.7930738099831 -3.97770242142048,51.7931586331901 -3.98003512157389,51.7937091907891 -3.98019173494238,51.7936759878997 -3.98021503135757,51.7936782923292 -3.98028042432667,51.7936807869291 -3.98033283359807,51.7936843985353 -3.98040226354592,51.7937462476708 -3.98056016419187,51.7936769730175 -3.98080037724684,51.7936333712454 -3.98147445061111,51.7935941439623 -3.98178893333428,51.7935564796021 -3.98218491385149,51.7941855641938 -3.98255089627512,51.7948583042046 -3.98271182632288,51.7951550404901 -3.9827244005839,51.7951773031108 -3.98238747718202,51.7952324284357 -3.98207045741724,51.7953133778929 -3.98217517757794,51.79545185407 -3.98221017919394,51.7958190373376 -3.98221441043658,51.7958827930693 -3.9820508617732,51.7959242968017 -3.98202334901462,51.7959894869346 -3.98201843286878,51.7963735249683 -3.98178024588281,51.796662606916 -3.98165338444238,51.7968454409649 -3.98158128545242,51.7969546241643 -3.9815849888782,51.7970390658907 -3.98159652024995,51.7973347264105 -3.98159742640944,51.7973553873289 -3.98188941806368,51.7974340704575 -3.98204348681099,51.7975061792436 -3.98224055809522,51.7976017442356 -3.98232750620979,51.7976020767281 -3.98235367481081,51.7976016355011 -3.98235394350998,51.7977086088874 -3.98210613708546,51.7979448147159 -3.98192213667751,51.798179943519 -3.98176243767232,51.798306694436 -3.98159426541147,51.7984093156982 -3.98142106353004,51.7984599708644 -3.98140563473689,51.798738016396 -3.98140426767856,51.7987722905228 -3.98206770316705,51.7988186429719 -3.98271807248954,51.7988670096081 -3.98332204173116,51.7989152561504 -3.98336139335565,51.7989181883717 -3.98337063285869,51.7992947954528 -3.98350090456751,51.7995192310398 -3.98350932272963,51.7995802192508 -3.98351638700182,51.7996403319625 -3.9835552150671,51.7996667367841 -3.98360615731005,51.7996694733813 -3.98365543848251,51.7996370876497 -3.98471090238588,51.7992973496392 -3.98515121139082,51.799153271265 -3.98544596819307,51.7990278301852 -3.98549970043433,51.7990287203617 -3.98549564798622,51.7990018197274 -3.98552142704432,51.7987639628468 -3.98552762349302,51.7987063240011 -3.98570718706137,51.7984712643818 -3.98572727621282,51.7984331678397 -3.98572620435973,51.7983081368796 -3.98572527989595,51.7981238615658 -3.9856811748416,51.7979447200231 -3.98559273151637,51.7975811380078 -3.98562248876965,51.7974664644587 -3.98563342046416,51.7974186336526 -3.98563245503036,51.7973313590258 -3.9856304275918,51.7972199190982 -3.98568822844026,51.7970822081808 -3.98567665093378,51.7969493541021 -3.98578916384052,51.7967396989398 -3.98585500859252,51.7966190221285 -3.98592159992343,51.7965181105315 -3.98593786032902,51.7964935635995 -3.98673362788921,51.7963847365874 -3.98786381101114,51.7962289877247 -3.98850419591942,51.7961489364818 -3.98850264264139,51.7961462659339 -3.98837257552317,51.795728460622 -3.98959712623459,51.7957068453994 -3.98978230252469,51.7957954969003 -3.98989379764934,51.7957260966899 -3.98986544532942,51.795709495507 -3.99029924740732,51.7952831371463 -3.99040094353925,51.7952220827093 -3.99087027323822,51.795045935808 -3.99116463684086,51.7952082515893 -3.99163274371365,51.795465612773 -3.99177660502511,51.7956043158453 -3.99197760541334,51.79582125031 -3.9924241087225,51.7963748298636 -3.99248129143009,51.7964242038312 -3.99258510370265,51.7965087462983 -3.99288102684457,51.7967060919078 -3.99327300376633,51.7969800197253 -3.99351998497151,51.7971520328217 -3.99378149440663,51.7970001642463 -3.99412638226071,51.7967299247693 -3.99416844787425,51.7966968476007 -3.99464130519249,51.7964028595034 -3.99534995884372,51.7959654350601 -3.99577886750586,51.7959572564514 -3.99600102623685,51.795962474638 -3.99652950562283,51.7959751665199 -3.9972281675875,51.7959668957232 -3.99789743310412,51.7959833926457 -3.99788725409805,51.7958180629996 -3.99797006903733,51.7953302147315 -3.99813793271195,51.7945998145212 -3.99817796469182,51.794161238664 -3.99811030423951,51.7937127175817 -3.99804267671196,51.7933649711743 -3.99803897487301,51.7933461554135 -3.99807910382185,51.7931396055485 -3.998126428614,51.7929957732553 -3.99823692877248,51.7927393926681 -3.99841704544362,51.7924512624569 -3.99850542788412,51.7923517714607 -3.99873344688555,51.7920978869264 -3.9990794333922,51.7917242293554 -3.99959515539947,51.791155211763 -3.99971121337368,51.7910246828818 -3.9998520373777,51.7908648749911 -4.00001409102439,51.7906931082185 -4.0003293515492,51.7903469395401 -4.00037542995477,51.790304802019 -4.0005704896362,51.7901251916353 -4.00104188727492,51.7897682723815 -4.0013511148477,51.789515697773 -4.00166428246315,51.7893494472967 -4.0020339541166,51.7890877502639 -4.00230271350428,51.7888691252513 -4.00236877902657,51.7887897883189 -4.00240302681632,51.7887100940706 -4.00239203504006,51.7885942223003 -4.00229738239047,51.7884870566771 -4.00192605289775,51.7882874235256 -4.00173137412544,51.7881486986838 -4.00161780889168,51.7880382593787 -4.00145761665913,51.7876955965702 -4.00133653056149,51.7875475276222 -4.00124407026338,51.7874897678092 -4.00083539250259,51.7874967243136 -4.00065727542531,51.7874997557775 -4.00027006522475,51.7874649923858 -4.00003843006749,51.787409510666 -3.99993298827795,51.7873852337023 -3.99978557733116,51.7873311053396 -3.99956128274296,51.787176698904 -3.99937879824609,51.7870187941986 -3.99924565433692,51.7868601409224 -3.99909336925259,51.7865632783528 -3.99895763907193,51.7863812047943 -3.99875063325542,51.78619045401 -3.99825560384932,51.7857825491748 -3.99810976973054,51.7856016346781 -3.99804973194341,51.7854874954126 -3.99807275993119,51.7853864175836</coordinates></LinearRing></outerBoundaryIs></Polygon>
  </Placemark>
