  <Placemark>
	<Style><LineStyle><color>ff0000ff</color></LineStyle><PolyStyle><fill>0</fill></PolyStyle></Style>
	<ExtendedData><SchemaData schemaUrl="#Wards__December_2019__Boundaries_EW_BFE">
		<SimpleData name="objectid">5540</SimpleData>
		<SimpleData name="wd19cd">E05011269</SimpleData>
		<SimpleData name="wd19nm">St Ives East</SimpleData>
		<SimpleData name="wd19nmw"></SimpleData>
		<SimpleData name="bng_e">531522</SimpleData>
		<SimpleData name="bng_n">273745</SimpleData>
		<SimpleData name="long">-0.07062</SimpleData>
		<SimpleData name="lat">52.34602</SimpleData>
		<SimpleData name="st_areashape">5395466.30933628</SimpleData>
		<SimpleData name="st_lengthshape">11349.7790390893</SimpleData>
	</SchemaData></ExtendedData>
      <Polygon><outerBoundaryIs><LinearRing><coordinates>-0.076677013325915,52.3350534285048 -0.076370794987259,52.3348029527855 -0.076342800034422,52.334736877027 -0.076233112464835,52.3344922966148 -0.076232101092228,52.3342449913352 -0.076343908359063,52.3333916817416 -0.074875550870521,52.3333057449486 -0.074637126469994,52.333286579145 -0.073965293547507,52.3331066364574 -0.07363182520139,52.3329770612186 -0.073381010283279,52.3329729721663 -0.072999775366959,52.3342156975678 -0.072480892842236,52.3357178473337 -0.071638199278195,52.3357202793634 -0.071593269641361,52.3359102039876 -0.071036777009315,52.3357796794116 -0.070754307906107,52.3356932676368 -0.070564830252351,52.3356281488505 -0.070380023807079,52.3355586129091 -0.070062828481518,52.3354247994362 -0.069700900576349,52.3352427020977 -0.069491648430167,52.3351259315457 -0.069255750398078,52.3349818474342 -0.06897328221266,52.3347955629438 -0.068822137960201,52.334692415327 -0.06863881732239,52.3345527858316 -0.068391972871541,52.334323933919 -0.068281206169061,52.3342385252239 -0.0680226031709,52.3340768987414 -0.067676783007725,52.3338949684393 -0.067647390140064,52.3338279684845 -0.067303452906141,52.3336695297301 -0.067114732827317,52.3335873389101 -0.066768461315895,52.3335186608923 -0.066562360327507,52.3334298924644 -0.066503117567115,52.3334091477876 -0.066359638510199,52.3333663492983 -0.066195526319573,52.3333277070017 -0.066080533054275,52.3333060488425 -0.065586039243468,52.33323404317 -0.065255145799935,52.3331486226881 -0.065170395800945,52.3330052073737 -0.063952964936164,52.3329187487632 -0.063853391328065,52.3329126223747 -0.062780228247069,52.332850897395 -0.06251709880974,52.3327602886226 -0.062477072586996,52.3330365852897 -0.0623623488864,52.3332774996013 -0.062332806677643,52.333349826925 -0.062275168613975,52.3334918077702 -0.062271951921601,52.3334989465498 -0.062196931511207,52.3336371373678 -0.061908435098611,52.3340244197376 -0.061597054387387,52.3345336673531 -0.061527641703056,52.3346763538186 -0.061504803607653,52.3347641621283 -0.061488006806254,52.3348798456583 -0.061483567366982,52.3350146089823 -0.061506936059933,52.3353189138384 -0.061505005067178,52.3354295370495 -0.061474788748809,52.3356528696985 -0.061425969556277,52.3357950855711 -0.061392105839704,52.3358637459803 -0.061289574852453,52.3360275525663 -0.061244528867645,52.3360834447574 -0.060980810619938,52.3363740493911 -0.060890878076657,52.3364849369756 -0.060798940493924,52.3366056797105 -0.060650888042468,52.3368361572405 -0.060525469918736,52.3370858831499 -0.060467743753931,52.337229659956 -0.060428459715552,52.3373585480326 -0.060408360670818,52.3374804695471 -0.060406348093103,52.3375928897146 -0.060416268939486,52.3377036183997 -0.060465457885592,52.3378878923059 -0.060642122301734,52.3381766444259 -0.060836720148968,52.3384594880948 -0.060912127183913,52.3385839659283 -0.060989141371024,52.33873534702 -0.061050656541307,52.3388730806897 -0.061110484389117,52.3390826083361 -0.061137427609206,52.3392719109936 -0.061150085655386,52.3401560147929 -0.061151966216103,52.3402486326432 -0.061302689339422,52.3407960234998 -0.061352361293304,52.3409361693306 -0.061369301704813,52.34108575532 -0.061359136887593,52.3411853670683 -0.061330760835335,52.3412972656679 -0.061293003439223,52.3413884239832 -0.061250227983044,52.3414587364533 -0.061171234077381,52.3415545223836 -0.060938996842136,52.3417278860952 -0.060849798400815,52.3417857511516 -0.060293541169656,52.3421191958616 -0.059718398708669,52.3424469337524 -0.059556715986957,52.3425512490562 -0.059229730567665,52.3428093491342 -0.05874920685145,52.3432564834084 -0.058362591352451,52.3436376512199 -0.057793926652502,52.3442505304352 -0.057140589326323,52.3449555011027 -0.056026192154359,52.3460953269867 -0.054991269897229,52.3471275932045 -0.050631628196867,52.3514760507415 -0.050430574836773,52.3516759771517 -0.048112480645304,52.3539647191232 -0.045477666440891,52.3565683689279 -0.048121873787968,52.3565166918045 -0.05103700640784,52.3564497379043 -0.053805356182448,52.3564135542276 -0.05554027646697,52.3564016584555 -0.059606265848975,52.3563101826688 -0.061893947208969,52.3562838960042 -0.065150712013838,52.3561952275622 -0.065235968900972,52.3562253882898 -0.066079952265446,52.3562023450717 -0.066797660200902,52.3562122888183 -0.066992904409744,52.3562136846897 -0.068059848739825,52.3561950827925 -0.068413951711547,52.356190982211 -0.068987403873778,52.3562075440979 -0.069326201804286,52.3562184720258 -0.069392187565788,52.3562213482088 -0.069465472262313,52.3562234435143 -0.069640033764788,52.3562298903911 -0.069948565930119,52.3562601882837 -0.07037972298142,52.3562717230875 -0.070861681980509,52.3563011641821 -0.071350544802576,52.3563055466458 -0.07190386126709,52.3563118777068 -0.072507075619534,52.3563540764079 -0.072598065668973,52.3563555602439 -0.072649329287217,52.3563572953643 -0.072741614435547,52.3563623959529 -0.072751900219137,52.3563625636732 -0.072763596823371,52.3563636535581 -0.072874883541172,52.3563717604617 -0.072936318933252,52.3563790544738 -0.072955197213243,52.3563820588551 -0.073014942274709,52.3563920218499 -0.073033904762122,52.3563959267523 -0.073081990803797,52.3564039022059 -0.073133179552727,52.356410129901 -0.073179892401901,52.3564162846061 -0.073195633584249,52.3564246318724 -0.073198619096778,52.3564255788045 -0.07321581312447,52.3564339497527 -0.073230223323855,52.3564422744173 -0.073261237045416,52.3564697476275 -0.073288132763894,52.3564944562176 -0.073290919807461,52.3564971982336 -0.073298104635706,52.3565018102609 -0.073306698641324,52.3565046469376 -0.073316945431221,52.3565057122345 -0.073319969981885,52.3565057615382 -0.073325739341602,52.356506754746 -0.073333158549106,52.3565059765263 -0.073345130076495,52.3565007785076 -0.073354080221209,52.3564982278198 -0.073448246745877,52.3564934704509 -0.073649575965627,52.3564886622097 -0.073674661120177,52.3564881718933 -0.073817032516501,52.3564886938763 -0.073965254573666,52.3564911093499 -0.073997521419648,52.3564925343166 -0.074283251827212,52.3565070781363 -0.07439893385845,52.3565143560518 -0.074754655562696,52.3565399270767 -0.074899739508588,52.3565476834245 -0.075814662865916,52.3565473007014 -0.075815997226107,52.3565500190072 -0.075831868895217,52.3565916270911 -0.075840749019964,52.3566241324444 -0.07585725389855,52.356715280189 -0.075872160114804,52.3568126043131 -0.075879558065097,52.3568792437397 -0.075885742934659,52.3569738192144 -0.075887758173897,52.357027786362 -0.075888009995916,52.3570889153878 -0.075886371711244,52.3571266426656 -0.075890069048436,52.3571446806693 -0.075897848961864,52.3571690783578 -0.075961185356657,52.3574003178479 -0.075989513428509,52.3574924672698 -0.076021808739934,52.3575936701682 -0.076033667608252,52.3576245155839 -0.076043094130143,52.3576444451611 -0.076056136780051,52.3576815122516 -0.076070790182333,52.3577177072985 -0.076088581958176,52.3577485593656 -0.076106370422603,52.357776714794 -0.076124591245006,52.3577976866722 -0.07614127791079,52.3578177335163 -0.076159383232476,52.3578414000904 -0.076170651329363,52.3578523698268 -0.076187732817238,52.3578661316658 -0.07620744080607,52.3578835319946 -0.076243055299963,52.3579110783851 -0.076265668554482,52.3579313124882 -0.076292523006787,52.3579542222813 -0.076339247900791,52.3579936349586 -0.076353464186801,52.3580064509802 -0.076376196962104,52.3580239005089 -0.076400421657966,52.3580404751537 -0.076419110710711,52.3580506673791 -0.076453620171198,52.3580674093937 -0.076478156900345,52.3580767976168 -0.076504184074651,52.3580853109299 -0.076586783615228,52.3581100269955 -0.076723482235778,52.3581437130659 -0.076928290124943,52.3581955858077 -0.07692966502769,52.3581974064982 -0.077006688828711,52.3582166374861 -0.077084972128932,52.3582403838157 -0.077231520267229,52.3582815100341 -0.077303990252058,52.3583024650659 -0.07734745053995,52.3583166558389 -0.077401195695818,52.3583310129942 -0.07743892188124,52.358340616458 -0.077489330592755,52.3583621107844 -0.077542530161713,52.358389044544 -0.077620111103301,52.358428958577 -0.077677707074137,52.3584550646196 -0.077748651587455,52.3584804894659 -0.077791251442521,52.3585117447254 -0.077795571695026,52.3585154107266 -0.078234510380147,52.358722194244 -0.078323119119246,52.3587452084657 -0.078341842947804,52.3587518052065 -0.078420556462497,52.358765669574 -0.078442345421401,52.3587714178719 -0.078504262641968,52.3588011895085 -0.078634368603739,52.3588473508249 -0.078689528777679,52.3588626295543 -0.078717363811056,52.3588657786012 -0.078748021846968,52.3588680743689 -0.078817033520149,52.3588682978637 -0.078849458089833,52.3588661283162 -0.078877565783463,52.3588629894342 -0.07888643822161,52.3588622344843 -0.079008830306613,52.3588489425184 -0.079028182379803,52.358843863877 -0.079047263333777,52.3588450722497 -0.079066143058298,52.3588480765684 -0.07908655864049,52.3588520032067 -0.079104030853361,52.3588567820655 -0.079121303387118,52.3588633550977 -0.079129903211738,52.3588688880217 -0.079135439360625,52.3588752703157 -0.079139642930531,52.358881630953 -0.079142235746873,52.358888864573 -0.079361259981371,52.3589509420872 -0.07944927344284,52.3589541705638 -0.079707284010744,52.3588962477992 -0.080391189361786,52.3588740980236 -0.080441164097507,52.3588749096503 -0.080658445356663,52.3588766407921 -0.080864650258606,52.3588629095665 -0.08095434498616,52.3588580735797 -0.080993918061366,52.3588614126693 -0.081039338784724,52.3588639484242 -0.081067168898846,52.3588644002557 -0.08112589570495,52.3588644545243 -0.081237616874103,52.3588626724941 -0.081300976898787,52.3588592070491 -0.082330353059552,52.358795010782 -0.082507074545352,52.3587825966549 -0.082576280549803,52.3587783262067 -0.082648313191613,52.3587758989915 -0.082717324838792,52.3587761193079 -0.082786258725237,52.358778136642 -0.082833130978599,52.3587806943525 -0.082865360956849,52.3587830154466 -0.082959938807442,52.3588052238393 -0.083022516122515,52.3588170259947 -0.083198791455575,52.3588513464083 -0.083261639497856,52.3588568596085 -0.083290966638935,52.3588591335116 -0.083353893873388,52.3588628505269 -0.083386240549791,52.3588624758919 -0.083418626055539,52.3588612036173 -0.083458389861181,52.3588573534943 -0.0834954473133,52.3588516620554 -0.08356664876614,52.3588348387453 -0.083635023510724,52.3588161712427 -0.083716744367274,52.3587941252396 -0.083807530285682,52.3587668320858 -0.083911817637595,52.3587325662658 -0.083981878047373,52.3587085327371 -0.084020499471959,52.3586974733311 -0.084657110059891,52.3584443231693 -0.084743379683201,52.3584178552808 -0.084800054349699,52.3583980983634 -0.084874707857381,52.358368655661 -0.084888405666277,52.3583598887112 -0.08492302021855,52.3583406734542 -0.084995928513558,52.3582843256201 -0.085009583588537,52.3582737596421 -0.085114745118723,52.3581855735372 -0.085178665749962,52.3581326748149 -0.085274880701857,52.3580469502958 -0.085288613255512,52.358034588122 -0.085305294324247,52.3580240711295 -0.08533237123193,52.3580083293798 -0.085351877488503,52.3579996564644 -0.08536377042077,52.3579962533772 -0.08537852738686,52.3579937958414 -0.085393246992469,52.3579922368577 -0.085408009324657,52.3579924759837 -0.085422611061288,52.3579936107665 -0.085428501236872,52.3579946053358 -0.085753448049373,52.3579845872152 -0.085770954084703,52.3579857698903 -0.085806442645748,52.3579827488935 -0.085818257942909,52.3579811419227 -0.085834543907733,52.3579769116728 -0.085864491510525,52.3579648120301 -0.085873358258099,52.3579613598845 -0.08588850863207,52.3579526163403 -0.085903577475177,52.3579429723147 -0.085915819577594,52.3579314850918 -0.085925157386311,52.3579199499366 -0.085931430201911,52.3579092652047 -0.085934761380632,52.3578994310961 -0.085936839062296,52.3578877792692 -0.085935653862945,52.3578787711821 -0.085954983223823,52.3577396641724 -0.085966184051533,52.3576148983936 -0.08597291218945,52.3575628704992 -0.085993397913179,52.3571559100778 -0.08881777859424,52.3569435381119 -0.088969450019321,52.3569334058546 -0.089127166461679,52.3569206745555 -0.089231894421382,52.3568422759718 -0.08933830342986,52.3567586003336 -0.089921394025024,52.3563130908096 -0.090074713724743,52.356301185468 -0.090556531621672,52.3562639349478 -0.090871798345525,52.3562393644126 -0.092536767953599,52.3561107354408 -0.094097244307548,52.355987500597 -0.094881207727092,52.3559264291465 -0.094440121338806,52.3551856361523 -0.094415212587859,52.3551510764394 -0.094035717364461,52.3546198192474 -0.093354408246822,52.3535928020957 -0.092980569498061,52.3530319692013 -0.092683174042153,52.3526756100275 -0.092586197055958,52.35257426625 -0.092451765100672,52.3523221124831 -0.092133950282379,52.3520634027244 -0.092080419461123,52.3520104017615 -0.091733535101313,52.351642454825 -0.091613114462563,52.351506483607 -0.091442003752601,52.3512852878333 -0.091302138012638,52.3510555166767 -0.091237107168012,52.3509294293446 -0.090726946442303,52.3497514483548 -0.090449931296934,52.3498080978175 -0.0902139396185,52.3492189192432 -0.089863277289636,52.3485658637007 -0.089186921547408,52.3473608281253 -0.088883436104972,52.3469423352308 -0.088703533030331,52.3467910177669 -0.088265428778752,52.3464962823951 -0.087714102117172,52.3467525396012 -0.087489942980758,52.3468442853856 -0.087318078605507,52.3466751171476 -0.087240645833453,52.3465983560631 -0.086483146442628,52.3459153326249 -0.085450732984023,52.3450731492784 -0.084716125376285,52.3444722842351 -0.084545856841443,52.3444039048357 -0.084266977787926,52.3443670237264 -0.083987560930923,52.344345415378 -0.083711517358595,52.3442429590409 -0.083645769462632,52.344201352459 -0.085324107927115,52.3430749920294 -0.08575013532061,52.342795952223 -0.08709116121916,52.3414194218005 -0.085920176556357,52.3409994609229 -0.08516878742842,52.340791327107 -0.084368301797885,52.3404590637691 -0.084302027781305,52.3404661691362 -0.084103101144499,52.3404143140627 -0.083908965823846,52.3402880165336 -0.083509281416263,52.3399551434743 -0.083194800872245,52.3398268930186 -0.083171569026517,52.3397203557859 -0.082936650295492,52.3395520453391 -0.082926680506184,52.3395446930125 -0.082873707869328,52.3395465302582 -0.082856519920357,52.3395381607674 -0.082848000972916,52.3395308319706 -0.08241828565588,52.3393161230675 -0.082255328131244,52.3392163971283 -0.08233503161001,52.3391393960033 -0.082384001218704,52.3390565919616 -0.082399363957905,52.3390091991593 -0.082268956769599,52.3389684307414 -0.082120494279421,52.338905794668 -0.08164740278049,52.3387119524967 -0.081358410530819,52.3386047861032 -0.081188429318044,52.3385975313283 -0.08102152273914,52.3386226870792 -0.08079875128639,52.338680195353 -0.080583400474297,52.3387396211624 -0.080547591917655,52.3386833076821 -0.080223320757049,52.3382392841844 -0.080020315931398,52.3379437521001 -0.079896818125511,52.3377798531793 -0.079762883222794,52.3376194692913 -0.079590564922771,52.3374287082019 -0.07950068024958,52.3373355589765 -0.079496438201886,52.3373300968601 -0.079351891030491,52.3372107998787 -0.078233776801521,52.3362872443062 -0.076677013325915,52.3350534285048</coordinates></LinearRing></outerBoundaryIs></Polygon>
  </Placemark>
