  <Placemark>
	<Style><LineStyle><color>ff0000ff</color></LineStyle><PolyStyle><fill>0</fill></PolyStyle></Style>
	<ExtendedData><SchemaData schemaUrl="#Wards__December_2019__Boundaries_EW_BFE">
		<SimpleData name="objectid">7278</SimpleData>
		<SimpleData name="wd19cd">W05000099</SimpleData>
		<SimpleData name="wd19nm">Porthmadog West</SimpleData>
		<SimpleData name="wd19nmw">Porthmadog - Gorllewin</SimpleData>
		<SimpleData name="bng_e">255200</SimpleData>
		<SimpleData name="bng_n">338063</SimpleData>
		<SimpleData name="long">-4.1552</SimpleData>
		<SimpleData name="lat">52.920422</SimpleData>
		<SimpleData name="st_areashape">11553710.0363181</SimpleData>
		<SimpleData name="st_lengthshape">19589.4693677691</SimpleData>
	</SchemaData></ExtendedData>
      <Polygon><outerBoundaryIs><LinearRing><coordinates>-4.15748078790016,52.9338593626878 -4.15885572261628,52.9339170835549 -4.16017531839485,52.9339721999526 -4.1637026671654,52.9341040609467 -4.16403853411959,52.9341249096726 -4.16430301627133,52.9341461595013 -4.16456479166139,52.9341746482194 -4.16489585269488,52.9342171552783 -4.16555569204363,52.9343202740274 -4.16612641101351,52.934424924801 -4.16813197308989,52.9348325586151 -4.16871201536632,52.9349172517829 -4.16929114832716,52.9349812846256 -4.16978685798409,52.935013580921 -4.17010140188642,52.9350249143537 -4.17041705821232,52.9350290364594 -4.17091658383258,52.9350199110126 -4.17185561697739,52.934959606188 -4.17201166391235,52.9349567538193 -4.17193662390397,52.9347666700468 -4.17190512732345,52.9347600546912 -4.17117317313175,52.9346457050532 -4.17109689011159,52.9346390096294 -4.17101934855936,52.9346341344711 -4.17004785834344,52.9346096344179 -4.1697699646563,52.9345877441113 -4.16981233021656,52.9344241876845 -4.16981668230707,52.9343027635528 -4.16935732366492,52.9341925028834 -4.1689876954941,52.934090399216 -4.16873829176277,52.9340149543174 -4.16853082396557,52.9339414399871 -4.1685201805181,52.9339371395888 -4.16836223755458,52.9338726077139 -4.16813477193132,52.9337598186289 -4.1676027443331,52.9334449503168 -4.16732472656013,52.9332117369862 -4.16717449502375,52.9330338080416 -4.16715266883672,52.9330144320832 -4.16702101672914,52.9328522535932 -4.16676331958182,52.9326376341512 -4.16653601063034,52.9324664137891 -4.16616931701077,52.9322752628045 -4.16568774355194,52.9320782044039 -4.16547155215656,52.9319795863369 -4.16538202794739,52.9319434662099 -4.16545718727795,52.9319007492922 -4.16576794428854,52.9317458769818 -4.16584460683588,52.9317013341972 -4.16602804468014,52.931502850153 -4.16608189478282,52.9314191749849 -4.16614197190835,52.9313397900881 -4.16621764496761,52.9312754910439 -4.16631055493108,52.9312000911069 -4.16640422581934,52.9311399584282 -4.16647406049332,52.931076664767 -4.16653928036792,52.9309234798438 -4.16607895591695,52.9307340359372 -4.16563788099881,52.9305712944376 -4.16543284995161,52.9304896404844 -4.16545810166512,52.9303983067192 -4.1654784715635,52.9303296231888 -4.16521221387433,52.930004508099 -4.16512061282612,52.9298677545528 -4.16495389515324,52.9298653996047 -4.16471725956047,52.9298067017724 -4.16423844884776,52.9296913836498 -4.16390861735889,52.9296137976334 -4.16367718407467,52.9295658794948 -4.1634562204244,52.9295212749886 -4.16305541584835,52.9294521708733 -4.16260187008851,52.9293660477774 -4.16227134079852,52.9293334126582 -4.16199058731909,52.9293124547813 -4.1617198505108,52.9292832247505 -4.16155807894284,52.9292618992558 -4.16148753252813,52.9292199482815 -4.16137663785958,52.9291437650492 -4.16099004805179,52.9289412757387 -4.16084611553947,52.9288594018728 -4.16080482874662,52.9288358840903 -4.16076284329124,52.9288303557081 -4.16069315290163,52.9288055562223 -4.16061557329582,52.9287701144955 -4.16068070466763,52.9287329757617 -4.16074868831845,52.9286939878082 -4.1609408392506,52.9286086080996 -4.16110636517451,52.9284689730278 -4.16113421177193,52.9283704919178 -4.16107269905758,52.9283005122248 -4.16101527739066,52.9282215587482 -4.16098769045078,52.9281159966504 -4.16094385963597,52.9280143255094 -4.16086608003802,52.9278862159127 -4.16075081006442,52.9277516869485 -4.16064989691962,52.9276689406041 -4.16040222745683,52.9275952446344 -4.16012200168717,52.9275230391722 -4.159887827233,52.9274517932109 -4.15988583117159,52.9274437393495 -4.15994818961741,52.927380495536 -4.16005792191843,52.9272832224265 -4.16020814066465,52.9270727683014 -4.16037296928945,52.9268576426918 -4.16065371108296,52.9263714739021 -4.16081701813391,52.9258255098269 -4.16078557601369,52.9257927347446 -4.16072914405289,52.9257335380739 -4.16087002708641,52.9253974130259 -4.16091891997796,52.9252437204048 -4.16093577797418,52.9251930787198 -4.16102964060962,52.9252255272905 -4.16107804128243,52.9252417243724 -4.16118868918798,52.9251038976233 -4.1612391826821,52.9251029791115 -4.16137676584269,52.9251463167564 -4.16171231930022,52.9252508593236 -4.16173205186307,52.9252603876676 -4.1619833303077,52.9253771591843 -4.16214189177601,52.9254524734323 -4.16250147302902,52.9256230924634 -4.16261952374386,52.9256928514993 -4.16296523622841,52.9259419213612 -4.16324394795122,52.9257723573092 -4.16344338965803,52.9256859414458 -4.16354460528043,52.9256491428658 -4.16380002145758,52.9255563043287 -4.1646660277838,52.925231236095 -4.16488947694196,52.9251786268571 -4.16502838396504,52.9251599163791 -4.16516038443613,52.9251503207903 -4.16527641272752,52.9251500035377 -4.16539128335399,52.9251560000632 -4.16562504086945,52.9251894898542 -4.16587524315573,52.9252550388719 -4.16591046811873,52.9252750705976 -4.16613132979974,52.9251092520699 -4.16615504708037,52.9250781693656 -4.16621411674152,52.9250402401008 -4.16621899195041,52.9249880178537 -4.16627177603442,52.9249421130682 -4.16627667249423,52.9249222499035 -4.16626288178926,52.9248254265287 -4.16627016886786,52.924792035986 -4.1663246599982,52.9246624181957 -4.16640038226219,52.9244200582071 -4.16646913374769,52.9243082467958 -4.16648086436067,52.9242729779056 -4.16641567077658,52.9242202360515 -4.16643167990943,52.9241821927491 -4.16647710771804,52.9241093671961 -4.16653753764151,52.9240372570551 -4.16661551112449,52.9239603323482 -4.16672336762359,52.9238873571929 -4.16685529497027,52.9238174476043 -4.16697926849952,52.9237675476407 -4.16723932548313,52.9236720210013 -4.16741332868386,52.9235825583251 -4.1675420786796,52.9234785500102 -4.16763312844193,52.9233663310177 -4.16764951965174,52.9232770471575 -4.16765525460035,52.9231537110161 -4.16778956140598,52.923131485622 -4.16793347956113,52.9230659404909 -4.16791838133458,52.9228522014747 -4.16814976321052,52.9227500050005 -4.1682355220963,52.9226792298639 -4.16836741450095,52.9226381721613 -4.16844069099585,52.9226170599084 -4.16847914753866,52.9225839993685 -4.16853411619764,52.9225524356176 -4.16878061285611,52.922541644109 -4.1690014967339,52.9225852504332 -4.16905059350021,52.9225564900426 -4.16915650104334,52.9225329842715 -4.16927698916569,52.9225631420056 -4.16940009167771,52.922584264473 -4.16950391103166,52.9225778740339 -4.16970664267815,52.9225552959914 -4.16986961485941,52.9225127707734 -4.17005462892947,52.9224940213226 -4.17009560980389,52.9224501285177 -4.17018716904172,52.922407109086 -4.17033054990271,52.9222696633973 -4.17043609985979,52.9221507953815 -4.17052842969295,52.9220619209392 -4.17054916037302,52.9220300826481 -4.17065546461557,52.9218969094262 -4.17072214129255,52.9218003235098 -4.17067550824658,52.9216429787798 -4.17068665052987,52.9215690704991 -4.17080999121966,52.9215361655428 -4.17100694594189,52.921457064471 -4.17118966709496,52.9213926034164 -4.17135070051333,52.9213114609416 -4.17139449746573,52.9212944811149 -4.17159936785139,52.9212853435581 -4.17171831181879,52.921255305217 -4.17184516285109,52.9212043583555 -4.1719811127466,52.921185693569 -4.17233372723399,52.9212170876672 -4.17251513744992,52.9212146694166 -4.17265632227271,52.921241748813 -4.17290130408175,52.9213208613055 -4.17299521199209,52.9213541987244 -4.17324613742747,52.921463761375 -4.17339017338586,52.9214889904559 -4.17360559980484,52.9213331449851 -4.17371628937267,52.9212583131413 -4.17391869378607,52.9211412651156 -4.17403427763553,52.9211004993824 -4.17415379058527,52.9210524715072 -4.17418250333279,52.9209719484221 -4.17419176453402,52.9208899849153 -4.17428886784004,52.9207496956634 -4.17439401437423,52.9205031947136 -4.17442808652754,52.9203803282377 -4.17459851964218,52.9203987816253 -4.17459030984766,52.920442974431 -4.17458684254812,52.920461913653 -4.17475954457356,52.920493807322 -4.17476697539413,52.9204927730868 -4.17480299499293,52.9204993038107 -4.17480682089946,52.9204875490367 -4.17481792667525,52.920442403195 -4.17501221095939,52.9204595202484 -4.17504952039228,52.9204624326711 -4.1750280632483,52.9205384184591 -4.17506138275942,52.920579154542 -4.1750834749784,52.9206650396104 -4.17511340036247,52.9207579713772 -4.17516157749207,52.920769673115 -4.17515460461573,52.9208678649863 -4.17531118801781,52.9209647695011 -4.17558036738861,52.9210811849527 -4.17581615978346,52.9211848173728 -4.17606486915352,52.9213087967948 -4.17629579618318,52.9214034400741 -4.17636989450175,52.9214281485274 -4.17704342156355,52.9216289248887 -4.17782884940288,52.9218644977663 -4.17783137422866,52.9219147868708 -4.1779672993187,52.9219860008197 -4.17841354388067,52.9223086836204 -4.17856660323583,52.9224255134197 -4.17863336879443,52.9224800172869 -4.17870947344622,52.9225738996062 -4.17878596434447,52.9226462026107 -4.17890720049555,52.9223932003118 -4.17900540994495,52.9221872710896 -4.17906697053172,52.9221088415314 -4.17914439574548,52.9220507940229 -4.17923743816571,52.9219788871177 -4.17955962891318,52.9217878142182 -4.17972632254429,52.9216120874883 -4.17976088060848,52.921560219785 -4.17978804229633,52.9215075877792 -4.17980346414372,52.9214605648999 -4.17980267753232,52.9212960010763 -4.17975360947051,52.9210298540746 -4.17978950303879,52.9209752645349 -4.17980755732825,52.9209488664421 -4.17986946043179,52.9209090798987 -4.1802739303565,52.920815368634 -4.18038378562841,52.9207827909847 -4.18037217488795,52.9204907898583 -4.18033381895651,52.9198765020969 -4.18027141087534,52.919759809105 -4.18026306130569,52.9195936757235 -4.18027716111721,52.9195179137719 -4.180311513794,52.9194327018501 -4.18038107044959,52.9193963700379 -4.18064222681808,52.9192945010334 -4.18106035306157,52.9191483125393 -4.18119597624401,52.9191233510962 -4.18128803278177,52.9191198634837 -4.18144603508548,52.9191862633338 -4.18185520840105,52.9192767225159 -4.18209471374806,52.91933704092 -4.18236593827587,52.9194354259655 -4.18253832984562,52.9194611120229 -4.18290529327403,52.9194804354188 -4.183081594744,52.9194960714789 -4.18335680659019,52.9195566294043 -4.18352173027319,52.9195509017001 -4.18375389791894,52.919672472863 -4.18422739798449,52.9199173334944 -4.18455580029856,52.9200281444385 -4.1847324692271,52.9201094770786 -4.18491076390457,52.9201646236831 -4.18524510680948,52.9201863381406 -4.1851990667126,52.9202779686356 -4.185309017134,52.9203325735838 -4.18542163146386,52.9203548605225 -4.18546431387416,52.9203450869558 -4.18579227000577,52.9204469153388 -4.1862015557933,52.920539156017 -4.18623449956076,52.9204846186786 -4.18649708926412,52.920559783886 -4.1866190861028,52.9205880990529 -4.18676876432056,52.9206375667184 -4.18693002003465,52.9207074052097 -4.18757285699591,52.92085826106 -4.18777391121409,52.9208635478924 -4.18829354354356,52.9210787790656 -4.18833903819612,52.9212730813378 -4.18851098274449,52.9212896888501 -4.18882889973467,52.9213988841547 -4.18912763653547,52.9215120275971 -4.18927187107944,52.9215093696819 -4.18934134193058,52.921529751612 -4.18942778659154,52.9215632137795 -4.18972151139612,52.9217519515474 -4.19013900948468,52.9215059704929 -4.19095941405782,52.9210799787121 -4.1918483482854,52.9206536148058 -4.19229512727777,52.9204268604964 -4.19316389804693,52.9200170378292 -4.19398100004287,52.9196117592187 -4.19544714062879,52.9188644220148 -4.19588604700987,52.9186621577019 -4.19615270502961,52.9185510739126 -4.19695092088454,52.9182171311375 -4.19743567456738,52.9180364843877 -4.19823323674128,52.9177771502252 -4.19860717752213,52.9176704572566 -4.19871300944426,52.9176460269505 -4.1986307831552,52.9174029710377 -4.1985947457613,52.9173380218532 -4.19887668141856,52.9171196844152 -4.19904146546775,52.916995289106 -4.19914886621691,52.9169123149149 -4.19926848850915,52.916806733271 -4.19939161188783,52.9166831091421 -4.19956217328545,52.9164695316005 -4.19975501610295,52.916368885528 -4.19993735017278,52.9162980061078 -4.20008011501932,52.9161506480174 -4.2002905651452,52.9159885531041 -4.20051957043695,52.9158997298292 -4.20097512990026,52.9154103178978 -4.20132994534007,52.9150746762302 -4.20151252049528,52.9149192976476 -4.20148454821579,52.9148973457036 -4.20128159806104,52.9147357187928 -4.20098672835097,52.9145244713341 -4.20077508487975,52.9143098839341 -4.20042519354027,52.9138938185891 -4.20039834742233,52.9137441190992 -4.20036926802261,52.9135782114991 -4.20025563919581,52.9135705736402 -4.2000129971975,52.9135373055862 -4.19995685429807,52.9135295827501 -4.19978832394005,52.9135064015802 -4.19951992009705,52.9134637194871 -4.19923084966733,52.9134241167294 -4.19903418344666,52.9133881972558 -4.19884417355884,52.9133368695103 -4.19861537618042,52.9132538917339 -4.19665108064834,52.9125680658813 -4.19345918693816,52.9114156103644 -4.19062962593767,52.9102740017467 -4.18893040189746,52.9095826394722 -4.18777088257342,52.9091387712467 -4.18689276155933,52.9088034025208 -4.18531330983824,52.9080909568305 -4.1834935535925,52.9074207423598 -4.18189170588818,52.9068088143141 -4.18098377952702,52.90640581623 -4.18071873499639,52.9063020534391 -4.18046080818094,52.9061919376302 -4.18017792684085,52.9060598737527 -4.18006450760689,52.9059986499249 -4.17990257850097,52.9059012913736 -4.17979101808417,52.9058394577507 -4.17965620287378,52.9057806491719 -4.17953871899319,52.905741212698 -4.17941706717295,52.9057067257067 -4.17929162337815,52.9056778646025 -4.17913517583114,52.9056514153367 -4.17896516690536,52.9056415692735 -4.1785364369604,52.9056703286676 -4.17830375620829,52.9056677809758 -4.17818617208216,52.9056559473668 -4.17787531301215,52.9056006167904 -4.17715350534139,52.9050744079799 -4.17707885872812,52.9050232148749 -4.17685808450801,52.9048959658325 -4.17677861775928,52.9048479807582 -4.17666601297226,52.9047625080809 -4.17660450622015,52.9046856743272 -4.17657693676482,52.9045958380428 -4.17657322874908,52.904527529487 -4.17658901390832,52.9044247788569 -4.1766227489572,52.9043422167295 -4.17668927411219,52.9042513663778 -4.17680478929697,52.9041633224369 -4.17691360458651,52.9041166338768 -4.1770285621699,52.9040916088221 -4.17717439929861,52.904100255337 -4.17730878714535,52.9041468647445 -4.17757130402904,52.9042943416308 -4.17771341709426,52.9043653813467 -4.17790133674417,52.9044199186634 -4.17809663268875,52.9044605282316 -4.17824368803298,52.9044809742639 -4.178379360805,52.9044618796804 -4.17846182578317,52.9044104761713 -4.17849896316635,52.9043418500618 -4.17850422118792,52.9042356598571 -4.17849241122923,52.9041333880922 -4.17825982866652,52.9038698029618 -4.17758240441832,52.9035339044524 -4.17736805896899,52.9033757982987 -4.17715914526716,52.903215074722 -4.17695886099133,52.9030505602579 -4.17674234643366,52.9028541461587 -4.17657064391795,52.9026664679098 -4.17642082197811,52.9024717800941 -4.17627566892298,52.9022755769779 -4.17602784394382,52.9019892499245 -4.17587272729533,52.9018419061235 -4.17571042367285,52.9016974090598 -4.17554008902742,52.9015564215163 -4.17519766178789,52.9013048764647 -4.17427991524275,52.9007850441667 -4.17364674132489,52.9004347641542 -4.17306518175688,52.9000843546596 -4.17224905516195,52.8994598985623 -4.17194936068792,52.8992210042974 -4.1716536963205,52.8989802733693 -4.17113036454911,52.8985905422189 -4.17088334392422,52.8984378231141 -4.17062588632412,52.8982913272092 -4.17020562733777,52.8980340066974 -4.16996375651671,52.8978634164251 -4.16984405289821,52.8977768713333 -4.16961038364711,52.8976007539035 -4.16949771534009,52.8975109600768 -4.16938868525156,52.8974198769156 -4.1692839708441,52.8973273751731 -4.16918420725556,52.8972333713321 -4.16909004222864,52.8971377366922 -4.16900214014996,52.8970403782139 -4.16892114919885,52.8969411761819 -4.1688477188942,52.89684003783 -4.16878249740143,52.8967368434437 -4.16872614863007,52.8966314910029 -4.16867186389984,52.8965040549361 -4.16863340174119,52.8963862020387 -4.16860383083876,52.8962674585087 -4.16858296878574,52.8961480434667 -4.16857064713264,52.8960281577942 -4.16856665331727,52.8959080121674 -4.16857081979002,52.8957878254298 -4.16858294839761,52.8956677989998 -4.16860285629178,52.8955481430061 -4.16863772892961,52.8954018611529 -4.16867531107671,52.895305960287 -4.16873000373041,52.8952130016968 -4.16879619084126,52.8951221708333 -4.16897509334157,52.8948990289548 -4.16903727018537,52.8948091882653 -4.16908564663211,52.894717792399 -4.16911462127914,52.8946240176055 -4.16911861880327,52.8945275611337 -4.16909766813486,52.8944257251606 -4.16905826327674,52.8943264829653 -4.16900342459165,52.8942295815669 -4.168936157109,52.8941347592724 -4.16885945097614,52.8940417546621 -4.16877632602098,52.8939503057792 -4.16864046425995,52.8938096590781 -4.16856646483545,52.8937362951366 -4.16848889030217,52.8936642731493 -4.16840747056971,52.8935938407974 -4.16832196659892,52.8935252721675 -4.16823215195949,52.8934587961594 -4.16808853540197,52.8933634521851 -4.1680105516408,52.8933129797857 -4.16783001295352,52.8931903565119 -4.16775048818778,52.8931399750101 -4.16766800442847,52.8930934506546 -4.16755143649766,52.893040472412 -4.16739128230644,52.8929946910946 -4.16725124385143,52.8929796063624 -4.16706277643401,52.8929917577636 -4.16688620874968,52.8930335328531 -4.16671891707613,52.8930952602855 -4.16643535963224,52.8932247696403 -4.16628744360676,52.8933095555471 -4.16616344851319,52.8934077690709 -4.16599261673189,52.8935636867088 -4.16586902615615,52.8936622881365 -4.16127224472161,52.8887347690379 -4.16106190352524,52.8888178039549 -4.16054671726732,52.8892563764051 -4.16000603011087,52.8903392083474 -4.16000658610047,52.8906717299769 -4.15996898770086,52.891072612616 -4.15987058770697,52.8915364670996 -4.15967053660213,52.8920775701766 -4.15928723114848,52.8927264034025 -4.15883902808905,52.8932797789982 -4.15829057910498,52.8939278954335 -4.15703635987293,52.8952005449651 -4.15625074190246,52.8959775672043 -4.15517008105919,52.8969751711977 -4.15407233986552,52.8980070586546 -4.15322023616799,52.8988305772673 -4.15259464246133,52.8995631370951 -4.15202779950317,52.9003474921396 -4.15154209601043,52.9013833674092 -4.15010539285093,52.9034304804739 -4.14920461848638,52.9044838955064 -4.14910495703129,52.9051655835633 -4.14926197217733,52.9060270028071 -4.1496983680988,52.9067566078553 -4.1507652782395,52.9079011640842 -4.15094387622893,52.9084280102784 -4.15082062638756,52.9090179388924 -4.15012147977529,52.9095261054011 -4.14904735552879,52.9097760128747 -4.14698404137992,52.9100668404637 -4.14438486989698,52.9099294159994 -4.14272514892209,52.9099017495784 -4.14175078988911,52.9099154504051 -4.14092434724803,52.9100047109941 -4.13962100334192,52.9104248961268 -4.13838348011839,52.9108790902943 -4.13766118587907,52.9113646780596 -4.1369698389268,52.9121182201659 -4.13534816719029,52.9131032980521 -4.13375559790204,52.9139589438644 -4.13286306012999,52.9145979308539 -4.13199369774988,52.915709080454 -4.13115242403672,52.9162171379309 -4.12896900424303,52.9175695430298 -4.12725932915921,52.9186198120419 -4.12223006788148,52.9216938162236 -4.12070896027921,52.922620986182 -4.12070610660722,52.9226228353144 -4.12070313100922,52.9226246857245 -4.12045183910679,52.9227784688544 -4.12044315605648,52.922784016613 -4.12060018824665,52.9228297505175 -4.12518588735399,52.9240280879249 -4.12582058801923,52.9241991931542 -4.12656208015161,52.924424200372 -4.12685965381425,52.9245465961347 -4.12721822366206,52.9246696070278 -4.12751848136618,52.9247541130512 -4.12768698451191,52.9247933393621 -4.12791930110816,52.924888139521 -4.12820209264054,52.9250116059157 -4.12884761120813,52.9253425835298 -4.12930190049464,52.9255960921201 -4.13067046859246,52.9264095398106 -4.13169196837199,52.9270017036642 -4.13298766785785,52.9277534237548 -4.13326902157187,52.9279093537505 -4.13355614535559,52.9280902571238 -4.13367434722878,52.9286177309161 -4.13383493601533,52.9292810674884 -4.13392999750979,52.9297918792411 -4.13418269701357,52.9309057676043 -4.13574976150132,52.9309414262003 -4.13785918609449,52.9310213279904 -4.13869182459888,52.9310683633716 -4.13945802798054,52.9311264775043 -4.14024764986051,52.9312066342853 -4.14096527668158,52.9313070496636 -4.14145143137128,52.9313881734844 -4.14169620216291,52.9314331978338 -4.14223736043429,52.9315448755388 -4.14271460879525,52.931656715242 -4.14402637120983,52.93200436452 -4.1472868845846,52.9329434713171 -4.14823387418084,52.9332248598779 -4.14880018276325,52.933392680584 -4.14938536903918,52.9335501807164 -4.14977979956321,52.9336438056347 -4.15011672557,52.9337159089787 -4.15044573056979,52.9337791663638 -4.15083138056112,52.9338440939065 -4.1512195758911,52.9339009747831 -4.15152666430994,52.9339403565924 -4.15186315058979,52.9339738132891 -4.1523113305691,52.9340106378691 -4.15277549231493,52.9340381837493 -4.15318403463318,52.9340550500147 -4.15352224901127,52.9340615047091 -4.15385993860145,52.9340598786919 -4.15403388281735,52.9340567255641 -4.1562142938975,52.9338850481469 -4.15659281182911,52.9338655949133 -4.15710115508449,52.9338563676132 -4.15748078790016,52.9338593626878</coordinates></LinearRing></outerBoundaryIs></Polygon>
  </Placemark>
