  <Placemark>
	<Style><LineStyle><color>ff0000ff</color></LineStyle><PolyStyle><fill>0</fill></PolyStyle></Style>
	<ExtendedData><SchemaData schemaUrl="#Wards__December_2019__Boundaries_EW_BFE">
		<SimpleData name="objectid">3249</SimpleData>
		<SimpleData name="wd19cd">E05008728</SimpleData>
		<SimpleData name="wd19nm">Fenton East</SimpleData>
		<SimpleData name="wd19nmw"></SimpleData>
		<SimpleData name="bng_e">390161</SimpleData>
		<SimpleData name="bng_n">344658</SimpleData>
		<SimpleData name="long">-2.14805</SimpleData>
		<SimpleData name="lat">52.999161</SimpleData>
		<SimpleData name="st_areashape">2027770.44219832</SimpleData>
		<SimpleData name="st_lengthshape">8118.70386257741</SimpleData>
	</SchemaData></ExtendedData>
      <Polygon><outerBoundaryIs><LinearRing><coordinates>-2.15398545425556,52.99136059926 -2.15346848164963,52.9913666574143 -2.15241673257892,52.9913814864975 -2.15195193647713,52.9913802817817 -2.15149005412995,52.9913691870045 -2.15104312795268,52.9913499832127 -2.15061693059474,52.9913217650658 -2.15042169758016,52.9913058363822 -2.15025631936117,52.9912916657969 -2.14993144425068,52.9912597226504 -2.14961551896083,52.9912222857597 -2.14903573339148,52.9911430313546 -2.14846031310085,52.991046693669 -2.14798034560125,52.9909538295384 -2.14725570480005,52.9907883840723 -2.14670117833547,52.9906569640055 -2.14607944763523,52.990519243173 -2.14554428169766,52.9904084628942 -2.14500315106757,52.9903129655363 -2.14463946897495,52.9902423223888 -2.14401344131429,52.9901388358983 -2.1436900155366,52.990095191566 -2.14343966016577,52.990047863674 -2.14312807324607,52.9899808378954 -2.14290286663644,52.9899235042429 -2.14269411903198,52.9898662394587 -2.14248843043697,52.9898053758638 -2.14245105009562,52.9897928392238 -2.14235120935364,52.9897606071792 -2.14204398064624,52.9901241236197 -2.14193712931279,52.9902392795949 -2.1416684152646,52.9905128830744 -2.14157929863378,52.9906056416867 -2.14152279158192,52.9906416548533 -2.14143202518587,52.9906804054027 -2.14135914361155,52.9907047555286 -2.1412936053022,52.9907210093096 -2.14121027484346,52.9907426758602 -2.14115367827157,52.9907508313754 -2.14109412034747,52.9907553946816 -2.14107926179266,52.9907563111859 -2.1410166218668,52.9907572842115 -2.14078271837124,52.9907458782459 -2.14054744775859,52.9907677236431 -2.14044461431593,52.9907597563227 -2.14032689911765,52.9907455166749 -2.14019416838589,52.9907223071492 -2.14004063656733,52.9906856425795 -2.13990798929398,52.9906498513296 -2.13977371895023,52.9906058852434 -2.13962012723378,52.9905503473416 -2.13940380114946,52.9904661261036 -2.13923681372679,52.9904079084006 -2.13913683164075,52.9903693822735 -2.13904743190103,52.9903371343752 -2.13895643969281,52.9903057871872 -2.13884013030418,52.9902698867104 -2.13868349363962,52.9902215407188 -2.13853744511431,52.9901812707157 -2.13837344814195,52.9901356296322 -2.13822433140925,52.9900953628052 -2.13811687775431,52.9900631351351 -2.1380036088538,52.9900174347683 -2.13790064897993,52.9899689357137 -2.13774390615396,52.9898864394709 -2.1375991949289,52.9898021321922 -2.1374991971291,52.9897582129724 -2.13742617138373,52.9897367293342 -2.13733975924261,52.9897161599927 -2.13727561902481,52.9897081453578 -2.13698953187692,52.9897003867899 -2.13635786398857,52.9896696575675 -2.13621326481321,52.9896589485863 -2.13601357942093,52.9896295211079 -2.13610640077564,52.9897750881453 -2.13615736712035,52.9898514167247 -2.13620808749685,52.989888203797 -2.13631260723344,52.9899644711213 -2.13644997547872,52.9900578647768 -2.13663654791443,52.990174477676 -2.13656519432357,52.9902167970502 -2.13655771672368,52.9902212984244 -2.13654876714022,52.9902267004055 -2.13653981755737,52.9902321032848 -2.13645657317739,52.9902816248848 -2.13643731997312,52.9902915323576 -2.13643573014097,52.990293331121 -2.13642984517053,52.9902969326421 -2.13642543529186,52.9903006223673 -2.13641944509703,52.99030961574 -2.13641651107813,52.9903141128058 -2.13641653930095,52.9903230992926 -2.13641654776751,52.9903257951488 -2.13642098615555,52.9903311818026 -2.13642246794423,52.9903338759731 -2.13642997246939,52.9903374621742 -2.1365225252979,52.9903966679859 -2.13653741772601,52.9904065363743 -2.13654037151568,52.9904083308351 -2.13660462285208,52.9904513928936 -2.13664647026752,52.9904783045007 -2.13670470053747,52.9905204753822 -2.13669280842215,52.9905276785905 -2.13667636984212,52.9905339880875 -2.13608565694889,52.9907594192788 -2.13605142957891,52.9907729385638 -2.13600382810424,52.9907909659038 -2.13847065597084,52.9921553548829 -2.13777201939296,52.9926317370865 -2.13685483254476,52.9932611397715 -2.13638499129371,52.9935763007651 -2.13675224783947,52.9938024336192 -2.13672391499644,52.9938159454432 -2.13656778421138,52.9938925111484 -2.13657369077338,52.9938960991718 -2.1358537169477,52.9942429975402 -2.13585521007324,52.9942492864937 -2.13600607265168,52.9943722317425 -2.13625458631387,52.9942578173233 -2.13751320558845,52.9946491787861 -2.13704318138884,52.9948708807342 -2.13693914862905,52.9949527787576 -2.13686635760485,52.9950482109543 -2.13681742826552,52.9951138695112 -2.13669135693108,52.9952973419801 -2.13664242300879,52.9953621914382 -2.13659349579955,52.9954287488189 -2.1365356544748,52.9955123905031 -2.13653114272226,52.9955231800317 -2.13648819760709,52.9955780472337 -2.1364747620276,52.9956023272025 -2.13640809195747,52.9956914605508 -2.1361515170101,52.9956269604241 -2.13598751168742,52.9955849099485 -2.1358354383494,52.9955473393633 -2.13567284127421,52.9954837199215 -2.13554012682961,52.9954299508352 -2.13547150886711,52.9954066631428 -2.13534389436993,52.9955703650474 -2.13500851498162,52.9955249137245 -2.13498037522506,52.9955617905802 -2.1350563679352,52.9955859682255 -2.13530551271249,52.9956711489506 -2.13549341993334,52.9957365379788 -2.13562906693685,52.9957849120471 -2.13582902906448,52.9958547805398 -2.13615258499678,52.9959677322771 -2.13595492489289,52.9961234271854 -2.13598776873833,52.9961377679825 -2.1359402231767,52.9961755661127 -2.13594625085186,52.9961782560052 -2.13582283214068,52.9962692515462 -2.13615113792012,52.996446812343 -2.13618105606339,52.9964683460003 -2.13619746214485,52.9964898950846 -2.13620502970526,52.9965132521057 -2.13620362512259,52.9965357204539 -2.13632453067701,52.9966219434657 -2.13642905969971,52.9966964128169 -2.13653815330066,52.9967762694779 -2.13642806312535,52.996848288527 -2.1363923913397,52.9968725930224 -2.13638049459659,52.9968788972819 -2.13635670851523,52.9968933935239 -2.13617973634749,52.9969879555489 -2.13599675115632,52.9970843211113 -2.13583006735345,52.9971689854404 -2.13565013764664,52.9972609440695 -2.13573224147869,52.997313871715 -2.13579336122868,52.9973344710239 -2.13595079974034,52.9976318399695 -2.13605114643926,52.9978213430695 -2.13607821995726,52.9978753220608 -2.13683907438371,52.997735068185 -2.13720983272389,52.9976573573594 -2.13725487314745,52.9977597528805 -2.13735084938979,52.9979637289447 -2.13735838792722,52.9979780994044 -2.13737341537931,52.9980293062186 -2.13745610605632,52.9982665476896 -2.13755988355114,52.9985666712686 -2.13761557834741,52.9987355565281 -2.13765916747434,52.9988443340937 -2.137683225098,52.9989153004064 -2.13772980142679,52.9990365667992 -2.13776099527687,52.999032935977 -2.13782717083978,52.9992135803848 -2.13789334245796,52.9993923379196 -2.13786202617748,52.9993959689179 -2.13795373496705,52.9996466797781 -2.13799575276429,52.9997635475119 -2.13807249383215,52.99998183443 -2.13813241949242,53.0000887950377 -2.13817751326153,53.0002064681634 -2.13844954235477,53.0009468306633 -2.13839440843901,53.0009558811753 -2.1382442257722,53.0010558966717 -2.13818783306336,53.0010946048249 -2.13815808225618,53.0011269914403 -2.13815375405048,53.0011566518341 -2.13817034879237,53.0012366140335 -2.13825380115516,53.0012464027267 -2.13835959658947,53.0012507728147 -2.13835095640464,53.0013155770105 -2.13814111701082,53.0014326466688 -2.13811451419579,53.0014892932775 -2.13814748865324,53.0015431741093 -2.13812956232549,53.0015467896587 -2.13811322194259,53.0015468085867 -2.13820943965247,53.0018226763776 -2.13823656677089,53.0018918420065 -2.13825902712193,53.001962001852 -2.13834310278601,53.0021281569163 -2.13840751785596,53.0022548838344 -2.138444990442,53.0023321249875 -2.1385125773156,53.0024902114842 -2.13857717010394,53.002634012186 -2.13862334997464,53.0026285667878 -2.13898818150866,53.0025679315414 -2.13934562415795,53.0025027202138 -2.13939178359682,53.0024909838975 -2.13953468725257,53.0024575666034 -2.13969850379302,53.0024322122222 -2.13990704465242,53.0024077031683 -2.13994878983886,53.0023986676757 -2.13999243607492,53.0025226323626 -2.14024372086595,53.0032927601344 -2.14051490035689,53.0032600896569 -2.14075313113961,53.0032211659151 -2.14099148517676,53.0031822415489 -2.1411999701657,53.0031396683024 -2.14144123573758,53.0030899561386 -2.14154389154507,53.0030718604176 -2.14156666613625,53.0031986350528 -2.14156775937962,53.0035339246537 -2.14156706354707,53.0037729698926 -2.14156666837567,53.0041037684261 -2.14157312269906,53.0042368521564 -2.14157766279501,53.004272793676 -2.14161377156433,53.0043814886505 -2.1417270207746,53.0043705706627 -2.14174971736728,53.0044730807853 -2.14177371444173,53.0045224784707 -2.14179918099871,53.0045700774626 -2.14190334365927,53.004523223204 -2.14218594746966,53.0043754160581 -2.14259058763531,53.0041619499739 -2.14293868986386,53.0039817105445 -2.14335521403941,53.003760049204 -2.14341673618977,53.0038616143229 -2.14364002409925,53.0042451646541 -2.14372693532643,53.0044068187936 -2.14374347663582,53.0044302543752 -2.1437628356347,53.0044508999054 -2.14379275270026,53.0044688377388 -2.14402705617031,53.0045781917482 -2.1440733134665,53.0045961088746 -2.14411358320643,53.0046239186432 -2.14424206417568,53.0046857707991 -2.14451221151433,53.004821231872 -2.14467491360983,53.0049019140101 -2.14487343995624,53.0050032221739 -2.1448467073401,53.0050194307148 -2.14478275013922,53.0050735181974 -2.14461868982439,53.005027795055 -2.14456802535278,53.0050152752056 -2.14442188440368,53.0050001751474 -2.14427425480911,53.0049814819299 -2.14401789351472,53.0049647177392 -2.14394493421207,53.004971994496 -2.14346235646565,53.0050625327669 -2.14324944565059,53.0051068232131 -2.14311841047054,53.0051267504955 -2.14307223739642,53.0051348943833 -2.14308873906558,53.0051834018752 -2.14315625544837,53.005313627369 -2.14327490570503,53.0055984505574 -2.14339505512047,53.0058904613756 -2.14351380953647,53.0062058393621 -2.14356054413323,53.0063676318132 -2.14361462915045,53.0064852919166 -2.14363730128586,53.0065787252937 -2.14368543775739,53.0067180492996 -2.14374563779671,53.006901304229 -2.14380269141078,53.0070244422731 -2.14391531200549,53.0072670344974 -2.14391678739374,53.007267032717 -2.14438892568164,53.0072079594324 -2.14473925395964,53.0072111295415 -2.14515371311544,53.0072844055301 -2.14537147296251,53.0073281747616 -2.14575595976401,53.0073304022134 -2.14603166357862,53.0073210775228 -2.14695715616515,53.0073181436756 -2.1479363870216,53.0073636632589 -2.1484075012715,53.0074017206471 -2.1491067179529,53.0074880184608 -2.14951369665857,53.0075270505686 -2.14978059853529,53.0075663463049 -2.14997587367444,53.0075732904296 -2.15011152523885,53.0075722208238 -2.15025601849464,53.0075693429818 -2.15047796170842,53.0075420128164 -2.15084752094121,53.0075262687434 -2.15130651959267,53.0075068152851 -2.15194127573917,53.0074997174447 -2.15211392621105,53.0074320980785 -2.15221663129662,53.0073915272885 -2.1525261228958,53.0072419532959 -2.15293840112528,53.0070759816317 -2.15310638421342,53.0069751157561 -2.1532113733186,53.0067466309231 -2.15340609394711,53.006180042892 -2.15362319907453,53.0056215141347 -2.15386942278408,53.0048904031935 -2.15400429088,53.0046708655276 -2.15401754303829,53.0046313075985 -2.15405149832712,53.0045395999194 -2.15406180768172,53.0045018427287 -2.1540898628921,53.0044092437401 -2.15411204894177,53.0043596989324 -2.15413861666225,53.0042985559778 -2.15416669320482,53.0042472955948 -2.15420369590687,53.0041834423698 -2.15422442100952,53.0041375841039 -2.15424661315082,53.0040898362031 -2.15426143683615,53.0040430866442 -2.15427754352464,53.0039774634863 -2.15430831870914,53.0038210564407 -2.15433175584143,53.0037086026116 -2.1543493631259,53.0036501670644 -2.15438484504445,53.0035737344539 -2.15455066734158,53.0032499109142 -2.15471198408293,53.0029386742666 -2.15504041371964,53.0022892332005 -2.1551350316958,53.0020868214953 -2.15516316185641,53.0020166888468 -2.15517051578172,53.0019771375493 -2.15517192204726,53.0019582637763 -2.15697212562387,53.0015972513261 -2.15796385990291,53.001397246705 -2.15884976740597,53.0012207405097 -2.15999628857979,53.0009882503247 -2.16110106606445,53.0007664999598 -2.16078047814337,53.0002877656544 -2.16055116187213,52.999937506484 -2.1603294820833,52.999624979554 -2.16013465337372,52.9993303900451 -2.16010180856524,52.9992855016078 -2.16006572432143,52.9992280353178 -2.16004625714311,52.9991795332204 -2.16002212619849,52.999098686123 -2.16000535133295,52.9990141444716 -2.15997323010689,52.9987652575538 -2.15963169423603,52.9986964283134 -2.15936035006497,52.9986392774564 -2.15924550642252,52.9986115715498 -2.15914859647025,52.9985838424937 -2.15907099253136,52.9985605813073 -2.1589636194058,52.9985265754114 -2.1587845288461,52.9984666034382 -2.15858465251946,52.9984002783023 -2.15840568339706,52.998339407572 -2.15827430625185,52.998291952722 -2.15799987379189,52.998195261117 -2.15780293405918,52.998124526955 -2.15759996387443,52.9980510155789 -2.15746576023767,52.9980026646453 -2.15739108585072,52.9979740058613 -2.15730901937313,52.9979390661342 -2.15725537180486,52.9979157721478 -2.15718965931592,52.9978853044734 -2.15711654501181,52.9978458591043 -2.1570567235077,52.9978135866498 -2.156985076196,52.9977722524315 -2.15694480630609,52.9977453450059 -2.15685517467132,52.9976906449508 -2.15673720005753,52.997611717513 -2.15669236339511,52.9975785262533 -2.15655634751311,52.9974698761446 -2.15630160952085,52.9974836905592 -2.15608713810041,52.9974893632329 -2.15592177800941,52.9974877826378 -2.15576670832704,52.9974780998786 -2.15564307254094,52.9974638821838 -2.15552825866025,52.9974433631031 -2.15538500613841,52.9974058059678 -2.15528223925368,52.9973870678927 -2.15517937621775,52.9973764183458 -2.15500193756001,52.9973631689114 -2.15460403652331,52.997329536366 -2.1542374654441,52.9972967599895 -2.15402718156804,52.9972709711776 -2.153803623599,52.997243400374 -2.15362328632909,52.9972094837242 -2.15340259782232,52.9971593527378 -2.15311327365484,52.9970842367789 -2.15268661994068,52.996942795636 -2.15233604033957,52.9968101515214 -2.15183766679276,52.9966031956354 -2.15159146684842,52.996492883102 -2.15114074876261,52.99628137102 -2.15080048476938,52.9961091685892 -2.15086135391566,52.9960560704889 -2.15086428845523,52.9960524719882 -2.15105433881753,52.995878699022 -2.15106779754759,52.9958634047964 -2.15099914865034,52.9958338354559 -2.15101249459207,52.9958212372448 -2.15104066144907,52.9957960389492 -2.1511743863782,52.9956754490159 -2.15125606441963,52.9956015646255 -2.15139618999195,52.9956257412229 -2.15143641220905,52.9956409673063 -2.15146763965486,52.9956129792795 -2.15154490319611,52.9955409871765 -2.15164285913194,52.995450097653 -2.15168763634628,52.9954680146423 -2.15188163532219,52.9955468494454 -2.15188605102211,52.9955450468774 -2.1519856096981,52.9954559519756 -2.15203018564323,52.9954163542962 -2.15210178457602,52.9954459193169 -2.15221065283998,52.9954898140814 -2.15226269121357,52.9954412202722 -2.15228791492939,52.9954178223973 -2.15231166679133,52.9953953262174 -2.15266356000886,52.9950667734975 -2.15267849921434,52.9950532741446 -2.15291748061905,52.9948246175959 -2.15291907458563,52.9948237166304 -2.15292348067235,52.9948192181704 -2.15292347433938,52.9948174203354 -2.15292494465013,52.9948165204273 -2.1529249383171,52.9948147225923 -2.15292640695106,52.9948129237648 -2.15292640378451,52.9948120248473 -2.15296046611109,52.9947526694179 -2.15296193473829,52.994750869691 -2.15305521023947,52.9945880020584 -2.15307303737689,52.9945574248319 -2.15309673448183,52.9945196504919 -2.15316369051447,52.9944872123278 -2.15316957466256,52.9944836099829 -2.15326770556661,52.9944088949843 -2.15347719983752,52.9942503713023 -2.15355481679437,52.9942799268114 -2.15370637612313,52.9941691956653 -2.1535048431278,52.9940777922068 -2.15355086396509,52.9940309117264 -2.15355975817649,52.9940102313681 -2.15390432743962,52.9937005572261 -2.15419525882111,52.9938188948089 -2.15426069799836,52.9937747756014 -2.15444411689457,52.9938500260473 -2.15454707865992,52.9938912313692 -2.15455896403905,52.9938831274687 -2.15458726894729,52.9938633198979 -2.15461557648956,52.9938785612723 -2.15463501971544,52.9938884206046 -2.15484323528158,52.9937866019491 -2.15481187149591,52.993774959384 -2.15444328535608,52.9936162841145 -2.1542180348387,52.9935222158028 -2.15413597935609,52.9934872738266 -2.15412257123189,52.993481899423 -2.15398233023202,52.9934236677488 -2.15417688777003,52.9932462892427 -2.15444112040882,52.9930077115018 -2.15464460809364,52.99282142403 -2.15465052911451,52.9927935578659 -2.15470509934472,52.9926648882304 -2.15444724079409,52.9926220867889 -2.1543935335145,52.9926140678321 -2.15425944780029,52.9925935724346 -2.15407312994035,52.9925650558774 -2.15391213223843,52.9925410000637 -2.15377202824837,52.9925205109833 -2.15363340563744,52.992501817673 -2.15350522671834,52.9924840096808 -2.15328463540578,52.9924545480801 -2.15337050823755,52.9923187391218 -2.1538090657142,52.9916368067518 -2.15383875057538,52.9915909360232 -2.15398545425556,52.99136059926</coordinates></LinearRing></outerBoundaryIs></Polygon>
  </Placemark>
