  <Placemark>
	<Style><LineStyle><color>ff0000ff</color></LineStyle><PolyStyle><fill>0</fill></PolyStyle></Style>
	<ExtendedData><SchemaData schemaUrl="#Wards__December_2019__Boundaries_EW_BFE">
		<SimpleData name="objectid">1426</SimpleData>
		<SimpleData name="wd19cd">E05002456</SimpleData>
		<SimpleData name="wd19nm">Bassett</SimpleData>
		<SimpleData name="wd19nmw"></SimpleData>
		<SimpleData name="bng_e">441681</SimpleData>
		<SimpleData name="bng_n">116063</SimpleData>
		<SimpleData name="long">-1.4081</SimpleData>
		<SimpleData name="lat">50.94249</SimpleData>
		<SimpleData name="st_areashape">4511212.22982572</SimpleData>
		<SimpleData name="st_lengthshape">11646.881555902</SimpleData>
	</SchemaData></ExtendedData>
      <Polygon><outerBoundaryIs><LinearRing><coordinates>-1.40654471294162,50.9358781897827 -1.40630060874762,50.9359362819993 -1.40560812781199,50.9361063539367 -1.40459000888267,50.9363781456817 -1.40413729670754,50.9364980988576 -1.4041029802112,50.9365114089013 -1.40382687342442,50.9366215642093 -1.40341412088724,50.9367363249919 -1.40297429672826,50.9368482489164 -1.40105096895093,50.9373384150874 -1.39952531683066,50.9377801564595 -1.39933839140217,50.9378161431264 -1.3990832928205,50.9378426973548 -1.39800209792852,50.9379225243018 -1.39698225388588,50.9379855772133 -1.39674445768768,50.9379897406365 -1.39651817196339,50.9379930648033 -1.39631719892062,50.9380171963365 -1.39578988618633,50.9380684047998 -1.39558191772702,50.9380889925999 -1.39404154656031,50.9382311293877 -1.39144115067167,50.9384559097367 -1.39088829525976,50.9385033667427 -1.38992801345798,50.9385864480079 -1.38975692048347,50.938604431666 -1.3891760311493,50.9386238647946 -1.38844499936346,50.9385849708164 -1.38781619248289,50.9385627913503 -1.38779342931396,50.9385626718133 -1.38780118096268,50.9388387973817 -1.38778064528822,50.9392136655559 -1.38790839270766,50.9392350131025 -1.38859844848498,50.9392584124001 -1.38898249199739,50.9392703150021 -1.38939952199307,50.9392724999057 -1.38939899039497,50.9393130422129 -1.38944533026841,50.9394661156227 -1.38944360946411,50.9395973612989 -1.38937807812163,50.939708585213 -1.3892161293024,50.9397985364332 -1.38898983968709,50.9399088270309 -1.38875498021816,50.9400191631034 -1.38885191111138,50.9401086731478 -1.38911319881552,50.9402647607427 -1.38967248063825,50.9404897448227 -1.38981595599154,50.9405111725318 -1.39008925082102,50.9405126024706 -1.39082733366643,50.9404454400065 -1.39155703821432,50.9403728345142 -1.39175762462546,50.9403792748842 -1.39198100051025,50.9404919170466 -1.39247388058445,50.9407885504497 -1.39298670452159,50.9410861847422 -1.39254719935079,50.9412763730093 -1.39244005043435,50.9413126737018 -1.39237843247667,50.9413402216516 -1.3922695712759,50.941390897867 -1.39211067199267,50.9414628891259 -1.39201763974923,50.9415055560746 -1.39188011977392,50.9415669599809 -1.39180434918731,50.9415998285013 -1.39172848385792,50.9416308979553 -1.39169974616749,50.9416478286277 -1.39163676454993,50.9416807637604 -1.39158374734826,50.9417056592905 -1.39152922710244,50.9417377392547 -1.39150892654112,50.9417646030974 -1.39148245235668,50.9418327890983 -1.39141895066969,50.9420042581717 -1.39139807340657,50.9420841601797 -1.39135498054619,50.9422206743932 -1.39132044208174,50.94235804158 -1.3913229649379,50.9423805299955 -1.39135070443788,50.9424400089694 -1.39099642012947,50.9427529008282 -1.39086118170306,50.9428637604751 -1.3908494690597,50.9428888714261 -1.39082531823363,50.9428869476427 -1.39079086378407,50.9429101412614 -1.39073410270858,50.9428981579111 -1.39044963406478,50.9428795898266 -1.39038133676264,50.9428792328078 -1.39037711346461,50.9428702208089 -1.39029463969681,50.9428679920028 -1.39000700288144,50.9428763769344 -1.38954567614907,50.9428847504066 -1.38953729687275,50.942879312768 -1.38947315314597,50.9428843707356 -1.38945400596776,50.9435838756737 -1.38944634996353,50.9438365461897 -1.38943170643316,50.9442015554777 -1.38941855813105,50.9444434087697 -1.38981986827678,50.944556086852 -1.39003085518761,50.9446389999781 -1.3902358092742,50.9447525369971 -1.39035570644029,50.9448367708486 -1.39048404262602,50.9449219479355 -1.39052766295162,50.9449608333489 -1.39065900271018,50.9450407220844 -1.39082276914169,50.9451449629785 -1.39173989605699,50.9457702416852 -1.39191054449705,50.9458871029167 -1.39188051180661,50.9459040277938 -1.39127667405694,50.9462534673436 -1.39083168987943,50.9465352288188 -1.39107642003271,50.9473054252632 -1.39128794594304,50.9481113165273 -1.3913590091419,50.9481161827424 -1.39186460546287,50.9484245710183 -1.39200886861038,50.9484955345824 -1.39215458810416,50.9485628203804 -1.3925047803827,50.9486743229224 -1.39287088856687,50.9488705033341 -1.3928613994109,50.9493820763494 -1.39338133205629,50.9493578114608 -1.39414358913001,50.9493105293098 -1.39472042022953,50.9492883515892 -1.39512789036833,50.9492652929965 -1.39551524389624,50.9492547147847 -1.39595179026745,50.9492884411414 -1.39681502453559,50.9493558379573 -1.39810496238172,50.9494560873629 -1.39841188443536,50.9496024089083 -1.39872685332843,50.9497983076439 -1.39911226258198,50.949938739671 -1.39957737629875,50.9500787713026 -1.39982435916022,50.9502499534243 -1.40009612716227,50.9504743933066 -1.4001287230004,50.9504862476724 -1.40020834823073,50.9505010407009 -1.40029510734642,50.9504996890985 -1.40032514088779,50.9504917528572 -1.40034666421392,50.9504792774755 -1.40036107501705,50.9504631693999 -1.40037143310805,50.9504335552205 -1.40014811897725,50.9497552802852 -1.40048360623988,50.9499080370414 -1.40074110890184,50.9500280279432 -1.40093741757096,50.9501513900944 -1.40115082738466,50.9502684567516 -1.4013571372146,50.9503900718834 -1.40160421959683,50.9505540580353 -1.40206664162161,50.9509044302313 -1.40255978662713,50.9513035040806 -1.40298229337888,50.9516555556391 -1.40320924956799,50.9518338193164 -1.40344327173594,50.9520104100582 -1.40391873948512,50.9523527505788 -1.40376521845574,50.952993131695 -1.40363367752611,50.9534843009087 -1.40349395554649,50.9539449524087 -1.40340521960171,50.9542008036461 -1.40338920488939,50.9542321867226 -1.4030626764136,50.9547142679267 -1.40286433781764,50.954966860464 -1.40253194138616,50.9552466363215 -1.40260297027148,50.9552550904412 -1.40307638150839,50.9553114522386 -1.40345451042971,50.9553556376036 -1.40393076166345,50.9554103027409 -1.40425412739584,50.95528510463 -1.40452043965659,50.9552792712147 -1.40468706166764,50.9552756265985 -1.40495274647451,50.9554290010893 -1.4053403155258,50.9556350483421 -1.40538409451602,50.9556631410366 -1.40553507575032,50.9557628891083 -1.40562402076312,50.9558208780994 -1.40587947404036,50.956003775665 -1.40602048236686,50.9561124630632 -1.40609286535939,50.9561254172966 -1.40613979538219,50.9561274536544 -1.40619534040209,50.9561259385978 -1.40624955768189,50.9561181228831 -1.40636132413877,50.9560620544838 -1.40642752371221,50.9560074628774 -1.40651918825581,50.9558524020599 -1.40649220465601,50.955630123062 -1.40647005051169,50.9554618975826 -1.40648117065424,50.9549304679924 -1.40649528460691,50.954716488498 -1.40711628606126,50.9546962699916 -1.40713734026445,50.9546100737224 -1.40717031488316,50.9543620282026 -1.40729490296128,50.9536396876022 -1.40736599974266,50.9535320787578 -1.40742101472345,50.9534613376807 -1.40757108526146,50.9533002795947 -1.40810092797102,50.9528407034375 -1.40883897334353,50.952225754464 -1.40900927657628,50.9520513127659 -1.40901501226702,50.9520432512211 -1.40905257809452,50.9519966937145 -1.40906998977466,50.9519751161471 -1.40924702055955,50.9517144040783 -1.40926595017211,50.9516749435086 -1.40928999823738,50.9515742876317 -1.40929363254615,50.9511768600355 -1.40931785108556,50.9508406678903 -1.40932822846409,50.950587113671 -1.40954435319628,50.9500477289579 -1.40961057299245,50.9497593953435 -1.40968166577009,50.9497714417185 -1.41032251195344,50.9498655703567 -1.41084801230688,50.9499572256754 -1.41192620113119,50.9503673031051 -1.41194201571067,50.9503512006738 -1.41215144106349,50.9501167180056 -1.41228033585241,50.9500597410414 -1.41251528991235,50.9500528334345 -1.41270844353044,50.950084371344 -1.41280082585925,50.9499814513943 -1.41426673759314,50.9493368644203 -1.41430027996298,50.9493855782256 -1.41468472759977,50.9499414705311 -1.41488240761726,50.9503039493273 -1.41498146035653,50.9504636583119 -1.41512761478511,50.9508357663908 -1.41515612363951,50.9508368085125 -1.41636604479669,50.9508464606923 -1.41637916440063,50.9509328302581 -1.41639356368575,50.9510389834787 -1.41646435537989,50.9514126000419 -1.41650291691183,50.9513984092985 -1.41718377525857,50.9511401136415 -1.41719149036248,50.9513208506092 -1.41720517063722,50.9514846259878 -1.41719877838776,50.9515358361547 -1.41717357652689,50.9517299838434 -1.41719354160539,50.9517291842904 -1.41748991900582,50.9517108857513 -1.41761889390496,50.9516377223889 -1.41772271215429,50.9516427348545 -1.41772566854618,50.9516409519993 -1.41780248094378,50.951646728909 -1.41850101719232,50.9516834724979 -1.41914189442648,50.951665985253 -1.41957621289505,50.9516555586598 -1.42037683807958,50.9517234538169 -1.42074266737979,50.9517270664907 -1.42103802788317,50.9516771981693 -1.42117941172294,50.951634747457 -1.42126394105626,50.9515956109549 -1.42141888370286,50.9515010848845 -1.42153093344203,50.9514198313454 -1.42161996877808,50.9513581519551 -1.42170788365086,50.9512731826011 -1.42173948416931,50.951242773477 -1.4219496352567,50.9509461567167 -1.42221023628823,50.9504807771982 -1.42265099579359,50.949723035216 -1.4228878703923,50.9493339514435 -1.42305838091093,50.9490146614054 -1.42313878238351,50.948844159916 -1.42319340611323,50.9486889028941 -1.42332873001337,50.9483388730655 -1.42357030212521,50.9475693558804 -1.42366272212772,50.9472334974688 -1.42370392680759,50.9472328016087 -1.42378364849339,50.9472304982258 -1.42377545680036,50.9467449101599 -1.42377610608635,50.9461235270758 -1.42377512539882,50.9456243984679 -1.42380817899482,50.9453718541348 -1.42385856490883,50.9449800505131 -1.42394078758604,50.9443105236507 -1.42403001207043,50.9437767799879 -1.42407606520183,50.9435072183765 -1.4240544880219,50.9434109195665 -1.42405034714642,50.9433947170506 -1.42407471387638,50.9432653815435 -1.42432438721859,50.9431091988949 -1.42464143472776,50.9427906296838 -1.4247653962052,50.9426644819021 -1.42515432012967,50.9424073978697 -1.42528294567364,50.9423594851709 -1.42541319903066,50.9423033998381 -1.4254820277357,50.9422605871155 -1.42553400772192,50.9422042061588 -1.42568959662402,50.942053939837 -1.42583391484844,50.9418945380501 -1.42593331475231,50.9417898435899 -1.4260759563127,50.9416520100502 -1.42638474402353,50.9413163129324 -1.426566650251,50.9411059416252 -1.4266663639662,50.9409849769168 -1.4267311147441,50.9409205664527 -1.42680012499814,50.9408723599205 -1.42691179681816,50.9408189682244 -1.4269989963898,50.9407897290246 -1.42698206296957,50.940773464628 -1.4269597757116,50.9407346079609 -1.42694307474509,50.9406994647809 -1.42693944828616,50.9406509014347 -1.42694420358915,50.9406077720997 -1.42698754757993,50.9405567425368 -1.4271571386893,50.9404217359961 -1.42746477063697,50.9401787177812 -1.4279177404914,50.9397968861354 -1.4281132111519,50.9396468121338 -1.42831040165099,50.9394615951423 -1.42853210079971,50.9392586080166 -1.42861122812024,50.939188784152 -1.42870443941517,50.9391379972373 -1.42878674564562,50.9390386113269 -1.42886500551076,50.9389248210237 -1.42903883132964,50.9387880348891 -1.42916078137204,50.9385944475889 -1.42930699169773,50.9383936966275 -1.42944619359083,50.9381902143395 -1.42960842492282,50.9379554693535 -1.42974148936571,50.9377834217485 -1.42986566671347,50.9376374908833 -1.43007892762206,50.9374226829324 -1.43047545985214,50.9369983132447 -1.43073073234211,50.9367253635083 -1.43100747716478,50.9364425388656 -1.43118322370711,50.9362626071399 -1.43130829479442,50.9361580341898 -1.43159107119527,50.9359669358203 -1.43166125020439,50.9359277211236 -1.43179876824643,50.9358510771898 -1.43180314292697,50.935848401619 -1.4315781761682,50.9355046965965 -1.4314317562418,50.9352629612971 -1.43143925624845,50.9351100771883 -1.43151978617791,50.9348092144828 -1.43160006152414,50.9345291170438 -1.43171353977028,50.9344414786683 -1.43142495868204,50.9343016264745 -1.43129377456012,50.934090530967 -1.43155994629441,50.9338553007031 -1.43143686217126,50.9337881748042 -1.4314280960294,50.9336892425711 -1.43146572749488,50.9334133423042 -1.4314846274739,50.9332588071218 -1.43150751867771,50.9331329686953 -1.4315393138263,50.9329793946901 -1.43154089677858,50.9329650178835 -1.43154888963627,50.9328966431321 -1.43155818156367,50.9328274653773 -1.43159063485799,50.9326199544066 -1.43161683536338,50.932453677181 -1.43172112542311,50.9323013555341 -1.4319198292206,50.9321134432318 -1.43216858315981,50.931900602196 -1.43174087913434,50.9317402953466 -1.43122473739795,50.9315875573751 -1.43100535768657,50.931489395684 -1.43089042640069,50.9313413091785 -1.43064601220886,50.9309687393947 -1.4305454502245,50.9308163180857 -1.4304643744777,50.9306917698865 -1.43020178204158,50.9304054148185 -1.42977898965961,50.9299510618903 -1.42956530777304,50.9297431573339 -1.42948095827256,50.9296564403681 -1.42922372916611,50.9294024735133 -1.42910297728581,50.9292706278349 -1.42890484791986,50.9290672935139 -1.42879508079129,50.9289678655773 -1.42854911777405,50.9290583592345 -1.4282903290567,50.9291614654662 -1.42787145198675,50.9293266262804 -1.42751537808108,50.929469708581 -1.42719791815211,50.9295922119365 -1.42702486826073,50.9296587876116 -1.42691172590941,50.9297193634333 -1.42663816950459,50.9298682421671 -1.42641197251221,50.9299822029212 -1.42611396239874,50.93014444548 -1.42597338490514,50.9302318559909 -1.42577262670519,50.9303567281873 -1.42574539903782,50.9303763715527 -1.42551705000991,50.9305407539968 -1.42519108542433,50.9307810695504 -1.42488088744712,50.9310078867254 -1.42459392966868,50.9312052411057 -1.42448201146584,50.9312802051675 -1.42438310186638,50.9313373425641 -1.4242612652831,50.9314077629862 -1.42420965123884,50.9314353771739 -1.42400908343969,50.9315440651529 -1.42357944083297,50.9317703790541 -1.42314691568906,50.9319921826428 -1.42222022797289,50.9324758439311 -1.42180489926326,50.9326914347432 -1.42118898968562,50.9330058180593 -1.421167491287,50.9330173981631 -1.421124634908,50.933038761438 -1.42102841042775,50.9331057094583 -1.42088051709828,50.933213844162 -1.42067097784327,50.9333539469755 -1.4205474548109,50.9334459310888 -1.42032947194531,50.9335761921408 -1.42001153417717,50.9337427257208 -1.41951043377202,50.9339848518436 -1.41926405183206,50.934114879894 -1.41905225830523,50.9342092099872 -1.41899920693731,50.9342386123969 -1.4188694928152,50.9341399749465 -1.41860586344421,50.9339407911179 -1.41851563635215,50.9338747143958 -1.41844756555063,50.9338572946013 -1.41835492640342,50.9338622265582 -1.41782991233923,50.9339701855078 -1.41739650439081,50.9340336492015 -1.4171130310603,50.9340610015728 -1.41655925231532,50.9340762134552 -1.41656081778727,50.9339512601252 -1.41612833253664,50.9339410050961 -1.41568316640041,50.9339127060539 -1.41533051647423,50.9338893634634 -1.41501467082382,50.9338877802888 -1.4148706961292,50.9339068357576 -1.41465195221127,50.933983951671 -1.41420716280083,50.9341589131184 -1.41395124458444,50.9342529225125 -1.41368034302045,50.9342974102433 -1.41319308852894,50.9344523760983 -1.4130073705675,50.9345062805641 -1.41297604752724,50.9345151137739 -1.41279204247818,50.9345447536914 -1.4127336051418,50.9345543487311 -1.41256647926616,50.9346038515741 -1.41247218089195,50.934628548847 -1.41202646930041,50.9347639406978 -1.4116277106388,50.934897680086 -1.41133660652295,50.9349618388245 -1.41089049433374,50.935017122743 -1.41032492154714,50.9350638014515 -1.40978240796378,50.9350871287833 -1.40903777088274,50.9351157239344 -1.40882552687065,50.9351326285285 -1.40825976017791,50.93530506675 -1.40775813252476,50.9354716238205 -1.4073381844807,50.9355908564475 -1.40711096976876,50.9356590152347 -1.40714737089313,50.9357122412475 -1.40654471294162,50.9358781897827</coordinates></LinearRing></outerBoundaryIs></Polygon>
  </Placemark>
