  <Placemark>
	<Style><LineStyle><color>ff0000ff</color></LineStyle><PolyStyle><fill>0</fill></PolyStyle></Style>
	<ExtendedData><SchemaData schemaUrl="#Wards__December_2019__Boundaries_EW_BFE">
		<SimpleData name="objectid">2633</SimpleData>
		<SimpleData name="wd19cd">E05007041</SimpleData>
		<SimpleData name="wd19nm">Biddulph East</SimpleData>
		<SimpleData name="wd19nmw"></SimpleData>
		<SimpleData name="bng_e">388786</SimpleData>
		<SimpleData name="bng_n">357354</SimpleData>
		<SimpleData name="long">-2.16898</SimpleData>
		<SimpleData name="lat">53.113258</SimpleData>
		<SimpleData name="st_areashape">1439609.30672137</SimpleData>
		<SimpleData name="st_lengthshape">6409.95361968798</SimpleData>
	</SchemaData></ExtendedData>
      <Polygon><outerBoundaryIs><LinearRing><coordinates>-2.18043553684225,53.1078454620248 -2.18030986324242,53.1078043152739 -2.17968089426262,53.1077792092228 -2.1795990457384,53.107851224975 -2.17855472067085,53.1078132624417 -2.17739681205238,53.1077673725118 -2.17735653007508,53.1077656358814 -2.17726560181626,53.1078169941032 -2.17722076015342,53.1078143653407 -2.17721028085483,53.1078116851963 -2.17714436211531,53.1077452837611 -2.17713999038797,53.1077902228715 -2.17711858486496,53.108036573211 -2.17601300166329,53.1079878057873 -2.17567535377796,53.107973029792 -2.17544530001754,53.1079760663016 -2.17509578904924,53.1079819755765 -2.17451812171643,53.1080646939681 -2.17446833406672,53.1079658260792 -2.17250144480108,53.1076909346968 -2.17242687432874,53.1077073079061 -2.17242723257313,53.1077971722141 -2.1721881441973,53.1077894314944 -2.17020582498088,53.1073742468347 -2.16992629029918,53.1073216283218 -2.1691563600023,53.1071501910741 -2.168557743774,53.1072615771883 -2.16815574752301,53.107197446706 -2.16678298311502,53.1071904082042 -2.16669132674432,53.1070556518292 -2.16652069652769,53.106977710196 -2.16624105937101,53.1068963281158 -2.166236636371,53.1068990310396 -2.16602962586079,53.1070646720286 -2.16597275781144,53.1070404889732 -2.16583805189299,53.1069840639643 -2.1653488197204,53.1067789612288 -2.16447499538628,53.1063863982688 -2.16389146845607,53.1061247163131 -2.1638750628589,53.1061175505987 -2.16370230664486,53.106256270205 -2.16354999873391,53.1062663665593 -2.16335564622906,53.106230690558 -2.16338679844462,53.1061641477857 -2.1631833742129,53.1061068259753 -2.16322046761471,53.1060151130442 -2.16312017641011,53.1059712182229 -2.16309906308687,53.1059245181286 -2.16279124083114,53.1058773158171 -2.1620947584892,53.1057694482299 -2.16206359488492,53.1058333848051 -2.16130626245189,53.1058208525107 -2.16072229364022,53.1058306355219 -2.16071776014407,53.1058370220884 -2.16055920780555,53.1061545487355 -2.16050631670377,53.1064044438947 -2.15956242614842,53.1064344799266 -2.15874240001963,53.1064562553938 -2.1587408731807,53.1064427775331 -2.15863897714093,53.1059279019658 -2.15861509220477,53.1059297318757 -2.15810130491975,53.1059690624523 -2.15809830282714,53.1059564854561 -2.15807398014796,53.1058387961643 -2.15806056297882,53.1058406110405 -2.15806055639873,53.1058388141461 -2.15793661104397,53.1058587505362 -2.15748129863366,53.1059249599982 -2.15776934435629,53.1062571632295 -2.15793886094184,53.1064735994399 -2.15807732455901,53.1067519932801 -2.15824559777483,53.1070313357177 -2.15832364350625,53.1071220837899 -2.15841810393694,53.1072217061791 -2.15848894337081,53.1073959483064 -2.15853301585643,53.1075918826724 -2.15841322478806,53.1079057599558 -2.15840472558844,53.1080397596988 -2.15849717117465,53.1083955875065 -2.1585286861962,53.1084584501952 -2.15854468886757,53.1087245176634 -2.1585409881001,53.1089581695255 -2.15817468029664,53.1088526216997 -2.15809542338351,53.1088356533712 -2.15801913915349,53.1088231746133 -2.1578728871769,53.1088413440449 -2.15788614066487,53.109199076176 -2.15795697524457,53.1093716107048 -2.15795928642878,53.1095998627528 -2.15801692037324,53.1098335231054 -2.15800102624958,53.1100007812541 -2.15806262703878,53.1100725910263 -2.15810986092623,53.1103251359068 -2.15813993040509,53.1103969869955 -2.15817601867656,53.1104643373079 -2.15825716912233,53.1105937232634 -2.15832194983217,53.1107266350484 -2.15832469124463,53.1110718002501 -2.1583638367088,53.111569776474 -2.15844535036318,53.1117979223008 -2.15848042441597,53.1119911730505 -2.15830145953788,53.1129011101272 -2.1582422187381,53.1130377827453 -2.15823943689931,53.1130855045918 -2.15825148409105,53.1131124482837 -2.15834463275908,53.1132543084659 -2.15862269326552,53.1137043361418 -2.15859614216526,53.1138202966508 -2.15813588639255,53.1141741689788 -2.15799832691755,53.1145536705779 -2.15910586400235,53.1146924644771 -2.15869384236118,53.115603612743 -2.15853844574229,53.1155867463093 -2.15787889388093,53.1166258296668 -2.15955562690415,53.116735014766 -2.15993077809481,53.1163812525802 -2.16029996614179,53.1160158140234 -2.16035215358969,53.115970810893 -2.16053248087832,53.1158671327021 -2.16108858696534,53.1155499649853 -2.1612391946447,53.115471577982 -2.1617492890725,53.1152389420256 -2.16213863566375,53.1150658695327 -2.16222507079171,53.1150226163575 -2.16228318694556,53.1149829957546 -2.16230700736381,53.1149622946186 -2.16245221795563,53.1150223048517 -2.162543550266,53.1151021584886 -2.16256590170312,53.1150841551269 -2.16262558196923,53.1150346478611 -2.1632382360293,53.1150850268584 -2.16362681263814,53.1151006661965 -2.16416836055016,53.1153048981211 -2.16456052318754,53.1154849814214 -2.16491523143434,53.1156625106752 -2.1650110972474,53.1157342688594 -2.16529171754858,53.1160574806817 -2.16609449206963,53.11576330829 -2.16619191390049,53.1158548339502 -2.16622036484401,53.1158854377253 -2.16624290900882,53.1159177577058 -2.16623865821367,53.1159653921932 -2.16628513078571,53.1160057660402 -2.16633171580499,53.1160748966098 -2.16627710128695,53.1162556910903 -2.16617410962491,53.1162854913872 -2.16622977403605,53.1163770747145 -2.16622085056777,53.1163950608525 -2.16612415746674,53.1164931493057 -2.16611669459424,53.1165067287481 -2.16612276519181,53.1165157065967 -2.16613770602377,53.1165246720087 -2.16626484857637,53.1165604400176 -2.16636222067401,53.1166384856818 -2.16645939815633,53.116633856487 -2.16656706078771,53.1166651579237 -2.16663607392761,53.1167360537957 -2.1666421421569,53.1167764843443 -2.16652272734412,53.1167964227288 -2.16653190781147,53.1168450262527 -2.16667134846106,53.1169706411145 -2.1667192079677,53.1169867496434 -2.16682957278447,53.1169515468829 -2.16698550406613,53.1170726456841 -2.16703912071307,53.1170483059101 -2.16722332438,53.1171532786543 -2.16721155593915,53.1172000249949 -2.16723324093926,53.1173914069944 -2.16722281218117,53.1174022059074 -2.16720793700344,53.1174103143675 -2.16710179138646,53.1173897954573 -2.16704035003881,53.1173656178317 -2.16703894400245,53.1173844914888 -2.16702880101137,53.1174690687585 -2.16707525171413,53.1175031519137 -2.16712627839425,53.1175417222409 -2.16712226131606,53.1176810190979 -2.16710606857437,53.1177304674844 -2.16708237473194,53.1177836110649 -2.16711416444845,53.1178806204513 -2.16725505128345,53.1179963476282 -2.16727003124829,53.1180151981667 -2.16730495512274,53.1181581246942 -2.16737387437879,53.1182038582335 -2.16740234692231,53.1182397644626 -2.1674234365686,53.1182774780288 -2.16744611213519,53.1183430474087 -2.16755063940786,53.1183267238753 -2.16761025014079,53.118291592087 -2.16761922579183,53.1182870866544 -2.16763116529031,53.1182843730485 -2.16764458946748,53.1182834560568 -2.16765949132659,53.1182825360749 -2.1676760068618,53.118284309634 -2.16769091920955,53.1182860863574 -2.16772976998115,53.1182977136054 -2.16776124333882,53.118312946014 -2.16777174212594,53.1183201206233 -2.1677792890362,53.1183281974184 -2.16778225989505,53.1183317879472 -2.16775256526665,53.1183939274346 -2.16769167106098,53.1184793846756 -2.16781726619548,53.1184953828082 -2.16782920224372,53.1184917711787 -2.16796795561269,53.1184385543815 -2.16811021716305,53.1185264205721 -2.16818215990793,53.1185892241964 -2.16818223002098,53.1186071968646 -2.16818232117086,53.1186305620524 -2.16821230874393,53.1186439995645 -2.16825414495102,53.1186628119167 -2.16807114144332,53.1188366001344 -2.16803088801774,53.1188761983557 -2.16780831725626,53.1188863988762 -2.16773810053821,53.1188873962476 -2.16769038881215,53.118909930146 -2.16772491740949,53.1189503204758 -2.1679223289979,53.1189958727627 -2.16800766896779,53.1190506589607 -2.16802734338722,53.1191045502766 -2.16805597971568,53.1191817933025 -2.16809677652778,53.1192814863869 -2.16814958243384,53.1194279811921 -2.16832434926925,53.1194160511668 -2.16854997910129,53.1193995549978 -2.16914733467015,53.1193322045704 -2.16920703334295,53.1193194484397 -2.16939057738083,53.1192526862237 -2.16943669433991,53.1192004989915 -2.16948903798787,53.1192282822872 -2.16958183560539,53.1192676899546 -2.16964769811343,53.1192873663821 -2.16974487051216,53.1193114907256 -2.16987652130677,53.1193311627785 -2.16987060884432,53.1193626240346 -2.1696350166062,53.1194770900553 -2.16926086717296,53.1196951870901 -2.16938671323564,53.1198055417065 -2.16943927344147,53.1198566900266 -2.16948123501946,53.1199069545551 -2.16948891883316,53.1199500785736 -2.16948317834211,53.1199942105664 -2.16950553757431,53.1200094555651 -2.16958342943049,53.1200488854215 -2.16976468228156,53.1201501731497 -2.16992198918896,53.1202713562665 -2.17018556451151,53.1204102687727 -2.17021696035916,53.1204362848732 -2.17055170137209,53.12006547032 -2.17079460175598,53.1198987807082 -2.17136703531732,53.1195428983667 -2.17215998346866,53.1190644770378 -2.17398427683547,53.1179435346474 -2.17422079884297,53.1176681108419 -2.17449563972711,53.1173036634331 -2.17469155246558,53.1169797707902 -2.17508238536124,53.116089260828 -2.17530252206727,53.1154839645176 -2.17554982256566,53.11492634515 -2.17566130598913,53.1147760157544 -2.17642021260809,53.1136881510233 -2.17653753662305,53.1135216362074 -2.17677803949396,53.1131455523521 -2.1771563583149,53.1124959814679 -2.17722900338488,53.1123690738171 -2.17739214906102,53.1120847658577 -2.17744421966055,53.112017289607 -2.17756158731667,53.1118634446477 -2.17761210944253,53.1114201540018 -2.17767059275186,53.1111153336593 -2.17767495621105,53.1110982523513 -2.17770875831372,53.1109616071316 -2.1777870268099,53.1107358376613 -2.17785805877336,53.1105775690559 -2.17798281822562,53.1103957645589 -2.1783100415186,53.1100590874147 -2.1785525762682,53.1098249828228 -2.17891299026237,53.1095637407668 -2.17914812117057,53.1093575949672 -2.17975012742841,53.1086411775025 -2.18035815300475,53.1079246600873 -2.18043553684225,53.1078454620248</coordinates></LinearRing></outerBoundaryIs></Polygon>
  </Placemark>
