  <Placemark>
	<Style><LineStyle><color>ff0000ff</color></LineStyle><PolyStyle><fill>0</fill></PolyStyle></Style>
	<ExtendedData><SchemaData schemaUrl="#Wards__December_2019__Boundaries_EW_BFE">
		<SimpleData name="objectid">6488</SimpleData>
		<SimpleData name="wd19cd">E05012261</SimpleData>
		<SimpleData name="wd19nm">Goodrington with Roselands</SimpleData>
		<SimpleData name="wd19nmw"></SimpleData>
		<SimpleData name="bng_e">288316</SimpleData>
		<SimpleData name="bng_n">59193</SimpleData>
		<SimpleData name="long">-3.57353</SimpleData>
		<SimpleData name="lat">50.421928</SimpleData>
		<SimpleData name="st_areashape">3406299.63886758</SimpleData>
		<SimpleData name="st_lengthshape">9733.9994428707</SimpleData>
	</SchemaData></ExtendedData>
      <Polygon><outerBoundaryIs><LinearRing><coordinates>-3.55764935684824,50.4281593046495 -3.5576910554433,50.4281385095832 -3.55775602931797,50.4281061602044 -3.55780879139877,50.4281050037179 -3.55781161042119,50.4281265515839 -3.55787085323847,50.4281298052606 -3.55789414880211,50.4281317416834 -3.55795573870847,50.4281421590846 -3.55802883847212,50.4281600671597 -3.55805228156688,50.4281664985819 -3.55807575417037,50.4281738290057 -3.55809283454635,50.4281794462675 -3.55810924073742,50.4281859719614 -3.55812495799241,50.4281929565847 -3.55813712728652,50.4281990893426 -3.55814932608772,50.4282061211055 -3.55815942856713,50.4282136306564 -3.55817252284705,50.4282264965282 -3.55818281711487,50.428239849617 -3.55820063515209,50.4282679420172 -3.55820595932461,50.4282800125974 -3.55821059455885,50.4282925421095 -3.55821734087672,50.4283050433344 -3.55822033268456,50.4283103996551 -3.55822404293972,50.4283161960497 -3.55822773844295,50.4283215429412 -3.55823353027624,50.4283264120423 -3.55823999629893,50.4283303727078 -3.55824643281667,50.4283334343668 -3.55825424721742,50.428335578161 -3.55826276531302,50.4283377125253 -3.55827760190402,50.4283393125219 -3.55829308317648,50.4283391050749 -3.55831414974148,50.4283374736801 -3.55833515728984,50.4283340442691 -3.55835541687924,50.4283292757749 -3.55838193593931,50.4283221748918 -3.55840698858634,50.4283132948505 -3.55846251683256,50.4282891662638 -3.55847359886727,50.4282836213382 -3.55848536983764,50.4282776174777 -3.5584957334188,50.4282716324774 -3.55850218877775,50.4282666891952 -3.55847263979187,50.4282544036373 -3.55861369012235,50.4281333425246 -3.55862683890986,50.4281264207792 -3.5586413508063,50.4281181316595 -3.55865583318473,50.4281089435317 -3.55866408563814,50.4281029868101 -3.55868096958011,50.4280811748642 -3.55870122438835,50.4280548207241 -3.55872293082611,50.4280297962249 -3.55874342170869,50.4280106341264 -3.55876608267299,50.427993241739 -3.55878258751325,50.4279813282776 -3.55880341778331,50.4279725047396 -3.5588395373414,50.4279576301341 -3.55886866426894,50.4279441983573 -3.55887628677368,50.4279404985679 -3.55888317607188,50.4279359092049 -3.55889002109299,50.427929971332 -3.55889544397758,50.427923602822 -3.55891574288546,50.427898597149 -3.55892864741164,50.4279013921816 -3.55894297112216,50.4279045279483 -3.55895757630961,50.4279076599398 -3.55903629089532,50.4277535264271 -3.55903714122205,50.4277536949074 -3.55904948867236,50.4277566772745 -3.55906467448326,50.4277603411082 -3.55909110971507,50.427707821362 -3.55908464370778,50.4277038607437 -3.55907386703125,50.4276972597125 -3.55907905370435,50.4276836991414 -3.5591032151493,50.427690570419 -3.55917414220736,50.4277047932644 -3.55933729182819,50.427687609004 -3.55933969139277,50.4276878340563 -3.56020709150315,50.4276483260638 -3.56058676284024,50.4276324421732 -3.56068225976907,50.4276275638301 -3.56086617180325,50.4276107094345 -3.56095879347117,50.4275995754298 -3.56104732946364,50.4275947902227 -3.56110787289756,50.42759667477 -3.56116290791314,50.4276004320449 -3.56132836336811,50.4276224873581 -3.561482800705,50.427651883824 -3.56162204006198,50.4276886767209 -3.5618328743593,50.4277632623184 -3.5621061149772,50.4278504058859 -3.56260064595103,50.4280334821231 -3.5630080398756,50.4281755572067 -3.56351326837355,50.4283378051001 -3.56397173517282,50.428493576309 -3.56448440816884,50.4293114695877 -3.564484437759,50.4293123676959 -3.56469122312068,50.429690015478 -3.56487182646809,50.4301291577825 -3.5650276975753,50.4304589357693 -3.5651031766799,50.4306531253298 -3.56516090920834,50.430823186973 -3.56521630625173,50.4310527127693 -3.56527451989797,50.4313676208201 -3.56532390517205,50.4317527806371 -3.56533943323913,50.4319702557609 -3.56538443050372,50.431968750781 -3.56544912548505,50.4319660821718 -3.56546746081051,50.4319658353994 -3.56546885422205,50.4319658166456 -3.56549977934556,50.4319636016101 -3.56553206826572,50.4319604697038 -3.56565988834309,50.4319497578779 -3.56569220688749,50.4319475249337 -3.56569371740898,50.4319511004263 -3.56574419659459,50.4319468250949 -3.56576247261925,50.4319447802616 -3.56578492749655,50.4319426800706 -3.56581448882564,50.4319413827155 -3.56588327362363,50.4319359605868 -3.56595762610833,50.4319268676321 -3.56602116994577,50.4320617837906 -3.56604413150363,50.432117311585 -3.56612823470854,50.4322771270749 -3.56620893343009,50.4324181961649 -3.56627045651427,50.432403790303 -3.56681014901999,50.4322436667286 -3.56685330959811,50.4322286984237 -3.56689264902514,50.432228168489 -3.56696789096225,50.4322037774958 -3.56708377197408,50.432172543991 -3.56714364033418,50.4321537546433 -3.56725531545076,50.4321216791179 -3.56736666293867,50.4320832230028 -3.56747833960482,50.4320547439604 -3.56756068747778,50.4320311553088 -3.56770838503153,50.4319860057428 -3.56773356260622,50.4319784729305 -3.56790934234691,50.4319293471416 -3.56801393868491,50.431897364721 -3.5681532553166,50.4318550228013 -3.56825654832653,50.4318257541665 -3.56838341976636,50.4317862772635 -3.56837580571765,50.4317701960987 -3.56833169064465,50.4317140551465 -3.56836240963588,50.4317055476068 -3.56842091427539,50.4316876744909 -3.56889895886621,50.4315382547549 -3.56898669599316,50.4315055996556 -3.56900897272547,50.4314981053517 -3.56914193428713,50.4316464686277 -3.56920734006951,50.4316231063473 -3.56941557904442,50.4315303779632 -3.5693090364579,50.4313348133365 -3.56933851014674,50.4313308184882 -3.56918247769013,50.4312115409218 -3.56905680746836,50.4311151406085 -3.56901773042185,50.4310815007201 -3.56901633842009,50.431081519519 -3.56897477997804,50.431102760854 -3.56893772855849,50.4311339229434 -3.56890633063585,50.4311640184262 -3.568875201339,50.4312022031479 -3.5688467932731,50.4312349564624 -3.56882760038122,50.4312514004821 -3.56881110238895,50.431265109884 -3.56879030821592,50.4312752814596 -3.56873271772671,50.431236496811 -3.56860734815555,50.4311491733065 -3.56865852996425,50.4311205187696 -3.56868341245165,50.43110759469 -3.5687969808339,50.4310485152847 -3.56879843223527,50.4310502945029 -3.56886899251665,50.4310142746667 -3.56882120650279,50.4309735588546 -3.56872454987936,50.4309892509368 -3.56861236965299,50.4310024543051 -3.56861020574627,50.4309791052037 -3.5685937619216,50.4309100925748 -3.56857162669182,50.4308339642186 -3.56859268790414,50.4308318810466 -3.56862053381292,50.4308243125146 -3.56865142892008,50.4308211971485 -3.56865113203633,50.4308122097727 -3.56871001850786,50.430805930081 -3.56870791396239,50.4307843789944 -3.56868972388549,50.4307855240129 -3.56868563548962,50.4307496127778 -3.56868172190861,50.4307154979988 -3.56870145047004,50.4307152316156 -3.56869955235248,50.4306999718008 -3.56869590930834,50.4306775420792 -3.56869383447369,50.4306568899994 -3.56869193633144,50.4306416292855 -3.56869288440914,50.4306281298565 -3.56854349701683,50.4306220539871 -3.56855116048034,50.4305131536048 -3.56854345593618,50.4304942855091 -3.56852905738335,50.4304836897069 -3.56863196668451,50.430488594323 -3.56865175454975,50.4304901259608 -3.56875200023105,50.4304987531112 -3.56884385713824,50.4305065041084 -3.56880326125582,50.4303460141267 -3.56880154266888,50.4303361465394 -3.56880145360002,50.4303334504163 -3.56879720986909,50.4302471887971 -3.56879168444885,50.4300799320676 -3.56897599176329,50.4300747457568 -3.56899273019245,50.4300718214718 -3.56902782989991,50.4300659527753 -3.56908390334501,50.4300589013842 -3.56910908215019,50.4300549645745 -3.56912030929836,50.4300539144253 -3.56913014303616,50.430052882196 -3.56920606494436,50.4300491593918 -3.56921729065179,50.4300481083532 -3.56922567302955,50.4300452978018 -3.56923541907905,50.430041569421 -3.56924362522143,50.4300369624311 -3.56925058453851,50.4300332725906 -3.5692575155248,50.4300286828241 -3.56926281894836,50.4300205192058 -3.56926971881658,50.43001503045 -3.5692710514024,50.4300132145314 -3.5694613152273,50.4300196356984 -3.5695388369549,50.4300221851253 -3.56958685267449,50.4300242337402 -3.56990398522369,50.4300334361875 -3.56995185583464,50.4300345872043 -3.56999551943366,50.4300348965459 -3.57000339974928,50.4300590669044 -3.57003847304506,50.4300558955836 -3.57007212323419,50.4300518440757 -3.57011421518952,50.4300467799566 -3.570128196503,50.4300447921776 -3.57019543883264,50.4300348919641 -3.57021232093057,50.4300328658675 -3.57027683729869,50.4300248003694 -3.57034132251033,50.4300158358464 -3.57035254962078,50.4300147855775 -3.57041413404499,50.4300058602237 -3.57039475207287,50.4299287954897 -3.5703835796136,50.4298893841881 -3.57048033238863,50.4298764244329 -3.57048208060978,50.429876193036 -3.57048359294436,50.4298759819168 -3.57051673418219,50.429871362432 -3.57053426188306,50.429869146777 -3.5705187991241,50.4298018101532 -3.5705092475415,50.4297599368497 -3.57050299248776,50.4297325894167 -3.57057119510088,50.4297256413394 -3.57059491847608,50.4297234318528 -3.57063567953294,50.4297189656451 -3.57063591635039,50.429718930964 -3.57060994878988,50.4296254799036 -3.57058700557813,50.4295249950411 -3.57056146400421,50.4294372233835 -3.57056293448704,50.4293517838652 -3.57058656222894,50.429258851307 -3.57071668293307,50.4289773656728 -3.57081509036576,50.4288006105392 -3.57096213697208,50.4286062031775 -3.57118343437345,50.4283612482087 -3.57125164219058,50.4282928896518 -3.57119337497978,50.4282756949632 -3.57120693651651,50.4282610346246 -3.57122988978379,50.4282319511245 -3.57124206238212,50.4282174004083 -3.57124887402224,50.4282092162778 -3.57125420523145,50.4282019506826 -3.57126383182521,50.428194626986 -3.57127487866985,50.4281881834878 -3.57133663134465,50.4281387944035 -3.57138878843519,50.4280976261829 -3.57140451934308,50.428106405687 -3.57145339561014,50.4281345166355 -3.57147490164038,50.4281459153365 -3.57148636617992,50.4281520543154 -3.57154374557004,50.428184546349 -3.57155805486679,50.4281924456562 -3.57157233298323,50.4281994450738 -3.57162251357807,50.4282248418784 -3.57164398993736,50.4282353415416 -3.57165107128899,50.4282388415767 -3.57165826807828,50.4282423409491 -3.57169689792136,50.4282589925359 -3.57173961629969,50.4282763973613 -3.5717496281013,50.4282807580506 -3.57177098550599,50.428287661659 -3.57180525895553,50.4283024833948 -3.57184667117092,50.4283190073458 -3.57192641512012,50.4283467013266 -3.57193216051263,50.4283484215019 -3.57194072091344,50.4283510029948 -3.57195206659837,50.4283535476955 -3.57196187235467,50.4283552129236 -3.57202570683996,50.4283687351553 -3.57211258973333,50.4283981312261 -3.57211528574554,50.4283953974063 -3.57221063847964,50.4284246778805 -3.57231019967854,50.4284548007291 -3.57230750367405,50.4284575345536 -3.57240712308598,50.4284894544582 -3.57242353348705,50.4284766441683 -3.57251189799413,50.4285087172342 -3.57255324967538,50.428523442945 -3.57258882758488,50.4285355494707 -3.57263157264664,50.4285502562922 -3.57269431482636,50.4285728752141 -3.57273115728311,50.4285390172558 -3.57275034782955,50.428522572532 -3.57276948026087,50.4285043306682 -3.5727900046044,50.4284860699552 -3.57281046939184,50.4284660112217 -3.57282261180644,50.4284505613232 -3.57298684174457,50.4285193704103 -3.57300464252257,50.4285065412063 -3.57308316124212,50.4284551252928 -3.57313963958061,50.4284147980417 -3.57317136062011,50.428394586801 -3.573257016377,50.4283448729248 -3.57333979964872,50.4282960963966 -3.57342542528356,50.4282454833795 -3.57348486400381,50.4282104205731 -3.5735056261342,50.4281993490943 -3.57353044774853,50.4281846267736 -3.57357324479776,50.4281588707038 -3.57358698862305,50.4281496922051 -3.57360493571089,50.428137760328 -3.57364770289531,50.4281111052205 -3.57366562016884,50.4280982743249 -3.57368626312693,50.428083608576 -3.57372064984829,50.4280597643074 -3.57373987107384,50.4280442183968 -3.57375627957275,50.428031407926 -3.57378927293441,50.428007583411 -3.57385519995476,50.4279581354347 -3.57389618779233,50.4279198155731 -3.5736682319912,50.4277951344182 -3.57373685474275,50.4277429526445 -3.5738718327292,50.427734829796 -3.57400097822677,50.4277258864091 -3.57414599780445,50.4277230227463 -3.57418313950304,50.4276982424754 -3.57419969294356,50.4276863284818 -3.57420934879186,50.4276799035373 -3.57425517668992,50.4277035603006 -3.57428518629421,50.4277193376177 -3.57432390297199,50.4277385945701 -3.57434822446217,50.4277508531128 -3.57438110497911,50.4277656929838 -3.57446414107678,50.4278086261406 -3.57451716752079,50.4278357810892 -3.57455869799579,50.427855899242 -3.57465041702172,50.4279050986095 -3.57467328575025,50.4279155779578 -3.57474790849589,50.4279568270537 -3.57479382485804,50.427983178862 -3.57487851941146,50.4280305854281 -3.57489564278947,50.4280393447034 -3.57492295460311,50.4280542599324 -3.57494440556536,50.4280674566921 -3.57499470690424,50.4280964463148 -3.57508372658694,50.4281482893672 -3.57513974763122,50.4281816984418 -3.57516993283955,50.4281992719946 -3.57524023561872,50.4282397699099 -3.57517384022033,50.4283170978619 -3.57516427519371,50.4283262189934 -3.57516714988112,50.4283288782516 -3.57524271845543,50.4283566257436 -3.57526970511873,50.4283652521174 -3.57530107657239,50.4283765154631 -3.57531387392266,50.4283808371833 -3.57539942501322,50.4284120468567 -3.57542501978105,50.4284206911737 -3.57543076532991,50.4284224120781 -3.57545496818553,50.4284310752661 -3.57548776146482,50.4284432186942 -3.57549774380465,50.4284466800604 -3.57551913160934,50.4284544820023 -3.57557191940989,50.4284744462434 -3.57557612781778,50.4284752885766 -3.57564876497733,50.4285021770663 -3.57569725944657,50.4285186935758 -3.57571719577089,50.4285247172448 -3.57573280827737,50.4285299001484 -3.57580683507154,50.4285531729416 -3.57582819317458,50.428560076719 -3.57585938843968,50.4285695443857 -3.57593623044073,50.4285936783238 -3.57596896431772,50.4286040245026 -3.57598750737371,50.4286100670295 -3.57601878827872,50.4286186340803 -3.57611263635076,50.4286479318663 -3.57621216906544,50.4286771524476 -3.57625343389886,50.428689180724 -3.5762960906821,50.4287011900987 -3.57635998641924,50.4287165080051 -3.57637275414251,50.4287199315028 -3.57647631663296,50.4287446019148 -3.57652883666671,50.4287564773545 -3.57657143389466,50.4287666886133 -3.57660689360763,50.4287751987995 -3.57664238176569,50.4287846080029 -3.57665091266996,50.4287862910464 -3.57666368040096,50.428789713614 -3.57667081937449,50.4287914155479 -3.57673181465965,50.4288067726245 -3.57677722866467,50.4288179349339 -3.57678860450911,50.4288213772804 -3.57679855717114,50.4288239395297 -3.57685824616487,50.4288384148598 -3.57688096803082,50.4288444005275 -3.57691227908005,50.4288538663533 -3.57691648613474,50.4288547086583 -3.57693775498162,50.4288589152116 -3.57697321482169,50.4288674252889 -3.57704851529399,50.428887084182 -3.5771819678168,50.4289203396512 -3.57721461261142,50.4289279884631 -3.57724864935198,50.4289356183671 -3.57729266869658,50.4289467103773 -3.57731260538306,50.4289527337807 -3.57732676657531,50.4289561382576 -3.57744466491034,50.4289860078747 -3.57752701916698,50.4290082671313 -3.57753697190375,50.429010829319 -3.57755830058318,50.4290168337792 -3.57758952373137,50.429023603281 -3.57759269705035,50.4290352489755 -3.57759737774813,50.4290468750986 -3.57759749712101,50.4290504693361 -3.57759915913135,50.4290585396959 -3.57760852846738,50.4290889835511 -3.57760445337643,50.4291340869595 -3.57760602581585,50.4291394602926 -3.57760771625208,50.4291484287812 -3.5776274647374,50.429232681254 -3.57763283600829,50.4292685749902 -3.57763891006187,50.4292801812906 -3.57765717009775,50.4293230926064 -3.57766194038849,50.4293374148549 -3.57766683546855,50.4293589280251 -3.57767528659771,50.4294001746209 -3.57768134748319,50.4294568291661 -3.5776868382026,50.4294963171371 -3.57768867534446,50.429506183047 -3.57768325796505,50.4295143486498 -3.57768189587322,50.4295152665623 -3.57769831491899,50.4295447161582 -3.57760749933747,50.4295648317753 -3.57762708772579,50.4296023303706 -3.57773689488766,50.4298149285178 -3.5778063938906,50.4299569501473 -3.57781247208473,50.4299721531436 -3.57781851643738,50.4299828613264 -3.57780169301151,50.4299866865709 -3.57780927999185,50.4300018690761 -3.5778136961112,50.4300090017154 -3.57782448502779,50.4300367298356 -3.5778655365927,50.4301261775818 -3.5779173783294,50.4302468593321 -3.57796652614445,50.4303703658409 -3.57796812853189,50.4303766381785 -3.57799871561515,50.430448155192 -3.57815339118968,50.4304001966225 -3.57827749237278,50.4303615556054 -3.57846318104115,50.4303140755935 -3.57872449057888,50.43025387798 -3.57901702352098,50.4302004480039 -3.57935013663473,50.4301419703272 -3.5797519383008,50.4300717682644 -3.58031593297572,50.4299668986478 -3.58061358310926,50.4298999081746 -3.58116972107652,50.4297718525804 -3.58168370009659,50.4296433797649 -3.58221042069672,50.4295211151075 -3.58296738759184,50.4293335781137 -3.58368572157339,50.4291295690458 -3.58415437926829,50.4289549454896 -3.58460463764135,50.4287752678463 -3.58472026479762,50.428740422247 -3.5849832067125,50.4286845967624 -3.58514844903107,50.4286580666933 -3.58560032139392,50.4286141397619 -3.58588719141632,50.4286039327038 -3.58611017786259,50.4286170747991 -3.58640100196766,50.4286418799476 -3.58653234346648,50.4286535752981 -3.5869431992818,50.4286885197412 -3.58719608001229,50.4287138408209 -3.58745452667196,50.4287354885717 -3.5876939788817,50.4287376133554 -3.58786136403424,50.4287335293396 -3.58808336352544,50.4287206060919 -3.58822054985503,50.4287068893837 -3.58862198750873,50.4286731906665 -3.58893900934529,50.4286284032916 -3.58876756086011,50.4283692552173 -3.58864980632478,50.4281900059175 -3.58857832687212,50.4280577186532 -3.58841832664772,50.4277291250943 -3.58827080538985,50.4273837017614 -3.58812815646928,50.4270167946874 -3.58801546896692,50.4267660849813 -3.58794979356605,50.4265977978929 -3.58788659091201,50.4264465695227 -3.58783453579297,50.4263171346653 -3.58777423249863,50.4262046135489 -3.58770629056238,50.4260648903715 -3.58769887514242,50.426051160383 -3.58753401263956,50.4252986247785 -3.58747216368976,50.4250494175257 -3.58746476778488,50.4245332294044 -3.58751262237876,50.4241557445859 -3.58751989680604,50.4239532483282 -3.58752446884459,50.4237949361119 -3.58758088231798,50.4235450126106 -3.58778611268612,50.422986359134 -3.58786203702222,50.4227749225211 -3.58786879934497,50.4226821288012 -3.58781028677546,50.4224041922996 -3.58776410309883,50.4222033253626 -3.58763385095465,50.4218453555164 -3.5875908195157,50.421735258086 -3.58751573562307,50.4215969162867 -3.58746858550944,50.4215337204018 -3.58730507633367,50.421357832128 -3.58713226848359,50.4211155327103 -3.5870335173682,50.4210260669221 -3.58683911822326,50.4208947475781 -3.58675167946538,50.4208068351236 -3.58665732304772,50.4206786463902 -3.58655004419107,50.4205874977032 -3.58628982523316,50.4204246159196 -3.58621913977216,50.4203725306534 -3.58614089482551,50.4203061616014 -3.58592056021198,50.4201175588103 -3.58581509414242,50.4200353768984 -3.58539824613676,50.419735260903 -3.58518423205242,50.4195654525038 -3.58507992475625,50.4194796573615 -3.58475589474597,50.4191746769589 -3.58429529958433,50.4188292996636 -3.58327627452992,50.4179923279589 -3.58276869284713,50.4176296043598 -3.58240024720481,50.4173459065869 -3.5819254166424,50.4170357841232 -3.58161729715272,50.4168277826148 -3.58133328874035,50.4166292518184 -3.58101781104888,50.416370906865 -3.58074031202356,50.4160679864366 -3.58044179884326,50.4157716440051 -3.58036581050527,50.4156854611988 -3.58018848968813,50.4155187446515 -3.57943534899424,50.4148832205588 -3.57938448778878,50.4148335599215 -3.57922252603856,50.4146645668647 -3.5790637094576,50.4144988531553 -3.5787209428475,50.4145637523452 -3.5786256577151,50.4145776346331 -3.57859312362237,50.4146986516535 -3.57857797962649,50.4147528059507 -3.57853531318081,50.4148657778693 -3.57849815718665,50.4149769669786 -3.57846102511927,50.4150853676244 -3.57841439404353,50.4152082840566 -3.57824027716989,50.4152214388829 -3.57823470970099,50.4152215144925 -3.57822627090162,50.4152225284943 -3.57811549388552,50.4152348220345 -3.57796808887995,50.4152485122232 -3.57796112848325,50.4152486067335 -3.57783483675923,50.4152620109736 -3.57777733029066,50.4152672869315 -3.57776474539019,50.4152692565901 -3.57772109587502,50.415268949795 -3.57759717029579,50.4152697327716 -3.57752823149134,50.4152697701069 -3.5775155569588,50.4152690427584 -3.57747184913597,50.4152669387621 -3.5773998611651,50.4152625204143 -3.57734916170601,50.4152596127718 -3.57728984969026,50.4152559217024 -3.57722520627085,50.4152594963568 -3.57710299798768,50.4152665494971 -3.57708052156468,50.4152677539202 -3.57707913004688,50.4152677728041 -3.57698638298789,50.4152708302103 -3.57695680232676,50.4152712316138 -3.57686677997356,50.4152724531523 -3.5768232796876,50.4152766391958 -3.57667033646502,50.4152913023128 -3.57665342890468,50.4152924311004 -3.57664928279609,50.415293386751 -3.576590118618,50.4152941894195 -3.57656903509006,50.4152953748484 -3.57656485912591,50.415295431501 -3.57656068175478,50.4152954881725 -3.57654940015464,50.4152947418213 -3.57653817685339,50.4152957934785 -3.57652698337424,50.4152977432308 -3.57650874396241,50.4153006879666 -3.57642462166848,50.4153118097723 -3.57642047555277,50.4153127654152 -3.5763588252955,50.415322592997 -3.57633919434091,50.4153255565831 -3.57628462124338,50.4153352881294 -3.57622744272004,50.4153504504938 -3.57621627905813,50.4153532992137 -3.57611024394711,50.4153826106876 -3.5760977185903,50.4153863772657 -3.57600568855952,50.4154110026038 -3.57597909966278,50.415417657197 -3.57589684030166,50.4154394535469 -3.57584093762086,50.415454597534 -3.57581310095113,50.415462168413 -3.5757880501061,50.415469700611 -3.57568340737332,50.4154989937434 -3.57565832667891,50.4155056278187 -3.57565130909038,50.4155075208713 -3.5755787048007,50.4155264878982 -3.57549079052514,50.4155492591532 -3.57547411890399,50.4155539812829 -3.5754684630266,50.4155549573623 -3.57535961401125,50.4155834069492 -3.57532476236848,50.4155928707201 -3.57530794410283,50.4155966954143 -3.57525351952116,50.4156109206004 -3.57515873246435,50.4156364820904 -3.57514757006277,50.4156393306979 -3.57512663836186,50.4156450989673 -3.57504008533907,50.4156669529522 -3.57499954783116,50.4156764936969 -3.57499253159214,50.4156783866943 -3.57492830470561,50.4156945433953 -3.57491438758947,50.4156983278183 -3.57483763504743,50.4157182500363 -3.57479022781714,50.4157305820169 -3.57476088384047,50.4157381721891 -3.57467157577668,50.4157609626549 -3.57465064096998,50.4157666409466 -3.57453474339797,50.4157960847282 -3.57450827081231,50.4158027374323 -3.57436450746766,50.4158388526306 -3.57434354280383,50.4158436327724 -3.57431193399766,50.4157829187221 -3.57419168135699,50.4158070265595 -3.57413761840655,50.4157061551942 -3.5740206457442,50.4156996477176 -3.57392884591632,50.4156927982798 -3.57380888270188,50.4156836337815 -3.57381097969569,50.4156593286954 -3.57379931794261,50.4153950477438 -3.57379090330457,50.4153372923073 -3.57364182062189,50.415386421916 -3.57345927315966,50.4154410087436 -3.57331952531888,50.4154721710133 -3.57323039333221,50.4154798030484 -3.57311417279578,50.4154792348947 -3.57305564953768,50.4154664622962 -3.57299629905119,50.4154287154229 -3.57287708469156,50.4153039681574 -3.57268900101711,50.415090200635 -3.57253627596826,50.4149206924428 -3.57247098272965,50.4148608940019 -3.5724123372059,50.4148331314041 -3.57230410371326,50.4148262672804 -3.57218374851279,50.4148469323316 -3.57175661496976,50.4149383791501 -3.57151621671867,50.4149892231451 -3.57140516653266,50.4150097625026 -3.57139143129449,50.4149134114161 -3.57136268891244,50.4149040864701 -3.5713598451942,50.4149032255149 -3.57135698660394,50.4149019150578 -3.57135056593053,50.4148993036554 -3.57132412478371,50.4148659334497 -3.5713061255862,50.4148324490954 -3.57129033892525,50.4147977655947 -3.57128715524107,50.4147908832148 -3.57128164875335,50.4147691021032 -3.57127664169628,50.4147496526938 -3.5712753673187,50.4146898594354 -3.57127790781473,50.414639008657 -3.57129196146948,50.4145745111309 -3.5713085167328,50.4145005360209 -3.57132804947186,50.414431467386 -3.57133777346259,50.4143850165141 -3.57134725948589,50.414331373613 -3.57134360689559,50.4142635178574 -3.5713391306979,50.4141835312568 -3.5713385518744,50.4141745450241 -3.57133823695088,50.4140373898881 -3.57133864985379,50.4140243429205 -3.57134245520086,50.413909617223 -3.57134556974335,50.4138335753173 -3.57129320229404,50.4138291566895 -3.57130926216792,50.4137189422229 -3.5713338818297,50.4135738949639 -3.57133873811177,50.4135419903395 -3.57134692500642,50.4134873756575 -3.5712667520254,50.4134806346891 -3.57117936706449,50.4134771390771 -3.5710759935475,50.4134753885088 -3.57094562070124,50.413478679686 -3.57078223823471,50.413484035765 -3.57066760523707,50.4134865742706 -3.57061514416596,50.4134878228397 -3.57027330791454,50.4134939706091 -3.56999061659765,50.4135009374098 -3.56978911955524,50.4135114838606 -3.56970698762257,50.4135221268325 -3.56964820496753,50.4135322745399 -3.56957131618911,50.4135482430582 -3.56951528363859,50.413561792 -3.56950661949428,50.4135072043127 -3.56948725817191,50.4133770516114 -3.56946665261507,50.4132433180674 -3.56946645251567,50.4132415219534 -3.56945475707047,50.4131601935127 -3.56945111450585,50.4131351492143 -3.56943490271869,50.4130278888576 -3.56941789845098,50.4129179409687 -3.56941754281226,50.4129156972505 -3.56940074577004,50.4128034980344 -3.56939530726924,50.412766695732 -3.56939221288777,50.4126943351581 -3.56938848544623,50.4125815097637 -3.5693879594203,50.4125783689374 -3.56938435259115,50.4125544034374 -3.56937222950096,50.4124729008543 -3.56935897499468,50.4123912336603 -3.56935863718381,50.4123895293455 -3.56934632598547,50.4123065902392 -3.56933217992674,50.4122234960182 -3.5693261906874,50.4121870609011 -3.56931885541179,50.412135443955 -3.56931247604036,50.4120914590726 -3.5693094895918,50.4120649668457 -3.56930737773771,50.4120479065985 -3.56930660709136,50.4120416211442 -3.56930519088506,50.4120200544638 -3.56930270000628,50.4119872596874 -3.56930106886973,50.4119634473873 -3.5692971985469,50.4119059375034 -3.56929630206493,50.4119001034517 -3.56929331009685,50.411894747393 -3.56928898548394,50.4118916578456 -3.56928467572048,50.4118890178017 -3.56927822592506,50.4118855072392 -3.56927039893826,50.4118829146764 -3.56926331994312,50.4118816611279 -3.56925558204911,50.4118817655864 -3.56922951004227,50.4118807684318 -3.56919990596407,50.4118793692469 -3.56919354823381,50.4118786456027 -3.56917305627643,50.4118761340563 -3.56914544375835,50.4118711103394 -3.5691107225644,50.4118639340496 -3.56907320245014,50.4118572452329 -3.56904421275893,50.4118531394885 -3.56904209351759,50.4118528982708 -3.56888993917453,50.411835794499 -3.56888739489934,50.411835469074 -3.56874133662847,50.411823949103 -3.56861206492446,50.411813551542 -3.56850847877732,50.4118052356649 -3.56847319676181,50.411802383908 -3.56846260651874,50.4118013575672 -3.56833694239812,50.4117893820215 -3.56821253564021,50.4117771195512 -3.56812244389522,50.4117682615111 -3.56811171297949,50.411767237035 -3.56796330916303,50.4117528695935 -3.56782648296065,50.4117396052103 -3.56781647019455,50.4117390207918 -3.56769251540692,50.4117319690555 -3.56753741464545,50.4117237184532 -3.56738018874519,50.4117150466082 -3.56722553684578,50.4117075990055 -3.56706076845419,50.4116964201801 -3.56691400555292,50.4116849083624 -3.56691174857497,50.4116847589179 -3.56680662877607,50.4116769125881 -3.56664859593024,50.4116651027077 -3.56648218831728,50.4116511570012 -3.5664723073815,50.4116503008674 -3.56633736570513,50.411638718892 -3.56633327086399,50.4116383243897 -3.56629821681961,50.4116423945835 -3.56629272257685,50.4116465159914 -3.56628794660457,50.4116510774209 -3.56628391854125,50.4116569778821 -3.56628059392931,50.4116628688601 -3.56627073864147,50.411684137833 -3.56626371197602,50.4117058183788 -3.56625943984157,50.4117256629735 -3.5662560786233,50.4117517911537 -3.56625265812573,50.4117761213142 -3.56624723099439,50.4118036264567 -3.56622942410299,50.4118825648076 -3.56622242702901,50.4119051443597 -3.56621614822363,50.4119281639336 -3.56620567830989,50.4119521394114 -3.56619374219776,50.4119743358331 -3.56617894779027,50.4119952216679 -3.56616204299716,50.412016135947 -3.56612536026227,50.4120562044056 -3.5660940384189,50.4120881059107 -3.56607942300129,50.4121016141629 -3.5660605765217,50.4121191368416 -3.56605428546839,50.4121247080309 -3.56601653911783,50.4121581351591 -3.56593790516315,50.4122279098202 -3.56590321946309,50.4122153691309 -3.5658937951005,50.4122119272875 -3.56582347991456,50.4122818856595 -3.56566423812006,50.4124220539497 -3.56553007194696,50.4125321370919 -3.56526040548788,50.4127118672333 -3.5649394046229,50.4129160855668 -3.56479541918111,50.4130108320151 -3.56462367180889,50.4131107126782 -3.56445889787763,50.4131962201722 -3.56425562418899,50.4133000935864 -3.56414369127354,50.4133503843275 -3.56396328189568,50.4134134949313 -3.56389725432771,50.4134441297622 -3.5637756221322,50.4134826515088 -3.5635917238184,50.4135529479724 -3.56349801087642,50.413591093717 -3.56347396588112,50.4135785440309 -3.56346223942525,50.4135729456049 -3.56344092787296,50.4135669365036 -3.56341756505476,50.4135627538146 -3.56334193752957,50.4135529784691 -3.56324652381388,50.4135407710488 -3.56313979528827,50.4135269169507 -3.56297800306671,50.4135079572974 -3.56297306391296,50.4135075740315 -3.56294385699594,50.4135054485565 -3.56291591930417,50.4135033959429 -3.56287426606574,50.4134994591655 -3.56283973636554,50.4134981247844 -3.56282283804392,50.4134979023642 -3.56280173362622,50.4134981862167 -3.56276872918595,50.4135004289314 -3.56274272997561,50.4135016780136 -3.56272867514886,50.4135023167444 -3.56271950032682,50.4135015407301 -3.56270818549014,50.4134998940885 -3.56267992797416,50.4134966764896 -3.56265945310616,50.4134947033301 -3.56261291101598,50.4134919114971 -3.56259175632859,50.4134906669943 -3.56258473630832,50.4134912111033 -3.56257843455369,50.4134921952567 -3.56257145888855,50.41349408788 -3.56256521627372,50.4134968700528 -3.56247583975011,50.4135826162601 -3.56247084145509,50.4135804349527 -3.56245678660076,50.4135810736504 -3.56241611770176,50.4135856678452 -3.56236142350235,50.4135917997221 -3.56230951365171,50.4135969947283 -3.56226103250697,50.4135994453888 -3.56221252179311,50.413600997019 -3.56217311200171,50.4136010771616 -3.56210698466161,50.4136019661832 -3.56207955476155,50.4136025148235 -3.56204987371707,50.4136030937203 -3.56203102334478,50.4136034370708 -3.56202327025822,50.4136030915927 -3.56201265890227,50.4136014354264 -3.56197922573872,50.413590642269 -3.56195507087191,50.4135837717131 -3.56193091601198,50.4135769011521 -3.56184790102641,50.4135522040393 -3.56179431172288,50.4135362853141 -3.56176886699888,50.4135287125316 -3.5617404321958,50.4135201006434 -3.56170488870623,50.4135093357735 -3.5616174591775,50.4134830789 -3.56161461570212,50.4134822177078 -3.56148878463116,50.4134438851318 -3.56147883248394,50.4134408709479 -3.56134180461297,50.4133916259739 -3.56132183392273,50.4133848609589 -3.56132149122968,50.4133847126645 -3.56130853049192,50.4133792385408 -3.5613080166002,50.4133790205942 -3.56129748226405,50.4133745661723 -3.56128462880875,50.41338820301 -3.56127824969691,50.4133949713211 -3.56127114941777,50.4134024958299 -3.56126546421503,50.4134085352905 -3.56115343925103,50.4133512732039 -3.56108160471624,50.4133146880756 -3.56106375612787,50.4133039640972 -3.56101711668092,50.4132712136835 -3.56065812588804,50.4132593574036 -3.5606785795159,50.4134285165884 -3.56076272201168,50.4137224674724 -3.56088401686652,50.4139683253105 -3.56076719564632,50.4139779927875 -3.56074440999552,50.4139651989813 -3.5606732323121,50.4139451988297 -3.56056255980016,50.4139141267227 -3.56056527038473,50.413910942394 -3.56048533333074,50.4138985248495 -3.56043937041246,50.4138919468543 -3.56040895804781,50.41388740853 -3.56040006162705,50.4138865386527 -3.56038071520892,50.4138846398775 -3.56034262355408,50.4138820034735 -3.56030525015425,50.4138798071157 -3.56027701767092,50.4139202098298 -3.56025889455599,50.4139469856871 -3.56024968009864,50.4140135755836 -3.56024558051165,50.4140430412356 -3.5602395526279,50.4140866534671 -3.56021446008401,50.4142655226503 -3.56019568722644,50.4142725202677 -3.56017373131687,50.4142683180355 -3.56000969230676,50.4142367027615 -3.55998603623874,50.4142321635572 -3.55986134483214,50.4142071251309 -3.55977207609248,50.4141891660991 -3.55967870945772,50.4141707223609 -3.55949226074815,50.4141339207851 -3.55930283700341,50.4140965292543 -3.55912503635458,50.4140615897414 -3.55909486113675,50.4140556987821 -3.5590105852451,50.4140397408182 -3.5590063348023,50.4140388984398 -3.55893979372151,50.4140271995092 -3.55888601873916,50.4140184771952 -3.55886267082851,50.4140147430978 -3.55885500050564,50.4140598163186 -3.55883800208078,50.414142340043 -3.55879241932937,50.4143704114032 -3.55879010299864,50.4143813252929 -3.55878659797605,50.4143989107351 -3.55877148586816,50.4144617121387 -3.55876798583431,50.4144751602442 -3.55873218312701,50.4146280898808 -3.55872592986485,50.4146520080292 -3.55871948932894,50.4146916682981 -3.55871549404711,50.4147200531875 -3.55870479718259,50.4148015929383 -3.5586981693375,50.4148569953254 -3.55869155238488,50.4149084401779 -3.55869088222358,50.4149137556639 -3.55868245357344,50.4149786259689 -3.55867591417786,50.4150367253842 -3.55866798250605,50.4150952931768 -3.55866540892619,50.4151241086943 -3.55866003606719,50.4151534114629 -3.55865518971926,50.4151773107319 -3.55864972835415,50.4152039164684 -3.55863785136558,50.4152494957876 -3.55862474432509,50.4153004880404 -3.5586123555159,50.4153519203601 -3.55859863340452,50.4154056190762 -3.55857997635875,50.4154805200231 -3.5585694325217,50.4155238329345 -3.55855945944303,50.4155630908619 -3.55855705834846,50.4155757147511 -3.5585538947463,50.4155865500552 -3.5585432874657,50.4156064792568 -3.55853593227524,50.4156182701853 -3.55852645179259,50.4156296399149 -3.55851345373723,50.4156410568217 -3.55848666560717,50.4156612030349 -3.55839016447998,50.415723207154 -3.55833224893676,50.4157599600808 -3.5582640312418,50.415804496078 -3.55810266693508,50.4159060441832 -3.55803358311777,50.4159456449176 -3.55792805301641,50.4160113673098 -3.5578866674272,50.4160371055149 -3.55785628749978,50.4160550512115 -3.55783218026436,50.4160711139966 -3.55780893869104,50.4160921119027 -3.55775955295146,50.4161314483931 -3.55773343814658,50.4161505106041 -3.55771773435504,50.4161637768873 -3.55770672322546,50.4161730795413 -3.55774700457665,50.4162202440425 -3.55687349864717,50.416240941673 -3.55584002595506,50.4162479576671 -3.55582427231057,50.4162895879865 -3.55578275915099,50.416354451239 -3.55579210587406,50.4164249293899 -3.55580716918214,50.4164980292186 -3.55581228008174,50.416568114376 -3.55582938044257,50.4166389384163 -3.55572380688139,50.4166390027408 -3.55571364612143,50.4167155881834 -3.55561311796072,50.4167407681937 -3.55550179816056,50.4167373116161 -3.55539558271149,50.416760768754 -3.55537241928169,50.4168271850376 -3.55532831169876,50.4168988283623 -3.55526293605596,50.4169658095859 -3.5552057818906,50.4170259352055 -3.55513197818621,50.4170934788426 -3.55501664803701,50.4171395427049 -3.55493571743195,50.4171828976531 -3.55486449183149,50.4172432113675 -3.55483241696676,50.4173169418534 -3.55478159380542,50.4173769824209 -3.55477465494057,50.4174445304623 -3.55478114222113,50.4175136976789 -3.5547905025538,50.4175846252619 -3.55482088095572,50.4176525734319 -3.55476371082634,50.4177122491884 -3.55471444142165,50.4177767659271 -3.55467497740758,50.4178398023601 -3.55463010561243,50.417909656636 -3.55458366475257,50.4179745851638 -3.55464529088757,50.4180295237366 -3.55472549007624,50.4179852795254 -3.55476342932417,50.4179186658675 -3.55480281971128,50.4178533818813 -3.55488328055608,50.417795642999 -3.55489884058022,50.4178624403168 -3.5548735948539,50.4179297836002 -3.55485343577496,50.418002005534 -3.55494135565044,50.4180431011309 -3.55505137719737,50.4180713092899 -3.55516133999402,50.4180977193306 -3.55520850143238,50.4181622949323 -3.55529220056966,50.4182034467707 -3.55535186430995,50.418262908292 -3.55539380989927,50.418340145283 -3.55536922401176,50.4184061307523 -3.55533261873414,50.4184704782622 -3.55522193970345,50.4184652138984 -3.55518194887788,50.418533653968 -3.55518066833034,50.418602025724 -3.55523626123331,50.4186876244747 -3.55523996455676,50.418757728345 -3.55532435357246,50.4187984212686 -3.55537000573988,50.4188598691238 -3.5553932206751,50.4189454514263 -3.55543611769789,50.4190087349419 -3.55546800807095,50.4190798106806 -3.55543987467131,50.4191449442203 -3.55542248606665,50.419215780071 -3.55544124432568,50.4192942267899 -3.55554408602736,50.4193180336856 -3.5556500512864,50.4193512424193 -3.55574537481327,50.4193818953002 -3.55584864062795,50.4193971519322 -3.55597197458578,50.4194233823551 -3.55605403704246,50.4194789461257 -3.55615701196036,50.419506798041 -3.55627358707137,50.4195200773048 -3.55641154922751,50.419541614392 -3.55651385036043,50.4195703744322 -3.55661938955465,50.4195905466831 -3.55673020018561,50.419578269693 -3.55678174146638,50.4195186683735 -3.55683614110372,50.4194603778437 -3.55694413711173,50.4194481383361 -3.55704194070507,50.4194899995277 -3.55708202601411,50.4195533202121 -3.55711673337986,50.4196243578731 -3.55716864698983,50.4196834727489 -3.55722052034669,50.4197628247439 -3.55723909006652,50.4198354276986 -3.55724446876667,50.4199136038136 -3.55727119059509,50.419998689204 -3.55731428253181,50.4200678156794 -3.55734676195551,50.42013528553 -3.55738015139959,50.4202090390123 -3.55742280541108,50.4202862659678 -3.55751584813976,50.4203331373631 -3.55762660121274,50.4203190615458 -3.5577398777575,50.4203175434663 -3.55766982256963,50.4203706477954 -3.55759692341968,50.4204228907817 -3.55763651301145,50.4204925138053 -3.55777821340639,50.4204991591399 -3.55782335827197,50.4205664591486 -3.55783458783492,50.4206513023909 -3.55775873641256,50.4208281525775 -3.55770892032404,50.421176440057 -3.557699259107,50.4212467230805 -3.55766967895511,50.4214823137504 -3.55766592653086,50.4215610619251 -3.5576673097418,50.4216676228175 -3.55767991273713,50.422352350391 -3.55768029350197,50.4224283449568 -3.55768020702861,50.4227476346509 -3.55767998739841,50.4228267851719 -3.55768218569773,50.4229796544442 -3.55768311607454,50.4230938663194 -3.55768655540574,50.4232201865325 -3.55769163383311,50.4233320943141 -3.55771489173838,50.4239982411923 -3.5577196500698,50.4241218455076 -3.55772578621604,50.4242445319568 -3.55773874098913,50.4245321676994 -3.55750889842229,50.4246071992707 -3.55740603802131,50.4246261155377 -3.55729971045265,50.4246037055792 -3.55719212696663,50.4246073950546 -3.55713130104602,50.4246630733278 -3.55706402428906,50.4247152403401 -3.55697883583351,50.4247793394173 -3.55699868189141,50.4248478780122 -3.55710527132325,50.424856793702 -3.5572243386746,50.4248812817369 -3.55734161557255,50.4248941013888 -3.55743898803323,50.4249224774178 -3.55754957174303,50.4249673153616 -3.55764017745718,50.4250254622121 -3.55771702005836,50.4250932371358 -3.55777453993578,50.4251513774603 -3.55782101214136,50.4252375473086 -3.55783013198631,50.4253224188013 -3.55784369272223,50.4254782837125 -3.55785380300092,50.4256791647662 -3.55786058290339,50.4258643506573 -3.55786347388477,50.4261026533402 -3.55785791437847,50.4262335907504 -3.55784741869375,50.4263857302249 -3.55783846501695,50.4264775891344 -3.557825710745,50.4266252618485 -3.557810904384,50.4267747608496 -3.5577932052683,50.4269004644584 -3.55777810583592,50.4269766661568 -3.55774867159552,50.4270665509039 -3.55772132932852,50.4271343722824 -3.55768636450638,50.4272058933647 -3.55764593236799,50.4272824343744 -3.55758452656147,50.4273848892336 -3.55752498087059,50.4274796742252 -3.5574639391157,50.4275717810104 -3.55741906306297,50.4276416359236 -3.55735722876486,50.4277310550469 -3.55727575400448,50.4278441215695 -3.55720557814134,50.4279368001986 -3.55713526933449,50.4280254332507 -3.5570852012217,50.4280872629126 -3.55703272285442,50.4281533969724 -3.55764935684824,50.4281593046495</coordinates></LinearRing></outerBoundaryIs></Polygon>
  </Placemark>
