  <Placemark>
	<Style><LineStyle><color>ff0000ff</color></LineStyle><PolyStyle><fill>0</fill></PolyStyle></Style>
	<ExtendedData><SchemaData schemaUrl="#Wards__December_2019__Boundaries_EW_BFE">
		<SimpleData name="objectid">3055</SimpleData>
		<SimpleData name="wd19cd">E05008356</SimpleData>
		<SimpleData name="wd19nm">Cricklade and Latton</SimpleData>
		<SimpleData name="wd19nmw"></SimpleData>
		<SimpleData name="bng_e">410710</SimpleData>
		<SimpleData name="bng_n">193189</SimpleData>
		<SimpleData name="long">-1.84663</SimpleData>
		<SimpleData name="lat">51.637402</SimpleData>
		<SimpleData name="st_areashape">38178666.9500661</SimpleData>
		<SimpleData name="st_lengthshape">45659.9267089105</SimpleData>
	</SchemaData></ExtendedData>
      <Polygon><outerBoundaryIs><LinearRing><coordinates>-1.9010407578914,51.6159020542876 -1.90071442387653,51.6158658221865 -1.90022053976194,51.6158285461052 -1.89934391398495,51.6157927379146 -1.89893231487111,51.6157573255899 -1.89880383264172,51.615752719501 -1.89863483247164,51.6157606634912 -1.8985148676767,51.6157812334317 -1.89801197205045,51.6159408878312 -1.89765213034467,51.616031360973 -1.89730959264241,51.616104769808 -1.89679518818617,51.6161897112576 -1.89666806409488,51.6162156660796 -1.8964758472303,51.6162731151041 -1.89632116280802,51.6163215175334 -1.89535846343854,51.6166865980863 -1.89516177852596,51.6167691200016 -1.89434180679519,51.6172027247495 -1.89399037168072,51.6174091521272 -1.89386316092618,51.6174701607526 -1.89367516483726,51.6175527780241 -1.89347419883269,51.6176298992628 -1.89329792690045,51.6176890651356 -1.89289895158014,51.6178001630449 -1.89272981704544,51.6178621210667 -1.89244786038514,51.6179922006358 -1.89234662862634,51.6180442436353 -1.89198081108055,51.6182327631636 -1.89182022863574,51.6183027275002 -1.89134607681928,51.6184722679765 -1.89082850032243,51.6186722381102 -1.89045269666628,51.618798720279 -1.89005083460657,51.6189151988793 -1.88921263497882,51.6191194445322 -1.88851738975917,51.6193039548702 -1.88835542253684,51.6193523398729 -1.88804324095826,51.6194635940559 -1.88662620272827,51.6200574731332 -1.88585112057681,51.6203911964339 -1.88545197601436,51.6205535049899 -1.88424752649347,51.6210280106909 -1.8831875092215,51.621507054004 -1.88181241690901,51.6209418865218 -1.8815951158351,51.6211502994474 -1.88108694329875,51.6215976103678 -1.87986326162136,51.6227885577939 -1.87953978816108,51.6227387851609 -1.87909804299429,51.6226457437278 -1.87868365542833,51.6225671109031 -1.87857105766279,51.6225391284713 -1.87806730203572,51.6223875003654 -1.87712744948303,51.622172490041 -1.87642448517851,51.62200635241 -1.87631473912254,51.6219819665183 -1.87579500940319,51.6218843352444 -1.87521602344191,51.6217667726426 -1.87484217651264,51.6216764841904 -1.87456354844568,51.6216087682801 -1.87415071882708,51.6214895812206 -1.87367164854168,51.6213353541634 -1.87322132499875,51.6212098310608 -1.87299315489413,51.6211583463038 -1.87293402684633,51.6211358096334 -1.87289515335443,51.6211097001657 -1.87287212909913,51.6210809104795 -1.87283048943856,51.62097929022 -1.8728030481386,51.6209540914073 -1.87276274653796,51.620927890426 -1.87271802902599,51.6209053693313 -1.87261987324081,51.6208693063714 -1.87259679396275,51.6208602924343 -1.87247269297156,51.6208179088303 -1.87242223078055,51.620805269287 -1.87238317897048,51.6208007327153 -1.87231956503566,51.6208060563367 -1.87227041696935,51.6208347672898 -1.87220819507887,51.6208958242717 -1.87217777698553,51.6209128694325 -1.87214166685045,51.6209209204747 -1.87210117880935,51.6209190778845 -1.87206071601925,51.620908247423 -1.87188338823823,51.6208199618578 -1.87166394122976,51.6207594952889 -1.87138978391565,51.6206729000234 -1.87120351601089,51.6206304475602 -1.87103602508016,51.6206023074788 -1.87093066691363,51.6205869092724 -1.87045117391579,51.6205468280301 -1.87014508848107,51.620506937585 -1.86996749211426,51.6204725824278 -1.86979863794472,51.6204220565664 -1.86968031466024,51.6204012497049 -1.8695891948766,51.6204047437831 -1.86936531493954,51.6204386515573 -1.86927134420298,51.6204394456574 -1.86917311728052,51.6204294478378 -1.86905194486963,51.6204059406087 -1.86889021557039,51.6203626128082 -1.86875599662006,51.6203202148211 -1.86866808038796,51.620286766678 -1.86850787532139,51.6202110797155 -1.8685472790782,51.6200933697717 -1.86774216058271,51.620266846238 -1.86731301922181,51.620319484509 -1.86682183133491,51.6203306124249 -1.86597057117448,51.6205175080019 -1.86513820208047,51.6206370918674 -1.86489749110568,51.6204416656198 -1.86459049219312,51.620229981072 -1.86429801579362,51.6199814582714 -1.86392767106091,51.6196879892475 -1.86385284667113,51.6195790467715 -1.86378802003165,51.619512453192 -1.86371019095624,51.6194530358146 -1.86362078800295,51.61940079538 -1.8634895999372,51.619343024007 -1.86306657039763,51.6192661234703 -1.86287322202103,51.6192065702343 -1.86268274206078,51.6191434243521 -1.86233223041468,51.6189919086197 -1.86229110427053,51.6187293843657 -1.8618531344556,51.6188295437668 -1.86008720297638,51.619107089853 -1.85977650819414,51.619139077268 -1.85943991885049,51.6191485612284 -1.85928398231887,51.6191627565252 -1.85893269060127,51.6192279523662 -1.85884607415557,51.6192395332124 -1.85847031748203,51.6192822257272 -1.85802539854087,51.6193149460818 -1.85766415428309,51.6193631366365 -1.85751238926766,51.6193755363589 -1.85734766561602,51.6193807286938 -1.85719177694042,51.6193787410932 -1.85710937771971,51.6193741456294 -1.85694625611252,51.6193622609317 -1.85671673091658,51.6192962711541 -1.85640059893039,51.6192383542008 -1.85605545341944,51.6192037722664 -1.85560336359075,51.6192068108109 -1.85516416751139,51.6192368299417 -1.8550254974461,51.6192510409583 -1.85495320975107,51.619250052206 -1.8548723794702,51.619239165775 -1.8547583862349,51.6192084613491 -1.85451600863955,51.619102990377 -1.85439621848941,51.6190974473555 -1.85427200993356,51.6190954953023 -1.85339353221998,51.6191824891169 -1.85277215798206,51.6192383389791 -1.85239212938952,51.6193115696243 -1.85227505716826,51.6193123201093 -1.85203820621166,51.6193039311684 -1.85185770405511,51.6192902191209 -1.85075318165164,51.6191575772908 -1.85030581324821,51.6190284642821 -1.84983372015362,51.6189576554892 -1.84952470453564,51.6189123135619 -1.84895304419005,51.6188441604685 -1.84893713856608,51.6188279597507 -1.84879612599283,51.6186865617828 -1.84814656190276,51.6185535833175 -1.84669288462791,51.618281031006 -1.84603598197256,51.618208257114 -1.84491145733537,51.6180170163479 -1.84393995390809,51.6178314511241 -1.84266823843548,51.6176094294494 -1.84211253717989,51.6175142972041 -1.8414397928872,51.6174135207573 -1.84108922686688,51.6173015830473 -1.84068221872005,51.6171886673981 -1.84064913628379,51.6171814318522 -1.84029690129418,51.617105354751 -1.84009764157925,51.6170781153274 -1.83901626939982,51.6169570798516 -1.83901130919867,51.6167430476758 -1.83901005867784,51.6166927079927 -1.83863563872792,51.6167623051789 -1.83803559175987,51.6169530299456 -1.83797777427715,51.6169700292368 -1.83792570404543,51.6169780467681 -1.83784342312739,51.616975236221 -1.8377640660771,51.6169544520839 -1.83773232633037,51.6169382278847 -1.83760986835094,51.6168481691664 -1.83755072674641,51.6168355025827 -1.83750881065419,51.6168345452328 -1.83746687355258,51.6168398800839 -1.83743074770181,51.6168515152393 -1.83739889405542,51.6168676511667 -1.83737285950652,51.6168882900194 -1.83734084385033,51.616949369672 -1.83734073148505,51.6169808307415 -1.83732768687882,51.6169987901935 -1.8373045362881,51.6170122416458 -1.83727557474549,51.6170184936184 -1.83723807163634,51.6170157449099 -1.83720917257597,51.6170049176167 -1.83713863324,51.6169490884013 -1.83709388906202,51.6169400373228 -1.83705494325657,51.6169408822443 -1.83701728640579,51.6169480202942 -1.83696669357933,51.6169758162417 -1.83694488125019,51.6170144375692 -1.83694480722824,51.6170351124994 -1.83697205315803,51.6170756004815 -1.83704843878654,51.6171279321554 -1.83706859107471,51.6171540283466 -1.83707720426868,51.6171765127711 -1.83707123077953,51.6172151561725 -1.83705674321251,51.6172367101804 -1.83701470596005,51.6172699102572 -1.83680930699006,51.6173613111019 -1.83666455487138,51.6174438964805 -1.83688810700636,51.6175376937359 -1.83705140751836,51.6175298307154 -1.83709902031888,51.6175361892546 -1.83713077311263,51.6175488179445 -1.83715665386516,51.6175713263951 -1.83716668923753,51.6175956101893 -1.83716076719085,51.6176198726758 -1.83715789270846,51.6176243626219 -1.83713900614468,51.6176441122186 -1.8370841321469,51.6176701039568 -1.83700005393214,51.6177365041053 -1.83694648625279,51.6177634866625 -1.83688436931927,51.6177831759698 -1.83682514618931,51.6177929804397 -1.83677309092248,51.6177965035337 -1.83667487190085,51.6177882768397 -1.8361882062528,51.6177723155168 -1.83601878474335,51.6178925291073 -1.83595076069555,51.6179319855236 -1.83591156927219,51.6179678857397 -1.83588687445466,51.6180127959655 -1.83587955091381,51.6180622244973 -1.83591090822359,51.6181513489523 -1.83591079486342,51.6181828100127 -1.83590056244996,51.6182133577338 -1.83587735754493,51.6182411907124 -1.83584702160221,51.6182654188857 -1.83580073949123,51.6182860280808 -1.83571110494063,51.6183074755484 -1.83558222603011,51.6183792956772 -1.83555475804131,51.6184008303577 -1.83551994354096,51.6184448271328 -1.83550524549998,51.6184915487246 -1.83550948857844,51.6185364995428 -1.83551952797388,51.6185598852302 -1.83564741754374,51.6187291462609 -1.83566740430499,51.618801085554 -1.83565416567668,51.618872079035 -1.83562362819697,51.6189187783913 -1.83557437467262,51.6189708454357 -1.83551061585475,51.6190157905933 -1.83540062106838,51.6190686704153 -1.83538904586742,51.6190749463758 -1.83535431194056,51.6190964707858 -1.83529779573637,51.6191476274461 -1.83526154393404,51.6191934204139 -1.83524259411075,51.6192302480429 -1.83522362284009,51.6193057282436 -1.83523194763744,51.6193750445499 -1.83525645009956,51.6194164281993 -1.8353370062402,51.6195019364304 -1.83535855139045,51.6195379219032 -1.83537138952331,51.6195774917172 -1.835371279036,51.6196080536251 -1.83535084825272,51.6196593518824 -1.83532621047843,51.6196880809792 -1.8352900167974,51.6197176938536 -1.83524657199163,51.6197437008125 -1.83519445582551,51.6197634024018 -1.83511924880084,51.6197794766388 -1.83500227072212,51.6197865031489 -1.83463953767136,51.6198435205415 -1.8344867009519,51.6197552131976 -1.83445065849717,51.6197434760066 -1.83440876274457,51.6197362262699 -1.83436112848648,51.6197352597437 -1.83431060625444,51.6197423796514 -1.83426421849595,51.6197584941798 -1.83422661012124,51.6197845081596 -1.83420337725754,51.6198195321732 -1.83419754235146,51.619851884273 -1.83423606823082,51.6199670865012 -1.83420258498203,51.6200371529104 -1.83413591099805,51.6200972843605 -1.83402444945339,51.6201591496945 -1.83394333754916,51.6202264510628 -1.83391867863718,51.6202606637644 -1.8338851848617,51.6203334266164 -1.83386914454239,51.6203558762829 -1.83382279719053,51.6203935639723 -1.83377792899013,51.6204177701097 -1.83373893757119,51.6204302992384 -1.83368828291224,51.6204410143913 -1.83343551767743,51.6204523404532 -1.83337911800095,51.6204702386928 -1.83336466860805,51.6204810043196 -1.83335440111833,51.6205205405632 -1.83337448554455,51.6205646148435 -1.83339752178729,51.6205836142637 -1.83346233012999,51.6206106737201 -1.83362530695278,51.6206945019418 -1.83366553350483,51.6207350090892 -1.83367127395025,51.6207610853607 -1.83366391634765,51.6207862438786 -1.83364370373937,51.6208095867365 -1.83361899514046,51.6208248326635 -1.83356702516139,51.6208364441472 -1.83353665660252,51.6208364009813 -1.83350488286287,51.6208291644186 -1.83346016856256,51.6208111232568 -1.83302872311199,51.6207008441923 -1.83297954931507,51.6206971783703 -1.83290448496257,51.6207060600723 -1.83283507179894,51.6207329282735 -1.83280605455289,51.6207535609748 -1.83276834409879,51.6208065416188 -1.83274184320438,51.6209207532084 -1.83273021767903,51.6209405124809 -1.8327143214511,51.6209557708069 -1.8326491983146,51.6209817449809 -1.83262179537245,51.6209844023642 -1.83258417421927,51.6209807537894 -1.83254526462466,51.620970810218 -1.83250342239932,51.6209491771014 -1.83235914475054,51.6208977335548 -1.83231884155615,51.6208787092067 -1.83226252369073,51.6208741337068 -1.8322089927091,51.6208894288664 -1.83218148713323,51.6209199515211 -1.83217697220071,51.6209496079707 -1.83202462759747,51.6211480447928 -1.83196371144103,51.6211955988015 -1.83186683050644,51.6212422919163 -1.83178005047986,51.621262841424 -1.83168618761437,51.6212663022555 -1.83165725733765,51.6212635641252 -1.83131367618611,51.6211937651346 -1.83126461712168,51.6211909979116 -1.83120540848858,51.6211954074327 -1.83114033048784,51.6212088862687 -1.83106077928165,51.6212393345096 -1.83097833120961,51.6212796655582 -1.83093343065118,51.6213119602181 -1.83091308320473,51.6213388981173 -1.83090570210599,51.6213703486816 -1.8309142763679,51.6214027214315 -1.83093298697134,51.6214315122181 -1.83098916720683,51.6214729424685 -1.83108575919968,51.6215045430435 -1.83113767206252,51.6215406638856 -1.8311678726215,51.6215865505318 -1.83117343857612,51.6216270085655 -1.83110178424841,51.6218723926692 -1.83109017111919,51.6218885561044 -1.83105394640757,51.6219253581678 -1.83096115549763,51.6219926415602 -1.8308093078224,51.6220553447385 -1.83086799997476,51.6221903530846 -1.83088045789436,51.6223314969744 -1.83035871060971,51.6224170355661 -1.83029798798934,51.622443914875 -1.83026608941191,51.6224700257934 -1.83024859787408,51.6224978668659 -1.83024704387237,51.6225311232307 -1.83025561788744,51.6225634960236 -1.83027138821627,51.6225823956079 -1.83031749623036,51.6226103279341 -1.83037676160961,51.6226229982624 -1.83042440543519,51.6226221681002 -1.83047207411872,51.6226150457113 -1.83092750558869,51.6225231186537 -1.83098018634953,51.6227056697291 -1.83096560895746,51.6227505926416 -1.83094239182934,51.6227803128641 -1.83089891843221,51.6228126104722 -1.83086848039493,51.6228305441046 -1.83075572957538,51.6228519545196 -1.83072400798365,51.622862695768 -1.83068487663826,51.6228806167898 -1.83066314315314,51.6228958664047 -1.83064577872746,51.6229210102714 -1.83063411504704,51.622950657223 -1.83063687353044,51.6229776275811 -1.83074870072158,51.6232052990148 -1.83071352923959,51.6233427783743 -1.83058952349224,51.6236680873134 -1.83058353001862,51.6237104168569 -1.83056760538907,51.6237328662466 -1.83054157063243,51.623751705314 -1.83050245374683,51.623765131455 -1.83046491216932,51.6237713693715 -1.83039846414551,51.623767677491 -1.83033791721181,51.6237469156902 -1.8300462039534,51.6237213238618 -1.82999558175502,51.6237221495562 -1.82991027192449,51.6237301153607 -1.82983945932689,51.6237470918516 -1.82978160017371,51.623772176764 -1.82973526961095,51.6238035706478 -1.82968298869368,51.6238655179279 -1.82969547705095,51.6239976731805 -1.82970842104015,51.6240400293129 -1.82969961192454,51.6240705794705 -1.82968355340591,51.6240966233447 -1.82964307677691,51.6241235317586 -1.82957940979033,51.6241405175881 -1.82950580635588,51.6241395122427 -1.82947260230606,51.6241322725231 -1.82934560291226,51.6240772548021 -1.82931096880308,51.6240700138521 -1.82925032763942,51.6240744194264 -1.82922278063984,51.6240833680625 -1.82918084329905,51.6241183638309 -1.82910625991258,51.6243466631149 -1.82905405889686,51.6244184990739 -1.82900757163535,51.6244597794861 -1.82890481137717,51.6245153613941 -1.82878185083939,51.6245583283084 -1.82864893412065,51.6245877977984 -1.82854775889187,51.6246020316625 -1.82846224381227,51.6246640196827 -1.82834629672697,51.6247735145416 -1.82831427529731,51.6248318961072 -1.82831128773534,51.6248660494917 -1.82833526845198,51.6250135926806 -1.82833077630709,51.625036058523 -1.82830608055853,51.6250782697381 -1.82828289961158,51.6250980116431 -1.82789648281979,51.6252943915167 -1.82784729058069,51.625325780464 -1.82719723039643,51.6253149355949 -1.82623260520486,51.6255849748375 -1.82549216469227,51.6257853165363 -1.82475171636521,51.6259856535818 -1.8233851882133,51.6263459452663 -1.82199241967497,51.6267403400248 -1.82126354856335,51.6269577521614 -1.82095912355101,51.6272234496253 -1.82079534909878,51.6273427522101 -1.82018840770913,51.6277491109549 -1.81938099609523,51.6273387826773 -1.81822641404201,51.6266806252992 -1.81601263742222,51.625399484422 -1.81528759734475,51.624993752817 -1.81431599487437,51.6245066354113 -1.81293580974878,51.6257228024943 -1.81206460087976,51.6264281198998 -1.81130906842819,51.6271228298696 -1.81087562234041,51.6274953521707 -1.81043632190367,51.627870470928 -1.80953027598765,51.6286269493414 -1.80879212101602,51.6292785244818 -1.80793964907682,51.6300010108023 -1.80744103689556,51.6303904029909 -1.80767921631637,51.6304339405269 -1.80758484568898,51.6305533386102 -1.80744480370848,51.6308534287107 -1.80716454625241,51.6315498801529 -1.80699822439508,51.6319218387282 -1.8068265330337,51.6318730153703 -1.80670636506127,51.6319222571512 -1.80641612826659,51.6325520820698 -1.8063764643776,51.6327192109361 -1.80549953404684,51.6326988829432 -1.80430756348449,51.6326942033048 -1.80316457707288,51.6327120653685 -1.80186551619466,51.6327611148899 -1.79985558971724,51.6327910500685 -1.79860145560275,51.6328095777814 -1.7984741418141,51.6328291349625 -1.79763318474969,51.6328375737027 -1.79599189635022,51.6328536064487 -1.79298091382829,51.6328357448545 -1.79052069782267,51.6327576669488 -1.78858341785345,51.6327136502205 -1.789095924292,51.6334312609738 -1.78939728743276,51.6338777435083 -1.78951489789157,51.6340524293497 -1.78988613430452,51.6346941854883 -1.78991909532524,51.6347544705081 -1.78993910020327,51.6348084400584 -1.78994596142804,51.634896543869 -1.78992094834261,51.6349990623971 -1.7896480075059,51.6355956176147 -1.78950980229134,51.6357787440244 -1.78946047411393,51.6358316900202 -1.78930524861368,51.6359591435338 -1.78898517603976,51.6367488738239 -1.78897470101129,51.6368243619628 -1.78897893470352,51.6368622129913 -1.78901183650523,51.6369350826356 -1.7890463239706,51.6369746964778 -1.78922909010114,51.637127836512 -1.78937403004559,51.637345719021 -1.78949811174349,51.6380050094401 -1.78946131245414,51.6381569454853 -1.78967933860117,51.6385196804856 -1.78971749850517,51.6386932353033 -1.78969419550294,51.6390448400259 -1.7897973458883,51.6392319940948 -1.78995100913227,51.6397574023017 -1.79024758015577,51.6406355216639 -1.79043484972608,51.6410835940916 -1.79043282923084,51.6412121319236 -1.79048401942112,51.6413777099812 -1.7908194453654,51.641971757079 -1.79107844121192,51.6425530828165 -1.7915516033202,51.6436742138198 -1.79183077321051,51.6442519779679 -1.79216918246762,51.6448271498426 -1.79269829573655,51.6457614057945 -1.79283697199714,51.6460826452199 -1.79346825511423,51.6477507525639 -1.79356140104072,51.6479182004626 -1.79356859223912,51.6479352924478 -1.79324866726837,51.6483743764756 -1.7934127902316,51.6488422687492 -1.79380552527966,51.6492484497649 -1.79407301196284,51.6495501380341 -1.79441055906537,51.6500146475715 -1.79454802354202,51.6502927360325 -1.79493768202785,51.6507520320032 -1.79468728307022,51.6511525886295 -1.79466529011681,51.6512199673228 -1.79465921617033,51.6512720919701 -1.79467189299372,51.6513683850105 -1.79468897880858,51.6514115623228 -1.7947406784831,51.6514961484228 -1.79514536977996,51.6524589385229 -1.79523262623615,51.6526677227886 -1.79561714682012,51.6536151947975 -1.7956931809649,51.653749261554 -1.79579882737186,51.6537377602193 -1.79591841171726,51.654127367454 -1.79600084631313,51.6544565942375 -1.79614305091439,51.6553064725484 -1.79618652468024,51.655926961312 -1.79623607103061,51.6564953253095 -1.79622713881065,51.6565474459224 -1.79620377459546,51.6566013379554 -1.79616746010436,51.6566463095226 -1.79604409391885,51.6567539621233 -1.79509002730097,51.6570616067138 -1.7956001952025,51.6577467313046 -1.79570213073659,51.6579007088227 -1.79597687277512,51.6585134213178 -1.79604404021779,51.6586862147173 -1.79608269034148,51.6587860584017 -1.79619356580679,51.6592080102311 -1.79624510308985,51.6593312468887 -1.79629242138151,51.6594122297906 -1.79636421645897,51.6595104225733 -1.79660160541244,51.6597625235607 -1.79690045440472,51.6601865978594 -1.79729635103588,51.6609029790015 -1.79747648346479,51.6610327294751 -1.79800335115137,51.6612215955449 -1.79846658908078,51.6614058560085 -1.7986929297078,51.6615464710574 -1.79879508674987,51.6616545133336 -1.79884826283783,51.6617328977083 -1.79888832015068,51.6618129679435 -1.79890965452659,51.6618948034603 -1.79891660581777,51.6619676246505 -1.79891359378175,51.66200186797 -1.79887690423525,51.6621312443681 -1.79887657147842,51.6622067505063 -1.79889069076127,51.6622759891981 -1.79891639914642,51.6623390454452 -1.79894660217467,51.6623831427993 -1.79895524480366,51.6623966412107 -1.7990084147249,51.6624497666778 -1.79908052936856,51.6625047228664 -1.79895457954277,51.6625476534806 -1.79869968174699,51.6626371947567 -1.79861579740609,51.6626559274376 -1.79844943655353,51.6626718218236 -1.79843788123221,51.6626700045736 -1.79837680093526,51.6624109292987 -1.79835378973131,51.6623848216932 -1.79830333878741,51.6623640608794 -1.79827151979136,51.662362208766 -1.79824253269536,51.6623666528415 -1.79821649892398,51.662377395115 -1.79818314924476,51.6623980118071 -1.79801916498244,51.6625235740431 -1.79798296189412,51.6625423883706 -1.79792221185586,51.6625593630055 -1.79763426517447,51.6626011138479 -1.79752290420586,51.662606314743 -1.79739572085544,51.6626042977311 -1.79733208260864,51.6626005921041 -1.79708940311537,51.66256871141 -1.79698391504731,51.6625667314818 -1.79680161571415,51.6625745054284 -1.79666863164535,51.6625634888158 -1.79653280250875,51.662548870533 -1.79631205571126,51.6624639919396 -1.79627881891141,51.6624594393858 -1.79622816053149,51.6624584531426 -1.79617615616498,51.6624655532576 -1.79611666722255,51.6624933162057 -1.79600786559464,51.6625929034838 -1.79576042965735,51.6626384057756 -1.79566120816763,51.6628341910672 -1.79498782641487,51.6630704121708 -1.79465243585034,51.66308420822 -1.7942525619371,51.6632552848247 -1.79420482717527,51.6632668863839 -1.79415127834226,51.6632721863958 -1.79409776745486,51.6632693950353 -1.79404143187079,51.6632585099734 -1.79399382547113,51.6632413470933 -1.79395198396707,51.6632151165433 -1.79390028144011,51.6631548000106 -1.79377500337461,51.6630476120145 -1.79365938019974,51.6630195432384 -1.79358433086916,51.6630086241363 -1.79331685315656,51.6630036591938 -1.79324015630542,51.6630143101785 -1.79319528129193,51.6630259163688 -1.79312433566109,51.6630563541334 -1.7929937270013,51.6631523044491 -1.79292242835063,51.6632601354548 -1.79290638857301,51.6632744889757 -1.79283249951985,51.6633228988886 -1.79274997342382,51.6633569107558 -1.79261240536194,51.6633836338896 -1.79253428862775,51.6633915862615 -1.7924200843764,51.6633922824539 -1.79239067819982,51.6632006772625 -1.79221416330838,51.6632201405199 -1.79209925459829,51.6633755341057 -1.79205869197144,51.6633826535722 -1.791979160203,51.6633870073817 -1.79190110075366,51.6633823740889 -1.79184048265699,51.6633696820824 -1.79180287965472,51.6633552335054 -1.7917784213611,51.6633336168826 -1.79176703023742,51.6632958433229 -1.79176865293388,51.6632535980351 -1.79177601138784,51.6632347344289 -1.79185880083552,51.6631431046447 -1.7918444392102,51.6631295964661 -1.79180840124919,51.6631115540843 -1.79176790855215,51.66310339259 -1.7917260512057,51.6631069139592 -1.79168114288144,51.6631257108799 -1.79164192554064,51.6631517083625 -1.79160560435675,51.6631956893998 -1.79155729365613,51.6633332241321 -1.79127004238438,51.663533165298 -1.79141195295942,51.6638085671586 -1.79126958536731,51.6639459335557 -1.79133287966529,51.6640251485232 -1.79135576844539,51.6640773253084 -1.79136563352609,51.6641357702468 -1.79135665534182,51.664196069873 -1.79132012069784,51.6642867925238 -1.79106702535299,51.6646280092378 -1.79091147504208,51.6648058015582 -1.79080840647942,51.6648991028518 -1.79063139342264,51.6650255296821 -1.79034985807506,51.6652498392705 -1.79020458873346,51.6653943005957 -1.79013050271907,51.6654841464495 -1.78997907200641,51.665697810884 -1.78982056126977,51.6658953722189 -1.78969516092914,51.6661253529462 -1.78965274525064,51.6662493229847 -1.78960312037901,51.6663337293661 -1.78954353459921,51.666406522474 -1.78948103128806,51.6664657368158 -1.78934180153009,51.6665661623411 -1.78861685777866,51.6670018975245 -1.7887653090869,51.667099244785 -1.7888951018725,51.6671839738787 -1.78913998793604,51.6673615856952 -1.78990211981161,51.667962691728 -1.7903413674991,51.6683680672219 -1.79068876863092,51.6686033871887 -1.79115510605513,51.6690582474281 -1.7913246572247,51.6692887547372 -1.7915966166426,51.669599444359 -1.79161571732907,51.6698287846644 -1.79196809668635,51.670257371007 -1.79206300569655,51.6703609113397 -1.79252458000539,51.670637777088 -1.7927594823697,51.6707892955106 -1.79297864954726,51.6709406957715 -1.79313859474177,51.6710587318093 -1.79333159182711,51.6712236587397 -1.79349003871997,51.6713830406371 -1.79359216842419,51.6714992667646 -1.79378965381498,51.6716218627766 -1.79390825682135,51.6716283634375 -1.79397032627651,51.6716392595198 -1.79401080670963,51.6716519150494 -1.79406124978889,51.671676273346 -1.79410451898662,51.6717051138546 -1.79412897437848,51.6717286172718 -1.79413192630363,51.6717349146698 -1.79414483422132,51.6717547131198 -1.79415903698786,51.6718041766356 -1.79543727110128,51.6727936613137 -1.79525749644589,51.6732123194777 -1.79537321522831,51.6732251058301 -1.79512833027289,51.6739638329024 -1.79493296904052,51.6746387356736 -1.79492389325352,51.675039714 -1.79490928296987,51.6750801382719 -1.79487726110193,51.6751214312419 -1.79485404330157,51.6751402672811 -1.79466858627614,51.6752290219561 -1.79469757815475,51.6761785678059 -1.79429696365286,51.6761706747076 -1.79429444066386,51.6764124710309 -1.7943400853898,51.6765501714691 -1.79437736503368,51.6766392260758 -1.794438892386,51.6767715603296 -1.79448622543193,51.6768525429022 -1.79453947693957,51.6769164574613 -1.79458412097889,51.676958783745 -1.79465186252522,51.6770092400422 -1.79470085325583,51.6770398877023 -1.79502950582709,51.6769829332222 -1.79513406565487,51.677198938419 -1.79520764694801,51.6772503037246 -1.7966111764435,51.6770837544361 -1.79748129827181,51.6781839686374 -1.79783087347078,51.6785999471226 -1.79793994699266,51.6787970807433 -1.79819445808334,51.6791391852031 -1.79842899565203,51.6794147379052 -1.79857128433732,51.6795984443501 -1.79886742868779,51.6800206199426 -1.79907137179612,51.6803401642425 -1.79922202192457,51.6806029862587 -1.79935704784534,51.6808397142871 -1.79955746567527,51.6813120609754 -1.79969331781974,51.6816602522275 -1.79970476608704,51.6816872379585 -1.79977917826804,51.681851052074 -1.79981655216209,51.6819221274212 -1.80000008288204,51.68227669173 -1.80010476244965,51.6825007817434 -1.80049582354828,51.683370040287 -1.80065060684015,51.6837011822271 -1.80073214453758,51.6839008737326 -1.80086653904625,51.6842589482561 -1.80111788306659,51.6850111129212 -1.80116741136783,51.6852494913394 -1.8011783673163,51.6853897357786 -1.80123573326061,51.6854994968759 -1.80246155891227,51.6853586445358 -1.80274397218153,51.6859390805381 -1.80292691303104,51.6864662246745 -1.8031156972162,51.6869674011387 -1.80321374695507,51.6873793452137 -1.80338773403381,51.6876071443302 -1.80355300041288,51.6878663904804 -1.8037484546391,51.6881508556863 -1.80366131765687,51.6882495868248 -1.80490779195337,51.6893747338891 -1.80568858943707,51.6901258793139 -1.80614839009419,51.6905222391408 -1.80615988257556,51.6905402355788 -1.80624592556554,51.690726537011 -1.80626734005233,51.6907957865432 -1.8063025803043,51.6910080710609 -1.80632397591177,51.6910818153597 -1.80658014969318,51.6917377044596 -1.80674518000478,51.6917226954724 -1.80721049207542,51.6925138504713 -1.80666671398535,51.6928141723824 -1.80710468963121,51.6932455494751 -1.80781227040548,51.6939012793113 -1.80869562399159,51.6947470454046 -1.80941027617823,51.6954630019807 -1.8099694179927,51.6960016207241 -1.81010334640583,51.6961537493107 -1.81117280026979,51.6974816888014 -1.81062023807618,51.6977919028143 -1.81042745543652,51.6978770758314 -1.81023180902031,51.6979621530964 -1.80899279003183,51.6984132721508 -1.80858975085734,51.6985942803373 -1.80749066145789,51.6991526690705 -1.80749350215192,51.6991580667816 -1.80979369416336,51.7006598053864 -1.81052536321637,51.7011267001061 -1.81120956952814,51.7015341875657 -1.81194107076778,51.7020488028488 -1.81183736480849,51.7022860325507 -1.81214078289722,51.7023988783608 -1.81214361177879,51.7024069724563 -1.81212605273425,51.7024698662727 -1.81198727137336,51.702764567944 -1.81194487939178,51.7028886364165 -1.81194238645542,51.7031457130314 -1.81338821544507,51.7030877927627 -1.81418746037299,51.7029775983051 -1.81541963474632,51.7027915840733 -1.81599312511107,51.7026837181849 -1.81661143510807,51.7025849090904 -1.81725012478049,51.7024617689658 -1.81848786092503,51.702309978788 -1.81855599558491,51.7019180816493 -1.8185678448109,51.7018487960638 -1.81863319815468,51.7014362206234 -1.81877434013033,51.7012260102846 -1.81878760598772,51.7011900750635 -1.81879205794698,51.7011505314657 -1.8187863693098,51.7011109713059 -1.81877064088029,51.7010758904386 -1.81870587878858,51.7009805094061 -1.81869015440092,51.7009444394793 -1.81867611610937,51.700844642004 -1.81868794662843,51.7007799410809 -1.8188452333633,51.7005293059671 -1.81892603712995,51.7002201247531 -1.81907618954626,51.6999326244165 -1.81927417822781,51.6996155340462 -1.81928590414638,51.6995768998764 -1.81928904661152,51.6995364551032 -1.81928050127003,51.6994950931862 -1.81926323038632,51.6994582126276 -1.81921858942118,51.6994033115879 -1.81880896801174,51.6990870823922 -1.81882355796588,51.6986878210525 -1.81888172608644,51.6986106063899 -1.8188831570932,51.6986106085991 -1.81894000820955,51.698504628378 -1.81896179562099,51.6984857854512 -1.81904154618225,51.6984408741533 -1.81912165419911,51.6983061653169 -1.81921585151607,51.6982883331014 -1.81927240078148,51.6982578584522 -1.81930431609527,51.6982120640485 -1.81930895143228,51.6981563406759 -1.81929891870341,51.6981292691932 -1.81923694308277,51.6980536675125 -1.81902224194192,51.6978340092064 -1.81887104346284,51.6976655943598 -1.81884511831653,51.6976152168563 -1.8188380855202,51.6975837450749 -1.81883886428697,51.6973877004058 -1.81870328980975,51.6969208802431 -1.81869906515786,51.6968731428421 -1.81870839558687,51.6967167517727 -1.81873321706597,51.6966547674156 -1.81875504297278,51.6966260367333 -1.81879132771899,51.6965910361962 -1.81895247798759,51.6964752392314 -1.8190134279016,51.6964178053672 -1.81912407612448,51.6962515918572 -1.81915184920288,51.696167139738 -1.81919116867685,51.6961186611405 -1.8192361199249,51.6960944608104 -1.81928531905236,51.6960819522378 -1.8193535178191,51.6960308206473 -1.8193666003511,51.6960110650937 -1.81938876051477,51.6958977499516 -1.81938757376291,51.6958357254046 -1.81933450330748,51.6957115982442 -1.81932463665727,51.6956423689998 -1.81933493807072,51.6956018444109 -1.81942967421798,51.695446483891 -1.81946794882696,51.69527027166 -1.81950137725795,51.6952334691193 -1.81951885535176,51.6951876524217 -1.81951471415841,51.6951489946882 -1.81949461205178,51.6951040193105 -1.8194715877096,51.6950743203288 -1.81945576467821,51.6950635098855 -1.81936907084013,51.6950256233081 -1.81931722252297,51.6949544421091 -1.81928931598308,51.6947117003473 -1.81935466196444,51.6946577779145 -1.81938370433848,51.6946137773215 -1.81940717117211,51.6945320150131 -1.81932799286729,51.694433914618 -1.81936876077867,51.6943809433743 -1.81938192004712,51.6943413232133 -1.81937779328734,51.694299068928 -1.81936637140581,51.6942612982145 -1.81933328327489,51.6942127080399 -1.81923081940718,51.694120863897 -1.81905756339483,51.6940432032355 -1.81900709961914,51.6940143609706 -1.818959421811,51.6939747359897 -1.81893935877619,51.6939504354135 -1.818948210872,51.6938839315292 -1.81898032200438,51.6938183626779 -1.81898774050513,51.693782419277 -1.81896474570005,51.6937455289045 -1.81893156806959,51.6937193207894 -1.81899549017622,51.6936331261812 -1.81899419844403,51.6935980675807 -1.81895964321594,51.6935584637431 -1.81890618610818,51.693532313336 -1.81875862940929,51.6935320854543 -1.81870205428499,51.6932101082459 -1.81863731399268,51.6931120296719 -1.81868103074681,51.6930374002086 -1.81870149914894,51.6929897908545 -1.81870300858167,51.6929700174785 -1.81868865804104,51.6929493213483 -1.81865834032182,51.6929241057279 -1.81861797390885,51.692906064994 -1.81853989623919,51.6928924616231 -1.81856210697761,51.6927665622753 -1.81853911872982,51.6927278744392 -1.8185073489599,51.692708049581 -1.81843644655327,51.692689962435 -1.81834537108256,51.6926754396745 -1.81830781080979,51.6926717858397 -1.81825865448985,51.6926744062177 -1.81822826196681,51.6926680669379 -1.81819933754521,51.6926527412114 -1.8181806848165,51.6926338357333 -1.81816925717366,51.6925978622654 -1.81821751313541,51.6924621154883 -1.81821482559446,51.6924180659943 -1.81819606865108,51.6923955655898 -1.8181657300725,51.6923757428557 -1.8179980851825,51.6923287410418 -1.81789288926068,51.6922359923411 -1.81778320480583,51.6921620241265 -1.81773566823753,51.6921179049478 -1.8176882287939,51.6920495162584 -1.81765843707281,51.6918930633722 -1.81749080965335,51.6918423752711 -1.8174103680862,51.6917047209934 -1.81726164142231,51.6916406683604 -1.81716344329521,51.6915883804365 -1.8171668039555,51.6914642501658 -1.81715681690958,51.6914264814382 -1.81696485754204,51.691316518297 -1.81693024464636,51.6912921937587 -1.81692456918607,51.6912796005143 -1.81693908573808,51.6912589491985 -1.81696657114921,51.6912464076927 -1.81699278660358,51.6912229872812 -1.81702620312446,51.6911888819039 -1.81703200121215,51.6911709135053 -1.81702779256783,51.6911493338327 -1.81700904044259,51.6911259331933 -1.81699322304784,51.6911142232747 -1.81687185068085,51.6910708876698 -1.81683603469624,51.6909899314741 -1.81683615382709,51.6909602689711 -1.81686380764864,51.6909053898601 -1.81686531926043,51.6908856173932 -1.81665200473436,51.6906884279038 -1.81653220852892,51.6906388022105 -1.81655415977382,51.6905785211982 -1.81655862122851,51.6905371793353 -1.81653574803137,51.6904706268486 -1.81635833247748,51.6903346175077 -1.81629490605653,51.6902679106731 -1.81628923234817,51.690255317398 -1.8162980990516,51.6902157807244 -1.81637943935927,51.6901287155652 -1.8163001959906,51.6900503886391 -1.81627029848268,51.6899217114662 -1.81617232987371,51.6898136924282 -1.81605578515328,51.6896687892481 -1.81581017318562,51.6895856162912 -1.81564704093053,51.6895170450449 -1.81555759288665,51.6894557798749 -1.81551862814091,51.6894170671884 -1.81548124916688,51.6893693673597 -1.81530615714283,51.6890147507109 -1.81535733551365,51.6888943812825 -1.81523183750131,51.6887818232905 -1.81519494196923,51.6886153816029 -1.81507947916795,51.6885576707421 -1.81495539858591,51.6884783730536 -1.81493378218401,51.6884558666929 -1.81488330371967,51.6884036520853 -1.81482872789628,51.6883028008767 -1.81466553380755,51.6882513064533 -1.81453563983463,51.688164808689 -1.81410511536501,51.6880354968797 -1.81385522940551,51.6879506055462 -1.81375836889923,51.6879243838819 -1.81368621045393,51.6878946056997 -1.81360970762542,51.6878486414018 -1.81349003565192,51.6877422930568 -1.81331315601553,51.6875092003561 -1.81328183436071,51.687381418326 -1.8130034053041,51.6871904114806 -1.81312374580447,51.687132984386 -1.81299107637722,51.6870267047235 -1.81293384615487,51.6868764998269 -1.81278404306811,51.6867026858726 -1.81269341976869,51.6865811920256 -1.81245567982486,51.6863586978848 -1.8124502021593,51.6862984636507 -1.81247948602424,51.6861960369675 -1.81247158558176,51.6859999779548 -1.8125686643229,51.6859722677669 -1.81253018073811,51.6858175078634 -1.81269391929845,51.6857629369891 -1.81273045457842,51.6856659157711 -1.81275372426986,51.6856335936657 -1.81279155312251,51.6855994956058 -1.81286988943388,51.6855464965379 -1.81305256154705,51.68544071951 -1.81325996567147,51.6852945318319 -1.81334861816733,51.6851975034545 -1.81340539387654,51.6851086038119 -1.81352208466388,51.6848633035829 -1.81357458116428,51.684770802279 -1.81380131212661,51.6845050016953 -1.81384201381187,51.6844385494976 -1.81384358276757,51.6844340571719 -1.81388158684131,51.684327150036 -1.81401802092274,51.684210421194 -1.81407225176211,51.6840433151219 -1.81423820076126,51.6837657320781 -1.81436229661178,51.6834862853309 -1.81454728476942,51.6831889572669 -1.81462727290633,51.6830803180201 -1.81463364108216,51.6829220349334 -1.81484989537035,51.6827362170817 -1.81495371371886,51.6824559284227 -1.81516784905337,51.682085745509 -1.81540424347748,51.6819315101584 -1.81538602202842,51.6818074348502 -1.8153877489609,51.6817345377703 -1.81540240355176,51.6816788301654 -1.81543590875951,51.6816213539333 -1.81552455266164,51.6815235146794 -1.8155900691389,51.6814237517006 -1.81572503892382,51.6813125024634 -1.81572886019384,51.6810751122745 -1.81573627310296,51.6810113036569 -1.81577742135775,51.6808621528257 -1.81579052896504,51.6808351173009 -1.81596015738044,51.6807338091785 -1.81604152113623,51.6806368572396 -1.81599397298288,51.6805990294502 -1.81598693032054,51.6805711530636 -1.81603964146006,51.6803931667688 -1.81596366414377,51.6802194725354 -1.81589748409884,51.6801294795633 -1.81587066686799,51.6799784255014 -1.81569350749155,51.6797892912793 -1.81635085693005,51.6796312188824 -1.81667589779499,51.6796991441595 -1.81679910452669,51.6796346163238 -1.81709573070341,51.6796215965579 -1.81752188749357,51.6793641900023 -1.81752651802555,51.6793093647587 -1.81754547943313,51.6792796416059 -1.81757885292701,51.6792536255519 -1.81762223052546,51.6792312207162 -1.81767154457924,51.6792151172956 -1.8177250074737,51.6792053134042 -1.81779155811265,51.6792027193672 -1.81807674419941,51.6791573191884 -1.81815492152411,51.6791403611877 -1.81822440993457,51.6791188957523 -1.81827649481911,51.679095605927 -1.81832144055178,51.6790687084483 -1.81852031523122,51.6788972394964 -1.8186665372015,51.6788615097982 -1.81878240411319,51.6788122503715 -1.81907394652051,51.6786067660472 -1.81921018114017,51.6785332670347 -1.81932898827267,51.6784938994753 -1.81957508187298,51.6784421423458 -1.81985483094705,51.6782627058873 -1.82015509104422,51.6780519281927 -1.8203780485854,51.6780000448828 -1.82046371589914,51.6778968033172 -1.82061018761412,51.6777963530241 -1.8206523639417,51.6777451807291 -1.82065831319665,51.6777181328005 -1.82065688293674,51.6776875687276 -1.82063974837152,51.6776479919046 -1.82047697412985,51.6774670663048 -1.82056275707036,51.6773646349616 -1.82084402659129,51.6771897822625 -1.82100917801235,51.677099246968 -1.82110653874072,51.6769932363113 -1.8212412982837,51.676928722302 -1.82129636831546,51.6769036373867 -1.82136580610009,51.6768938552724 -1.8214063569019,51.6768921196325 -1.82157409663479,51.6769013636455 -1.82162901127316,51.6768852670761 -1.82165374687561,51.6768718211306 -1.82167109984902,51.6768556683236 -1.82168718468277,51.6768287256612 -1.82170182341962,51.6767747246676 -1.82170635613431,51.6767136077735 -1.82168794382677,51.6766344776237 -1.82178662038271,51.6765267609186 -1.82178104018118,51.6764898983398 -1.82176817324569,51.6764565304499 -1.82160195121793,51.67642571497 -1.8214864028789,51.6763958764274 -1.82145891445769,51.6763814518881 -1.82142146582709,51.6763526312752 -1.82138833777183,51.6763166249788 -1.82137110768156,51.6762707559002 -1.82146134403988,51.6761260825913 -1.82136069553189,51.6759758146107 -1.82144340727164,51.6759256037815 -1.82149854631557,51.6758825404913 -1.82154785349317,51.6758366827553 -1.82160317012164,51.6757477768399 -1.8216440988044,51.6756183992388 -1.82169779852537,51.6755771328504 -1.82178459082525,51.6755808595239 -1.82183517433613,51.6755746441568 -1.82188305155316,51.675558537673 -1.82191925547272,51.6755397160168 -1.82195554595526,51.6754983322648 -1.8219891508198,51.675412089762 -1.82233900284609,51.6754422838055 -1.82234519196735,51.6753533031551 -1.82236130983886,51.675286809832 -1.82238752051805,51.6752311188126 -1.82246028624714,51.675131362903 -1.82271596791106,51.6748161502422 -1.82284076902219,51.6747039782237 -1.82292353964956,51.6746375854629 -1.82295842233088,51.6745899969951 -1.82298177027701,51.6745342116008 -1.82299354242087,51.67448119518 -1.82298803821166,51.6743939951219 -1.82288022429772,51.6742463251696 -1.82285160662921,51.6741545953799 -1.82284624225579,51.6740620015589 -1.8228565408706,51.6740197699485 -1.8228986627508,51.6739505293572 -1.82303508857222,51.6738221945742 -1.82301833693812,51.6736837407342 -1.82314887227747,51.6735678914263 -1.82316497802417,51.6735346572801 -1.82317089688883,51.6734843285402 -1.82316531595195,51.6734474651241 -1.82307890053575,51.6733475586347 -1.82305765003213,51.6732314803895 -1.82304487686542,51.6731739321039 -1.82303339099827,51.6731532407632 -1.82300891935509,51.673129832397 -1.82296704432674,51.6731054995167 -1.82291941975403,51.6730874501502 -1.8228904677742,51.6730820124764 -1.82265598534928,51.6731301984821 -1.82260271342992,51.6730932638244 -1.82256225343355,51.6730725277167 -1.82251605166559,51.6730571768711 -1.82245240868814,51.6730498892063 -1.82232369710196,51.6730649761661 -1.82223690954025,51.6730612490013 -1.8221574365448,51.6730467458343 -1.82209539644208,51.673025977745 -1.82199439330544,51.6729682055834 -1.82193666366603,51.6729123872331 -1.82189509394963,51.6728404132983 -1.82192270942729,51.6727910167006 -1.82191558781782,51.6727523534938 -1.82190407800844,51.6727379542138 -1.82185934209318,51.6727136156946 -1.82174962802567,51.6726881902779 -1.82168739480142,51.6726862983046 -1.82159481514374,51.6727006292572 -1.8213063972298,51.6728512032536 -1.82123261925412,51.6728744622857 -1.821177640033,51.6728779741616 -1.82112556349334,51.6728707034097 -1.82109960638814,51.6728616750844 -1.82096400188189,51.672779669484 -1.82099027982137,51.6727068996183 -1.82102813819602,51.6726610246227 -1.82104707510663,51.6726053218805 -1.82102012870488,51.6724839314144 -1.82100149348549,51.6724317679203 -1.82098858559814,51.6724092759199 -1.82092660505021,51.6723434727818 -1.82091952531947,51.6723245853469 -1.8209152438297,51.6722913194778 -1.82092121302911,51.6722589693008 -1.82093577470346,51.6722248330531 -1.82096342622365,51.6721970098911 -1.8210213983452,51.6721602442468 -1.82108681190973,51.672080342704 -1.82109404004289,51.6720613880852 -1.82108984530724,51.6720362128504 -1.82106827582533,51.6720029206165 -1.82102927523166,51.6719758948935 -1.82099320776596,51.6719605589082 -1.82092528165483,51.6719514655914 -1.82086887542901,51.6719540769006 -1.82056701282345,51.6718556367298 -1.82048774401878,51.6717898968229 -1.82039680542129,51.6717510153077 -1.82038819703953,51.6717267324329 -1.82040427021235,51.6717024864489 -1.82056622133744,51.6716928473008 -1.82057637452173,51.6716883680103 -1.82061409088659,51.6716479759028 -1.82062589526481,51.6716174320494 -1.82062600480202,51.6715895668452 -1.82061439831846,51.6715697733235 -1.8205928808301,51.6715535603198 -1.82042095416007,51.6714921725376 -1.82035749387647,51.6714696039632 -1.8203186983589,51.6713903524346 -1.8202003953772,51.671337136952 -1.82012442911576,51.6711599394637 -1.82010574764468,51.6711202702515 -1.82007845583846,51.6710869690555 -1.82005241892283,51.6710680524867 -1.81989652896428,51.6709923067227 -1.8198316096569,51.6709769260778 -1.81979976215454,51.6709804728364 -1.81974615488451,51.6709992671057 -1.81960423789221,51.6710682632606 -1.81953175717615,51.6710960171493 -1.81945941984294,51.6711174790036 -1.8194072740781,51.6711282756822 -1.8191136748974,51.671143104271 -1.818925712452,51.6711275333282 -1.81864195412578,51.6712160841603 -1.81852765444279,51.6712356831689 -1.81847995993262,51.67123650852 -1.81839748952099,51.6712273921333 -1.81834273441678,51.6712048350469 -1.81827484530661,51.671157088749 -1.81826633526227,51.6711381989352 -1.81827071700001,51.6711156435017 -1.81828521943321,51.6710967893374 -1.81831856313958,51.6710770661087 -1.81845212790977,51.6709496304019 -1.81849151011263,51.670880477031 -1.81850058186381,51.6707581526217 -1.81849227201856,51.6706889254483 -1.81844500666894,51.6705522219597 -1.81830087557322,51.6704584239699 -1.81820578711564,51.6703549047401 -1.81803238990065,51.6703357592481 -1.81801373186236,51.6702907865766 -1.81799224446565,51.6702377190117 -1.81784087302443,51.6701367187143 -1.81801198181154,51.6700120383681 -1.81803667844158,51.6699779190973 -1.81803253936973,51.6699392611623 -1.81801525210202,51.6699095706717 -1.81796917979408,51.6698626672452 -1.81776421737485,51.669776954521 -1.81770511247976,51.6697094466276 -1.81772153451081,51.6695980097292 -1.81765522666468,51.6695429851223 -1.81753972429839,51.6695068496041 -1.81751677179363,51.6694627684094 -1.81762378255284,51.6694458565163 -1.81787048443548,51.6692295173304 -1.81787052748159,51.6692187312616 -1.8178417509806,51.6691701462614 -1.81771495015303,51.6690674764591 -1.81762848010441,51.6689864424106 -1.81755653419528,51.6689107340456 -1.81753639538349,51.6688783425075 -1.81753079946523,51.6688468727377 -1.81753663617384,51.6688181172892 -1.81758605396027,51.668743586755 -1.81758464400948,51.6687381914937 -1.81753421665285,51.6687075502288 -1.81746194747598,51.6686831680601 -1.81740999524809,51.668675896729 -1.81717435122382,51.6686620460479 -1.81716293404991,51.6686251741152 -1.81722823037491,51.6685748482754 -1.81724274887937,51.6685514994383 -1.81724857997611,51.6685245422826 -1.81724725790978,51.6684975730808 -1.81723158151154,51.6684526049135 -1.81720281912862,51.6684004240907 -1.81718264622742,51.6683770220816 -1.81697226844428,51.6682166021593 -1.81690158546156,51.6681535696903 -1.81679942833335,51.668031160657 -1.8167750530154,51.6679852796899 -1.81675938483866,51.6679384232633 -1.81675531975136,51.6678521233058 -1.81680257660338,51.6676031160893 -1.81696173718265,51.6672158539362 -1.81670079681829,51.6670310847709 -1.81664663589268,51.6668323456329 -1.81657926109427,51.6666883284635 -1.81654974773772,51.6661120047214 -1.81652324948119,51.6651714570474 -1.81653891317445,51.6648630728074 -1.81599902380797,51.6642966463079 -1.81543444896896,51.6637355714854 -1.81519817902053,51.6635292644137 -1.81539237256716,51.6634396808709 -1.81557961213147,51.6632421301175 -1.81585077037266,51.6630448007872 -1.81601872505605,51.6629875361591 -1.8162111675235,51.6629472981362 -1.81630526492075,51.6629366585222 -1.81642520345637,51.6629323524116 -1.81660305786579,51.6629326307018 -1.81705834126993,51.6629541058369 -1.81725357851711,51.6629598033363 -1.81734608839557,51.6629581500756 -1.81741693341467,51.6629491817278 -1.81768324510663,51.6628884712398 -1.81785533373737,51.6628698619997 -1.81808810990411,51.6628783138462 -1.81816185938866,51.6628883152056 -1.81825436406219,51.6628884585715 -1.81830780093893,51.6628804517403 -1.81842654313646,51.6628473771009 -1.8187608261519,51.6627804770227 -1.81884909659479,51.6627662315392 -1.81893435367333,51.6627600709536 -1.81901672100004,51.6627610963173 -1.81906307539044,51.6627656626607 -1.81917856630748,51.6628008975536 -1.81923493285116,51.6628054783638 -1.81953721620235,51.6627816740729 -1.82017588250382,51.6624904262226 -1.82030350852729,51.6624106212058 -1.82094344090809,51.6621589218509 -1.8218309234464,51.6618536627286 -1.8229544317742,51.6614525717646 -1.82358701240696,51.6612448924762 -1.82367272636297,51.6611506380095 -1.82376101793137,51.6610986355264 -1.82382188400049,51.6610798502967 -1.82391444781897,51.6610637192518 -1.82410679867818,51.6610433338059 -1.82416465024298,51.6610335326407 -1.8242602381546,51.66100581047 -1.82431528735819,51.6609807240451 -1.8244123543608,51.6609089583992 -1.82446012242013,51.6608865575446 -1.82457600773067,51.6608498758316 -1.82525305219874,51.660731245248 -1.82543821648063,51.66068837366 -1.82567555849956,51.6606231078869 -1.82589421785417,51.6605488251395 -1.82620547377668,51.6604179593014 -1.82743611630884,51.6599729386146 -1.82781372990331,51.6598809076382 -1.82836532443103,51.6596748819892 -1.82856952531559,51.6595763033507 -1.82867373973568,51.6595351066038 -1.82882435694183,51.6594848988223 -1.82931644192462,51.659348086219 -1.82967108734957,51.6592119702732 -1.83043383905628,51.6589855673277 -1.83097821731693,51.6587588439797 -1.83154434997409,51.6585141716948 -1.83179180830556,51.6584471106587 -1.83223641741673,51.6582499019586 -1.83249685026295,51.6581873519307 -1.83275451039919,51.6581005275998 -1.83308612683062,51.6579328173356 -1.83349843529667,51.6578632897736 -1.83374468342596,51.6577341997499 -1.83424671490245,51.657606279347 -1.83447111005641,51.6575203024711 -1.83504684758867,51.6574123483734 -1.83571520674138,51.6572675761557 -1.83616481616418,51.6572637102703 -1.83627186090409,51.6572611632179 -1.8363556808629,51.6572531905808 -1.83662776102744,51.6571969398417 -1.83684338299419,51.657129822877 -1.8369286787254,51.6571092674245 -1.83715143368494,51.657079913192 -1.83730032679446,51.6570738276166 -1.8381483383454,51.6568501891112 -1.83880954273252,51.6566676360444 -1.83962143779567,51.6564062737981 -1.83988906543734,51.6563598074245 -1.83993844825373,51.6563149300783 -1.84002098418147,51.656264704859 -1.84015701492645,51.6562208447379 -1.84022786912142,51.6562047611426 -1.84036819681802,51.6561932669289 -1.84049391905381,51.6561997302263 -1.8407250176369,51.656236898559 -1.84077134575755,51.6562477485368 -1.84088822937965,51.6562937501847 -1.84100678227401,51.6562714385971 -1.84109072269319,51.6562625635997 -1.84118036907772,51.6562581911054 -1.84125700207993,51.6562600922586 -1.84132491222748,51.6562682746886 -1.84158204622298,51.6563252523934 -1.84167020535839,51.6563028990746 -1.84173818275108,51.6562913046209 -1.84180768319028,51.6562878036051 -1.8418857335045,51.656293301948 -1.84192897195775,51.6563014498622 -1.84209651015315,51.6563484177192 -1.84228718956301,51.6563900233776 -1.84252837356864,51.6564758320749 -1.84264848738074,51.6564157675509 -1.84272808876822,51.6563861215641 -1.84281493012093,51.656365563014 -1.84289446749705,51.6563548834316 -1.84293059051273,51.6563522352785 -1.84339029634225,51.6563555466444 -1.84353487418187,51.6563557396352 -1.84354213789755,51.656357546721 -1.84391918713468,51.6564129717499 -1.84413032469093,51.656397971578 -1.84517396734763,51.6564299161169 -1.84606288742223,51.656466143209 -1.84620014585611,51.6564807051609 -1.8462925698829,51.6565006021749 -1.84644713385484,51.6565439511212 -1.8477918149972,51.6564459276941 -1.84806238226155,51.656408525207 -1.84903109915627,51.6563557529403 -1.8495328037963,51.6563096556473 -1.84968170162515,51.6563008578456 -1.85048414193447,51.6562848044654 -1.85065944523418,51.6565844481593 -1.85053458802043,51.6567497743001 -1.85051860902847,51.6567884064422 -1.85051262168173,51.6568333435469 -1.85051836779089,51.6568621145686 -1.85055574250624,51.6569142983168 -1.85072879698096,51.6570638238071 -1.85088462074921,51.6571611020043 -1.85106727633213,51.6574373828722 -1.85110734308838,51.6575417050617 -1.85111306035841,51.6575794656789 -1.85108956501234,51.6576936849787 -1.851093559658,51.6577844777572 -1.85111508585547,51.6578357420447 -1.85114533391767,51.6578807242743 -1.85118274826575,51.6579212225562 -1.8513688269844,51.6580626739772 -1.85141490794848,51.658113968429 -1.85151848498193,51.6582615173648 -1.85157595018657,51.6583677496185 -1.85180086003126,51.6585550025567 -1.85186119789194,51.6586944968073 -1.85208175649153,51.6588646652962 -1.85216116993052,51.6589295749887 -1.85219134630662,51.658960175002 -1.85224605790884,51.6590339532424 -1.85227333928792,51.6591121908335 -1.85230204247191,51.6591562725535 -1.85259619952333,51.6593850500355 -1.85280944689601,51.6596065347654 -1.8530498898654,51.6599341209163 -1.85301029453588,51.6600886803051 -1.85302171845643,51.6601318410334 -1.85304041578154,51.6601741126294 -1.85307210259915,51.6602173886598 -1.8531628747881,51.6603100882978 -1.85318160989023,51.6603406737201 -1.85319303836892,51.6603820370431 -1.85319847733453,51.6604701349561 -1.85313428848428,51.660636438793 -1.85360233996295,51.6607646658936 -1.85348060537071,51.6608482009308 -1.85343572844742,51.6608661223663 -1.85326358199877,51.6609090534797 -1.8532462361057,51.6609279084362 -1.85322726380484,51.6609710310932 -1.85322569528302,51.661014176431 -1.85324725717057,51.661055552427 -1.85328611450598,51.6610933534767 -1.85334965911286,51.6611276814196 -1.85340739648232,51.6611511242048 -1.85371943695336,51.6612360092859 -1.85404356764861,51.6616032492744 -1.8542420456086,51.6619011187016 -1.85431562680214,51.6619659297304 -1.85435750998633,51.6619902514911 -1.8544310746468,51.6620227030806 -1.85501464132855,51.6621925067585 -1.855701431086,51.6621780729272 -1.85595740514698,51.6621658032012 -1.85629426422474,51.6621707113374 -1.85681185665,51.6621704453681 -1.8573451672349,51.6622133435289 -1.85760495284483,51.6623547846433 -1.85817752396921,51.6628077989747 -1.85831583111256,51.6629913387468 -1.85880041621946,51.6633750292379 -1.85912363939557,51.6635911516873 -1.85931667207912,51.6638125992008 -1.85946826865721,51.6638640178612 -1.85958751133435,51.6641249280507 -1.86019305597999,51.6646849395269 -1.86041685525093,51.6647894772764 -1.86053239475268,51.6648210758314 -1.86064558528252,51.665153888603 -1.86059155391332,51.6653193092863 -1.86060561782458,51.6654766313867 -1.86048800732311,51.6656150101682 -1.86045599758528,51.6656733994066 -1.86043855539833,51.6657246155136 -1.86043415960104,51.6657587678916 -1.86043975881778,51.6657992243798 -1.86046851551454,51.6658685628779 -1.86063991135984,51.6660755106322 -1.86066149061531,51.6661141887072 -1.86067004786927,51.6661619299701 -1.86066843137053,51.666223051904 -1.86065513322548,51.6662832617112 -1.86062314447094,51.6663740112295 -1.86065598290122,51.6664739164514 -1.8607034943162,51.6665701543982 -1.86072058430203,51.6666348942271 -1.86072622019671,51.6667023178834 -1.86071874158475,51.6667697250637 -1.86070125238134,51.6668363120209 -1.86068515987145,51.6668749453305 -1.86059081170671,51.6670069696912 -1.8605340619221,51.6671247458939 -1.86049905660973,51.6672271779787 -1.8604784910358,51.667325131511 -1.86046930706551,51.6674825158587 -1.86048614353167,51.6676686057823 -1.86050043800908,51.6677117691416 -1.86050031418413,51.6677523087278 -1.86048717934982,51.6677981368896 -1.86044791560815,51.6678502252732 -1.86024496844607,51.6680171768261 -1.86022615939567,51.668046907103 -1.86018966314367,51.6681295615199 -1.86016194877798,51.6682257099683 -1.86014232038271,51.6684837563261 -1.86039391620406,51.6685110232558 -1.86066267964754,51.6685769615701 -1.86072614523306,51.6686031049587 -1.86079979312316,51.6686526309632 -1.86084729385169,51.6687148002378 -1.86085590541565,51.6687444741311 -1.86084694328468,51.6688298570441 -1.86087124729524,51.6689134829365 -1.86088832804592,51.6690205607303 -1.86170890225768,51.6692705232407 -1.86187512195665,51.6693031683618 -1.86196898607865,51.6693311442654 -1.86207734954129,51.6693744190053 -1.86246119798419,51.6696302430081 -1.86261255111996,51.6697697482303 -1.86271201414485,51.6698795288479 -1.86277110153654,51.6699354186821 -1.86285200428617,51.6699921432315 -1.86317403996698,51.6701093749024 -1.86336620123785,51.6701599366462 -1.8634586701698,51.6701771235942 -1.86353673896358,51.670185304069 -1.86362937221512,51.6701872092187 -1.86377103543198,51.6701801834181 -1.86400092349001,51.6702137086994 -1.86408328962132,51.6702200964052 -1.86419172671459,51.6702399978159 -1.86425521242079,51.6702608352597 -1.864321650805,51.6702914740596 -1.86437507895342,51.6703265925971 -1.8644212190505,51.6703670957509 -1.86445719604179,51.6704174750281 -1.86458793678804,51.6707161464248 -1.86483974949807,51.6706346381953 -1.86488898162816,51.6711210833312 -1.86494188077042,51.6713360675673 -1.86499610383968,51.671546559374 -1.86505496448349,51.6717210116015 -1.86510108270851,51.6717696040506 -1.86512695780735,51.6718091853576 -1.86514127099809,51.6718479432341 -1.86514555560856,51.6718910953817 -1.86513671359288,51.6719378272106 -1.86503058010216,51.6721454370195 -1.86508942927905,51.6722839333338 -1.86516435090013,51.6723900888084 -1.86519734616927,51.6724819023552 -1.86520289741044,51.6725403369015 -1.86519986311738,51.6725987606789 -1.8651807752299,51.672683233978 -1.86528071923291,51.6731185901749 -1.86531658271828,51.6732085196687 -1.86534682591208,51.6732633868814 -1.86549087098811,51.6734622953214 -1.86557738288227,51.6735612724523 -1.86598841958053,51.673915993805 -1.86610970623739,51.6739898414422 -1.86619925070362,51.6740313824764 -1.8663350318337,51.6740818740778 -1.86621187865973,51.6741572401215 -1.8663413245229,51.6744172564044 -1.86676209720158,51.6744231282978 -1.86700202249681,51.6744575582164 -1.86718704961241,51.6745090047125 -1.86729103119277,51.674547774814 -1.86738487034518,51.6745892289859 -1.86746868303046,51.6746342683252 -1.86761159430905,51.6747360941078 -1.86783217011035,51.6749475804909 -1.86791299005283,51.6749972008692 -1.86804021997445,51.6750377938754 -1.8683553267146,51.675093878806 -1.86874559391575,51.6751365644064 -1.86863672516361,51.6753037245101 -1.86863802618657,51.6753486705486 -1.86865382831434,51.6753684640116 -1.86868705788496,51.6753819838878 -1.86885473294793,51.6754154308751 -1.86901960551704,51.6754281995896 -1.86902387463979,51.6754362939516 -1.86901505911492,51.6754749364779 -1.86899340268658,51.6755009802462 -1.86896293439882,51.6755225193445 -1.86886157488716,51.6755655523108 -1.86878197494051,51.6755889245987 -1.86863269430582,51.6757101067165 -1.8686383615236,51.6757298888246 -1.86866281165979,51.6757694668337 -1.86870609130357,51.675812661599 -1.86889090485296,51.6759406007126 -1.86909309572909,51.6760388044877 -1.86919843440312,51.6761054397768 -1.86934987984776,51.6762279469721 -1.8697267831611,51.6764449978573 -1.86982484195389,51.6765557598371 -1.87004291238496,51.67664858744 -1.87016976452981,51.6767826616579 -1.87019582058481,51.6768033645088 -1.87036896943726,51.6769267935509 -1.87063608571713,51.6770924841854 -1.87176125143367,51.6781215056388 -1.87209307337012,51.678435669049 -1.87245373148368,51.6787588525176 -1.87255320141069,51.6788812090697 -1.8726856121232,51.6790791976529 -1.87282945144921,51.6793706823627 -1.87300949017822,51.6796387456689 -1.87306717620043,51.6797359776087 -1.8731174540469,51.6798385046449 -1.87322795436412,51.6801560206905 -1.87326180091002,51.6804644650382 -1.87329606682247,51.680621897006 -1.87334919398109,51.6807729672246 -1.87353300380125,51.6812325861863 -1.87353234399774,51.6814708798328 -1.87354668421451,51.6815464016968 -1.873571114134,51.681595956415 -1.87362005277176,51.6816661225223 -1.87370374944521,51.6817605957169 -1.87368750714061,51.6818549603047 -1.87384363535243,51.6824090217645 -1.87388368376944,51.6825898311432 -1.87428016748493,51.682522840252 -1.87480549042022,51.6824406148579 -1.87506879398811,51.6824040417332 -1.8753277918893,51.6823719573522 -1.87581819799769,51.6823230394747 -1.87644927020444,51.6822068510972 -1.87669370948343,51.6821773558682 -1.87685424572099,51.6821721315803 -1.87828107502591,51.6819390122714 -1.87864724520978,51.6818754817937 -1.87896993224509,51.6817940168391 -1.8797703564821,51.6815791075234 -1.88005858234215,51.6814489749838 -1.88062295959555,51.681336291547 -1.88091258528155,51.6812169444445 -1.88109777660823,51.6811757835813 -1.88148304457719,51.6809640372351 -1.88168579268536,51.6808661734674 -1.88225351277506,51.680608674998 -1.88234747995176,51.6806105676455 -1.8824139928194,51.6806223196527 -1.88247464743444,51.6806404478642 -1.88252085892365,51.6806629664693 -1.88256714575459,51.6807034625936 -1.88281831869004,51.6808798956259 -1.88293262015141,51.6808584367148 -1.88319472799895,51.6807238654594 -1.88367687109393,51.6805372863864 -1.88381427386284,51.6805284339441 -1.8839127885126,51.6804772948026 -1.8848898835319,51.6801734463634 -1.88569339631912,51.6798451509503 -1.88626666071619,51.6796460665675 -1.88674162084866,51.6794128159146 -1.88721501507343,51.6792325069763 -1.88791577243382,51.6789238723589 -1.88857172731432,51.6785972135274 -1.88906710141249,51.678296467088 -1.88929434554478,51.6782652209981 -1.8897068841292,51.6780920359071 -1.89009626635531,51.677976444731 -1.89053202009657,51.6777673227083 -1.89089096382508,51.6776624883845 -1.892001048179,51.6773515134811 -1.89303291494627,51.6770314680113 -1.89328914846433,51.6769391169676 -1.89458334297846,51.6770283795371 -1.89486521053124,51.6770915548461 -1.89505057742409,51.6770135172383 -1.89559342677627,51.6774105007954 -1.8969420981068,51.6783611875175 -1.89711391686279,51.6784755871412 -1.89807864098352,51.6791157168123 -1.89901313594195,51.6796865091691 -1.89914777022065,51.6796326919121 -1.89922034931653,51.6795446636404 -1.89924504016653,51.6794880551244 -1.89928436724511,51.6793378854918 -1.89930472612796,51.6792983515388 -1.89953530163723,51.6789982325028 -1.89970521102327,51.6786818810304 -1.89980699023046,51.6784373817313 -1.89981153296832,51.678378058431 -1.8998005392704,51.6781163843209 -1.89975634231226,51.6778242089643 -1.89970310311048,51.6776865443014 -1.89966702358362,51.6776631420028 -1.89937530209758,51.6774668446142 -1.89899125104818,51.6771787813689 -1.89844250215744,51.6767952920362 -1.89829838699859,51.6765577709302 -1.89824111121814,51.6763078315264 -1.89816640258738,51.6760685731242 -1.89813067652605,51.6758868775103 -1.89807450601721,51.6757834569233 -1.89804560385382,51.675750173384 -1.89789974824819,51.6756538650439 -1.89785084312406,51.6755548555754 -1.89775843855951,51.6754981451452 -1.89770785264673,51.6754576512604 -1.89766467666145,51.6754090734007 -1.8976315272451,51.6753560103806 -1.89760853268376,51.6752947758415 -1.89760283736257,51.6752291524298 -1.89761466291424,51.6751132068094 -1.89760465310975,51.6750574674806 -1.89757877229494,51.6750071073201 -1.89754274530267,51.6749611431697 -1.89746907558208,51.6748990550212 -1.89714877560624,51.6745921651145 -1.89709101240334,51.6745094167265 -1.89705945051448,51.6744410740119 -1.89696838747083,51.6743726789467 -1.89683866881982,51.6742088778123 -1.8968184806943,51.6741729042516 -1.89678404380039,51.6740569179031 -1.89687048726986,51.6735840015231 -1.89689722003828,51.6732567410937 -1.89689017904556,51.6731542624088 -1.89687450994383,51.6730705618892 -1.89685723556948,51.673011220399 -1.89676960157914,51.6727990068349 -1.89664392913908,51.6726936361049 -1.89659220487966,51.6725785335349 -1.89655036066686,51.6725227659503 -1.89631653464127,51.6723175232371 -1.8962401622354,51.6721880159833 -1.89588084247445,51.6718541205965 -1.89547685665235,51.671450880985 -1.89534131113429,51.6712862635766 -1.89521883423068,51.6710910059406 -1.89513810475433,51.6709920558492 -1.89501549154891,51.670856125068 -1.8949505334796,51.6707949421757 -1.89484806000635,51.6707157480874 -1.8947818006951,51.6705988341807 -1.89470104625149,51.6705114790851 -1.8946375962904,51.6704682757201 -1.89456103368796,51.6704250605047 -1.89441072199158,51.6703584073004 -1.89423591554253,51.6703151031748 -1.8941087394343,51.670297908942 -1.8940335576558,51.6702762677534 -1.89395984179362,51.6702392570015 -1.89389496903148,51.6701933545076 -1.89385025948972,51.6701420781114 -1.89383291898101,51.6701132979065 -1.89381286879619,51.6700197958494 -1.89377692470683,51.6699414703745 -1.89369038137222,51.6698326260776 -1.89363266922485,51.669784034305 -1.89336407681374,51.6696210009183 -1.89303323681606,51.6695146306342 -1.89305939391525,51.6694436429387 -1.89305802342565,51.6694175737356 -1.89303218227561,51.6693537289502 -1.89297601064826,51.6692592055334 -1.89294284568202,51.6692169271614 -1.89277518564091,51.6691790204071 -1.89265659602478,51.6691627315819 -1.89263072174332,51.6691132693609 -1.89262515489287,51.6690467465518 -1.89261071123405,51.6690034971036 -1.89256602541014,51.6689432305776 -1.89212444125763,51.6685804830385 -1.89190653177847,51.6684166845856 -1.89195951995198,51.6679913812397 -1.89201174481736,51.667333264653 -1.89178712295855,51.6669365594335 -1.89176249920417,51.6669131652541 -1.89173368685531,51.666896958528 -1.89155738396233,51.666838368049 -1.8912250321247,51.6667759466842 -1.89026870023751,51.6664136117166 -1.8896359549877,51.6661423619565 -1.88914623352822,51.6659863912448 -1.88873294313203,51.6658754366373 -1.88846129251033,51.665809468551 -1.8881108667061,51.6654413998651 -1.88786410355561,51.6652425105753 -1.88869449174141,51.6650229870235 -1.88893730835389,51.6650807468231 -1.88901255069657,51.6650736269209 -1.889084848799,51.6650512232534 -1.88914132411949,51.6650153210032 -1.88918054229824,51.6649677180175 -1.88919365899718,51.6649173029465 -1.88919083694816,51.6649011202051 -1.88891647924521,51.6647246783322 -1.8886650826044,51.6646660120634 -1.88862901245662,51.6646453028321 -1.88857118081879,51.6646020115708 -1.88852361488476,51.6645534260257 -1.88849331894278,51.6645111500291 -1.88848040634668,51.6644778784329 -1.88848054929531,51.6644194513886 -1.88857337902842,51.6643368421517 -1.88873981263829,51.664233539004 -1.88875439378068,51.6642182719503 -1.88876603010763,51.6641886203086 -1.8887616933997,51.6641580534288 -1.88872280395893,51.6641202632268 -1.88858560531271,51.6640653010619 -1.88856396604252,51.6640419090272 -1.8885308390911,51.6639879441805 -1.88850486578209,51.6639329979875 -1.88849341406273,51.6638871433818 -1.88849066633178,51.663841297975 -1.88849810678053,51.6637720908699 -1.88845994712313,51.663387242093 -1.88846895109266,51.6632640132849 -1.88845045290088,51.6631264663625 -1.88842606947139,51.6630554305993 -1.88835983816466,51.6629384221672 -1.88815500924621,51.662755752551 -1.88806730036998,51.6625497343246 -1.88806316373364,51.6624868083459 -1.88808357073975,51.6624292989247 -1.88813710893916,51.6623744287218 -1.88842099691173,51.6622057097251 -1.88858316065421,51.6620907165657 -1.88860785133816,51.6620359085655 -1.88860503406035,51.662017928418 -1.88837968964325,51.6619386113609 -1.88801985763608,51.6618699512292 -1.88795196332483,51.6618483130325 -1.8878956412584,51.6618230902218 -1.88786386329071,51.661802385747 -1.88783496590508,51.6617744027673 -1.88781335020326,51.6617420218673 -1.88780484626714,51.6617096535484 -1.88780783354271,51.6616584205487 -1.88794870596603,51.6613789122974 -1.88800268529192,51.6611928944659 -1.88799559146058,51.6611208869879 -1.88794672875522,51.6610192657572 -1.88790063678433,51.6609545021383 -1.88781263284964,51.6608708207685 -1.88752385958356,51.6607032612449 -1.88737077329821,51.6606671579898 -1.88716396804601,51.6606624646079 -1.88711487843067,51.6606534275731 -1.88705569269762,51.6606299998648 -1.88702252316959,51.6605949111112 -1.887018337677,51.6605517607762 -1.88703570555469,51.6605184283391 -1.88718791793267,51.6603774503194 -1.88734294622027,51.6602058230234 -1.88736622530454,51.6601438225552 -1.8873634419324,51.6601123588485 -1.88735195230874,51.6600826841377 -1.88732461333822,51.6600511967591 -1.88728415425971,51.6600232923951 -1.88723652323872,51.6600034706899 -1.88718160248718,51.6599908332769 -1.88713679479886,51.6599862960965 -1.88711652789675,51.6599871756665 -1.88679692390157,51.6600461929166 -1.88675209466083,51.6600497451618 -1.88665377378055,51.6600415593592 -1.88662638088291,51.6600325440538 -1.8866047198973,51.6600190394854 -1.88658168578784,51.659982163045 -1.88658606085262,51.6599489088748 -1.8867442972758,51.659685598011 -1.88675882829271,51.6596424657945 -1.88676622377084,51.6595921353133 -1.88676205366797,51.6595435019981 -1.88675046611362,51.6595057375341 -1.88671022020059,51.6594400799355 -1.8862266381995,51.6591491795989 -1.88529855616394,51.658534154093 -1.88442379502834,51.6580081640211 -1.88337603032632,51.657325590181 -1.88312495642918,51.6571608434275 -1.88256920246269,51.6568204184642 -1.88227021724699,51.6567481174835 -1.88224608673092,51.6565844959622 -1.88223017845066,51.6565602102927 -1.88221138374621,51.6565458095909 -1.88216373790094,51.6565340754762 -1.88211021081019,51.656537617252 -1.88197279094025,51.6565806250447 -1.88181396505181,51.6565130488528 -1.88166364444118,51.6565209865735 -1.88160211455376,51.6562565619225 -1.88170601771843,51.656314195943 -1.88175811810857,51.6563088555247 -1.88178269728417,51.6562989924755 -1.88180156410692,51.6562855279802 -1.88182479612098,51.6562433043044 -1.88182627392931,51.6562253283311 -1.8818105078677,51.6561920531127 -1.88179172511234,51.656173157537 -1.88178446077293,51.6561704536706 -1.88152280340521,51.656183672665 -1.88140741172165,51.6560980715808 -1.88131658528391,51.656008091287 -1.881127117708,51.656036662609 -1.88107505041779,51.6560294192715 -1.88105338841937,51.6560177110971 -1.8810448388302,51.6560051180012 -1.88104487640419,51.6559907362447 -1.88106364121312,51.6559709795593 -1.88120690733026,51.6559252822358 -1.88123006376892,51.655912721328 -1.88124023429928,51.6558974507102 -1.88123884916466,51.6558803700809 -1.88122875691742,51.6558650789027 -1.88121138779591,51.6558524768689 -1.88118971411614,51.6558452635237 -1.88105826240679,51.6558397369565 -1.8809193621309,51.6558566749499 -1.88077049815124,51.6558556242623 -1.88070999256662,51.6557934498 -1.88081413974302,51.655757600059 -1.88085328435984,51.655737864157 -1.88087788694134,51.6557190125862 -1.88090112330549,51.6556758899465 -1.88089537956726,51.6556390300196 -1.8806195592643,51.655554253829 -1.88048947384096,51.6555280531116 -1.88042301776879,51.6555082094781 -1.8803869566149,51.6554883078576 -1.88037542797635,51.6554757116654 -1.88046383817691,51.6553958007168 -1.88041188265357,51.6553463091456 -1.88025872369205,51.6553470516963 -1.88007387763313,51.6552506810727 -1.87992097044153,51.6551560512968 -1.87975033459215,51.6551405951618 -1.87972180937508,51.6550201156936 -1.87958749824737,51.6549696399373 -1.87944443095566,51.6549407281563 -1.87940407618634,51.6549218099622 -1.87938529729778,51.654902014848 -1.87937098142184,51.6548623595525 -1.87938848914463,51.6547769832367 -1.8793132304906,51.6547966814171 -1.87924377938356,51.6548280699125 -1.87920334995612,51.6548379160726 -1.87918308763609,51.6548378951575 -1.87915557470498,51.6548306763014 -1.87912963049999,51.6548162668094 -1.87911385013559,51.6547892842958 -1.87916475955427,51.6546482117874 -1.8791649503173,51.6545763011763 -1.87908557210452,51.6545311846841 -1.87901188244372,51.6545436929407 -1.87864059217474,51.6544633072019 -1.87870441233298,51.6543528110593 -1.87864537102568,51.6542799398902 -1.87862528306825,51.6542151087778 -1.87839973132883,51.6542346503992 -1.87835778622572,51.6542319102759 -1.87828416504143,51.6542183501693 -1.87824808393826,51.654206627365 -1.87820780494871,51.6541148988612 -1.87807219978138,51.6540158806077 -1.87777048069098,51.6538608672582 -1.87748610311842,51.6537293326357 -1.87735761867676,51.6536420053634 -1.87722494769693,51.6535608767483 -1.87705747966056,51.6534780039517 -1.87681912762571,51.6533842683859 -1.87672389960834,51.6533401226322 -1.87661130896945,51.6532823859125 -1.8765016009393,51.6532166515398 -1.87638478476409,51.6531347294534 -1.87632568520428,51.6530852275626 -1.87630987633447,51.6530258844187 -1.87630864556849,51.6529520849561 -1.87632464077071,51.6528990676384 -1.8763522911215,51.6528550513799 -1.87639722857901,51.6528092550885 -1.87650003391746,51.6527392510691 -1.87666934385423,51.652668417034 -1.87670410345826,51.652639599229 -1.87672732025649,51.6526045678559 -1.87673756690395,51.6525614314164 -1.87673524115097,51.6523636738768 -1.87670236657883,51.6522242224218 -1.87667794315882,51.652177453766 -1.87663893943539,51.652145053344 -1.87657253363783,51.6521090274271 -1.87652919850067,51.6520919033559 -1.87642523558249,51.6520621299261 -1.87640945308133,51.6520368544923 -1.87641520348318,51.6520260744308 -1.87649483915197,51.6519731233911 -1.87652246930949,51.6519362984256 -1.87652681689683,51.6519156289876 -1.8765140856658,51.6518194340775 -1.87651988959292,51.6517888782857 -1.87657097976531,51.6516270430475 -1.87659847508312,51.6515956109897 -1.87661876762825,51.6515839462124 -1.87667088034,51.6515723158792 -1.87671853675763,51.6515777591757 -1.87678784233018,51.651598507113 -1.8768888992073,51.6516453555196 -1.87696826918619,51.6516903836435 -1.87700727518314,51.6517218857169 -1.87706633955617,51.6517840606851 -1.87717873116068,51.6519145168874 -1.87723926842145,51.6519613224384 -1.87729713636356,51.6519811589224 -1.87735634442285,51.6519902097488 -1.87742569441314,51.6519947772482 -1.8774705101114,51.6519930259039 -1.87751534657881,51.651984084108 -1.87767448382289,51.6519276207041 -1.87781915110863,51.651889120364 -1.87793480200809,51.6518721618432 -1.87805336311036,51.6518803759854 -1.8783105343295,51.6519318796979 -1.87862967537534,51.6520292909086 -1.87891564144951,51.6520988914527 -1.87905157904725,51.6521170104513 -1.87971063020627,51.6521221838646 -1.87975257019131,51.6521267218006 -1.87994329354838,51.6521583787253 -1.88000391442023,51.652174620115 -1.88005011149693,51.652191746728 -1.88021614922174,51.6522746147052 -1.88028400891267,51.6523025495319 -1.88038366813875,51.652338606433 -1.88045155869675,51.6523548559202 -1.88051660733455,51.6523640010278 -1.88058453804456,51.6523649695303 -1.88066834835669,51.65235507725 -1.88075659298857,51.6523353923598 -1.8808375917745,51.6523067103843 -1.88090131217034,51.6522771116208 -1.88094764597956,51.6522421020667 -1.88098685101653,51.6521980965026 -1.88107979316337,51.6520228184276 -1.88124078859754,51.6518009573133 -1.88143491778817,51.6516230851117 -1.88145382728258,51.6515925414811 -1.88148007223376,51.6514909945015 -1.88150327785968,51.6514586578272 -1.88153661170532,51.6514263314064 -1.88163796062136,51.6513625237647 -1.88188990854236,51.6512225515787 -1.8820998322899,51.6510644700101 -1.88231412954248,51.6509199650474 -1.88237643006431,51.6508849710028 -1.88255730721392,51.6508060505993 -1.88261519299723,51.6507727603695 -1.8827803075997,51.65065876709 -1.88287577640914,51.6506094242191 -1.88299448536,51.6505592053814 -1.88333588760285,51.6504345115336 -1.88362823771559,51.6502900820622 -1.88412443606891,51.6501214935325 -1.88413745256131,51.6501116194469 -1.88416353527092,51.6500711946152 -1.88418988972156,51.6499705463088 -1.88420724414433,51.6499417989917 -1.88426669748764,51.6499005089301 -1.88433899458339,51.6498700185681 -1.88450964262912,51.649826950108 -1.88459058001726,51.6498198395636 -1.88487399451578,51.6498129276561 -1.88500403741423,51.6498031678015 -1.88513279795298,51.6497826204158 -1.88521951586773,51.6497512445797 -1.88530782535119,51.6497036901515 -1.88540629339158,51.6496444603467 -1.88556986375026,51.6495240796203 -1.88562344886901,51.6494935701812 -1.88570446004187,51.649456795335 -1.88580000570922,51.649421832024 -1.8859359646972,51.6493815150212 -1.88609504235286,51.6493412194959 -1.88621653755841,51.6493179673038 -1.88629747831674,51.6493090573406 -1.88636969460183,51.6493100258233 -1.88657343121696,51.6493299995069 -1.88669927558615,51.6493310207235 -1.88685969471407,51.6493257830754 -1.88696233817034,51.6493114996994 -1.88702458168816,51.649297178084 -1.88707230313551,51.6492765492964 -1.88719677416136,51.6492064670616 -1.88731689316549,51.6491607392012 -1.88739488786961,51.6491383420795 -1.88750051187646,51.6491231628589 -1.88758285187366,51.6491268377718 -1.8879166120512,51.6491918787331 -1.88797726064166,51.6491964308076 -1.88803220910211,51.6491919895481 -1.88807991008538,51.649179450826 -1.88812476687261,51.6491597180094 -1.88821454580474,51.6490941853088 -1.88825516113439,51.6490546726153 -1.88830011182826,51.6489971874687 -1.88839733772518,51.6488587618572 -1.88840027746263,51.6488264044771 -1.88838734967505,51.6488012232953 -1.88836712966464,51.6487850238875 -1.88829482509264,51.6487714721325 -1.88814455267012,51.648770429249 -1.88797266633541,51.6487388035556 -1.88781666333123,51.648693709298 -1.88770974037413,51.6486558533554 -1.88766498374966,51.6486351363269 -1.88763036956938,51.64860903507 -1.88761316675894,51.6485774675691 -1.88761611813356,51.6485406162981 -1.88763503336728,51.6485055777656 -1.88766537669579,51.6484759432806 -1.88770882347175,51.6484481196667 -1.8877522568929,51.6484256890887 -1.88779137242022,51.6484140413783 -1.88783179144639,51.6484059905823 -1.88823088890136,51.6483596309672 -1.88852589893268,51.6482853044817 -1.8887066397935,51.6482530275451 -1.88880647041524,51.6482180658532 -1.8888643408636,51.6481884572443 -1.88890481291024,51.6481579338229 -1.88892956104828,51.6481255971555 -1.8889353592464,51.6480932433732 -1.88890508060454,51.6480482699804 -1.88881136412685,51.6479708769445 -1.88879556087306,51.6479518953635 -1.88875237451055,51.6478736503098 -1.88874964822125,51.6478188161134 -1.88876843058203,51.6477891703315 -1.8888061656275,51.6477577451923 -1.8890057923309,51.647651776624 -1.88918093351569,51.6475692458625 -1.88926929222011,51.6474974178732 -1.88928962786835,51.6474659760881 -1.88928966722452,51.6474497969264 -1.88928243805433,51.6474336099793 -1.88925068270528,51.6474075119032 -1.88908029151283,51.6473507204063 -1.88894452729434,51.6473154448238 -1.88892001584539,51.6473001405738 -1.88890551907334,51.6472830484503 -1.88889846563463,51.6472434901932 -1.8889405277995,51.6471473496249 -1.88897101419757,51.6471069287954 -1.88926214534221,51.6468599205983 -1.88930567704169,51.6467961414836 -1.88931444701193,51.6467664861236 -1.88931908370655,51.6466243762749 -1.88933654363453,51.6465497854171 -1.88937156122149,51.6464590310767 -1.88941498356299,51.6463906670759 -1.88969183604467,51.6460826103424 -1.88978906160817,51.6459405878128 -1.88982383383795,51.6459010699369 -1.88990918565646,51.6458391273932 -1.89028838815353,51.6456317510721 -1.89043603024916,51.6455330115702 -1.89049398271819,51.6454674472255 -1.89051299196671,51.6453918685668 -1.89051022261591,51.6453541126943 -1.8904987427474,51.6453217417288 -1.89035621908252,51.6450761227721 -1.89038231864055,51.6450258095492 -1.89045036708012,51.6449728382162 -1.89051405813411,51.6449486281929 -1.89091019842699,51.6448788860512 -1.89097958999282,51.644862770699 -1.89107796342318,51.6448349970387 -1.8911242413235,51.6448169718521 -1.89118654399013,51.6447747826721 -1.89124308654906,51.6447002269852 -1.89131710055098,51.6445438896362 -1.89134774207796,51.6444368605738 -1.89137131970024,51.6442436221381 -1.89138721304059,51.6442247602669 -1.8914249328072,51.6441977391543 -1.89147836992126,51.6441753164653 -1.89154346721471,51.6441600959327 -1.89160711229407,51.6441538627665 -1.89166631735175,51.6441611081246 -1.89186277034193,51.6442287969568 -1.89208812741778,51.6442676568032 -1.89222531596636,51.6443028401571 -1.89229035789094,51.6443109906276 -1.89233362831892,51.6443047382871 -1.89237274269796,51.6442921898884 -1.89245376037991,51.644246420685 -1.89249723626937,51.6442033143296 -1.89254509718443,51.6441196722515 -1.89262617587277,51.6440478358778 -1.89268557575059,51.6440227215809 -1.8927172806704,51.6440191550119 -1.8927448041081,51.6440200785221 -1.89278814189211,51.6440354001542 -1.89289342223602,51.6441101041303 -1.89292377832851,51.6441227163791 -1.89340335447162,51.644241897685 -1.89349573706572,51.6442779378202 -1.89367904542016,51.6443626000776 -1.89381192299294,51.6444076646531 -1.89397806570017,51.6444446705593 -1.89405169120395,51.6444510295533 -1.89409078223006,51.6444483684555 -1.89417318181671,51.6444223751065 -1.89447421409494,51.6442536566926 -1.89452392083545,51.6439893386147 -1.89485011950353,51.64416941032 -1.89550662067187,51.6439911197918 -1.89472169573752,51.6421983932302 -1.89458175779362,51.6421173674035 -1.89451824926842,51.6420660732333 -1.89448651548989,51.6420309878315 -1.89443763587207,51.6419400662305 -1.89439739926351,51.6418213769379 -1.89437179423907,51.6416612619698 -1.89434603417289,51.6415686528448 -1.89415354691545,51.6410802933652 -1.89411356080535,51.6408545465977 -1.89404914919315,51.6405775407894 -1.8940178501777,51.640356295772 -1.89401799037656,51.6402960702687 -1.89403719431891,51.640133389193 -1.89402881808952,51.6399957620561 -1.89401880247198,51.6399472126282 -1.89397418760342,51.6398680707712 -1.89387468123033,51.6397735072757 -1.89384737524791,51.6397312343452 -1.89382723907339,51.6396799791688 -1.89381582535441,51.639618844915 -1.89380893864375,51.639506477888 -1.89381372049907,51.6392951534554 -1.89382690433572,51.6392106700667 -1.89386777017454,51.6390578066526 -1.89396082257324,51.6388025168048 -1.89398271837562,51.6387117490784 -1.89398856763254,51.6386560226654 -1.89397709389716,51.638620057236 -1.8939411033685,51.6385723833658 -1.89370310974682,51.6383949968434 -1.89367579635314,51.6383563195379 -1.89366868527583,51.6382888960524 -1.89368775273847,51.6381854514469 -1.89368521176372,51.6379975817092 -1.89367238697737,51.6379283556299 -1.89365083547841,51.6378716161308 -1.89357452404776,51.6377448031254 -1.89356744279578,51.6377160330152 -1.89356456193768,51.6376737822466 -1.89358373507642,51.6375244948143 -1.89357125306141,51.6373087496837 -1.89360087748179,51.6370210429146 -1.89359813062588,51.6369220723668 -1.89358817285778,51.636849254092 -1.89356519897866,51.6367899057493 -1.8935321245963,51.6367188638031 -1.8934113262849,51.6365110204877 -1.8933898176625,51.6364363933634 -1.89338269611999,51.6363743638031 -1.89339016092619,51.6362897852888 -1.89360140399356,51.6355212478298 -1.89365860368254,51.6351580593973 -1.89371558845194,51.6348865566198 -1.89377364508408,51.634767866413 -1.89377954756315,51.6347400063496 -1.89377531985216,51.6347139344701 -1.89373922462425,51.6346617664787 -1.89357771955647,51.6345420672716 -1.89345505100064,51.6344745393312 -1.89342914138725,51.6344483577527 -1.89342193239638,51.6344231822861 -1.89342781400888,51.6344043109812 -1.89351030717402,51.6343306769014 -1.893521905573,51.634312709947 -1.8935219518145,51.6342929341738 -1.89350901269536,51.6342731474669 -1.89346570920247,51.6342470399577 -1.89331118155324,51.6342010560222 -1.89312207131097,51.6341189943969 -1.89301673134138,51.6340793463736 -1.89292577558832,51.6340531959282 -1.89284778196287,51.6340369443073 -1.89278275039802,51.6340305924361 -1.89273223824564,51.6340305460808 -1.89268885493471,51.6340385958666 -1.89263961302809,51.6340556299155 -1.89250364428653,51.6341220219407 -1.89243724267237,51.6341408375114 -1.89240102199376,51.634142602459 -1.89236207877971,51.6341371735186 -1.89232446165927,51.6341245544177 -1.89221189853225,51.6340669214922 -1.89218022818201,51.6340588026605 -1.89215414192113,51.6340569802979 -1.89210075682317,51.6340632232431 -1.89194601788316,51.6341071258351 -1.89189109299202,51.6341088724306 -1.89175535163091,51.6340790839548 -1.89171198947718,51.634078144637 -1.89169171853765,51.6340862163675 -1.89167298225007,51.6340996816952 -1.89166710208599,51.634117654668 -1.89168575780631,51.6341878745789 -1.89168428175779,51.6342076490268 -1.89167112730872,51.6342283108967 -1.89164223512362,51.6342543521505 -1.89159881074821,51.6342794807724 -1.89155398086188,51.6342947201661 -1.89150917734143,51.6342982742666 -1.89147023410102,51.6342928450305 -1.89135466437046,51.6342468937931 -1.8911583212396,51.6342017672882 -1.89104857154247,51.6341639116841 -1.89099516614692,51.6341278160219 -1.89089571060627,51.6340198571696 -1.89085254602012,51.6339865574549 -1.89071394858976,51.6339064273172 -1.89054509152761,51.6338261778652 -1.89051631349997,51.6338045776993 -1.89047596025195,51.6337416176521 -1.89045859480485,51.6337299160754 -1.89043406853448,51.6337236008609 -1.89039511293392,51.6337235643337 -1.89035756251816,51.6337334170206 -1.89023305299026,51.6337899301604 -1.89005229909315,51.6338518732627 -1.88997424892837,51.633858990282 -1.88991075825206,51.6338562339552 -1.88985157993902,51.6338435937495 -1.88981398282119,51.6338236934769 -1.88979677007154,51.6337985083525 -1.88978541183468,51.6337166987326 -1.88977239592675,51.6336798313613 -1.8897422764286,51.6336222746886 -1.88970626380909,51.6335871839044 -1.88964998017822,51.6335601644873 -1.88959212808723,51.6335412331785 -1.88954306727793,51.6335321971599 -1.88948815315989,51.6335303478556 -1.88932189886055,51.6335571568249 -1.8892916401472,51.6335571281669 -1.889251151821,51.6335498993374 -1.88920353681083,51.633534573222 -1.88916165182972,51.6335146677756 -1.88912276281668,51.6334867654539 -1.88910684357139,51.6334687719253 -1.89098585080435,51.6325948424093 -1.89145033996268,51.631693419391 -1.89180395247684,51.6312737866252 -1.89195057018661,51.6309834907983 -1.89225574176581,51.6308435461818 -1.89237878042985,51.630750175303 -1.89256393844573,51.6306325008463 -1.89266949247803,51.6305777660927 -1.89296891743759,51.6304477013513 -1.89328855392454,51.6302834076105 -1.89422717596524,51.6299021426196 -1.89482588747847,51.6296428144089 -1.89501962061126,51.6295728749781 -1.89531019164725,51.6295057194736 -1.89539697551922,51.6294779317467 -1.89549677585653,51.6294365820806 -1.89549963563731,51.6294356854918 -1.8956356683833,51.6293333340332 -1.89571233105844,51.6293037387382 -1.89585695052056,51.6292481368248 -1.8960000058883,51.6291997247157 -1.89641483513722,51.6291244965779 -1.89682824066562,51.6290457599439 -1.8972487148179,51.6290011857546 -1.89768521161147,51.6289296577841 -1.89808260550752,51.628871577688 -1.89852349837143,51.6288035553094 -1.89877206448062,51.6287660175879 -1.89891662463687,51.6287346816196 -1.89933580012692,51.6286289748369 -1.89949913678738,51.6285634966439 -1.89969585517361,51.6284853725187 -1.89969870833885,51.6284880715096 -1.89978550539004,51.6284521909236 -1.90013408141832,51.6282727113437 -1.90022803849609,51.6282305434222 -1.90037271948482,51.6281433849307 -1.9007299355735,51.6279872824661 -1.90106833710369,51.6278274773746 -1.9014253895123,51.6276893502055 -1.90179993360998,51.62755923655 -1.90218594288612,51.6274139411179 -1.90256620857316,51.627279425786 -1.90314583671696,51.6271054332326 -1.90194555326827,51.6263141276145 -1.8982930969396,51.6239066528766 -1.90057863424662,51.6224852275984 -1.90045171271734,51.6224114109642 -1.90200016480727,51.621746463063 -1.90225440573253,51.6217646538135 -1.90472734354196,51.6204314865994 -1.90407322437576,51.6196001064803 -1.90326782232803,51.6186849998865 -1.90259969467508,51.6190270116006 -1.90183424790443,51.6183232579391 -1.9021408170898,51.6181446361123 -1.90185689653627,51.6178710449187 -1.90146625766392,51.6174956980637 -1.90073671954033,51.6175482046727 -1.90068108218002,51.6172307588591 -1.90065378500915,51.6171883983372 -1.90056877597438,51.6170696717189 -1.90038871996464,51.6168492010013 -1.89985844881199,51.6162949407727 -1.9010407578914,51.6159020542876</coordinates></LinearRing></outerBoundaryIs></Polygon>
  </Placemark>
