  <Placemark>
	<Style><LineStyle><color>ff0000ff</color></LineStyle><PolyStyle><fill>0</fill></PolyStyle></Style>
	<ExtendedData><SchemaData schemaUrl="#Wards__December_2019__Boundaries_EW_BFE">
		<SimpleData name="objectid">4846</SimpleData>
		<SimpleData name="wd19cd">E05010525</SimpleData>
		<SimpleData name="wd19nm">Eastwood St Mary's</SimpleData>
		<SimpleData name="wd19nmw"></SimpleData>
		<SimpleData name="bng_e">446372</SimpleData>
		<SimpleData name="bng_n">346176</SimpleData>
		<SimpleData name="long">-1.3103</SimpleData>
		<SimpleData name="lat">53.01091</SimpleData>
		<SimpleData name="st_areashape">1575904.43129103</SimpleData>
		<SimpleData name="st_lengthshape">8269.87038806333</SimpleData>
	</SchemaData></ExtendedData>
      <Polygon><outerBoundaryIs><LinearRing><coordinates>-1.29831028068842,53.0199750702538 -1.29838123794964,53.0199197708521 -1.29877478155541,53.0200119635006 -1.29920091940146,53.020117916594 -1.29920566390307,53.0200981734352 -1.29932755749876,53.0201231567012 -1.2993136809776,53.0201527315628 -1.29942202447235,53.0201794326508 -1.29943315636353,53.0201372601049 -1.29954492287254,53.0201424131488 -1.2996607350816,53.0201709550396 -1.29966826916044,53.0201611138918 -1.29978429979038,53.020176176535 -1.29977667842643,53.0201914089817 -1.30088926467878,53.0203444487234 -1.30093230706675,53.0203582715075 -1.30096813064599,53.0203547985464 -1.30097872206931,53.0203458733481 -1.30131670498074,53.0203704192198 -1.30145197456874,53.020389189152 -1.30198861297707,53.0203968358582 -1.30232090903381,53.02040058526 -1.30277349742702,53.0204373913512 -1.30272119160453,53.0206320972836 -1.30300688143974,53.020667922973 -1.3030632327935,53.0206872156008 -1.30313536210787,53.0204673729509 -1.30353579034718,53.0204993764493 -1.3039304061385,53.0205259536418 -1.30406275039304,53.0205509928388 -1.30441760399829,53.0205431850463 -1.30443110129988,53.0205369733211 -1.30460719919893,53.0205317132809 -1.30462260406519,53.0204985527906 -1.30462715822616,53.0204904908406 -1.30467102527413,53.0202695838941 -1.30596523969902,53.020250189458 -1.30598144840222,53.0202664604296 -1.30690583061279,53.0202538826304 -1.30689144978853,53.0202232440187 -1.30689327208632,53.0200173675542 -1.30686997392107,53.0196073460982 -1.30735166509947,53.0195993705141 -1.30792273318517,53.0195901166261 -1.30794362664355,53.0195902383189 -1.30795125923107,53.0195741064783 -1.30796982077004,53.0195355721616 -1.30803915231718,53.0193965910184 -1.30806730890857,53.0193113806441 -1.30807757380866,53.0192305598406 -1.3080896390406,53.0192216434683 -1.30809207587787,53.0191614462403 -1.30796682878299,53.0191616157686 -1.30790574845003,53.0191612600058 -1.30790762647765,53.0191360181233 -1.30789128096292,53.0191359229136 -1.30789902028567,53.0190209369498 -1.30787073895122,53.0190216711448 -1.30775592525349,53.0190227992563 -1.30772457187362,53.0190235155186 -1.30764109566322,53.0190248269963 -1.30756806529911,53.0190261983915 -1.30748752452392,53.0190284249021 -1.30740245041791,53.0190297268994 -1.30738904039091,53.0190305467653 -1.30738914107691,53.0190242566193 -1.30738782513746,53.0190143633827 -1.30738229820331,53.0188912133054 -1.30738237012842,53.0188867199587 -1.30740475176454,53.0188859514912 -1.30763141719547,53.0188845766159 -1.30765232466851,53.0188837995117 -1.30766117259509,53.0188838510678 -1.30768808752291,53.0188840078948 -1.30768223045783,53.0187814351845 -1.30768230233481,53.0187769427365 -1.30768014328661,53.0187275023282 -1.30768753139368,53.0187266473426 -1.30768754577468,53.0187257484935 -1.30768330872542,53.0187140412728 -1.30767471093322,53.0186906252112 -1.30767193516499,53.0186798245386 -1.30765616493051,53.0186437861156 -1.30774705003719,53.0186479104986 -1.30776032268439,53.0185635124005 -1.30772299101328,53.0185614970303 -1.30764711233883,53.0185565620376 -1.30762769505398,53.0185564488902 -1.30761911170941,53.0185321339746 -1.30761069664717,53.0185050351444 -1.30759768070966,53.0184735056292 -1.30759178264893,53.0184734712581 -1.30757182442154,53.0184149413827 -1.3077195943195,53.0184050179545 -1.30782847223416,53.0183984626144 -1.30782168787203,53.0183615776266 -1.30782175973231,53.0183570851782 -1.30781340628766,53.0183183931826 -1.30785955680214,53.0183222568664 -1.30785839887205,53.0183024789891 -1.30785288017578,53.0182709931755 -1.30792447666334,53.0182669164657 -1.30792443353694,53.0182696130134 -1.30796913862022,53.0182716703698 -1.30797559146633,53.0182447480551 -1.30804110867723,53.0182442307003 -1.30804301537121,53.0182172810073 -1.30806688511507,53.0182156230506 -1.30806865538575,53.0182048488613 -1.30807057785423,53.0181769113323 -1.3082165190713,53.0181813559761 -1.30853510813323,53.0182111592091 -1.30853797024362,53.0182165685638 -1.30857557679552,53.018285985468 -1.30859801550456,53.0182816222784 -1.30860658504255,53.0183068350734 -1.30864636089412,53.0184328811626 -1.30868512905897,53.0184295119037 -1.30919107878149,53.0183947102378 -1.30919404289961,53.0183938285388 -1.30919699267045,53.018393845689 -1.30919846681062,53.0183938542597 -1.30919995677403,53.0183929648886 -1.30920155462865,53.0183929741786 -1.30920304311578,53.0183920839 -1.30920600723345,53.0183912022006 -1.30920748137351,53.0183912107713 -1.30920897133664,53.0183903214001 -1.30921045982351,53.0183894311214 -1.30921194980086,53.0183885408513 -1.30921354616476,53.0183885501324 -1.30921503614201,53.0183876598623 -1.3092165246143,53.0183867704824 -1.30921802893809,53.0183849813629 -1.30921951741021,53.0183840919829 -1.30922100589663,53.0183832017041 -1.30922249587351,53.0183823114339 -1.30922251022008,53.0183814125846 -1.30922399869198,53.0183805232045 -1.30922563957125,53.0183778368451 -1.30922712954784,53.0183769465748 -1.3092271438943,53.0183760477255 -1.30922715824077,53.0183751488762 -1.30922866105875,53.0183733606468 -1.30922868973726,53.018371563847 -1.30923017822301,53.0183706735681 -1.30923020691579,53.0183688758694 -1.30923022124784,53.018367977919 -1.30923023559423,53.0183670790697 -1.30923027861905,53.0183643834206 -1.30924742697204,53.0183141572669 -1.30929067237013,53.0183153076055 -1.30939000066379,53.0182601664427 -1.30994273388222,53.0182741623955 -1.30994617073387,53.0182436276369 -1.30992863798206,53.0182255516515 -1.30991849315402,53.018206530646 -1.30992894027433,53.0182065913227 -1.30995278129163,53.0182067297876 -1.31014201112354,53.0182096265006 -1.31030446454105,53.0182114676525 -1.31035520573661,53.0182126611159 -1.31036731161778,53.018201048855 -1.31069430816365,53.0182587539033 -1.31087261909025,53.0182912418855 -1.31098409618859,53.0183143554169 -1.31101532023609,53.0183217261438 -1.31106725620665,53.0183328108908 -1.3112113760846,53.018366897968 -1.31152619657865,53.0184406165126 -1.31164497673439,53.0184682645978 -1.31183058680567,53.0185133748707 -1.31197015890826,53.0185475245694 -1.31208009181978,53.0185751209823 -1.31221367104548,53.0186073479364 -1.31230428686321,53.0186285415908 -1.31228759895859,53.0186500130802 -1.31228142013015,53.0186598628734 -1.31227689626542,53.0186661274158 -1.31227384655062,53.0186724004906 -1.31227063178804,53.0186813685074 -1.31226609214979,53.0186885318902 -1.31226304392213,53.0186948049734 -1.31225537515859,53.0187055450732 -1.31225076563803,53.0187172009137 -1.31224750804311,53.0187288645793 -1.31224591819322,53.0187360450357 -1.31224586109023,53.0187396395347 -1.31224431556824,53.0187441234513 -1.31228889293638,53.0187542670291 -1.31229189983454,53.0187506896034 -1.31236770186552,53.0187682035331 -1.31237957898665,53.0187709681665 -1.31243308523686,53.0187838592599 -1.31272270977896,53.0188502400217 -1.31278945819652,53.0188650944072 -1.31306283828021,53.0189250887507 -1.3132351419239,53.0189647280728 -1.31339851697482,53.0190016196513 -1.31357524677099,53.0190412831526 -1.31374022033078,53.0190781834906 -1.3138723141546,53.0191112989066 -1.3139108704772,53.0191214062007 -1.31404897223086,53.0191554550408 -1.31410408181604,53.0191602660416 -1.31409805553075,53.0191683198413 -1.31404618699804,53.0192382063003 -1.31400965352895,53.0192865242112 -1.31399298049615,53.0193070970865 -1.3139350724325,53.0193858462548 -1.31378878931198,53.0195810027975 -1.31378576825262,53.0195854782108 -1.31383177840986,53.0195983253687 -1.31414487022604,53.0196891020694 -1.31422058795847,53.0197120060991 -1.31427850737062,53.0197258207472 -1.31440178260223,53.0197570867943 -1.3145413626482,53.0197911426683 -1.31468533713137,53.0198271114778 -1.31461518076933,53.0199264594536 -1.31489919033837,53.0198822653117 -1.31494227123476,53.0198861085264 -1.31504508319479,53.0198902960641 -1.31521508249423,53.0198894780522 -1.31545955927397,53.0198890897903 -1.31584129240042,53.0198831997895 -1.31630894237487,53.0199083585254 -1.31707479183179,53.0199325337948 -1.31735632433899,53.0199440371099 -1.31736262959267,53.0199260992091 -1.31795017002631,53.0199168917802 -1.31801471659963,53.0200718343281 -1.31808637446975,53.020259260057 -1.31827291891391,53.0202459507504 -1.31836143347953,53.0207759570315 -1.31809584593641,53.0207897114295 -1.31815584582905,53.021147817565 -1.31822378989805,53.0215634844393 -1.31825035143937,53.0215861027612 -1.318295298741,53.0218542551695 -1.31830228963998,53.0219801095519 -1.31852121953481,53.0219948444635 -1.31863441584225,53.0219954929622 -1.31874318291769,53.0220042036615 -1.31885919715858,53.0220210443386 -1.31897528221441,53.0220334814471 -1.31909145200982,53.0220404372495 -1.31917343099513,53.0220409065219 -1.31925418982662,53.0220251035091 -1.31933062513018,53.0219949854048 -1.31941777176863,53.0219559428347 -1.31948350767645,53.021941939663 -1.31955361583715,53.0219468345094 -1.31968294213372,53.0219691423197 -1.31976156651514,53.0219875652117 -1.31988513409237,53.0220008532602 -1.3200207948177,53.0220034267483 -1.32015356517121,53.0219943001655 -1.32027921498697,53.0219689564957 -1.32096426709975,53.0218254870931 -1.32162022151889,53.0217266918458 -1.32181884771642,53.0217035606167 -1.3219518389702,53.0216881425853 -1.32207904548316,53.0216574141224 -1.32214922813515,53.0216497255436 -1.32220133976747,53.0216500225168 -1.32226848802492,53.0216477092563 -1.32234459443539,53.0216463459259 -1.32244460428572,53.0216334353251 -1.32252385741675,53.0216195083843 -1.3226987084974,53.0215917465215 -1.32261921899139,53.0214322282237 -1.32248373290092,53.0211357041249 -1.32225506253497,53.0205968151494 -1.32208752242247,53.0202596667864 -1.32189377285622,53.0199717954906 -1.32161031632023,53.0196043297033 -1.32095812678453,53.0187906337725 -1.32054874792247,53.0182795566816 -1.32001071345002,53.0177047454248 -1.31857738947255,53.016147694401 -1.31858959043279,53.016129791457 -1.31898740309708,53.0159504513395 -1.31941107496427,53.0157362111506 -1.32017300769893,53.0155266904676 -1.32018811674286,53.0155114989356 -1.31997039093325,53.0152333791799 -1.31942087479968,53.0146315506452 -1.31917348691121,53.0144431246431 -1.31894921248961,53.0142935619277 -1.31876147791811,53.0141963306762 -1.31857842265942,53.014082859203 -1.31835165212629,53.0139045247559 -1.31830330402719,53.0138529340199 -1.31827431655171,53.0137970513946 -1.31826197954651,53.0137295810595 -1.31827214804432,53.0136532542296 -1.31829865992557,53.013577020206 -1.31836745988913,53.0134685877499 -1.31851900957702,53.0133103938362 -1.3187299728351,53.0131641334825 -1.31886415205157,53.0130633547691 -1.31895774104634,53.0129884037933 -1.31898812112196,53.0129553270257 -1.31901863373238,53.0129059860806 -1.3190481028141,53.0128369583531 -1.31906548760059,53.0127705572478 -1.31906749793949,53.0127364199604 -1.31907713383967,53.01259979005 -1.31909017963296,53.0125279715111 -1.31911381036808,53.0124472280588 -1.31914919176899,53.0123773361552 -1.3192009426634,53.0123057392573 -1.31925245704366,53.0122493290168 -1.31939148869467,53.0121288068557 -1.31949486085909,53.0120017898382 -1.31957480267978,53.0118484874657 -1.31960284131149,53.0117686671706 -1.31962685179928,53.0116635724553 -1.31964364731916,53.0115405525728 -1.31964392988407,53.0114282224417 -1.31961813202065,53.0112707200931 -1.31941714739835,53.010686162485 -1.31935532903108,53.0105375301313 -1.31926578587066,53.010354500265 -1.31919042076558,53.0102156755709 -1.31907228007967,53.0100540493603 -1.318969539217,53.0099528112502 -1.31892385947772,53.0099192996234 -1.31884263707374,53.0098721042052 -1.31875092749994,53.0098275444663 -1.31817606422619,53.0096093791716 -1.31698465810913,53.0091764765635 -1.31667187875683,53.009070341953 -1.3165326158475,53.0090183163545 -1.3162779534888,53.0089126060724 -1.31605010682044,53.0088051611129 -1.3158933719447,53.0087233788129 -1.31578854572444,53.0086616662255 -1.31561893381963,53.0085474564187 -1.31554093840133,53.0084831112249 -1.31546027629272,53.0084008674315 -1.31539746959373,53.0083241183153 -1.31532176973449,53.0082077538756 -1.31530720303923,53.008188707967 -1.3150752054125,53.0078700505433 -1.31461804007821,53.0072831889224 -1.31456090720645,53.007220761394 -1.31449774736975,53.0071664765285 -1.31435897613208,53.0070838963358 -1.31405525187,53.0069662135762 -1.31391906304827,53.0069069236028 -1.31373571016549,53.0068231860407 -1.31365142904767,53.0067759681802 -1.31359109198547,53.0067297876619 -1.3135367808854,53.0066755534579 -1.31349299793249,53.0066159883863 -1.31345675294008,53.0065536811394 -1.31341100243593,53.0064320960535 -1.31340005148392,53.0063709239227 -1.31338676637547,53.0060768929705 -1.31335475696798,53.0052811195552 -1.31335542530561,53.0052388857222 -1.31336743995255,53.0045728639642 -1.31334374743007,53.0045637403606 -1.3132005645533,53.0045665066974 -1.31304852255407,53.0045701196108 -1.31261002330381,53.0045927434757 -1.31231642245088,53.004597333366 -1.31213885176517,53.0045217153307 -1.31208277092415,53.0044863421825 -1.31178233571336,53.0042634393003 -1.31159850377658,53.0042030613494 -1.31138558179882,53.0041874470187 -1.31120383748869,53.0041890882939 -1.31111509903463,53.0041445386231 -1.31102791999826,53.0040946061964 -1.31095145252365,53.0040356594642 -1.31087641942104,53.0039714182623 -1.31073581556894,53.0038196258525 -1.31063125420272,53.0037425417875 -1.31018421387894,53.0034604593023 -1.31001966277836,53.0034009999948 -1.30994072109805,53.003405034771 -1.30979581099949,53.0034239621945 -1.30973304989471,53.0034379763851 -1.30967381056168,53.0035087160075 -1.30965913330575,53.0035895103649 -1.30963937986573,53.0036109642352 -1.30961375756619,53.003630585219 -1.30943814400572,53.0037104433099 -1.30934999434151,53.0038142657276 -1.30928845018418,53.0038444628875 -1.30919374690472,53.0038043698878 -1.30905745880175,53.003659700308 -1.30900265637347,53.0036369144767 -1.3089492417496,53.0036195293412 -1.30891203267866,53.0036184137678 -1.30887327693686,53.0036217828939 -1.30875222033377,53.0036471386054 -1.30869148371754,53.0035263641975 -1.30867958246756,53.0035253959546 -1.30859600853851,53.0035347945983 -1.30856134587223,53.0035588564094 -1.30852954596783,53.0035883275291 -1.30845456652713,53.0037137039848 -1.30842256595452,53.0037557543367 -1.30832363873995,53.0037957076205 -1.30816084037917,53.0038190234176 -1.30798563898118,53.0038728201786 -1.30810461342626,53.0041629742595 -1.30822912732032,53.0042984998668 -1.3083063898605,53.0043151262825 -1.30848326693958,53.0043413196071 -1.30858447877917,53.0043508957876 -1.30883402547271,53.004311909386 -1.30886897432738,53.0043624382144 -1.30895419456013,53.0045274796116 -1.30893847058753,53.0047665231863 -1.30898721167896,53.0047919696249 -1.30925383978132,53.0048995640105 -1.30932886281856,53.0049566165806 -1.30945956502635,53.0050742937206 -1.30951519970944,53.0051375240308 -1.30952571590824,53.005225654499 -1.30953030585831,53.0053155483353 -1.30948904474844,53.0054762586613 -1.30938770255016,53.0056599859943 -1.30933514083573,53.0057818986083 -1.30935475440364,53.0061397714842 -1.30934278136688,53.0062358586966 -1.30928867282226,53.0065474709574 -1.3091891539795,53.0069946065612 -1.30916603493783,53.0071346643965 -1.30915264480489,53.0074123634713 -1.30904615812779,53.0077335561226 -1.30880327768675,53.0080162095682 -1.30831374307541,53.0083396629907 -1.3079091614712,53.008105359099 -1.30698756040828,53.0086995708985 -1.307343587729,53.0088967491552 -1.30739390177866,53.0089240031978 -1.30709526183036,53.0091425218763 -1.30686374235792,53.0093667354919 -1.3064795573537,53.0097169468031 -1.30684825704725,53.0098673800527 -1.30683459040364,53.0098843752544 -1.30660317122394,53.0100942989385 -1.30659405802608,53.0101032331207 -1.30623117813932,53.0099653245492 -1.30606979297092,53.0098987788568 -1.30585693973081,53.0100692688685 -1.3058282694984,53.0100870742581 -1.30590535509102,53.0101153834811 -1.3059602090686,53.0101354750787 -1.30594273815124,53.0101982794654 -1.30590297980064,53.010356302152 -1.3058900554342,53.0104191331166 -1.30613693635309,53.0104493328375 -1.30621793791652,53.0105172064692 -1.30619972553425,53.0105341750448 -1.30617242296591,53.0105663667614 -1.30610553234246,53.010645957339 -1.30607362398537,53.0106818067951 -1.30598560721986,53.0107837405731 -1.30595674984135,53.0108132272941 -1.3059324520658,53.0108418426432 -1.30590968706783,53.0108668721624 -1.30589301450681,53.010887444488 -1.30587022073792,53.0109142707768 -1.3058535639961,53.0109339442687 -1.30583377537798,53.0109571933352 -1.30580644206243,53.0109912725378 -1.30557540884785,53.0112685080363 -1.3055222741328,53.01133299062 -1.30541145185063,53.0112702448208 -1.30536854458887,53.0112484259631 -1.30527817948159,53.0113126906205 -1.30522841761334,53.011342953789 -1.30514564161964,53.0113936935404 -1.30500565740861,53.0114791455519 -1.30500127739679,53.0114764240462 -1.30491407619752,53.0115271377484 -1.30482973063741,53.0115760702682 -1.30477709791741,53.0116091031158 -1.30508708434315,53.0117969406956 -1.3051351758774,53.0117711615042 -1.30519717411178,53.0118056734575 -1.30533752640278,53.0118891712003 -1.30547924538404,53.0119718686228 -1.30550006157166,53.011976484088 -1.30554898325255,53.0119911484722 -1.3055964280649,53.0120058050972 -1.30568840022175,53.0120333024857 -1.30573292605552,53.0120461441418 -1.30590301782881,53.0121298159372 -1.30591485112522,53.0121352768383 -1.30591726749947,53.0121685420616 -1.3059211177004,53.0122045106316 -1.3059763176728,53.0122030363363 -1.30598969673149,53.0122040125565 -1.30600306141085,53.0122058885112 -1.30602243259119,53.0122086975916 -1.30603722959989,53.0122132777782 -1.30604469565258,53.0122151183555 -1.30606238312456,53.0122233992105 -1.30608017986726,53.0122324906292 -1.30609635030621,53.0122433685857 -1.30611411686276,53.0122542567657 -1.30611730672504,53.0123315601511 -1.30611852218061,53.0123477433394 -1.30612203528934,53.0124124673119 -1.30612655401029,53.0124987658724 -1.30613022365648,53.0125536952138 -1.30613016621875,53.0125572896636 -1.30612979288034,53.012580653138 -1.30612977853166,53.0125815510763 -1.30612667123089,53.0125914183546 -1.30611886048751,53.0126111435843 -1.30626322175331,53.0126209735636 -1.30643362126461,53.0125932115596 -1.30643657061522,53.0125932287859 -1.30648281519238,53.0125908030136 -1.30659324633525,53.012586056187 -1.30664989204158,53.0125863869493 -1.30677058776715,53.0125852937772 -1.30684729142555,53.0126378645527 -1.3069755808811,53.0127230875932 -1.30709643036466,53.0128046722835 -1.30711414156893,53.0128191547577 -1.30722770498604,53.0128953949518 -1.30722767632213,53.0128971917263 -1.30723325969601,53.012916995152 -1.30727019680397,53.0130358339467 -1.30728576585434,53.0130844520768 -1.30729473622198,53.0130845044023 -1.30730030531542,53.0131052066595 -1.3073060826334,53.0131205175082 -1.30731021930917,53.0131385146485 -1.3071549528527,53.0131573797402 -1.30715634078704,53.0131627795619 -1.30715957274152,53.0132374780214 -1.30716726719773,53.013317503447 -1.30713595592112,53.0133236114167 -1.30712843078933,53.0133253644545 -1.30703721323243,53.0133428061385 -1.30699036243074,53.0134755343164 -1.30696656571764,53.0134726995886 -1.30693977806123,53.0134725432637 -1.30689944418427,53.0134741057166 -1.30681297411401,53.0134789927575 -1.30679957879382,53.0134789145699 -1.30669060493119,53.0134846589785 -1.30666083916423,53.0134862821473 -1.30651313045161,53.0134935081976 -1.30649823246842,53.013495218144 -1.3063788011805,53.0135017102314 -1.30635493422168,53.0135033677763 -1.30622221540774,53.0135106810193 -1.30620733324432,53.0135114930003 -1.30611926386381,53.0135163701984 -1.30604472636943,53.0135204274827 -1.30603279212599,53.0135212566675 -1.30589704616922,53.0135258550989 -1.30587614145962,53.0135266318395 -1.30575833639401,53.0135313349717 -1.3057150529999,53.0135328797838 -1.30558678760604,53.0135384205162 -1.30558383818791,53.0135384032704 -1.30557635755418,53.0135374606083 -1.30542120231964,53.0135491345806 -1.30530039020935,53.0135574144628 -1.3052302471813,53.0135632947898 -1.30518547540062,53.0135657287261 -1.30509591743749,53.0135714953859 -1.30503328523635,53.013576521523 -1.30498252115696,53.0135771224745 -1.30488709306728,53.0135810576807 -1.30481255534011,53.0135851141984 -1.30468816011167,53.0135331627032 -1.30468862062813,53.0135044079892 -1.30468873576072,53.0134972190859 -1.30437586418918,53.0135807602197 -1.30421002068942,53.0136076472043 -1.30406768992861,53.013647253064 -1.30396893908743,53.0136745328594 -1.30390154338394,53.0136930098328 -1.30387156120641,53.0137081121819 -1.30381744403408,53.0137338556239 -1.30386135007143,53.0137854270746 -1.30391086688483,53.0138549145517 -1.30397075188031,53.0139370440818 -1.30399981217567,53.013979451147 -1.30402164368955,53.014012830216 -1.3040503797373,53.0140830938638 -1.30408181202686,53.0141615525922 -1.30409764544854,53.0142011862548 -1.30409903301365,53.01420658612 -1.30412623072878,53.0142732468351 -1.30413348101012,53.0142885664954 -1.30416505316326,53.0143660371948 -1.30419519023673,53.0144408926003 -1.30420403868337,53.014440944436 -1.30420693756011,53.014451744887 -1.30415929468558,53.0144415812334 -1.30412967216459,53.0144342181068 -1.30408802171475,53.0144258855779 -1.304040515522,53.0144148237535 -1.30398113390027,53.0144009056606 -1.30392470035604,53.0143870947064 -1.30385491743984,53.0143705105136 -1.30384158096968,53.0143668375558 -1.30379702440297,53.0143557920195 -1.30375096354529,53.0143465354924 -1.30370639260817,53.0143363887588 -1.30367529625383,53.014329016874 -1.30358905920054,53.0143114371302 -1.30354450276293,53.0143003914961 -1.30352380781715,53.0142957773288 -1.30348965277613,53.0142874885348 -1.30342134421172,53.0142709118241 -1.30333220267509,53.0142506189834 -1.30331739081227,53.0142469373101 -1.3032638942366,53.0142340421791 -1.30318810366202,53.0142165225148 -1.30314806424114,53.0142073010719 -1.30306640517762,53.0141879499484 -1.30292226181552,53.0141565496528 -1.30290158144811,53.0141510365354 -1.30283286925252,53.0141596197561 -1.30274924420928,53.0141708112623 -1.30272375015546,53.0141742563884 -1.30257741795211,53.0141949650774 -1.30238036311942,53.0141219146192 -1.30228992178055,53.0140908289533 -1.30214345486663,53.0142040984635 -1.30201996535329,53.0142869493351 -1.30184167528051,53.014437865396 -1.30192009720665,53.014475172313 -1.30192158565948,53.0144742821375 -1.30207684670596,53.0145479866781 -1.30211687691029,53.0145652960383 -1.30213310498569,53.0145725809764 -1.30213608336513,53.0145708015278 -1.30221266918574,53.0146305633398 -1.30225831109998,53.0146658795868 -1.30224322473178,53.0146792703186 -1.30220520192843,53.0147204756291 -1.30219005921035,53.0147374617174 -1.30215064260958,53.0147812648037 -1.30213088039697,53.0148027165644 -1.30207932669106,53.0148599276772 -1.30206258615429,53.0148769043637 -1.30201106115393,53.0149323186725 -1.30199591678604,53.0149493047306 -1.30194425493394,53.0150056171345 -1.30191249211801,53.0150396695651 -1.30189434820269,53.0150521442655 -1.3018715928389,53.0150762742705 -1.30182921158082,53.0151209587671 -1.30180498211971,53.0151450800972 -1.30173820410325,53.0152165807808 -1.3017093260632,53.0152469654357 -1.30164118292779,53.0153193569723 -1.30161991429569,53.0153426875451 -1.301612303282,53.0153498323892 -1.3016047566538,53.0153605715082 -1.30158494900498,53.0153847187978 -1.30155156037525,53.0154204695435 -1.30153032201686,53.0154419125413 -1.30152582611506,53.0154463798145 -1.30145896176152,53.0155232714343 -1.30144234289158,53.0155402487203 -1.30136640455385,53.0156233775772 -1.3013542815466,53.0156358875846 -1.30131332977691,53.0156833659911 -1.30127079607941,53.0157298462599 -1.30126778863098,53.0157334233586 -1.3012737810721,53.0157352555694 -1.30124186588407,53.0157710148234 -1.3011598264334,53.0158666889935 -1.30109004002091,53.0159417662788 -1.3009821475845,53.0160706292495 -1.30096281683922,53.0160651237078 -1.30093246993105,53.016102689067 -1.30087464677766,53.0161751398944 -1.30099472946261,53.0162126928194 -1.30092637132809,53.0162905641924 -1.30088242678119,53.0163406308267 -1.300859699008,53.0163629638178 -1.30083844529091,53.016385304585 -1.30080349419434,53.0164264376031 -1.3007175223712,53.0163998706606 -1.30061959463718,53.0163678405938 -1.30056615253121,53.0163513496897 -1.30050392103989,53.0163312121892 -1.30045501044109,53.016315646851 -1.3003229574949,53.0162735300254 -1.30024145492776,53.0162442023961 -1.30008283816371,53.0164698216176 -1.30004012825833,53.0165270848326 -1.29999026233117,53.0165708255846 -1.29992123796567,53.0165983671242 -1.29982552673884,53.0166193707126 -1.29977283512226,53.0166478175015 -1.29965535856617,53.0169132197674 -1.29971922563568,53.0169234818781 -1.29990337138611,53.0169668044902 -1.29999402179103,53.0169853128654 -1.30001541977896,53.0169539856458 -1.30002436200948,53.0169558353046 -1.30009711349991,53.0169715413237 -1.30017734619547,53.0169881903092 -1.30028134787465,53.0170094731043 -1.30030510094209,53.0170150048712 -1.30029132793472,53.0170382888227 -1.30036542204751,53.0170620913816 -1.30025540328393,53.01723048417 -1.30041134960418,53.017261957763 -1.30047970618542,53.0172758408654 -1.300345076178,53.0174916288984 -1.30031385470384,53.0174842552688 -1.30007022140555,53.0174333925248 -1.29952946938568,53.017317869632 -1.29945223635424,53.0173057314873 -1.29940444265347,53.0174034046234 -1.29937264267532,53.0175228310291 -1.29937074994454,53.0176396480805 -1.29937779797995,53.017758314849 -1.29935863367851,53.0178336906983 -1.29929041680457,53.0179097659445 -1.29921795367571,53.0179596642941 -1.29911771200917,53.0179869315864 -1.29876786126954,53.0180513685241 -1.29816534314228,53.018159334575 -1.29762563147564,53.0182594923623 -1.29764280998252,53.0182991353957 -1.29767993652821,53.0184044997417 -1.29773398539845,53.0185576849808 -1.29777809354861,53.0186873555128 -1.29781811072094,53.0187964216309 -1.29784806317643,53.0188819732284 -1.29790796146516,53.0190458866794 -1.2979407021454,53.0191414293081 -1.29797214384702,53.0192260907372 -1.29798495592801,53.0192621139601 -1.29798630028364,53.0192702096192 -1.2979845765863,53.0192854777176 -1.29798352612233,53.0193501759012 -1.29796475106645,53.0194013796791 -1.29811469928336,53.0198103551991 -1.29831028068842,53.0199750702538</coordinates></LinearRing></outerBoundaryIs></Polygon>
  </Placemark>
