  <Placemark>
	<Style><LineStyle><color>ff0000ff</color></LineStyle><PolyStyle><fill>0</fill></PolyStyle></Style>
	<ExtendedData><SchemaData schemaUrl="#Wards__December_2019__Boundaries_EW_BFE">
		<SimpleData name="objectid">4482</SimpleData>
		<SimpleData name="wd19cd">E05010122</SimpleData>
		<SimpleData name="wd19nm">Snibston North</SimpleData>
		<SimpleData name="wd19nmw"></SimpleData>
		<SimpleData name="bng_e">441610</SimpleData>
		<SimpleData name="bng_n">314480</SimpleData>
		<SimpleData name="long">-1.3853</SimpleData>
		<SimpleData name="lat">52.726379</SimpleData>
		<SimpleData name="st_areashape">1432203.32702127</SimpleData>
		<SimpleData name="st_lengthshape">6204.52104982444</SimpleData>
	</SchemaData></ExtendedData>
      <Polygon><outerBoundaryIs><LinearRing><coordinates>-1.38406589939271,52.7325293419784 -1.38407874553417,52.7324583202687 -1.3847389362834,52.7316365377938 -1.38509512414834,52.7310630232023 -1.38524095984926,52.7307994647054 -1.38543717099843,52.7304265230309 -1.38553031405526,52.7302282978945 -1.38564107651117,52.7300446337416 -1.38649627322153,52.7304077331855 -1.38665536426061,52.7304687682711 -1.38683682896231,52.7305191354259 -1.38741978060408,52.7306633321753 -1.38779285300583,52.7307722033348 -1.38845485821143,52.7308780673426 -1.38879107128407,52.7310820999818 -1.38903074789661,52.731204659838 -1.38914794407918,52.7310839358965 -1.38927768037947,52.7310180976877 -1.38952557302915,52.7310858774205 -1.3897895649925,52.7311636244887 -1.38995309701421,52.7312219828247 -1.39058170948327,52.7313852716252 -1.39128816909593,52.7315964984258 -1.39261957398535,52.7319026778058 -1.39350372182086,52.7321130918327 -1.39360757581149,52.7319940924294 -1.39385476459623,52.7315772700254 -1.39405821792251,52.7311090875046 -1.39415799908359,52.7309666098357 -1.39429391344064,52.7308774314614 -1.39445028307875,52.7306076243297 -1.39454524354547,52.7304867816818 -1.39458969461889,52.7303718817567 -1.39469124216468,52.7301018847389 -1.39478095387863,52.7299368879888 -1.39491382886879,52.7299609320656 -1.39510139669619,52.7299942407107 -1.39525059395956,52.730021063564 -1.3954825994211,52.7300635858168 -1.39549588202686,52.7300654504721 -1.39560520738254,52.7300795777717 -1.39577879401402,52.7296327194526 -1.39601761761664,52.7289624103736 -1.39620885176117,52.7284131874144 -1.39627892253155,52.7281582171495 -1.39651564805805,52.7273207351099 -1.39654312638391,52.7270466751109 -1.3965418938834,52.7262797912344 -1.39657435420421,52.7257514197204 -1.396581972654,52.7254125512744 -1.39652571973,52.7254104675254 -1.39632300063431,52.7254058423734 -1.39622525436965,52.7254026495074 -1.39608457233042,52.7254055293034 -1.39590537378881,52.7254127061311 -1.39590395261276,52.7252948772424 -1.39545368291295,52.7253051683812 -1.39520493820271,52.7253092941164 -1.39516488435299,52.7253099891353 -1.39489087017043,52.7253139855307 -1.39478877638605,52.7253161613939 -1.39465248894938,52.7253190618802 -1.39448956420383,52.7253236243698 -1.39443033295622,52.7253251194511 -1.39437096633276,52.7253275127888 -1.39435616940417,52.7253292352916 -1.39370572073055,52.7253628539622 -1.39367299889664,52.7252664335445 -1.39364259536174,52.7252141529974 -1.39328651923177,52.725368801477 -1.39310675798118,52.7254164143821 -1.39290461949559,52.7254666077728 -1.39272643435894,52.72550614006 -1.39231424057497,52.7253331849078 -1.39173978767748,52.7251172482089 -1.39131708806864,52.724954121948 -1.39101968420803,52.7248321688033 -1.39111267645389,52.7247472679776 -1.39128710792776,52.7245566450373 -1.39049561186266,52.7240869593767 -1.39030322134105,52.723972643372 -1.39028991557879,52.7239725750692 -1.39004627143831,52.7238131491875 -1.38998755716747,52.7237777974545 -1.38988324585834,52.7237205524361 -1.38976562788359,52.7236633288564 -1.38957889706691,52.7235635106702 -1.38958049678512,52.7235626199152 -1.38923983124565,52.7233576684505 -1.38903432889998,52.7232298917873 -1.38894341240412,52.7231665136961 -1.38945026528617,52.7226009499257 -1.3894517672341,52.7225982616154 -1.38992961413247,52.7220981530694 -1.38996863094689,52.7220579112038 -1.3903187698161,52.7216893467922 -1.39057252121759,52.7214389175825 -1.39054459760463,52.7214279901756 -1.39035018618054,52.721354195987 -1.39004823135883,52.7212366210384 -1.3897316905004,52.7211145662851 -1.38933545500509,52.7209651397431 -1.38892762994172,52.7208065752737 -1.38852107368212,52.7206534978889 -1.38823814944761,52.7205548894076 -1.38798325636435,52.7204681976969 -1.3878654222634,52.7204271481704 -1.3878359002944,52.7204171099629 -1.38780355733394,52.7204079561845 -1.38775927765395,52.7203969429124 -1.38753494976497,52.7203418629951 -1.38738446299101,52.7203051385913 -1.38729295029709,52.7202848045379 -1.38721034716323,52.72026460628 -1.38713215064315,52.7202435326249 -1.3870642800729,52.7202261072167 -1.38695377892839,52.7201931827209 -1.38688882418219,52.7201766703403 -1.38678257979729,52.7201536537095 -1.38675155474059,52.7201463035031 -1.38672052968133,52.7201389541875 -1.38667344778679,52.7202231906428 -1.38650833920137,52.7205927002845 -1.38643650158221,52.7207532901349 -1.38638913909668,52.7208572962214 -1.38637661616042,52.7209057627962 -1.38616226718477,52.7208875791118 -1.38609625203817,52.7208423025447 -1.3857780982964,52.7208271765814 -1.38532261859916,52.720794263966 -1.3850460429214,52.7207739591468 -1.38483801067203,52.720723451589 -1.38461086918065,52.7206602634436 -1.38447097425962,52.7206083120898 -1.38450421757466,52.7205535721568 -1.38442470448742,52.7205306919297 -1.38436734894331,52.7205034334179 -1.38410014684475,52.720441833683 -1.38358351150411,52.7203313067108 -1.38300925886803,52.7202123001808 -1.38249708196838,52.7201062856138 -1.38224233909677,52.7204240968493 -1.38209271357478,52.7206373029108 -1.38186374335032,52.7210226508975 -1.38173481486641,52.7212395601164 -1.38150893249904,52.7216132403547 -1.38139686081111,52.7217861088887 -1.38131821291426,52.7219089139008 -1.38124136714517,52.7219992841702 -1.38111496843238,52.7221406234831 -1.38094350466949,52.7223348420234 -1.38078570763679,52.7224949803337 -1.38046188881171,52.7228870200836 -1.3802809149269,52.7231144411892 -1.38023060765133,52.723218429419 -1.38014402362555,52.7233752535446 -1.38003459049273,52.723567997411 -1.37990170992691,52.7237525297594 -1.37958875468958,52.7241005865087 -1.37973253350023,52.7241975010159 -1.3797530552282,52.7242137852738 -1.37976757146808,52.7242318352205 -1.37977760258462,52.7242561527817 -1.37978885693646,52.7242975527906 -1.37979411430975,52.7243399103563 -1.37980228549635,52.7243920783862 -1.37981366754104,52.7244244919896 -1.37983815124003,52.7244713531349 -1.37985557864516,52.7244993043163 -1.37988476960644,52.7245327089775 -1.37991985897714,52.7245634492948 -1.37996071917782,52.7246005098679 -1.37998274521095,52.7246141059074 -1.38001510883913,52.7246304510386 -1.38006354276068,52.7246586548394 -1.38016506796404,52.724705019049 -1.38018277631198,52.7247131995572 -1.38021501718002,52.7247295448917 -1.38026672092347,52.7247423967693 -1.38032688178071,52.7247786598466 -1.38039775020304,52.7247916116571 -1.3804716588744,52.7248054773616 -1.38054252737913,52.7248184290859 -1.38070198574034,52.7248516148278 -1.38057744810001,52.7250676465847 -1.38050306052445,52.7251993703858 -1.3804787281496,52.7252450786791 -1.38045294143169,52.7252899694028 -1.38044830936551,52.72529803423 -1.38042714317001,52.7253356700383 -1.38039822983393,52.7253858475143 -1.38035878191814,52.7254557412473 -1.38003224775264,52.7254010128307 -1.37997171610165,52.7253908107904 -1.3799318359888,52.7253879065578 -1.37969657968899,52.7253705009998 -1.37967889191247,52.7253695105405 -1.37960184969264,52.7253700062052 -1.37954850234851,52.7253697275275 -1.37947009170232,52.725372013912 -1.3793811948956,52.7253733473719 -1.37936042862013,52.7253741378336 -1.37929232213565,52.7253728829367 -1.37923459315021,52.7253716822412 -1.3791624131222,52.7253479387566 -1.37914771790158,52.7253424689794 -1.37904745217377,52.7253104896177 -1.37891622604793,52.7252665752749 -1.37878219021314,52.7252227359877 -1.37876558826302,52.7252397243092 -1.37863754069553,52.7251869291125 -1.37865760833956,52.7251322118154 -1.37874656679154,52.7250149454125 -1.37884322263715,52.7248886413336 -1.37867819311748,52.7248266656862 -1.37863720588191,52.7247985910758 -1.37830551137375,52.7246952996824 -1.37787082965099,52.7245455437127 -1.37765273145635,52.724472503612 -1.37764730063903,52.7244338299466 -1.37758393202144,52.7244173207866 -1.37753370795504,52.7244035774147 -1.37748216520581,52.7243880282574 -1.37746150329539,52.7243816289176 -1.37744534429459,52.7243761521542 -1.3774201908127,52.7243679322088 -1.377373069549,52.724350609127 -1.37732301827619,52.7243332715639 -1.37729054051464,52.7243250122915 -1.37727438155405,52.724319535505 -1.37726115390952,52.7243139841887 -1.37721401994263,52.7242975599535 -1.37717717881231,52.7242784936453 -1.37677043425699,52.7241478431394 -1.37675415254717,52.7241423647386 -1.37670700758936,52.72412683922 -1.37666436404512,52.7241122362847 -1.37662888642811,52.7241003669772 -1.37655817407252,52.7240766287061 -1.3765235510017,52.7241159902424 -1.37652205958945,52.7241177803665 -1.37650258741224,52.7241392472916 -1.37647400389438,52.7241660584413 -1.37640183859019,52.7241414143716 -1.37637325499988,52.7241682263957 -1.37625105343382,52.7241253444508 -1.37632459014733,52.7240538331746 -1.37636211769464,52.7240162840017 -1.37624433775675,52.723971538314 -1.37613236395021,52.7239305079135 -1.37607784929064,52.7239095504698 -1.37598042412637,52.7239953161149 -1.3759161038096,52.7240453963579 -1.37586300201454,52.724028041248 -1.37578655298183,52.7240896517843 -1.37566122369053,52.7240521448539 -1.3755831861289,52.7240283683917 -1.37552422593957,52.7240109823291 -1.3754651441815,52.7239935065991 -1.37540619545419,52.723975221561 -1.3753900239876,52.7239706434281 -1.37535017676769,52.7239569528032 -1.37527364531917,52.7239304871277 -1.37526185529237,52.7239268310008 -1.3752529952849,52.7239231893867 -1.37505434555043,52.7238394617708 -1.37505135843417,52.7238349520677 -1.37498664155017,52.7238103463275 -1.37481550157154,52.7239712155397 -1.37463114195253,52.7241258128534 -1.37439575442045,52.7243313683865 -1.37453553847605,52.7250135136464 -1.37455914118095,52.7252239382349 -1.37456122638898,52.7252914434778 -1.37452593176246,52.7253775341902 -1.37444423687866,52.7254984316554 -1.37463374959577,52.7255983782855 -1.37465436034813,52.7256083728596 -1.37468831820889,52.7257181953791 -1.37453998604253,52.726050929355 -1.37440622617993,52.7261841337592 -1.37426183809323,52.726240981352 -1.37410036031182,52.7262464215113 -1.3740852480895,52.7262616199805 -1.37407598084679,52.7264997316818 -1.37409874358742,52.7268712027782 -1.3741106681941,52.7269764162357 -1.37410860506721,52.7270096576142 -1.37412915386243,52.727339685867 -1.3741200932812,52.7277595195561 -1.37405511130414,52.7279577942894 -1.37399953216769,52.7282155238128 -1.37405136298406,52.7284243892226 -1.37428641636008,52.7290710884549 -1.37430557549215,52.7292850846522 -1.37431426805942,52.7294029520924 -1.37431931001455,52.729571039592 -1.37431980732412,52.7299458973661 -1.37431815014466,52.7302750002584 -1.37430823017883,52.7306524991369 -1.37430412953328,52.7307342609941 -1.37427801129809,52.7310065257567 -1.37427776696105,52.7310235996224 -1.37426406045096,52.7311538420899 -1.37424139803632,52.7313892769017 -1.37423634567363,52.7315376280816 -1.37419406691152,52.7317018711816 -1.37414685622534,52.7320998445075 -1.37408533776599,52.7322604810563 -1.37407087041988,52.7323412892717 -1.37404427596824,52.7325443500307 -1.37405465354974,52.7325444047261 -1.374399590485,52.7325534113217 -1.37463069526036,52.7325474393493 -1.3748870045915,52.7325380036889 -1.37587294267523,52.7325584671429 -1.37773263755675,52.732588896602 -1.37927691788851,52.7326122558606 -1.38088946975272,52.7326260648789 -1.38165812521232,52.7326165882315 -1.38266559572147,52.7325912730219 -1.3836702273581,52.7325506564219 -1.38406589939271,52.7325293419784</coordinates></LinearRing></outerBoundaryIs></Polygon>
  </Placemark>
