  <Placemark>
	<Style><LineStyle><color>ff0000ff</color></LineStyle><PolyStyle><fill>0</fill></PolyStyle></Style>
	<ExtendedData><SchemaData schemaUrl="#Wards__December_2019__Boundaries_EW_BFE">
		<SimpleData name="objectid">1050</SimpleData>
		<SimpleData name="wd19cd">E05001387</SimpleData>
		<SimpleData name="wd19nm">Warley</SimpleData>
		<SimpleData name="wd19nmw"></SimpleData>
		<SimpleData name="bng_e">406143</SimpleData>
		<SimpleData name="bng_n">426319</SimpleData>
		<SimpleData name="long">-1.90836</SimpleData>
		<SimpleData name="lat">53.733238</SimpleData>
		<SimpleData name="st_areashape">7070304.53589011</SimpleData>
		<SimpleData name="st_lengthshape">16178.0934996336</SimpleData>
	</SchemaData></ExtendedData>
      <Polygon><outerBoundaryIs><LinearRing><coordinates>-1.92041167081225,53.7160161943269 -1.92032859603258,53.7158804571847 -1.92025914577332,53.7157402367432 -1.91976693739896,53.7156670365944 -1.91975631736843,53.7156670295156 -1.9196577761369,53.7156525863697 -1.91958824978938,53.7156210904675 -1.91926541206948,53.715631657445 -1.91900480165689,53.7156359755423 -1.9186382538918,53.7155737273166 -1.91828114193754,53.7153460614281 -1.91799494921965,53.7152065901954 -1.91766344899461,53.7150463308821 -1.91717596771916,53.7148599948295 -1.91666261389782,53.7146834332651 -1.91640226914714,53.7145547591685 -1.91624483863017,53.7145025337585 -1.91599188060187,53.7144303830796 -1.91574811910473,53.7143834877652 -1.9155042430659,53.7143311999017 -1.91521801589644,53.7142797814085 -1.91460008925576,53.7141157171503 -1.91447297324255,53.7140868729034 -1.91439131189986,53.7140050462294 -1.9141473765331,53.7139842050442 -1.91392014804541,53.7139795503526 -1.91356252314282,53.7139631197147 -1.91327617492452,53.7139736966119 -1.91314436046593,53.7139834848226 -1.91298830794029,53.7139941550639 -1.91283059224577,53.7140245914725 -1.91259562659115,53.7140765376468 -1.91190745128922,53.7142414591276 -1.91065218726018,53.714607232812 -1.91019872153151,53.7147777104899 -1.9099894575652,53.7149015540214 -1.90985902775207,53.7149634572009 -1.90971033692751,53.7150352298494 -1.90957070810287,53.7151340552588 -1.90950085806092,53.715200495854 -1.90946590358236,53.7152471942385 -1.90944004794117,53.7153037836958 -1.90943076540912,53.7153810529036 -1.90942158247996,53.7154691933071 -1.90947378313537,53.7158314401019 -1.90949899235166,53.7160795498673 -1.90952859449263,53.7171419316079 -1.90949658908019,53.7172110958323 -1.90944343341336,53.7172974059171 -1.90937804205515,53.7173800234369 -1.90922316568454,53.7175353550834 -1.90912905309218,53.7176108519783 -1.90899404285156,53.7177068950929 -1.90884079686212,53.7178002277933 -1.90820943662619,53.7182330273413 -1.90749935193241,53.7186665717827 -1.90728996744475,53.7187751344075 -1.90713223965831,53.718857769211 -1.90694869473705,53.7189196267744 -1.90656514255933,53.7190280530325 -1.90437743752205,53.7195350890783 -1.90262931377402,53.7198949904685 -1.90242919601048,53.719932567045 -1.90225801169262,53.7199387176436 -1.90208985368422,53.7199322907855 -1.90193371408185,53.7199159893466 -1.90172777240268,53.7198780819137 -1.90150662151159,53.7198257852611 -1.90110687855838,53.7196878887812 -1.90098578837026,53.7196437599962 -1.90040442819487,53.7194338273284 -1.89970189153762,53.7191672709827 -1.89850897183701,53.7186943505592 -1.89739020985044,53.718254816609 -1.89617001132906,53.7177692698433 -1.89457154035896,53.7171324216115 -1.89410674962589,53.7169468213262 -1.89397657454283,53.7168945899372 -1.89359359906551,53.7167666568471 -1.89314234323522,53.7166170067468 -1.89321652617784,53.7166773648717 -1.89340996912781,53.7168581461663 -1.89364870279557,53.7171127373096 -1.89378476600164,53.7172584230475 -1.89418866370685,53.7175149558322 -1.89455165494765,53.7177948139406 -1.89480112593694,53.7180071798831 -1.89506434162582,53.7182195582262 -1.89548785928487,53.7185317245443 -1.8957495382184,53.7187117511248 -1.89572825178381,53.7187306021401 -1.89572974821963,53.7187315022465 -1.89570395770123,53.7187530448587 -1.89559617737616,53.7188383133242 -1.89549903633693,53.7189146954855 -1.89540641034281,53.7189838029788 -1.89540491390495,53.7189829028684 -1.8953957821283,53.7189873871331 -1.8953866525616,53.7189909734924 -1.89538064979844,53.7189936637734 -1.89537302330774,53.718995454731 -1.89536389595195,53.7189981422852 -1.89535489879399,53.7189990332404 -1.89528523731298,53.7189765085951 -1.89474163642678,53.718771073649 -1.89474012958607,53.7187737678438 -1.89454264644528,53.7190073071136 -1.89452582260312,53.7190405382289 -1.89449548691994,53.7190809461006 -1.8944923504412,53.7190863352744 -1.89444072524083,53.7191464918257 -1.89444684268917,53.7191482948206 -1.89440724597587,53.7191950742379 -1.8943890750845,53.7192166232732 -1.8944965254643,53.7192661377576 -1.89442825024578,53.7192894403209 -1.89436755236718,53.7193307202322 -1.89429917408683,53.71939535509 -1.89387366037583,53.7198812733714 -1.89383270835459,53.719919874962 -1.89377199999195,53.7199647488786 -1.89385513552956,53.7200447927804 -1.8937760410179,53.7201472476549 -1.89364064342914,53.7203304308667 -1.89294557361641,53.7213751828685 -1.89213469376528,53.7225958520344 -1.89145896818873,53.7225449236344 -1.89075438489097,53.7224930672323 -1.89024379494578,53.72246204972 -1.88981186331514,53.7224544658654 -1.8895284992536,53.722446117709 -1.88904821783051,53.7224366889408 -1.88857078867534,53.722435347444 -1.88792676996636,53.7224464290342 -1.8864460146015,53.7224845716786 -1.88642940945326,53.7241607958708 -1.88640182641299,53.7242884538971 -1.88639094108544,53.7243872833056 -1.88638937728658,53.7244115423518 -1.88638912924796,53.7245041827825 -1.88640250144258,53.7245967453366 -1.88643391243327,53.7247189774277 -1.88648219753944,53.724839518655 -1.88654547937618,53.7249599841707 -1.88668245637613,53.7253250129716 -1.88457583614503,53.7253068305993 -1.88455073784579,53.7261723766502 -1.88422336962618,53.7261621769555 -1.88397796968587,53.7261538532904 -1.8839186356614,53.726784755595 -1.88386397197061,53.7273527640116 -1.88386510183736,53.7274875470791 -1.88397350293594,53.7294308491376 -1.883973210136,53.729537865832 -1.88406564478783,53.7295541291849 -1.88408987612693,53.7295586448247 -1.88415043929535,53.7295757761129 -1.8842110064828,53.7295920085705 -1.88428504822188,53.7296621660476 -1.88437580142825,53.7297449201451 -1.88444090370592,53.729793504806 -1.8845513099413,53.7298646858287 -1.88466781339568,53.7299456668762 -1.88472684656271,53.7299744772544 -1.88479799274251,53.7300068935539 -1.88486002569047,53.7300357067559 -1.88486314714584,53.730036607658 -1.88490845251954,53.7300582170469 -1.88504925138526,53.7301212503858 -1.88510083304543,53.7301329806744 -1.88525829100795,53.7301817423438 -1.88537792261116,53.7302160014091 -1.88554600607562,53.7302637850701 -1.88563541423465,53.7302908272937 -1.88578838222747,53.7303367985896 -1.88585356444328,53.7303566289419 -1.88589440583272,53.7303656531519 -1.88591264251113,53.7303692648196 -1.88591264009571,53.7303701627221 -1.88588074045367,53.7303818141202 -1.88588371590544,53.7303908022922 -1.88588830655041,53.7304033863171 -1.88589127233452,53.7304159687956 -1.88589573234476,53.7304303494044 -1.88590031664565,53.73044473103 -1.88590478035397,53.7304583027186 -1.88590924762222,53.7304699887203 -1.88592131002921,53.7304924639963 -1.88593190329139,53.7305032561222 -1.88594099508035,53.7305149456227 -1.88595159801649,53.7305221443389 -1.88596069947747,53.7305302404301 -1.88596368945494,53.7305338366905 -1.8859742972304,53.7305392387009 -1.88597878868612,53.7305419384838 -1.88599238886282,53.7305500379511 -1.88600911449015,53.7305581412868 -1.88602421132571,53.7305671409768 -1.88603931209863,53.7305752418651 -1.88605603381687,53.7305842430953 -1.88608022644648,53.7306040343681 -1.88589810319267,53.7306640639808 -1.88578148735197,53.7306693439869 -1.88484096847437,53.7309327071145 -1.88476051183265,53.7309685720977 -1.88473320911391,53.7309901108587 -1.88471039046323,53.7310170449475 -1.88469517496068,53.731051174972 -1.88469345454192,53.7310863066519 -1.8847070973912,53.7311249575347 -1.8847357454256,53.7311600285203 -1.88512301296057,53.7314489232464 -1.88540155517787,53.7315983479994 -1.88545313095123,53.7315669481415 -1.88546677261246,53.7315597725409 -1.88549405591854,53.7315454222339 -1.88549718386639,53.7315445264171 -1.88550617905978,53.7315454338093 -1.88555628774203,53.7315481771529 -1.88559264838058,53.73155090736 -1.88560926548533,53.7315527208194 -1.88562750992546,53.7315536361263 -1.88564862584399,53.7315554538709 -1.88566986606007,53.7315572708315 -1.88570173032223,53.7315590988139 -1.88573359701137,53.7315600270877 -1.88578208323644,53.7315618708861 -1.88578958176155,53.731561878028 -1.88579720609574,53.7315618852892 -1.88580632559268,53.7315627927772 -1.88581232501921,53.7315627984901 -1.88581994935359,53.7315628057499 -1.88582607065607,53.7315637094829 -1.88583056704849,53.7315646125673 -1.8858350658607,53.7315646168504 -1.88583968806251,53.7315655200543 -1.88584418203841,53.7315673210406 -1.88584867843159,53.7315682241244 -1.88585330063409,53.7315691273277 -1.88585779944679,53.7315691316099 -1.88586542136579,53.7315700367692 -1.88588354000752,53.7315709528162 -1.88590328355825,53.7315718704064 -1.88592452772715,53.7315727885222 -1.8859457703788,53.7315737075315 -1.88597151336045,53.7315746308164 -1.88599725875937,53.7315746552946 -1.88600787887839,53.7315755641939 -1.88601850292932,53.7315755742925 -1.88603212517871,53.7315755872396 -1.8860457450154,53.7315764980875 -1.88605636513594,53.7315774069825 -1.88606698525693,53.7315783158766 -1.88611396759359,53.73158195482 -1.88623816053738,53.7315946523553 -1.88637009978656,53.7316082550067 -1.88647467358992,53.7316200358001 -1.88655039002741,53.7316272951875 -1.88657162791503,53.7316300107895 -1.88659124481163,53.73163182695 -1.88661860795043,53.7316345483363 -1.88664584288113,53.7316381683986 -1.88665346482725,53.7316390744066 -1.88665496392876,53.7316390758235 -1.88666558408071,53.7316399837657 -1.8866883225996,53.7316427007652 -1.88671105872052,53.7316463165617 -1.8868050053626,53.7316598837346 -1.88694892560124,53.7316797877826 -1.8871413132959,53.7317087226194 -1.88729285082638,53.7317314179157 -1.88732470813044,53.7317359409713 -1.88735793786794,53.7317413632123 -1.88739429163206,53.7317467892763 -1.88743076970183,53.7317522145472 -1.88747312055712,53.7317585441214 -1.88751709634091,53.7317648752047 -1.88754433143351,53.7317684950628 -1.88757319144682,53.7317721164381 -1.88758830962063,53.7317739273188 -1.88760192717355,53.7317757367911 -1.88763228392211,53.7317802583585 -1.8876610196571,53.7317838795961 -1.88774735204884,53.7317938445815 -1.88778221155985,53.7317974706233 -1.88779283177385,53.7317983793644 -1.88779595579815,53.7317983822875 -1.88780644934111,53.7318001897123 -1.88782618828991,53.7318029036894 -1.88784892697203,53.7318056204687 -1.88790802343665,53.731812864352 -1.88803982624182,53.7318309581547 -1.88822622301373,53.7318571901433 -1.88843835852096,53.7318861404018 -1.8885580424134,53.7319033244546 -1.88862625641362,53.731912373164 -1.88865199494541,53.7319150925768 -1.88867923023317,53.7319187121769 -1.88883691219996,53.7319341336112 -1.88894148750638,53.7319459122517 -1.88895512869641,53.7319387362543 -1.88897936109812,53.7319441497135 -1.88898235932311,53.7319441524892 -1.88898535906388,53.7319441552662 -1.8889884822626,53.7319450569608 -1.88898998137514,53.7319450583485 -1.88899148048766,53.7319450597362 -1.88899297876377,53.7319459599265 -1.8889944802285,53.731945062513 -1.88899747996934,53.7319450652897 -1.88900060400465,53.7319450681813 -1.88900210463297,53.7319450695703 -1.88900510520997,53.7319441735442 -1.88900660583825,53.7319441749331 -1.88903999080817,53.7319379160017 -1.88904298819737,53.7319388175785 -1.88904761521136,53.7319379230562 -1.88905061578688,53.7319370270289 -1.88905211641491,53.7319370284172 -1.88905511850372,53.73193613329 -1.88905661761592,53.7319361346769 -1.88907036579366,53.7319361473951 -1.88907336401809,53.7319361501685 -1.88907636141023,53.7319370508456 -1.88907935880015,53.7319379524215 -1.88908398346299,53.731937956699 -1.88909147735575,53.7319397612367 -1.88909459904299,53.7319406620284 -1.88909609815537,53.7319406634148 -1.88910059617416,53.7319415663779 -1.88910671994982,53.7319415720408 -1.88910821671249,53.7319424722283 -1.88910971734071,53.7319424736159 -1.88911121645315,53.7319424750021 -1.88911421619382,53.7319424777759 -1.88920070323286,53.731941658912 -1.88921582471464,53.7319416728823 -1.88924461700417,53.731923728802 -1.88933120715101,53.7318833742735 -1.88937973457402,53.7318690417875 -1.88943891804787,53.7318430382574 -1.88945551904283,53.7318511409947 -1.88974923035717,53.7319897875575 -1.88977956414438,53.7320032938969 -1.88981887385275,53.7320257929144 -1.88983247734656,53.732033083922 -1.88983709735395,53.7320348848741 -1.88984159154885,53.7320366866092 -1.88984920897068,53.7320393891176 -1.88985370083508,53.7320420887547 -1.88985819503148,53.7320438904893 -1.88986281504114,53.7320456914404 -1.88986730924064,53.7320474922758 -1.88987193158221,53.7320483953241 -1.88987642578005,53.7320501970579 -1.88987942319752,53.732051097715 -1.88988704143939,53.7320529023171 -1.88996273826815,53.7320682469618 -1.89010213692809,53.7320980263126 -1.89011275878409,53.7320989348495 -1.89011575469198,53.732099836398 -1.89012037704463,53.7321007394367 -1.89012337679668,53.7321007421852 -1.89012637422304,53.7321016428361 -1.89013249802221,53.7321016484466 -1.89013399714038,53.73210164982 -1.8901369968925,53.7321016525682 -1.89013849833609,53.7321007560391 -1.89014149808814,53.7321007587872 -1.89014462446276,53.7320998628478 -1.89014612509666,53.7320998642224 -1.89014912484863,53.7320998669703 -1.89015062629424,53.7320989695422 -1.89041583665509,53.7321450385711 -1.89065369078304,53.7321856901506 -1.89087030307717,53.7322245243226 -1.8909612456646,53.7322407810117 -1.89105668259306,53.7322588393214 -1.89112938427743,53.7322732817039 -1.8913339953047,53.7323139017475 -1.89143535138884,53.7323635032282 -1.89205149627729,53.7326587824188 -1.89213636277094,53.7327056738466 -1.89213470126708,53.7327200487103 -1.89213319755865,53.7327218440655 -1.89213168470909,53.7327272346255 -1.89213017719916,53.7327299287805 -1.89212867120486,53.7327326229369 -1.8921286643512,53.7327353184416 -1.89212715684079,53.7327380125966 -1.8921256531291,53.7327398088505 -1.89212101695483,53.7327442968988 -1.89211649744995,53.7327523802648 -1.89211499145396,53.732755074421 -1.89211348622762,53.7327568697746 -1.89211347937298,53.7327595652793 -1.89211197565992,53.7327613615331 -1.89210883785382,53.7327667497321 -1.8921073326268,53.7327685450856 -1.89210732576947,53.7327712414891 -1.8921043031179,53.7327802241058 -1.89209512914212,53.7327999832315 -1.89207373715478,53.7328574712107 -1.89204322906739,53.732960776462 -1.89203856519099,53.7329761373045 -1.89203402963837,53.7329905104776 -1.89202786454608,53.733006678891 -1.89201731105595,53.7330282343745 -1.89195170758413,53.7331710436503 -1.89193648572421,53.7332096676864 -1.8918830303174,53.7333426945071 -1.89186014166534,53.7333983834877 -1.89181595249874,53.7335241401219 -1.89164277247764,53.7336525656391 -1.89162149651397,53.7336642272575 -1.89139988783116,53.7337673594662 -1.89125273504246,53.733834617469 -1.89108401542433,53.7340259444417 -1.89101708348689,53.7341004627089 -1.89098973192736,53.7341408722976 -1.89096840934451,53.7341705053214 -1.89094708521805,53.734200137441 -1.89094708059684,53.7342019350426 -1.89096821973648,53.7342442752974 -1.89101669543601,53.7342515079852 -1.89122734652826,53.7342795540301 -1.8913091780895,53.7342931066711 -1.89132729111796,53.7342967173985 -1.8913895074773,53.7343066569969 -1.89164099332227,53.7343491165399 -1.8916425101022,53.7343428280877 -1.8919379878334,53.7343862246508 -1.89219260957835,53.7344250915481 -1.89250932967782,53.7344712013048 -1.89283653356072,53.7345236103133 -1.89304867187095,53.7345580341858 -1.89338513830743,53.7346059568396 -1.89354118901096,53.7346285592435 -1.89363063935598,53.7346439137675 -1.89377906020145,53.7346692046037 -1.89381853481986,53.7346773260887 -1.89392608458504,53.7347025805497 -1.89433206961486,53.7347909964512 -1.89440027388716,53.7348063316787 -1.89462000730063,53.7348532492178 -1.89463811790704,53.7348586570477 -1.8947275533143,53.734880390441 -1.89498662643702,53.7349408193796 -1.89518049606789,53.7349850177303 -1.89522596673236,53.7349949415969 -1.89530329140958,53.7350120818826 -1.89523649252147,53.7350344873278 -1.89514394976217,53.7350559714279 -1.89498012638312,53.7350926682123 -1.89484971830011,53.7351114234122 -1.89468294800546,53.7351265522321 -1.89452981439935,53.7351363017942 -1.89444791309914,53.7351497081862 -1.89438874523753,53.7351694243651 -1.89434467217928,53.7352009236357 -1.89423835134516,53.7352834964059 -1.89409110358044,53.7353884967222 -1.89398330723642,53.7354611829288 -1.89406653106959,53.7355188535429 -1.89417102486289,53.7355674676586 -1.89438900872339,53.7356664993454 -1.89451170054749,53.7357357953559 -1.89464337769979,53.735810580032 -1.89469476888114,53.7358528572064 -1.89480382588376,53.7358763154903 -1.8948750165258,53.7358979428842 -1.89490687335091,53.7359042606245 -1.89495083749993,53.7359168787825 -1.8950144046727,53.7359384994158 -1.8950749214834,53.7359798856115 -1.8951414044208,53.7360859719054 -1.89518981615399,53.7361202487147 -1.89525037554582,53.7361445621024 -1.89533218391933,53.7361688940055 -1.89539121913153,53.7362039889261 -1.8954426915695,53.736264236506 -1.8955333285844,53.7363577639913 -1.89569978739604,53.7364712155121 -1.89586330389928,53.7365621105928 -1.89597995559803,53.7365990528393 -1.89616489456534,53.7366189804596 -1.89644681948393,53.7366416879802 -1.89657711772352,53.736669655199 -1.8966725321042,53.7367020853413 -1.89678450855775,53.7367606767248 -1.89701308938284,53.7369271040429 -1.89725832791711,53.7370810563307 -1.89763979861582,53.737291642051 -1.89783362778774,53.7373582989216 -1.89789880472583,53.7373871978912 -1.89790938333931,53.7374060763533 -1.89791806712035,53.7375893872967 -1.89793309922716,53.7376280369066 -1.89798754889916,53.7377000575248 -1.89816746301666,53.7378889040751 -1.89824454988813,53.7379554619958 -1.8984125076794,53.7381273169538 -1.89846683257301,53.7382001443664 -1.89853479016551,53.738321595905 -1.8985752954043,53.7385282953544 -1.89858088825203,53.7386982150431 -1.898673101967,53.7388177995164 -1.89893171110045,53.7390849754317 -1.89920996955147,53.7393440798682 -1.89924001941304,53.739480684382 -1.89929601534236,53.7395355421567 -1.89948935717489,53.7398134449442 -1.89969936991153,53.7401264038388 -1.89972652442476,53.7401668609469 -1.8997295959982,53.7401893272718 -1.89974445430415,53.7403026462597 -1.89981198837375,53.7406065004304 -1.89982401717098,53.7406469457763 -1.89984816056833,53.7406927913518 -1.89989658376494,53.7407260775574 -1.8999737505675,53.7407620841227 -1.90007676900749,53.7408088942045 -1.90018286895666,53.7408206633767 -1.90030110896821,53.7408270515329 -1.90035273121241,53.7408288920346 -1.90042842214342,53.7408551019378 -1.9004965879078,53.7408919994947 -1.90060257454919,53.7409522900177 -1.90070377337941,53.7410826623514 -1.90079592462767,53.7412337840421 -1.90086703087302,53.7412967409799 -1.90106095137173,53.7413876540083 -1.90107902164227,53.7414119293695 -1.90108210449738,53.7414299034529 -1.90107141663913,53.7414568506015 -1.90101670495046,53.7414928366282 -1.90097266455212,53.7415089742136 -1.90090749833865,53.7415250943317 -1.90083919682873,53.7415457049323 -1.90076486860299,53.7415779904364 -1.90071929703303,53.7416076050925 -1.90058694285917,53.7418088594078 -1.90058842910683,53.7418151504539 -1.90057926766319,53.7418304179953 -1.9005852686984,53.7418834369893 -1.90059569584681,53.7419148946837 -1.9006274781007,53.7419553553418 -1.90069565420085,53.7419886575238 -1.90078051534668,53.7419968151547 -1.90086240966346,53.7419905930662 -1.90096857782255,53.7419745068601 -1.90110509143338,53.7419728227906 -1.90123990081466,53.7420043828809 -1.90145960844229,53.7420818379202 -1.90164285893874,53.7421404831073 -1.90170346550217,53.7421504168826 -1.90183997393484,53.7421505286466 -1.90190821360931,53.7421568742615 -1.90199155091707,53.7421758117782 -1.90203538694344,53.7421938181892 -1.90206563659739,53.742248654412 -1.90207170587678,53.7422729197783 -1.90205779404295,53.7423429950557 -1.90195602938763,53.7424544206699 -1.90194688490027,53.7424625005997 -1.90187995718447,53.7425370247166 -1.90187682728052,53.7425936303817 -1.90186013860499,53.7426205735425 -1.90183885525519,53.7426340336374 -1.9017978144803,53.7426501739585 -1.90173116605726,53.7426582067897 -1.90152640093937,53.7426580388968 -1.9014036994702,53.7426327788966 -1.90129743156483,53.7426910964246 -1.90125792571605,53.7427459644136 -1.90122295136971,53.7427872687347 -1.90120613786719,53.742814211698 -1.90120606253902,53.7428465585498 -1.90121962567619,53.7428735265299 -1.90125607904141,53.7428951214526 -1.90130142547023,53.7429086371782 -1.90135904926783,53.7429113800799 -1.90145006908532,53.7429060638927 -1.90158659457178,53.7428998861646 -1.90169722669489,53.7429008747644 -1.90179573032534,53.7429027530339 -1.90187159193232,53.7429109016091 -1.90193817842141,53.7429298254592 -1.90197913222323,53.742951423834 -1.90200932443186,53.7429775065069 -1.90200175122768,53.7430089493327 -1.90196979848965,53.7430413609202 -1.9019120908333,53.7430754582665 -1.90184689345542,53.7431041584554 -1.9017649805012,53.7431175689189 -1.90164518228839,53.7431336446741 -1.90157538318931,53.7431524568391 -1.90150092683607,53.7431847435441 -1.90144638578125,53.7431999738516 -1.90134619966498,53.7432223552033 -1.90129914599489,53.7432438814023 -1.90123088670355,53.7432986358352 -1.90115189393208,53.7433462835613 -1.90103799110519,53.7434072909629 -1.90092724012229,53.7434566191565 -1.90079519364999,53.7435247990432 -1.90074660467986,53.7435607009587 -1.90073429486982,53.7435858499798 -1.90072675903921,53.743600220048 -1.90069774023242,53.7436604884252 -1.90068400046517,53.7437089987627 -1.9007021621657,53.7437476505094 -1.90073548328093,53.7437719393935 -1.90080057950903,53.7437872683485 -1.90090069588937,53.7437954376034 -1.90103557382897,53.7438000420567 -1.9012251055168,53.7437948063736 -1.9014040198864,53.7437859682626 -1.90146315068583,53.7437860168502 -1.90159500871701,53.743799603482 -1.90168449603002,53.74380866215 -1.90173597058764,53.7438221827237 -1.90179055137666,53.7438437923203 -1.90183747239209,53.7438797719287 -1.90192367033892,53.7439607119409 -1.90201150681327,53.7440354524084 -1.90207201041352,53.74409121122 -1.90208857152158,53.744119079442 -1.90210374858286,53.7441514396325 -1.90211580901629,53.7441802029777 -1.90212322894311,53.7442152523369 -1.90211563279459,53.7442565792461 -1.90208967421889,53.7442916903507 -1.90206083328975,53.7443294056158 -1.90204247714527,53.7443743180356 -1.9020014713446,53.7444290960545 -1.90195283253243,53.7444865624228 -1.90192085598969,53.7445287681903 -1.90190712358433,53.7445745822686 -1.9019191713325,53.744608826502 -1.90192968083694,53.744659153498 -1.90194467963834,53.7447148760614 -1.90197493306054,53.744768812589 -1.90224739723376,53.7449623118882 -1.90234886525709,53.745036074523 -1.90250011438595,53.7451539070369 -1.90259396833243,53.7452231710734 -1.90264403440003,53.745252055091 -1.90269396046587,53.745287138894 -1.90282862931295,53.7453851884422 -1.90291952419295,53.7454373780246 -1.90299681416373,53.7454787736394 -1.90308012159168,53.745513883367 -1.90313605365057,53.7455472650157 -1.90317396273536,53.7455895266149 -1.90320111790633,53.7456326792242 -1.90322673459223,53.7456929014866 -1.90323872450712,53.7457531136523 -1.90323866302593,53.7457800703997 -1.90322047283483,53.7458070116256 -1.90317942129049,53.7458267467012 -1.90314741960225,53.7458807234454 -1.90309722208001,53.7459633482028 -1.90307732770853,53.7460253322238 -1.90315456915295,53.7460891904919 -1.90325750348117,53.7461801161053 -1.90335735073197,53.7462538774646 -1.90342699207029,53.7463069474338 -1.90347085512769,53.7463698807221 -1.90356616755336,53.7464598112544 -1.90367817590833,53.7465192948014 -1.90377522924946,53.7465580102735 -1.90382066553496,53.7465894957001 -1.90384020461118,53.7466290468541 -1.90385683876226,53.7466811761726 -1.90385969702385,53.746744076448 -1.90385342631466,53.7468079571876 -1.90383218382915,53.7468582585489 -1.90378505657385,53.7469103367489 -1.90382589900446,53.7469283400916 -1.9038303892756,53.7469328367893 -1.90383500336756,53.7469382314867 -1.9038409932878,53.746942729386 -1.90384711110348,53.7469463276893 -1.90385160545062,53.7469490276894 -1.90386072407928,53.7469526283969 -1.9038713459058,53.7469553333063 -1.90388795969994,53.7469616364152 -1.90392594406413,53.746971550037 -1.90398953911926,53.7469895724407 -1.9040335434529,53.7469914043477 -1.90406079387494,53.7469932237409 -1.90412439511396,53.7470085496797 -1.90423510159425,53.7470364927904 -1.90424870451919,53.7470472856452 -1.9042563215219,53.7470517848223 -1.90426231302169,53.7470562818029 -1.90427292730213,53.7470616821701 -1.90428354361504,53.7470661828397 -1.90429266433157,53.7470688856153 -1.9043047858669,53.7470715916826 -1.90431690538087,53.7470751947489 -1.90432752372662,53.7470787975156 -1.90435626171719,53.7470860090266 -1.90437286348487,53.7470977030573 -1.90437598611055,53.747099503145 -1.90437747968814,53.7471021998348 -1.90437897731523,53.7471030998278 -1.90438047240948,53.7471057965188 -1.90438196598758,53.7471084932085 -1.90438345905665,53.7471120886972 -1.9043834527794,53.7471148740715 -1.90438494433247,53.7471184695589 -1.90438492408312,53.7471274548402 -1.90438801684862,53.7471418336011 -1.90441369485404,53.7471759985517 -1.90446505098786,53.7472443293348 -1.90446817009025,53.7472470273178 -1.90447266451138,53.7472497263958 -1.90447415961683,53.7472524230855 -1.90448327836251,53.7472560246443 -1.90448777480893,53.747257824924 -1.90449389676813,53.7472596273963 -1.90449989641326,53.7472605300728 -1.90450602241933,53.747260534949 -1.90451202054649,53.7472614385224 -1.90452114334064,53.7472632433817 -1.90452414013086,53.7472650424665 -1.90452876445652,53.7472659449458 -1.90453175770851,53.747268642827 -1.90453475045487,53.7472722395071 -1.90454683770087,53.7472902197189 -1.90456803967893,53.7473135990773 -1.90456953529802,53.7473153969669 -1.90457253209403,53.7473171960505 -1.90457565524966,53.747318097334 -1.90457865406552,53.7473189985185 -1.90458315052273,53.7473207987946 -1.90458777081537,53.7473234979683 -1.90463011769045,53.7473397055325 -1.90471042578625,53.7473757114314 -1.9047407789771,53.7473883151313 -1.90474377578562,53.7473901142106 -1.90474827225548,53.7473919153792 -1.90475439626507,53.7473928181417 -1.90475739307247,53.7473946181195 -1.90476189156091,53.7473955204899 -1.90476651590805,53.7473964220613 -1.90477251204289,53.7473982244194 -1.90478013723363,53.7473991283721 -1.90481651079127,53.7474027515337 -1.90484988149597,53.7474072711022 -1.90485750668798,53.7474081759487 -1.90486200518204,53.7474090774166 -1.90486350283043,53.7474099774035 -1.90486800283913,53.7474108797712 -1.90487262365874,53.747412680135 -1.90487412282382,53.747413580123 -1.9048786193038,53.747415380388 -1.90488324213726,53.7474162828525 -1.90488624096671,53.7474171840293 -1.90488773811942,53.7474189819161 -1.90488923576871,53.7474198819027 -1.9048907349344,53.7474207818905 -1.90489385810655,53.7474216822669 -1.90489685693662,53.7474225834434 -1.9049059838111,53.7474225906779 -1.90492411371759,53.7474217062473 -1.90493023974719,53.7474217111019 -1.90494086628567,53.747421719522 -1.90494536679455,53.7474217230878 -1.90494836562572,53.7474226242631 -1.9049529879664,53.747424424625 -1.90495898160499,53.7474280236717 -1.90496509737035,53.7474326114942 -1.90498781340474,53.7474497012807 -1.90502715971315,53.7474659063281 -1.90504077705489,53.7474704102048 -1.90505439440156,53.7474749131811 -1.90506501291137,53.7474785158825 -1.90507563142298,53.7474821185829 -1.90508475228057,53.7474848212982 -1.9050938711289,53.7474884228106 -1.90510286563839,53.7474920242239 -1.90511348415665,53.747495626921 -1.90512560185229,53.7475001287032 -1.90513921921565,53.7475046325687 -1.90514833606569,53.7475091319759 -1.90515895258312,53.7475136334666 -1.90516957111164,53.7475172361587 -1.90517868997427,53.7475208376647 -1.90519530218135,53.7475280384911 -1.90520591670056,53.7475334387755 -1.90521653675445,53.7475370414646 -1.90522565562739,53.7475406420681 -1.90523627617383,53.7475433468553 -1.90523927502191,53.7475442471245 -1.90524689672363,53.7475460507428 -1.90525139323373,53.7475478509939 -1.90525439007345,53.7475496509592 -1.90526201329515,53.747551453679 -1.90526500813081,53.747554151543 -1.90527112214389,53.7475595473689 -1.90527561063024,53.74756494281 -1.90527709826444,53.7475703349828 -1.90528008908949,53.7475748304419 -1.90528469942694,53.7475820217799 -1.90528768423675,53.7475892127332 -1.90529975834485,53.7476125847549 -1.90530124750017,53.7476179769287 -1.90530423632723,53.7476233702861 -1.9053088511713,53.7476278670262 -1.90531334368128,53.7476314648704 -1.90531946172302,53.7476350630984 -1.90532245255719,53.7476395585564 -1.90533006978193,53.747644057665 -1.90533456229745,53.7476476546095 -1.90534217800858,53.7476521537162 -1.90534517486161,53.7476539527804 -1.9053466740454,53.7476548527625 -1.90534967089681,53.7476566527254 -1.90535116656149,53.7476584506052 -1.90535279008648,53.7476593506853 -1.9053542837465,53.7476620473628 -1.90535427773387,53.7476647428571 -1.90536482368342,53.7477015911621 -1.90539952988498,53.7477798814818 -1.90541164168208,53.7477870796282 -1.90541763741508,53.7477897798541 -1.90542525716755,53.74779248136 -1.90543437811487,53.7477951840487 -1.90544487840356,53.747796091124 -1.90545700222526,53.747797898277 -1.90546612165945,53.7478006009621 -1.90547524661577,53.7478015060522 -1.90548587276461,53.7478024132231 -1.90549499820528,53.7478024204116 -1.9054995002713,53.7478024239579 -1.90551009288957,53.7478177073948 -1.90554196431953,53.7478222255895 -1.90558133318419,53.7478285463762 -1.90561771517731,53.7478285750029 -1.90564047165405,53.7478276941036 -1.90564809742158,53.747827700101 -1.9056541011675,53.7478268060231 -1.90566472980477,53.7478259164803 -1.90567536195797,53.7478241272412 -1.90568599059413,53.7478232376965 -1.90569812442176,53.7478205508366 -1.9057162604707,53.7478169716909 -1.9057315175119,53.7478151860812 -1.9057345203815,53.7478142896414 -1.90574052061068,53.7478142943557 -1.90574214614661,53.7478142956328 -1.90574514502283,53.7478151967881 -1.90574664621743,53.7478151979674 -1.90574964357745,53.7478160991215 -1.90575426799001,53.7478170015535 -1.90575876654701,53.7478179029877 -1.90576176342766,53.7478197029403 -1.90576638784287,53.7478206044731 -1.90576938472404,53.7478224044255 -1.90577387929009,53.7478251034546 -1.90577699851944,53.7478278014034 -1.90578910839934,53.7478358983094 -1.90579809554202,53.7478421951636 -1.90580870774781,53.7478493911935 -1.90581932043383,53.7478556893223 -1.90582992913356,53.7478637850457 -1.90583603927683,53.7478709775393 -1.90584052587631,53.7478772708579 -1.9058435147889,53.7478826651005 -1.90584812924302,53.7478880597199 -1.90585112214592,53.7478916563669 -1.90585261385188,53.7478952518358 -1.90585260587686,53.7478988461279 -1.90585259590958,53.7479033383188 -1.90585409311887,53.7479051370923 -1.90585408913242,53.7479069337889 -1.90585408514597,53.7479087304855 -1.90585558283337,53.74790963046 -1.90585558083918,53.7479105292577 -1.90585707653449,53.7479123271311 -1.90586020127818,53.7479132283823 -1.90586170095991,53.7479132295591 -1.90586469984575,53.7479141307114 -1.90586619753556,53.747915029787 -1.90586919642162,53.7479159309392 -1.90587081996761,53.7479168310122 -1.90589343667912,53.7479222397526 -1.90590105600931,53.7479258400271 -1.90591018498624,53.7479249483876 -1.90591931396078,53.7479240576461 -1.90592831907153,53.7479222671087 -1.90593895123593,53.7479204787451 -1.90594958586742,53.747916892784 -1.90611495280921,53.7478792835196 -1.90617258418278,53.7478811253041 -1.90618020948921,53.7478820300665 -1.90618620575586,53.7478838314552 -1.9061938290761,53.7478856350145 -1.90619982534384,53.7478874364024 -1.90620444778716,53.7478892376149 -1.90621356681903,53.747892839042 -1.90621656571295,53.7478937392867 -1.9063104834656,53.7479396388442 -1.9063149780789,53.747942337853 -1.90632259593245,53.7479459380996 -1.90632559086418,53.747948635937 -1.90633320825414,53.747953134083 -1.9063421915357,53.7479612284919 -1.90635741687508,53.7479738199711 -1.90636489850017,53.7479828111066 -1.90641030853428,53.7480277739183 -1.90641642474524,53.7480322708879 -1.90643915159752,53.7480448682077 -1.90646937775145,53.7480584600488 -1.90648910922028,53.7480692574253 -1.90649360187831,53.7480728552251 -1.90651482361109,53.7480872489558 -1.90655115985479,53.748108842154 -1.90655728004905,53.7481115424198 -1.90657088985187,53.7481196395158 -1.90660721870147,53.7481439290888 -1.90662383535272,53.7481493330204 -1.90662695861409,53.7481502342504 -1.9066299575352,53.7481511344848 -1.90663145722546,53.7481511356519 -1.90664508286819,53.7481520450543 -1.90665721277538,53.7481511556929 -1.90668760069853,53.7481484838323 -1.90672245608485,53.7481601926301 -1.90673906880864,53.7481673932424 -1.90674518902348,53.7481700934986 -1.90675118489469,53.7481727945566 -1.90675730708604,53.7481745960145 -1.90676180372795,53.7481763962088 -1.90676942910059,53.7481773009338 -1.90677392771592,53.7481782032287 -1.90678455247164,53.7481791102833 -1.90679217784724,53.7481800141081 -1.90680117310763,53.748182716595 -1.90681029225418,53.7481863179766 -1.90681791565601,53.7481881214963 -1.90682241032839,53.748190820486 -1.9068270332888,53.7481917228755 -1.90683153145189,53.7481935230684 -1.90683302719897,53.7481953209296 -1.9068375258176,53.7481962232221 -1.90684064863022,53.7481980232454 -1.90684364604295,53.7481989234733 -1.90685126944848,53.7482007269908 -1.90685726730567,53.748202528347 -1.90686789009675,53.7482043341919 -1.90687701517089,53.7482052391754 -1.90688301151148,53.748207041428 -1.90689063689426,53.7482079452465 -1.9068997619677,53.748208851127 -1.90690725952051,53.7482106536445 -1.90691638262335,53.7482124583215 -1.90692550375759,53.7482151608967 -1.90693312368398,53.7482178623067 -1.90693911957604,53.7482205624565 -1.9069482407135,53.74822326503 -1.90695735836506,53.7482268663993 -1.90698609122898,53.7482376715729 -1.90701645162986,53.7482475792017 -1.90703606579344,53.7482538841985 -1.90705430612782,53.7482601881277 -1.90707404616204,53.7482664932157 -1.90709365989365,53.7482736961031 -1.90711040099946,53.7482791009623 -1.90712701776877,53.7482845048242 -1.90718611512969,53.7483034199475 -1.90728158363236,53.7483268562523 -1.90732406474781,53.7483394686683 -1.90733006264503,53.7483412700009 -1.90733918383378,53.7483439725446 -1.90734368444161,53.7483439760205 -1.9073498086436,53.7483448795492 -1.90736193662953,53.7483448889142 -1.90737406113729,53.7483457970746 -1.90738618912349,53.7483458064372 -1.90739981876815,53.7483449181584 -1.90741657562676,53.748343133492 -1.90743020678433,53.7483422461097 -1.90744383446662,53.7483422566236 -1.90745596289549,53.7483413671802 -1.90746809284022,53.7483404777368 -1.90748172247948,53.7483395903475 -1.90749685333347,53.7483387032153 -1.90753024269123,53.748335134656 -1.90756974841979,53.748336063897 -1.90760612454483,53.7483396862138 -1.90761362606263,53.7483396919905 -1.90762888908025,53.7483352106452 -1.90762902207429,53.7482741094774 -1.90766082882676,53.7482507723717 -1.90767295874107,53.7482498829075 -1.90768508909167,53.748248095542 -1.90769572126589,53.7482463061238 -1.90772311263323,53.7482409361964 -1.90780036188219,53.7482490820822 -1.90787773160175,53.7482590256093 -1.90788073055546,53.7482599267112 -1.90788372799293,53.7482608278118 -1.90788835250217,53.7482617292628 -1.90789135145629,53.7482626303644 -1.90789434845988,53.7482644302637 -1.90790346966828,53.7482671327645 -1.90790646320786,53.7482698305613 -1.90791408472358,53.7482725319102 -1.90792007873632,53.7482761308087 -1.90792469783159,53.7482788298526 -1.9079291925847,53.7482815288008 -1.90793368885476,53.7482842277501 -1.90794429806944,53.7482923232863 -1.90796402461188,53.7483049180144 -1.90797613700094,53.7483121150027 -1.90798674817952,53.7483193117374 -1.90799886447155,53.7483247120268 -1.9080094814999,53.748329213265 -1.90801859688761,53.7483346112515 -1.90803370630974,53.7483436081301 -1.9080609207979,53.7483624983786 -1.90806704112406,53.7483651994662 -1.90807153589552,53.7483678984091 -1.90807765622509,53.7483705985973 -1.90808215488919,53.7483715008431 -1.90808977818647,53.7483733932628 -1.90809577806578,53.7483742966582 -1.90810340393289,53.7483743024995 -1.90811090351286,53.7483752061439 -1.90814129170052,53.7483724440352 -1.9081853019759,53.7483715798224 -1.90822319148678,53.7483689124143 -1.9082308192945,53.7483680203485 -1.90823832081749,53.7483680260861 -1.90824294340287,53.7483698263211 -1.90824744207046,53.7483707285607 -1.90825194268126,53.7483707320025 -1.90825656720854,53.748371634338 -1.90827931207925,53.7483762338067 -1.9083020571472,53.74838074429 -1.90830655387728,53.7483825444264 -1.90831255376256,53.7483834478108 -1.90831717829253,53.7483843501441 -1.9083216769652,53.7483852514821 -1.90833230374804,53.7483852596019 -1.90834143083224,53.748385266575 -1.90835805750175,53.7483861780752 -1.90838692487644,53.7483924899183 -1.90841716373876,53.7484005995009 -1.90844903010865,53.7484078124174 -1.90846115229932,53.7484105171657 -1.9084747741912,53.7484132230568 -1.90848689832117,53.7484150299035 -1.90849902287355,53.7484159379501 -1.90851115088036,53.7484159471989 -1.90852478052415,53.7484150587921 -1.90854303857921,53.7484132751129 -1.90856129856724,53.7484105935319 -1.9085900652876,53.7484052244546 -1.9086098264848,53.74840254401 -1.90862495968966,53.7483998600375 -1.9086477164131,53.7483989785676 -1.90865371824253,53.7483989831372 -1.90866897343644,53.7483980959517 -1.90868109992179,53.7483981051822 -1.90870072945196,53.7483981201212 -1.90872048139222,53.7483990339493 -1.90873873363415,53.7483999466334 -1.90875386062083,53.7484008560392 -1.90876448547566,53.7484017629184 -1.90876898608985,53.7484017663407 -1.90882359766465,53.7484134886494 -1.90887058766264,53.7484225105443 -1.90889933079608,53.7484288221696 -1.90892969757158,53.7484360329208 -1.90894631656307,53.7484405386317 -1.9089645596041,53.7484450446737 -1.908970555659,53.748447744722 -1.90897967890191,53.7484495492421 -1.90898879829292,53.7484531504581 -1.9089979196126,53.7484558528757 -1.90901603446909,53.7484621564111 -1.90905851239197,53.7484765649094 -1.90906150753692,53.7484792626785 -1.90906912916286,53.7484819648527 -1.90907362786211,53.7484828661626 -1.90907812655961,53.7484837683711 -1.90908424889595,53.7484855697102 -1.90908874759397,53.7484864719182 -1.90909487185428,53.7484873753578 -1.90909937399406,53.7484873787689 -1.90910999887821,53.7484882856175 -1.90913725049233,53.7484901029585 -1.90914337475421,53.7484910063956 -1.90914787537801,53.7484910098037 -1.90915700248534,53.7484910167147 -1.9091585037042,53.7484910178514 -1.90916312867136,53.7484910213531 -1.90917975924707,53.7484901351439 -1.90918426331027,53.748489239754 -1.90918888827725,53.7484892432547 -1.90919188919844,53.748489245526 -1.90919638982206,53.7484892489323 -1.9092040153039,53.7484901535025 -1.90921013956723,53.7484910569362 -1.90921463827048,53.7484919582407 -1.90921763534701,53.7484937581069 -1.90922975761193,53.7484964627775 -1.90924500322188,53.7485000686087 -1.90924950000508,53.7485018687097 -1.90925400063006,53.7485018721138 -1.90925712589557,53.7485018744776 -1.90926012489616,53.748502775545 -1.90926462552122,53.7485027789487 -1.90926925392741,53.7485018836497 -1.90927525769089,53.7485009902893 -1.90927976407904,53.7484982972992 -1.9092919093916,53.7484902199856 -1.90930255156226,53.7484830394348 -1.90930568642524,53.7484785496061 -1.90931019472756,53.7484749587159 -1.90931170170516,53.7484722643561 -1.90931470646585,53.7484704690289 -1.90931933526935,53.7484686758278 -1.90932234002946,53.7484668805003 -1.90932846813013,53.7484659872313 -1.90933147096967,53.7484650907013 -1.9093374747285,53.748464196439 -1.90934360091065,53.7484642010682 -1.90940123898011,53.7484633467053 -1.90943912274395,53.7484633753062 -1.90948913109758,53.7484643109427 -1.90955589203849,53.7484661588861 -1.90956189044813,53.7484670613082 -1.90956951593384,53.7484679658551 -1.90957401655522,53.7484679692472 -1.90958313982844,53.7484697737213 -1.90958776630972,53.7484697772078 -1.90962562752007,53.7484796889289 -1.9096589957727,53.7484860038557 -1.90971198174723,53.7484986233347 -1.90975134462314,53.7485076391444 -1.9097574685082,53.7485094404503 -1.90976346501757,53.74851124166 -1.90976958929601,53.7485121450652 -1.90977558541215,53.7485148450732 -1.9097802080776,53.7485166461478 -1.90978320366565,53.7485184450999 -1.90978620076842,53.7485202449519 -1.90979082534699,53.7485211463295 -1.90979831543941,53.7485265438573 -1.90980593369886,53.7485301429838 -1.90981954577701,53.7485382406111 -1.90982566624362,53.7485409407101 -1.9098286637428,53.7485418417621 -1.90983928444736,53.7485454440417 -1.90985140143494,53.7485499453451 -1.90985289883822,53.7485517440686 -1.90987412577892,53.7485643396093 -1.90988012000286,53.7485679375111 -1.90988324336513,53.7485688386563 -1.9098877416975,53.7485706396333 -1.90989224042378,53.7485715409125 -1.90989986632702,53.7485715466395 -1.90990436505177,53.748572448817 -1.90991199056396,53.7485733533421 -1.90997562300499,53.7485760966031 -1.91003175540978,53.7485788342066 -1.91004087872862,53.748580637747 -1.91005150746405,53.7485797478154 -1.91006213620092,53.7485788569841 -1.91009089484659,53.7485779797391 -1.91011215231543,53.7485761989673 -1.91013791003083,53.7485753194628 -1.91016368105691,53.7485681501658 -1.91017581481211,53.7485654637516 -1.91019407856367,53.7485609852251 -1.91020621269981,53.748557400009 -1.91023962251888,53.7485448454147 -1.9102456285525,53.748542154409 -1.91025325786718,53.7485412613168 -1.91026689511317,53.7485367784196 -1.91027903075061,53.748533194096 -1.91029879608227,53.7485278169784 -1.91031242762194,53.7485260304693 -1.91031693014855,53.7485251350358 -1.91032455945864,53.7485242419391 -1.91032755886605,53.7485242441809 -1.9103336850571,53.7485242487594 -1.91033668598089,53.748524251002 -1.91034118470997,53.7485251531631 -1.91035493451621,53.7485269610357 -1.910359435144,53.7485269643984 -1.9103685603635,53.7485278691161 -1.91038668456084,53.7485305781533 -1.91040030282134,53.7485350814212 -1.91042153939929,53.748543183775 -1.91043827876584,53.7485503848677 -1.91049741436447,53.7485513277952 -1.91050041150205,53.7485531267306 -1.91050340901655,53.7485540277658 -1.91050953142421,53.7485558290321 -1.91051402788729,53.7485585287835 -1.91052014650875,53.748562126746 -1.91052463956417,53.7485657243949 -1.91053063384207,53.748569323163 -1.91053824459508,53.7485765174341 -1.91054123794789,53.748580113964 -1.91054884491859,53.7485891049313 -1.91055034235496,53.7485909027473 -1.91055333760373,53.7485936004792 -1.91055645530274,53.7485971971014 -1.91055945055234,53.7485998948331 -1.9105594467648,53.7486016924287 -1.91056244201492,53.7486043901603 -1.91057006035198,53.748607990137 -1.91057455531002,53.7486106889861 -1.91057917612876,53.7486133879289 -1.91058517420266,53.7486151899975 -1.91059129662272,53.7486169912596 -1.91059279443668,53.748617891175 -1.91059729318316,53.7486187924277 -1.91060341560237,53.748620594588 -1.91060791586385,53.7486214967402 -1.91061404017841,53.7486223992034 -1.91062003863117,53.7486233024713 -1.9106336664057,53.7486233126226 -1.91063979450329,53.7486224183877 -1.91064429665772,53.7486224217408 -1.91065042475305,53.7486215284041 -1.91065492917445,53.7486197341601 -1.9106700661082,53.7486152532326 -1.9106913364317,53.7486080804712 -1.91071110363458,53.7486018053866 -1.91071260674795,53.748600907706 -1.91071711116259,53.7485991143584 -1.91072323925489,53.7485982201192 -1.91072473896124,53.7485982212351 -1.91072624207419,53.7485973235544 -1.91072924489148,53.7485964278882 -1.91073387176047,53.7485955325315 -1.91074449822373,53.7485964392364 -1.91076112314155,53.7485982483023 -1.91076874716051,53.7485991527719 -1.91078087144471,53.7486009584878 -1.91078237115115,53.748600959603 -1.91078837112087,53.7486018628637 -1.9107974944772,53.7486036663466 -1.91080511849794,53.7486045708138 -1.91081112035706,53.7486045752755 -1.91082637369228,53.7486045866132 -1.9108338771459,53.7486036933906 -1.91084300616393,53.7486028022742 -1.91085964240889,53.7485992203373 -1.91088090551679,53.7485947430357 -1.91090979792781,53.7485893734952 -1.9109264303918,53.7485875882458 -1.91095069216035,53.7485849107564 -1.91097645023036,53.7485831331715 -1.91097795145258,53.7485831342853 -1.91098557924281,53.7485822411454 -1.91100220793216,53.7485822534811 -1.91101595778555,53.7485840612779 -1.91103557987315,53.7485876692283 -1.91105982694064,53.7485912815027 -1.91107195123321,53.7485930880881 -1.91108257242346,53.7485957914587 -1.91108719891879,53.7485957948872 -1.91109169767163,53.7485966970202 -1.91109469860065,53.7485966992439 -1.91110082480239,53.7485967037832 -1.91110532543772,53.7485967071178 -1.91111895884926,53.7485940208205 -1.91113871845817,53.7485913399577 -1.91114322248873,53.748590445393 -1.91116597550331,53.7485913601419 -1.91116747520945,53.7485913612522 -1.9111796032677,53.7485913702311 -1.91119022822317,53.7485922768953 -1.91120235440167,53.7485931846696 -1.91123272768848,53.7485968014429 -1.91125697629648,53.7486004127798 -1.9112676012559,53.7486013194372 -1.91129634862584,53.7486058337911 -1.91129784833248,53.7486058348998 -1.9113039726596,53.7486067373278 -1.91130847329604,53.7486067406548 -1.91132222692558,53.7486067508208 -1.91132822878509,53.7486067552566 -1.9113327312969,53.7486058606837 -1.91138587638934,53.7486014068492 -1.91148589502804,53.748603278276 -1.91149502216032,53.748603285009 -1.91149801970161,53.7486041851205 -1.91150564338038,53.7486059883421 -1.91151776769825,53.7486077939836 -1.91153600921469,53.7486131984323 -1.91155875101754,53.7486195049948 -1.91158599498209,53.7486258148706 -1.91159199158455,53.7486276168878 -1.91165421858363,53.7486456333145 -1.91171332444742,53.7486609519135 -1.9117329447602,53.7486654594464 -1.91176181283361,53.748671770477 -1.91178755563687,53.748678079203 -1.91179055318789,53.748678980206 -1.91179667753624,53.7486798826088 -1.91179967473669,53.7486816824105 -1.91180417351588,53.748682583618 -1.91180567474168,53.7486825847215 -1.91181178975577,53.7486879811126 -1.91181940989511,53.748690772092 -1.91183451652704,53.7487015651888 -1.91184812380423,53.7487114592817 -1.91186935107371,53.7487249532684 -1.91187084518919,53.7487276498646 -1.91188745342249,53.7487375461572 -1.91190268443281,53.7487483393367 -1.91190717389638,53.7487537345294 -1.91193138910164,53.7487735195967 -1.91194049611549,53.7487825124753 -1.91196021255753,53.7488013963344 -1.91196170854537,53.7488031941317 -1.91196320418595,53.7488058907279 -1.91196619429677,53.7488103860189 -1.91196769180158,53.7488121838172 -1.91197231307721,53.7488139848062 -1.91197680966362,53.7488166836039 -1.91198892695819,53.7488211846912 -1.91203140032958,53.7488391873289 -1.91206013153951,53.7488508891847 -1.91207074727575,53.7488562879624 -1.91209647721529,53.7488688864091 -1.91213432973386,53.7488841892272 -1.91215856405309,53.7488940910666 -1.9121676819533,53.7488985908387 -1.91218741933788,53.7489066917818 -1.912191915948,53.7489093905714 -1.91219653538695,53.7489120894507 -1.91219803476215,53.7489129893471 -1.91219953262103,53.7489138892424 -1.91219953076228,53.7489147880402 -1.9122010286231,53.7489156870367 -1.91220102676438,53.7489165858345 -1.91220101933133,53.7489201801269 -1.91220101561574,53.7489219768237 -1.91219649450401,53.7489318576097 -1.91219498921098,53.7489345520068 -1.9121933617726,53.748935449615 -1.91219335248,53.7489399427052 -1.91219647220369,53.7489426404869 -1.91260543199794,53.7491290264438 -1.91267680788709,53.749075166642 -1.91292693922851,53.749161607977 -1.91295267546371,53.7491706119462 -1.91298603891484,53.7491805202407 -1.91299965766413,53.7491850232133 -1.91300415283971,53.7491877219713 -1.91302689701442,53.7491931294574 -1.91306937336957,53.7492093341303 -1.91307087277405,53.7492102340158 -1.91313593074657,53.7492498166105 -1.91316327764886,53.749266909095 -1.91316627127699,53.7492705046605 -1.91323594682517,53.7493145836391 -1.91325405851081,53.7493236728083 -1.91327229321915,53.749332671285 -1.91327678810862,53.7493362688316 -1.9133707076215,53.7493866550485 -1.91348136242517,53.7494460385549 -1.91359951561209,53.7495072240577 -1.91362374880672,53.7495180243983 -1.91363886350887,53.7495252229747 -1.91364648410205,53.7495279248568 -1.91365398369573,53.7495297269535 -1.91366310403229,53.749532429015 -1.91367072614659,53.7495351299979 -1.91367372531544,53.7495360309549 -1.91369795854572,53.7495468312804 -1.91372369487361,53.749556732984 -1.91372519278804,53.7495576328602 -1.91373431282564,53.7495612337152 -1.91362952598512,53.7496285493861 -1.91428087374718,53.7499679464219 -1.91429301308611,53.7499625631985 -1.91429914492737,53.7499598720801 -1.91432492153219,53.7499500063958 -1.91434619238443,53.7499418452077 -1.91439023105593,53.7499283982474 -1.91445541598395,53.7499068798544 -1.91456013711343,53.7498719111952 -1.91467999501426,53.7498324610111 -1.9147285414486,53.7498154228341 -1.91476044784909,53.7498037647128 -1.91488031589053,53.7497598212385 -1.91506700104733,53.7496898669769 -1.91507463226375,53.7496880756792 -1.91516409323267,53.749655791187 -1.91523226997271,53.7497007667425 -1.9152488740017,53.7497133580636 -1.91525948677796,53.7497205541544 -1.91527309519199,53.7497304469591 -1.91528220822955,53.7497376419888 -1.91528832922137,53.7497403418089 -1.91529282639407,53.749742142582 -1.91529894890366,53.7497448424026 -1.91530194660593,53.7497457433177 -1.91531855784049,53.7497547403367 -1.91533829416656,53.7497646383575 -1.91533829237658,53.7497655362565 -1.91536252079465,53.7497790317403 -1.91537313539794,53.7497853290232 -1.91538225025533,53.7497916252474 -1.9154245823031,53.7498186109763 -1.91545642411825,53.7498393004021 -1.91549426112546,53.7498626886415 -1.91553060020815,53.7498851779141 -1.91555333436365,53.7498959768087 -1.91556395054144,53.7499022740757 -1.91557906062403,53.749911270002 -1.91560028791117,53.7499256612261 -1.91560940461715,53.749931059534 -1.91564124821682,53.7499509390937 -1.91564574185848,53.7499545365503 -1.9156882057206,53.7499779288796 -1.91572304524995,53.7500004170398 -1.91573965845831,53.7500085152024 -1.91574265235758,53.7500121116022 -1.9157472721454,53.7500148103445 -1.91574877341888,53.7500148113987 -1.91575176580294,53.7500184077971 -1.91575326172957,53.7500211043458 -1.91575937744627,53.7500264996362 -1.91576087542097,53.750027399487 -1.91576387288879,53.7500291982906 -1.9157683683301,53.7500318978436 -1.91577149166296,53.7500336967354 -1.91578660361934,53.7500417938377 -1.915792724686,53.7500444945307 -1.91581845112419,53.7500597876724 -1.91582294657405,53.7500624863246 -1.91584717149401,53.7500786772056 -1.91585478877139,53.7500831747453 -1.91589262417585,53.750108360455 -1.91594257238594,53.7501407432335 -1.91600626237702,53.750179425407 -1.91606533291597,53.7502145091189 -1.91608643643145,53.7502280022695 -1.91609555326706,53.7502333996415 -1.91610317032852,53.7502387968529 -1.9161637351621,53.7502766676977 -1.91634855751493,53.7503909104845 -1.91658020450631,53.7505375340983 -1.9167195716485,53.7506239799997 -1.91691800787993,53.7507472175029 -1.91702852559718,53.7508173802543 -1.91709221243775,53.7508578583905 -1.91723935922754,53.7508031487208 -1.91737138263926,53.7507457338684 -1.91756873583149,53.7506551164214 -1.91774182389004,53.7505688861158 -1.91790577982287,53.7504854346801 -1.91798315181714,53.7504324730322 -1.91802876088381,53.7503821869253 -1.91805311007938,53.7503345808725 -1.91807143129575,53.7502995502421 -1.9180911660415,53.7502455613791 -1.91810337083182,53.7502060342735 -1.9181080789163,53.7501638056172 -1.91810357350395,53.750100904586 -1.91809928231669,53.7499921784308 -1.91808749014361,53.7498177629168 -1.91815575682789,53.7498178095002 -1.91819512771605,53.7498250249434 -1.91827699316898,53.7498403558188 -1.91832848733527,53.7498502749729 -1.91834673695761,53.7498529828916 -1.91838460664321,53.749860197251 -1.9183846049165,53.7498610960489 -1.91842097831628,53.7498665117808 -1.91845435222226,53.7498719254633 -1.91848160168046,53.7498755382765 -1.91850897549083,53.7498791511679 -1.91854222872254,53.7498818692456 -1.91857260852466,53.749883686565 -1.91859986316526,53.7498846038564 -1.91863024641307,53.7498846244642 -1.91865750449732,53.7498837441467 -1.9186863899149,53.7498819670255 -1.91870001981573,53.7498810774622 -1.91873028407274,53.7498775036666 -1.91876067418679,53.7498739308473 -1.91876217393848,53.7498739318627 -1.91879256596854,53.7498685605397 -1.91882283364173,53.7498631900236 -1.91882583637804,53.7498622932559 -1.91884250389576,53.7499081306997 -1.91897442116159,53.7499028279557 -1.91903793958216,53.7499667574677 -1.91904255766609,53.7499712536801 -1.91904705160112,53.7499748501106 -1.91906528591751,53.7499856453034 -1.91908490078681,53.7499937450272 -1.91909402308493,53.7499964475756 -1.91910314538594,53.7499991492244 -1.91911226939931,53.7500009520747 -1.91911376744438,53.7500018518836 -1.91913185882272,53.7500216322639 -1.91913797155133,53.7500288240794 -1.91914096403102,53.7500333191924 -1.91914857974564,53.7500396141199 -1.91915607130837,53.7500450101643 -1.91915919326797,53.7500468098657 -1.91923484426904,53.7501088599673 -1.9192499840461,53.7501034791602 -1.91928338574988,53.7500936175407 -1.91932291897402,53.7500810645363 -1.91935319526101,53.7500712007959 -1.91937446483564,53.7500640264946 -1.91938209612346,53.7500613361237 -1.9194032413402,53.7500541617338 -1.91942914114727,53.7500442950344 -1.91948219178457,53.7500245633572 -1.91950796550433,53.7500155953552 -1.91952610465372,53.7500767078807 -1.91954723997406,53.7501396200099 -1.91956228446058,53.7501845574641 -1.91957882874522,53.7502294950225 -1.91959700027143,53.750272727607 -1.91962412215237,53.7503446287485 -1.91965735205124,53.7504255192315 -1.9199471487588,53.7503744959524 -1.92029297792232,53.7503136260507 -1.92052499177313,53.750271548238 -1.92094374856799,53.7501908665757 -1.92137149977596,53.7501147712828 -1.92197522960159,53.7500046454396 -1.92239847328616,53.7499293524675 -1.92238489115765,53.7499032857008 -1.92237280198286,53.749882611794 -1.92236371560626,53.7498601422305 -1.92238948533147,53.7498529703054 -1.92240924973022,53.7498475920899 -1.92244264885187,53.749838628387 -1.92279153119143,53.749744506432 -1.92314053631896,53.7496503835387 -1.92320270737145,53.7496332607745 -1.92371558138191,53.7494943135939 -1.92406909111737,53.7493956986583 -1.92438157025535,53.7493086477439 -1.92444836838789,53.7492898204287 -1.92471149710051,53.7496756398356 -1.92484342878872,53.7496613453462 -1.92491170949102,53.7496533015953 -1.92496173379546,53.7496470430903 -1.92502088408478,53.7496407003869 -1.92508766504368,53.7496317567995 -1.9251513173964,53.749625506722 -1.92521359281774,53.7496192557525 -1.92525898411131,53.7496165885337 -1.92531362867655,53.7496130282578 -1.92533788860009,53.7496103478556 -1.92534851569375,53.749610354467 -1.92535001695269,53.7496103554009 -1.92536514794573,53.7496085672142 -1.92537577813124,53.7496076759248 -1.92538490705907,53.7496067828023 -1.92539553730433,53.749604992712 -1.9254061691271,53.7496023029239 -1.92541529962817,53.7496005118997 -1.92542430893463,53.7495969232012 -1.92542593302335,53.7495969242105 -1.92543043843336,53.7495951303109 -1.92544407125005,53.749592443283 -1.92545169891483,53.7495915492226 -1.92546683141324,53.749589761024 -1.92548659057213,53.7495870777962 -1.92548959157196,53.7495870796596 -1.92550171997466,53.7495861892892 -1.92550934915353,53.7495852952261 -1.92552298038924,53.7495835060886 -1.92552748270304,53.7495826109824 -1.92554724185473,53.7495799277446 -1.92555024285405,53.7495799296064 -1.92556850068989,53.749578143334 -1.92561852329127,53.7495718845537 -1.92565191203045,53.7495692097459 -1.92565941848131,53.7495665188977 -1.92613112224886,53.7495137963162 -1.92610110091749,53.7493780978126 -1.92605600761539,53.7491380690893 -1.92600928377682,53.748973517795 -1.92594870703725,53.7489375383486 -1.92587753011104,53.7488862781306 -1.92571389318532,53.7488008152872 -1.92534425901377,53.7486171931064 -1.92459577117014,53.7482365518994 -1.92375033191018,53.7478252942374 -1.92345352222559,53.7476174520535 -1.92260999396822,53.7470623310716 -1.92237062433025,53.7468986416834 -1.92217031325001,53.7461614378598 -1.92195342267341,53.7454027469069 -1.92184811493191,53.7449497228286 -1.92279933786442,53.7446195856321 -1.92274649169037,53.7445314045214 -1.9226785261199,53.7443705214061 -1.92245026745434,53.744018055324 -1.92236995403783,53.7439801747008 -1.92223816928448,53.7439225832517 -1.9220853114684,53.7437679345423 -1.92100518605721,53.7424307350768 -1.92093416168324,53.7423065999434 -1.92164082986347,53.7422414699573 -1.92195994859657,53.7418480258 -1.92204146367873,53.7412279037926 -1.92205223126475,53.7410822563623 -1.92197208583843,53.7410237992317 -1.92190385486963,53.7410120731156 -1.92179775349206,53.7409967288754 -1.92114441308137,53.7408983606485 -1.92095495557224,53.7408712791234 -1.92079736928657,53.740847813548 -1.92063978166863,53.7408251557871 -1.92062765920174,53.7408233501649 -1.92051563002393,53.7407037695084 -1.92065576316973,53.7403659199269 -1.92065576484661,53.7403650211261 -1.92031619564327,53.7403315503082 -1.92030869723524,53.7403306465262 -1.92014797686197,53.7403134678268 -1.92017080150081,53.7402739465142 -1.92019966250904,53.7402145719799 -1.92025298966405,53.740107680559 -1.92027432159573,53.740063666021 -1.9202880003276,53.7400358203367 -1.920327525902,53.7399549777779 -1.92036404917003,53.7398767388395 -1.9203701976579,53.7398641632871 -1.92039905625545,53.7398057764832 -1.92040056052775,53.7398039807759 -1.92043707848366,53.7397276283955 -1.92044021318359,53.7397222394595 -1.92046457342033,53.7396638505544 -1.92046608961401,53.7396548653366 -1.92048137869008,53.739566728155 -1.92050436888782,53.739438251544 -1.9205151175219,53.7393726649876 -1.9205196574732,53.7393511030364 -1.92057127206773,53.7393565282321 -1.92072886605244,53.7393728064014 -1.92077886704772,53.7393728394265 -1.92082638663085,53.739093333451 -1.92084500317128,53.7388964748094 -1.9205054575614,53.7388558159032 -1.92050849642464,53.7388351508595 -1.92052071234898,53.7387866380157 -1.92040399944245,53.7387676911894 -1.92005841075684,53.7387512874738 -1.92010283612256,53.7385247937423 -1.92022474573128,53.7381716572637 -1.92027809229765,53.7380521861739 -1.92045482705313,53.7375893726468 -1.92061244106354,53.7375921725542 -1.92088824600687,53.7376229059315 -1.92137474769793,53.7376780365127 -1.92169616257131,53.7377169743155 -1.92227364607117,53.7377820447195 -1.92203033510725,53.7373432173781 -1.92219267735699,53.7372876132042 -1.9222173015557,53.7370827606498 -1.92235683162801,53.737062094987 -1.92234169236835,53.7370018825045 -1.922234216604,53.7369236395471 -1.9221660760377,53.7368660881821 -1.9221600873591,53.7368597944773 -1.92204946896265,53.736859722655 -1.92178411154772,53.7368595499477 -1.92148210017555,53.7361987418201 -1.9208333047281,53.7361821414803 -1.92108021873108,53.7354775755067 -1.92106992365275,53.7353005549384 -1.92100784793919,53.7344690900706 -1.92097616544812,53.7335603695967 -1.92093263567043,53.7333104557212 -1.92079256742291,53.7328214648252 -1.9207579185352,53.7327028340967 -1.92071288694299,53.732523005083 -1.92070850179117,53.7323945101961 -1.92070883703197,53.7322147111499 -1.92072452981392,53.7319091257597 -1.92076277412163,53.7317743692002 -1.92081002938631,53.7316323400652 -1.9209394190072,53.7313430044767 -1.92126326181425,53.7307859387418 -1.92136989544097,53.7304993721965 -1.92141864115269,53.7303609389775 -1.92144000180508,53.730298054704 -1.92145532831946,53.7301875433757 -1.92142424570767,53.7297623305613 -1.92132474173706,53.7295069880767 -1.92124457173912,53.7294062991425 -1.92085297149137,53.7289053710076 -1.92065635458951,53.7286599378608 -1.92055653914754,53.7285744198516 -1.92033865698718,53.7283415517481 -1.9205780308926,53.7284423476914 -1.92205347798424,53.7288747077951 -1.92334263192486,53.7292342383177 -1.92395771739388,53.7293828900755 -1.92457555201317,53.7288286966104 -1.92468186717091,53.7287056623354 -1.92486896627122,53.7283399817774 -1.9249056185917,53.7281772780882 -1.92503915357914,53.728136927096 -1.92509216767436,53.7281207862278 -1.92520739685971,53.7281154661825 -1.92552125078253,53.7280078363945 -1.92570779217228,53.7279548480036 -1.92580330007993,53.7279351388046 -1.92616394359066,53.7280118278989 -1.92643490725987,53.7282069790386 -1.92672080012943,53.728515444588 -1.92690070640618,53.7287609475342 -1.92699146587577,53.7288876981718 -1.92737942997676,53.7289257624517 -1.92775016388396,53.7293223353384 -1.92782875035142,53.729407743819 -1.92782410857167,53.7294922043083 -1.92776473391,53.7296468086533 -1.92773253522264,53.7298417739348 -1.92758381736423,53.7299900345082 -1.9275090307251,53.7302416723341 -1.92748766693527,53.7303108475269 -1.92741310608036,53.7305031805593 -1.92746159138952,53.7305059062924 -1.92758894967135,53.7304996933943 -1.92783155256511,53.7304817781033 -1.92809524498872,53.7304828352225 -1.92836045614457,53.7304722109182 -1.92964116393081,53.7305602183034 -1.92966988461001,53.7305737127011 -1.9296866067804,53.7305889985674 -1.92971225223998,53.7306492154573 -1.9297076333483,53.7307210963652 -1.9296862833437,53.730784880933 -1.92961624080883,53.7309700302484 -1.92961613684645,53.7310329284583 -1.92965396784263,53.7310554144406 -1.92970709182262,53.7310491557477 -1.92975415145854,53.7310078500304 -1.93070642516298,53.7307225761295 -1.93109467708629,53.7305943076478 -1.93126910281953,53.7305395968417 -1.9316724537748,53.7304238240044 -1.93181967888181,53.7303412420768 -1.93200169567349,53.7302281284501 -1.93257542729097,53.7297655206217 -1.93279400869394,53.7295238443372 -1.93277785972674,53.7292245300122 -1.93288630645219,53.7286862709757 -1.93262626714889,53.7282789041455 -1.93221886424034,53.7280504432281 -1.93171293848082,53.7278550826831 -1.93167210699947,53.7278352911462 -1.93148282289478,53.7277336471304 -1.93099660423247,53.7274888740664 -1.93076945848785,53.7273872071464 -1.93065281803376,53.7273403255916 -1.93049836724651,53.7272611639524 -1.93031211148049,53.7271451434661 -1.93020611556158,53.727084879969 -1.93008965398769,53.7270065488126 -1.92980344156533,53.7268078026507 -1.9295960818835,53.7266844901855 -1.92946423039792,53.7266188189333 -1.92881152429937,53.726337996741 -1.92875246607158,53.7263092080489 -1.92873741876062,53.7262651702917 -1.92876937858669,53.7262085807775 -1.92880116597576,53.7261807447981 -1.92883909126391,53.7261430282994 -1.92891349053023,53.7261143187444 -1.92904091930605,53.7260576966844 -1.92945934521583,53.725947421883 -1.92974141971871,53.7258469500236 -1.92980513318971,53.7257813934647 -1.9295766077291,53.725614039741 -1.92933277787674,53.7254845054463 -1.92931178058614,53.7253370415294 -1.92931235967289,53.7249874156959 -1.92930239036024,53.7245937550428 -1.92928159006384,53.7244013626968 -1.92927714924936,53.724291736887 -1.92921411523675,53.7239483629264 -1.92916116724102,53.7238538938748 -1.9290448936644,53.7236678257603 -1.92901351301916,53.7233774848155 -1.92899544746523,53.7232714452667 -1.92892457473293,53.7230610524433 -1.92886421081313,53.7229180566842 -1.92879322383591,53.7227769420971 -1.92867386622419,53.722571013523 -1.92866175616426,53.7225647164688 -1.92861034844362,53.7225215556943 -1.92849369498045,53.7224927325285 -1.92819654773851,53.7225024394993 -1.92811786716715,53.7224799285229 -1.92808013995251,53.7224017320595 -1.92812905469546,53.7221428882445 -1.92817679817968,53.7216898668392 -1.9281226801433,53.7214022983521 -1.9281211829184,53.7214013986478 -1.92799729541368,53.7211433501783 -1.92792027715891,53.7210264031408 -1.92776462171218,53.7207890915771 -1.92752402386556,53.7205417554573 -1.9274817362657,53.7205012952433 -1.92741659549077,53.7204545313555 -1.92736211295369,53.7203852200631 -1.92727137964565,53.7203258609053 -1.92717600480404,53.7202781797887 -1.92698507467317,53.7202151653516 -1.9265337151858,53.7201078728429 -1.92617327360999,53.7200258838449 -1.92571115390571,53.7199303524623 -1.9242992190691,53.7197694398615 -1.9230447401632,53.7195988172865 -1.92256463909488,53.7195041611694 -1.92220257324964,53.7194283592694 -1.92192679704979,53.7193778616576 -1.92176778376887,53.7193588887305 -1.92148142730764,53.7193551086416 -1.92122674673675,53.7193836949194 -1.92106181995718,53.7192515006634 -1.92087868528171,53.7191695222805 -1.92069988927205,53.7191065059342 -1.92061659587967,53.7190839870735 -1.92071371774765,53.7181870275063 -1.92077884721934,53.7174276154803 -1.92035457559958,53.7174246398382 -1.92038109470033,53.7170058434565 -1.92050506714672,53.7163128689832 -1.92050518406382,53.7162499700951 -1.92048870347671,53.7161771759916 -1.92041167081225,53.7160161943269</coordinates></LinearRing></outerBoundaryIs></Polygon>
  </Placemark>
