  <Placemark>
	<Style><LineStyle><color>ff0000ff</color></LineStyle><PolyStyle><fill>0</fill></PolyStyle></Style>
	<ExtendedData><SchemaData schemaUrl="#Wards__December_2019__Boundaries_EW_BFE">
		<SimpleData name="objectid">7028</SimpleData>
		<SimpleData name="wd19cd">E05012801</SimpleData>
		<SimpleData name="wd19nm">The Rows</SimpleData>
		<SimpleData name="wd19nmw"></SimpleData>
		<SimpleData name="bng_e">567138</SimpleData>
		<SimpleData name="bng_n">279315</SimpleData>
		<SimpleData name="long">0.454537</SimpleData>
		<SimpleData name="lat">52.386372</SimpleData>
		<SimpleData name="st_areashape">56267002.3939793</SimpleData>
		<SimpleData name="st_lengthshape">37563.2535846826</SimpleData>
	</SchemaData></ExtendedData>
      <Polygon><outerBoundaryIs><LinearRing><coordinates>0.425313414692045,52.4303272441151 0.421935499072226,52.4293579151303 0.419140241540172,52.4285473734335 0.417653692770375,52.4281300079714 0.415549602696212,52.4272315323123 0.409975100760272,52.424869733497 0.407792285552637,52.4239250814474 0.405756957990889,52.4230681837214 0.404958578456461,52.4227220557587 0.399903303258434,52.420528210017 0.397120393052451,52.419330261304 0.397054050119844,52.4193009521734 0.394580590316038,52.4182477847226 0.391512989852004,52.4169215268835 0.389474078941457,52.4160401534098 0.387676406091186,52.4152932114514 0.385446425078611,52.4143284299537 0.379557236151985,52.4118232396143 0.377487914298961,52.4109422746136 0.375982084393997,52.4102827787983 0.374777423612123,52.4097288652912 0.375656002547337,52.4080449034481 0.375890548092357,52.4075951146177 0.376887678151542,52.4056282841494 0.377692784029091,52.4040033150174 0.378627852488147,52.4022535558162 0.380473182944461,52.3990628544623 0.381260134034286,52.397679323228 0.382085581540506,52.3962733461799 0.382963939703167,52.3947593185779 0.383423584095238,52.3939866520992 0.384085677619709,52.3929904636495 0.384605883970026,52.3922516301848 0.385635322689359,52.3911175811139 0.386973554419874,52.3896860229493 0.38799297708994,52.3886941906184 0.389106361822597,52.3873741260829 0.391468692022014,52.3842033493327 0.392568610977781,52.3828017155084 0.393590497949339,52.3814259224368 0.396867728519184,52.3772256933099 0.398010702221386,52.3757305361463 0.400213813821473,52.37295034384 0.401084583994222,52.3717492542609 0.40244089842574,52.3698333166603 0.403266482007368,52.3687213170419 0.403928994869007,52.3677744425549 0.404540233654911,52.367019188569 0.405166326101273,52.3661855116145 0.405695231187107,52.3652665194815 0.406360517972608,52.3643726152045 0.406527950854708,52.3639924486586 0.406893268498347,52.363498487427 0.407263500599495,52.3631753178246 0.40732801428618,52.3630921974995 0.407351947865337,52.3630467621898 0.407376317229912,52.3629536717263 0.407370535066436,52.362145348665 0.407346821288564,52.3620343604192 0.407346869730841,52.361979522063 0.407355718800467,52.3619262129296 0.407380077973238,52.3618618906249 0.407416292028921,52.3617973258796 0.407464265280164,52.3617352183038 0.407617046340143,52.3615737978453 0.407691561003436,52.3615120485815 0.407832879908672,52.3614093837868 0.408459883233001,52.3610827758478 0.408704262232987,52.3609311722352 0.408941386413319,52.3607798068311 0.4093436491828,52.3604784516031 0.409460262946567,52.3603825813261 0.409527016825284,52.3603407666597 0.409598437355099,52.360302362863 0.409696013699304,52.3602617170783 0.409821654938049,52.3602204988308 0.409956640029228,52.3601907770896 0.410081929400405,52.3601720400559 0.411059482932633,52.3600523114616 0.412200359333453,52.360100943051 0.412978535573904,52.3601228105165 0.414238885753784,52.3600170566216 0.415182624590505,52.3598970854145 0.415275510507095,52.3598771176888 0.415449482227778,52.3598340070894 0.415596863727032,52.3597896414002 0.415736426058247,52.3597373450603 0.415967284306101,52.3596337379111 0.417468569080095,52.3588305474552 0.418768900842838,52.3582203251154 0.419190920985539,52.3579608729847 0.419224796208912,52.3579359065842 0.419217050065353,52.3579027138095 0.419092500690757,52.3575312031497 0.419081614792384,52.357464902215 0.419044808361864,52.3573829513107 0.41901768419169,52.357343052282 0.41894471231525,52.3572707414202 0.418681752516158,52.3571098156526 0.418684493735411,52.3568894222729 0.418716662040008,52.3567799889157 0.418761172984987,52.3567080586628 0.418820679311963,52.3566402267107 0.418878147409009,52.3565905063959 0.418930593350557,52.3565552719871 0.419004809537493,52.3565150966073 0.419157100213311,52.3564544442772 0.419977559386899,52.3562029219934 0.419994826771687,52.3561953763106 0.420337063568997,52.356036440898 0.420408516663296,52.3559989280735 0.420466227399445,52.3559536963205 0.420507458537536,52.3559016110396 0.420532187872544,52.3558444693568 0.420538270384499,52.3557940024697 0.420534855688028,52.3557581132726 0.420234185734424,52.35490458912 0.419990506598202,52.3544779852245 0.419568080117723,52.3536539219139 0.419491598349526,52.3529783851798 0.419558385593383,52.3525606145094 0.419581858363123,52.3525070947336 0.41962764211455,52.3524297444375 0.419691084195417,52.3523565277061 0.419755581007931,52.3523003701423 0.419833646339709,52.3522510358283 0.419938107096881,52.3521994531879 0.420053117982932,52.352154845464 0.420203225117214,52.3521077211382 0.420360955526227,52.352064935681 0.420496055530727,52.3520378960037 0.420621513271618,52.3520227400738 0.420721243230474,52.3520197975033 0.420808083334265,52.3520225125228 0.42098102815634,52.352043241595 0.42124139977224,52.352106227379 0.421242899583757,52.3521070958692 0.422171042903012,52.3523209934574 0.422348441308385,52.3523434267894 0.422515067645866,52.3523570911595 0.422641727344674,52.3523616851363 0.422888041067104,52.3523557357883 0.423099899167911,52.3523352093291 0.424015117501054,52.352126662393 0.424255258224672,52.3520875744157 0.424391045065015,52.3520731017513 0.424642989563026,52.3520616387148 0.424775305522045,52.3520634175336 0.424906343893344,52.3520706168909 0.425131231486134,52.3521001616832 0.425311113222199,52.3521414179728 0.425517755552533,52.3522136784936 0.425626140888385,52.3522626939893 0.425729017049894,52.3523172169649 0.425808086757785,52.3523659358612 0.425956957863317,52.3524843305682 0.426090010561638,52.3526344230647 0.426386424668445,52.3531121616997 0.426608144317023,52.3533269565904 0.427091930966217,52.3536596167699 0.427139891902245,52.3536775098864 0.42722930074898,52.3537027326551 0.427312382410491,52.3537163081644 0.42736983649318,52.3537196221102 0.427440080203819,52.3537154821325 0.42752166267697,52.3537039171192 0.427585412997138,52.3536873248818 0.427644387618265,52.3536653472488 0.427708653774142,52.3536316635163 0.428331961617977,52.353377031044 0.429285131574353,52.3529221550807 0.429529475987442,52.3528515059488 0.430464236896763,52.352732493641 0.431369639651024,52.3527471269874 0.431750524902342,52.3526493903479 0.432440336306248,52.3523474299112 0.432480597135959,52.3523331161636 0.432586071836358,52.3523002898144 0.432723673159388,52.3522659925523 0.432972390365282,52.3522222149394 0.433194619528726,52.3522032552003 0.433304606839677,52.3522018892008 0.433453107495473,52.3522051234165 0.433677409164303,52.3522238759977 0.433864105789757,52.3522281213504 0.435009638409738,52.352256657163 0.435155948328248,52.3522464495513 0.435275327015283,52.3522287065174 0.435371067435152,52.3522060570519 0.435444625028726,52.352182965557 0.435529394510748,52.3521479556055 0.435622130744765,52.3520992974125 0.435743535371782,52.3520104928122 0.436141174024646,52.3515769012113 0.436292122657636,52.3514110748047 0.436894169122145,52.3508483073568 0.437068118963526,52.3507287519073 0.437300443926878,52.3506007099651 0.437416609991942,52.3505488701578 0.43758195919215,52.3504843281886 0.438900362528092,52.3500533907975 0.43976078766732,52.3496786426406 0.440477656753836,52.3492564220876 0.440684357828996,52.3491712446859 0.440854518328742,52.3491128914534 0.441133694767608,52.3490379022549 0.442110707972164,52.3489142385951 0.442501205517931,52.3488315513591 0.443065695916578,52.3486832359617 0.443170329035371,52.3486639912898 0.44327678194889,52.3486492041441 0.443395241493578,52.3486413606293 0.443514118320113,52.3486389019516 0.443648150604923,52.3486478160818 0.443803407037847,52.3486661798725 0.44393252551275,52.348691376987 0.444068215020299,52.3487281253271 0.444198423349379,52.3487730763944 0.444287069339808,52.3488107977527 0.444327874789243,52.3488306295169 0.444794921337665,52.3490997378622 0.444916361435217,52.3491700408751 0.444953845881,52.3491845484657 0.445096996802144,52.3492248262736 0.445255505328657,52.349249413687 0.445420328521955,52.3492567892851 0.44549949062422,52.3492542523413 0.445575403094478,52.349245488894 0.445705856021271,52.3492158195466 0.445806144295045,52.3491705020493 0.445867191372222,52.3491314812904 0.445922063467135,52.3490880939842 0.446005097216091,52.348995578591 0.446034461729176,52.3489419312606 0.446064047415755,52.3488396444163 0.44607428307248,52.3487333537661 0.446108800235527,52.3483738583628 0.446093168646578,52.3482770929008 0.446098162227733,52.348233749067 0.446113416831392,52.3481920802635 0.446145633749698,52.3481374746028 0.446192852036577,52.3480870535746 0.446256331215489,52.3480416894126 0.446319073278039,52.3480071276593 0.446441473138506,52.3479632401062 0.446576489360292,52.3479351837977 0.446702223166835,52.3479253878341 0.446844987707538,52.3479324098331 0.446938270509025,52.3479466585478 0.447012717170556,52.3479639950359 0.447111394560211,52.3479970112449 0.447554695455841,52.3481253717935 0.447648177260471,52.3481432118566 0.447729433974319,52.3481523164172 0.44781029245615,52.3481542371181 0.447895257577229,52.3481515774135 0.447963791574199,52.3481429652926 0.448026321954277,52.3481308824068 0.448115972397857,52.3481056509565 0.448234094205813,52.3480654462105 0.448351790192546,52.3480153614447 0.44844440386871,52.3479648982806 0.448546200922065,52.3478943771183 0.448772762133836,52.3476892100382 0.448774214149983,52.3476891799466 0.448893929129682,52.3475968018089 0.449083487132448,52.3474669266587 0.449249663110166,52.3473915644165 0.449412923219619,52.3473423329145 0.449631093541838,52.3473315173529 0.450408470080867,52.3474214775885 0.450623307697642,52.3474314053387 0.450738102457768,52.3474362165349 0.450821884202643,52.3474362763839 0.450981056196322,52.3474203891919 0.451172078618989,52.3473696801651 0.451323099956231,52.3472874373366 0.451421193487063,52.3472026073378 0.451438104113224,52.3471887716248 0.451571572213335,52.3470277827463 0.451618236371575,52.3469674823637 0.451798234083084,52.3466912687535 0.451856117218954,52.3465164755164 0.452157823688713,52.3459194087195 0.452175331436755,52.3457850985293 0.45223474750687,52.3456643018253 0.452316084581567,52.3455699299841 0.452460122564095,52.3454644569184 0.452643332168171,52.345353676257 0.452832350804733,52.3452669577682 0.45325643979886,52.3451556700683 0.453620887403462,52.3451085484412 0.454271777410435,52.3450114258801 0.454370591317997,52.3449922934376 0.45486609801559,52.3448722354515 0.455183673715804,52.3448269811166 0.455332654685061,52.3448130983112 0.455535076276982,52.3448088919625 0.45571190988245,52.3448213978235 0.456157418089966,52.3449111157191 0.456645783014427,52.3451122225508 0.456836397165586,52.3451352282934 0.457013312630629,52.3451207616461 0.457185212492714,52.3450704405707 0.457375812250633,52.3450386088158 0.457780887738677,52.3449034291761 0.458010373068416,52.3448851707779 0.458189733660127,52.3448886316385 0.45826823283862,52.3449004825278 0.458424306765467,52.3449358915901 0.458500501491085,52.3449585783466 0.458559489940598,52.344989714342 0.458612702918002,52.3450236672728 0.45864005375076,52.3450671479185 0.458663249617291,52.3451143110376 0.458664046645476,52.3451286776565 0.4586762036091,52.3452408861493 0.458712005472334,52.3453057661832 0.458793432006458,52.3454227370762 0.458838936367636,52.345474829533 0.458970991729298,52.3455791493644 0.459147761518848,52.3456689636766 0.459373063878383,52.3457083242709 0.460065737242287,52.3457271668634 0.460710330233857,52.3457020586091 0.461325790828946,52.3456254126687 0.461610973811397,52.3456050887242 0.46188288024878,52.3455571717448 0.462104695978839,52.3455076019845 0.462297093428268,52.3454820167496 0.462420516846037,52.3454569711673 0.4628017095343,52.3453671301803 0.46319934208617,52.3452572575055 0.463754016213501,52.3452241182337 0.464045919043085,52.3452180315012 0.464300056921446,52.345246892526 0.46499674338522,52.345444608108 0.465359444072193,52.3455251419922 0.46552305211782,52.3455370122692 0.465611082463996,52.3455351757638 0.465795050810873,52.3455169534758 0.465886634508785,52.3455006594315 0.465951358059867,52.345475935259 0.466137453315339,52.3453893462998 0.466295908813069,52.3453086384037 0.467075542054964,52.3449129095408 0.467380326927708,52.3447708015143 0.46759940110249,52.3446961073032 0.467852234118347,52.3446493860201 0.468167888641502,52.3446481877748 0.468301783238071,52.3446525834414 0.46858758597689,52.3447500857943 0.468783377168703,52.3448376905701 0.46888668689666,52.3448732893507 0.468991197113326,52.3449043686042 0.469101563162385,52.3449101532425 0.469216202166409,52.344912253375 0.469726300101491,52.3448440600464 0.470126311255095,52.3448294072804 0.470354188475435,52.3448345330532 0.470529195769902,52.3448380668163 0.470915776221816,52.3448191968722 0.471311512463328,52.3448082254889 0.471998864428617,52.3447578908674 0.4723028167209,52.344707483873 0.472455112757392,52.3446728337007 0.473110912241073,52.3445061958553 0.473445214314792,52.3444443626902 0.473716744738354,52.3443640638804 0.473856550568171,52.3442379786116 0.47396901400238,52.3440710217341 0.474026721452465,52.3439987950248 0.474435232863895,52.3435576550485 0.474499244692316,52.3434942857178 0.47474729724951,52.3433101956578 0.4752582548708,52.3430216212223 0.475689016648606,52.3427949569239 0.475973127072986,52.3426757339368 0.476101483917174,52.3426352876835 0.476227235816693,52.3426001995452 0.476339565671565,52.3425870586336 0.476455046986254,52.3425783459412 0.476741304877745,52.3425777406413 0.47688496890699,52.342572931251 0.477023957985616,52.3425646245388 0.477150917032071,52.3425511762249 0.477270422,52.3425342870944 0.477379125143404,52.342510433114 0.477481896060905,52.3424822081287 0.477569342156769,52.3424462139319 0.477655156847328,52.3424048602719 0.477906359489979,52.3422233042201 0.477997062752476,52.342113524969 0.478011157042454,52.3420754724454 0.478030386010746,52.3419474150479 0.478060434808231,52.3418028591464 0.47841658002525,52.3418160667261 0.478431711434906,52.3418247390235 0.478554718174672,52.3419246430497 0.478642947552357,52.3420325574566 0.478887037670476,52.3423277852156 0.47906270393052,52.342581297259 0.479156294174611,52.342546971457 0.479384488815019,52.3424800642389 0.479522021636804,52.3424457145566 0.479864214180532,52.3423414451548 0.480235063854495,52.3422257861122 0.480591606231899,52.3421184257823 0.480915840375338,52.3420091366537 0.48162233555969,52.3417784591537 0.48189318838428,52.3417125395923 0.482250955427274,52.341625016082 0.482706949115292,52.3415363280469 0.483043313539632,52.3414860196007 0.483431602685677,52.3414463962857 0.48375464988728,52.3414198302633 0.4841400741222,52.3414090313203 0.484400318396974,52.3414152478787 0.484578615732709,52.3414258826812 0.48465826322976,52.3414322994291 0.484732640732201,52.3414505124836 0.484847647594966,52.3415111126996 0.484914921945334,52.3415321727015 0.484988997709553,52.3415449992325 0.48507716980257,52.3415458419388 0.485208132856729,52.3415520775526 0.485301313351642,52.3415645012226 0.48540071897153,52.3415821884077 0.485509485488121,52.3416113650873 0.485645485463396,52.3416534537888 0.485745848235252,52.3416882006257 0.485831663205181,52.3417268494327 0.485913225228011,52.3417673861128 0.48606246002509,52.341864123021 0.486448193719699,52.3421176996062 0.486625357393711,52.3422137591122 0.486778751300285,52.3422788534245 0.486914655170356,52.3423191442264 0.487083162679339,52.3423407694286 0.487640222879945,52.3424028510943 0.487662431787853,52.3424599175266 0.487665455865405,52.3425137926608 0.487673607866758,52.3425792463038 0.48794993088384,52.3434475051448 0.488232686418455,52.3443524857082 0.48574002017506,52.3446468563261 0.484251690544335,52.3448147965919 0.48345235176951,52.3449080090478 0.483390109701639,52.344922801898 0.483339775723488,52.3449427380932 0.483248262803613,52.3449861040085 0.483220891756867,52.3449686099337 0.482617068749381,52.3450425157875 0.482637540097743,52.3450924284352 0.483269814702055,52.34696933152 0.483591773236333,52.3479723862491 0.483602043365297,52.3481016231541 0.484444933894509,52.3506432011767 0.484925677902667,52.3522247290965 0.487060329340878,52.3513255320761 0.491001776701091,52.3568879105194 0.491055406794361,52.3568768913378 0.493510807353235,52.356220823763 0.494875304159109,52.3558044797247 0.494876756382504,52.3558044490697 0.495633626824577,52.355579818026 0.498289571244136,52.3548106375436 0.499699672102617,52.3544229373627 0.499949022214709,52.3554319790724 0.500011919504776,52.3558190960229 0.500076215086244,52.3561001043243 0.500126367024618,52.3563364626933 0.500150474761824,52.3564267501328 0.500237845616574,52.3566209680044 0.50030748160201,52.356683322389 0.500472605850473,52.3566160011978 0.50064368626672,52.3565512514434 0.500716957511756,52.3565235405314 0.50078452912841,52.356497838572 0.500820587463368,52.3564844898717 0.500850648377303,52.3564721664076 0.500889356234125,52.3564542672474 0.500924988590303,52.3564355339234 0.501026926200737,52.3563686498305 0.501407373421762,52.356108794396 0.501684517800239,52.3559195373223 0.501688972920736,52.3559212405838 0.501721875000684,52.3559313322082 0.501761242840586,52.3561867068482 0.502396647069653,52.3560995386674 0.502774174340309,52.3560474942727 0.503782828156452,52.3559119587094 0.504649981662515,52.355794606012 0.505046439978381,52.355741254745 0.505250915749704,52.3559545621324 0.505371192070981,52.3560814653364 0.505541398058032,52.3562604393681 0.505731608837278,52.3564569683134 0.505765934423693,52.3564922000222 0.506049957430313,52.3567865256462 0.506068662792244,52.3568068060014 0.506106246036031,52.3568482604813 0.506129223791273,52.3568648541878 0.506829917491004,52.3569192146208 0.507690020157323,52.3569872685816 0.508640039684905,52.3570606896649 0.508640243103928,52.357064281389 0.508878977927176,52.3570268509193 0.509459713981803,52.3569344215699 0.509624261928702,52.3569084528394 0.510033397875984,52.3568458250868 0.510248870617021,52.3568124819266 0.510390898543089,52.3571412776245 0.510409580084533,52.3571867283209 0.510415691524319,52.3571919930158 0.510685672413639,52.3572123274829 0.510694707458847,52.3571644904341 0.510696796144848,52.3571500618866 0.510781001585073,52.3571572626127 0.510975708098211,52.3571720044242 0.511273540206975,52.3571944435005 0.51158769940614,52.3572165348447 0.51188710314445,52.3572389389773 0.512216107127609,52.3572643982023 0.512559741883455,52.3572894564356 0.512930047596946,52.3573193401771 0.51327378498717,52.3573461917289 0.513570338242256,52.3573695514612 0.513911002045909,52.3573955672989 0.514157522130343,52.3574163937958 0.51435958950963,52.3574327710232 0.514493831286894,52.3574425005968 0.514604251382388,52.3574464440322 0.51467334384401,52.3574476707015 0.514742335842167,52.3574471018946 0.514805299480118,52.3574448628537 0.514868230516858,52.3574399285622 0.514932339050265,52.35743227147 0.51499501648518,52.3574228462412 0.515080459640783,52.3574088887263 0.515140553293016,52.3573990721993 0.515170174694033,52.3574972434674 0.515196640895854,52.3575849554308 0.515217927865339,52.3576761983354 0.515231854555679,52.3577657994437 0.515239912470532,52.3578565146409 0.515241955285029,52.3579436728115 0.515237739314164,52.3579994990317 0.515237994276846,52.3580039888872 0.515233031795441,52.3580445484746 0.515231969111408,52.3580535607629 0.515231130137391,52.3580643658626 0.515220119745017,52.3581285179681 0.515203664497227,52.3582268571447 0.515170702806585,52.3584226373381 0.515143340195236,52.358586923974 0.515125228401819,52.3586817023457 0.515076883171539,52.3589435251905 0.515043332163167,52.3591268211232 0.515020188005658,52.3592630597206 0.514998131159016,52.3593651140906 0.514971603531371,52.359467353516 0.514949039948637,52.3595370541576 0.514925094835914,52.3596058867549 0.514875638238917,52.3597436733875 0.514850807834964,52.3597990398628 0.514824646748171,52.3598544337482 0.514792711891838,52.3599126481925 0.514775334627717,52.3599435829826 0.514723632551082,52.3600418626311 0.514700705161315,52.3600774107842 0.514759803513361,52.3601094160177 0.514765761421128,52.3601119860515 0.514770390216848,52.3601145843664 0.514794392575067,52.3601491339375 0.514795667181685,52.3601715814167 0.514491539325341,52.3614378807481 0.516705545444286,52.3616011989794 0.51674171392908,52.3616175087253 0.518470517984774,52.3617200164056 0.519162673144511,52.3617780795543 0.519405786714093,52.3617917748344 0.51962554915339,52.3618590971611 0.5199351886293,52.3619585735999 0.520190913289601,52.3620385229977 0.520300587637931,52.3620802338324 0.520408747137751,52.3621229651411 0.520429769489715,52.3621306080703 0.520591601770396,52.3621864886324 0.520597509149714,52.3621881601945 0.52075742949418,52.3622359908816 0.520846868873466,52.3622583550645 0.520977723374288,52.3622870277094 0.521108475830923,52.3623139048131 0.521267477015504,52.3623455726565 0.521295603828137,52.3623503661337 0.521429124661056,52.3623726885294 0.521446938658344,52.3623750052174 0.52159482661804,52.3623944139626 0.521744026626791,52.3624092093115 0.521899102617591,52.3624229807271 0.522053802701654,52.3624322646748 0.522171563551691,52.3624351447829 0.522288946977066,52.3624335384405 0.522326998695597,52.3624318269537 0.52244122302506,52.3624257926046 0.52255519162426,52.3624152692135 0.522736299199203,52.3623970185775 0.522832723023878,52.3624399092325 0.523171419488491,52.3625837062542 0.523587251550506,52.362765499702 0.523968136553999,52.3629290705676 0.52423340794174,52.3630466536932 0.524391386334562,52.3631133996384 0.524333808976564,52.3631847504636 0.524305386632434,52.3632024377721 0.52424430934543,52.3632379036839 0.524241509813042,52.363239761964 0.524220569300213,52.3632590878995 0.524202535814251,52.3632784416558 0.524187624693885,52.3632994363635 0.524172900369823,52.3633258216081 0.524158347473728,52.3633531015275 0.524134587896533,52.3633994576132 0.524112210078517,52.3634466825163 0.524099261604031,52.3634766249699 0.524052336815177,52.3635819092468 0.524016881279107,52.3636546748658 0.523976893201014,52.3637265490229 0.523920438755774,52.3638176525753 0.523898609784924,52.3638468863428 0.523875277147067,52.3638752529843 0.523854438507821,52.3638963742474 0.523833605018954,52.3639175862196 0.523779203182282,52.3639681918391 0.523772132034839,52.3639737364927 0.523733957099146,52.3639988249491 0.52369561057921,52.3640230169199 0.523633165079352,52.364062107762 0.523569336133373,52.3641003288764 0.523525542229368,52.3641309308892 0.52341400565427,52.3642097264072 0.523311030649001,52.3642857312019 0.523231127252165,52.3643521645483 0.523178430979941,52.3644072278415 0.523149170347302,52.3644357209049 0.523133900281754,52.3644504311623 0.523098591511698,52.3645024272374 0.522970682124315,52.3647317904357 0.522885084657674,52.3649045144764 0.522837969614932,52.3649810347433 0.522790945180461,52.3650314823609 0.522729826019845,52.3650939182514 0.522643724300561,52.3651281199307 0.522643941812018,52.3651595796049 0.522639464688872,52.365183048161 0.52269443049988,52.3652188226136 0.522708178619467,52.3652284180277 0.522746111709002,52.3652500828513 0.523078569514158,52.3653095095204 0.523074400130742,52.3653149921698 0.523225830398616,52.3653432231311 0.523423614467468,52.3653857465933 0.523594514770298,52.3654198541797 0.523729805497627,52.3654475299387 0.523994393098574,52.3655273720712 0.524267994249525,52.3656123247849 0.524288969184275,52.3656190688305 0.52451732780174,52.3656816144375 0.524938832563508,52.3656798000205 0.525145520679952,52.36569785815 0.52536178719209,52.3657309937745 0.525935938828738,52.3659336690369 0.526120644801995,52.365978265177 0.525661048416173,52.3673189408454 0.52506145391285,52.3675475992973 0.52470309374389,52.3677288494115 0.524664024991161,52.36781688497 0.524664383384698,52.3678231701786 0.52583624147981,52.3686659148181 0.525775363016979,52.3687049732107 0.525569783940519,52.3688361226048 0.524608030126941,52.3694115239538 0.524200096285884,52.3696010224846 0.523700851265291,52.3698886609666 0.523241212782444,52.3701232203033 0.522277258534038,52.3705844780035 0.522151642374072,52.3709054878197 0.521997943945282,52.3711992276151 0.521832095714691,52.3716667304993 0.521263231974872,52.3727957589023 0.521214225109205,52.3730710830737 0.521107983676391,52.3735283224285 0.5209145461536,52.3740009065202 0.520605791274029,52.3746162799182 0.520437978761825,52.37504975008 0.520323144398774,52.3753031036645 0.52027680918557,52.3757276010373 0.520163432843977,52.3764215116771 0.520125282523562,52.3767046948923 0.520020687866467,52.3768805170345 0.520033539465004,52.3770807148902 0.519957347661469,52.3774213447316 0.519873969785764,52.3778655990698 0.519923536249855,52.3779616317887 0.519959230021784,52.3785885367414 0.519865441771401,52.3787478574746 0.519930271455012,52.378958723492 0.519941102988628,52.3792255787866 0.51988828858494,52.3795108719754 0.519936105081943,52.3797059189717 0.51988958310455,52.3798165868812 0.519854784288656,52.3800331729791 0.519922309853631,52.3809084160864 0.519943468279298,52.3814097738459 0.520014396749235,52.3822149136609 0.520037454174193,52.3826729902654 0.520079040338442,52.3828096478326 0.520078372569587,52.3829787594983 0.520140783788925,52.3831959697822 0.520172863233474,52.3833975559975 0.520169812228438,52.3834992947771 0.520118860045653,52.3836109554636 0.520160396296002,52.3837467148301 0.520125688187154,52.3839372284184 0.520167471804724,52.3840262358587 0.520212409969183,52.3841961727955 0.520211631752483,52.3842591178331 0.520184869404149,52.3844359779988 0.520229313392518,52.3846993298656 0.520270967970749,52.385069000146 0.520264606209858,52.3853955543507 0.520278046316872,52.3855804570572 0.520247068748016,52.3857088618959 0.520328397960511,52.3862070491892 0.52039359699998,52.3869134239962 0.520434328414855,52.3872668421867 0.520415728197125,52.3876359095851 0.520504977414173,52.3878093069303 0.520525157228265,52.3881379919105 0.520523378156747,52.3886236577201 0.520553260627162,52.3888631367711 0.520563274387203,52.3891686655792 0.520594470259921,52.3893801585142 0.520654707928368,52.3895866277239 0.520663586193406,52.3896403771716 0.520581504797189,52.3898247096963 0.520657381301218,52.389969624679 0.52071296713767,52.3902220413977 0.520733239229763,52.3906820646264 0.520751920970702,52.3911375374453 0.52074956123148,52.3913300589065 0.520748268024195,52.3915647191028 0.520564379677734,52.391717061375 0.520293283031125,52.3919638567298 0.52010477399596,52.3922393668261 0.51985469493801,52.3926233463026 0.519728712534822,52.3927860494418 0.519568124026208,52.392960368051 0.519358019969794,52.393373970331 0.519166489316257,52.3935732190078 0.519146542574643,52.3936869151566 0.519112229309969,52.3937568675777 0.518897447024063,52.3939862787941 0.518818284893978,52.3941966174224 0.518674742634971,52.3943596935162 0.51846100659486,52.394633131468 0.518325614303861,52.3947861446195 0.517259160806002,52.3961676601152 0.517252448495288,52.3962307313934 0.517260219610153,52.3962629293268 0.51723138011276,52.3963759152122 0.516861495313486,52.3966958255462 0.516814087045007,52.3967679435327 0.516606487847729,52.3971751943766 0.51652894637223,52.3973098937893 0.516281712531571,52.3976938046427 0.516110584395063,52.3978367885642 0.515889975813379,52.3981966690723 0.515250043981565,52.3990690779176 0.515001267818019,52.3993729195747 0.514510730851338,52.3997439360852 0.51419370408094,52.3999071017776 0.513944672124656,52.400027557335 0.513837962830557,52.4000630895881 0.513760934752585,52.4000791110888 0.51369966822441,52.4000867069305 0.513602438718709,52.4000842794641 0.513507267448714,52.4000647281132 0.513278077122944,52.3999904927074 0.513114783732104,52.4002205059978 0.512621560579967,52.4001563774416 0.512188130192414,52.4002123373855 0.511737250919054,52.4002470912498 0.511534335614748,52.4002982398258 0.511336148165883,52.4003536929493 0.51132446411103,52.4005876764588 0.51088443596011,52.4006321747204 0.510496295976924,52.4007878536552 0.510064408153831,52.4006639767746 0.50965085764415,52.4005513064583 0.509338095529059,52.4003520801905 0.507949463186128,52.3995074778337 0.506186224519361,52.3984082107398 0.50213648505387,52.3958655741631 0.501403319571217,52.3956122064248 0.499224164194584,52.3948723239118 0.497526129133259,52.3943453645386 0.4971678945563,52.3942233910243 0.497040455620058,52.3941793367766 0.497039002126372,52.3941793674865 0.495426801478319,52.3936369929128 0.494661117852961,52.3933537079663 0.493929597182397,52.3935193662988 0.492733647409539,52.3938161785947 0.491687916362562,52.394064773353 0.490031558217567,52.3944873228255 0.488762049132972,52.3948368861344 0.486794287949459,52.3954213794797 0.48383479756746,52.3960941993601 0.483354661622194,52.3961816905106 0.483219755392021,52.3963175740298 0.483022009484623,52.3965150982551 0.482337171972937,52.3977758264611 0.481476809918869,52.3991580000132 0.480888316800971,52.3999616342442 0.48042387086876,52.4005675834604 0.480146223457639,52.4008063352777 0.479478248457943,52.4017411731766 0.478782241086321,52.4026478273913 0.478690000680949,52.4027864059378 0.478603598281991,52.4029231543316 0.478572877120547,52.4032142585435 0.478566089578041,52.4035668891449 0.478285083971062,52.404007976837 0.476945932386291,52.4042222263804 0.474196413659354,52.4047977139226 0.473696751509494,52.4046984971731 0.471896319964514,52.40434052468 0.470082751299867,52.4040376365476 0.468959667087356,52.4038039047806 0.468325036721303,52.4034188238695 0.467206671632556,52.402582483251 0.466854085616654,52.4024027662967 0.465785083503669,52.4019530206943 0.46349961739372,52.4010663741219 0.462330012877778,52.4006024227313 0.461622011791501,52.4002431071346 0.46061664197595,52.3997172857987 0.460601423320545,52.3997095122461 0.459645753630964,52.3992312821249 0.45861323915325,52.3986916257458 0.456926365562173,52.3988112070281 0.455250748496417,52.3989503079622 0.453069538174205,52.3991152518771 0.452620737410651,52.3991596258187 0.452113435332171,52.3992375741389 0.451279546681512,52.3994437456883 0.450625587897836,52.39963350523 0.449920967869613,52.3998387843013 0.448931662774473,52.4001587341019 0.448151222928638,52.4004267038388 0.447520918698058,52.4007005491933 0.446799230192124,52.4010733717509 0.446485216720324,52.4012452822171 0.446174283436733,52.4014181172281 0.44550604483399,52.4018284814896 0.445124572446144,52.4020279442911 0.444898718545858,52.4021458866729 0.444214069106715,52.4025251188406 0.443930854082615,52.4025615398563 0.443713499335475,52.4032853902353 0.443426230297841,52.4044180985667 0.443231352249857,52.4052836105338 0.443024207163215,52.4061115288557 0.442945047985667,52.4066734034662 0.442935369324789,52.4067374297695 0.442618174090935,52.4083167335893 0.442479440839546,52.4091325384558 0.442376884960231,52.4099646761797 0.442176648760909,52.4102268175845 0.442139310421234,52.4105342270657 0.441455514896262,52.4137577608435 0.441297547977017,52.4146782409831 0.441137188715606,52.4154764205808 0.440991352807874,52.4163247321048 0.440980117674562,52.416386992684 0.440801641374439,52.4173096936788 0.440629367082053,52.4181054216607 0.440336301564218,52.419456777999 0.439886385918788,52.4222311993675 0.439704528974567,52.4235460071764 0.439486186561362,52.4248921318907 0.439338939813478,52.4257422665906 0.439107153184933,52.4270868693246 0.438942946803678,52.4281090551331 0.438274504009006,52.4282317082408 0.437787800142718,52.4286895195767 0.437393399322501,52.4291409315914 0.43675041093823,52.4294572276267 0.436459998670157,52.4296610752361 0.436169172408157,52.4299080807607 0.43512756713508,52.4302811244852 0.434032030450598,52.4306354916883 0.432413865997829,52.4311714957208 0.431728340635416,52.4310929145958 0.428390344568507,52.4306903745355 0.425529618156192,52.4303813310833 0.425528164862142,52.4303813608979 0.425313414692045,52.4303272441151</coordinates></LinearRing></outerBoundaryIs></Polygon>
  </Placemark>
