  <Placemark>
	<Style><LineStyle><color>ff0000ff</color></LineStyle><PolyStyle><fill>0</fill></PolyStyle></Style>
	<ExtendedData><SchemaData schemaUrl="#Wards__December_2019__Boundaries_EW_BFE">
		<SimpleData name="objectid">6457</SimpleData>
		<SimpleData name="wd19cd">E05012230</SimpleData>
		<SimpleData name="wd19nm">Northwich Winnington &amp; Castle</SimpleData>
		<SimpleData name="wd19nmw"></SimpleData>
		<SimpleData name="bng_e">363735</SimpleData>
		<SimpleData name="bng_n">373741</SimpleData>
		<SimpleData name="long">-2.54508</SimpleData>
		<SimpleData name="lat">53.25943</SimpleData>
		<SimpleData name="st_areashape">3896119.23807237</SimpleData>
		<SimpleData name="st_lengthshape">12857.2590175962</SimpleData>
	</SchemaData></ExtendedData>
      <Polygon><outerBoundaryIs><LinearRing><coordinates>-2.5570587119327,53.2600351178458 -2.55704499259753,53.2599021838553 -2.55702291643123,53.2598205114129 -2.55705060861027,53.259640565721 -2.55709135827955,53.2595523087741 -2.55721079941861,53.2593943986547 -2.55741595644286,53.2593835528761 -2.55749103406237,53.25938769389 -2.55761560211056,53.2594050836746 -2.55782921828785,53.2594553940876 -2.55787874822757,53.2594623512679 -2.5580270640117,53.2594526697489 -2.55811209027096,53.259423424739 -2.55817164432516,53.2593934910281 -2.55830110750185,53.2593218911545 -2.55836510563136,53.2592820513936 -2.55704197384251,53.2587497891548 -2.55653610223705,53.2585796176758 -2.55614145320735,53.2584366916264 -2.55570735195486,53.2582535997446 -2.55504940594154,53.2580310218646 -2.55494706101189,53.2580018445309 -2.55477574982133,53.2579631025362 -2.55382891581552,53.2577742153717 -2.55343180661653,53.2576691245105 -2.55271201414388,53.257536684788 -2.55231105321227,53.2574774382794 -2.55191584042881,53.2574037859287 -2.55125188327459,53.2572972290583 -2.55077573092796,53.2572148713781 -2.55036698087564,53.2571358847496 -2.54978963378098,53.2570073517847 -2.54962892902995,53.2569757426866 -2.54911660371755,53.2568863560556 -2.54875431684006,53.2568062506684 -2.54835785065006,53.2567496666425 -2.54795345484333,53.2566624735544 -2.54714655179214,53.2565098224766 -2.54681629136529,53.2564691046189 -2.5463251380955,53.2563913807001 -2.54599929242078,53.2563478537454 -2.54589438130998,53.2563492338312 -2.54529962793596,53.2563754148887 -2.54481174880679,53.2564378578837 -2.54453914859707,53.2564507873395 -2.54397041047638,53.2565207852374 -2.54361111701058,53.25655837261 -2.54309060940349,53.2566407269562 -2.5428182609679,53.2566833067733 -2.54261691069556,53.2561656207069 -2.54277660329464,53.2561181635325 -2.54272695371768,53.2559844032896 -2.54266936607238,53.2559361389924 -2.54258595566303,53.2557423236976 -2.54254571605341,53.2556391638217 -2.54249315820259,53.2555099993006 -2.54242969913532,53.2553592273479 -2.54241279544306,53.2553224604564 -2.54240505107907,53.2553063201253 -2.54239133023412,53.2552866132443 -2.5423744721937,53.255253439923 -2.54230634884393,53.2550856155357 -2.54211429678795,53.254598439626 -2.54208170188565,53.2545132172792 -2.54204156607292,53.2544180551203 -2.54198901127619,53.2542888903481 -2.54193328690978,53.2541533596223 -2.54187771122334,53.2540197158725 -2.54186992174487,53.2539999810268 -2.54166337433636,53.2540260830705 -2.54159164679969,53.2540416862046 -2.54104748901141,53.2541573895215 -2.54100571133986,53.2541665656826 -2.53980685803334,53.2544237175833 -2.53964495236217,53.2545404658901 -2.53948737976769,53.2546481181859 -2.53928680611955,53.254785620563 -2.5391352654272,53.2548915371513 -2.53896727859765,53.2550064252793 -2.53875923003764,53.2551494420583 -2.53875028932874,53.2551557729958 -2.53858977996861,53.2552661331565 -2.53841444182949,53.2553864453245 -2.53822283867726,53.2555203995995 -2.53818718229067,53.2555448238043 -2.53812923626538,53.2555855252895 -2.53807567233697,53.2556208135659 -2.53806673142798,53.2556271444518 -2.53801479529884,53.2556642240304 -2.53765708773621,53.2557098736604 -2.53744609212131,53.2557368864384 -2.53728001061217,53.2557583054354 -2.53721708541328,53.2557666768204 -2.53710936983759,53.2557807326598 -2.5368973482607,53.2559623149662 -2.53674904576632,53.2560906808333 -2.53669414433675,53.2561376574467 -2.53665257626413,53.2561737898778 -2.53655620825369,53.2562551023924 -2.53643612469071,53.2563571891003 -2.53641680178972,53.2563734517957 -2.5363011545999,53.2564747102633 -2.53615135373992,53.2566020933296 -2.53603275063434,53.2567041729494 -2.53591108140907,53.2568081539311 -2.53579686958545,53.2569057217606 -2.53573901099842,53.2569536092271 -2.53572276553681,53.2569689599593 -2.53572129438003,53.2569698645764 -2.5356990158746,53.2569870393489 -2.53569301512184,53.2569915590312 -2.5356900728279,53.2569933700624 -2.53565742362076,53.2570213746401 -2.53555507615519,53.2571090926836 -2.53545870393525,53.2571904034027 -2.5353088867992,53.2573168865551 -2.53512352264498,53.2574768693263 -2.53490987736816,53.2576584552834 -2.53472597018986,53.2578166330774 -2.53455696960378,53.2579611736221 -2.53454656620953,53.2579693085756 -2.53433747748926,53.2581500636266 -2.53410905258011,53.2583461826356 -2.53388661138473,53.2585367929064 -2.53371603297187,53.2586841249475 -2.53361075472756,53.2587753589827 -2.53351588135205,53.2588584589566 -2.53340019949298,53.2589579166493 -2.53326812197417,53.2590708384734 -2.53314803219467,53.2591738204409 -2.53301155027655,53.2592904453584 -2.53289586493384,53.2593898135719 -2.53277125742258,53.2594973089355 -2.53263035799208,53.2596166489498 -2.53250281619811,53.2597268529311 -2.53233673333904,53.2598686813612 -2.53220760656998,53.2599807788802 -2.53201032932549,53.260148806979 -2.5318679877595,53.2602717471834 -2.53176121752463,53.2603629861987 -2.53166324594892,53.2604460984872 -2.5315802323849,53.2605193486788 -2.53148386554822,53.2606024536519 -2.53144227895717,53.2606376853125 -2.5314393012152,53.2606368006069 -2.53124190237238,53.2605568034441 -2.53098724774856,53.2604545062363 -2.52956353542327,53.2606092111066 -2.52950811928773,53.2606157479872 -2.5294800628272,53.2605260094669 -2.52945821521348,53.2604586185886 -2.52945358805985,53.2604442613614 -2.52943973797243,53.2604137686537 -2.52941815867152,53.2603680345125 -2.52940735309778,53.2603438196204 -2.5293781023031,53.2602774504213 -2.52933637130003,53.2601813923077 -2.5292979105571,53.260099787333 -2.52926398800601,53.2600253506261 -2.52924394723917,53.259984103182 -2.52921934772064,53.2599338888575 -2.52921018266307,53.2599123615384 -2.52917313501241,53.2598351539206 -2.52914070862114,53.2597517251887 -2.52912989074372,53.2597266114313 -2.52910672953521,53.2596727960161 -2.52907899704924,53.2596091157746 -2.52904196313308,53.2595229218143 -2.52902187983628,53.2594780789457 -2.52900950177145,53.2594466816509 -2.52900027923158,53.2594305470324 -2.52898492509294,53.2593982649611 -2.52896332457145,53.2593507330403 -2.52892487492979,53.2592700258842 -2.5289217855295,53.2592700396066 -2.5288723965893,53.2591542450706 -2.52883545353518,53.2590753298789 -2.52879848837498,53.2589946160872 -2.52876302696958,53.2589156044029 -2.52872907299491,53.258838471893 -2.52871990844092,53.2588169454305 -2.52869209714559,53.2587568601192 -2.52865665947105,53.2586797350738 -2.52862120968647,53.2586016212865 -2.52858575147544,53.2585226985162 -2.52857039644966,53.2584904154912 -2.52845917030135,53.2584612546547 -2.52827116471555,53.2584099674125 -2.52825783152726,53.2583012019956 -2.52830232857342,53.2582713491834 -2.52823457225568,53.2582392994889 -2.52816661540812,53.2582009592885 -2.52814394465771,53.2581866820378 -2.52805608717933,53.2582382933428 -2.52795491616566,53.2582926602921 -2.5278236345295,53.258350845192 -2.5275922073428,53.2584264573963 -2.52745163638522,53.2584531408617 -2.52719592042714,53.2585036980449 -2.52705090156104,53.2585304007274 -2.52702712800064,53.2585039858928 -2.52697796928486,53.2584313148725 -2.52693375009246,53.2583596206446 -2.52688496267035,53.2582628009641 -2.52682447199025,53.2581175152596 -2.52677868253761,53.2580064123341 -2.52674236466399,53.2578914615761 -2.5267054478181,53.2577279956703 -2.52667948443352,53.2575521143229 -2.52666897024713,53.2574712981497 -2.52665948098432,53.2573448127424 -2.52665673357442,53.2572506433049 -2.52666224798813,53.2571830742423 -2.52667347297757,53.2570641081424 -2.52669093878108,53.2569365524709 -2.52671170655251,53.2568194471091 -2.52676765778337,53.2565965876456 -2.52684092945703,53.2563631874866 -2.52696665844157,53.2560096876168 -2.52704814140647,53.255799082864 -2.52704984724624,53.2556801588299 -2.5270246810654,53.2555689646736 -2.52700715593664,53.2555177971937 -2.52697427572285,53.2554692972721 -2.52693536092955,53.2554009737708 -2.5270584690904,53.2553500081284 -2.52719103767733,53.2553003407212 -2.52734904247438,53.2552431239602 -2.5274673791389,53.2551912279927 -2.52754937170311,53.2551509088957 -2.52764389189209,53.2550972153117 -2.52773517861804,53.2550387799337 -2.5279286329517,53.2549037839567 -2.52821941188463,53.2546855911434 -2.52856525994652,53.2544310023124 -2.5287900105711,53.2542616180865 -2.52891115092636,53.2541802172778 -2.5290605604276,53.2540758579159 -2.52915815359042,53.254014539407 -2.5292463453761,53.2539627756063 -2.52937406542016,53.2539003710688 -2.52947178579355,53.2538495157628 -2.52958220945546,53.2537995558027 -2.52970217221014,53.2537514553615 -2.52988693565798,53.2536840395231 -2.53020592279195,53.2535675088184 -2.53039550225543,53.2535048276864 -2.53074631742357,53.2533967148031 -2.5312015258833,53.253264352214 -2.5314211672783,53.2531958282262 -2.53152681652864,53.2531449358214 -2.53177593283938,53.2530230038864 -2.53218752420899,53.2528280444834 -2.5325503793114,53.2526685005676 -2.53307912852156,53.2524558899977 -2.53335368560404,53.2523395496853 -2.53354934977473,53.2522568582767 -2.53386940438223,53.252100356073 -2.53398405254111,53.2520085141803 -2.53414713235712,53.2519207354406 -2.53476452202518,53.2516311372304 -2.53538218421845,53.2513302164817 -2.53484472493459,53.2513853334502 -2.53425296595932,53.2514407889387 -2.53383229367527,53.251478351238 -2.53349714706174,53.25150553942 -2.53312391506526,53.2515314697578 -2.53265322360625,53.2515649713147 -2.53233702031018,53.2515849360472 -2.53190661505194,53.2516054111023 -2.53133354584207,53.2516336558966 -2.53069617162847,53.2516569521182 -2.53022844903469,53.2516742570355 -2.52990467525593,53.2516838488082 -2.52974898219583,53.2516891979408 -2.52946806098161,53.25169255188 -2.5287336520794,53.2516931198498 -2.52810587067352,53.2517021966242 -2.52767263441015,53.2517041175469 -2.52720836905704,53.2517250456947 -2.52672738742284,53.2517434391943 -2.52614172755642,53.2517711906517 -2.5258708338131,53.2518002451224 -2.5257494562671,53.2516775787039 -2.52567680707652,53.2516284737842 -2.52562390556359,53.2515873707895 -2.52563106854848,53.2515567848432 -2.52563096915072,53.2515486979285 -2.52548992280839,53.2515349418435 -2.52509827107985,53.251501623769 -2.52492415531519,53.251481722401 -2.52488661536274,53.2514738005572 -2.52497471340224,53.2514527429459 -2.52502250450718,53.2514299771438 -2.52506994207114,53.2513884304819 -2.52509019611135,53.2513371185526 -2.52508968858384,53.2512957833314 -2.52507873487489,53.2512491026128 -2.52504817890145,53.2512061030217 -2.52501629372319,53.2511756902114 -2.52488790035527,53.2510952884179 -2.52474288801114,53.2509997738144 -2.52429085272466,53.2506772671328 -2.52386889233006,53.2503681062375 -2.52375411774877,53.2502994161262 -2.5236303328844,53.2502316643812 -2.52343757997972,53.2501524438173 -2.52312401140115,53.2500055466048 -2.52305760225296,53.2499609062151 -2.52300297819101,53.249909923547 -2.522967744289,53.2498479826411 -2.52295060722498,53.2497905456998 -2.52293869897313,53.2496755717692 -2.52290570640048,53.2495543109859 -2.52287498048844,53.2494870476663 -2.52293135804922,53.2494490572222 -2.52295353906737,53.2494237979108 -2.52297284362693,53.2494057405961 -2.52300689933326,53.2493714428527 -2.5230438673489,53.2493326387261 -2.52308390200782,53.2492920242215 -2.52312527238021,53.2492496069416 -2.52317116042984,53.2492025854271 -2.5232022954829,53.2491718951433 -2.52322450915709,53.2491493314231 -2.52326148627303,53.2491114260816 -2.52326440809193,53.2491078185564 -2.52329966123547,53.2490501513727 -2.52332909413616,53.2490014951219 -2.5233690148179,53.2489617799137 -2.5234090696945,53.2489228722085 -2.52344897923134,53.248882258126 -2.52348609129519,53.2488452510137 -2.52351857410234,53.2488136558218 -2.52353908540467,53.2487731270099 -2.52355068498203,53.2487416236446 -2.52355943024141,53.2487191190893 -2.52356816449326,53.248695715686 -2.5235710202893,53.248686716868 -2.52357386508573,53.2486768192027 -2.52359271672323,53.2486219198456 -2.5236086325217,53.2485795235509 -2.52360713791507,53.2485786321279 -2.52360711591691,53.2485768344336 -2.52360680803093,53.2485516739041 -2.5236110283967,53.2485228987746 -2.52361511338469,53.2484932262436 -2.52362077186882,53.2484608501048 -2.52362218950908,53.248455452294 -2.52362334173145,53.2484284875507 -2.52363796336469,53.2484014644611 -2.5236393795022,53.2483960666566 -2.5236496852327,53.2483798457001 -2.52365848384559,53.2483618335811 -2.52367008473271,53.2483303310944 -2.52368313359994,53.2482960347616 -2.52369176872361,53.2482645444196 -2.5237033585587,53.248232143082 -2.52371790157709,53.2481988289569 -2.52372950236498,53.2481673255648 -2.52373660033781,53.2481313493008 -2.52373766449943,53.2480971964739 -2.52374023425231,53.2480648339153 -2.52375030739148,53.2480297425574 -2.52376189710751,53.2479973403141 -2.52377198011508,53.2479630579166 -2.52377911101503,53.2479297772918 -2.52378923909288,53.2478991792673 -2.52379771667874,53.24786499382 -2.52380490253534,53.2478362056317 -2.52381207588055,53.2478065186021 -2.5238251475808,53.2477741098303 -2.52383526608374,53.2477426129472 -2.52384537208037,53.2477102181214 -2.5238639669421,53.2476444458984 -2.52387257979247,53.2476111578456 -2.52388120364496,53.247578769538 -2.52389577930516,53.2475481510308 -2.52392085841062,53.2475174871954 -2.52393999515073,53.2474859506121 -2.52396213052935,53.2474570966157 -2.52398720953301,53.2474264327659 -2.52401229949662,53.2473966668591 -2.52403738943602,53.2473669018458 -2.52406261211859,53.2473379443499 -2.52408620740536,53.2473072870097 -2.52411129722902,53.2472775210816 -2.52413785809175,53.2472468506744 -2.52416602536823,53.2472161731878 -2.52418653347814,53.2471855285208 -2.52420568088246,53.2471548907407 -2.52425846427362,53.2470558085285 -2.5242639745742,53.2470215453203 -2.52425761546816,53.2469865271751 -2.52425283422219,53.2469694737049 -2.52424969245852,53.246955109702 -2.52422975255547,53.2469210484593 -2.5242053760269,53.2468879065445 -2.52417666043348,53.2468637699921 -2.52415092148799,53.2468405183236 -2.52412656707573,53.2468091731879 -2.5240991447266,53.2467796393458 -2.52407183577541,53.2467492052033 -2.52406267300515,53.2467375634901 -2.5240475008908,53.2467195678676 -2.52402315763247,53.2466891215575 -2.5239942423637,53.2466586944681 -2.52397445870568,53.2466273291821 -2.52392034396899,53.2466176830982 -2.52385881599489,53.2466080687134 -2.52380477829331,53.2466047118123 -2.52374771051338,53.2465959766407 -2.5237297610461,53.2465933598216 -2.5236952132854,53.2465872213354 -2.52364252571754,53.2465730743681 -2.52359431125994,53.2465508203376 -2.52355953117857,53.2465258114149 -2.52352616872683,53.2464954046705 -2.52349592776941,53.2464676799786 -2.52345666720691,53.2464399949403 -2.52340993654155,53.2464177343112 -2.5233513514854,53.2464062199437 -2.52329722616961,53.2463956738298 -2.52324316681248,53.2463905198776 -2.52318773731515,53.2463844730268 -2.52312918641685,53.2463757440785 -2.52306462542095,53.246370635295 -2.52300170231803,53.2463682159682 -2.52298252144874,53.2463961579156 -2.52296484566632,53.2464259809289 -2.52294579861027,53.2464548211779 -2.52292520149898,53.2464881609138 -2.52290309885325,53.2465197103662 -2.52288391785064,53.2465476522971 -2.52286491460409,53.246580087024 -2.5228457555133,53.2466098266435 -2.52282512381571,53.2466404707242 -2.52280449208834,53.2466711148012 -2.52278398470988,53.2467017583282 -2.5227648595359,53.2467342834628 -2.52274424019801,53.2467658263698 -2.52272668587695,53.2467955589219 -2.52270606648098,53.2468271018221 -2.52268691663685,53.2468577393703 -2.52266482460006,53.2468901876245 -2.52264578959761,53.2469199257657 -2.52262665064571,53.2469514621513 -2.52260455851412,53.2469839103939 -2.5225854100246,53.2470145479186 -2.52256639646259,53.2470461736329 -2.52246486701747,53.2472011852781 -2.52240188448873,53.2473254733213 -2.52230447732028,53.2474437126852 -2.52222609312902,53.2475312242682 -2.52220394555631,53.2475591790954 -2.52217282192486,53.2475907679738 -2.52208997956641,53.2476774909109 -2.52200567559919,53.2477659271997 -2.5219493942609,53.2478218893168 -2.52192429162887,53.2478507559412 -2.5218931456501,53.2478805470505 -2.5218680210323,53.2479076168667 -2.52183686401097,53.2479365091137 -2.52181025722528,53.2479635854143 -2.52177910123034,53.2479925684295 -2.52174956152864,53.2480223524596 -2.52171839339437,53.2480503467265 -2.52169017997595,53.2480774300403 -2.52157464033158,53.2481884689836 -2.52151996435464,53.2482444238565 -2.52150957172417,53.2482534556415 -2.52053020873158,53.2491800138585 -2.52000732957408,53.2496938035372 -2.51963397425451,53.2500459929341 -2.51937763573402,53.2502862391633 -2.51905758087663,53.2505914638922 -2.51877044665047,53.2508911527125 -2.51854521780024,53.2510988201961 -2.5173942724128,53.2513564342644 -2.51653188433128,53.251554373527 -2.51602697571523,53.2516994454397 -2.51574850909455,53.251849016987 -2.51556609152866,53.252011561967 -2.51546064215437,53.2522134021251 -2.51546220170591,53.252342799198 -2.51558393196716,53.2526200410802 -2.51573874400513,53.2529043279988 -2.51577353754005,53.2530534403599 -2.51573113358759,53.2531443870972 -2.51559143064276,53.2532420447155 -2.51546394122717,53.2533586105558 -2.51537847591895,53.2534758024823 -2.51537933141299,53.2535467915838 -2.51547811629681,53.2536631868685 -2.51576127935192,53.253901985928 -2.51604576523338,53.2541272996696 -2.51609372129257,53.2542185578223 -2.51609431643145,53.2542678730247 -2.51609647652956,53.25444686478 -2.51609235052534,53.2546324573813 -2.516101684121,53.2549486691417 -2.51607582013166,53.2551057513626 -2.5160239163909,53.25540564481 -2.51598772719064,53.2556080624732 -2.5159095510146,53.2557878616142 -2.51585000341368,53.2558768646103 -2.51572794069073,53.2560205357592 -2.51558620649675,53.2561067690938 -2.51536624892619,53.2562284174383 -2.51534973593018,53.2562935408932 -2.51530406902856,53.2563898220953 -2.51530531568567,53.2564932738884 -2.51534182377655,53.2565608978172 -2.51540234321471,53.2566462554398 -2.51551010695943,53.256702868659 -2.51574372478531,53.256765632606 -2.5159495514189,53.2568045825912 -2.51628433844431,53.2568679363134 -2.51630911255333,53.256928698331 -2.51637085617096,53.2570416182973 -2.51643147341033,53.2572288033523 -2.51645995585566,53.2575228434083 -2.51643279645218,53.2577370100516 -2.51638345742216,53.2580441419704 -2.51596174428416,53.2586344912195 -2.51591349550508,53.2590735001802 -2.51590094105087,53.2595123562482 -2.51594530840226,53.2597155124234 -2.51594508661364,53.2597654765351 -2.51594346753973,53.2601293436015 -2.51591734646608,53.2603791844157 -2.515879745338,53.2607146908647 -2.51577618685252,53.2610076732289 -2.51577393676331,53.2613144866513 -2.51577482708962,53.261881713549 -2.51580400262584,53.2623275231552 -2.51572462707702,53.2625089658676 -2.51561461872988,53.262711719062 -2.51503357408438,53.263568775197 -2.51445300851755,53.2642740789347 -2.51413712327801,53.2647249466482 -2.51411576819867,53.2649283852593 -2.51411971341309,53.2652565769953 -2.51417173017447,53.2656238040807 -2.51444267485595,53.2662491434436 -2.51473256776605,53.2667380033305 -2.51508610139453,53.2671742529831 -2.51529999527566,53.2674098036377 -2.51560021224634,53.2676332559431 -2.51599593778318,53.2678812658145 -2.51641568434669,53.2681470078189 -2.51753191579689,53.2689449453967 -2.51793717767554,53.2692637652147 -2.51823759627666,53.2695086161963 -2.51843809396609,53.26972080964 -2.51851537819281,53.2697833776138 -2.51858646378042,53.2698342905327 -2.51864072340059,53.2698637086802 -2.51870410744572,53.2698912901769 -2.51877485600455,53.2699143468984 -2.51892670845434,53.2699478333064 -2.51914891789959,53.2699720266158 -2.51923733027638,53.2699734389521 -2.5193767133464,53.2699674387067 -2.51952799959219,53.2699541979355 -2.51967319859507,53.269928402648 -2.51985254764419,53.2698844856783 -2.52012137945454,53.2697979414414 -2.52040935063712,53.2696789627526 -2.52074082379777,53.2695588043777 -2.52100471787728,53.2694426244055 -2.52115655498083,53.2693529949412 -2.52123531021361,53.2692923526207 -2.52131537411015,53.2692174148381 -2.52135085541316,53.2691768210753 -2.52048133501882,53.2690611059795 -2.51986518178713,53.2689495813538 -2.51979149981384,53.2689292338539 -2.51972525839901,53.2689106516209 -2.51969369442994,53.268897310482 -2.51959543917121,53.2688384294294 -2.51951666439009,53.2687650846428 -2.51948615417961,53.2687264862836 -2.51946769267315,53.268692418811 -2.51946289240809,53.2686636833007 -2.51947717532313,53.2686079058858 -2.51957918377888,53.268487043533 -2.519761800783,53.2683360849812 -2.51985771785683,53.2682125531947 -2.51988306797043,53.2681926732052 -2.51999328774788,53.268137374879 -2.52029804835348,53.268047887687 -2.52044470274494,53.2680202882181 -2.52060052983314,53.2680151135782 -2.52104022748949,53.2680428460193 -2.52112726238333,53.2680532483099 -2.52128372804994,53.268090306215 -2.52136653159052,53.2681187900836 -2.52144792793476,53.2681534806119 -2.52149472656831,53.2681793363672 -2.52154910495756,53.2682186377929 -2.52163395038192,53.2682928526431 -2.5217205894864,53.2683823371391 -2.52177845519122,53.2684540641859 -2.52193863609014,53.2686843109482 -2.52204077327314,53.2688178502801 -2.52250440480399,53.2688508639411 -2.52306798922951,53.2692025415806 -2.52337330069272,53.2694007865245 -2.52389939742064,53.2697490311549 -2.52431683005379,53.2700366434481 -2.524516378298,53.2701786480387 -2.52518226893377,53.2706737360874 -2.52536276785552,53.2708445796753 -2.52555583527726,53.2710523002652 -2.52570499948377,53.2712386481438 -2.52589190279677,53.2714373192766 -2.52627825611157,53.2720001341984 -2.52632751569917,53.2721050571016 -2.52637609308359,53.2721543569195 -2.52645786608726,53.2722186967406 -2.52655302794848,53.2722757888752 -2.52672936527817,53.272348697472 -2.52720660740286,53.2724994430297 -2.52749092045555,53.2725754662103 -2.52764574581124,53.2726080303166 -2.5277840175378,53.2726316804724 -2.52812487398065,53.2726706077921 -2.52828546964411,53.2726797806035 -2.52850894884158,53.2726850794817 -2.52864236900813,53.2726862850883 -2.52881771251941,53.2726783172826 -2.52891056137956,53.2726680198515 -2.52904233421546,53.2726458674542 -2.52919337145707,53.2726119464239 -2.52932919207917,53.2725673097412 -2.52941876194656,53.272531865632 -2.53040991126344,53.2719188998811 -2.5305811360811,53.2718282741247 -2.53068703349213,53.2717836793163 -2.53086333378575,53.271723583844 -2.53124419853532,53.2716095564803 -2.53217437137605,53.2715254247349 -2.53246946203747,53.2715034375352 -2.53257139945382,53.2714984881687 -2.53271235649364,53.2714996555219 -2.53287900626228,53.2715087941733 -2.53324831406323,53.2715493773333 -2.53349926605526,53.2715868949384 -2.53367179532661,53.2716013985894 -2.53393874070883,53.2716028978476 -2.53456197346,53.2715524742988 -2.53514592183885,53.2714851487707 -2.53530609454329,53.2714609735111 -2.53548239730758,53.2714116544841 -2.53598523084088,53.2713339052241 -2.53615143956032,53.2713178797573 -2.53627566120194,53.271295751969 -2.53647884468349,53.2712409187869 -2.53697987314733,53.2711379218799 -2.53732806514861,53.2710428914833 -2.5381075726739,53.2707876624947 -2.53844449422445,53.2706324721929 -2.53910974557969,53.2703471986731 -2.53927054805034,53.270255708212 -2.53948165881154,53.2701144750131 -2.53963008408343,53.2699924869226 -2.53985210579816,53.2697658324304 -2.53990825691048,53.2696990795959 -2.54006863345549,53.2694565297653 -2.54020781071686,53.26919969732 -2.54026181830345,53.2690808328188 -2.54028393137972,53.2690501791544 -2.54030906828277,53.2690240044095 -2.54044431834829,53.2689262481199 -2.54073307125357,53.2687667767519 -2.54083597362154,53.2687213781319 -2.5410210202348,53.2686513422793 -2.54121915446989,53.268550603471 -2.54145623784692,53.268440789929 -2.54189648279315,53.2682760439329 -2.54224539473767,53.2681234843758 -2.54244681073403,53.2680479802342 -2.54293796526823,53.2678820995295 -2.54360350908791,53.2676255575603 -2.54403372130298,53.2674995801075 -2.54477358076599,53.2672067463276 -2.54491840055911,53.2671530641854 -2.54526172668893,53.2670390731283 -2.54534536121913,53.2670054409365 -2.54578038042944,53.2667922676559 -2.54588566248091,53.2667018308936 -2.5459522023695,53.2666269392163 -2.54603471194751,53.2665151304463 -2.54611688701945,53.2663771716831 -2.54614759303231,53.2663132283194 -2.54618370470351,53.2662079218868 -2.54618125806424,53.2660164340152 -2.54622980602414,53.2658203093443 -2.54623065606463,53.265770789963 -2.54620795548564,53.2656387947296 -2.54619848568306,53.2654878683267 -2.54610923704295,53.2651880433218 -2.54604802261228,53.2650893848877 -2.54591897706671,53.2649641678641 -2.54588999597298,53.2649211656363 -2.54582637368679,53.2647596136318 -2.54578658840834,53.2646932969099 -2.54565553188833,53.2645266615505 -2.54562326663377,53.2644683985298 -2.54548236606894,53.2641211828297 -2.54547144561426,53.2640789966119 -2.54544808065965,53.2638947938533 -2.54537607061221,53.2636569855981 -2.54534810938824,53.263461120957 -2.54526643150034,53.2632889572001 -2.5452585116073,53.2632592491219 -2.54526629698599,53.26316216091 -2.5453485424449,53.2629136708417 -2.54542282804375,53.2627389947076 -2.54550073064046,53.2626154345647 -2.54556727964709,53.2625513270431 -2.5456149929456,53.2625223518594 -2.54566564170282,53.2625005525441 -2.54594647519881,53.2624228804632 -2.54602575555057,53.2624072401193 -2.54617092602195,53.2623921953932 -2.54644992975648,53.2624034957403 -2.54669883707332,53.2624005558814 -2.54679633743847,53.26240819536 -2.54733420717873,53.2624991820414 -2.54750233306509,53.262519975955 -2.5475999452493,53.262526715368 -2.54767040937423,53.2625272900647 -2.54784559084391,53.2625103083246 -2.54797713901884,53.2624836429878 -2.54813098644636,53.2624415972405 -2.54823250779162,53.2624060827644 -2.54830859011898,53.2623724831751 -2.54839194996946,53.2623280659936 -2.54847519321376,53.2622745722733 -2.54854498678041,53.2622230290518 -2.5486087921862,53.2621670198246 -2.54867832168053,53.2620948077055 -2.54872989741649,53.2620298685565 -2.54879455939978,53.2619252386704 -2.54885597266788,53.2618081327155 -2.54888191322996,53.2617298319068 -2.54888863183012,53.2616659085305 -2.54887182007145,53.2615213056739 -2.54887855530437,53.2614682552259 -2.5489366498713,53.2613142308206 -2.54901339728756,53.2609956697137 -2.54905555221902,53.2608903344787 -2.54908785952313,53.2608362680622 -2.54914530606783,53.2607569229547 -2.54922949697254,53.2606620878475 -2.54934359602013,53.2605573194209 -2.54944306214565,53.2604777802386 -2.54973289086774,53.2602840448405 -2.54977757873872,53.2602604735276 -2.54988046058471,53.2602159651389 -2.55000884905752,53.2601749334809 -2.55037494699035,53.2600877808816 -2.5505335406311,53.2600600887947 -2.5506920690044,53.2600368894657 -2.55083135620815,53.2600263598705 -2.55094377986709,53.2600222449043 -2.55104431872739,53.2600262730886 -2.55135952879979,53.2600571637266 -2.55155776025539,53.2600841028061 -2.55161659175087,53.2601126765049 -2.55164680266777,53.2601359013927 -2.55175631224262,53.2602603038683 -2.55191972731327,53.2603763689175 -2.55195611054663,53.2604085513271 -2.55205208010698,53.2605277146376 -2.5521112028836,53.2605786619633 -2.55246967230298,53.2608197200392 -2.55261292483862,53.2608864520865 -2.55269724110861,53.2609166147833 -2.55279662457206,53.2609458076404 -2.55289875738834,53.2609677991978 -2.55300391158508,53.2609843850706 -2.55311505219319,53.2609955505717 -2.5532259754496,53.2609995285375 -2.55335189605127,53.2609971453201 -2.55348377968222,53.2609875457958 -2.55381879105725,53.2609338667728 -2.55410291102903,53.2608732335409 -2.55443749617967,53.2607773185395 -2.55517872630789,53.2606048299648 -2.55547366245328,53.2605684068348 -2.55558706113975,53.2605346283889 -2.55570781904496,53.2604774505789 -2.55598664631461,53.2603619315173 -2.55618308392425,53.2602504823343 -2.55626949144619,53.2602132338198 -2.55636057598106,53.2601840525066 -2.55659219480899,53.2601263555162 -2.5570587119327,53.2600351178458</coordinates></LinearRing></outerBoundaryIs></Polygon>
  </Placemark>
