  <Placemark>
	<Style><LineStyle><color>ff0000ff</color></LineStyle><PolyStyle><fill>0</fill></PolyStyle></Style>
	<ExtendedData><SchemaData schemaUrl="#Wards__December_2019__Boundaries_EW_BFE">
		<SimpleData name="objectid">7833</SimpleData>
		<SimpleData name="wd19cd">W05000776</SimpleData>
		<SimpleData name="wd19nm">Llantarnam</SimpleData>
		<SimpleData name="wd19nmw">Llantarnam</SimpleData>
		<SimpleData name="bng_e">330433</SimpleData>
		<SimpleData name="bng_n">192911</SimpleData>
		<SimpleData name="long">-3.00648</SimpleData>
		<SimpleData name="lat">51.630692</SimpleData>
		<SimpleData name="st_areashape">7772703.87852813</SimpleData>
		<SimpleData name="st_lengthshape">18343.4359638391</SimpleData>
	</SchemaData></ExtendedData>
      <Polygon><outerBoundaryIs><LinearRing><coordinates>-3.02676732507304,51.6442165252697 -3.02676269122252,51.6442012846601 -3.02652455569451,51.6429382578515 -3.0265060368877,51.6427567526755 -3.02649835205973,51.6426750201284 -3.02639100584912,51.6424646276 -3.02628670276885,51.6422622989645 -3.02606923231863,51.6418452209533 -3.02604543782551,51.6417519417535 -3.02606714012924,51.6415628912432 -3.02614945163894,51.641240273017 -3.02621825132098,51.6410895540159 -3.02635251199746,51.6408249101737 -3.02641781312953,51.6407092783205 -3.02649332155014,51.6405970639193 -3.02657460836239,51.6404875845509 -3.02667081602184,51.6403950551874 -3.02703074962719,51.6400780967621 -3.02740744726448,51.639675505852 -3.02759269417729,51.6394319879569 -3.02760288679813,51.6393716716722 -3.02762331121466,51.6392528370879 -3.02760978251588,51.6391657606607 -3.027584799561,51.6390831904148 -3.02752660816704,51.6389389753716 -3.02749325675952,51.638870949539 -3.02744518375709,51.6387894805321 -3.02734995743986,51.6386671632426 -3.02710363075475,51.6384489960396 -3.02681032873447,51.6382555994466 -3.02651821418569,51.6380567086159 -3.02594113656212,51.6376481657754 -3.02570857746292,51.6374640337339 -3.02549389931627,51.6372960154401 -3.02537083811551,51.6371594676018 -3.02529158086064,51.6369155667849 -3.02525047599998,51.6366938954785 -3.02536461033738,51.6366937968424 -3.02592350767878,51.6366781271614 -3.02593403841323,51.636696013064 -3.02595657080783,51.6367335703436 -3.02599285868386,51.6368051658351 -3.02594348451472,51.6369242532012 -3.02591532275681,51.6370171773337 -3.0259899123162,51.6370596728339 -3.02605462624418,51.637044725028 -3.0261401463273,51.6369909419342 -3.02621029393735,51.6369633609075 -3.02655108223327,51.6370179116684 -3.02761095845878,51.6371120126965 -3.02764262039026,51.6371054431526 -3.02770294415143,51.6370860379364 -3.02781573198427,51.6370895453735 -3.0282210161173,51.6371246485521 -3.0284336896571,51.6371353702285 -3.02861604663178,51.6371436605761 -3.02965774534618,51.6371399211167 -3.02968205993685,51.6371298206011 -3.02970851642991,51.6370828444483 -3.02977394604003,51.6370364264692 -3.03003988387948,51.6369109424486 -3.03014001487325,51.6368659272789 -3.03021275246629,51.636826636456 -3.03023951412719,51.636793141407 -3.0303179121683,51.63649392545 -3.03040648833036,51.6362548471776 -3.03044013393102,51.6361466823824 -3.03048698601916,51.6358540364601 -3.03062931644538,51.6356999716909 -3.03065911834876,51.6356745405501 -3.03069629043342,51.6356535396243 -3.03071772704356,51.6356479572976 -3.03104213749866,51.6356162540656 -3.03123373955589,51.635591198953 -3.0313713450735,51.6356016755833 -3.03138571640852,51.6355997518788 -3.03142282942887,51.6355814478428 -3.03145124429082,51.6355578261221 -3.03150719694043,51.6354144082713 -3.0315445109774,51.635336773592 -3.03154220194304,51.6352351277651 -3.03154593924657,51.6350849762878 -3.0315758632306,51.6350019243133 -3.03156398286669,51.6348617982158 -3.03158510979749,51.6347744185227 -3.03163122066756,51.6347012014363 -3.03167622988753,51.6346476803778 -3.03167404516347,51.6345515165703 -3.03167194210548,51.6344589469137 -3.03171596950822,51.6343622870311 -3.03172356219177,51.6343136787581 -3.03169945464557,51.6342698440384 -3.03168922800866,51.6342025161628 -3.03168812542664,51.6341539843124 -3.03178022884048,51.6340758688883 -3.03180017197417,51.6340622096813 -3.03184409735029,51.6340239794256 -3.0319138890317,51.6339181939259 -3.0318994766109,51.6338553968987 -3.03193531641327,51.6337129636685 -3.03197267262484,51.6335795957729 -3.03205117908486,51.6334746323426 -3.03214211029273,51.6333398042532 -3.03220620454739,51.633234966538 -3.03228499590398,51.6331425852321 -3.03236990708975,51.6330626440266 -3.03240360724273,51.633020098301 -3.0324219384978,51.6329408334277 -3.03245902444797,51.6328533119565 -3.03248535591539,51.6328063369615 -3.03251153958402,51.6327475877196 -3.03246371301346,51.6327399176531 -3.0323696561876,51.6327371491158 -3.03222125711415,51.6326917107659 -3.0320456892116,51.6326563992817 -3.03189059761038,51.6326361889433 -3.03176332749816,51.6326292178282 -3.03165647068107,51.6326346510656 -3.03149378371898,51.6325318066225 -3.03137835145903,51.6324743019719 -3.03118976423413,51.6324426993837 -3.0310801324151,51.6323888282863 -3.03103036624261,51.6323587025964 -3.03099956545903,51.6323400959355 -3.03103777578706,51.6323020059394 -3.03124032622816,51.6320619248218 -3.03135932743837,51.6319566051668 -3.03150429215041,51.6318509673219 -3.03184832664308,51.6313471584754 -3.03204400862641,51.6311197210961 -3.03206148265919,51.6309397854082 -3.03212740441265,51.6307215785211 -3.03234124010967,51.6300875817124 -3.03235610014877,51.6300443033949 -3.03235217928512,51.6299975944637 -3.03233486387131,51.6297441624823 -3.03238511125519,51.6296016029564 -3.03244326064462,51.6294923223674 -3.03263570397933,51.6291228837983 -3.03290149393078,51.6286736058804 -3.03297680200275,51.6284284377979 -3.03298386182136,51.6284193866539 -3.03303662253676,51.6283927645439 -3.033062255472,51.6283727625793 -3.03302616579546,51.6282472321549 -3.03295345509537,51.6279727147586 -3.03291948438088,51.6276888664985 -3.03298757153385,51.6276972563561 -3.03305374108952,51.6276840892277 -3.03312105300184,51.6276583272025 -3.03318083085542,51.6276155525876 -3.03323879440997,51.6275611073791 -3.03324289750048,51.6275529805164 -3.03338701738289,51.6272801503189 -3.03347716176904,51.6271165634625 -3.03358287971926,51.6270616976206 -3.03370737564624,51.6269473380727 -3.03377841789262,51.6268343483378 -3.03385721114582,51.6267373800683 -3.03386266222813,51.6267256464215 -3.03392208721602,51.6266046681678 -3.03399175588057,51.6264313730542 -3.03398838605218,51.6264089306376 -3.03386780434512,51.6263183033062 -3.03385006618273,51.626297783982 -3.03382593906186,51.6262530513797 -3.0338508589373,51.6262069867256 -3.03391826709024,51.6261856284286 -3.03398453651956,51.6261769539499 -3.03405231627451,51.6261718628161 -3.03413099003193,51.6260749853198 -3.03421092764233,51.6260284367683 -3.03426076348815,51.6259363082198 -3.03427386465019,51.6258786628696 -3.03429765219156,51.6257776848785 -3.03433426526892,51.6257378094878 -3.03438214250601,51.6256852509141 -3.034394113675,51.6255727813058 -3.03439886670639,51.6255304001135 -3.03453158221722,51.6254582166121 -3.03455170516189,51.6254526451287 -3.03457893106887,51.6254452144939 -3.03468914915728,51.6252689540327 -3.03470165909832,51.6252481691123 -3.03468065438858,51.6252150048906 -3.03463281468022,51.6252064375488 -3.03453295375842,51.6251992269618 -3.03447164565125,51.6251745976732 -3.0343843110649,51.6251421078596 -3.03428883775683,51.625076429342 -3.034099253467,51.6249945001167 -3.03403004412134,51.6249366807519 -3.03388150304772,51.6248839642611 -3.03373264151209,51.6248223513049 -3.03364485987993,51.6247700885019 -3.03387964722213,51.6243625204724 -3.03392936004927,51.6243225307359 -3.03396217515379,51.6243042636482 -3.03399258313115,51.6243057932357 -3.03416585692617,51.6243671907858 -3.03427918702898,51.6243958568218 -3.03440672285913,51.6244154076455 -3.03446237744179,51.6244481766389 -3.0345768514188,51.624464247502 -3.0346367944565,51.6244969786188 -3.03472491803959,51.6244962018496 -3.03485345044118,51.6244914738886 -3.03423099097949,51.6238010199837 -3.03398646952431,51.6235972333124 -3.03389807664162,51.623518008121 -3.0340682147715,51.6233789756927 -3.03417422727566,51.6232745767258 -3.03428438631554,51.6231639386364 -3.03454302718944,51.6229781905442 -3.03478126089728,51.6228430509768 -3.03496969177657,51.6228746500977 -3.03508436243665,51.6228943136475 -3.035346219406,51.6229126798622 -3.03548636303983,51.6229159377426 -3.03555376943204,51.6228946684467 -3.0356877219349,51.6228143820032 -3.03569765920509,51.6228062044761 -3.03601081792635,51.6225983983439 -3.03613036367086,51.6225236317756 -3.03622723217633,51.6224625501559 -3.03626141342341,51.6224415728503 -3.03636394249807,51.6224406676779 -3.03655046990255,51.6224462122778 -3.0366805302432,51.6224513561164 -3.03679530305473,51.6224755120541 -3.03682697891062,51.622475232271 -3.03684007849157,51.6224751165639 -3.03686840410447,51.6224532925313 -3.03686735854475,51.6224074565895 -3.03689220880311,51.622358606268 -3.03694711930289,51.6222960963324 -3.03693699326104,51.6222907916516 -3.03690907567064,51.6222730602228 -3.03681206918612,51.62219750906 -3.03670685100754,51.6222110231836 -3.03662154315792,51.6222045858971 -3.03656085414524,51.6222069192754 -3.03643513650335,51.622141509526 -3.03634460418888,51.6220991611812 -3.03617745997619,51.622055600806 -3.0359897431762,51.6219925361902 -3.03590945727028,51.6219554903099 -3.03569198645164,51.621856730805 -3.03556039385451,51.6217895745055 -3.03529143434478,51.6216525249567 -3.03511614730644,51.6215650779614 -3.03499669801767,51.6215184895047 -3.03487751926831,51.6214889765151 -3.03468203221356,51.6214663394406 -3.0345418360692,51.6214657777068 -3.03441784341764,51.6214759494195 -3.03418773041096,51.6215175289843 -3.03386558081826,51.6215185694654 -3.03368005114232,51.6214257274592 -3.03359056289436,51.6213662880554 -3.03337534739946,51.6213663855225 -3.03328410613959,51.6213555022189 -3.03322225223679,51.6213066066324 -3.03318682434183,51.621272759837 -3.03309907320968,51.6212267887521 -3.03303590973217,51.6211779036943 -3.03302260019362,51.6211006246007 -3.03299327561242,51.6210208797477 -3.03293325677947,51.6209216277134 -3.03286905214618,51.6208898323989 -3.03275899800017,51.620879114232 -3.03267975653058,51.6208879021673 -3.03261698675593,51.6209244104831 -3.0325624387074,51.6209401717777 -3.03247719648814,51.6209364275525 -3.03240675324411,51.6208921011514 -3.03238403553644,51.6208409735295 -3.03237938376809,51.62076730302 -3.03237309745142,51.6207421886872 -3.03234840403817,51.6207352142928 -3.03229069589378,51.6207429134047 -3.03225475774777,51.6207495218665 -3.03221971873872,51.6207327502322 -3.03220684275848,51.6206744343664 -3.03221116718384,51.6206078764908 -3.03221841352003,51.6205493836691 -3.0321978591963,51.620530597287 -3.03212992416156,51.6205284980588 -3.03205158239463,51.6205139054821 -3.03196828346497,51.6204750850853 -3.03191638740616,51.6204135164502 -3.03189410350094,51.6203867452867 -3.03186016680821,51.6203555815977 -3.03181057799694,51.6203326453412 -3.03178664399157,51.6203013937015 -3.03176470301758,51.6202845067947 -3.03169787176388,51.6202680153581 -3.03156641128406,51.6202691707663 -3.0314016685004,51.6202679218684 -3.03134144684019,51.6202855298973 -3.03129316190081,51.6203201127908 -3.03122796188465,51.6203755198349 -3.03118990365952,51.6204199010316 -3.03112376412273,51.6204339660478 -3.03105791268678,51.6203976883518 -3.03087160121815,51.6202068678086 -3.03081546367965,51.6201525266183 -3.03076015945829,51.6201296410114 -3.03067141104722,51.6201025531912 -3.03064282475614,51.6200551624689 -3.03062956378085,51.619979770037 -3.03064562101852,51.6199211091307 -3.03064500970193,51.6198941474296 -3.03057226332157,51.6198741106038 -3.03046243241371,51.6198678841899 -3.03041319353254,51.6198656198344 -3.03043329638913,51.6197962268907 -3.03043774553245,51.6197350612167 -3.03043036263884,51.6196668087346 -3.03026564519762,51.619472200961 -3.0302278313328,51.6194590497776 -3.03015579868369,51.6194704684615 -3.03007374178286,51.6194810767993 -3.03001270980085,51.6194681284025 -3.02995785333786,51.6194650139805 -3.02991506031146,51.6194896608247 -3.02989320268903,51.6195446859218 -3.02988932591305,51.6195680921169 -3.02987832508452,51.6195924590921 -3.02982918602144,51.6195892944444 -3.02972952118335,51.619590168831 -3.02969591228114,51.619573384798 -3.02970089172135,51.6195355866794 -3.02954776322346,51.6195369299153 -3.02948040312805,51.6194970687796 -3.02945169259853,51.6194388914893 -3.02940921618092,51.6192881563569 -3.02940797465514,51.6192333339335 -3.0293684261808,51.6192067128028 -3.02928033677949,51.6191454604051 -3.02919435271122,51.6190509291051 -3.02908960918496,51.6190167896621 -3.02904001971058,51.6189937632253 -3.02906091776737,51.6189594213611 -3.02907130848067,51.6189080918398 -3.02905804896947,51.618832699211 -3.02901226116715,51.6187881546137 -3.02889509542243,51.6187208644218 -3.0288074494074,51.6186739001229 -3.02880317784103,51.6184851662616 -3.02872441340779,51.6184516970565 -3.02865252678464,51.6184010895466 -3.02860590251816,51.618319606934 -3.02860427557741,51.6182477080978 -3.02862005719031,51.6181819491097 -3.02861342608987,51.618141555262 -3.02855339129878,51.6181726451191 -3.02847705223219,51.6181832022431 -3.02836465871327,51.6181266561753 -3.02825949306666,51.6180790357057 -3.02825888114377,51.6180519840758 -3.02828567467823,51.6180202873151 -3.02834064774847,51.6180234014928 -3.02837905454839,51.6179996928172 -3.02834465580264,51.617947857492 -3.02828893060501,51.6179114904244 -3.02819485968441,51.617901527142 -3.02811854131132,51.6179129830253 -3.02810243527539,51.6179643616303 -3.02812061466336,51.6180046534541 -3.02811567120863,51.6180388563065 -3.0280669018657,51.618057261525 -3.02801231638212,51.6180712227009 -3.02796128045851,51.6180473992224 -3.02796028457656,51.6180033610955 -3.02792172409911,51.6179623485651 -3.02786065056463,51.6179422087369 -3.02783271526885,51.6179181829076 -3.02782025060869,51.6178778409976 -3.02784692592653,51.6178461453719 -3.02791322394912,51.6178392723803 -3.02796189501641,51.6178217663583 -3.02797881204418,51.6178009435328 -3.02796632696025,51.6177597026439 -3.02789319692604,51.6177224987284 -3.02784314405667,51.6176788901954 -3.02781474153541,51.6176341928863 -3.0277435094572,51.6176177377415 -3.02765493159925,51.6175978377332 -3.02759456830176,51.6176091535849 -3.02755610045228,51.6176301650229 -3.02750104663362,51.6176234553962 -3.02743938810235,51.6175826458034 -3.02738380621971,51.6175525685605 -3.02735595265821,51.6175321376919 -3.02736673090503,51.6174978846983 -3.02738746704054,51.6174563529627 -3.02738102138903,51.6174293523894 -3.02736878067548,51.6173988957675 -3.02731956142439,51.617392135886 -3.027258793538,51.6173854761581 -3.02722116843046,51.6173858054442 -3.02719240113022,51.6173249305723 -3.02712903599859,51.6172086268617 -3.02705017145447,51.617165270113 -3.02697275552251,51.617128103127 -3.02691739790581,51.6171079118624 -3.02687262899731,51.6171083035392 -3.02684138494239,51.6171328473715 -3.02680769916303,51.6171124673684 -3.02676191399886,51.6170679217711 -3.02670092342185,51.6170513763684 -3.02664595162063,51.6170482614068 -3.02659718263568,51.6170666660554 -3.02655426478962,51.6170805254375 -3.02652011250469,51.6170394738004 -3.02642632970721,51.6170474855505 -3.02635023537927,51.6170688256739 -3.02626191969559,51.6170552155989 -3.02616767171215,51.6170425555963 -3.02605762497963,51.6170264387279 -3.02588665398062,51.6170072575675 -3.02568219606041,51.6169712898691 -3.02554947864296,51.6169796411428 -3.02542992004607,51.6169905739313 -3.02530253322097,51.6169817985378 -3.02520260721821,51.6169655915573 -3.02514702769925,51.6169355140588 -3.0251077818737,51.6168639435455 -3.02506199658619,51.616819307353 -3.02499563876502,51.616823482649 -3.0248764673656,51.6168515803291 -3.02479979378158,51.6169106799479 -3.02471798457311,51.6169320689139 -3.02466889085683,51.6169360933047 -3.02464134276698,51.6169291421946 -3.02464018829976,51.6168779146095 -3.02464497035071,51.6168364326063 -3.02462679467009,51.6167961401061 -3.02456574609043,51.6167822898165 -3.02444933984598,51.6167428546971 -3.0243452314615,51.616736572606 -3.02424150919213,51.6167473650767 -3.02419114793546,51.6167585919262 -3.02414201225766,51.6167554248631 -3.02407950639743,51.6166768653416 -3.02400663461172,51.6165822164695 -3.02397840009857,51.6165447082417 -3.02391737026937,51.616531666704 -3.02383523809757,51.6165387654893 -3.02375111002096,51.6165259253415 -3.02366295802045,51.6165195034683 -3.02360900217498,51.6165614133849 -3.02357230696576,51.6166030837391 -3.02349470289429,51.6166208402822 -3.02329164421316,51.6166468812663 -3.02319846053116,51.6166126356868 -3.02291648306283,51.6165980145005 -3.02279605687658,51.6165756916869 -3.02266846810677,51.6165525328793 -3.02255289133418,51.6165499440152 -3.0223540102609,51.6165075395542 -3.02220529737401,51.616508834761 -3.02212239518338,51.6164816903798 -3.02205549206954,51.6164615973303 -3.02197364331799,51.6164865814329 -3.0219303031595,51.6164869587805 -3.02190253354922,51.6164701207232 -3.02184231304609,51.6164877248305 -3.02176448628938,51.6164955930451 -3.02171484747456,51.6164753504117 -3.02164816524779,51.6164651434339 -3.02157738017714,51.616463062904 -3.02142795928932,51.6164329011511 -3.02136759587965,51.6164442138323 -3.02130764034673,51.6164788942928 -3.02121961112036,51.6164832560175 -3.02100542236175,51.6164644437195 -3.02086856067118,51.6164791181734 -3.02074220245966,51.61651078006 -3.02058751412345,51.616505832754 -3.02041674638794,51.6164902385265 -3.02030209905877,51.6165289897353 -3.02023163773725,51.616546681141 -3.02012042926984,51.616547647713 -3.01996688426348,51.6165247115422 -3.01982988092806,51.6165330935907 -3.01966362110762,51.6165273464307 -3.01954678004865,51.616537350446 -3.01958242057776,51.6166450012456 -3.01960626745443,51.6167418771564 -3.01967629613243,51.616901366076 -3.01963315991815,51.6169745533223 -3.0196668049438,51.6170569617886 -3.01967920319589,51.6171584310852 -3.01969518590574,51.6172284977786 -3.01966735938327,51.6172727863512 -3.01966068018354,51.6172989131656 -3.01970702019899,51.6173048029965 -3.01977843307384,51.617334745421 -3.01986073020699,51.6173933586374 -3.01987063916851,51.6175165139321 -3.01992080282737,51.6175601248828 -3.01994315914459,51.6175904934685 -3.01991915755766,51.6176194674358 -3.01986625791393,51.6176397025747 -3.01975371938306,51.6176451753194 -3.01958524418317,51.6176682127342 -3.01938916456775,51.6177508179039 -3.01922459335382,51.6178205652369 -3.01916582057448,51.6178391435298 -3.01906334151583,51.6178418307493 -3.01887053804277,51.6178740682709 -3.01855412908703,51.6179388392739 -3.0183426126795,51.6179757323701 -3.01816274509766,51.6179422349445 -3.01810656595119,51.6179490146545 -3.01807103052439,51.6179735933223 -3.01806620188469,51.6180131879677 -3.01805529583265,51.6180420470633 -3.01801382531479,51.6180621831309 -3.0179606046248,51.6180734320704 -3.01789140669758,51.6180785261898 -3.01782401947359,51.6181006843273 -3.01772218415651,51.6181321310081 -3.01755016463215,51.618124633239 -3.01736062047675,51.6181749069215 -3.01727291125751,51.61819364508 -3.0171886418444,51.6182384221523 -3.01692285511913,51.6183036490024 -3.01687760054156,51.6183462904159 -3.01680528217664,51.6184035484937 -3.01678105487256,51.6184172414284 -3.01673024784305,51.618408692479 -3.01668010575116,51.618360585882 -3.01659155008428,51.6183415764418 -3.01645546946043,51.618263650213 -3.0163545787124,51.6182735128057 -3.01629835890795,51.6182784945125 -3.01628022933241,51.6183092143197 -3.01627515525271,51.6184018468637 -3.01625652041207,51.6184739212522 -3.01622577588445,51.6185210207745 -3.01616643509199,51.6185781661128 -3.01603095330012,51.6186602409237 -3.01580069558369,51.6187593163558 -3.0157129229347,51.618775357287 -3.01560269722552,51.6187565355064 -3.01550319712006,51.6187007646839 -3.01543118261934,51.6186438568473 -3.01541595233112,51.6186071333401 -3.0153810014207,51.6185939516872 -3.01530753691056,51.6186053744894 -3.0152646365634,51.6186255210241 -3.01516988034333,51.6186488135256 -3.01504711811978,51.6186498751229 -3.01493461562509,51.61865714029 -3.01489280358676,51.6186619967539 -3.0148575069224,51.6186973597252 -3.01480166776723,51.6187194162966 -3.01477488276807,51.6187466149116 -3.01474459617335,51.618814295732 -3.01466090717936,51.6188852237901 -3.01457689435087,51.618936289185 -3.01447237953515,51.6189812392998 -3.01438534977568,51.6190305331868 -3.0143698888605,51.6191115688752 -3.01429835113815,51.6192093596328 -3.01420825806224,51.6193135131528 -3.01408403434186,51.619441333633 -3.01396569289483,51.6195125614519 -3.01390003227863,51.619548185515 -3.01389387050585,51.619592285565 -3.01374087590467,51.619663722547 -3.01361850562957,51.6197465805302 -3.01353783429161,51.6197553669477 -3.01343331866459,51.6198004060677 -3.01333147669126,51.6198318490167 -3.01318319274334,51.6198529044783 -3.01300722216142,51.619866109737 -3.01286020600923,51.6198799631737 -3.01276544747507,51.6199032528663 -3.01269270138064,51.6199470290368 -3.01263259336575,51.6199700205823 -3.01250996634534,51.6199773707793 -3.0123463587607,51.6200911459841 -3.01218569881065,51.6201447580341 -3.01207870800203,51.6201375906996 -3.01199809574177,51.6201490721695 -3.01191454697381,51.6201623772421 -3.0117830663219,51.6201572181953 -3.01172688376893,51.6201639948464 -3.01168826688588,51.620184104062 -3.01166900398137,51.6202283169127 -3.01165553708343,51.6202706823638 -3.01160695748601,51.6202926748589 -3.01152950307472,51.6203176127755 -3.01141293126347,51.6203401910772 -3.01132561407933,51.6203715062445 -3.01126004885458,51.6204116238772 -3.01120046318133,51.6204634646187 -3.01112871323321,51.6205467831175 -3.01113785793472,51.6206365954555 -3.01112295443032,51.6207428863544 -3.01107239119763,51.6210022087392 -3.01054965930529,51.6210130024904 -3.01039243765421,51.6210233449226 -3.01015923133403,51.6210604997743 -3.01000536563533,51.6210878925787 -3.00984063083404,51.621151334774 -3.00967025918007,51.6212184210133 -3.00955166488024,51.6212787693025 -3.0094424526718,51.621305777322 -3.00935745139815,51.6213128006702 -3.00926014946064,51.621355886704 -3.00907383118829,51.6213592859683 -3.00892278553495,51.6213849446903 -3.00870116379613,51.6214237055108 -3.00857172810543,51.6214517847798 -3.00835591403462,51.6214248734804 -3.00821386862959,51.6214000248159 -3.00780175838826,51.6212542544385 -3.00732832173961,51.6210712544521 -3.00716089332144,51.6210133619503 -3.00690078411731,51.6212071521579 -3.00662719428592,51.6211151125658 -3.00624754217125,51.6209933287975 -3.00590697124775,51.6208775912186 -3.00587857338768,51.6209021050255 -3.00579156637505,51.6208884683107 -3.00568389679242,51.6208507372024 -3.00566861367333,51.6208113162486 -3.00554114067792,51.6207989243001 -3.00526543021239,51.6207400701387 -3.00505760100421,51.6207508388153 -3.00503388074995,51.6206584532333 -3.00465696162759,51.6206598823452 -3.00454129381384,51.6205242367169 -3.00452054863442,51.620437129781 -3.00447779979481,51.6203997411464 -3.00440353400356,51.6203698137576 -3.00429835107675,51.6203797027409 -3.00423089378948,51.6204045503262 -3.00418251066477,51.6204355271101 -3.00407111196423,51.6203636686465 -3.00400790264459,51.62037589495 -3.0040168350598,51.6204567206938 -3.00392191199266,51.6204728139941 -3.00385094151823,51.6204626344716 -3.00379408211336,51.620438849348 -3.00372777548428,51.6204457087508 -3.00367474737151,51.6204659385719 -3.00353465401796,51.6204698329543 -3.00342141065127,51.6204438339523 -3.00333390920732,51.620467054918 -3.00323307093668,51.6204148808907 -3.00316624961519,51.6203983721833 -3.00310149110287,51.6203458896973 -3.0030203006819,51.6203313020407 -3.00290118541006,51.6202334386814 -3.00286945057681,51.6202364064301 -3.00273318750594,51.6202789207616 -3.00261347560409,51.620288932346 -3.00254780524081,51.620324551079 -3.00249689947885,51.6203115027474 -3.00244784090289,51.6203119217124 -3.00239175591749,51.6203231871333 -3.00232390226471,51.6202599432698 -3.00226672658945,51.6202217787343 -3.00215975680857,51.6202155004465 -3.00210631053668,51.6201520435341 -3.0020697936047,51.6201325797672 -3.00196169219956,51.6201451881897 -3.00191868555567,51.6201608367149 -3.00187419108742,51.6201738013041 -3.00184956203746,51.620169517445 -3.00183696058316,51.6201219823293 -3.0018187237148,51.6200780910989 -3.00172024785264,51.6200681441253 -3.0016021259505,51.6200206111377 -3.0015842262535,51.619991998433 -3.00160474851018,51.6199396856923 -3.00159266266058,51.6199155183452 -3.00153614196412,51.619907011568 -3.00144899771891,51.6199518019349 -3.0013021758217,51.6199746282838 -3.0012734392414,51.6199838623434 -3.00125103438894,51.6199507938018 -3.00123039567211,51.6199275975073 -3.00116651149796,51.6199146588724 -3.00111231397793,51.6198818603501 -3.00108415152083,51.6198469525808 -3.00103781129109,51.6198410550568 -3.0009501317338,51.6198615785702 -3.00083714989579,51.6198472597399 -3.0007261931031,51.6197951690886 -3.00066159642883,51.6197498741282 -3.00061109298147,51.6196846835881 -3.00058128585762,51.6196453855636 -3.00059912929727,51.6196011867092 -3.00065457981846,51.6195610716654 -3.00072755462571,51.6195271905381 -3.00071671941611,51.6194949216134 -3.00064571175279,51.6194883357951 -3.00052530936522,51.6194614950623 -3.00028114664419,51.6194608768237 -3.00034424012868,51.6197678584064 -3.00031771443578,51.6200072857652 -3.00022871374929,51.6202274686515 -3.00019194249977,51.6205263114846 -3.00010117200263,51.620731137953 -3.00024626624844,51.6207649604993 -3.0003543667635,51.6208170759378 -3.00042279482401,51.6209064752245 -3.00049054660257,51.6209652265442 -3.00058620477033,51.6209823899028 -3.0006747989938,51.6210032091451 -3.00072394106014,51.621395706438 -3.00075599841764,51.6218019231361 -3.00038267306462,51.6219075786428 -2.99989303224401,51.6219072529402 -2.99926785435807,51.6216580893922 -2.99903568451689,51.6219433112161 -2.99878774192502,51.6223563139684 -2.99869774667469,51.6224722296711 -2.99854098504083,51.6225688473834 -2.99792189491055,51.6229274703605 -2.99738833505764,51.623297949582 -2.99722555704059,51.6233812224799 -2.99687337421575,51.6235936579168 -2.99659864909608,51.6237156341201 -2.99632955701849,51.6238284829619 -2.9961924788233,51.6238997599926 -2.99605409769025,51.6239171138264 -2.99591684141971,51.6239803021946 -2.99569530366476,51.6240892405656 -2.99545736590906,51.6241074373574 -2.99514731709906,51.6241343343096 -2.99487813424844,51.6241779641523 -2.9947149133308,51.6242413718429 -2.9945503010343,51.6243119817466 -2.99440039566369,51.6243960399207 -2.99428426509369,51.6244994994185 -2.99402949413652,51.6246086258812 -2.99391799915773,51.6246626948078 -2.9937559152105,51.6247836213303 -2.99370346767261,51.6248254141706 -2.99357297558039,51.6248714636719 -2.99344070231695,51.6249013475153 -2.99330967899861,51.624923129906 -2.99303976903219,51.6249992126569 -2.99260625035892,51.6250559116456 -2.9921920759818,51.6251421101856 -2.99205378754092,51.6251639525101 -2.99203354165235,51.6251641234528 -2.99194175683553,51.6251936637246 -2.99182998112129,51.6252350582903 -2.99165239552559,51.6252410521934 -2.99155361971759,51.6252832350426 -2.99130555556407,51.6253672192149 -2.99140837677966,51.6255757990248 -2.99162975269734,51.6257259366098 -2.99169746326095,51.6257828958799 -2.99174484925591,51.625836430882 -2.99176537386413,51.6259144630199 -2.99172839680492,51.6260047560535 -2.99171093880639,51.6261325496914 -2.99149894625014,51.6264175856741 -2.99160151479086,51.6265488604283 -2.99159525469639,51.6265894541691 -2.99178385823913,51.6267604545414 -2.99208638095645,51.6266554238808 -2.9921734601442,51.6267373889187 -2.99225495809521,51.6268310866478 -2.99241617025075,51.6269367857639 -2.99252954700285,51.6270338089231 -2.99257145351286,51.6271035704506 -2.99259349072232,51.627185275356 -2.99256818152925,51.627280774276 -2.99251050416432,51.6273504778556 -2.99229065370739,51.6275376007637 -2.99211449880123,51.6276748243927 -2.99183741772857,51.6279523206322 -2.99166481225729,51.6279250121629 -2.99145954988376,51.6279186545341 -2.99132824377063,51.6279278522744 -2.99125562225073,51.6279734108952 -2.99122598267799,51.6280725409195 -2.99121265211788,51.6281220942641 -2.99118729737118,51.6281556574867 -2.99110829015205,51.6281761003025 -2.99102904881364,51.628185757692 -2.99097021022604,51.6282024345192 -2.99091906681222,51.6282442150988 -2.99085404150188,51.6283103849273 -2.99073090435884,51.6284264838097 -2.99065227256846,51.628464091909 -2.99055446685721,51.6284855920114 -2.99042112168819,51.6284615465086 -2.99029490159947,51.6284418449399 -2.99017087961919,51.6284519690747 -2.99003330657291,51.6285016700465 -2.98994170864973,51.6285401961714 -2.98982203184401,51.6285528900223 -2.98969620510125,51.6285458601002 -2.98959749733098,51.6285260159581 -2.98954394397361,51.6285228712018 -2.98951163821129,51.6285599993594 -2.98947410168063,51.6286304300668 -2.98940897718943,51.6286921049656 -2.98939133382121,51.6287461884609 -2.9893253479761,51.6287629246409 -2.98921964975743,51.628755723826 -2.9891133453391,51.6287152686114 -2.98906650923177,51.6286868984164 -2.98899932632874,51.6286542036145 -2.98887387290039,51.6286642485076 -2.98875499610289,51.6286481700803 -2.98856128489823,51.6285760887294 -2.98829099186048,51.628570272663 -2.98770570327692,51.6284312783302 -2.98737451800431,51.6283477657819 -2.98713592756685,51.6283371856982 -2.98691006821192,51.6282491920432 -2.98673686141287,51.6281886210811 -2.98651867279654,51.6281904531974 -2.98614824620402,51.6281647083482 -2.98590966185368,51.6280885042886 -2.98563013649154,51.6279919694648 -2.9855295165583,51.6279442717679 -2.98543490758303,51.6278496911951 -2.98517933959814,51.6276549718026 -2.98508514492661,51.6275739604472 -2.98493206825922,51.6275131290431 -2.98467449027085,51.6274946132985 -2.98440250170437,51.6274762157072 -2.98428429468551,51.6274852961235 -2.98413131816941,51.6274290460377 -2.9840575478508,51.6273559531564 -2.98403597588943,51.6272950072326 -2.98401491203153,51.6272574291797 -2.98396235985396,51.6272290137477 -2.98384287961759,51.6272507790816 -2.98369169641546,51.6272772136889 -2.98337617592537,51.6273167083865 -2.98319123987089,51.6273137601422 -2.98301274118642,51.6273440180773 -2.98290205116833,51.6273701130838 -2.98265207998464,51.6274333290904 -2.98242907295742,51.6274765429047 -2.98217060963151,51.6274831964291 -2.98192671463485,51.6274969192709 -2.98175477876817,51.6274947602503 -2.98158230014983,51.6274674350542 -2.98103471487811,51.6274675105839 -2.98073067536066,51.6274376860694 -2.98051159609672,51.6273981641499 -2.98029972803203,51.6273504900721 -2.98012685928387,51.6273105821267 -2.97998079131077,51.6273037090154 -2.97973730598126,51.6273309078397 -2.97953279974415,51.6273649729645 -2.97936865506441,51.6273870150189 -2.97920933415615,51.6273676674708 -2.97906469469463,51.6273607813216 -2.97885943556766,51.6273544006141 -2.97875399370212,51.6273588742279 -2.97862755133192,51.6273230716308 -2.97842926526714,51.6273085414071 -2.97816508646744,51.6273152336801 -2.97803340933842,51.6273073401477 -2.97782009070662,51.6272640787159 -2.97735867197212,51.627304861344 -2.97704863143353,51.6273281128855 -2.97695055034261,51.6273370186526 -2.97687138435744,51.6273502612224 -2.97677135246117,51.6273349117844 -2.9766518621639,51.627289969509 -2.97656521959918,51.6272214729992 -2.9765102377978,51.6271518151941 -2.9764704030937,51.6271107959709 -2.97634985578234,51.6270830318009 -2.97611789735753,51.6270481027262 -2.97578164126318,51.62699327347 -2.97576126060884,51.6269871502372 -2.97588018461822,51.6270779422229 -2.97604721444064,51.6272509440602 -2.97635660416745,51.6274633052548 -2.97665247393771,51.6276506075309 -2.97698775174266,51.6277925467458 -2.97718266307202,51.627849356711 -2.97746958544593,51.627891917494 -2.97786205042734,51.6279345880005 -2.97798381801181,51.6279524523305 -2.97825486284304,51.6279933449388 -2.97843286507395,51.6280116400617 -2.97848216885185,51.6280166229611 -2.97868243068919,51.6280563062138 -2.97886240604429,51.6280997538045 -2.97905614300694,51.6281682551677 -2.97919019788592,51.6282255685849 -2.97935824392137,51.6283123522217 -2.97937136131594,51.6283185353408 -2.97944099348612,51.6283988571306 -2.97945428544699,51.628413128611 -2.9794617308624,51.6284876769406 -2.97947184800868,51.6286198217665 -2.97941111347644,51.6288855969707 -2.97944340125357,51.6291784633968 -2.97950964937393,51.6294385958807 -2.97967390898448,51.6296809219103 -2.97976829276875,51.629770925433 -2.97994436511665,51.6298980922992 -2.97997663101243,51.6299193971356 -2.98022146748143,51.6300809582239 -2.98023464374577,51.6300898373673 -2.98039504451686,51.6301587053235 -2.98060345415942,51.6302441615766 -2.98083660883905,51.6302673863618 -2.98087399086999,51.6302607821282 -2.98100221623104,51.6302408351997 -2.98112015929727,51.6302191764918 -2.98142351701751,51.6300844147184 -2.98172600330826,51.6299039051897 -2.98179748001281,51.6298709472567 -2.98205505037172,51.6297563424671 -2.98243641753223,51.6296210163279 -2.98260211737309,51.6295989561536 -2.98284778603249,51.6296004985698 -2.98300864243273,51.6296243233655 -2.98330161226789,51.6296758084646 -2.98366965358418,51.6297887794312 -2.98405825177555,51.6299212636287 -2.98443228550376,51.6300466769423 -2.98444679378413,51.6300510504171 -2.98484671826943,51.630167345354 -2.98515599682735,51.6303058818789 -2.98525720832802,51.6303751478124 -2.98529110411002,51.6304055171836 -2.9854398362142,51.6305346117597 -2.98567709184375,51.6307520461292 -2.9859403361901,51.6309646779854 -2.98605678348961,51.6310716596415 -2.98620493407129,51.6311737920283 -2.98632532343314,51.6311934561316 -2.98647122838419,51.631192231292 -2.98662402829169,51.6311738686476 -2.98705428439598,51.6310956456177 -2.98740536869313,51.6310306711222 -2.98754363786888,51.6310070361633 -2.98790202409547,51.6309437063311 -2.98835209229304,51.6309111561295 -2.98854608827259,51.6309301996952 -2.9887063275427,51.6309909661327 -2.98873711076007,51.6310095842768 -2.98884841508678,51.6310769647581 -2.98897712630866,51.6312161124326 -2.98909503205611,51.6314552190189 -2.98914467566448,51.6316122007975 -2.98924221498029,51.6317803750231 -2.98940526015505,51.6319696621979 -2.9896366694604,51.6321744631247 -2.98982395807032,51.6322844401706 -2.99001161787606,51.6323403898744 -2.9900855220879,51.6323532511221 -2.99019863019344,51.6323720734466 -2.99042461278083,51.6323989341972 -2.99062482490883,51.6324350007796 -2.99082556715505,51.6324953329415 -2.99101311254896,51.6325513719307 -2.99117398699476,51.6326408050771 -2.99124456698319,51.632692347148 -2.9912959136309,51.6327305665893 -2.99140558491014,51.6328537815843 -2.99151280432125,51.6329355762304 -2.99171319787465,51.6329797301617 -2.99196675566073,51.6330144450472 -2.99222552133244,51.633020350968 -2.99242491209415,51.6330186670841 -2.99263099870567,51.6329962507863 -2.9927707391141,51.6329743955992 -2.99288243407209,51.6329285059386 -2.99289057869863,51.632903267555 -2.99290140526356,51.6328699166772 -2.99288543637256,51.6328043411811 -2.99284450193436,51.6327138960887 -2.99283578048683,51.6326474509926 -2.99290126128985,51.6326019517875 -2.9929996774773,51.6325426911626 -2.99314460106498,51.6324964305109 -2.99332964936771,51.6324328415652 -2.99348205519073,51.632401888551 -2.99360753751331,51.6323927376934 -2.99376807571099,51.632395874106 -2.99391416135374,51.6324027292301 -2.99420069340818,51.6324254747511 -2.99437337623082,51.6324608687062 -2.99448106397488,51.632493216734 -2.99457503149739,51.6325626267926 -2.99462323563494,51.6326530088589 -2.9946670813631,51.6328054525432 -2.99464588590449,51.6328929170878 -2.99463656959129,51.6329298511269 -2.99461365531561,51.6330747700866 -2.99457763292873,51.6332738248143 -2.99455501547618,51.6334268310721 -2.99455954776835,51.6336336323461 -2.99463608460576,51.6338317340801 -2.99468466196807,51.6339391912053 -2.99480886475245,51.6341323944525 -2.99491163494101,51.634271753612 -2.99508116803161,51.6344295143073 -2.99517551381987,51.6345105159398 -2.99529725369738,51.6345966786561 -2.99537204984237,51.6346445865086 -2.99574514597903,51.6348545563254 -2.99593079184629,51.6349536607074 -2.99609115305551,51.6350189106772 -2.99631161125859,51.635053896622 -2.99641101355141,51.6350449639735 -2.99649709852727,51.635015468778 -2.99658844574939,51.6349651644704 -2.99670738919086,51.6349183107938 -2.99709836878951,51.6348898243248 -2.99747072540759,51.6348704835926 -2.99766331290529,51.6348895240083 -2.9979560542919,51.63492838806 -2.99836391779218,51.6350122071756 -2.99858955651558,51.6350875955809 -2.99875843766489,51.6351445898161 -2.99912661429983,51.6352655086836 -2.99946785946561,51.6353373056925 -2.99974732365322,51.635368188438 -2.99994324798994,51.6354033763173 -3.00005950369788,51.6354347479098 -3.00016160458204,51.6354779254217 -3.00027879131394,51.6355515370551 -3.00040032880393,51.6356225048516 -3.00055269426881,51.6357191887137 -3.00063976570283,51.6357993487743 -3.00079695437443,51.6359796792611 -3.00087380202848,51.6360608253898 -3.00106063321096,51.6362777589236 -3.00119884409297,51.6364509691078 -3.00124587418899,51.6365522352032 -3.00130443438924,51.6367818567319 -3.00134270472255,51.6370099425099 -3.00146404172363,51.6372714779912 -3.0015924886307,51.6375257620514 -3.00167380444418,51.6376742864338 -3.0017552620183,51.6377643817997 -3.001777100751,51.6377713860485 -3.00182665675646,51.6377872335087 -3.00185137453489,51.6377951123372 -3.00185139437506,51.637796011333 -3.00191498506859,51.6377999635048 -3.00201322098125,51.6377973266509 -3.0021918628107,51.6377724304861 -3.00229537848597,51.6377498830626 -3.00259030244407,51.637687137459 -3.00269822685011,51.6376700351321 -3.00287541906645,51.6376442511407 -3.00291721124995,51.6376376017197 -3.00307059946882,51.6376506732262 -3.0031287703512,51.6376627608434 -3.00315479799318,51.6376652350113 -3.00322589406386,51.6376799087181 -3.00323611824268,51.6376843162629 -3.00342816303395,51.6377429017514 -3.00361617910414,51.6378132968402 -3.0038009180056,51.6378701458554 -3.00404904884313,51.6379165651498 -3.0042174284836,51.6379501823373 -3.00430337575589,51.6379845045819 -3.00436121296762,51.638051427342 -3.00444714470404,51.6381442681895 -3.00461508062363,51.6384215830701 -3.00469731963228,51.6385467254777 -3.00476059917743,51.6386603454612 -3.00475637552083,51.6387332832308 -3.0047318589778,51.6387991132545 -3.00473191865135,51.6388018093401 -3.00472238886986,51.6388288586702 -3.00465677678096,51.6389327945622 -3.00457867263468,51.6389945882496 -3.00447712261622,51.6390413920193 -3.00434267219339,51.6391036676948 -3.00398905401605,51.6392550126835 -3.00394045239639,51.6392770020274 -3.00393751294723,51.639278824598 -3.00377016596621,51.6393567530782 -3.00368608443407,51.6394069117244 -3.00363839589312,51.6394756371262 -3.0036523147582,51.6395824881827 -3.00369224677037,51.6396856109723 -3.003779866344,51.6397954266809 -3.00390531025801,51.6399130104351 -3.00401040285825,51.6399616412208 -3.00417154306814,51.6399908254851 -3.00433786461465,51.6400010881288 -3.00452731679424,51.6400066585733 -3.00478578236152,51.6399972549576 -3.00497515497598,51.6399992295997 -3.00522131385572,51.6400204939039 -3.00562873191228,51.6400817253262 -3.00602233494635,51.6401700414954 -3.00651117062224,51.6403187549909 -3.00691328070631,51.6404681213845 -3.00718897615603,51.6405800068314 -3.00731224271689,51.6406634463716 -3.00747409268852,51.64079419691 -3.0076566444415,51.641014750771 -3.0078559592724,51.6412657221463 -3.00800861398805,51.6415027117158 -3.00804138766721,51.6416102995155 -3.00803035981109,51.6417038804001 -3.0079892699761,51.6418013151829 -3.00783498130651,51.6420166699607 -3.0077503469666,51.6421063887068 -3.0076536047862,51.6422412444648 -3.00761666103384,51.6423377440034 -3.00764919227924,51.6424345454485 -3.00771202481752,51.6425329740968 -3.00781347347669,51.6426103070488 -3.00793455793341,51.6426596056617 -3.00798249027912,51.6426717786483 -3.00805222611531,51.6426891584088 -3.00809009121335,51.6426987203402 -3.00816530540233,51.6427052658468 -3.00827226844422,51.6427034480376 -3.00840778125058,51.6426888012369 -3.00886480746544,51.642573410874 -3.00897441016372,51.6425616826465 -3.00929124070714,51.6425131148243 -3.00941869592193,51.6425273000469 -3.00951327187415,51.6425579481513 -3.00954244026783,51.6425675853025 -3.00969573556259,51.6426345827735 -3.00984466138399,51.6427034159414 -3.01001601112706,51.6428054046975 -3.01012523305736,51.6429105344634 -3.01019160703948,51.6430340114304 -3.01020574277407,51.6431499372346 -3.01018185867872,51.6433137419397 -3.0101319544236,51.643405948855 -3.00995700038044,51.6435332996684 -3.00967380007367,51.6437335827678 -3.00947398152582,51.6438467638335 -3.00923806268387,51.6439602558112 -3.00903449420643,51.6440978282081 -3.0089055008474,51.6442130969556 -3.00881272548355,51.6443281442414 -3.00873120648055,51.6444349142322 -3.00864617496612,51.6445767714208 -3.00860137420833,51.6447057882742 -3.00855800740456,51.6448994239061 -3.00853357873612,51.6450336588224 -3.00854302099244,51.6451369506261 -3.00862617168136,51.645237811767 -3.00878323277192,51.6453453182045 -3.00911331100697,51.6455006873592 -3.00948165370944,51.6456189611029 -3.00983844048756,51.6457426372083 -3.01004294105325,51.6458397560004 -3.01017645498275,51.6459276881128 -3.01025333184587,51.6460088261322 -3.0103925041828,51.6462225538724 -3.01040455968365,51.6462449226475 -3.01041069881877,51.6462583535091 -3.01041826564565,51.6462717720825 -3.01053066501896,51.6464550779576 -3.01066571838299,51.6467407532894 -3.01071694756487,51.646836583669 -3.01074511111392,51.6468704991224 -3.01081307291654,51.6469364324275 -3.01088212561084,51.6469870751954 -3.01094227923512,51.6470234117032 -3.01107223819933,51.6470852152657 -3.01115093833928,51.6471142005138 -3.01156268871445,51.6472383871126 -3.01160059983475,51.6472497458428 -3.01180875953077,51.6473180661657 -3.01196495269316,51.6473859349217 -3.01202349855486,51.6474195881804 -3.01219674226692,51.6475413334643 -3.0123662766387,51.647689087914 -3.01252000769264,51.6478442597599 -3.01257506673757,51.6479138990516 -3.01265758556613,51.6480499089246 -3.01272040800608,51.6482111687206 -3.01275443899264,51.6483745641731 -3.01276056422011,51.648521031016 -3.01270307644697,51.6487274644184 -3.01264127005805,51.6492000069659 -3.01262887021199,51.6493548140692 -3.01266274794722,51.6494471085326 -3.01273683694357,51.6495309655504 -3.01293412737031,51.6496938507797 -3.01317504514913,51.6499318673562 -3.01328151029154,51.6500352206006 -3.01329288065895,51.6500908537581 -3.01331242253917,51.6501922605934 -3.01331519079971,51.6503163737389 -3.01323817359843,51.6504914245925 -3.01316791369236,51.6505847065158 -3.01300805698704,51.6507379994105 -3.01288260250319,51.6508145889641 -3.01269080043338,51.6509035259693 -3.01258505979433,51.6509556752489 -3.01248924664377,51.6510041422126 -3.01217445156584,51.651082363663 -3.01176382784473,51.6511389376095 -3.01140437584606,51.6511600131846 -3.01113133074988,51.6511704546717 -3.01090233881296,51.6512057760888 -3.0106467004795,51.6512807865936 -3.01052081927816,51.6513385004676 -3.01040544680435,51.6514185962585 -3.01039843733528,51.6514249488429 -3.01035187399785,51.6514801825014 -3.01033019897394,51.6515451789562 -3.01032772676515,51.6516269996282 -3.01035663241519,51.651694168356 -3.01046776416987,51.6518145623323 -3.01057409084448,51.6519171098464 -3.01086588932855,51.652165479112 -3.01091241217108,51.6522423830926 -3.01098019423565,51.6523694429892 -3.01111053829739,51.6526353820053 -3.01124060536716,51.6528941318487 -3.01135599615328,51.653146715705 -3.01142126363406,51.6534123166529 -3.01148035095523,51.6536679920183 -3.01155143894324,51.6539380366965 -3.01163662418057,51.6540650352888 -3.01180120947493,51.6541822708953 -3.01209235963591,51.6543416528555 -3.01268811535793,51.6546061840696 -3.01288830779806,51.6547699433536 -3.01300444499569,51.6549217539844 -3.01308145766574,51.6550667996858 -3.01309800838208,51.6550981181838 -3.01313030005581,51.6551832346464 -3.01316360369715,51.6554473121198 -3.01315664822593,51.6557180292259 -3.013151816873,51.6558861636217 -3.01315564913945,51.6562557562829 -3.01316168439146,51.6565263603605 -3.01315861097016,51.6566450415454 -3.01315490868277,51.6568050765113 -3.01303489767481,51.6570623861744 -3.01291639496421,51.6573232783879 -3.01284261215926,51.6574515583022 -3.01280081825965,51.6575230209503 -3.01279414227824,51.6576138666909 -3.0128095966761,51.6577242974696 -3.01287008205178,51.6578389236888 -3.0130058076966,51.6579653962943 -3.01314673033172,51.6580576651657 -3.01341052556172,51.6581543574019 -3.013554857229,51.6582070445219 -3.01383729523373,51.6579105785168 -3.014151686921,51.6576147340682 -3.01430475310518,51.6574767805566 -3.01454778126165,51.6572894189831 -3.01486423404563,51.6570915343319 -3.01517421871396,51.6569243567902 -3.01554847981995,51.6567852973393 -3.01582116028591,51.6566984426788 -3.0161400558808,51.6566048951787 -3.01665896654789,51.6564744682233 -3.01755742465657,51.6562500520402 -3.01840663091474,51.6560196730872 -3.01941626305905,51.6557204776741 -3.02004782553265,51.6555864497936 -3.02055203306378,51.6555082679002 -3.02114050028173,51.655451015106 -3.02156647461697,51.6554293313747 -3.0219824208707,51.65541222736 -3.0224205000621,51.6554147050477 -3.02293268754677,51.6554318164421 -3.02340458166556,51.6554591648417 -3.02366843448477,51.655494707822 -3.02393381779139,51.6555346409008 -3.02406957464759,51.6555927845123 -3.02419520304247,51.6556510154317 -3.02436311446567,51.6556603365859 -3.02449817523538,51.6556241009712 -3.02459275675765,51.6555846237006 -3.02461852404769,51.6555115882379 -3.02462817504804,51.6554269181516 -3.02461442806628,51.6553299576789 -3.02459814432956,51.6551205669924 -3.02475998154265,51.6547972609291 -3.02483969757648,51.6546113929255 -3.02506035262064,51.6546553096533 -3.0254552825999,51.6547318625336 -3.02573091012092,51.6547717020837 -3.02591842972663,51.6547574789629 -3.02585693317396,51.6542086124866 -3.02582881096084,51.6537970748032 -3.02555815806593,51.652562201718 -3.02544291640715,51.6521981672315 -3.02529006898613,51.6517625504797 -3.02504461960609,51.6512000076535 -3.02462901060332,51.6503952602701 -3.02432502501971,51.6498629793215 -3.02400783754274,51.6493262288349 -3.02352234683006,51.6489465435412 -3.02351783503488,51.6489366948798 -3.02352841913699,51.6488933658817 -3.02352096802269,51.6488853402555 -3.02343611358808,51.648837540087 -3.02353676289101,51.6486236242424 -3.0235675372374,51.6483868559203 -3.02351899410742,51.6480941486037 -3.02346112957958,51.6479589203608 -3.02381789567788,51.6479522138256 -3.02353658244542,51.6472667409963 -3.02333024012905,51.6467084368399 -3.02310395782554,51.6460899898922 -3.02291499018026,51.6454667233589 -3.02276790473254,51.6448403950291 -3.02275371751206,51.6447235718875 -3.02280290154471,51.6447222451189 -3.02327469810264,51.6446866721489 -3.02355188308589,51.6446132422511 -3.02376975250498,51.6445304418895 -3.02398406112298,51.6444853359733 -3.02411132376114,51.6444905181106 -3.02456486926176,51.6445387861917 -3.0248347103528,51.6445202505038 -3.02527077758271,51.6444381489267 -3.02618920115686,51.6442818066888 -3.02666644212262,51.6442290930146 -3.02676732507304,51.6442165252697</coordinates></LinearRing></outerBoundaryIs></Polygon>
  </Placemark>
