  <Placemark>
	<Style><LineStyle><color>ff0000ff</color></LineStyle><PolyStyle><fill>0</fill></PolyStyle></Style>
	<ExtendedData><SchemaData schemaUrl="#Wards__December_2019__Boundaries_EW_BFE">
		<SimpleData name="objectid">2223</SimpleData>
		<SimpleData name="wd19cd">E05005414</SimpleData>
		<SimpleData name="wd19nm">Fairestone</SimpleData>
		<SimpleData name="wd19nmw"></SimpleData>
		<SimpleData name="bng_e">454671</SimpleData>
		<SimpleData name="bng_n">305834</SimpleData>
		<SimpleData name="long">-1.19336</SimpleData>
		<SimpleData name="lat">52.647511</SimpleData>
		<SimpleData name="st_areashape">1577335.25685997</SimpleData>
		<SimpleData name="st_lengthshape">6879.65094391809</SimpleData>
	</SchemaData></ExtendedData>
      <Polygon><outerBoundaryIs><LinearRing><coordinates>-1.19877908464086,52.6414747396561 -1.19864522585658,52.6415250641762 -1.198373271547,52.6416042034594 -1.19806800619922,52.6417324586315 -1.19712666742747,52.6414078466095 -1.19676638083633,52.6413065464277 -1.19594085235668,52.6411930146021 -1.1959946395508,52.6410837323659 -1.19500995617,52.6409449390656 -1.19353970900143,52.6407730892808 -1.19322126322192,52.6407295814397 -1.19305911702849,52.6407078068542 -1.1924666759522,52.6406156980148 -1.19240398403329,52.6406521205265 -1.19220982364463,52.6406021758311 -1.19160477327641,52.640553116367 -1.19155026917384,52.6405419604459 -1.19133243896423,52.6404937408479 -1.19065594938898,52.6403938594434 -1.19039630620495,52.6410142017525 -1.19031751287421,52.6412761882029 -1.1899774294737,52.6420092233137 -1.18990065765599,52.6421678687085 -1.18980139145582,52.6423370543349 -1.18969620617321,52.6425098854129 -1.18931699180223,52.6430376489965 -1.18912153163489,52.6433015358172 -1.18894571378993,52.6435376945018 -1.18888831644073,52.6436038100601 -1.18855909893163,52.6440627992773 -1.18815477596436,52.6445103995269 -1.18804910258989,52.6446301098293 -1.18766280418119,52.6449790585474 -1.18753026083363,52.6451084700482 -1.1873210319343,52.6453120434675 -1.18699075156877,52.6455901928528 -1.18704130147772,52.6456571360745 -1.18704415945062,52.6456607507968 -1.18721296450232,52.6458830007473 -1.18748045498101,52.6463631492061 -1.18748832645093,52.6465762974201 -1.18757516888685,52.6471512850772 -1.187509939832,52.6471661172981 -1.1871136541787,52.647256964185 -1.18707170744582,52.6472845381684 -1.18679638878503,52.6474633023198 -1.18459780244291,52.6491734667936 -1.18406246077884,52.6495833008749 -1.18375440059207,52.6506483601075 -1.18352699298488,52.6514324818219 -1.18291939393251,52.6530159384106 -1.18459708340709,52.6533466329802 -1.18452003030099,52.6535115625951 -1.18443414106408,52.6537582176308 -1.18445599880596,52.6544110394769 -1.1844449406623,52.6550052165674 -1.18445904544918,52.6552821283941 -1.18442490821101,52.6556820171071 -1.18423798408156,52.6566741184278 -1.18414019860574,52.6573171299527 -1.18412392483044,52.6575561752686 -1.18412658661894,52.6575768653222 -1.18417575027063,52.6578693866968 -1.18431867026806,52.6582919717175 -1.18437233619466,52.658827275819 -1.18443540175363,52.6591720186323 -1.18453778922544,52.6595457925138 -1.18471455897026,52.6598203158207 -1.18484554322953,52.6600135465946 -1.18497145524176,52.6601583007473 -1.18509816438726,52.6603389186896 -1.18514754915538,52.6605478567896 -1.18528923933493,52.6606440961908 -1.18541678534272,52.6606225022878 -1.18551141880621,52.6606204552096 -1.18576589321474,52.6607678862327 -1.18659028761993,52.6608813850337 -1.18732765872131,52.6610599808711 -1.18745780819725,52.6609834888012 -1.18780842128843,52.6608115308198 -1.18847241345817,52.6604043543276 -1.18894314261657,52.6605324953039 -1.18954622396977,52.6607020709665 -1.18957309746637,52.6606859877915 -1.18962419520415,52.660638702799 -1.19034390728181,52.660018803637 -1.19037287160427,52.6599686713215 -1.19045679343507,52.6597480617422 -1.19040656125635,52.6597486183371 -1.1903814195235,52.6597502440568 -1.19034138953119,52.659752757178 -1.1903118270391,52.6597561507509 -1.19009703238226,52.6597762559636 -1.18977121234635,52.6598081867578 -1.18955947572647,52.659821121635 -1.1895195866181,52.6598226465371 -1.18948103681075,52.6598241814649 -1.18940420071118,52.6598263531796 -1.18938943529298,52.659827151405 -1.18938456057333,52.6597678010288 -1.18946723727934,52.6597728585129 -1.18953538137103,52.659766133328 -1.18955016338044,52.6597644370939 -1.18954489593272,52.6597328551404 -1.18952469146282,52.6596257664938 -1.18950784374706,52.6595744227434 -1.18946070326298,52.6594869229283 -1.18944364580074,52.659453553298 -1.18938898843441,52.6593704054659 -1.1893616150046,52.6593279780805 -1.1893066569306,52.6592610956128 -1.18925027028096,52.6591924062592 -1.1891751153896,52.6591037261746 -1.18910367644026,52.6590448194192 -1.18909646332876,52.6590393779499 -1.18908218206171,52.6590141155486 -1.18905886388649,52.6589896904433 -1.18896006200709,52.6589009386498 -1.18900311015952,52.6588868521657 -1.18905218357832,52.6588764028198 -1.18913254826626,52.6589272813214 -1.18918964960983,52.6589573292761 -1.18924974300002,52.6589838034145 -1.18933504435,52.659005056471 -1.18953410618071,52.6590378711749 -1.18960924617859,52.6590482702513 -1.18963883119167,52.6590502701267 -1.18968313003564,52.659054166594 -1.18975404885187,52.6590555494457 -1.18982071318221,52.659049713007 -1.18989334474823,52.6590376260118 -1.18996019182441,52.6590219044065 -1.19000935997604,52.6589997709701 -1.19004846756011,52.6589613922448 -1.19009218491075,52.6589176518242 -1.19013762998496,52.6588595427184 -1.19018571648264,52.6588167310594 -1.19024682523252,52.6587882978204 -1.19029142284088,52.6587760194397 -1.1903464312577,52.6587611159066 -1.19041314489172,52.6587525833623 -1.19047375354272,52.6587511993929 -1.19055057760113,52.6587562162342 -1.19063007806615,52.6587747327124 -1.1906976906496,52.6587967641412 -1.19077254665396,52.6588225289996 -1.19080698547673,52.6587993059683 -1.19082797013818,52.6587850693924 -1.19155217333441,52.6582362830074 -1.19165250851021,52.658169469603 -1.19113445013876,52.6580374215584 -1.19090636130978,52.6579792467613 -1.19086073423993,52.6579681514476 -1.19069596822857,52.6579265852385 -1.19022217146351,52.6578073273415 -1.19023768360679,52.6577660905737 -1.19066073771864,52.657431853851 -1.1909012044378,52.6572221965566 -1.19126969616067,52.657036868412 -1.1916878468736,52.6568949268863 -1.19199308670276,52.6567747744644 -1.19228007112393,52.6566067734408 -1.19252493910628,52.6563891444037 -1.19236879031061,52.6562837378105 -1.19180342914399,52.6560740788547 -1.19125490319743,52.6558374789465 -1.19139582797338,52.6556514095819 -1.19167076361981,52.6554160114053 -1.1920747148752,52.6551508433301 -1.19222124260349,52.6549845838394 -1.19238975350401,52.6547430678342 -1.19273883277268,52.654491904842 -1.19301954519807,52.6543391380495 -1.19340320914039,52.6542150208851 -1.19434937064228,52.6539715023912 -1.19471139013311,52.6539038553073 -1.19499855431442,52.6538770422433 -1.19523163959339,52.6538282921909 -1.19534548162457,52.653828165528 -1.19560436880845,52.6538145509679 -1.19587192442706,52.6537336779767 -1.1960381036868,52.653617965814 -1.1960931961911,52.6534384992082 -1.19624183537299,52.6533154786841 -1.19638775727152,52.6531743740913 -1.19652788146422,52.6525451209181 -1.19627103113228,52.6524481152108 -1.19618782533566,52.6523064487221 -1.19619529092143,52.6519792651099 -1.19618835102631,52.6517130992167 -1.19623976595859,52.6513286929348 -1.19661224371054,52.6506029584857 -1.1972870191587,52.6496806437827 -1.19759325972523,52.6496620429539 -1.19761869271385,52.6495642512278 -1.19774173894461,52.6490607062346 -1.19781198940008,52.6488580643746 -1.19850589022125,52.6488995992077 -1.19862077216281,52.6489219444996 -1.19867834388163,52.6489259282023 -1.1987596535522,52.6489246789552 -1.19885004099602,52.6489136054645 -1.19893025034254,52.6488925768894 -1.1990033125938,52.6488625127044 -1.19906159049461,52.6488278546213 -1.19945458744446,52.6485095628008 -1.19964386736705,52.6483417850087 -1.19924453174687,52.6481134171134 -1.19922194369766,52.648055744705 -1.19964015779421,52.6478976892153 -1.20043074098324,52.6474220078051 -1.20069712717845,52.6471621775598 -1.20098651118312,52.6469375519187 -1.2013108044654,52.6466629206855 -1.20167911024184,52.6464001789715 -1.20210939896757,52.6464740756209 -1.20222659256353,52.6465296868464 -1.20239111555186,52.6464220454894 -1.20244185667805,52.6463927277067 -1.20248094839317,52.6463606363688 -1.20255796898331,52.6462666960651 -1.2026406785066,52.6461881623998 -1.20268570078154,52.6461516167573 -1.20275010513353,52.6461080111606 -1.2027515845128,52.6461071221023 -1.20282458264237,52.6460734605552 -1.20294220882823,52.6460248203354 -1.20308519019782,52.6459690702461 -1.20318041269372,52.6459328608032 -1.20322216657289,52.6459151666569 -1.20329652751184,52.6458869062001 -1.20336051561116,52.6458594750314 -1.20342613681663,52.6458293586915 -1.20349773620934,52.6457920922477 -1.20359193578482,52.6457316097671 -1.20368175061843,52.6456710087769 -1.2037536923275,52.6456148708468 -1.20368338328158,52.6455811447489 -1.20361747673524,52.6455465500647 -1.20349312840115,52.645475613605 -1.20338928371621,52.6454164972479 -1.20332501101872,52.6453791273568 -1.20331619794361,52.6453745740484 -1.20311286174968,52.6452581690551 -1.20282314877057,52.645341603067 -1.20275624620207,52.6453618241296 -1.2026715949673,52.6453864199517 -1.20265516724226,52.6453917925279 -1.20264328405623,52.6453953068506 -1.20253780417473,52.6454260537684 -1.20242338029087,52.6454594374571 -1.20230307446625,52.6454945776859 -1.20229867204438,52.645495447079 -1.20218718868985,52.6455279504227 -1.20213965111827,52.6455420110885 -1.20210198998901,52.6455022124218 -1.20204101091834,52.6454379918907 -1.20198447693724,52.6453773055435 -1.20190044062446,52.6452877640145 -1.20184817688573,52.645233487447 -1.20183085380627,52.6452144972098 -1.20178589249308,52.6451674599762 -1.20177574757431,52.6451557082619 -1.20176843044232,52.6451493677957 -1.20170173438564,52.6450779174659 -1.20165677500661,52.6450307902889 -1.20163643768308,52.6450099826229 -1.20152779575521,52.6448933131674 -1.20150459917397,52.644868891195 -1.2014987107676,52.644864357462 -1.20146824602949,52.6448308992723 -1.20140941410961,52.644816122958 -1.20133624772552,52.6447787822699 -1.20133032658282,52.644776046313 -1.20125124084738,52.6447358788236 -1.20121320368823,52.6447167491449 -1.2012015153652,52.644709481147 -1.20119562700859,52.6447049473977 -1.20116786432109,52.6446903809747 -1.20109910078545,52.6446521707606 -1.20108595098267,52.6446448920128 -1.20104058047692,52.6446203206866 -1.20101269672674,52.64460575251 -1.20099953056227,52.6445993726446 -1.20093525814908,52.6445620915666 -1.20092933705769,52.6445593555883 -1.20091186679202,52.6445484526152 -1.20085916154292,52.6445184396044 -1.20086323311305,52.6444555547819 -1.20086523702844,52.6444258193628 -1.20065911949296,52.6444622684633 -1.20065177612555,52.6444640170077 -1.20054706524146,52.6444525263223 -1.20048953019426,52.6444467464987 -1.20027578341504,52.6444137602535 -1.20018732724831,52.6443996826693 -1.2001700033294,52.6443806922306 -1.20024276685475,52.6441996360451 -1.20027685939274,52.6441143948358 -1.20029146879191,52.644121773419 -1.20035542039671,52.6439360737804 -1.20036314866876,52.6439199482887 -1.20082432037353,52.6427803893702 -1.20066571086504,52.6427244979471 -1.20053519729301,52.642671490821 -1.2003400804859,52.6425928841517 -1.20018898728932,52.6425324586869 -1.20010962591282,52.6425076568861 -1.20011568643138,52.6424960142886 -1.200014281745,52.642463874479 -1.19989966259131,52.6424280503521 -1.19988940518367,52.6424225889561 -1.19978515844032,52.6423859365525 -1.19967655735941,52.6423474566723 -1.19947956534996,52.6422850125294 -1.1994311751322,52.6422658123342 -1.19935922959854,52.6422419590452 -1.1992373115943,52.6421988057513 -1.19922388369445,52.6422068034674 -1.19913736091995,52.6421738652023 -1.19899771874715,52.6421270858924 -1.19890087338799,52.6420922797451 -1.19873214078281,52.6420237348883 -1.19869826257105,52.6420172148879 -1.19871026169653,52.6420074096253 -1.19875994778264,52.6419556175735 -1.19880970881891,52.6419064331102 -1.19885939466351,52.6418546419217 -1.19890760256386,52.6418037388377 -1.19895727179409,52.6417528456044 -1.19907027491953,52.6416367727366 -1.19911467861298,52.6414671202188 -1.19888837755559,52.6414817689171 -1.1988039862527,52.6414856931278 -1.19877908464086,52.6414747396561</coordinates></LinearRing></outerBoundaryIs></Polygon>
  </Placemark>
