  <Placemark>
	<Style><LineStyle><color>ff0000ff</color></LineStyle><PolyStyle><fill>0</fill></PolyStyle></Style>
	<ExtendedData><SchemaData schemaUrl="#Wards__December_2019__Boundaries_EW_BFE">
		<SimpleData name="objectid">1067</SimpleData>
		<SimpleData name="wd19cd">E05001409</SimpleData>
		<SimpleData name="wd19nm">Mirfield</SimpleData>
		<SimpleData name="wd19nmw"></SimpleData>
		<SimpleData name="bng_e">420311</SimpleData>
		<SimpleData name="bng_n">419729</SimpleData>
		<SimpleData name="long">-1.69403</SimpleData>
		<SimpleData name="lat">53.673649</SimpleData>
		<SimpleData name="st_areashape">13529875.9189806</SimpleData>
		<SimpleData name="st_lengthshape">19931.2182862553</SimpleData>
	</SchemaData></ExtendedData>
      <Polygon><outerBoundaryIs><LinearRing><coordinates>-1.67528147303696,53.6539497449933 -1.67528112846528,53.6539946709324 -1.67501698533442,53.6540991753924 -1.67486945952922,53.6542066005359 -1.67460555771771,53.6542957396397 -1.67442651595988,53.6543482675871 -1.67440515637958,53.6543841510414 -1.67448071720884,53.6543888494954 -1.67460000173933,53.6544180171418 -1.67460853281652,53.6546876051324 -1.67459975620154,53.6548395264224 -1.67455048403738,53.6549526099207 -1.67427711692797,53.6550876372531 -1.67414162294314,53.6552031816736 -1.67427949940798,53.6553779655759 -1.67453347727936,53.6555907130697 -1.67447132515308,53.6556103125831 -1.67323660932099,53.6560051887008 -1.67288937273146,53.6561084731615 -1.67306876057264,53.6563840084732 -1.67315094253391,53.6565333923818 -1.67332212689385,53.6568861807188 -1.67351187427141,53.6572102656365 -1.67351037092198,53.6572111594481 -1.67351036398986,53.6572120582359 -1.67359186239823,53.6572240510492 -1.67349927458896,53.6572750163948 -1.67282220719072,53.6577449981373 -1.67280424325182,53.6577287750583 -1.67258474101931,53.6575421755028 -1.67233397740562,53.6573005891313 -1.67230806339845,53.6573121991565 -1.67173554309911,53.6575874753195 -1.67120396331849,53.6578430927488 -1.6704839407725,53.658201522877 -1.67047916156616,53.6582383509259 -1.67047588184613,53.6582751821994 -1.67046925672915,53.6583407580001 -1.66938644489039,53.6588393454193 -1.66916380985029,53.6588791655541 -1.66913416762811,53.6589842144511 -1.66912815910049,53.6589868933816 -1.66909066680267,53.6591387349437 -1.6685060991479,53.6593851188436 -1.66803405414065,53.6595690031075 -1.66776083445517,53.659678766832 -1.66733425790973,53.6598546879296 -1.66703209615247,53.6599796457659 -1.66662710431157,53.6601071022308 -1.66631799130024,53.6601637493888 -1.66615399210851,53.6602342776975 -1.66585904311838,53.6604087625357 -1.66571619574677,53.6604865378743 -1.66465817327774,53.6611019636382 -1.66442432862863,53.6612001499263 -1.66408142710034,53.6613151919297 -1.66365019700201,53.6614918948775 -1.66343319456296,53.661573952473 -1.66321892222914,53.6616893531855 -1.66293512170707,53.6617927872079 -1.66269828887295,53.6618891641059 -1.6623994998706,53.6619629920242 -1.66235531972249,53.6620113896306 -1.66232148397715,53.6620768883004 -1.66228698631176,53.6622251418092 -1.66227467696532,53.6622511644212 -1.6622532793512,53.662274466797 -1.66211175934647,53.6623720099193 -1.66204032537636,53.6624113442954 -1.6618809488067,53.6624791842603 -1.66173062703133,53.6625381540837 -1.66122262013461,53.6628575912098 -1.66110095309018,53.662937218517 -1.66107174125479,53.662985657074 -1.66103154617298,53.6630969639328 -1.66100794480959,53.6632084066971 -1.6610151248122,53.6632623401126 -1.66102217923017,53.6633162731719 -1.6610202651902,53.6633683832502 -1.66114836523715,53.6636231248028 -1.66131439063113,53.6638788721978 -1.66149095522987,53.6641274604658 -1.66180512512134,53.6643952165136 -1.66191016701566,53.6645070232853 -1.66194756539519,53.6645583454574 -1.66203404119213,53.6647140387834 -1.66207994379559,53.6648409529208 -1.66209601032926,53.6649227662126 -1.66211387095306,53.6651394567094 -1.66204788822364,53.6656362582919 -1.6619625153356,53.6659047731027 -1.66189837452584,53.666170653122 -1.66189277296922,53.6662938276633 -1.66196914351226,53.6664027680518 -1.66201691988223,53.6664828731547 -1.66220912871958,53.6668528089907 -1.66228758308604,53.6670759598545 -1.66240750010279,53.6672326448275 -1.66247061218055,53.6674710274691 -1.66250900101407,53.6675862392317 -1.66252384334406,53.6676339042044 -1.66253680833221,53.6677139118767 -1.66243881393821,53.6678592000559 -1.66254780760436,53.6680402054177 -1.66264750155798,53.6682607202243 -1.66270402447262,53.66857456218 -1.66278181678399,53.6686781139731 -1.66286388272253,53.6688248976588 -1.66302040658212,53.6691336296614 -1.66311576043355,53.6693198972597 -1.66321054370962,53.669578136748 -1.66326187732833,53.669792225239 -1.66330829733221,53.669855253996 -1.66339900464387,53.6700612756977 -1.663645085983,53.6703298237809 -1.66372895493281,53.6704388728852 -1.66379772439624,53.6705477896927 -1.66383786707624,53.6706314677347 -1.66385422616002,53.6706773391608 -1.663898829167,53.6707808869755 -1.66397540833478,53.6708493910613 -1.66396982415583,53.6709868538258 -1.66392357049194,53.6710910447623 -1.66390031543163,53.6711592698064 -1.66388169534921,53.6712095362512 -1.6638324537146,53.6713127309836 -1.66370573128128,53.6714607258292 -1.66361811521897,53.6716186236723 -1.66359593106373,53.6717561287939 -1.66378535112557,53.672293272488 -1.66390839362657,53.6726243730149 -1.66398343602462,53.6728869596186 -1.66427999045094,53.6730882563124 -1.66459640278519,53.6732725350519 -1.66491144818011,53.6734405461659 -1.66529297480799,53.6732511206007 -1.66568001763311,53.6731056472385 -1.6660471849828,53.6729952514965 -1.666091242788,53.6729792002681 -1.66631133177181,53.6729079295686 -1.66650240953906,53.6728598495784 -1.66680259111204,53.672792395124 -1.66705105695126,53.6727625352501 -1.66738570001624,53.6727562757584 -1.6675763656429,53.6727603990442 -1.66783502195214,53.6727835799644 -1.66802559608125,53.672799383138 -1.6682796826549,53.6728324348116 -1.66852908219546,53.6728744587046 -1.66877842523887,53.672923759545 -1.66911694226906,53.6729965790407 -1.66953231370391,53.6731046531914 -1.66993371033966,53.6732604004389 -1.67035953247692,53.6734053407787 -1.67071123235524,53.6735330039334 -1.6709239780895,53.6736190408367 -1.67111272260202,53.6736779646217 -1.67132094857573,53.6737674928623 -1.67155007913425,53.6738814285125 -1.6717914125992,53.6739989007285 -1.67198115668949,53.6741225218882 -1.67206659291493,53.6742261786878 -1.67219883183344,53.6743460476867 -1.67229599973029,53.6745144324222 -1.67249632084843,53.674835851178 -1.67264493139908,53.6750015909592 -1.67273063589917,53.6750710134676 -1.67278793528738,53.6751017204627 -1.67289646689444,53.6751569187395 -1.67306384342461,53.6752364473935 -1.67327074091404,53.6753053041162 -1.67344908057684,53.6753390375697 -1.67353530721306,53.6753572439775 -1.67367449356722,53.6753540290638 -1.67386992679094,53.6753401848576 -1.67398212331171,53.6753090403523 -1.67406726977064,53.6752733288212 -1.67415982130332,53.675232247551 -1.67429363984998,53.67516432136 -1.6743865028508,53.6750988901676 -1.67446268843093,53.6750272135935 -1.67465980008466,53.6747949354224 -1.67472406482031,53.6746989657151 -1.67481831517195,53.674452929255 -1.67514168284431,53.6745185929724 -1.6752443014611,53.6745637981581 -1.67534225373505,53.6746152813458 -1.67543392536583,53.6747044864819 -1.67547446844994,53.6747558130248 -1.67564851699812,53.6749585483014 -1.67571445903736,53.6750342050364 -1.67591171186111,53.6749781305755 -1.67595111516527,53.6749665563528 -1.67612685391169,53.6749490611606 -1.67615571820952,53.6749446461093 -1.67636467581506,53.6749245448965 -1.67673106074641,53.6749147517597 -1.67702314749632,53.6749263230439 -1.67787929265094,53.6750130930999 -1.67752211618425,53.6752063078512 -1.67692165311918,53.6755318608172 -1.67663289192394,53.6756874337402 -1.67630272817985,53.6759031886048 -1.67607148677934,53.6760445384209 -1.67607147984857,53.6760454363394 -1.67584892431801,53.676241712658 -1.675682782263,53.6763896168344 -1.67555625117603,53.6765150745733 -1.67529681621668,53.6767831353481 -1.67507533589228,53.677033326219 -1.67489473525609,53.6772907266104 -1.67458706710327,53.6777258778662 -1.67453648110304,53.6778111048727 -1.67390661496358,53.6789913705123 -1.6730453249811,53.6805377023622 -1.67205656116999,53.6823208919724 -1.67183306819367,53.6828236542904 -1.67176961015092,53.6828135947931 -1.67171739141365,53.682898814846 -1.67166895914136,53.6828986811468 -1.67166446578437,53.6828986687417 -1.67160614166666,53.6829983384513 -1.67154760048664,53.6831257740146 -1.67124276638268,53.6837819677058 -1.67103670492103,53.68417866316 -1.67081961935595,53.6846437089957 -1.67061450567095,53.6851257720871 -1.67049025008493,53.6855317678299 -1.66951417355338,53.6856584540736 -1.66926566402897,53.6856856187934 -1.66862771182205,53.6857548305344 -1.66836093930059,53.6857865247435 -1.66831396046137,53.6857917857978 -1.6679206029469,53.6853780596816 -1.66733147544271,53.685586778158 -1.66713300884615,53.6854091135164 -1.66674045612855,53.6850691623365 -1.66653119893899,53.6849149203103 -1.66636779195581,53.6849144638607 -1.66633735176829,53.6849278578242 -1.66631452565816,53.6849412730566 -1.66615193083721,53.6850118063128 -1.66592554542026,53.6851136112749 -1.66552789896266,53.6848510111126 -1.66514549334355,53.684587463013 -1.66475692593926,53.6843301876354 -1.66473723137942,53.6843265379007 -1.66465858293672,53.6843110413557 -1.66457078327491,53.6843161860649 -1.66454495507706,53.6843304913563 -1.66433204029962,53.6844494045744 -1.66410714607149,53.6845521989427 -1.66399627919562,53.6845851342117 -1.66385056052872,53.6846368414808 -1.66377931284807,53.6846483231174 -1.66370372479935,53.684624746806 -1.66363894584338,53.6845922152148 -1.6635922012275,53.6845678221331 -1.66353807880359,53.6845137547042 -1.66344024169757,53.6844468949728 -1.66337990670594,53.6844206658534 -1.66333156481578,53.6844088483137 -1.66326043198548,53.6844059512814 -1.66290936881107,53.6845658968499 -1.66255254954201,53.684696081577 -1.66231712474622,53.6847879701788 -1.66220932679265,53.6848272922911 -1.66206239895681,53.6848268766009 -1.66165420645896,53.6847618324876 -1.66132611486862,53.6847024944266 -1.66120200066657,53.6846904611442 -1.66117000247634,53.6847110372703 -1.66116215223525,53.6847559441426 -1.66113569334758,53.6848485128424 -1.66113715620852,53.6848530093684 -1.661123158565,53.6850883968698 -1.66100295710612,53.6855375240508 -1.66107318336562,53.6856536398186 -1.66132344509749,53.6859698410472 -1.66152745962798,53.6862158214517 -1.66157844672441,53.686271677631 -1.66161297291619,53.6863095158155 -1.66169876873429,53.6863681662628 -1.66175022574014,53.6863808922253 -1.66177445797385,53.686379164139 -1.66186857335711,53.6863497773855 -1.66197615909426,53.6863375020839 -1.66229230542218,53.6863779351682 -1.66243437582942,53.6864089784606 -1.66302912262407,53.6866272170447 -1.66345193407458,53.6867713740371 -1.66363630914935,53.6868204177247 -1.66373920144204,53.6868332879034 -1.66390567201778,53.6868418438371 -1.6641067730894,53.6868756582187 -1.66421267485433,53.686886738804 -1.66431712356998,53.686892424878 -1.66449889192115,53.6868767616075 -1.66463070077598,53.6868798278349 -1.66471391203108,53.686887250639 -1.66477279669605,53.686908083117 -1.66482679807447,53.6869621498933 -1.66488536924737,53.6870225195642 -1.66487444398131,53.6870621159762 -1.66484991205693,53.6871015842727 -1.66484206526292,53.6871464915772 -1.66485839103381,53.6871815822709 -1.66490957462472,53.6872131764389 -1.66514687580607,53.6872794392321 -1.6652298870325,53.6873120214717 -1.66527355621369,53.6873310142633 -1.66529749063205,53.6873671140983 -1.66529271903678,53.68740214555 -1.66529253391821,53.6874255085582 -1.66526445592369,53.6875341578369 -1.6652761956892,53.6875809169417 -1.66528809211485,53.6876079083161 -1.66532999291189,53.6876611320292 -1.66540946051666,53.6877628942019 -1.66557903235914,53.6879637544618 -1.66583422407034,53.6882467146139 -1.66587285957132,53.6883340750791 -1.6657964050564,53.68841922627 -1.66551235610769,53.6885325489258 -1.66536041120362,53.6886121865561 -1.66506212036468,53.6887892675853 -1.66493109476589,53.6888913381411 -1.66481972178336,53.689002538462 -1.66431669159916,53.6894289370491 -1.66415540026831,53.6897098276651 -1.66390785002502,53.6899886778083 -1.66367704152636,53.6902657777398 -1.66347674427952,53.6905052220152 -1.66345638827488,53.6905842396336 -1.66345911534756,53.690633668966 -1.66347235870301,53.6906795344697 -1.66350961634643,53.6907515260045 -1.66356348829444,53.690838031253 -1.66363243156718,53.6909289824672 -1.6637749507346,53.6910938254003 -1.66411759908419,53.691417472427 -1.66449362452874,53.6917368103437 -1.66468484588307,53.6918856152246 -1.66563779047664,53.6925902673665 -1.66572345519773,53.6926677865247 -1.66578806018483,53.6927399442332 -1.66588525968334,53.6928902799764 -1.66595673830688,53.6930406333261 -1.66597425707197,53.6931305402319 -1.66599039869023,53.6933786836869 -1.66600369688672,53.6934182590948 -1.66606496629258,53.6935334490434 -1.66614208528224,53.6937287474145 -1.66625710550552,53.6937416501994 -1.66631915360234,53.693742723046 -1.66635951147244,53.6938183170209 -1.6664359926619,53.6939047947077 -1.66647238851928,53.6939129844706 -1.66655569204804,53.6939105223182 -1.66670558667876,53.6939028545162 -1.66687537855044,53.693889851001 -1.66698144748504,53.6938820610524 -1.66712100372748,53.69385549449 -1.66723614823655,53.6938369463441 -1.66730595529902,53.6938200681123 -1.66737285587943,53.693791500416 -1.66743198500662,53.6937826800054 -1.66751222764585,53.6937882954769 -1.66758324930735,53.6938073641106 -1.66766019970425,53.6938345370061 -1.66769650691963,53.693838232859 -1.6677345137819,53.693832048925 -1.66780595817147,53.6937972036045 -1.66788485307563,53.6937677702666 -1.667921243517,53.6937606838219 -1.66793652586771,53.6937544364018 -1.66794114209415,53.6937391726319 -1.66793526430776,53.6937086047225 -1.66796001323203,53.6936574543957 -1.66799960601371,53.6936242278641 -1.6680875870701,53.6935984141941 -1.66813930195364,53.6935796882275 -1.66821984002651,53.6935475646542 -1.6682531366521,53.6935368742533 -1.66829408974367,53.6935369885767 -1.66834247769796,53.6935443125436 -1.66840140039484,53.6935615495111 -1.66849527127776,53.6935645070346 -1.66854369304231,53.6935673386208 -1.66857234705882,53.6935755053866 -1.66859357321232,53.6935755645855 -1.6686664928539,53.6935434187518 -1.66873633803149,53.6935211497243 -1.6687954088115,53.6935195167065 -1.66885588718954,53.6935295697768 -1.66892858717425,53.6935414536435 -1.66897386682867,53.6935469710169 -1.66902395570654,53.6935444149255 -1.66910272077866,53.6935311562135 -1.66923763466212,53.6935225461459 -1.66941056570299,53.6934745036386 -1.66956233267757,53.6934344897778 -1.6696549851347,53.6934014994032 -1.66972619520734,53.6933963061282 -1.66978668066114,53.6934054599098 -1.669859351111,53.6934209375785 -1.67007407915784,53.6934565787453 -1.67046597207738,53.693493609814 -1.67052957223134,53.6934874961183 -1.67068104409418,53.6934852204059 -1.6707401777159,53.6934754997725 -1.67081919914333,53.6934451672567 -1.67086780432598,53.693424634051 -1.67091031790073,53.6934166649717 -1.67094203207369,53.6934167528038 -1.67097826699722,53.6934294332627 -1.6710327032444,53.6934457585507 -1.67106452064614,53.6934485422464 -1.6710873072975,53.6934405175938 -1.67111616992623,53.693421727312 -1.67115717880375,53.6934146528181 -1.67118891242924,53.6934120441292 -1.67129785495025,53.693435709011 -1.67165602763123,53.6935220644853 -1.6720081262063,53.6936191845185 -1.67207162879938,53.6936256498435 -1.67221710746607,53.6936233556374 -1.67229562030448,53.6936425322382 -1.67237413283256,53.6936777934509 -1.6724540333775,53.6937274353119 -1.67248259097665,53.6937481818566 -1.67249603325115,53.6937697846712 -1.67254599701215,53.6937834004095 -1.67262009845213,53.6937916923131 -1.6727003401707,53.6937973045765 -1.67277887516347,53.6938136954155 -1.67289523482773,53.693847262811 -1.67296630641336,53.6938600385344 -1.67302981572252,53.6938817790633 -1.67314282574975,53.6939449904661 -1.67322431506389,53.6939830447645 -1.67324095671914,53.6939947726884 -1.67324990346253,53.6940163630434 -1.67328449639141,53.6940479084026 -1.67337347125896,53.6940867912234 -1.67343850269666,53.6941058400974 -1.67353195796466,53.6941627073122 -1.67360999516642,53.6942437943538 -1.6736869841078,53.6942827338848 -1.67379119967718,53.6943207602828 -1.67390292921611,53.6943561115983 -1.6740284049175,53.6943897037398 -1.6740752074743,53.6944087022445 -1.67411889407207,53.6944429678805 -1.67420483385819,53.694487233825 -1.67435763446832,53.6945074206887 -1.67446204479872,53.6945202868303 -1.67455736792854,53.6945295335557 -1.67466337426094,53.6945298238037 -1.67480273829909,53.6945275096391 -1.67489043052584,53.6945385328839 -1.67494636930501,53.6945548604227 -1.6750400570429,53.6945820735755 -1.67510356869178,53.6945876384321 -1.67523839627145,53.6945907933426 -1.67536848029255,53.6946100188778 -1.67545472338393,53.6946147468039 -1.67549099541444,53.6946229335617 -1.67551510895341,53.6946373762515 -1.6755422247926,53.6946509291979 -1.67557870364599,53.694648333183 -1.67561200604356,53.6946367419465 -1.67563949532328,53.6946179468613 -1.67568040649179,53.6946072761063 -1.67573348638106,53.6946056232842 -1.67580763829686,53.6946076232594 -1.67588174361648,53.6946159122005 -1.67593918064566,53.6946322433488 -1.67608574162475,53.6946847599756 -1.67621722262051,53.6947174672848 -1.67635485405411,53.6947295234194 -1.67648818372195,53.6947325829459 -1.67652454527436,53.6947290874901 -1.67663222818622,53.6947060171734 -1.67675045505975,53.6946919619775 -1.67695641080795,53.6946844343108 -1.67720329346981,53.6946806127992 -1.67762884416274,53.6946781735242 -1.67766829932514,53.6946782805486 -1.67768344226769,53.694673828357 -1.67770927981778,53.6946586227722 -1.67774575730187,53.6946398516043 -1.6778019349837,53.6946247282725 -1.67792925561266,53.6946133921835 -1.67799286480656,53.6946063757017 -1.67802026946939,53.6945983631621 -1.67805375597166,53.6945624205956 -1.67808121668432,53.6945472193332 -1.6781084561798,53.6945445975242 -1.67813265783712,53.6945473586777 -1.67819153358505,53.6945717794171 -1.67826253866789,53.6945935373682 -1.67830033709646,53.6945982228468 -1.67834428830616,53.6945983418219 -1.67842311585637,53.6945930740873 -1.67844733119943,53.6945940375485 -1.67847910857085,53.6946023011072 -1.67852743179043,53.6946186063291 -1.67858643579125,53.6946259538961 -1.6786287568307,53.6946269671889 -1.67868190999033,53.6946154297031 -1.67869710044064,53.6946046874882 -1.67871988003945,53.6945974703366 -1.67875769894713,53.6945994601275 -1.67879397169508,53.6946076449714 -1.67887544847137,53.6946483009324 -1.67892834310894,53.6946709083661 -1.67896001755765,53.694676386035 -1.67902072672478,53.6946729556033 -1.67912980368973,53.6946633657281 -1.67917525268239,53.6946634884408 -1.67919945601025,53.6946662493794 -1.67921600812759,53.6946734829192 -1.67927035994943,53.6947014853225 -1.67933522222358,53.6947268204652 -1.67945321731924,53.6947433132852 -1.6795622300395,53.6947588829341 -1.67962130231964,53.6947572445465 -1.67964551252128,53.6947591074786 -1.67967266386965,53.6947681662895 -1.67979647679524,53.6948080368736 -1.67989187344791,53.6948244683562 -1.67996741682029,53.6948408462957 -1.68002022886507,53.6948580618122 -1.68017262713188,53.6949322445387 -1.6802633091346,53.6949612430658 -1.68036170181398,53.6949776822208 -1.68055985328364,53.6949952874229 -1.68104581981173,53.6950289416545 -1.6815148835067,53.6950688386101 -1.6817479617518,53.6950910286741 -1.68189620020256,53.6951210779831 -1.68201552197652,53.695160935065 -1.68209706398947,53.695193502121 -1.68216515777264,53.6952044666235 -1.68218476146081,53.6952045190521 -1.68219691232299,53.6951991603647 -1.68220322541848,53.6951731183674 -1.68221088982322,53.6951668488509 -1.6822441368481,53.6951624454016 -1.6823501435422,53.6951627288036 -1.68244096887753,53.695172855078 -1.68256345623975,53.6951902556018 -1.68264971987584,53.6952093560297 -1.68273596527816,53.6952140795634 -1.68280557194277,53.6952232509749 -1.68288715435738,53.6952505153853 -1.6829733797702,53.6952579342816 -1.68309146528807,53.6952627415932 -1.68320659557104,53.6952621506296 -1.68332473470952,53.6952597690159 -1.68340795807972,53.6952680784263 -1.68351090788751,53.6952764394168 -1.6836078548576,53.6952695096321 -1.68366697459389,53.6952615793542 -1.68374437127556,53.6952474085818 -1.6838504472507,53.695238615357 -1.68398216932566,53.6952398636502 -1.68405632380228,53.6952419483681 -1.68416088709854,53.6952349476078 -1.68432155890591,53.6952218957004 -1.68441999148928,53.6952167659703 -1.68454890322537,53.695192847064 -1.68457314729431,53.6951902158329 -1.68460349043444,53.6951732231216 -1.68463700133793,53.695149949706 -1.68468103168353,53.695139283303 -1.68475520666139,53.6951385812777 -1.68485667896396,53.6951442424034 -1.68491873835387,53.6951444059105 -1.68498247450678,53.6951373849717 -1.68511441064653,53.6951107747433 -1.68522969768802,53.6950895126273 -1.68532056358369,53.6950780705657 -1.68534946772964,53.6950700598535 -1.68540729145065,53.6950351675487 -1.68542544327627,53.6950289252934 -1.68547241276169,53.6950263532397 -1.68550424748103,53.6950273348858 -1.68551480909799,53.6950345514867 -1.68554643836158,53.6950463158239 -1.68556016115457,53.69504814956 -1.68557230547012,53.6950436882459 -1.6856498797412,53.6949890798223 -1.68570172222429,53.6949523740043 -1.68575626330421,53.6949390393961 -1.68589438384392,53.6949033691116 -1.6859807594421,53.6948910159389 -1.68605660098864,53.6948849250517 -1.68612164896948,53.6948859946163 -1.68615941143914,53.69489597813 -1.68618968707023,53.6949050431587 -1.68625023508693,53.6949069987743 -1.68632296045866,53.6949000016144 -1.68633659733009,53.6948964429677 -1.6863412709599,53.6948892663992 -1.68634140357424,53.694871295581 -1.68634894859237,53.694864126543 -1.6863671795065,53.6948641743543 -1.68640793758958,53.6948741656448 -1.68645621393991,53.6948976545563 -1.68648348742292,53.6949076104666 -1.68650922358407,53.6949058811736 -1.68652747288128,53.6949032334236 -1.68654563927128,53.6948951933852 -1.68658830582647,53.6948665508034 -1.68665218061262,53.6948235870258 -1.68673420668633,53.6947914531024 -1.68676762665055,53.694780758301 -1.68681757302558,53.6947808891083 -1.6868432495176,53.6947872463423 -1.68686132813421,53.6948079604266 -1.68686272661245,53.6948214429092 -1.68688075236763,53.6948322733418 -1.68693374216371,53.6948431944048 -1.6869972724672,53.694846955106 -1.6870382357802,53.6948461634811 -1.68709890945139,53.6948310466652 -1.68714144329342,53.6948203756059 -1.68715953526603,53.6948222196899 -1.68719882215635,53.6948286124484 -1.68724571198522,53.6948368218331 -1.68729118998971,53.6948333472434 -1.68732760033553,53.6948235580359 -1.68745633732225,53.6948238945453 -1.68748817854732,53.6948239777546 -1.68758336512898,53.6948529808396 -1.6876045667141,53.694856629735 -1.68762425577906,53.6948620732296 -1.68764080376543,53.6948702032015 -1.68770724564138,53.6949027255151 -1.68776016283812,53.6949064580944 -1.68780111958913,53.694906565018 -1.68783899315789,53.6949012718149 -1.68787387773452,53.6948950728706 -1.68790719699581,53.6948978563068 -1.68794347376983,53.6949060377179 -1.6879934020104,53.6949088635674 -1.68802975797179,53.6949062628269 -1.68807066158568,53.6948964851167 -1.68809493795733,53.6948893596125 -1.68812677263327,53.6948903414612 -1.68815244937296,53.6948966984099 -1.68817207917523,53.6949102284062 -1.68818865365532,53.6949147639591 -1.68824771565395,53.694914917933 -1.68826745907848,53.6949131726419 -1.68829024422569,53.6949051452833 -1.68832062575946,53.6948998324017 -1.68842351588124,53.6949001005034 -1.68845382642654,53.6949046727035 -1.68849921218469,53.6949137764998 -1.68859611625273,53.6949131300339 -1.68865971264239,53.6949079044472 -1.6887143785059,53.6948945679376 -1.68877968391226,53.6948776655817 -1.68885706977171,53.6948482137412 -1.68894832819086,53.6947999288628 -1.6889939178612,53.6947811774596 -1.68902121084272,53.6947713640351 -1.68904847092506,53.6947660437545 -1.68917718956027,53.6947690739512 -1.6892166731872,53.6947655821564 -1.6892303229349,53.6947602264646 -1.68925004572548,53.6947441033276 -1.689268329178,53.6947369620186 -1.6892910614871,53.6947361222551 -1.68930319220396,53.6947334581901 -1.68932751580806,53.6947200425753 -1.6893609335934,53.6947093470588 -1.68940028639807,53.6947067536917 -1.68944123640963,53.6947077579684 -1.68948352717171,53.6947132598458 -1.68955618607747,53.6947152452382 -1.68961078578163,53.6947108946262 -1.68962903634091,53.6947082455136 -1.68964718745363,53.6947020026314 -1.68965636852761,53.6946930408881 -1.68964917760259,53.6946346155764 -1.68965226067692,53.6946228525444 -1.68966293446855,53.6946147926024 -1.68969782362664,53.694607694322 -1.68973568510222,53.6946041990495 -1.68985398649087,53.6945973171051 -1.68987971427874,53.6945964850003 -1.68993131061906,53.6945759520748 -1.68999659544449,53.6945617437023 -1.69004195533923,53.6945573689458 -1.69006784157838,53.6945520448773 -1.69016777469919,53.6945469117741 -1.69023294144232,53.6945488782484 -1.69027532389383,53.6945417992126 -1.69036020487387,53.6945285402238 -1.69043751681091,53.6945260448013 -1.69046627587112,53.6945207280847 -1.69048757575366,53.6945108988231 -1.69053757422646,53.6945038394079 -1.69058766564802,53.6945012734449 -1.69061796172316,53.6944905695099 -1.69065435647338,53.6944825760249 -1.6907165391701,53.694482736866 -1.6907301559418,53.6944818732565 -1.69074082295635,53.6944747129305 -1.6907438970279,53.694463937663 -1.69075455749782,53.6944576752463 -1.6907636925036,53.6944550032897 -1.69081365161691,53.6944533357175 -1.6908272814645,53.6944506744788 -1.690836481876,53.6944390171211 -1.69084408497576,53.6944237612277 -1.69085324613392,53.6944174949265 -1.69087596516919,53.6944184524841 -1.69090012966445,53.6944266016859 -1.69094992526619,53.6944473979951 -1.69099524066674,53.6944663850535 -1.69107694272438,53.6944782772875 -1.69119658952421,53.6944749919089 -1.69126630483079,53.6944697807582 -1.69133757668215,53.6944564859494 -1.69137391249972,53.6944565797323 -1.69140715330227,53.6944701443102 -1.69146902900014,53.6944954639017 -1.69154621028148,53.6945109385523 -1.69159315931081,53.6945110596428 -1.69159785145784,53.6944841141607 -1.6915996626687,53.6944580609732 -1.69162234892206,53.6944464374394 -1.69170422725577,53.6944340685926 -1.69184506257533,53.6944362292494 -1.69188596023455,53.6944444213674 -1.69192215261051,53.6944642833861 -1.6919463449054,53.694468838939 -1.69199013387511,53.6944914151843 -1.69200373258044,53.6944932478609 -1.6920188796927,53.6944878957164 -1.69215571549619,53.6944217538362 -1.69218305969282,53.694404751035 -1.69223488925363,53.6943518690126 -1.69225623426316,53.6943357495811 -1.69230175046138,53.6943268811516 -1.69238809782947,53.6943180278657 -1.6924625033667,53.6943029437085 -1.69252322656419,53.6942806355192 -1.69254604317669,53.6942681142257 -1.69258112029946,53.6942349577561 -1.6926085373032,53.6942080706672 -1.69269209482239,53.6941705455562 -1.6927513899833,53.6941383492045 -1.69279987692029,53.6941330826275 -1.6928317241768,53.6941322656167 -1.69296075321934,53.6940921615486 -1.69297595207425,53.6940796206164 -1.6929851323613,53.6940706586317 -1.6929987619597,53.694067998049 -1.69301534961126,53.6940707362131 -1.69303503249703,53.6940770767229 -1.69304864260404,53.6940771116615 -1.69306689270074,53.6940744629321 -1.69313838424075,53.6940306165706 -1.69318082420126,53.6940154499434 -1.69328141949499,53.6939356451751 -1.69329960225041,53.693924909509 -1.69335122958585,53.6939169542946 -1.69344210406117,53.693903709434 -1.69349816125256,53.693904751069 -1.69352390955141,53.6939012235662 -1.69365780271822,53.6938269848778 -1.69367912751258,53.6938135616307 -1.69368521731193,53.6938000984521 -1.69368981734828,53.6937857335306 -1.6937766175601,53.6937311428228 -1.69386768661162,53.6936908507075 -1.69399057693283,53.6936704977117 -1.69406482430213,53.6936599054123 -1.69411475004351,53.6936627287255 -1.69415710631272,53.6936763158569 -1.69418430686549,53.6936790810079 -1.69421466897304,53.6936764630872 -1.69425108185206,53.6936657730065 -1.69429815298109,53.6936488210898 -1.69432850859486,53.6936471010501 -1.69438462247385,53.6936229834181 -1.69446352743015,53.6936070107308 -1.6944998884476,53.6936035092442 -1.69457733438004,53.693582141605 -1.69463187917839,53.6935679042279 -1.69468653519753,53.693555463861 -1.69473208245477,53.6935421013888 -1.69475504027059,53.693509811306 -1.69478213089241,53.6935278524648 -1.69491320882757,53.6936189422242 -1.69513335412766,53.6937570742353 -1.6952780385371,53.6938490970796 -1.69537757119896,53.6939167427484 -1.69556726683036,53.6940700718334 -1.6956486277755,53.6941295851667 -1.69580079519735,53.6942404953857 -1.69617596447176,53.694510211046 -1.69667175788974,53.6948503190115 -1.69674887733799,53.6948747756404 -1.6970560895969,53.6949052073514 -1.69723312176209,53.6949272211464 -1.69750526491421,53.6949900005326 -1.69772155416765,53.695022896065 -1.69772518211093,53.6951621823705 -1.69777320730944,53.6954319641454 -1.6978042102324,53.6955497541451 -1.69803808739911,53.6958838027405 -1.69823625892154,53.696129701256 -1.69842805049462,53.6964124242454 -1.69852681705255,53.696571808835 -1.69870720660785,53.6967726431895 -1.69885309353675,53.6966975310124 -1.69904953251729,53.696555153953 -1.69934644876865,53.696331168937 -1.69986557678367,53.6959567829473 -1.70018360684228,53.6957301543146 -1.70047747044901,53.6955124490014 -1.70102716269385,53.6951039895309 -1.70164812030764,53.6946633547719 -1.70193124698084,53.6944608929616 -1.70248998768394,53.6940398643656 -1.70305630237459,53.6936232544092 -1.7036149706887,53.6932094084258 -1.70415996057611,53.6928036137991 -1.70453440552996,53.6925375727312 -1.70498610787887,53.692257342905 -1.70534628306874,53.6920667437049 -1.70578095027582,53.6918467633789 -1.7064066071996,53.6915966060115 -1.70694993447402,53.6914244200913 -1.70738980526323,53.6913167670319 -1.70825410494739,53.6911489522925 -1.70905780115009,53.6910053356238 -1.7103980513658,53.6907631797366 -1.7106543287962,53.6907161748992 -1.71128351730029,53.6906008771863 -1.71174436796818,53.6905264161458 -1.71219467154181,53.6904421336386 -1.71260869613311,53.6903496759022 -1.7130485896532,53.6902535944423 -1.71346269583042,53.6901485533236 -1.71385719963689,53.6900245951647 -1.71426698992455,53.6898924956692 -1.71467224193402,53.6897478931929 -1.71501538025142,53.6896120374652 -1.71575343783062,53.6893072905147 -1.7161315394804,53.6891509381505 -1.716722350604,53.6888880689639 -1.71790989712289,53.6883695254849 -1.71865857567834,53.6880378281822 -1.71937543533465,53.6877204259714 -1.72020158738971,53.6873556511542 -1.72084237662191,53.6870784988751 -1.72135371166063,53.6869125537317 -1.72181930557344,53.6868102086059 -1.72231040616801,53.6867205903434 -1.7228121841239,53.6866399801687 -1.72322151621901,53.6865681404183 -1.72368671954697,53.6865053233663 -1.72415202164106,53.6864461889818 -1.72466262289238,53.6863898530611 -1.7257565500887,53.6862854264647 -1.72662177537695,53.6861785830866 -1.72703992943208,53.6861310112063 -1.72702834827868,53.6860492159487 -1.72704392067476,53.6859962364252 -1.72703366166975,53.6859414005808 -1.72701409430071,53.6859170053818 -1.72690402813443,53.6858520593224 -1.72652849405738,53.6856220724878 -1.7262117266579,53.6854361579569 -1.72608512712737,53.6853415206002 -1.72597821210841,53.6852531280439 -1.72590761867662,53.685165806957 -1.72583833674449,53.6851072419691 -1.72565580996029,53.68499360676 -1.72537523846765,53.6848293379598 -1.72529218907219,53.6847959017625 -1.72508221936771,53.6847370145722 -1.72492478056456,53.6847204809023 -1.72478557998265,53.6847021902728 -1.72470243629507,53.6846831300254 -1.7245724958717,53.6846423072547 -1.72440655567222,53.6845511722888 -1.72434188020669,53.684495313448 -1.72417057223256,53.6845191811392 -1.72406451583072,53.6845297207094 -1.72391307347834,53.6845320683438 -1.72378898667763,53.6845317831291 -1.72369669543086,53.6845180922561 -1.72360147395869,53.6844945111807 -1.72304078418725,53.6843295921393 -1.72262969605931,53.6842154251959 -1.72220211172286,53.684085044488 -1.72178803256074,53.6839707778557 -1.72150551207446,53.6838784700231 -1.72139822982591,53.6838288007363 -1.72116206849313,53.6835972335283 -1.72101225560587,53.683352384569 -1.7208928773575,53.6830924211321 -1.72069605323803,53.6828591442332 -1.72050393766236,53.682612399964 -1.72031771737677,53.6823809436728 -1.72005126121224,53.6821448974811 -1.7197742232683,53.6819240115458 -1.71948181645809,53.6817246553909 -1.71917714242165,53.6815496198423 -1.71885894725071,53.6813618827497 -1.71852233556665,53.6812038437262 -1.71809030957714,53.6810526774164 -1.71770948169519,53.6809556298011 -1.71726940034706,53.680871830418 -1.71686252637528,53.6808250383308 -1.71663384620788,53.6808244957261 -1.71628104113,53.6808497166641 -1.71613864599864,53.6808448848994 -1.71599955697582,53.6808310761065 -1.71586353724437,53.6807876201887 -1.71575328381967,53.6807550096436 -1.7155853076131,53.6807303473636 -1.71537195929842,53.6807145631858 -1.71522538882281,53.6806809666839 -1.71511216106122,53.6806267818066 -1.71504586562164,53.6805915789582 -1.71467290356564,53.6804405360537 -1.71437249371655,53.6803041322201 -1.71399236960607,53.6801054449952 -1.713648389648,53.6799338908301 -1.71311014066007,53.6796035376868 -1.71238188530209,53.679168578918 -1.71209696393981,53.6789782017548 -1.7117579587084,53.6787572305116 -1.71145034688064,53.678564100076 -1.71115041348937,53.6783800637475 -1.71081698498255,53.6782030433726 -1.71048063408474,53.6780341016508 -1.71009730415459,53.6778543519393 -1.70974872045508,53.6776862768815 -1.70938967942886,53.6775146714457 -1.70904240898299,53.6773744531731 -1.70866943675026,53.6772513342833 -1.70826143757325,53.6771398096738 -1.7076430016096,53.677028576192 -1.70724681710378,53.6769781811224 -1.70678389544199,53.6769222282472 -1.70635445004539,53.6768627624602 -1.70592961315076,53.6767871317104 -1.70561801146948,53.6767431400387 -1.70574843942793,53.6764927553672 -1.70586674826341,53.6762440494064 -1.70598963594235,53.6759827735707 -1.70605819406318,53.6757087832929 -1.70608270595118,53.6754508589697 -1.70606401954308,53.6753025464368 -1.70603625626212,53.6751676002646 -1.70600355680037,53.6750785594755 -1.70596791072204,53.6749823233778 -1.70594583841324,53.6748906132166 -1.70597684106173,53.674794450996 -1.70603628260954,53.6747361902875 -1.70609865035506,53.674687820415 -1.70630539658864,53.6745534534335 -1.70656717015516,53.6743492226631 -1.70681070775205,53.674164624616 -1.70698727762876,53.6740257784837 -1.70717268805668,53.6739255032906 -1.70730016157448,53.6738647134859 -1.70752188068443,53.6737655147587 -1.70774953342874,53.6736744179158 -1.7080928265176,53.6735008450105 -1.70836490478294,53.6733379690143 -1.70832881349011,53.6733054413933 -1.70845045074327,53.6732401425859 -1.70866476837135,53.6731094737182 -1.70873157459441,53.6730683020158 -1.70880213514473,53.6729353945217 -1.70901469149377,53.6728424603337 -1.7088918695137,53.6726650494416 -1.7088006352235,53.6725039793501 -1.70881178482343,53.6724258297065 -1.70886394410298,53.672318935495 -1.70889463045062,53.6722668928383 -1.70907052495955,53.6722232917148 -1.70925395040388,53.6721734185842 -1.70933124323864,53.6721673170574 -1.70947212071692,53.6721523847937 -1.70955544628074,53.6721400077177 -1.70968141374167,53.6720792103834 -1.70984408341328,53.6719806717148 -1.71000964775613,53.6718966076351 -1.71007183891624,53.6718724973505 -1.71024477850441,53.6718225970623 -1.71037381537239,53.6717689953319 -1.71051066254097,53.6716865684809 -1.71055776453974,53.671660623571 -1.71058674048665,53.6716211564397 -1.71076115213594,53.6713573049426 -1.71089594179633,53.6711203142685 -1.71100789949511,53.6709004314769 -1.71111851321378,53.6706759629463 -1.71118565906225,53.6705844694036 -1.71125599724125,53.6704821110979 -1.71135498757994,53.6703871000512 -1.71155437334635,53.6702285325769 -1.71175373351562,53.6700734683392 -1.71189522548913,53.6699677768933 -1.71205654320192,53.6698458684773 -1.71216000989323,53.6697526651035 -1.71203489684747,53.6692354937748 -1.7119820722565,53.6690044291154 -1.71198325600598,53.6688318129108 -1.71209109825637,53.6685552174759 -1.71220009042077,53.6683290355881 -1.71231034490478,53.6681369130098 -1.71242943087875,53.6679852489059 -1.7125878986738,53.6678409574321 -1.71272199557554,53.6677019983428 -1.71290898893299,53.6675828456463 -1.7130867868998,53.6674763406752 -1.71336313193591,53.6673376334664 -1.71366073695734,53.667191876508 -1.71386288507581,53.6670638625133 -1.71398147884922,53.6669831836763 -1.71415232525235,53.6667966904522 -1.71432156321383,53.6666074092827 -1.71434012207594,53.6665571343622 -1.71432656142526,53.6665328410921 -1.71436668467691,53.6664305007959 -1.71436778630578,53.6662677746043 -1.71434255608684,53.6661976273039 -1.71431765876146,53.6660599976964 -1.71440018513745,53.6659424842769 -1.71440359613002,53.6658993618457 -1.71466865412403,53.6658586613152 -1.7146336451851,53.6656661959764 -1.71466998556058,53.6656617904826 -1.71465799870578,53.6656446888417 -1.71470663125461,53.6656124565769 -1.71474020144206,53.6655747972299 -1.71477408745799,53.665490413657 -1.71477451936504,53.6654265277199 -1.71481411563835,53.6653834907282 -1.71487817702136,53.6653207444285 -1.71493337415711,53.6652031653129 -1.71497504221307,53.6650935506627 -1.71501983974093,53.6649453950041 -1.71501580340259,53.6648779930077 -1.71501304584465,53.6648428534878 -1.71504964649878,53.6647998092435 -1.71505569928853,53.6645688942992 -1.7150601497569,53.6643531610325 -1.71504306010035,53.664204767895 -1.71501365747652,53.664069015124 -1.71498549942305,53.6639889757756 -1.71492524257905,53.6637290587933 -1.71485165324024,53.6636327377841 -1.71470584575792,53.6634957186024 -1.71456731200115,53.6633902570064 -1.71459769288683,53.6633813440554 -1.71467810529107,53.6633357088955 -1.71481485357075,53.6632622638343 -1.71488777936822,53.6632166106617 -1.71491070615399,53.6631843178054 -1.715108584068,53.6632413986818 -1.71549212395409,53.663372692458 -1.71587395213674,53.6635173698029 -1.7162544124562,53.6636432637724 -1.71647339113734,53.6637174647487 -1.71657670875912,53.6636611003633 -1.71674975837552,53.6635697671962 -1.71694116127314,53.6634767703456 -1.71706256905675,53.66342044832 -1.71712940231735,53.6633900556097 -1.71735072948374,53.6633186941844 -1.71661731108614,53.6630221405764 -1.71585658346299,53.6627246191229 -1.71510235710273,53.6623713981986 -1.71438874477445,53.6620470230533 -1.71401600827042,53.6618887956744 -1.713656980448,53.6617333845702 -1.71328127886053,53.6615715527272 -1.71289637353397,53.6614241650531 -1.71269109451814,53.6613561901608 -1.7126397439542,53.6613300092953 -1.71260667066275,53.6612948859524 -1.71234492861781,53.6610722227081 -1.71202006730627,53.6607749178179 -1.71191046859676,53.6606550559335 -1.711654415461,53.6604774231512 -1.71212704238172,53.6601819472845 -1.71240987181887,53.6599821589113 -1.71251366317902,53.6598557111686 -1.712511418599,53.6597271221258 -1.71244658041544,53.6594833667358 -1.71241900948996,53.6592999951795 -1.71224358119765,53.6590640616146 -1.71216082567503,53.6589964704493 -1.71198892954269,53.6589196803312 -1.71172432012165,53.6588821122524 -1.71128756280323,53.6588046833378 -1.7110097721261,53.6587060704143 -1.71087822684259,53.6586949698519 -1.71071620467908,53.65870715842 -1.71062097615144,53.6586943485615 -1.71046385378018,53.6586652148558 -1.71027659342293,53.658609950532 -1.71021779273946,53.658579257626 -1.71012730825147,53.6585295279449 -1.70993266736704,53.658458970528 -1.70963210073469,53.6583710832264 -1.70929535691061,53.6582831064734 -1.70885263236671,53.65818579686 -1.70847513214525,53.6580743569675 -1.70821848589639,53.6579865730232 -1.70808258712703,53.6579377198488 -1.70783064487821,53.6578372769738 -1.70766632105815,53.6577497170197 -1.70758948845597,53.6576929208792 -1.7073409407223,53.6575349778677 -1.70698242333135,53.6573139568113 -1.70662827547692,53.6570928555077 -1.70611613852232,53.6567716269354 -1.70576885476553,53.6566592648973 -1.70545772380202,53.6565866164179 -1.70544416354551,53.6565811911354 -1.70535085024075,53.6565090778288 -1.70528752686771,53.6564657919416 -1.7052394873814,53.6564135582708 -1.70522156009374,53.6563901514913 -1.70518704401459,53.6563486432747 -1.70511344156117,53.6562586075702 -1.70506824509666,53.65622794588 -1.70503372867154,53.6561865274988 -1.70495001911981,53.6560433617542 -1.70480871802414,53.655911825696 -1.70472894839456,53.6558478318387 -1.70456176973068,53.6557422898791 -1.70446829105848,53.6556943461677 -1.70424802561748,53.6555985560531 -1.70382060324646,53.6554950657413 -1.70340024763955,53.6554517934277 -1.70301742417023,53.6554643233866 -1.70259513158003,53.6554839427799 -1.70239221835336,53.6555112936942 -1.70179699148566,53.6555879869721 -1.70064329442686,53.655693834035 -1.69998691167924,53.6558791808414 -1.6995417860241,53.6559158045722 -1.69913721401438,53.6560037451297 -1.69886249459058,53.6561109710398 -1.69886099180966,53.6561118660688 -1.69884141199608,53.6561109180539 -1.69862322388225,53.6561454130108 -1.69830422427241,53.6561113634241 -1.69770120465953,53.656019000405 -1.69753040291342,53.6559862222507 -1.69742763499952,53.6559823684654 -1.69727179418837,53.6559684963498 -1.69716752646647,53.6559475666343 -1.69703464297826,53.6559157815045 -1.69690177899071,53.6558812998586 -1.6965788361363,53.6557537877488 -1.69607831797259,53.65551251652 -1.69590044620091,53.6554051378815 -1.69567582621299,53.6552930581406 -1.69561430585331,53.6552264091087 -1.69552725387713,53.6551363334049 -1.69532182470147,53.6548715478755 -1.69500553671589,53.6544627122185 -1.69467355755305,53.6541374004121 -1.69465401083033,53.6541147968584 -1.69441355407579,53.6538823583593 -1.69412982873504,53.6535787331178 -1.69375280309899,53.6532056813372 -1.69353547614007,53.6529157028335 -1.69335708948854,53.6526923163815 -1.69311223644089,53.6524489910817 -1.69282323139552,53.6522396977409 -1.69247489987277,53.652092340991 -1.6920324293688,53.6519743929169 -1.69176772090007,53.6519584370164 -1.6915802399279,53.6519579545654 -1.69140175942547,53.6519377266511 -1.69129875153234,53.6519680117342 -1.69126530281164,53.6519876939016 -1.69115496861978,53.6519622501541 -1.69098441295371,53.6519158939637 -1.69074284716261,53.651839793415 -1.69064959550214,53.6517640745016 -1.69061516090914,53.6517136668003 -1.69066678886971,53.6516985239847 -1.69068809981573,53.6516842025904 -1.69026556425082,53.6515365579164 -1.69026245937813,53.6515347522766 -1.68987967781653,53.6513414732175 -1.68951454522123,53.6512083508551 -1.68931041259381,53.651182662295 -1.68908793678806,53.6511919684654 -1.68821755728497,53.6512705768425 -1.68728819729962,53.651329345597 -1.68549388215643,53.6515241274998 -1.6842125890923,53.6517212234494 -1.68383690900502,53.6517831311273 -1.68335023758281,53.651924804648 -1.68304096705512,53.6519967695193 -1.68288798126309,53.6520206252753 -1.68269289047126,53.6520201087327 -1.68249778341965,53.6520052154127 -1.68227904023697,53.6519318528229 -1.68214962725171,53.6518397674288 -1.6819648201817,53.6516658575675 -1.68185913529859,53.6516368232323 -1.68167288636063,53.6516551980553 -1.68152608737519,53.6516691843289 -1.68139769916172,53.6516400892311 -1.68129979035508,53.6515723481806 -1.68116311229948,53.6514515785212 -1.68094832657575,53.6512343663354 -1.68090933263205,53.6511947266532 -1.68084145050239,53.651164893285 -1.68075989118835,53.651145806422 -1.68068742272801,53.651128541348 -1.6806224534664,53.6511094986077 -1.6805741101109,53.6511021810605 -1.68048493815749,53.6511001465536 -1.68041822719231,53.6511134462284 -1.68035606557343,53.6511357442784 -1.68030749158763,53.6511589773629 -1.68020556488896,53.6512269948988 -1.67974606577867,53.6511727531045 -1.67931521520721,53.651123977278 -1.67865910177382,53.6510736970827 -1.67814790499182,53.6510435719685 -1.67796172542545,53.6510529549272 -1.67792208519005,53.6510986749549 -1.6779113942945,53.6511103271129 -1.67788708539315,53.6511246381788 -1.67781393599178,53.6511972242001 -1.67774060785306,53.6512932622756 -1.67766585758037,53.6513793215157 -1.67759195920086,53.6515336734823 -1.67755043802654,53.651629796134 -1.6775255401946,53.651721381397 -1.67750008942956,53.6518857478814 -1.67750725119774,53.6521410445951 -1.67751235322677,53.6524538441327 -1.67752858869623,53.6525167863592 -1.67751120966606,53.6526039885888 -1.67751080589324,53.652657001844 -1.67748590887135,53.6527485870875 -1.67742011040678,53.6528545285054 -1.67726477813891,53.6529888925926 -1.67715064050752,53.6530703531544 -1.67680407745025,53.6532860591364 -1.6766137474784,53.653445487374 -1.67644297290389,53.6536086523326 -1.67612669958826,53.6538100617377 -1.67608278431528,53.6538270149582 -1.67595089028153,53.6538643974093 -1.67560393409253,53.6539182704503 -1.67528147303696,53.6539497449933</coordinates></LinearRing></outerBoundaryIs></Polygon>
  </Placemark>
