  <Placemark>
	<Style><LineStyle><color>ff0000ff</color></LineStyle><PolyStyle><fill>0</fill></PolyStyle></Style>
	<ExtendedData><SchemaData schemaUrl="#Wards__December_2019__Boundaries_EW_BFE">
		<SimpleData name="objectid">1536</SimpleData>
		<SimpleData name="wd19cd">E05003220</SimpleData>
		<SimpleData name="wd19nm">Lazonby</SimpleData>
		<SimpleData name="wd19nmw"></SimpleData>
		<SimpleData name="bng_e">352223</SimpleData>
		<SimpleData name="bng_n">539570</SimpleData>
		<SimpleData name="long">-2.74376</SimpleData>
		<SimpleData name="lat">54.748798</SimpleData>
		<SimpleData name="st_areashape">48863809.4011628</SimpleData>
		<SimpleData name="st_lengthshape">37268.1039276369</SimpleData>
	</SchemaData></ExtendedData>
      <Polygon><outerBoundaryIs><LinearRing><coordinates>-2.77376982944951,54.8005630273093 -2.7741147872558,54.8006273092556 -2.77434417971023,54.8006644772562 -2.77450417241702,54.8007344302051 -2.77493989611546,54.8008232858704 -2.77549368254962,54.8009824494925 -2.77557321098305,54.8009963162015 -2.77567755778878,54.8010001405819 -2.77574591958378,54.8009934145388 -2.77583266957956,54.8009757903981 -2.77589908862858,54.8009547015516 -2.77655632588935,54.8006692029735 -2.77667396274219,54.8006370053563 -2.77674058593199,54.8006266960956 -2.77681830870315,54.8006199095062 -2.77697236091529,54.800620719347 -2.77710592727909,54.8006099819961 -2.77717096034808,54.8005969875702 -2.77755180388376,54.8004992250006 -2.77769372281539,54.8004426138116 -2.77803833446856,54.8004017719598 -2.77833219357666,54.8003962930705 -2.77857731524882,54.800364174236 -2.77866901523733,54.8003572967486 -2.77874948553821,54.8003334210214 -2.77883747742314,54.8003005138307 -2.77891606380897,54.800258682053 -2.77899274084633,54.8002042846805 -2.77908444085974,54.800117357726 -2.77928403972893,54.7999858061936 -2.77928402243358,54.7999849076346 -2.77960669096241,54.7996907602553 -2.77982210200022,54.7994880411821 -2.77999137124532,54.7993935181593 -2.78006664485787,54.7993463167548 -2.78013420525058,54.7992982662374 -2.78018155610472,54.7992529518052 -2.78022412710564,54.7992059597251 -2.78025693057001,54.799131180662 -2.7802833796478,54.7990528486799 -2.78031448294891,54.7988899461327 -2.78036044975112,54.7987728565338 -2.78066669019078,54.7987583082978 -2.7807156802367,54.7986385039888 -2.78127278332602,54.7985710397042 -2.78195375323479,54.7984759122856 -2.78215673695175,54.7984341751479 -2.78262290616988,54.798326952312 -2.78280953004993,54.7982483950439 -2.78296654062786,54.7981638295998 -2.78312974541458,54.7980747315048 -2.78380345876596,54.7976848710837 -2.7840873558942,54.7975634574038 -2.78457195088564,54.7976070414865 -2.78499634793545,54.7976744613258 -2.78511145867959,54.7976782088007 -2.78566178924773,54.7973421427501 -2.78566177181205,54.797341244192 -2.78577087635958,54.7972667781597 -2.78583245710149,54.797234934736 -2.78600295981115,54.7972050806594 -2.78623332376669,54.7972134704315 -2.78649200965394,54.7972405428383 -2.78714453508552,54.7972012719802 -2.78729101498618,54.7972155942803 -2.78760987264846,54.7970527080549 -2.7884915606929,54.7965652500086 -2.78895663847651,54.7963249551611 -2.78942332058846,54.796088330818 -2.78984021246758,54.7959292031873 -2.7902795375833,54.7957303980895 -2.79140294044331,54.7951138588586 -2.79152936153807,54.7950536488403 -2.79165266665009,54.7949980404536 -2.79186177789071,54.7949562469651 -2.79210496326273,54.7948207956954 -2.79248125954197,54.7946592279554 -2.79302676474696,54.7944813707266 -2.79353171525747,54.7942956002223 -2.79411493194161,54.7941317757365 -2.7949893340124,54.7939140215875 -2.79536359291773,54.7938063641276 -2.79571802091556,54.7937141984017 -2.79609209959107,54.7935976448021 -2.79646127768034,54.7934666580864 -2.7974536368903,54.7931581804152 -2.79793882883181,54.7929932752511 -2.7984439694696,54.7929037028484 -2.79900329916604,54.7927921196688 -2.79968848270623,54.7926770998677 -2.80038842797454,54.7925241545352 -2.8011230289756,54.7923926279812 -2.80229559210886,54.7921538957677 -2.8029520883912,54.7920093983894 -2.8032696886078,54.7919435086886 -2.80416972212412,54.7917685532898 -2.80474018855345,54.7916704363457 -2.80518774926474,54.7915758277452 -2.80537492283038,54.7915286755638 -2.80572445590371,54.7914311228977 -2.80588983733756,54.7913779156242 -2.8061617252467,54.7912062185052 -2.80667616604683,54.7909548357683 -2.80703316642901,54.7907690950064 -2.80720398382879,54.7906736247166 -2.80665216413393,54.7903744393806 -2.80692434446663,54.7900634847064 -2.80719714586303,54.7897839689197 -2.80737759536697,54.7895544807729 -2.80757875013173,54.7893474048883 -2.8081271178263,54.7890822235405 -2.8085971233169,54.7887906099875 -2.80878442019322,54.7886670868893 -2.80896847873376,54.7885418776139 -2.80937321650939,54.7882506962655 -2.80910787864882,54.7879720705978 -2.80923425341794,54.7876809497681 -2.80932636041252,54.7873882600968 -2.80938651510277,54.7871263294687 -2.80950916647644,54.7866492607565 -2.80955065596659,54.7863901497012 -2.80959121193962,54.7863215995877 -2.81005118199967,54.7861522316504 -2.8096360905029,54.7853022266205 -2.81001853866334,54.7850650958578 -2.81024869920456,54.7849062456761 -2.81015193630419,54.7846580313008 -2.81013836903898,54.7842105302233 -2.8100999648823,54.7839250003505 -2.81010149634615,54.7838477266306 -2.81010939867933,54.783774901929 -2.81029347351106,54.783728751175 -2.81026559807141,54.7833415406222 -2.81021748654272,54.7831154609009 -2.81018304342173,54.7828676380972 -2.81018507833339,54.7826617976014 -2.81020914822884,54.7825448424373 -2.81036230438322,54.7819596684715 -2.81032184223427,54.7812571971706 -2.81027257949133,54.7809735362499 -2.81018890023092,54.7806739344702 -2.81012096052347,54.7801549230835 -2.81008355814883,54.7799961533825 -2.81009023632924,54.7798621541651 -2.81040295130294,54.7792498604939 -2.81060157371194,54.7789196226981 -2.81075727316126,54.7786993673249 -2.81082361137911,54.7785937195777 -2.81091959985808,54.7784196830006 -2.81094923370294,54.778350306668 -2.81095137467316,54.7782971959534 -2.81094154133008,54.7781966388946 -2.81092965831524,54.7781473056207 -2.81087652086863,54.7780542257063 -2.81087778852151,54.778040740704 -2.81089874882739,54.7779991833336 -2.81091997908839,54.7779711905484 -2.81097988478574,54.7779348528646 -2.81110343463082,54.7778953952829 -2.81110944543198,54.777728249198 -2.81120195512099,54.7776942994933 -2.81129121329802,54.7776451874587 -2.81134991114203,54.7775486644253 -2.8111154168697,54.7775592170528 -2.8108833509767,54.7773836904532 -2.81052084803023,54.7772172113822 -2.81028650284091,54.7770813196581 -2.81001787643824,54.776865606999 -2.80960461672592,54.7764936362174 -2.80861220708169,54.7755287988102 -2.80851231863735,54.7754305485515 -2.80766472377792,54.7746355264443 -2.80721113706523,54.7741864625642 -2.80700111131449,54.7740989175999 -2.8061764305722,54.7738213110539 -2.80608195375873,54.7737626435949 -2.80598899657303,54.7737030672875 -2.80562619541802,54.7733577006112 -2.80498877913227,54.7728083279954 -2.80420099725581,54.772902498497 -2.80296825119674,54.7730571989849 -2.80270274685473,54.7730733310198 -2.80213948868403,54.7728945901714 -2.80169146193917,54.7727159818628 -2.80085188719167,54.7724726681447 -2.79991349153801,54.7721831920874 -2.79832882823152,54.7716822551254 -2.79763239519328,54.7714423784794 -2.79663873970314,54.7711819901569 -2.79639572125106,54.7710766745993 -2.79598398333664,54.7709293414112 -2.79578623329455,54.7708317239039 -2.79535640455375,54.770794115091 -2.79498373166664,54.7707300756972 -2.79466976159928,54.7706530726408 -2.79396618370416,54.770445565161 -2.79357322478179,54.7703007968962 -2.79319624480325,54.770180090011 -2.79287507175884,54.7700555131569 -2.79265749136188,54.7699787733256 -2.79257740125077,54.7699333880065 -2.7924987607579,54.7698835905533 -2.79225842552088,54.7696785250634 -2.79140772119801,54.7690954362603 -2.79105340320863,54.7687823141497 -2.79069820221441,54.7685024378487 -2.79037841162233,54.7682834216347 -2.79018701155379,54.7681157666518 -2.79013709202666,54.7679479974873 -2.7900476662969,54.7673446642849 -2.78988555228682,54.7666016506938 -2.78977352519135,54.7658770874975 -2.78966171806523,54.7654069547509 -2.78952318322179,54.7646763647693 -2.78848568818203,54.7646345107259 -2.78426124885642,54.7645451123338 -2.78340034551463,54.7645497796008 -2.78290574297606,54.7645314112364 -2.78206655254553,54.7645323350428 -2.78191272426164,54.7645360222087 -2.78152027059844,54.7645717933439 -2.78117391155065,54.7645857052565 -2.77972229097895,54.7637790157355 -2.77943160049736,54.7636155752126 -2.77933563843315,54.7635497098565 -2.77928291449111,54.7634799718515 -2.77952380781725,54.7632330654499 -2.77968538523672,54.7630729171118 -2.78016638018847,54.7626250160518 -2.78090567363729,54.7619570456693 -2.78107344896099,54.7617932607968 -2.78122677944329,54.7616844634267 -2.78127891786329,54.7615708369006 -2.78149567992913,54.7610437752108 -2.78155272262158,54.7607791826225 -2.78162677257611,54.7601873670066 -2.78166603959728,54.7600442649156 -2.78199365078541,54.7597114452659 -2.78209573488807,54.7595238254784 -2.78213456014466,54.7592782168337 -2.78214145101646,54.7591505972925 -2.78214363420953,54.7590247147012 -2.78211552740356,54.7589359522821 -2.78208273218884,54.7588499161242 -2.78198455113649,54.7586752680809 -2.78183537960426,54.7582682582578 -2.78169232352524,54.757945660063 -2.7815478762715,54.7576239684343 -2.78129530090884,54.7570962483345 -2.78147172319114,54.7570564790808 -2.78179443733006,54.7559859097448 -2.78189200835482,54.7555646408305 -2.78192888878685,54.7553047592687 -2.78203660516051,54.7549247521753 -2.78201199200991,54.7548575299851 -2.78141804930467,54.7544381134993 -2.78110794288129,54.7542279954204 -2.78097808407758,54.7541039519213 -2.78082446447968,54.753870364389 -2.78061445646922,54.7536155768918 -2.78042392848405,54.7533211335606 -2.78027878017002,54.7531280094183 -2.77994627109971,54.7526448232431 -2.77901224762023,54.7524710544129 -2.77896383449952,54.7524515999901 -2.77896061544074,54.7524507228948 -2.77891537877825,54.7524366383049 -2.77861319239288,54.7523972519353 -2.77836844227438,54.7523601921086 -2.77836842502397,54.752359293543 -2.77807061594964,54.7523010109103 -2.77766908594026,54.7522649548381 -2.77741084106688,54.7522522367136 -2.77700335651266,54.7518252250272 -2.77682656177091,54.7515972610969 -2.77680668006615,54.7515290189866 -2.77681115934688,54.7514418429424 -2.77682891361943,54.7513923163608 -2.77687251172438,54.751321062232 -2.77696766428501,54.7510122046561 -2.77708976216544,54.7507391114515 -2.77722317593244,54.7503212990771 -2.77727481193502,54.7501816237378 -2.77738971999042,54.7499346298206 -2.77741191481584,54.7497961308459 -2.7774062364834,54.7497404654841 -2.77738650309757,54.7496866867015 -2.77686122331342,54.7485388193233 -2.77675194932025,54.7482708016719 -2.77666749713461,54.7481617356253 -2.77658995732168,54.7480857774273 -2.77651742393315,54.7480305393573 -2.77644523630487,54.7479932680721 -2.77610250715157,54.7478615984426 -2.77591417969867,54.7477593958917 -2.77538189450697,54.7473871725714 -2.77534431626963,54.7473712412235 -2.77529130918393,54.7473590023435 -2.77523371902048,54.747354878143 -2.77514540846049,54.747365325578 -2.77509571741065,54.7473656432903 -2.77503349826217,54.7473606508122 -2.77498034673749,54.7473475140432 -2.77493335053618,54.747328048965 -2.77483271245847,54.747263107691 -2.77474964202873,54.7472259049575 -2.77461060963562,54.7471827708128 -2.77423738086616,54.747002685881 -2.77401644122794,54.7469025758931 -2.77391406200142,54.7468267736846 -2.77389160354787,54.7467909807671 -2.7738617024445,54.7467678123367 -2.77382405525249,54.7467482871518 -2.77378813597031,54.7467386336748 -2.77358273335415,54.7467210786272 -2.77321282713018,54.7465535472368 -2.77318299509781,54.7465339720078 -2.77313710875802,54.7464920385302 -2.77310997248666,54.7464526814932 -2.77310007519205,54.7464239950418 -2.77312116446027,54.746146159536 -2.77312395648923,54.745882814141 -2.77310294789384,54.7457616617922 -2.77306176235371,54.7456370442975 -2.77303583740686,54.7455805192809 -2.77294473938131,54.7454445399082 -2.77279897308829,54.7452962421259 -2.77257354963363,54.7450407310364 -2.77233735889684,54.7447914871995 -2.77227469745127,54.744682279266 -2.77219282214565,54.7444652931399 -2.77216593984174,54.7443584624985 -2.77213697906616,54.7443038429452 -2.77209564709198,54.7442519982094 -2.77204489038208,54.7442029086152 -2.77196458380652,54.7441423270717 -2.77183878738054,54.7439795257241 -2.77171259506354,54.7437152059147 -2.77166976739011,54.743510638588 -2.77159337175897,54.7434131070583 -2.77136473737432,54.7431495287447 -2.7713729053409,54.7430873952563 -2.77136268551614,54.7430416412333 -2.77133857574012,54.7429995685021 -2.77130218205047,54.7429647624431 -2.77126131371125,54.7429371706648 -2.77121105346287,54.7429141320091 -2.77105789501167,54.7428612009392 -2.77099672564763,54.7428301452867 -2.77095104897152,54.742798901207 -2.77091156501765,54.7427632160075 -2.77086693268237,54.7427060006749 -2.76977948227339,54.7417153955421 -2.76896624059448,54.7410133207619 -2.76881795907563,54.7408928850899 -2.76865799604373,54.7407303870428 -2.76858313512492,54.7406320351041 -2.76848872447276,54.7404887968208 -2.76824863946457,54.7402746082994 -2.76796218514046,54.7399988113202 -2.76714550302574,54.7393550542079 -2.76647607067152,54.7387833115793 -2.76536283550174,54.7378943519882 -2.76471418748079,54.7373493316013 -2.76399345299499,54.736769723564 -2.76391297020636,54.7366983563893 -2.76325268372291,54.7361111762284 -2.76228280869422,54.7353273877694 -2.76066509104165,54.7339517375517 -2.76057394119127,54.7338912165232 -2.76051073409812,54.7338323174646 -2.76045340215673,54.733758917296 -2.76041945778589,54.7336899518388 -2.76041115306076,54.7336567618498 -2.76041271079173,54.7335758944485 -2.76039464622665,54.733527493556 -2.76035798269298,54.733477411978 -2.76031228529117,54.7334371790478 -2.75966278022566,54.7329209756878 -2.75880304651308,54.7322883014964 -2.75793579103577,54.7315873883418 -2.75721589054092,54.7310418745917 -2.7564167710124,54.7304079059341 -2.75612562515477,54.7302020970229 -2.75588437904852,54.7299187122816 -2.75509208292228,54.7293188330586 -2.75491758151629,54.7291195711143 -2.75532408238492,54.7290990704848 -2.75558014118206,54.729092084302 -2.75583621816104,54.7290859952457 -2.75622772979944,54.7290925373489 -2.75648367102419,54.7290791711645 -2.7568028021144,54.7290421404105 -2.75694523231185,54.7290178925581 -2.75716179830006,54.7289734159032 -2.75753055781823,54.7289270891115 -2.75998915266125,54.7286277069666 -2.76005607683553,54.7286326776136 -2.76025902135495,54.7268637586408 -2.76032903052757,54.7260427906757 -2.76026202641587,54.7260333281782 -2.76015389256831,54.7259809995368 -2.75976653297033,54.7257775990369 -2.75922071705269,54.7254799576972 -2.75894492402756,54.7253478201856 -2.75876025317313,54.7252689264211 -2.75838339490299,54.7251266387766 -2.75794365121639,54.7249415287656 -2.75771860291913,54.7248665702235 -2.75715954699996,54.7246948699458 -2.75677508446979,54.7245561282192 -2.75646834567538,54.7244250764298 -2.75600286941897,54.7241978932601 -2.75582132679199,54.724114573405 -2.75540668749699,54.7239427730736 -2.75435135172757,54.7235512525605 -2.75409487602341,54.7234513258374 -2.75396060410475,54.7234107443149 -2.75384207141965,54.7233836303973 -2.75369563718145,54.7233566889493 -2.75351202107545,54.7233335731929 -2.75311797751491,54.7232704369105 -2.75299784375334,54.7232397382656 -2.75290450531724,54.723225044898 -2.75282051698979,54.7232174810673 -2.75266989748458,54.7232202128545 -2.75258472219691,54.7232315223113 -2.75250116708045,54.7232473150729 -2.75243327764421,54.7232657047939 -2.75232989875339,54.7233031817251 -2.75184727265027,54.7233160589681 -2.75030868470266,54.7234891921093 -2.74855507950624,54.7237003770353 -2.74763753109286,54.7237868948536 -2.74695116096252,54.7238657839767 -2.74639779536534,54.7239168066422 -2.7450253402104,54.7219715241324 -2.74388779436025,54.7204740877995 -2.74367890137149,54.7201743054718 -2.74358366777741,54.7200625859784 -2.74352638082172,54.7199819880446 -2.74348780757419,54.7199166393053 -2.74342110326716,54.7197481437645 -2.74340403444508,54.7196619098361 -2.74339585410878,54.719557742072 -2.74341306229662,54.7193931339524 -2.74324627049655,54.7168140481599 -2.74291010632239,54.7127836846676 -2.74284256116759,54.7120579878054 -2.74277700869738,54.7116998256232 -2.74266892437035,54.7113041897753 -2.74237792080084,54.7104162556491 -2.7419116565354,54.7091106353318 -2.74142592132935,54.7077529367713 -2.74051450072027,54.7052583640019 -2.74014030868899,54.7041463298649 -2.73861158777589,54.69978714009 -2.73715547389533,54.6995802906171 -2.73770421996136,54.6986090781629 -2.7353347602422,54.6984338158646 -2.7334504128545,54.6983131632289 -2.73124515300874,54.6976911207843 -2.73005962820986,54.6973361121608 -2.72792431841257,54.6967135906988 -2.72677991550963,54.6964014280887 -2.72627742547677,54.6962444312908 -2.72611220640514,54.6961978056271 -2.72594840063354,54.6962374184656 -2.72552453794685,54.6961348416787 -2.72278846591774,54.6958339575904 -2.72240107131709,54.6957742765731 -2.72214097985629,54.6957156322982 -2.72177841592995,54.6956566092776 -2.72135407197236,54.6956124180581 -2.71961812890522,54.695540083503 -2.71924228126603,54.6955180576076 -2.71901445302982,54.695532886087 -2.71884388315046,54.6955374917667 -2.71867321796293,54.6955367066093 -2.71848371871484,54.6955270497012 -2.71822263953283,54.6955061366373 -2.71793035337232,54.6954710346875 -2.71769072252827,54.6954329246412 -2.71745414369362,54.6953866207805 -2.71654276866399,54.6952599512126 -2.71552726645906,54.6950385687669 -2.71440340559718,54.6948304843482 -2.71417325815726,54.6948003078879 -2.7140038978805,54.6947860339875 -2.713833128048,54.694778955769 -2.71366707290266,54.6947781375445 -2.71341593938591,54.6947912979737 -2.71291446498077,54.694855434229 -2.71192420986238,54.6950077048767 -2.71082502658207,54.6952370617185 -2.71038954002791,54.6953519200555 -2.70956253383952,54.6956165024748 -2.70776605197328,54.6961572642986 -2.70761498184246,54.6962165450099 -2.70738034618563,54.69628889078 -2.70724444145836,54.6963229258456 -2.7071036939447,54.696350701028 -2.70695517941544,54.6963731302633 -2.70680501959226,54.6963892800082 -2.70665769183728,54.696399124122 -2.70647621581092,54.6964019806567 -2.70602451650968,54.6963875455455 -2.70599650070055,54.6964686559597 -2.70596911088392,54.6965047527026 -2.70593395430466,54.6965355035925 -2.70589712151363,54.696558178889 -2.70586013126447,54.6965718710633 -2.70578128430459,54.6965840099119 -2.70569582529217,54.6965764218515 -2.70565520279183,54.696564979498 -2.704937428313,54.6962411503843 -2.70419196627829,54.6959282586996 -2.70401807636925,54.6959184887403 -2.70357408905317,54.6959057970766 -2.70331570823328,54.696129296486 -2.70329238172818,54.6961267368893 -2.70307425482012,54.6960740090337 -2.7029657496213,54.6959910869672 -2.70260104311991,54.695806244627 -2.7020698537345,54.6955883162341 -2.70187963242847,54.6955364129784 -2.7016805281313,54.6955034276262 -2.70159668394129,54.6955002299472 -2.70152079618062,54.6955133374247 -2.70147926290715,54.6955306474716 -2.70140562515549,54.6955777916674 -2.70121022031681,54.6956777501797 -2.701126965983,54.6957087784486 -2.70100973371693,54.6957426995268 -2.70089674477357,54.6957631185407 -2.70073103185566,54.695774859674 -2.7005399585619,54.6957624895768 -2.69980976386104,54.6957990580406 -2.69970751376198,54.6958041418192 -2.69927938923849,54.6959028365923 -2.69871961261354,54.6960974324734 -2.6986950453297,54.696111948581 -2.69865210964132,54.696144539674 -2.69862310370497,54.6961762415219 -2.6986111447282,54.6962023648442 -2.69860712484628,54.696236527673 -2.69863005816175,54.6963055731726 -2.69864551206882,54.696393528555 -2.69859025645576,54.6965206132373 -2.69852859639434,54.6966323729808 -2.69846658128686,54.6967234706974 -2.69839519877754,54.6968129158726 -2.69832508816431,54.6968869899834 -2.69820267710665,54.6969847250103 -2.6978957484353,54.6971842365751 -2.69765303710588,54.697323992034 -2.69752989370995,54.6973866923156 -2.69729282932148,54.6974977558791 -2.69702325523137,54.6976080168207 -2.69674424779067,54.697712941254 -2.69651588687424,54.6977871175538 -2.69632132165094,54.6978403450328 -2.69605075323381,54.6979002992346 -2.6952773388116,54.6980377105461 -2.69529068532212,54.6980925273752 -2.69482520726319,54.6981859409648 -2.6938313083092,54.6984028616535 -2.69365048048128,54.6984443269448 -2.69354697334393,54.6984736696671 -2.69348992122292,54.6984964562572 -2.69336692579082,54.6985609488039 -2.69302809365327,54.6988046531497 -2.69295017242307,54.6988715822092 -2.69285708680155,54.6989646514236 -2.69275677234325,54.6990839069876 -2.69268406041828,54.6991939296717 -2.69263943093461,54.6993001977724 -2.69261134472006,54.6994765375844 -2.69261938287583,54.6998584069144 -2.69264422401702,54.700220415454 -2.69247955827218,54.7006707441117 -2.69256882708834,54.70080409635 -2.6926263012044,54.7009035808278 -2.69267457935103,54.7010039267254 -2.69271689535861,54.7011222747406 -2.69270769564724,54.7012131568606 -2.69268075128938,54.7012762000181 -2.6926430285577,54.7013375084259 -2.69260645942536,54.7013763497647 -2.69256053602306,54.7014143459617 -2.69223791455345,54.7016049486355 -2.69201175921427,54.7017203400036 -2.69194433731643,54.7017656464617 -2.69188468262241,54.7018162986889 -2.69183897187691,54.7018669610285 -2.6918163761628,54.7019075186613 -2.69181237705491,54.7019506650792 -2.69181928708145,54.7019883589069 -2.69183370481512,54.7020161271416 -2.69199039055113,54.7021941050781 -2.69205973861834,54.7022619884902 -2.69213067380502,54.7023253694385 -2.69258722687005,54.7026139324242 -2.69267276565942,54.7027158623856 -2.69256627949895,54.7028414408655 -2.69249268835686,54.7029002584661 -2.69214517709784,54.7028995515394 -2.69179399438034,54.7028710139441 -2.69102221375806,54.7027495560542 -2.69075478270905,54.7027178420604 -2.69057733438212,54.702688308203 -2.69038267310176,54.702647194089 -2.69019567813516,54.7025979497149 -2.68969795275419,54.7024380853723 -2.68952147767374,54.7023753035722 -2.68935271640534,54.7023070873588 -2.68921975377208,54.7022449559042 -2.6884463555583,54.7018377062199 -2.68790071416925,54.7015065109266 -2.68756090601933,54.7015974742833 -2.68786388107248,54.7018932170709 -2.68807176441718,54.7020735141068 -2.68820529641166,54.7021770605094 -2.68840796961304,54.7023214497545 -2.6885790104067,54.7024336764863 -2.68887673129303,54.7026072619165 -2.68917892855988,54.7027654583952 -2.68950739283288,54.702918204122 -2.68984647300448,54.7030555257135 -2.69016955815087,54.7031624808108 -2.6904205504943,54.7032356169999 -2.69077129914353,54.7033288472712 -2.6910408334847,54.7033937910216 -2.6913040776934,54.7034498759848 -2.69166374044342,54.7035178963337 -2.69258606453397,54.70364289135 -2.69348692188308,54.7037842629429 -2.69365635941061,54.7038012598376 -2.69377943241031,54.703823014765 -2.69391802783173,54.703854563231 -2.69411151501534,54.7039163424874 -2.69419904276638,54.7039544724283 -2.69437287237446,54.7040487961285 -2.69448927657415,54.7041370712952 -2.69453979052408,54.7041879911876 -2.69461917626134,54.7042962431287 -2.69476385634406,54.7045865878728 -2.69482887016806,54.7047596983005 -2.69485361283838,54.7048449055927 -2.69487746706971,54.7049679411895 -2.69492122986718,54.7058069861997 -2.69492663426176,54.7063030584779 -2.69491551434722,54.7065583615252 -2.69489962758532,54.7068118047235 -2.69487838286597,54.7070213463198 -2.69485397640163,54.7072255158368 -2.69479526238359,54.7076086671496 -2.69479114756179,54.7077272809614 -2.69476386282303,54.7078604918553 -2.69474165037658,54.7079235082293 -2.69464570847126,54.7080300722105 -2.6944885835671,54.7084578993071 -2.69432894982074,54.7088362387657 -2.69412223116597,54.7092750428012 -2.69408389076419,54.7093903493268 -2.69404634718761,54.7094624377086 -2.69399185762683,54.7095463032723 -2.69392654431051,54.7096257383903 -2.69384863007834,54.7097017417701 -2.69375825593781,54.709775030617 -2.69363706972555,54.7098574808671 -2.69316380519988,54.7103203601874 -2.69254915177634,54.7109502518992 -2.69193246164981,54.7115593985882 -2.6918457793583,54.7116695901817 -2.69174370923115,54.7117779833042 -2.69163380305204,54.7118846237455 -2.691407138253,54.7120638945835 -2.69128131334789,54.7121526575411 -2.69119678638946,54.7122016539059 -2.69109668641558,54.712245438734 -2.6909498025659,54.7122849090258 -2.69039139529889,54.7123950053453 -2.69028923729948,54.7124081655529 -2.69022552736626,54.7124094274029 -2.69014329899948,54.7124054036485 -2.69004989769235,54.7123915617403 -2.68992528390151,54.7123635224897 -2.6886788592769,54.712276284696 -2.68844153316843,54.7122803293824 -2.68828646533778,54.7122901949306 -2.68813304033161,54.7123063398251 -2.68793806054364,54.7123397908285 -2.68771858887193,54.7123931450299 -2.68701745360024,54.7126002564678 -2.6863398036939,54.7128269050817 -2.68575960228956,54.7130270336053 -2.68563928941614,54.7130717369879 -2.6853417818506,54.7131956946349 -2.68507235659649,54.7133229965425 -2.6848184216626,54.7134582955132 -2.68433878062952,54.7137333172595 -2.68397279332516,54.7139331262811 -2.68360556299348,54.7141580966661 -2.68332930265133,54.7143438305297 -2.68312381519804,54.7144915209209 -2.68292609338986,54.7146444683614 -2.68260177384741,54.7149257932489 -2.68251109915318,54.7150745423557 -2.68247675477863,54.7151556825015 -2.68244350777206,54.7153023103337 -2.68244078718194,54.7154147173491 -2.68245360921981,54.715530539713 -2.68248479240538,54.7156345785627 -2.68252661327679,54.7157242740098 -2.68257120951082,54.7157887075634 -2.68263128988179,54.7158530546572 -2.68269272759325,54.7159066118694 -2.68276190924063,54.7159565324939 -2.68286229004023,54.7160198432984 -2.68297195156962,54.7160794180122 -2.68326918880312,54.7162196889586 -2.68342239122623,54.7162808138609 -2.68370953694777,54.7163763098707 -2.68410215303038,54.7165483819896 -2.68429588365067,54.7166218553181 -2.6844956676153,54.7166899928699 -2.68482021631706,54.7167869815849 -2.68567125752117,54.7170850227141 -2.6865638742632,54.717365752493 -2.68729226156748,54.7176599856485 -2.68749822352081,54.7177217060879 -2.68761856200007,54.7177686383546 -2.68778142218061,54.7178548607645 -2.68787892800817,54.7179289651996 -2.68796891955858,54.718012905048 -2.68812348822892,54.7181611635477 -2.68823901179166,54.7182863752775 -2.68834512523074,54.7184151442943 -2.68848674173495,54.7186147757382 -2.68877692200115,54.7189779728489 -2.68924537161613,54.7195953955021 -2.68931428376581,54.7197189843087 -2.68936801006167,54.7198679058429 -2.68938736458485,54.720005252965 -2.68936065630356,54.720166311107 -2.6892124650042,54.7206739487527 -2.68915321050012,54.7208405820576 -2.68911276775662,54.7209315516981 -2.68906292878747,54.721011884135 -2.68850341970644,54.7216161911395 -2.68838113888414,54.7217274803883 -2.6882494511585,54.7218351392373 -2.68811133891284,54.7219338503714 -2.68799002845981,54.7220118918304 -2.68779140344108,54.7221127423437 -2.68768666500028,54.7221564609107 -2.68757248395754,54.7222020284677 -2.68717278916917,54.7223427397877 -2.68700901985389,54.7223930811383 -2.68675862999436,54.7224609813061 -2.6864169626333,54.7225437736767 -2.6860734658204,54.7226167816938 -2.68581510341397,54.7226676556049 -2.68555815599652,54.7227113342929 -2.68526855315106,54.7227542982953 -2.6850251865972,54.722783523976 -2.6848190278067,54.7228026563861 -2.68461123159586,54.7228155113488 -2.68436459261295,54.7228249936249 -2.68392374020641,54.7228328779711 -2.68362291367876,54.7228552420636 -2.68334719069122,54.7228936359957 -2.68299909262426,54.7229594790579 -2.68277486963421,54.7230155488116 -2.68266060771273,54.7230566223314 -2.68256351309373,54.7230984975158 -2.68248188992446,54.7231393866385 -2.68240967082291,54.7231838164161 -2.68234834588812,54.7232290833483 -2.68229793328205,54.7232761749855 -2.68225527419067,54.7233276245374 -2.68218604547948,54.7234510977236 -2.68215911417466,54.7235168336228 -2.68213758407267,54.7236221595629 -2.68212380547276,54.7239071234298 -2.68213816752632,54.7241145756008 -2.68216389229348,54.724259164671 -2.68220837280942,54.7244152371279 -2.68226697961557,54.7245740148107 -2.68233306934104,54.7247209812502 -2.6824115459551,54.7248661711449 -2.68268409090979,54.7252851820212 -2.68343115595696,54.7265903271155 -2.68357952399653,54.726916604834 -2.68370430018094,54.7271343056285 -2.68394978449009,54.7275103445887 -2.68405314237928,54.727657190765 -2.6842070227289,54.7278467848493 -2.68431105565462,54.7279424172549 -2.68439305815347,54.7280147250905 -2.68464145322427,54.7281983923707 -2.68547245819129,54.7287652734196 -2.68570729721274,54.7288808305083 -2.6858892112103,54.7289858168358 -2.68603058742964,54.7290784532998 -2.6861358761067,54.7291569193071 -2.6863045545002,54.7293042942597 -2.68643264781786,54.7294365365727 -2.6869461834385,54.7298749360631 -2.68711363504137,54.730040196113 -2.68719604640325,54.7301359501932 -2.6872691428529,54.7302334644793 -2.68737448321446,54.7304053649765 -2.68759015604174,54.7309451729196 -2.68762525623971,54.7310897101082 -2.68762791905318,54.7311561785133 -2.68760436336699,54.7313225203042 -2.68753136007484,54.7316006371094 -2.6875060980622,54.7316663650692 -2.68744918027832,54.7317907594178 -2.68737065621547,54.7319169836369 -2.68729463420572,54.732017229848 -2.68724132476516,54.732075030294 -2.68715561137335,54.7321473895329 -2.68704049063535,54.7322297980218 -2.68695895916043,54.7322769775732 -2.68689727691678,54.7323015848756 -2.68682466692304,54.7323236478331 -2.68671323139834,54.732344043271 -2.68665536664346,54.7323219109446 -2.68661166831246,54.7323121855867 -2.68656196243603,54.7323106695028 -2.68651863632212,54.7323154071639 -2.68648156411443,54.7323264873594 -2.6864444847045,54.73234466626 -2.68640772868721,54.7323745216699 -2.68589094570544,54.7323891243291 -2.68537038352129,54.7323696052725 -2.68507238662901,54.7323820687908 -2.68480086847589,54.732400671992 -2.68452962169681,54.7324273671598 -2.68426156785569,54.7324612322268 -2.68404779811586,54.7324947878698 -2.68381242955257,54.73253834937 -2.68348593056264,54.7326066843478 -2.68316430563924,54.7326831662359 -2.6827144117599,54.7328070020409 -2.68176777274055,54.733025376545 -2.68151635337002,54.7331274223303 -2.68139468275386,54.7331865086107 -2.68112994691351,54.7333345384374 -2.68102719548203,54.7334069933332 -2.68093530246891,54.73348567534 -2.68087275763704,54.7335507155358 -2.68077847110014,54.7336699293535 -2.68067664322074,54.7338052675006 -2.68062683347452,54.7338891015536 -2.6806001156221,54.733960318064 -2.68059180940929,54.7340223557597 -2.68059980982843,54.7341328165038 -2.68064379463462,54.7342512493407 -2.68065814350197,54.7342745267541 -2.6808657341065,54.7345204207661 -2.68093123843518,54.7346315443752 -2.68098807757946,54.7346842300415 -2.68101356566727,54.7347227184361 -2.68102353080777,54.7347594971616 -2.68102414935019,54.7347963295848 -2.68101386882,54.7348323239991 -2.68098649572113,54.7348720995421 -2.68094372533754,54.7349100748205 -2.68089454555531,54.7349399999747 -2.68082510641177,54.7349682430582 -2.68022532200341,54.7353185091056 -2.68000152339868,54.7354958619085 -2.67988992946818,54.7355990006038 -2.67969775186709,54.735806720425 -2.67937709863527,54.7362336598339 -2.67915505954868,54.7365090175533 -2.67898317180021,54.7367283016842 -2.67889315871973,54.7368205371644 -2.67886133529098,54.7368701290874 -2.67884491524663,54.7369142440411 -2.6788365691288,54.736966398931 -2.67883908240065,54.7370247825276 -2.67885891250121,54.7371002279681 -2.67889755588773,54.7371826643534 -2.67893419736564,54.7372372620402 -2.67921708235181,54.7375286439795 -2.67936508400906,54.737740825463 -2.67942432096642,54.7378447085927 -2.67959871380651,54.7382409168406 -2.67964970685017,54.7384105207132 -2.6796560928334,54.7385164979788 -2.67964645906937,54.7385911208111 -2.67962023154802,54.7386919814055 -2.67953503366147,54.7388883169825 -2.67942016717012,54.7390795182395 -2.67927265249076,54.7392636265613 -2.67912900314355,54.7394109669375 -2.67899544457645,54.7395950861208 -2.67895920512148,54.7396563819919 -2.67889887495383,54.7397627354711 -2.67884947493967,54.739871721645 -2.67873542538282,54.7402039689172 -2.6786394860936,54.7404094378217 -2.67856225247304,54.7405312480328 -2.67846962847982,54.7406593446488 -2.67833702755254,54.740809226859 -2.67804824237572,54.7411847708964 -2.67780974460687,54.7416039642047 -2.6775983657034,54.7420598374727 -2.67715986683239,54.7431497333322 -2.6770976538748,54.7433279669358 -2.67702429409864,54.7435827179003 -2.6769586471397,54.7438392228511 -2.67690570537744,54.7441127257727 -2.67680078192863,54.7449013979366 -2.67674286776044,54.7451533658156 -2.67671350978808,54.745351269943 -2.67669839758686,54.7456506147482 -2.67672289734915,54.7459138010245 -2.6767435749142,54.7460322749933 -2.67690330702494,54.7467619673271 -2.67698167125686,54.7469907126956 -2.67705104855669,54.7471413469028 -2.67714559192046,54.7473187022273 -2.67725890437691,54.7474924485314 -2.67736833220877,54.7476328859092 -2.6774869993045,54.747758987183 -2.67767949555077,54.7479339972191 -2.67786825280568,54.7480767748512 -2.67801437630371,54.7481747814821 -2.67893250882011,54.7487322167653 -2.67973916929783,54.7491257751295 -2.68071758916173,54.7495632834007 -2.68103656302521,54.7496864582401 -2.68130982045966,54.7497720663941 -2.68169356020998,54.7498615442828 -2.6819740582846,54.7499129706302 -2.68234329705242,54.7499702749455 -2.68284137361887,54.7500258629252 -2.6830638352886,54.7500461705662 -2.68339208640376,54.7500730664112 -2.68407796500761,54.7501141134375 -2.6843782802427,54.7501402668015 -2.68519137289468,54.7502651356135 -2.68613556909265,54.7504233133887 -2.68707695153707,54.7506040502336 -2.68804161527053,54.7507746750927 -2.68844085269963,54.7508623423943 -2.6887747348507,54.7509484930199 -2.68898371666997,54.7509967195668 -2.68919734707638,54.7510395290795 -2.68947629794136,54.7510891547192 -2.69137653439966,54.7513668257875 -2.69324767046106,54.7516715854217 -2.69369153774832,54.7517310404715 -2.69400938604225,54.7517850147153 -2.69424624153571,54.7518294789045 -2.69477202985423,54.7519522484691 -2.69498578879664,54.7520094222251 -2.69661338764642,54.7525114698948 -2.69726192575086,54.7527315406969 -2.69775970742833,54.7529451992924 -2.69775972288421,54.7529460969815 -2.69786614449681,54.7529886987409 -2.69765514936478,54.7531893616246 -2.69773665311149,54.7533174567669 -2.69835644086451,54.7542097953273 -2.6992378062275,54.7555815462579 -2.699623915966,54.7560771349456 -2.69971855719164,54.7561566378631 -2.69976940958287,54.7562228277412 -2.69979677658389,54.7562792703119 -2.6998052588191,54.7563178536705 -2.69979899503988,54.7564077313262 -2.69977369275254,54.7564708564625 -2.69970682157434,54.7565601858637 -2.69938700755965,54.7573897425673 -2.69897478693612,54.7583518983523 -2.69877448715634,54.7589884118013 -2.69824192194728,54.7590211251222 -2.69820440474727,54.7590968079267 -2.69814636112881,54.7592453806149 -2.69808345299988,54.7594686393549 -2.69805546331734,54.759651268592 -2.6980486330567,54.7597977492102 -2.69807072986595,54.7602622822637 -2.69809246320357,54.7604454341775 -2.69810465574383,54.7605209207652 -2.69818233998351,54.7607908966897 -2.69821301654795,54.7608608857474 -2.6982563863599,54.7609387981197 -2.69831845688739,54.7610237904064 -2.69838988053011,54.7611087288129 -2.69852085988187,54.7612293502213 -2.69869397556544,54.7613487411621 -2.69885546931766,54.7614331604846 -2.69899159766798,54.7614881675316 -2.69930748070898,54.7614233681165 -2.69953445566551,54.7616045275581 -2.69975487558812,54.7617695527668 -2.69992788367117,54.7618898402631 -2.70034101835419,54.7621435942402 -2.70058252073905,54.7622751653307 -2.70085723068833,54.7624299921902 -2.70116429731373,54.7625737601555 -2.70127843324654,54.7626162248997 -2.70152861466797,54.7627011152244 -2.70178637517756,54.7627795829341 -2.70196444162569,54.7628288634222 -2.70248559080503,54.7629480295419 -2.70328678279221,54.7630854238487 -2.70356899916615,54.7631403867695 -2.70383380107796,54.7631738883075 -2.70396762280113,54.7631838928272 -2.7042304513163,54.7631922493633 -2.70448973207456,54.7631808605769 -2.70493349436382,54.7631378530729 -2.70536917500889,54.7630796171484 -2.70575338439525,54.7630091023481 -2.70659078152541,54.7628190625548 -2.70674522504429,54.7627624610736 -2.70683653754503,54.7627376719069 -2.70694802994723,54.7627163579079 -2.70706116725989,54.762701324012 -2.70714497817107,54.7626945463793 -2.7072537713325,54.7626948105483 -2.70740323906192,54.7627056177919 -2.70757926963459,54.7627333401039 -2.70775082953474,54.7627691735957 -2.70788667571362,54.7628070126829 -2.70801648147077,54.762851174887 -2.70820277686436,54.7629309448847 -2.70861994034472,54.7631478103704 -2.70928729507905,54.7635366052222 -2.71007524971007,54.7639768877007 -2.71087050602528,54.7643065273259 -2.71104641183066,54.7644142045423 -2.71117660451355,54.7644799237837 -2.71129243623795,54.7645305431883 -2.71148959172158,54.7646003617282 -2.71164255187394,54.7646416890619 -2.71182664551008,54.7646828343408 -2.71208220673087,54.7647217623302 -2.71260439341928,54.7648094343506 -2.71305717910017,54.7649218590337 -2.71376213591622,54.7651495927378 -2.71471982547544,54.7654368337896 -2.71492059123621,54.7655363624638 -2.7150400139159,54.7656084299377 -2.71514071191515,54.7656797090562 -2.71523538930753,54.7657583010351 -2.71531907891073,54.765838664333 -2.71537789477463,54.7659110889834 -2.71542436228715,54.7659880780147 -2.71545183662643,54.7660490084194 -2.71547400227449,54.7661576751549 -2.71546610758687,54.7663275218916 -2.7154403327174,54.7664571355087 -2.71538506892307,54.766665892844 -2.71533088452154,54.7667687220148 -2.71530041271523,54.7668066351224 -2.71524078762996,54.766862688191 -2.7151027341818,54.766962328244 -2.71506910872981,54.7669957674388 -2.71502202533263,54.7670581251953 -2.71499653237773,54.7671094853172 -2.7149826438561,54.7672012054685 -2.71499446967487,54.7672613295406 -2.71504130420044,54.7673590694914 -2.71519943010156,54.767510867676 -2.71551775066298,54.7678441873009 -2.71569110187643,54.7679798124078 -2.71583421807611,54.7680724032237 -2.71598952642993,54.7681586320928 -2.71612757076637,54.7682251973793 -2.71623397116772,54.768270478404 -2.7163779135118,54.768322634347 -2.71656708803005,54.7683817103971 -2.71672945224934,54.7684247730609 -2.71788079178427,54.7686633190383 -2.71862016556968,54.7688971086213 -2.71880173722657,54.7689679053551 -2.71890642696907,54.7690032207409 -2.71918131969211,54.769075260947 -2.71929667848525,54.7690979349377 -2.71954759635206,54.7691332818515 -2.71979191655769,54.7691506985077 -2.72054315794923,54.7691786689737 -2.72076886504016,54.7691943978229 -2.72099303564104,54.7692173220516 -2.72121291299788,54.7692510527445 -2.72146389794637,54.7692971757479 -2.72163874883804,54.7693356651086 -2.72189966567782,54.7694140712385 -2.72206242546029,54.7694787760783 -2.72212207683826,54.7695107639949 -2.72217717792858,54.7695463718643 -2.72223388093935,54.7695927515112 -2.72229093728062,54.7696517068116 -2.72241386194843,54.7698325445228 -2.72250920229188,54.7699469729979 -2.72260737865982,54.7700479089424 -2.72283301645522,54.7702389136571 -2.72300760124868,54.7703555653571 -2.72318589053959,54.7705001343613 -2.72333988008876,54.7706833911082 -2.72374696563695,54.7712812817031 -2.72386285053553,54.7714190345865 -2.72397521079899,54.7715315638682 -2.72409687872495,54.7716413423577 -2.72432225839199,54.7718098862939 -2.72478967438729,54.7720461612372 -2.72498588392619,54.7721527981805 -2.72514273120741,54.7722300221766 -2.72530563613504,54.7723019093852 -2.72549977862067,54.7723789098499 -2.72572663336494,54.7724575106824 -2.72590161589428,54.7725094696045 -2.72619192173477,54.7725742141822 -2.72672356432629,54.7726600623567 -2.72701803592791,54.7726996244327 -2.72734356823626,54.772734507051 -2.72750387554254,54.7727470218971 -2.72794850807036,54.7727479465312 -2.7282472392727,54.7727605280487 -2.72860062969233,54.772790748446 -2.72889987859031,54.7728320737007 -2.72931000518069,54.7729096559975 -2.73061966507974,54.7731245789286 -2.73178490752439,54.7732622873545 -2.73257425534767,54.7733302931342 -2.73423174386531,54.7735207048561 -2.73444374085712,54.7735490691491 -2.73472278369807,54.7735922988888 -2.73527792860897,54.7736931502128 -2.73552319469927,54.7737536531045 -2.73567950188454,54.77380669975 -2.73588017924723,54.7738962217842 -2.73611442104019,54.7740412420336 -2.73621521281858,54.7741143894294 -2.73637005795564,54.7742491098361 -2.73644302503795,54.7743286259278 -2.73650820653182,54.7744099857033 -2.73659599285693,54.7745362180433 -2.73688308757127,54.7750215037215 -2.73693639618828,54.7751335710681 -2.73696928744726,54.7752295019165 -2.73698917850225,54.7753857945454 -2.73697093823227,54.7755808610621 -2.73695068434146,54.7756582472959 -2.73678737915089,54.7760807750898 -2.73676953124209,54.7762129502509 -2.73677924711947,54.7763171971343 -2.73680903327562,54.7764185361975 -2.73686054311212,54.7765161503746 -2.73695132973418,54.7766378726143 -2.73710507343484,54.7771410371464 -2.73715205457683,54.777243261036 -2.73720670802655,54.7773444488314 -2.73732157312527,54.7775000750057 -2.73739283255649,54.7775769947256 -2.73755095277222,54.7777215763198 -2.73773683492711,54.7778561052567 -2.73805653408401,54.7781659992714 -2.73888238640111,54.7791190375647 -2.73899377883816,54.7792594095148 -2.73908261276269,54.7793576939557 -2.73918077293423,54.7794542140149 -2.73928822333924,54.7795469937152 -2.7394128022087,54.7796441613378 -2.73957972227643,54.7797573311533 -2.73981855965364,54.7798987224083 -2.74078689240278,54.7803880160361 -2.74160786506253,54.7807325710775 -2.7421093408485,54.7810323578215 -2.74239835707765,54.7811967951725 -2.74255687744669,54.7812775802422 -2.7425568939217,54.7812784788108 -2.74271207635833,54.7813449997645 -2.74287332853484,54.7814069001266 -2.7438789901529,54.7817260515351 -2.74422919446222,54.7818290167666 -2.74437143865375,54.7818748620265 -2.74482847103332,54.7820356561165 -2.74501335604873,54.7821135809588 -2.74510274023843,54.7821570540639 -2.74522853150178,54.7822282439299 -2.74538740872947,54.7823278897915 -2.74553701178483,54.7824320849062 -2.74567423246673,54.7825391400478 -2.74581641066165,54.7826577546885 -2.74593655418563,54.7827702158014 -2.74602218861323,54.7828605184953 -2.74611461584067,54.7829785410368 -2.74621222230079,54.783127076517 -2.74627826699946,54.7832534364519 -2.74647170333166,54.7837114239921 -2.74670227956304,54.7841531018324 -2.74676184691349,54.7843521831459 -2.74681054747216,54.7844624780662 -2.74691791566466,54.7846325147046 -2.74701660428941,54.7847559781276 -2.74717296169185,54.7850587680227 -2.74723193092661,54.7852183220907 -2.74726032813452,54.785325956933 -2.74727784768423,54.7854346464275 -2.74731314693412,54.7859997100706 -2.7474180741151,54.7864609373911 -2.74745959255233,54.7866889678351 -2.74748059805556,54.786812819715 -2.74754067378797,54.7873723393603 -2.74753271409236,54.787531497827 -2.74750824460101,54.7876367623956 -2.74742263404635,54.7878889353736 -2.74740054902007,54.7880400047694 -2.74741544071678,54.788172967274 -2.74751293922609,54.7884815104206 -2.74757768943226,54.7886203655207 -2.74765983455098,54.7887707924618 -2.74798526781374,54.7892990285966 -2.74810813472174,54.7894672619455 -2.74826680827081,54.7896441684001 -2.74837770099191,54.7897540789302 -2.74847261377023,54.7898388425603 -2.74867924323062,54.7899947894331 -2.74889166503383,54.7901310247306 -2.74906915016384,54.7902224646887 -2.74920544253766,54.7902773250937 -2.74934639484425,54.7903276632114 -2.74945262276815,54.7903585411716 -2.74967449381229,54.7904092784529 -2.74985072315177,54.7904396335117 -2.75082162701108,54.7905495222912 -2.75107295488764,54.7905982773338 -2.75130375967992,54.7906327838727 -2.7515359877109,54.7906610830471 -2.75170422671401,54.7906753133997 -2.75201075638639,54.7906859910963 -2.7526234578918,54.7906812921703 -2.75300894940441,54.7906699155923 -2.75335384161851,54.7906542975105 -2.7540215881819,54.7906033411031 -2.75459433466421,54.7905395854922 -2.75768754573502,54.7903702677633 -2.75884587343518,54.7902784858987 -2.75973001462636,54.790232522765 -2.7601188315598,54.7901528236174 -2.76039472348547,54.790102579654 -2.76068315266655,54.7900576475547 -2.76104618115135,54.7900113480502 -2.76135805023764,54.78997884505 -2.76166094951885,54.7899534943693 -2.76217505297864,54.7899224142705 -2.76246885368946,54.7899178726266 -2.76266809634593,54.7899238075471 -2.76295443408887,54.7899381774316 -2.76324264232547,54.7899634069803 -2.76352643734633,54.7899993542045 -2.7637823072629,54.7900435619483 -2.76397748449881,54.7900854563375 -2.764138397031,54.7901257698428 -2.76433384637177,54.790182037072 -2.76452479981688,54.7902446212186 -2.76467978937185,54.7903039269884 -2.76484140795968,54.7903747818064 -2.76499830807669,54.7904537506051 -2.76514774720923,54.7905381573891 -2.76528780197138,54.7906281032894 -2.7654202140364,54.7907207025021 -2.76556386388429,54.7908311995494 -2.76571083296357,54.790954342227 -2.76580886905338,54.7910462602503 -2.76591555155156,54.7911749573837 -2.76596214601757,54.7912520170711 -2.76600590641649,54.7913487692197 -2.766060432308,54.791512924602 -2.76608776233259,54.7915612657896 -2.76615910108116,54.7916380783482 -2.76620800566961,54.7916746050153 -2.7662835536694,54.7917163526692 -2.76636346909071,54.7917517846888 -2.7664307873217,54.7917720224673 -2.76651193618065,54.7917912750408 -2.76692519183641,54.7918507429689 -2.76767140181159,54.7919951596046 -2.7678841898054,54.7920656856643 -2.76801899256811,54.7921215221255 -2.76814144185796,54.7921818383541 -2.76823582324404,54.7922360442311 -2.76832557812827,54.7922965673384 -2.76840923106197,54.7923598250475 -2.76863086361806,54.7925651455432 -2.76876275705465,54.7927107516192 -2.7688776075261,54.7928637421206 -2.76900649980853,54.7931010942416 -2.76906551639291,54.7932579424481 -2.76910070460451,54.7933889773304 -2.76911833368629,54.7935002683189 -2.76912673177466,54.7936116187348 -2.76912215427969,54.7937824355584 -2.76915197268084,54.7942045909509 -2.76919473185617,54.7944101458411 -2.76925921999453,54.7946118801595 -2.76934692764984,54.7948072681426 -2.76949463536989,54.7950489919136 -2.76964115714787,54.7952349326865 -2.76983655089093,54.7954485027747 -2.76995812325224,54.7956239100256 -2.7700065070979,54.7957134447417 -2.77007500397216,54.7958828998889 -2.77010030579328,54.7959860566573 -2.77012015269719,54.7961260827389 -2.77012235824622,54.7962420537847 -2.77011323607672,54.7963355464199 -2.77007165418577,54.7965227706085 -2.77007872719242,54.7970564727352 -2.77011093585719,54.7974418668242 -2.77008668956118,54.7975561194692 -2.77009203960855,54.7976755735406 -2.77011333388595,54.7978174776055 -2.77015499915186,54.7979582637935 -2.7702022146896,54.7980739490278 -2.7702458477247,54.7981563262285 -2.77031621267315,54.7982618918839 -2.7704246230663,54.7983987501906 -2.77055319075589,54.79853000027 -2.77067177457186,54.7986352603097 -2.77080125099011,54.798733352428 -2.77093987467379,54.7988268048565 -2.77109405831953,54.7989156657692 -2.77125431318495,54.7990000862024 -2.77139080007652,54.7990621072514 -2.77168386662202,54.7991770370719 -2.77236907792357,54.7994638514508 -2.7730228215409,54.7998083611966 -2.77324581085748,54.7999201400291 -2.77335293163378,54.7999887248251 -2.77345077519844,54.8000617712615 -2.77353459730884,54.8001393986499 -2.77359811529775,54.8002081714951 -2.77365246964513,54.8002806855033 -2.77370389139593,54.8003675043637 -2.77374138672687,54.8004571062457 -2.77376982944951,54.8005630273093</coordinates></LinearRing></outerBoundaryIs></Polygon>
  </Placemark>
