  <Placemark>
	<Style><LineStyle><color>ff0000ff</color></LineStyle><PolyStyle><fill>0</fill></PolyStyle></Style>
	<ExtendedData><SchemaData schemaUrl="#Wards__December_2019__Boundaries_EW_BFE">
		<SimpleData name="objectid">5865</SimpleData>
		<SimpleData name="wd19cd">E05011606</SimpleData>
		<SimpleData name="wd19nm">Bexhill Kewhurst</SimpleData>
		<SimpleData name="wd19nmw"></SimpleData>
		<SimpleData name="bng_e">572718</SimpleData>
		<SimpleData name="bng_n">107930</SimpleData>
		<SimpleData name="long">0.452018</SimpleData>
		<SimpleData name="lat">50.8451</SimpleData>
		<SimpleData name="st_areashape">1662590.14826439</SimpleData>
		<SimpleData name="st_lengthshape">7883.13293099772</SimpleData>
	</SchemaData></ExtendedData>
      <Polygon><outerBoundaryIs><LinearRing><coordinates>0.433848311829656,50.8405305883954 0.433941508059333,50.8405457275231 0.434027355808561,50.8405592219671 0.434481682884632,50.8406360614607 0.434656422711804,50.8406629859603 0.434759165305129,50.8406725314232 0.434769156047144,50.8406732214278 0.434861861131392,50.8406811774582 0.434891788166581,50.8406823516704 0.435054057590754,50.8406879562059 0.435119269785024,50.8406874935398 0.435201634400895,50.8406857742824 0.435354521610047,50.8406753901849 0.435514054173973,50.8406576727382 0.435670802771324,50.8406382152671 0.435831225459221,50.8406105888406 0.436066476889578,50.8405715088176 0.436292228970026,50.8405164417348 0.436532721462022,50.840443083458 0.436782357099375,50.8403541573104 0.436846145317452,50.8404320408324 0.43693241402984,50.840534541196 0.437036325891838,50.8406474623113 0.437163942838073,50.84058814942 0.437435764898835,50.8404619840114 0.437437076035897,50.8404601577884 0.437471728581893,50.8404441482265 0.437507902211491,50.8404281068727 0.437609147959755,50.8403819326854 0.43765355386202,50.8403620325732 0.437660550745041,50.8403591890275 0.437717993419814,50.8403175267702 0.437745439053343,50.8402980709599 0.4377564133046,50.8402906481236 0.437775600532045,50.8402767595628 0.437815307373293,50.840249854903 0.437822209177778,50.8402452145049 0.437840039854256,50.8402322536951 0.43792074034823,50.840173920352 0.437924880875831,50.8401702370661 0.437963137394133,50.8401424632479 0.437979610066162,50.84013043021 0.437984992158105,50.840125821561 0.438044048942622,50.8400859233359 0.438061714950763,50.8400720674171 0.438080900577566,50.8400581788378 0.438085042501133,50.8400544955168 0.438102348555416,50.8400389391258 0.438100487441497,50.8400385247164 0.438088220654928,50.8400351807233 0.437904933557134,50.839985156839 0.438010880896723,50.8398697424352 0.438040700404105,50.839837378909 0.438089988767065,50.8397852800744 0.43812920571658,50.8397446253943 0.438168924655897,50.8397035194956 0.438252228861432,50.8397380158518 0.438331678689824,50.8397666376849 0.438344332880937,50.8397711472912 0.438354465320307,50.8397745313707 0.438374774285492,50.8397821998192 0.438394991022955,50.8397880713624 0.438420916052818,50.8397956215184 0.438439634459166,50.8397997264417 0.438456833154677,50.8398038622279 0.438474146832843,50.8398079965076 0.438504260583729,50.8398127617463 0.4385213656781,50.8398151015495 0.438539943659046,50.8398165120472 0.438559924910023,50.8398178923099 0.438579791276057,50.8398192758701 0.43887790848902,50.8398427155732 0.439359725771006,50.8398740032034 0.439670503306976,50.8398953782262 0.439976858291641,50.8399150469902 0.440073796608491,50.8399211115018 0.440105404869789,50.8398736942917 0.440143775456878,50.8398189421064 0.440145038236019,50.8398162183478 0.440151706947863,50.839807087409 0.44020193917359,50.8397350036078 0.440236303672612,50.83968653935 0.44026809901804,50.8396427149393 0.440295870322444,50.8396025705554 0.440321043776895,50.8395687755126 0.440328881453862,50.8395551239344 0.440374409218789,50.8394759449403 0.440378457224216,50.8394704655699 0.440386294868469,50.8394568139881 0.440446440473942,50.8393592563286 0.440897262833827,50.8394766951589 0.440647193285277,50.8398848398968 0.440638044609235,50.8399003168539 0.440630302081704,50.8399157643924 0.440624077846048,50.8399311810659 0.440619141944115,50.8399465698868 0.440612312309739,50.8399772838837 0.440609997023414,50.8399890211184 0.440607802775056,50.8400008457623 0.44060700720512,50.840012552103 0.440606213006952,50.8400242575155 0.440606822128754,50.8400359335697 0.440607431297834,50.8400476105223 0.440609443741426,50.8400592572181 0.440611691908776,50.8400753951579 0.440618408378895,50.8400941369634 0.440627768277031,50.840111924051 0.440638697566637,50.8401305777199 0.440657276696727,50.8401589622123 0.44066490671262,50.8401704913817 0.440674054990573,50.8401819887869 0.440683157867255,50.8401925886256 0.440692307573192,50.8402040859994 0.440702815203052,50.8402146564474 0.440713321371943,50.8402252260255 0.440731081331224,50.8402401400174 0.440791241446485,50.8402775454063 0.440861374276355,50.84031303322 0.44099528794121,50.8403767691262 0.441131049897224,50.8404197859553 0.441372807858722,50.8404785664915 0.441578767682479,50.8405336004729 0.442092523998341,50.8406605087857 0.442249345977928,50.8406985863902 0.442265159831219,50.8406739783192 0.442270260224995,50.8406639806755 0.442377849133825,50.8406833079435 0.442716294722258,50.8407454570391 0.443038569816958,50.8407962549902 0.443521272182586,50.8408733636466 0.443618782001578,50.8408902934812 0.44365094555602,50.8408535640083 0.443762189480972,50.8407253516049 0.44387357213512,50.8405998335293 0.443989115438093,50.8404732397198 0.443994403134866,50.8404668348359 0.444002615261162,50.8404603686858 0.444010874274928,50.8404548000689 0.444017706059316,50.8404510601824 0.444028867067693,50.8404472304981 0.444040073498623,50.8404442974776 0.444052849432171,50.8404422318897 0.444065507592749,50.8404401687677 0.444072527074984,50.8404400217077 0.444093772707713,50.8404386771883 0.444115112216432,50.8404391295291 0.444135142227848,50.8404414072325 0.444156622509519,50.8404445539632 0.4441608339152,50.8404444657299 0.444281128090442,50.8404626256384 0.444358602561904,50.8404771873427 0.444480724061159,50.8405034016989 0.44464804981383,50.8405250719095 0.444822611535077,50.8405484781121 0.445067179132566,50.8405802177668 0.44532782218429,50.8406215108259 0.445473622763949,50.840639135765 0.445658218480635,50.8406640392748 0.445738173080405,50.8406722539632 0.445771000805296,50.8406751616037 0.445823719318416,50.84067765312 0.445873511976735,50.8406802059552 0.446023030153545,50.8406860625624 0.446197983062644,50.8406922850684 0.446216514608065,50.8406927959039 0.446233689752763,50.8406942336949 0.446249390772392,50.8406966018098 0.44626233068658,50.8406999272361 0.446276673937112,50.8407032232341 0.446289825542945,50.8407083421503 0.446301503026135,50.840714391392 0.44631177575841,50.8407204700895 0.446314677811006,50.8407222080663 0.446332251859858,50.840733528352 0.446348585917538,50.8407457740531 0.446362043941074,50.8407589794778 0.446368034473918,50.8407660473833 0.446633514241848,50.8410878627933 0.446765196255824,50.84105273199 0.44685368631437,50.8410337916259 0.446883237921796,50.8410277771092 0.446978841425041,50.8410104862808 0.447032399896009,50.8410021693446 0.447112842739603,50.8409905911041 0.44711705418558,50.8409905027635 0.447187927462303,50.8409863187321 0.447206295777495,50.8409859334195 0.447224827446148,50.8409864440929 0.447241886372331,50.8409878841741 0.447260558996834,50.8409910892328 0.447263367100185,50.8409910303256 0.447280681967136,50.8409951632794 0.447295120752611,50.841000255081 0.44731117324105,50.8410071118601 0.447324301228588,50.8410140290882 0.447327250292073,50.8410166645702 0.447333148467065,50.8410219364324 0.447339162950446,50.8410272049549 0.447342299977747,50.841033433257 0.447347003705951,50.841040528108 0.447347144666122,50.8410432224988 0.447350469658532,50.8410530436211 0.447352391261143,50.8410628932846 0.447351503384571,50.8410728027858 0.447350194045003,50.841074629085 0.447357945621028,50.8411959424592 0.44735627160578,50.8412445325356 0.447463136554038,50.841252180611 0.447581418387108,50.8412586914428 0.447599833765545,50.8412592035978 0.447618412553903,50.8412606126365 0.447637039723625,50.8412629191736 0.447654191361222,50.8412661560815 0.447658614574711,50.8412678612105 0.447671554745827,50.8412711864764 0.44768313715877,50.8412754396439 0.447693411614286,50.841281518185 0.447703637643832,50.8412866983255 0.447705088004265,50.8412875673108 0.447721165234115,50.8412971199636 0.447736002531434,50.8413075989452 0.447761325517951,50.8413304461396 0.447768721063051,50.8413374835953 0.447788333810107,50.8413586517638 0.447809445371553,50.8413815873123 0.447833504652737,50.8414071583545 0.447851461459653,50.841425753852 0.44788429650593,50.8414556360254 0.447912685129981,50.8414811162095 0.447964687791239,50.8415258817342 0.447967636924246,50.8415285171989 0.448004942436717,50.8415610037798 0.448042036193961,50.841591695961 0.448050952958405,50.8415987014775 0.448114492880416,50.841646822498 0.448136773052828,50.8416652372856 0.448182644193483,50.8417002405091 0.448193058403072,50.841709013422 0.448246305403809,50.8417484479558 0.448249207593158,50.8417501858822 0.448308299884784,50.8417939030575 0.448333482402371,50.8418140557298 0.448386536892735,50.8418498075355 0.44841012662196,50.8418663968584 0.448457119450394,50.8418959817435 0.448524707355883,50.8419386219963 0.448526157751414,50.8419394909709 0.448592246942872,50.8419803638073 0.448605469448299,50.8419890777416 0.448646517147654,50.8420124941178 0.448662594817058,50.842022046634 0.448687453189453,50.842036001865 0.448696229090211,50.8420403129419 0.448727003540114,50.8420576508095 0.448753213543048,50.8420705873989 0.44876203653569,50.8420757977973 0.448820519889503,50.8421078386904 0.448872940116819,50.8421337136143 0.448878860852053,50.8421371851948 0.448896412825489,50.8421458091136 0.448913893970892,50.8421553321333 0.448918246620298,50.8421579390114 0.448934254127743,50.8421638970982 0.448950190852405,50.8421707551849 0.448977969220358,50.8421845591148 0.44900848499112,50.8421992040897 0.449058073921514,50.8422224401174 0.449110354720511,50.8422456196125 0.449185918864106,50.8422773026806 0.449193197435527,50.8422798472284 0.449251256602686,50.8423038048223 0.449278730572564,50.8423140174326 0.449338174612662,50.842335338496 0.449352661054487,50.8423413284743 0.449422163542555,50.8423668445615 0.449477133959646,50.8423854712869 0.449594093349144,50.8424225790876 0.449776226736135,50.8424807964499 0.450007576402015,50.8425595596797 0.450213000269504,50.8426308648469 0.450404030320437,50.8426978867548 0.450453338089608,50.8427157334427 0.450534426103039,50.842745500806 0.450543155273357,50.8427489142169 0.450588086711582,50.8427659533574 0.450599671110141,50.8427702053056 0.450759227626957,50.8428333915736 0.450808372290385,50.8428503430197 0.450812794340998,50.8428520480581 0.450854708733587,50.8428673525415 0.4509168635333,50.8428867270757 0.451019339864037,50.8429178435936 0.451188328843579,50.8429710301464 0.451221489325826,50.8429802234018 0.451263096761771,50.8429874421261 0.451334750467913,50.8430003227231 0.451367815513682,50.8430077209055 0.451412513554177,50.8430202684434 0.451442865943759,50.8430295215419 0.451490512069603,50.8430447053544 0.45150495049798,50.843049796657 0.451514150480532,50.8430621915818 0.451522182435739,50.8430791072404 0.451523868239893,50.843084466523 0.451525743748665,50.843093418591 0.451529209525651,50.843105934013 0.451529868501807,50.843118508417 0.451531885263059,50.84313015577 0.451534936110229,50.8431615622886 0.451537054251953,50.8432019798867 0.451537383742149,50.8432082670886 0.451536415961205,50.8432434447681 0.451885313706077,50.8432585907335 0.452433275297433,50.8432794429482 0.453109564841606,50.8433083836495 0.453898174392601,50.8433394540949 0.454738056131355,50.8433721377253 0.455390104576556,50.8433988779102 0.455835786640149,50.8434191694239 0.455935590645965,50.8434260598923 0.45596275866677,50.8434281853074 0.456378754002613,50.8434518870047 0.456833213754471,50.8434764851768 0.457195054439808,50.843494940351 0.457303234851052,50.8435007538014 0.4576125438794,50.8435203141716 0.458192526868904,50.8435530520984 0.458672778413419,50.8435824952432 0.459051679202176,50.8436023830443 0.459531742767168,50.8436282298405 0.459761185989631,50.8436413753041 0.459858135449701,50.8436474231841 0.459893679837123,50.8436484725447 0.459929225597541,50.8436495209661 0.459934958428889,50.843649400083 0.45994635497732,50.8436500591914 0.45995775010702,50.8436507183286 0.459964771406417,50.843650570275 0.459977640477463,50.843650298912 0.459990298696587,50.8436482331575 0.460018423414022,50.8436440433259 0.460029678268615,50.843642008059 0.460100176237132,50.8436306305491 0.460217887602051,50.8435993749581 0.460471770655078,50.8435382729135 0.460780142599981,50.8434598359394 0.46135233520966,50.8433199936888 0.461844839164274,50.8432017029258 0.46301138928951,50.842911737085 0.463103543200818,50.8428801196283 0.463141829895924,50.8429332601755 0.46325732859795,50.8428867626029 0.463522381052458,50.8427687708742 0.463653250349109,50.8427183515501 0.464428584734308,50.8425508271992 0.464688616298806,50.8424976781118 0.464836201524826,50.8424666861048 0.46483836204837,50.8424810266563 0.464882456340749,50.8426176664727 0.464945167764984,50.8427297257443 0.465006595519731,50.8428174450586 0.465083890906642,50.8429084250015 0.465178391494349,50.8430036276058 0.465286808245034,50.843093950863 0.466860453557075,50.8441634217415 0.467853351576731,50.8448628342857 0.468452285992289,50.8452566757869 0.468337367353519,50.8453940711809 0.468325325260723,50.8454078136282 0.468321350504371,50.8454123939126 0.468310617033718,50.8454243098349 0.46830138321185,50.8454379928723 0.4683001219343,50.8454407169142 0.468294910269838,50.8454507180847 0.468292481048478,50.8454579621347 0.468288552267272,50.8454634408652 0.468279650095067,50.8454834101264 0.468270700563299,50.845502481868 0.468269722219072,50.845510595545 0.468267460985419,50.8455232316612 0.468263912677056,50.8455358950038 0.468257332437637,50.8455998741324 0.468260192439449,50.8456807389459 0.468128309960969,50.845685326612 0.467674511157479,50.8457003194464 0.467351790811283,50.845695455239 0.467047657956182,50.8456677179549 0.466705952486446,50.8456515636235 0.466680234007683,50.8456503093794 0.466151761079464,50.8456219174269 0.465653574446609,50.8456036725348 0.465472202209409,50.8456137991598 0.465323544155111,50.8456223348853 0.464792971178197,50.8456919899432 0.464467515905341,50.8457420259919 0.464309596722688,50.8457660422352 0.464103092806091,50.845783891824 0.463429999753435,50.8458431541614 0.463350790481427,50.8458493229088 0.461809242567874,50.8459816696097 0.459443541049509,50.846165542311 0.458564539609743,50.8462542937442 0.45863351160784,50.8466728385955 0.458714549038019,50.8471604535155 0.458778877369041,50.8473569129673 0.458889292843492,50.8475120288544 0.459037614213315,50.8477130119356 0.45934277024604,50.8480852153147 0.459433414834193,50.8482407474636 0.45955126354395,50.8485638494194 0.45964659786034,50.8487840216968 0.459883409879765,50.8492619672784 0.459992760800284,50.8494233986689 0.460131393219339,50.8496003075603 0.460323123409298,50.8497600014378 0.460797702499291,50.8501924685033 0.46061529558066,50.8502367779885 0.460485827904266,50.8502341138913 0.460282815561398,50.8502096220829 0.458967666653027,50.85005661789 0.458726841262773,50.8500437106806 0.458488695789496,50.8500550235703 0.45795694798328,50.8501012954459 0.45748926726769,50.8501228367993 0.457176739133954,50.8501231255927 0.456945577955098,50.8501046164493 0.456183444814144,50.8499865992383 0.45598071856816,50.8499674895228 0.455695436828617,50.8499734948774 0.455153635654609,50.8499911923203 0.453985589966747,50.8500157676757 0.452827276582128,50.8500338325807 0.452542322051952,50.8500461174544 0.452360417600924,50.8500733190119 0.452081212598693,50.8501952692282 0.4519272796586,50.8502398660302 0.45153402794587,50.8503002821394 0.450883924248129,50.8503660922659 0.45087338158387,50.8503258516797 0.450640715378363,50.850278588406 0.449935452552068,50.850188198922 0.449451843672496,50.8504492190095 0.449295131972405,50.8504408203666 0.449329739512461,50.8509114314935 0.449362557693909,50.8510213386971 0.449407180150714,50.8511418773515 0.449363086326752,50.8511410051687 0.449311878742553,50.8511384834929 0.449236447319574,50.8511364703417 0.449215008842729,50.8511342230727 0.449158113122425,50.8511327201547 0.449095484986904,50.8511313366465 0.449021646825093,50.8511328866587 0.448947496965762,50.8511262612167 0.448788609125242,50.8511322936697 0.44867103009122,50.8511374588948 0.448565994030794,50.8511405628281 0.44851181434282,50.851137203768 0.448446329128954,50.8511349822607 0.448410779188912,50.8511339295099 0.448325213599863,50.8511285325355 0.448213109494526,50.8511308849425 0.447993161999349,50.8511363985472 0.447903617778017,50.8511355799726 0.447704638470089,50.851134359915 0.447552560228069,50.8511339535613 0.447468845229364,50.8511348102907 0.447464538868732,50.8511331027031 0.447438112132008,50.8511183715649 0.44746427947164,50.851020714113 0.447517816446481,50.850794712127 0.44754585043127,50.8506790326558 0.447569208759482,50.8505814340373 0.447605680730251,50.8504367127811 0.447634044560847,50.8503273198063 0.447642017645384,50.8502893878325 0.447665630094532,50.8501988869378 0.447678848167173,50.8501806266934 0.447683918503691,50.8501409567803 0.44763044377979,50.8501510701123 0.447560096213295,50.8501633362208 0.447514411709135,50.8501588999028 0.447474485470463,50.8501570392227 0.447444552239623,50.850155869217 0.447416234406638,50.8501564632509 0.447406288464777,50.8501566718891 0.447264300302236,50.8501587508958 0.447252996337095,50.8501598874233 0.447113910823576,50.8501637041942 0.446942483099144,50.8501717949899 0.446770798012431,50.8501771944795 0.446657621313292,50.85018586205 0.446425534092541,50.8502033170913 0.446228666967414,50.8502155370301 0.446187523650445,50.8502172990932 0.446013521769694,50.850229938673 0.445879119324723,50.8502426472509 0.445885786905986,50.8502335160061 0.445817730633692,50.8502358412418 0.445764861902341,50.8502306554289 0.445759150664003,50.8502289772206 0.445652754248157,50.8502060311005 0.44560257573703,50.8501962926397 0.445461847533966,50.8501686712946 0.445432393231193,50.8502304318844 0.445389211816802,50.8503276365665 0.445382825898937,50.8503421565768 0.445170620435546,50.8503052436058 0.445048754699344,50.8502844190728 0.444604506038767,50.8501290919792 0.444584237148112,50.8501223240432 0.444579813156569,50.8501206179065 0.444571200813337,50.8501172015947 0.444568463584034,50.8501208557125 0.444567152471482,50.8501226820163 0.444557910707907,50.8501363624016 0.444546001168395,50.8501527969314 0.444578045853215,50.8503041736011 0.444532984805956,50.850392335928 0.444445412270886,50.8505659097556 0.444243973075501,50.8506520430748 0.443820999072205,50.850525041814 0.443804899869361,50.8505442613703 0.443778177478011,50.8505753922471 0.443732825902648,50.8506042158777 0.443655700212958,50.8506526770381 0.443566220610427,50.8507606508952 0.443444542126776,50.8509070643237 0.443349661026497,50.8510215351209 0.443250446034486,50.8511360066442 0.443181976170251,50.8512111713447 0.443122966514687,50.8512790334691 0.443121514543704,50.8512781653631 0.443081140685926,50.851265523234 0.443079339077914,50.8512601663009 0.443056223091124,50.8510061003716 0.443177454964446,50.8508802878164 0.44327980827526,50.8507720446908 0.443348651449719,50.8507040655714 0.443344298323536,50.8507014594052 0.443129365521287,50.8506123578825 0.443043564035625,50.8505754915279 0.442952003329053,50.8505360473051 0.442866020958991,50.8505495364534 0.44278572540142,50.8505620079544 0.44249782347498,50.8504349597699 0.442384450392542,50.8503860808718 0.442390020866673,50.8503850657429 0.442652080189632,50.8503156490088 0.442827225715306,50.8502688226064 0.44288327574,50.8502541613869 0.442964947514156,50.8502119892678 0.443160633846916,50.8499596339459 0.44317249689258,50.8499423011188 0.443178836510113,50.849926882788 0.442073385689947,50.8493555029802 0.442039565780227,50.8493337326783 0.441858534732417,50.8492386138903 0.441869602754526,50.8492329875433 0.441877512712705,50.8492229311137 0.441884321620699,50.8492164944921 0.441892394857331,50.8492073340598 0.441913830253476,50.8491826083834 0.441698490696512,50.8490855100839 0.441644681146207,50.8490622692457 0.441510717438438,50.8490003328037 0.441458245170474,50.8489735570738 0.441408558931031,50.8489485209526 0.441385249371728,50.848937319917 0.441364793892618,50.8489269585694 0.441283746016389,50.8488711080943 0.441239699774301,50.8488441559542 0.441220671950701,50.8488319658774 0.441216107557888,50.8488275652049 0.441208711781576,50.8488205273284 0.441202603168684,50.8488134616192 0.441196564035826,50.8488054950401 0.441191813578768,50.8487975023959 0.441189986659535,50.8487894485791 0.441186943647808,50.848785016072 0.441186704528185,50.8487804349546 0.441186188866624,50.848770555769 0.441187078157979,50.8487606462866 0.441189417924477,50.8487516058701 0.441191827168367,50.8487416645841 0.441192902573847,50.8487353479709 0.441199663167445,50.8487010386069 0.441203826932387,50.8486730767908 0.441206679534892,50.8486469421404 0.441211848996663,50.8486090693046 0.441211708356819,50.8486063748996 0.441220290042306,50.8485261698162 0.441219774331469,50.848516289732 0.441221037264601,50.848513565958 0.441221973441277,50.8485045549096 0.441223399642673,50.8485027271351 0.441270573687522,50.8482103221233 0.441271508431563,50.848201311104 0.441274011426199,50.848193166685 0.441275275767354,50.8481904428807 0.441320347021619,50.8479655191328 0.441321564457843,50.8479618968935 0.441323949641682,50.8479537549382 0.441325026434316,50.8479474382938 0.441351204539537,50.8478497814721 0.441352562614775,50.8478488536376 0.441259647303386,50.8478102459498 0.441079584176716,50.8477357869115 0.441036101633032,50.8477196122985 0.440988266429756,50.8477008313903 0.440944783995729,50.8476846576409 0.440939026343346,50.8476820807553 0.440904226430785,50.8476684217825 0.440872375715487,50.8476573993452 0.440860837782507,50.8476540439723 0.440836170920232,50.8476437706442 0.440802963529127,50.8476336750879 0.44076102537494,50.8476201663111 0.440753699518196,50.8476167228084 0.440737855774275,50.8476116586716 0.440723417046237,50.8476065660388 0.440708907415573,50.8476023743033 0.440693157449181,50.8475991070303 0.440685926740615,50.8475974594651 0.440668771812006,50.8475942215805 0.440303619192308,50.8475127539172 0.440274927881407,50.8475061605141 0.44011417638496,50.8474762542662 0.43994635903705,50.8474455952561 0.439913384847199,50.8474399907509 0.439786849586515,50.8474102678892 0.439782472886402,50.8474094600002 0.439766676225525,50.8474052950633 0.439740793552838,50.8473986427952 0.439699136995771,50.8473905224466 0.439654626506779,50.8473815623467 0.439651771141929,50.84738072264 0.439633049630527,50.8473766188469 0.43961432665628,50.8473725141821 0.439611472711816,50.8473716744447 0.439579714748079,50.8473624476504 0.439571150127156,50.8473599293932 0.439568178441523,50.8473590930162 0.439558091025976,50.8473566057009 0.43954510290122,50.8473523820068 0.439514586638232,50.8473377345358 0.439507260914365,50.847334290953 0.43949272867841,50.8473274012934 0.43947672055921,50.8473214419079 0.439466587762138,50.8473180570174 0.439436352609393,50.8473087983433 0.439427623403595,50.8473053850008 0.43939722361811,50.8472952303434 0.439391466095911,50.8472926533796 0.439321749995119,50.8472653378417 0.439256851652491,50.8472450251185 0.439216553410256,50.8472359767843 0.439205062548629,50.8472335196806 0.439193571688164,50.8472310625758 0.43916895220879,50.8472216864249 0.439139863826006,50.8472097063519 0.439134106328031,50.847207129375 0.43911800600616,50.8471993730374 0.43910590789167,50.8472122141873 0.439096476332193,50.8472223022406 0.439029828930594,50.8472245949935 0.438901046869075,50.8472057075392 0.43886482025376,50.8471938766207 0.438847526509971,50.847187944025 0.438836363520417,50.8471917741411 0.438819513976489,50.8471966216443 0.438776478352469,50.8471867318651 0.438762015816644,50.8471834374212 0.43875490160562,50.8471817873021 0.438744861161881,50.8471801992501 0.438736272473006,50.8471794793668 0.4386977071593,50.8471766887403 0.438693493713525,50.8471767768137 0.438677837710385,50.8471753061375 0.438666395153762,50.8471737473869 0.438640629094391,50.8471715877178 0.438633561780132,50.8471708369259 0.438629231964665,50.8471709274295 0.438622164603818,50.8471701757385 0.438616431252663,50.8471702955787 0.438607936254482,50.8471713725587 0.438598037673253,50.8471724779765 0.43856841159426,50.8471748960515 0.4385612264445,50.8471741468188 0.438558417953564,50.8471742055213 0.438508314999069,50.8471680592263 0.438481215035593,50.8471650297859 0.438471175976139,50.8471634407821 0.438434130593849,50.8471606183004 0.43840415257146,50.8471585475116 0.438364276013997,50.8471575830115 0.43834007813821,50.8471562899164 0.438325872525059,50.8471556882955 0.438261517122758,50.8471480409362 0.438255901561892,50.847148158297 0.438214479598433,50.8471445286966 0.438204440551556,50.8471429396696 0.438184361134265,50.8471397634396 0.43805969938833,50.8471189901207 0.438027006535059,50.8471187738998 0.4378677804277,50.8470888326993 0.437864925111049,50.8470879929482 0.437854884714681,50.8470864048189 0.437843442157296,50.8470848450885 0.437840517300338,50.8470849062052 0.437830523734064,50.8470842165107 0.437720605573799,50.8470721262107 0.437707687108382,50.8470714967208 0.437689175853935,50.847069186156 0.4376632709255,50.8470643327261 0.437637435547042,50.8470585784219 0.437612956883499,50.84705189635 0.437560981121945,50.8470367973246 0.437556675504286,50.8470350893515 0.437417456881676,50.847009224796 0.437320287529555,50.8469698034658 0.437206789156896,50.8469182257984 0.437071900853779,50.8468922703729 0.437071807225928,50.8468904734982 0.437073492496018,50.8468688586238 0.437073118078366,50.8468616729216 0.43701112658414,50.8468431870108 0.436990861538363,50.8468364167933 0.436982179357129,50.8468339008033 0.436974900704162,50.8468313554955 0.436973450364853,50.8468304863752 0.436964627797082,50.84682527597 0.436940992697056,50.8468077858533 0.436930624804984,50.8467999103779 0.43692046969883,50.846793828388 0.436910008191946,50.8467841560357 0.436883307956823,50.8467640334842 0.43687600672503,50.8467587912955 0.436868587659801,50.8467535506682 0.436864001327736,50.8467464538407 0.436859437544147,50.8467420529889 0.436854851167815,50.8467349552625 0.436853354071009,50.8467331886016 0.436853260452007,50.8467313917265 0.436806779282072,50.8466576427583 0.436796038492445,50.8466425815367 0.436752652812395,50.846574252527 0.436707839739276,50.8465032559678 0.436703229234908,50.84649795757 0.436669508553085,50.8464510063372 0.436646644989982,50.8464191139013 0.436643579803508,50.8464164805729 0.436628672544753,50.8464024057702 0.43656267733974,50.8463362568872 0.436607327883115,50.8463209382137 0.436438185028724,50.8461275544955 0.436386702577935,50.8460656885524 0.436377599517072,50.8460550892689 0.436381759971502,50.8460540130281 0.436365170075171,50.8460345777396 0.436395006895168,50.8460069802852 0.436397674969079,50.8460042272203 0.436416582821226,50.8460119243968 0.436436871416694,50.8460213915657 0.436514264123519,50.8460612266397 0.436517282477113,50.8460629615342 0.43657810184207,50.8460859692554 0.436658953342095,50.8461112550095 0.436763908633003,50.8461360372651 0.436769173937731,50.8461269358359 0.436789862027041,50.8460878405634 0.436799619664946,50.8460570647307 0.436828189184716,50.8459781514079 0.43684751868524,50.8459130086504 0.436853253310299,50.8459128888693 0.437434306794862,50.8458872631011 0.437535493256377,50.8457835438635 0.437538301666699,50.8457834851866 0.43770124350756,50.8457746859881 0.437933595167393,50.8457626382152 0.438046903622921,50.8457566736263 0.438109290286821,50.8457535710434 0.438137972711688,50.8455397813482 0.438145037666825,50.8454865834693 0.437945707347727,50.8454781607927 0.437675378348263,50.8454694233491 0.437349518825271,50.8454582477589 0.436840217399285,50.8454446098098 0.436493039021273,50.845435675951 0.436301174653711,50.8454333886522 0.436136407751639,50.8454341319719 0.435839844821201,50.8454412236334 0.435577238040959,50.8454458068279 0.435397888526835,50.8454386706567 0.435272388707301,50.84542870218 0.435119346477974,50.8454094184844 0.434726797648137,50.8453456788137 0.434477531932741,50.8453050229555 0.434167892634809,50.845252139517 0.434054683475818,50.8451789722367 0.433865397115087,50.8450641427195 0.433792719270287,50.8450045157659 0.43370934902822,50.8449037513221 0.433648440403278,50.8447979321547 0.433622752938258,50.8447139472723 0.433584199443583,50.8445177463299 0.433563693627865,50.844314963845 0.433552335330771,50.8440696406849 0.433563832897878,50.8439641998722 0.433615522244134,50.8436474269538 0.433638856155819,50.8435218675405 0.433684852689613,50.8433410762719 0.433735734570102,50.8431439090455 0.433779782831322,50.843009015051 0.433848923065258,50.8427260466952 0.433885010081344,50.8426002211481 0.433921990919092,50.8424645760097 0.433966668080056,50.8423124953644 0.434010247869309,50.8421686197201 0.43404154095456,50.8420609671556 0.434056940033272,50.8419742373769 0.434075130817939,50.8418308915022 0.434079486816362,50.8417795493135 0.434078695149303,50.8417373050684 0.434077526822469,50.8417148503921 0.434073218567085,50.8416860780872 0.434065826345885,50.8416520635844 0.434054059583437,50.8416172427368 0.434037683052093,50.8415771215823 0.434021704794231,50.8415423885998 0.43400296367722,50.8415086117731 0.433985978321096,50.8414837897534 0.433982983231026,50.8414802554851 0.433961598020682,50.8414519285018 0.433955515828073,50.841443063955 0.433929569102935,50.8414103359636 0.433906774497416,50.8413819484333 0.433899904614448,50.8413751446851 0.433855718308378,50.8413286233405 0.433738258331107,50.8412377415973 0.433639736089933,50.8411772066553 0.433661057283989,50.8411537099006 0.433684755963945,50.8411092881467 0.433696679672992,50.8410717137257 0.43375739023079,50.8408387581743 0.433777095102422,50.8407592382367 0.433798962689067,50.840670995629 0.433848311829656,50.8405305883954</coordinates></LinearRing></outerBoundaryIs></Polygon>
  </Placemark>
