  <Placemark>
	<Style><LineStyle><color>ff0000ff</color></LineStyle><PolyStyle><fill>0</fill></PolyStyle></Style>
	<ExtendedData><SchemaData schemaUrl="#Wards__December_2019__Boundaries_EW_BFE">
		<SimpleData name="objectid">2724</SimpleData>
		<SimpleData name="wd19cd">E05007313</SimpleData>
		<SimpleData name="wd19nm">Bookham South</SimpleData>
		<SimpleData name="wd19nmw"></SimpleData>
		<SimpleData name="bng_e">513775</SimpleData>
		<SimpleData name="bng_n">153360</SimpleData>
		<SimpleData name="long">-0.37051</SimpleData>
		<SimpleData name="lat">51.26804</SimpleData>
		<SimpleData name="st_areashape">6727166.17183517</SimpleData>
		<SimpleData name="st_lengthshape">13372.0935783155</SimpleData>
	</SchemaData></ExtendedData>
      <Polygon><outerBoundaryIs><LinearRing><coordinates>-0.357566334584239,51.2559033745464 -0.357567582008611,51.2559114827478 -0.357544317411414,51.2559210455866 -0.357507806371201,51.2559376149061 -0.357514787188687,51.2559440059142 -0.357528660530735,51.2559558874239 -0.35742473427848,51.2560173599698 -0.357321841602032,51.2560896354251 -0.35719431883103,51.2561301888575 -0.356709282847105,51.2562690212514 -0.35642062847073,51.2563647588741 -0.356457217464846,51.2568266438669 -0.356457176233131,51.2569471108047 -0.356336877958289,51.2571064337011 -0.356291741537483,51.2571660337281 -0.356219391686115,51.2573061622176 -0.356234229090431,51.2573738865624 -0.3563010186939,51.257711143614 -0.356423569378284,51.2581714486006 -0.356368105011557,51.2582389943458 -0.35627401529959,51.2583060876716 -0.356199789916353,51.2584192198992 -0.356179182976765,51.2585133265127 -0.356107462392834,51.2588378501516 -0.356112819009359,51.2592111073107 -0.356145637308041,51.2593743797411 -0.356320483494925,51.2596969741811 -0.356336873409485,51.2597178812844 -0.356398573786096,51.2597969618232 -0.356420241823451,51.2598719749364 -0.356475828647648,51.2601622375988 -0.356607660009759,51.2605247740801 -0.356722649177995,51.2607565355296 -0.356827436764523,51.2609927399577 -0.356904713225125,51.2612780028736 -0.357053534133137,51.2613663974175 -0.357135033803963,51.2614934932906 -0.357396686425035,51.2619108014899 -0.357494223855671,51.2621118408933 -0.357583601572646,51.2622964942932 -0.35767845193009,51.2625730131401 -0.357705414050393,51.2627415976053 -0.357748400742171,51.2630209849937 -0.357738414442963,51.2630226434515 -0.357738350407942,51.2630244401989 -0.35746451697509,51.2630646503125 -0.357103975285356,51.2631270168985 -0.355875909925938,51.2632383365375 -0.355351255163719,51.2633227559243 -0.354854101249941,51.2634775938747 -0.354844542685065,51.2634639740599 -0.354836304713411,51.26345307062 -0.354584221633708,51.2635690969697 -0.354275009990386,51.263636761674 -0.353893085700015,51.2636556653008 -0.3536597856872,51.2636460915725 -0.353550650226291,51.2636112926766 -0.353377820232573,51.263513476962 -0.353251617193863,51.2634370837708 -0.353111773257193,51.2633389213994 -0.353045638223633,51.2633442841362 -0.35249623296334,51.2633572316518 -0.352245785439145,51.2633447159654 -0.352171466211017,51.2633409729865 -0.352140309869943,51.2632901895534 -0.352101499127441,51.2632518845889 -0.352003686952271,51.2631020809562 -0.351897123637747,51.2629953955728 -0.351780655607549,51.2629244417363 -0.351725393717843,51.2628670256933 -0.351667485666069,51.2627646222113 -0.351650522818957,51.2626771781861 -0.351640187987562,51.2625663645514 -0.351653870718541,51.262461371951 -0.351685754547443,51.2623728180324 -0.351743420085708,51.2622440824751 -0.351960418412345,51.2619063201985 -0.351992333360613,51.2618168682559 -0.351977302583407,51.2617150675923 -0.351735280830638,51.2615101907933 -0.351512129683244,51.2613757927178 -0.351413876746113,51.2613176813914 -0.350685877885306,51.2614342801629 -0.35044237830658,51.2614722038129 -0.350314265163717,51.2614856828496 -0.348806640381579,51.2615597261818 -0.348483237259791,51.2615452756207 -0.34825592697488,51.2615303821712 -0.34798910182376,51.2614969507069 -0.34789352472134,51.2614830159075 -0.347799771936814,51.2614610151249 -0.347733186457478,51.2614393985479 -0.347501603907931,51.261382189266 -0.347597599630294,51.2615031130725 -0.347602786418648,51.2615166717546 -0.347646119330847,51.2616297498409 -0.347711060776522,51.2618158632681 -0.347752828345112,51.2619693747722 -0.347804637572112,51.2621229380362 -0.347835563197029,51.2621800123759 -0.347871725676203,51.2622525336572 -0.347934767876379,51.2623334359329 -0.348018352876229,51.2624380019044 -0.348179765237729,51.2626165761243 -0.348322046571696,51.2627651224451 -0.348450676508279,51.2628955859199 -0.34857449005481,51.2630384776096 -0.348675505588494,51.2631414913534 -0.348764266488011,51.2632237442492 -0.348912188128351,51.2633337124349 -0.349048640693653,51.2634075577253 -0.349068303382128,51.2634195219291 -0.349221336329064,51.2635088848514 -0.349280911242926,51.2635646541616 -0.349562778500965,51.2637789973546 -0.349643744634162,51.2638413620417 -0.349736635232413,51.2639271787116 -0.350438549306139,51.2645800455936 -0.350669150119225,51.2647873708121 -0.35090085773486,51.2650001949532 -0.35095306148199,51.265063861354 -0.35124981581769,51.265424141067 -0.351444771584625,51.2656634175933 -0.351592857271566,51.2658121318291 -0.351804684834111,51.2660191906242 -0.352232598697206,51.2663606365195 -0.352427917117545,51.2666295844167 -0.352923100936173,51.2673343687534 -0.353092184027639,51.2675373192025 -0.353253285969898,51.2677221769129 -0.353412204489397,51.2679284901482 -0.353479837993794,51.2680401102927 -0.353683475974938,51.2683577218416 -0.353893737942101,51.2686124046087 -0.354050792463505,51.2687486565603 -0.354278373787752,51.268958721494 -0.354412051520574,51.269071179421 -0.35466351531256,51.2692546080337 -0.354962118003853,51.2695644715236 -0.355147250082792,51.2697586540029 -0.355461016303603,51.2700445447995 -0.355668943670486,51.270242642754 -0.35575952308496,51.2703176349728 -0.356081092305241,51.2705838547888 -0.356434809716249,51.2708369503173 -0.35650930168983,51.2709189984279 -0.356652690199948,51.2710378829964 -0.357248500284654,51.2714562875507 -0.35763977012852,51.2717405623694 -0.357989546741473,51.2719820004564 -0.358288299278115,51.2721660837526 -0.358600567389111,51.2722927282338 -0.358726561472261,51.2723394447384 -0.358683053037624,51.272392776193 -0.358660590195937,51.2724194324312 -0.358686413052829,51.2725007958723 -0.358680969019036,51.2726535525664 -0.358615220020468,51.2729296189872 -0.358640479307498,51.2730666235769 -0.358647183655437,51.2730775061795 -0.358659299007941,51.2731388996711 -0.358727522002782,51.2732378483514 -0.358817802771989,51.2733182276312 -0.358945840273825,51.2734270954051 -0.359108230014427,51.2735372537702 -0.358918051909873,51.2737657260557 -0.358853945792992,51.2738331528377 -0.358843399560492,51.273886946338 -0.358764956432005,51.2739155149288 -0.358939598946611,51.2741661818352 -0.359194877615104,51.2745258600526 -0.359544817841876,51.2749228258303 -0.359641378432029,51.2750294531783 -0.35961491778381,51.27504886119 -0.359533871529181,51.2751106571822 -0.359470746172894,51.2751538247827 -0.359363087739653,51.2752359248936 -0.359245499338107,51.275317976606 -0.359186627978366,51.275361203667 -0.359173429489125,51.2753700087951 -0.359089523270199,51.2754290674953 -0.358981948966032,51.275512067733 -0.358930454358071,51.2755473063824 -0.358838942781151,51.2756207322912 -0.358833078783438,51.2756260448751 -0.358763778359213,51.2756799133716 -0.358759397091159,51.2756834481777 -0.358581146018897,51.2758158027633 -0.358525011735749,51.2758617648731 -0.358504348657144,51.2758776577319 -0.358420364106366,51.2759421987632 -0.358212587504523,51.2761002107805 -0.358162540880569,51.2761345710607 -0.358031526089022,51.2762317158252 -0.357929940193487,51.2763058091573 -0.357763615631746,51.2764284404456 -0.357664187144117,51.2765215331842 -0.357618486819187,51.2765964100176 -0.357633301824909,51.2766649440358 -0.357657072108163,51.2767210164508 -0.357708913829585,51.2767954627006 -0.357770823304444,51.2768295951938 -0.357985894824325,51.2769477752629 -0.358088338618822,51.277012143102 -0.358202869733318,51.2770955597429 -0.358314562055187,51.277179026395 -0.358379924933889,51.2772356817054 -0.358585503520028,51.2773815080122 -0.358810270707982,51.2775528644508 -0.358859880628502,51.2775274887382 -0.358880904789707,51.2775412680317 -0.358889306211065,51.2775476789099 -0.359010694764401,51.2776410801543 -0.359139132064382,51.2777390746139 -0.359502000717736,51.2780193488588 -0.359566118127694,51.2780678952095 -0.359660906917945,51.2781448305581 -0.359719567532579,51.2781906025542 -0.359762810190266,51.2782244724724 -0.360136710937646,51.2785138882772 -0.360277616351026,51.2786237438737 -0.360358281715108,51.2786922992421 -0.360439227669754,51.2787563638933 -0.360620379234102,51.2789046312358 -0.360748322142125,51.2790134054873 -0.360994812716505,51.2792192249781 -0.361015710357604,51.2792365982952 -0.35970933536829,51.2797255357331 -0.359649626582178,51.2797489727289 -0.359376372432557,51.2798530277846 -0.35874406935324,51.2800932861406 -0.358600318561466,51.2801461121591 -0.358527568779891,51.2801738613151 -0.358494088110875,51.2801877759925 -0.358287245676065,51.2802792738341 -0.35818676929902,51.2803220072618 -0.358083299490523,51.2803691041995 -0.358039582743009,51.2803882691119 -0.357881966170888,51.2804651731734 -0.35764251391,51.2805858807451 -0.357588493531242,51.2806121833539 -0.357502595432464,51.2806505352392 -0.357457395174541,51.2806714785911 -0.357225447410226,51.2807806026817 -0.357171611401134,51.280805020108 -0.357098667315782,51.2808381595475 -0.357050630481842,51.2808590620582 -0.356824884502712,51.2809566752996 -0.356717254442756,51.2810010148729 -0.356676501030249,51.2810166255607 -0.35660103931874,51.2810407392965 -0.356479088784906,51.2810821807798 -0.356392252635455,51.2811070340453 -0.356302364945561,51.2811345413555 -0.356176319196264,51.2811714304673 -0.35613279338075,51.2811852035036 -0.356047189370723,51.2812119613976 -0.355810942879477,51.2812823651821 -0.355482034950448,51.2813784376966 -0.355199521878919,51.2814598767426 -0.355167617177346,51.2814693180399 -0.355237191054284,51.2815306195867 -0.35526456752,51.2815651667159 -0.355826419878695,51.2820936789371 -0.356066120877783,51.2823272821123 -0.356197877256501,51.2824549942633 -0.356404413777337,51.2826539694531 -0.356538953619327,51.2827799216855 -0.356824028221714,51.283070798998 -0.35704715806123,51.2832852889423 -0.357052755955891,51.2832907613297 -0.357094359447926,51.2833309014069 -0.35723009583585,51.2834632535151 -0.357501971358225,51.2837232866169 -0.357734768530033,51.2839486994268 -0.357945625649879,51.2841495301455 -0.358085709439189,51.2842827507628 -0.358363242702885,51.2845402543917 -0.358604344024956,51.2847783673536 -0.358840557527289,51.2849911496911 -0.359080607675704,51.28521576132 -0.359194007749324,51.2853315258322 -0.359153471257546,51.2853840900021 -0.358714474528524,51.2859507055989 -0.358403290215993,51.2863546798023 -0.358234800003497,51.2865734767695 -0.358186378450448,51.286644809527 -0.358181706137584,51.2866564319487 -0.358181417683058,51.2866645187071 -0.35818402991846,51.2866708484678 -0.358189596289391,51.2866772196359 -0.358344380960695,51.2868394146765 -0.358382409280079,51.2868174720058 -0.358562165066723,51.2867237963289 -0.358966944341134,51.2865136135232 -0.35955656695662,51.2862260050173 -0.359883872141937,51.2860130253993 -0.360208034683464,51.2857720414475 -0.36058119939573,51.2855991694126 -0.362255398224267,51.2850983719168 -0.362700743664963,51.2849534726581 -0.363102992879515,51.2848134532505 -0.363171312008857,51.2847874377706 -0.363288992789635,51.2847431417625 -0.363626766388492,51.2845608654471 -0.363947068957118,51.2843045341645 -0.364610332808946,51.2837993779965 -0.364900550289923,51.2835409162396 -0.365069617488187,51.2834245163036 -0.365235406195824,51.2833171503515 -0.365245737562732,51.2833092037757 -0.365643885722718,51.2830809253859 -0.36624765711697,51.2827952806747 -0.366421914000344,51.2827356783771 -0.366536077153352,51.2827103004537 -0.367251005580789,51.2823237124746 -0.367647057023839,51.2821106823855 -0.367696593550017,51.2820906948652 -0.367818823515632,51.2820411549563 -0.368160226499094,51.28191546437 -0.368334327472222,51.2818567579207 -0.368796390066458,51.2817256462341 -0.369099241406837,51.2815967215203 -0.369383462797222,51.2814262707083 -0.369788774627852,51.2812349407603 -0.369794660115351,51.281232325788 -0.370279762239824,51.2810178310351 -0.371506647777225,51.2805043933438 -0.372893497581722,51.2798860933192 -0.373402955706124,51.279630570305 -0.373756556958819,51.2794430029325 -0.374338857211019,51.2791129703226 -0.374596769056701,51.2789969820929 -0.374746575799522,51.2789360407349 -0.374903522674485,51.2788770858707 -0.375062893029278,51.2788298522857 -0.375229344762279,51.2787863129523 -0.375612187339649,51.2787044201407 -0.376095318660022,51.2786247274198 -0.376953408549881,51.2784451360914 -0.377519918107904,51.2783576024475 -0.377691245190499,51.278336602725 -0.377882248356107,51.2783275614183 -0.378447756488008,51.2783120213782 -0.379362512704068,51.2783525568481 -0.380270876515603,51.278373218122 -0.381073983281333,51.2784086002039 -0.381869444441904,51.2784160008547 -0.382234694653936,51.2783868859944 -0.382398749704487,51.2783675756549 -0.382564467124966,51.278344692763 -0.382782490319267,51.2783000575606 -0.38299927643583,51.278253605426 -0.383314247664182,51.2781446793323 -0.383529596093119,51.2780549648847 -0.383799577530915,51.2779175469869 -0.384361661067566,51.2775916805854 -0.384497532417496,51.2775197468902 -0.384757237144709,51.2773920734025 -0.384886840394553,51.2773336272913 -0.385024753748647,51.2772842866021 -0.385197554518368,51.2772210422057 -0.38594781233186,51.2770065440543 -0.386735819769391,51.276817734621 -0.387001654394874,51.2768016188929 -0.387249765716747,51.2767987438935 -0.387474356087459,51.2767721705381 -0.387800485056719,51.276671476932 -0.388144058905316,51.2765214871294 -0.388538316418343,51.2763182538668 -0.388822594749207,51.2761837182199 -0.389225220196203,51.2760283347498 -0.389664628150779,51.2758419004141 -0.389966751455041,51.275730982227 -0.390136455630586,51.2756747895474 -0.39030278778658,51.2756339242043 -0.390824113715422,51.2755251182641 -0.391181584569883,51.2754302408962 -0.391548911368755,51.2753408017497 -0.391781930631955,51.2752756781502 -0.392047936109476,51.2752137040583 -0.392513106510094,51.2750303100004 -0.393328544658396,51.274670121107 -0.393408667099138,51.2746334620852 -0.393555495125252,51.2745347873957 -0.393214813866348,51.2741487512807 -0.392992684982283,51.2738579277105 -0.392852530393277,51.2737247480207 -0.393191386915128,51.2730549597607 -0.393360024367417,51.2727002753905 -0.393431813373475,51.272533055569 -0.392920687424403,51.272059361813 -0.392680185552695,51.2718042471238 -0.392111609201094,51.2712532554226 -0.390228762842348,51.271474698841 -0.390394345252145,51.2712485363881 -0.390487605640562,51.2710421462846 -0.390459491352583,51.2706154466832 -0.390373901305227,51.2703994060866 -0.390251107915698,51.2701791668441 -0.390144209953668,51.2699573484017 -0.390039081469918,51.2698066667779 -0.389878620504506,51.2697207620492 -0.38970713381851,51.2696662599764 -0.389493591239857,51.2695401573177 -0.389214557517105,51.2692386548821 -0.389138964670696,51.2691459151043 -0.389028105431375,51.2688314430451 -0.388976504330647,51.2687083771266 -0.388854657976171,51.2684647754623 -0.388647396464661,51.2679565868625 -0.388615974969169,51.267746593418 -0.388631072581496,51.267521058785 -0.388629150110137,51.2674104542399 -0.38861557461681,51.2672241711239 -0.388603923280032,51.2671484035641 -0.388574834208852,51.2670778797374 -0.38853727039494,51.2670063408714 -0.388420604834991,51.266858104989 -0.388205594961755,51.2666933226893 -0.38811647193445,51.2666192752414 -0.388034471496464,51.2665443375013 -0.387959832078338,51.2664650946348 -0.38792816404681,51.2664277991907 -0.387891075437721,51.2663832367141 -0.387733549476258,51.2661328493724 -0.387671944264672,51.2660492921642 -0.387505669271776,51.2658868874733 -0.38738758824919,51.265738720951 -0.387273225693096,51.2655653440804 -0.387245619434738,51.2654930426818 -0.387142549569629,51.2650815815861 -0.387246174882259,51.265028169827 -0.387187061544408,51.2649139895867 -0.387674777621716,51.2649045255025 -0.388220481214426,51.2648320274559 -0.388516148322927,51.2648226133346 -0.388858375359061,51.2648336169644 -0.389026591975859,51.2648188503122 -0.389747746441458,51.2647307794249 -0.389950273170942,51.2646777364503 -0.390074473201831,51.264569764857 -0.390137374159571,51.2642882494566 -0.390267021428996,51.2638179593819 -0.39042447317423,51.2634549443284 -0.39048604847159,51.2631266618039 -0.390597757522671,51.2627604105687 -0.390637717000321,51.2626009353201 -0.390673270406118,51.2624458050173 -0.390720020471565,51.2621730572147 -0.39078330236045,51.2616739847344 -0.39074852818696,51.2613974192645 -0.390694325034903,51.2611053035391 -0.390665880889269,51.2608099448111 -0.390597289743946,51.2604358207815 -0.390478889022954,51.260131135339 -0.390324698611299,51.2598700085097 -0.39022733228937,51.2596195521909 -0.390160367718172,51.2594019686231 -0.390093311558369,51.2592310434185 -0.390085962636455,51.2590727152961 -0.390148153230918,51.2586454607846 -0.390177568087002,51.2585002264461 -0.390139150944193,51.2582874416453 -0.390070804638654,51.2580688514231 -0.390042774948927,51.2578868663164 -0.390085679182284,51.2576023808713 -0.390062375101735,51.2574068854209 -0.389986721211522,51.2571945776117 -0.38989162605718,51.257004387786 -0.38960236170334,51.2566290288869 -0.389337993673723,51.2561127766043 -0.389279318615126,51.2560301594113 -0.389274244826868,51.2559285012597 -0.38909419251731,51.2559143368212 -0.388795527662835,51.255889458836 -0.388363070622847,51.2558385560308 -0.388052538689817,51.2558252904638 -0.38759670275357,51.2558280027016 -0.387565168380504,51.2558275683475 -0.387474741726164,51.2557103506536 -0.38742642773261,51.255574833808 -0.38732120819266,51.2553062886632 -0.387197546055248,51.2549097395043 -0.387153612117353,51.2547706867064 -0.387135384047802,51.2546364834963 -0.387059635577604,51.2545895007847 -0.387003743345551,51.2545896290304 -0.386815674665634,51.2545987252637 -0.386529220069282,51.2546371202871 -0.385995948420559,51.2547223673878 -0.385745878995454,51.2547845468612 -0.385562652080341,51.2548206777533 -0.385417917223285,51.2548609345337 -0.385227451996831,51.2549384095687 -0.385161364099919,51.2549833470368 -0.385119188941415,51.2550843535915 -0.385152204205706,51.2551639211167 -0.38517687179572,51.2553603356921 -0.385158363353715,51.25560200377 -0.385157891196805,51.2556154826582 -0.384331131024511,51.2557739880754 -0.383914217762049,51.2558528302217 -0.38332798759737,51.2559786881569 -0.383157877828588,51.2560482595313 -0.382991594869523,51.2562950785819 -0.382851373952487,51.2564523559355 -0.382846815917073,51.2564576876719 -0.381999310977622,51.2563514915243 -0.380759857741064,51.256185118613 -0.379999986747655,51.2560702308172 -0.379375342893883,51.2559842708854 -0.377361017044929,51.2556802829089 -0.375998293478309,51.2555157470285 -0.374157120304273,51.2552617533796 -0.373342076088909,51.2551677220886 -0.372661584422605,51.2551214055862 -0.371832775208521,51.2550559408728 -0.370509990601829,51.2549358580446 -0.369653588122076,51.2548789846795 -0.368646362729555,51.254790335704 -0.367671308787377,51.2546841459129 -0.366331198117921,51.25457006759 -0.365224547605682,51.2544566281371 -0.36382156341808,51.2542966923293 -0.362287300445114,51.2541206094381 -0.362023848970816,51.2541528844426 -0.361841149494602,51.2541737027083 -0.361583897780697,51.2541943757045 -0.361241194198766,51.254282266414 -0.360592745128592,51.2544619795848 -0.360252008027462,51.2545741688347 -0.359672348867027,51.2547961949605 -0.358360632439972,51.2554513455972 -0.357953459108764,51.2556569924949 -0.35773009333004,51.2557743268331 -0.357557886438598,51.2558619014542 -0.357566334584239,51.2559033745464</coordinates></LinearRing></outerBoundaryIs></Polygon>
  </Placemark>
