  <Placemark>
	<Style><LineStyle><color>ff0000ff</color></LineStyle><PolyStyle><fill>0</fill></PolyStyle></Style>
	<ExtendedData><SchemaData schemaUrl="#Wards__December_2019__Boundaries_EW_BFE">
		<SimpleData name="objectid">1923</SimpleData>
		<SimpleData name="wd19cd">E05004733</SimpleData>
		<SimpleData name="wd19nm">Little Hadham</SimpleData>
		<SimpleData name="wd19nmw"></SimpleData>
		<SimpleData name="bng_e">544053</SimpleData>
		<SimpleData name="bng_n">224731</SimpleData>
		<SimpleData name="long">0.092476</SimpleData>
		<SimpleData name="lat">51.902512</SimpleData>
		<SimpleData name="st_areashape">38487254.5005746</SimpleData>
		<SimpleData name="st_lengthshape">30700.1224519391</SimpleData>
	</SchemaData></ExtendedData>
      <Polygon><outerBoundaryIs><LinearRing><coordinates>0.116888093698707,51.8593533447069 0.117181377810468,51.8594433598718 0.11737385497727,51.8595235013911 0.117586927130433,51.8597004530436 0.117522191613875,51.859775336359 0.117692892291421,51.8598838289181 0.117997536271192,51.8601237685154 0.118096579125565,51.8600986117738 0.118183016961033,51.8603632472059 0.118412548415407,51.8605794573114 0.118584356662877,51.8608973940305 0.119043350375269,51.8613000564377 0.119192377981076,51.8615356949368 0.119389643234987,51.8618091211819 0.119291780102791,51.8618594295648 0.119685167111954,51.8622875450761 0.1197103216507,51.862297880118 0.119815826949469,51.8623464116046 0.11989331904431,51.8625122282504 0.11983517237436,51.8625744081412 0.119925010153313,51.8630638191734 0.120122431076361,51.8635872522659 0.120019751080683,51.8636268605985 0.120188954910316,51.8637973162414 0.120412862257036,51.8640486849438 0.12054703107308,51.8641514491771 0.120981631510331,51.8644673419317 0.12119579622001,51.8646667426655 0.121436342850119,51.8648719602238 0.121892374434025,51.8650246555213 0.122071229885026,51.8649369238504 0.122366069530156,51.8649064329294 0.121794479577591,51.8668932730038 0.121690095190288,51.8671766302921 0.121512761610738,51.8673273529604 0.121314319738597,51.8674621840756 0.121248823095259,51.8675514663414 0.12118911552389,51.8676416333604 0.121304260071895,51.867680910888 0.121219856895113,51.867770534058 0.121170147770097,51.8678568347563 0.121140094105131,51.8678951343197 0.12102838951573,51.8679925308301 0.121003995367004,51.8680289307193 0.120991334200429,51.8680678150135 0.120984840311231,51.8681155788062 0.120998734532284,51.8681944397367 0.121149571080838,51.8684066694267 0.121317377053299,51.8686689355766 0.121413629906695,51.8688613819085 0.121591809450295,51.86897512767 0.121836764699641,51.8691487106842 0.121978022350786,51.8693710001886 0.122200248839089,51.8696187991577 0.122272287466062,51.8698513267549 0.122368026334673,51.8699107313859 0.122518749153838,51.8701202635637 0.122547347806526,51.870295051621 0.122658334531446,51.870400927444 0.122651224203154,51.8705575699815 0.122842229065832,51.8706026693548 0.122744117837004,51.8710495300814 0.122996178098733,51.8714344245365 0.123185133284419,51.8715604693263 0.12342693106156,51.8718825287063 0.12348309425477,51.8720245449101 0.123601313911825,51.8721617539575 0.123771503594195,51.8723799237269 0.12405220677802,51.8728181484271 0.124193390473762,51.8729469416178 0.124281807580963,51.8730667085207 0.124885539756667,51.8735170781142 0.125013279852288,51.8735436276009 0.125286983856249,51.8737112893832 0.12534462051514,51.8739782375714 0.125656444286114,51.8744915012673 0.126034167235122,51.8750430384556 0.12619569383874,51.8752649572653 0.126606493920709,51.8759661160563 0.126591246524137,51.8762874215174 0.126517015367395,51.8768993583026 0.126232915279809,51.8769458463177 0.125811375036261,51.87706502973 0.125687441992435,51.87730199543 0.125428833492989,51.8777616470977 0.125343440819822,51.8779853311076 0.12530835016131,51.8781351970669 0.125292244950653,51.8782533461603 0.125293413469846,51.8783719916067 0.125320313261552,51.8786017364787 0.125225349332909,51.8788993100322 0.125233336880728,51.879159872971 0.125207063550253,51.8794660945613 0.1250094386832,51.8800505920736 0.124904434058144,51.8805974571513 0.12490271171934,51.8806523261801 0.124906027678185,51.880753043167 0.124919266241828,51.8808786627368 0.124944249987116,51.8810094638373 0.124973999354487,51.8811168955297 0.125027305577441,51.8812588716304 0.1251627709441,51.8815145247759 0.125181057850758,51.881561841054 0.125199183332597,51.8816082609976 0.125246768064108,51.8818142588604 0.125262001986724,51.8819542266886 0.125263378690607,51.8822599477455 0.125325811977034,51.8827804138883 0.125377059507871,51.8830969214387 0.125261468816781,51.8833562106263 0.124761446710298,51.8845855310094 0.124732396668041,51.8848000150741 0.124597221960401,51.8854769672436 0.124327616112857,51.8866615789735 0.124123380563721,51.8877210386813 0.124029823082017,51.8878027373705 0.123958089022999,51.8880675258266 0.123960035345749,51.8880782789349 0.124001090915225,51.8881179920505 0.124003037208991,51.8881287442594 0.12384842502262,51.8891000157547 0.123826045190272,51.8893036807033 0.123883531977762,51.8895670353735 0.123983533308676,51.8895913008554 0.124112376407598,51.8897975401324 0.124215515993021,51.8900735545064 0.124240101337062,51.8902871597139 0.124362753199964,51.8903901269717 0.124420142031629,51.8905599876931 0.124650148305895,51.8914289308205 0.124732046888943,51.8916558842089 0.124694414011678,51.8918130783794 0.124661285298791,51.8920960486151 0.124745149948384,51.8922707355694 0.124773081631849,51.8923394531418 0.12478234866797,51.8923834260863 0.124784470095708,51.8924283365098 0.124777800428723,51.8924698105314 0.124761974167144,51.8925051570173 0.124677368490697,51.8926217550841 0.124615950061547,51.8927371259107 0.124507888450629,51.8930015812849 0.124379900935588,51.8932476084511 0.124382397699646,51.8932700381809 0.124514949327349,51.8933971878684 0.124359503745267,51.8934602272324 0.124372138992627,51.8936668558508 0.124260361771301,51.8941013774843 0.124228461274534,51.8942556802077 0.12426139070088,51.8945545384504 0.124269660782347,51.8950975568988 0.124241776645489,51.8954307753291 0.124212208083369,51.8956040045634 0.124213175591613,51.895779289333 0.124191182971891,51.8958363226235 0.124061117658259,51.8960994670674 0.124009063031752,51.8963827785034 0.123931675464479,51.8965281032575 0.123881560500069,51.8967916025256 0.123868654749474,51.8974725478419 0.123736255267329,51.8979604801788 0.123542138345528,51.8983750015352 0.123495549777755,51.8985889020645 0.12344385525357,51.8987886003502 0.123300721889938,51.8992956054337 0.123083694048205,51.8996565991969 0.12299992768378,51.8998522916761 0.122920643733372,51.9000515892021 0.122769941846998,51.9005533364211 0.123145231917002,51.9015438987966 0.123453308615647,51.902435706027 0.123507000050815,51.9026487855723 0.123525973826702,51.9028957547387 0.123510011241084,51.903083121385 0.123464515197807,51.9032898098629 0.123433991705437,51.9033820574897 0.123397638470452,51.9034727026623 0.123132635189614,51.9040187638705 0.122953725695919,51.9043853629097 0.122936922602663,51.9046463718884 0.122940037330982,51.9048037281323 0.123030354071066,51.9054243752536 0.123067217823693,51.9057735055451 0.123075959314171,51.9059586286537 0.123049320595839,51.9060418162982 0.122908989865504,51.9063015480728 0.122849333929243,51.9067009646472 0.122847144532782,51.9069617997586 0.122813088179133,51.9073499670519 0.122735155092774,51.9076085726816 0.122556060520247,51.9080020534099 0.122501265324597,51.9081973124452 0.122512027755376,51.908364329687 0.122502709547568,51.9086900198762 0.122507702561473,51.9089507252646 0.122428152529161,51.9089593524709 0.122451857027916,51.909215224945 0.122408964381274,51.9094138651624 0.122291737788656,51.909703745224 0.122146489953174,51.9099841507846 0.122127828392837,51.9100205370784 0.122033688450903,51.9102433846091 0.121816770569825,51.9109459875965 0.121764510736949,51.9111951395593 0.121780029899941,51.9115545427618 0.121778468298579,51.9118288512257 0.121795389816398,51.9119410087866 0.121831709674725,51.9120958784844 0.121826586572585,51.9122947355724 0.121838081604428,51.9125688085464 0.121814063951122,51.9127076852607 0.121810270621842,51.9128102374922 0.121815697439843,51.9128947348434 0.121847489913281,51.9130146247516 0.121978039868109,51.9132532876633 0.121999065626595,51.9134219181392 0.122022570896593,51.9134881082001 0.122143878080096,51.9137493233306 0.122255644897132,51.9140827180483 0.122380052654768,51.9144095917442 0.122405686843311,51.9145818240932 0.122398297259015,51.9148265707342 0.122354229079791,51.9150638885087 0.122334645977982,51.9154490961917 0.122347690692326,51.9158498980555 0.122365193222668,51.9159412788372 0.122394703815271,51.9160127550328 0.122457508787988,51.9161114090861 0.122570374455786,51.916376461099 0.122704194194823,51.9166231555553 0.12273044445273,51.9166865091916 0.12285715401823,51.9170618863116 0.122922184631073,51.9173295985137 0.122936485465412,51.9174776728875 0.122932913044766,51.9175569379379 0.122914715979945,51.9176642452852 0.122882490521519,51.9177816946758 0.122651118509199,51.9181482483257 0.122558706613732,51.9183801451824 0.122544525942878,51.9185090453927 0.122574562132947,51.9187161686916 0.122567446206195,51.9188728098054 0.12257922226105,51.919061383845 0.122604342656162,51.9191922718982 0.122658874386954,51.9193315300463 0.122764159657796,51.9194969306757 0.122967750126556,51.9197432651805 0.122983693814267,51.9198346739233 0.122982665046374,51.9199983074134 0.122989004396138,51.9200386471461 0.123005752175915,51.9200860811269 0.123042017640315,51.9201456578868 0.123100679278894,51.9202174171923 0.123166361033859,51.9202854537362 0.123371926158234,51.9204490452157 0.123523023966214,51.9206018419875 0.123583596032924,51.9206835454445 0.123760411579389,51.9210076739755 0.123950163896574,51.9213010026578 0.124048287047092,51.9213145140096 0.124258418602444,51.9216686064559 0.12447554225596,51.9221097724836 0.124532140148361,51.9221986485089 0.124578104691648,51.9223111803698 0.124589495664636,51.9224584077781 0.124631443367264,51.9225773050251 0.124626270326507,51.9227140442274 0.124636421908764,51.922774092914 0.124660394637787,51.9228500729606 0.124692830484803,51.9229223949485 0.124785443486987,51.9230654588725 0.124833652717478,51.9231950302569 0.124831743312399,51.9233703670463 0.124862488028063,51.9234957584869 0.124860092767776,51.9235389535614 0.124847425135061,51.9236084039955 0.124826939112146,51.923667207431 0.124789343772313,51.9237344111741 0.124744394274649,51.923798241563 0.124698761536179,51.9238476101074 0.124633099775251,51.9239045333003 0.124558436925452,51.9239562244355 0.124450644653786,51.9240148065432 0.12405968064709,51.9241433167837 0.123318002858739,51.9243589739759 0.122979903699365,51.9244694455764 0.12274156922786,51.9245951085126 0.122194874820573,51.924783057632 0.121798956270397,51.9249313375593 0.121684812336297,51.9249774458662 0.121522288469066,51.9250478002615 0.121420022053264,51.9250990877971 0.121284036486421,51.9251753453047 0.121139816075756,51.9252651470598 0.121016127142478,51.9253554768917 0.120893033632826,51.9254584715309 0.120815109178734,51.9255326927815 0.12054260179545,51.925892791549 0.120465355241827,51.9260119505703 0.120270455520974,51.9265685158427 0.120233577189964,51.9267427729235 0.120230207753396,51.9268570045447 0.120242974643156,51.9269421778788 0.12026986503714,51.9270190953032 0.1203082034107,51.9270921213632 0.120350298334354,51.9271506955031 0.120446708340255,51.9272523409749 0.120519025433744,51.9273058760542 0.12069104762548,51.9274062486503 0.120988178184412,51.9276013659916 0.121356333715535,51.9279446124695 0.121723053190403,51.9282877946848 0.121774321757798,51.9283551926044 0.121799728623725,51.9284005830587 0.121829706227246,51.9285124149516 0.121830518464939,51.928560136378 0.12181886550853,51.9286232752038 0.12179854353926,51.9286856711031 0.121639959872308,51.9289924757309 0.121488614627384,51.929391745083 0.12129808292519,51.9297917206135 0.121210918884574,51.9300109353886 0.121214604937509,51.9301196452861 0.121127058745452,51.9303307755254 0.121066826945167,51.9303174778941 0.121012224075388,51.9303625121646 0.120957832826435,51.9304120369862 0.120866515995667,51.9305432261669 0.120842767440445,51.9306551282283 0.120729184427764,51.9309296560627 0.120593788866477,51.9311740117482 0.120518984628484,51.9312535709619 0.120388559355694,51.931356607019 0.12033143067065,51.9314727954964 0.120126666590767,51.9316958359091 0.120080265539209,51.9317902564629 0.120055419109545,51.9318203699518 0.119923723675233,51.931957589491 0.119813621513731,51.9320287944305 0.119714386894954,51.9320837116488 0.119672545927987,51.9321222225149 0.119614134228696,51.932208677948 0.119561642444565,51.9322680576862 0.119551628118732,51.932302399199 0.119592681350919,51.9324024355188 0.11959230208316,51.9324249160966 0.119476666880026,51.9325339775525 0.119439598229751,51.932579594477 0.119411326152111,51.9326286490108 0.119287670404861,51.932906053504 0.119141907162504,51.9331469980141 0.11890424993683,51.9334435359528 0.118705438591154,51.9337321818945 0.118633339767905,51.9339915772233 0.118609718046004,51.9342005661686 0.118593121383782,51.9344059225029 0.118584597987043,51.9348107065661 0.118672934463326,51.9355735180466 0.118745368899191,51.9360622477273 0.118802343925984,51.9367473234858 0.118786325645655,51.9375812358608 0.118740262660021,51.93789949484 0.118654549668907,51.9383029715733 0.118609300287362,51.9387327786936 0.118549882443893,51.9390171168529 0.118468050314335,51.9393171409774 0.118446788617448,51.9394514712773 0.118403561574205,51.9398020424754 0.118419252860276,51.939949282446 0.11841849129726,51.9399942453837 0.118385187057617,51.940091934531 0.118230348276591,51.9404184439729 0.118196612654544,51.9405044543457 0.118206344904667,51.9407416991282 0.118186651224978,51.9409093537916 0.118209105770316,51.941016826509 0.118212173416923,51.9415455509352 0.118320085045954,51.9421073586066 0.118292570678289,51.9422949309415 0.11826327623254,51.9423529931468 0.118249661543957,51.9424026817984 0.118243454102365,51.9424568223308 0.11826438109174,51.9425598281463 0.118310893606159,51.9426533837711 0.118325188808916,51.9428626781523 0.118322023331763,51.9429202700529 0.118257007545824,51.9431139118747 0.118290377875651,51.9433614293473 0.118329789053207,51.9435486962694 0.118307297627275,51.9436875438773 0.118315552456185,51.9438322208468 0.118298952643302,51.9441292719879 0.118336878926953,51.9442544464018 0.118376509722484,51.9444794664544 0.118250022556137,51.9447587185516 0.118221614140062,51.9448662083483 0.118197729943162,51.9449755042041 0.118180156756696,51.9452824625833 0.118117935299124,51.9455992132625 0.118319144205408,51.945637844257 0.118332470450915,51.9457985217293 0.1182973170162,51.9462569139705 0.118385025913062,51.9466060263932 0.118384188446877,51.9468047158817 0.118391715768047,51.9468702956311 0.118433285292059,51.9470727161832 0.118443570117696,51.9471688122085 0.11843194307758,51.9472607165402 0.11836413218973,51.9474282489065 0.11821581953151,51.9476773277095 0.118012969198225,51.948067628931 0.117839948088326,51.9480392782516 0.117481982600058,51.9480376287176 0.11698042913227,51.9479855204445 0.116285570888322,51.9479404821222 0.115891118632939,51.9478441918869 0.115510872291296,51.9477718281199 0.115298277344369,51.9477999214286 0.11503122841867,51.9477849430155 0.114220477736491,51.9476556737327 0.114062808936872,51.9476450210297 0.113872239491458,51.9476439495929 0.113333691878277,51.947703064642 0.112781484403579,51.9477498367427 0.112163400665421,51.9478193647282 0.111463623443265,51.9478840613436 0.110709730171636,51.9479128664861 0.110561235185364,51.9479110342117 0.110330717772867,51.9478666235018 0.109822330666364,51.9477939311853 0.108698570630839,51.9476900114954 0.108361118657448,51.9476933602713 0.108359680760523,51.9476933860297 0.108122057829201,51.9476841585351 0.107962988057066,51.9477049869558 0.107467594285022,51.9477839791527 0.107475649373581,51.9478944083175 0.107200719864872,51.9479595625729 0.107126297073448,51.9479843587267 0.107115881233894,51.9480744425139 0.1068175195,51.948133722534 0.105746846070845,51.9483282736368 0.105583752037749,51.9483554636519 0.105398130941179,51.9483704716458 0.105212462130538,51.948381883265 0.10514528604401,51.9481591495916 0.105070621110504,51.9479635196363 0.104825372942137,51.9480092589212 0.104681523413144,51.9480451830847 0.104600422295048,51.9480529261909 0.104340047194789,51.9480548851021 0.103741710865259,51.9480493999377 0.10322725437769,51.9480621905469 0.103081415123111,51.9480863719405 0.102949104058871,51.9481202003018 0.102840766592233,51.9481356209109 0.102687195156889,51.9481509503274 0.102509904876604,51.948156814393 0.102370244221442,51.9481566124216 0.101977870838578,51.9481375501303 0.101807820186115,51.9481109213389 0.101787225534185,51.9481040970525 0.10164260893802,51.9478746539918 0.101376900850524,51.9475134248782 0.101261106613287,51.9473410014771 0.101227457224018,51.9473038452327 0.101177414855675,51.9472624863757 0.101111424132845,51.9472187163133 0.101031018772124,51.9471796979081 0.100953822271024,51.9471477234115 0.100863814431274,51.9471214619741 0.100759428691401,51.947098153906 0.10067005191967,51.9470853659574 0.100567859483996,51.9470782002728 0.100378981689444,51.9470824694977 0.09998139235853,51.9471390076882 0.099785382352315,51.9471164352178 0.099408969146407,51.9470638179448 0.099230005330859,51.9470337475191 0.099057348539079,51.9469819899411 0.098501879083933,51.9468021212739 0.098180520633489,51.9467440232046 0.097866117679619,51.9466498417738 0.097413305243584,51.9464870175677 0.097114911159668,51.9463296196325 0.096922344571371,51.9462547500472 0.096907059619855,51.9461147825254 0.096637831924456,51.9460836195887 0.096465143480916,51.945905013041 0.096364030014458,51.9458591682942 0.096263169460213,51.945818713454 0.096232302720689,51.9458102735999 0.096179249022199,51.9457968344077 0.095791362658259,51.9457165418966 0.095598276628912,51.9456948087771 0.095478341612562,51.945649208481 0.095333125471236,51.9455322301453 0.095169299343354,51.9454200781954 0.094833507121985,51.9451445867 0.094611809759579,51.9450082018886 0.09422119602003,51.9449000846514 0.093771343789016,51.9448002111745 0.093703494324595,51.9447807421614 0.093625034075835,51.9447523814143 0.093547431925266,51.9447115105125 0.093488852440663,51.9446720987537 0.093453945074892,51.9446412555264 0.093418535908425,51.9445996331198 0.093371904243326,51.9445024740755 0.093313255962538,51.9441806953843 0.093317351946324,51.9438640934955 0.093271162365161,51.9435573756219 0.092977939444378,51.9435103595392 0.092708703160944,51.943447724575 0.092560923140072,51.943399110341 0.09237662798173,51.9433133881306 0.092174904453697,51.9432630365431 0.091995606640726,51.943256334904 0.091772845464372,51.9434706545651 0.091282322164036,51.9434038578781 0.090427581563375,51.9433291448315 0.089795218921896,51.9432458928158 0.089703412936866,51.9434310041532 0.08961768062702,51.943558382955 0.089363352975762,51.9438164989378 0.089206134150257,51.9440009726439 0.089095391446309,51.944091038045 0.088984877276795,51.9441550296369 0.088780959269057,51.9442459392214 0.08883062359682,51.9444059744968 0.088840466299239,51.9444938993925 0.08883145320553,51.9445813496378 0.088795533311323,51.9446835707237 0.088735552034038,51.9448024014118 0.088662342127765,51.9449179607267 0.088575895121426,51.9450300680481 0.088377252905319,51.9452656191882 0.088221436979355,51.9454185125486 0.088113320258703,51.9455032258184 0.087958210557973,51.9456093606069 0.087799638922817,51.9457029700477 0.087788136127401,51.9457058708973 0.087459066781717,51.9455768617745 0.087117838978054,51.9454030284165 0.086953539387788,51.9454688701932 0.086691182069389,51.9455545195126 0.086291787055768,51.9455696914092 0.086084828474596,51.9455616725887 0.086036545499528,51.9455553372308 0.085931587474523,51.9455220474328 0.085882263934166,51.9454932550522 0.085820312243114,51.9454431111848 0.085131046244845,51.9450749694778 0.084967305526375,51.9451839491141 0.084089685986907,51.9458064809472 0.083768058123649,51.9459956559821 0.08369739234825,51.9460706234191 0.083577342607757,51.9462112808056 0.083526726343357,51.9462813979284 0.083399621734276,51.9467098513798 0.083358670249658,51.9467995750335 0.083253309128365,51.9469750312851 0.083095196918909,51.9472988536914 0.082368175488369,51.9472164276449 0.082215768592143,51.9471948520432 0.081811504313064,51.9471362885858 0.08101285729773,51.9470461307646 0.080555684780198,51.9470083656313 0.079895013600629,51.9469130642829 0.079217280673104,51.9467963954377 0.078832835671846,51.9467564395947 0.078793205980786,51.9468749046743 0.07865905010574,51.9468691836312 0.078181766619189,51.9468686221313 0.077810284576781,51.9468598981731 0.077760692775639,51.94685897516 0.07711738152496,51.9468847138188 0.076364459873919,51.9468413631477 0.076323960619291,51.9468762384941 0.076187214431115,51.9470351619492 0.076084490273936,51.9472059808648 0.075687299042271,51.9472381574023 0.075463618154956,51.9472474954559 0.07429391718247,51.9472824995319 0.07391253178319,51.9472802306187 0.073460784389578,51.9473287332793 0.072849211934286,51.9473196377469 0.072852137308029,51.9475417224837 0.072801884678484,51.9477449669333 0.072471149277151,51.9484611604063 0.072360907418723,51.9487841252817 0.07231783230151,51.9489557781141 0.072295034952595,51.9490910255245 0.072287757224462,51.9491855459668 0.072288059900599,51.9493195782514 0.072303864701036,51.949503589334 0.072273251426365,51.9498179600168 0.072288156108948,51.9498888061034 0.072289535220261,51.9499499124566 0.072280764516386,51.9500120958432 0.072250797631562,51.9500881372838 0.072102688811098,51.9502535488153 0.072101249324508,51.9502535741573 0.071910337070711,51.9504690932848 0.071714205332197,51.9506964802974 0.07153015647018,51.9509335422656 0.071270956352861,51.9509614776258 0.071057156483375,51.9509643406161 0.070578279077449,51.9511201976114 0.070619751016375,51.9515151962323 0.070720815112092,51.9519405205801 0.070730072588119,51.9519826098757 0.07084448868115,51.9525075749521 0.070562809968796,51.9526806381641 0.070122114462787,51.9529078302146 0.069721110504313,51.9530146683021 0.069324683502472,51.9530333251098 0.069251709058314,51.9535984446943 0.069216562573909,51.9545108906503 0.069008919906467,51.9545513995017 0.067645528914688,51.9547804135118 0.066763396459352,51.9548705222587 0.066237393096365,51.9549525736484 0.066088775291706,51.9545361716058 0.066142121655167,51.954208817963 0.06624949584999,51.9540126640923 0.066402484370049,51.9539839086339 0.066498701510567,51.9537043462181 0.066498973461261,51.9534571239815 0.066421023763687,51.9531527513265 0.066330141474082,51.9528854642281 0.066558450752646,51.9528508909653 0.066439297946516,51.9526002810693 0.06636471343313,51.9522464059298 0.06616988096747,51.9518685711682 0.066114911767997,51.9517507818467 0.066102267842317,51.9516323394528 0.066068621665296,51.9513128055574 0.066049636551153,51.9509624494138 0.065934905288223,51.9504293936785 0.06593036931626,51.9503620498344 0.065738367651846,51.9501109202273 0.065457427007948,51.9497624643887 0.065199880943583,51.9494765246877 0.065025112680657,51.9492529594801 0.06481579385417,51.9490660486944 0.064747071969514,51.9489961454635 0.064666630726328,51.9488618109688 0.064505553115154,51.9486802564865 0.06448187198418,51.9486087539328 0.064491265627035,51.948528580084 0.064479506206012,51.9484946253962 0.064280327880786,51.9482436184753 0.064210574352648,51.948119884347 0.064096864805038,51.9478619839892 0.064049251885313,51.94771349959 0.063990341465874,51.9473791253667 0.063930036896018,51.9472390437365 0.063920579503318,51.9471924629877 0.063919826569417,51.9471447404799 0.063928690813244,51.9470843536441 0.063946099979651,51.9470193217397 0.063976697990256,51.946956756298 0.064128105839256,51.9467373589884 0.064302332596401,51.9464114825705 0.064354033850512,51.946079663187 0.064368229536703,51.9457880568608 0.064431282446898,51.9457033468868 0.064474354795414,51.945593725149 0.064509969183492,51.9455463540192 0.064625660749562,51.9451190207659 0.064664992397867,51.9448027005419 0.064684126361381,51.9447439319679 0.064676803049453,51.9446811321524 0.064581927759498,51.9444831333059 0.064527526189149,51.9442808294614 0.064423209164879,51.9440705012379 0.064320655342842,51.9438645464417 0.064319009719831,51.9438600800375 0.063996634245592,51.9433684195357 0.063972508082355,51.9433184999254 0.063953471559878,51.9432514110615 0.06394203495419,51.943161713542 0.063944315129411,51.9430833729285 0.063971121098398,51.942969632074 0.063976843153733,51.9428095142888 0.063900374155194,51.9423486028792 0.063813179608093,51.9420668643673 0.063785371910837,51.9419028390133 0.063789204133127,51.9417642396007 0.063834656791081,51.9416151115694 0.06384456828187,51.9414809008326 0.064035017929891,51.9410046110078 0.064130111546714,51.9407610292442 0.064132039482521,51.9407403184722 0.064130961893702,51.9406855003321 0.064103395731632,51.9404980079906 0.064075198191689,51.9402314166704 0.06404436459011,51.9401294734974 0.063882543409597,51.9397115001715 0.063879598104601,51.9395847059698 0.063895849169261,51.9394945237983 0.063896771758297,51.9393866302046 0.063849219401716,51.9390799243352 0.063769203821211,51.9389230180479 0.063758500393761,51.9388153282724 0.063802267137287,51.9386922103724 0.063802358976321,51.9385348878855 0.063865422458309,51.938356593689 0.063949439365242,51.9377778882744 0.063984140188268,51.9373294102876 0.064086309829851,51.9363546570054 0.064086487307465,51.9358204820721 0.064099247982174,51.935338316648 0.064020706457963,51.934735401505 0.06400296172293,51.9345396463839 0.064069492061754,51.9340556387999 0.064102364748836,51.933917429204 0.06410043229016,51.9339066758791 0.063641950562402,51.933743009568 0.063796422405936,51.9334633274835 0.06403561622096,51.9330985533494 0.064107018102602,51.9329740523189 0.064122741186728,51.9329351203432 0.064106420285351,51.932864386858 0.064126481267775,51.9327318863767 0.06419397466305,51.9325849783706 0.064240135671557,51.9325455125992 0.064286910496636,51.9324880567631 0.064295652452108,51.9324564392612 0.064314704152063,51.9322366651067 0.064385467378529,51.932004297585 0.064584131367365,51.9315485381055 0.064685125114349,51.9313399113465 0.064773778271346,51.9312125003701 0.06482252168188,51.9311639994084 0.064933068911416,51.9310693751844 0.064982794089955,51.931010968952 0.065028046417264,51.9309517410346 0.065100022722954,51.9308399039318 0.065168417524324,51.9308719666109 0.0653466840395,51.9307321038752 0.065493725356283,51.9305443344754 0.065541509996247,51.9304463165905 0.065573337418046,51.9302515792169 0.065571069458661,51.9295366630026 0.065636843406336,51.929070647711 0.065677547313305,51.9289125223846 0.065730453444681,51.9287641616923 0.065751721695967,51.9285641251005 0.065763885923299,51.9279101752988 0.0657901343058,51.9277532927627 0.065813126404891,51.9275568219116 0.06587198023575,51.9273813877837 0.065901547986601,51.9272027816867 0.06588726235084,51.9268918963197 0.065903686743289,51.9267117224271 0.065936761905318,51.9266068603325 0.065941392042999,51.9265510426939 0.065927988098964,51.9264811574335 0.065852792684323,51.9263322582818 0.065836231390107,51.9262875998062 0.065795124215103,51.9261211121715 0.065919566304177,51.9256324005923 0.065992983816549,51.9252363712221 0.066010422949205,51.9251722374282 0.06607739677627,51.9249830857691 0.066190262443735,51.9248453587198 0.066149440399008,51.9246850691178 0.066040239035537,51.9246806931682 0.065939077417595,51.9244729165445 0.065834301081093,51.9242203449448 0.065701235468698,51.9240149274496 0.065615472824404,51.9237924970244 0.065518063580663,51.923444413997 0.065387667959888,51.9228558940651 0.065331816758304,51.9226528062283 0.065315581990352,51.9226152441038 0.065158553203747,51.9224570822468 0.06504037556017,51.9223224216655 0.06496007344821,51.9222213474073 0.064848502737524,51.9220399129763 0.064732947628211,51.9220563233991 0.064704014424664,51.9219641467918 0.064683393896431,51.9219276506691 0.064654311279152,51.9218948981238 0.06450752303946,51.9217716159969 0.06429541841824,51.9215549966339 0.064252246610198,51.9215000174102 0.064212979886458,51.9214386768364 0.064092403084549,51.9211862908207 0.064035219289869,51.9210820228762 0.063884355440789,51.9208985806772 0.063805650623855,51.9207695186031 0.063495069276558,51.9200214409801 0.06326324337923,51.9196595316609 0.063240999244663,51.9194935208108 0.063213723398578,51.9194373633128 0.063182135057762,51.9193812814037 0.063043322017425,51.9192407766808 0.062847469172953,51.918870953976 0.062844581469937,51.9187766118547 0.062839496505219,51.9186004112817 0.062855339041084,51.9185354075536 0.062846159752566,51.9183980240896 0.062833775871636,51.9182561133849 0.06278978722258,51.9179610304946 0.062658932264013,51.9174867757722 0.062450327585978,51.9168699561138 0.062407307513389,51.9166926225995 0.06232426070442,51.9165313628764 0.062245203413305,51.9164230719227 0.062158957818085,51.9163175155474 0.061988658593657,51.9161254208163 0.061895510516275,51.9159948128723 0.061831077394034,51.9158916599644 0.061772872149286,51.9157622373531 0.061712984931581,51.9155673096643 0.061543814517134,51.9152375610847 0.061366522176896,51.9149241362692 0.061415512389399,51.9146903527279 0.061429669339864,51.9140156903539 0.061440173788925,51.913959769916 0.06146418510882,51.9139134118718 0.061502483852634,51.913859701399 0.061570672701657,51.9137937799741 0.061684285174865,51.9135444810024 0.061752989176168,51.9133302196309 0.061768983640687,51.913234557452 0.061767254427509,51.9131968306148 0.061453575603816,51.9125701631648 0.0613658554277,51.9123694299124 0.061336201750043,51.9122952443429 0.061341327716491,51.9122475085289 0.061350805276557,51.9122005957326 0.061402195226803,51.9120846257558 0.061478467140019,51.9120355538372 0.061556603614345,51.9120585481773 0.061671833889155,51.9119728341386 0.061711037977147,51.9119388855115 0.061769330802483,51.9118794301405 0.061815960091786,51.9118165839254 0.062094820614587,51.9113044946906 0.062198115436756,51.9110499813122 0.062198033100205,51.911048185181 0.062250069583764,51.9108836590664 0.062290523745097,51.9107201451947 0.062318330238678,51.9105030039455 0.06231601562009,51.9104211474249 0.062279293577496,51.9100306445358 0.062275412468122,51.9098518156914 0.062333716474035,51.9096331508249 0.062436837140236,51.9093435807355 0.062562765229067,51.9091749727248 0.062761431054382,51.9089719168232 0.063119454998269,51.908696756536 0.063886189803062,51.9082012792999 0.064273524943291,51.9079931151693 0.06434642301871,51.9079334022348 0.064485790597079,51.9077079205449 0.064585534281823,51.9074417805858 0.064715647420096,51.9069493739353 0.064781991948272,51.9067495360019 0.064895688579061,51.9064714635139 0.064969395378832,51.906366787575 0.065037219784593,51.9062279637459 0.065058387786121,51.9061511795871 0.065073964884514,51.9060466243602 0.065090257342409,51.9058322911333 0.065085103916163,51.9057200092293 0.065040704162401,51.9054159440645 0.065062462172195,51.9052266863752 0.065107193372252,51.9049660064464 0.065108531639843,51.9048985590136 0.065103716383686,51.9046369500263 0.0650856740831,51.9045284903284 0.064988135600463,51.9043044680219 0.064962999840143,51.9042320915019 0.064957297641959,51.9040738807344 0.065022723269891,51.9036321429807 0.064994743528737,51.9034977869347 0.064847042048035,51.9032566644721 0.064791144374632,51.9031146178621 0.065004531332596,51.9026010613978 0.065040982458669,51.9020033186555 0.065069856295499,51.9019038337309 0.065075134603609,51.9018282275808 0.065070276730779,51.9017536967401 0.065054502989714,51.9016946409025 0.065042840279649,51.9016624819784 0.064886762812832,51.9013666700827 0.064836898737119,51.9012281127545 0.064834558466922,51.9009890247877 0.064944670875323,51.9005365229907 0.065018954250764,51.9002879101124 0.064960023424712,51.899951737161 0.064919728325014,51.8993921991292 0.064833020404405,51.8988632321425 0.0647704609721,51.8984191538763 0.06463119133756,51.8979486440086 0.064912086167683,51.8979248366912 0.064835502444801,51.8977444966202 0.064625587684337,51.8974163653603 0.064373988689565,51.8969370377828 0.063973125183514,51.896469228495 0.063357962118893,51.8958253783927 0.063147956847708,51.8955889423401 0.062998785788859,51.8954090644039 0.062867221858463,51.8952341822258 0.062706964576988,51.8950058629574 0.062586688341085,51.8948209836002 0.06244309414504,51.894574392523 0.062383857576213,51.8944558662011 0.062304742818405,51.8942512965904 0.062239701737211,51.8940060253343 0.062227997919891,51.8939415041556 0.062173671117587,51.8934514324005 0.061856849552163,51.8918662372881 0.061645471413677,51.8912800286008 0.061418650867326,51.8905160928995 0.061338460870069,51.8900993812747 0.061255213810274,51.8898984784442 0.061185216248699,51.8896389100124 0.061099971003706,51.8894911727085 0.061226399800149,51.8894601905212 0.061030731376289,51.8890256336821 0.061041753291007,51.8877431336648 0.060888314438064,51.8872179389764 0.060772441506772,51.8868773663238 0.060675734303641,51.8861282301914 0.060530887510173,51.8861073928922 0.060505097113099,51.8858919991904 0.060562475604509,51.8852084868961 0.060586512903272,51.8851001877744 0.060599136318792,51.8849937970882 0.060590628508438,51.8848393209375 0.060572488614135,51.8847623264886 0.060478827246717,51.8844618185854 0.060399244056897,51.8842150031709 0.060304314707589,51.8839495777772 0.060282610167531,51.8834752050587 0.060249376032889,51.8830656715297 0.060229263770637,51.8829140953004 0.060197692345889,51.8827006002109 0.060154669639231,51.8824882048515 0.060083544719666,51.8822061805661 0.060030482745772,51.8820309098016 0.059995230875053,51.88195691075 0.059913572278436,51.8818243023659 0.0597257256633,51.881593765093 0.059608048789004,51.881467270585 0.059319600220809,51.8811953436027 0.059095366178867,51.8809627453758 0.058900021105955,51.8807252367321 0.058812991509405,51.8806008120443 0.058712265156867,51.8804335650378 0.058646159559414,51.8802898954667 0.058474971843317,51.8797552097039 0.058445876911553,51.8796900031526 0.058413753063695,51.8796240402682 0.058282749931464,51.8794600202975 0.058151743662321,51.8792959103138 0.057926869480406,51.8790804021592 0.057618020547193,51.8788385828473 0.05741419700854,51.8786065237624 0.0573177448906,51.8784985344998 0.057085290749695,51.8782454000054 0.056842170864766,51.8779160376794 0.056730167583933,51.8777848568267 0.056096297563767,51.8770747711051 0.055923258432257,51.8769131916952 0.056394422432614,51.8762871759243 0.056724577459595,51.8759127325804 0.056926736947133,51.8755998579276 0.057209666484175,51.8752091577333 0.05729536206656,51.8750818016043 0.057413708065318,51.8747802805714 0.057613560314848,51.8745114961183 0.057522485891389,51.8742666771675 0.057466820030009,51.8741939344988 0.057619044828712,51.8740599301591 0.057808765594432,51.8739496329167 0.057958002502559,51.8738787000647 0.058074211800923,51.873782273983 0.058200184100618,51.8736792941753 0.058785022470328,51.8736654654869 0.059016294854262,51.8735760155122 0.059249169179847,51.8735215966429 0.060214802799622,51.8730055754445 0.0604736724955,51.8728832746667 0.060827903833882,51.872656729156 0.061098676823533,51.8726376024521 0.061082714076632,51.8725740539379 0.061244767486498,51.8724326812873 0.061643957456541,51.8722674651479 0.062029773266318,51.8721293621636 0.062292369045415,51.8720258715401 0.062517683514749,51.8719661849281 0.062965632749197,51.8717883329094 0.063121326629777,51.8716966029312 0.06332247560977,51.8716166613454 0.06420368278974,51.8713197315326 0.064325951418446,51.8712618493487 0.064389482441736,51.8712211786991 0.064445549315338,51.8711770438219 0.064485698226808,51.8711357951511 0.064556685334641,51.8710356606529 0.06458943833767,51.8709245114287 0.064609739932286,51.8708944882464 0.064637586323033,51.8708670303809 0.064756317902456,51.8707947355937 0.064953342687837,51.8706249653415 0.065184449404077,51.8704697891739 0.065266841005365,51.8703964241041 0.065343119974858,51.8703177717283 0.065445432612702,51.8701747449767 0.065610639101067,51.8701026225258 0.065936707756789,51.8695789916381 0.066630550194479,51.8691881529672 0.066802509179394,51.8690727591114 0.066897619630337,51.8690261386066 0.067220272201225,51.868903601197 0.067630683078496,51.8687308858947 0.068064294607649,51.8685235990524 0.068299872271042,51.8684349530461 0.068488818567096,51.86837409657 0.06890730698935,51.8682210117806 0.069177692167979,51.8680975905062 0.06972990749214,51.867881020069 0.069862294220286,51.8678247515797 0.069987661076286,51.8677695056997 0.070224823631876,51.8676529585447 0.070914871205426,51.8674024923705 0.071154204645396,51.8672993910539 0.071370248149464,51.8672289722706 0.071473414786626,51.8672614070462 0.07161858522243,51.8671967310365 0.071979530532295,51.8671157588552 0.07249038203074,51.8670132651889 0.073427078170532,51.8667881057083 0.073674471958068,51.8667666640618 0.073979239102348,51.8667298270406 0.074472977772584,51.8666330209356 0.077013863085915,51.8658867093547 0.077271376888329,51.8656744964271 0.077311749165538,51.8656072583295 0.077320176287716,51.8655692621189 0.077314488263348,51.8655082310148 0.077173421335498,51.8651887950449 0.077045218102408,51.8649275655997 0.076979679983242,51.8648307329298 0.076898186371163,51.864733282669 0.07684931693787,51.8646811052873 0.076600264858622,51.8644453828631 0.076607397544145,51.8644416608766 0.076704913062239,51.8644138685724 0.077084618118751,51.8643352461182 0.07772265630116,51.8641845457 0.078308423888873,51.8640690174835 0.078516372704834,51.8640132017013 0.079177060936756,51.8638189428383 0.079548675642962,51.863658647408 0.079550110888857,51.8636586220366 0.079831351385244,51.8635510750012 0.079988687664416,51.8634988491218 0.080142131041981,51.8634556816195 0.0802727807711,51.8634246035817 0.080395189238383,51.8634017625503 0.08077324598124,51.8633474296326 0.081315951768483,51.8632748099545 0.081562905743523,51.8632443695387 0.082212039307291,51.8631789421904 0.082385326798291,51.8631273299927 0.082551351811928,51.8630740476123 0.082688005770494,51.8630122952269 0.082821498237364,51.8629469126462 0.083121398428517,51.8627743904 0.083638175326188,51.8624235329206 0.083823292877919,51.8622808204401 0.083908320528635,51.8622343645301 0.083983764030492,51.8622033619279 0.084082580655893,51.8621728435447 0.084170373835566,51.8621551062258 0.084344042267765,51.862140342636 0.084456232434022,51.8621167791477 0.08464796028766,51.8620549468975 0.084940248856141,51.8619382028301 0.085100441079724,51.8618832216712 0.085235177749583,51.8618448743528 0.085337155491773,51.8618205917925 0.085528940703545,51.8617911209409 0.085906171734359,51.8617529679713 0.086317774957791,51.8617330829714 0.087015611396405,51.861685643901 0.087227257171226,51.8616764951885 0.087648472408015,51.8617400415232 0.087879361020592,51.8617404382575 0.088236389413719,51.8617341009958 0.088363885489533,51.8617282415872 0.088697533954538,51.8616566918496 0.088845197682304,51.8615227277337 0.08883316975011,51.8614492237578 0.088816427527206,51.8613722083012 0.08866308466698,51.8610709829302 0.088540189514292,51.8606748228476 0.088448004052342,51.8605046619892 0.08935621651102,51.8602636975639 0.089706431578428,51.8602062340687 0.090291013828905,51.8600978578556 0.090828105974626,51.8599983243078 0.090909821443833,51.8599761954859 0.091067489131623,51.8599626046332 0.091308281536337,51.8599547279883 0.091495777820272,51.8599594859616 0.09171741673157,51.8599465544321 0.092014657819258,51.8599062088163 0.092273608384748,51.8598845221488 0.092276259881758,51.8599725760614 0.092294856738624,51.8601539310456 0.092432904366788,51.8603754142934 0.092585562872754,51.8605659812294 0.09270448251389,51.8606565520697 0.092763249289417,51.8607642840743 0.093003290707455,51.8608355286406 0.093337902082948,51.861161392492 0.093538822755242,51.8613287144103 0.093574071757657,51.8614611379425 0.093571368300837,51.8615601644232 0.093097586156797,51.8617726660577 0.093306230913915,51.8620108716941 0.093592027008361,51.862254896107 0.093924699132127,51.8623505612331 0.094122176203606,51.8624126721784 0.09427265509048,51.8624297713747 0.094418542866559,51.8625387383048 0.094792943096205,51.8626561329529 0.095232785578325,51.863088984093 0.095603033140883,51.8633692571212 0.095845362859865,51.8632704560758 0.096114237032855,51.8634617356273 0.096382081657576,51.8636925881238 0.096671340099556,51.8641648867131 0.096824917933568,51.8643770974407 0.097179480524693,51.8642556167595 0.097546322547593,51.8641483894372 0.097947799260198,51.8639749170909 0.09870673426446,51.8636781078474 0.098729361887601,51.8636651182876 0.098816365706833,51.8635996475206 0.098868553665596,51.8635348886911 0.098893578015015,51.8634499371844 0.09889701423499,51.8633977338825 0.098894433135095,51.8633114773096 0.098873836115133,51.8632137647232 0.098746969601535,51.8628887055189 0.099025402824165,51.8628504754323 0.099144759159051,51.8628240722728 0.099256693410244,51.8627951054937 0.099407758227278,51.8627321770843 0.099424606203012,51.8627210890262 0.099420198491502,51.8625313903636 0.099774284307048,51.8626185654404 0.100098139689482,51.8625246831609 0.100376922815877,51.8624298071429 0.100510717181951,51.8622789945684 0.100560402256778,51.8621297736724 0.100858871708259,51.8618330809314 0.10125860021952,51.861499517903 0.101664307105895,51.8614149574018 0.10212035386986,51.8613545768818 0.102263295053956,51.8613358404888 0.102559533363628,51.8612406472466 0.102948050133368,51.8610700859132 0.103135237056421,51.8609731546189 0.103443335343276,51.8608858376165 0.104017836365438,51.8606543212562 0.104283757827711,51.8605947266664 0.104668184489833,51.8605240205894 0.105428662402033,51.8604187146185 0.105429681681054,51.8605661309935 0.105564150646613,51.8606455324871 0.10592129976948,51.8606445338582 0.106222822709188,51.8606319433392 0.106524346911002,51.8606193520226 0.106797536194425,51.8605308536805 0.107374088017463,51.8604665866991 0.108095861376947,51.8603736434348 0.108889365996495,51.8603243605699 0.109064609794417,51.8603742591991 0.109261569540791,51.8603329700315 0.109582253243087,51.8602948554985 0.110181246986871,51.8602471635564 0.111331199047567,51.8602715683798 0.111722444769384,51.8602546573568 0.11186550849985,51.8601773820207 0.11194045473865,51.8601643498367 0.112019835424981,51.8601539348392 0.112783913400707,51.8600952639886 0.113352400863588,51.8600176281491 0.11363151640254,51.8599613704462 0.113885091881943,51.859947824124 0.114084615970905,51.859897490934 0.115007659424396,51.8597306768655 0.115911246002512,51.8595498203368 0.116888093698707,51.8593533447069</coordinates></LinearRing></outerBoundaryIs></Polygon>
  </Placemark>
