  <Placemark>
	<Style><LineStyle><color>ff0000ff</color></LineStyle><PolyStyle><fill>0</fill></PolyStyle></Style>
	<ExtendedData><SchemaData schemaUrl="#Wards__December_2019__Boundaries_EW_BFE">
		<SimpleData name="objectid">4078</SimpleData>
		<SimpleData name="wd19cd">E05009628</SimpleData>
		<SimpleData name="wd19nm">Skirbeck</SimpleData>
		<SimpleData name="wd19nmw"></SimpleData>
		<SimpleData name="bng_e">533542</SimpleData>
		<SimpleData name="bng_n">343766</SimpleData>
		<SimpleData name="long">-0.01266</SimpleData>
		<SimpleData name="lat">52.97464</SimpleData>
		<SimpleData name="st_areashape">2220303.6497989</SimpleData>
		<SimpleData name="st_lengthshape">8840.7789772387</SimpleData>
	</SchemaData></ExtendedData>
      <Polygon><outerBoundaryIs><LinearRing><coordinates>-0.005530159408864,52.9794367648206 -0.005799711792903,52.9796642856817 -0.005915612205206,52.9797345403282 -0.005872893952965,52.9797580920669 -0.005718299456754,52.9798480791538 -0.005429941694557,52.9799970320895 -0.005635196412852,52.9801326030976 -0.005786149211274,52.9802178267168 -0.006033805453348,52.9803074590725 -0.006441287027724,52.9804176571951 -0.00709437340591,52.9805661262416 -0.007584980491044,52.9806849945689 -0.007733049180957,52.9807369111035 -0.008094668757867,52.9808750979158 -0.008310389991183,52.9809462142671 -0.00865366689765,52.9810292630851 -0.008978187188042,52.9810661568406 -0.009451948912357,52.9810974592312 -0.009652399608738,52.9811107021681 -0.010166018044697,52.9811166016413 -0.010651337142854,52.9810914662943 -0.011141446179853,52.9810583190793 -0.012103807145705,52.9809287127449 -0.012605251188376,52.980875974393 -0.01288790221747,52.9808510375717 -0.013225574739051,52.9808288158534 -0.013450947387989,52.9808208969623 -0.013442985396179,52.9807668338603 -0.013435880788847,52.9807262678263 -0.013429546747738,52.9807009946896 -0.013402475222038,52.9805440558802 -0.013388427916379,52.9804620274221 -0.013376871867623,52.9803899278722 -0.013375360091812,52.9803881044344 -0.013363355191856,52.9803257947604 -0.013360214026174,52.9802978785982 -0.013348978548841,52.9802509517111 -0.013334437255205,52.9801770040992 -0.013330884256189,52.9801580701506 -0.013318382673626,52.9801039311889 -0.013305235300024,52.9800344115025 -0.01329061175272,52.9799622606894 -0.013276070639112,52.979891009442 -0.01326790306715,52.9798414374391 -0.013266554521964,52.9798387185373 -0.013258748604795,52.9798134207978 -0.013245560205221,52.9797447995083 -0.013228075064189,52.9796708026936 -0.013225788333356,52.9796563835489 -0.013211854633362,52.9796013215569 -0.013208425314984,52.9795796924028 -0.013198415148815,52.9795381787138 -0.013189960917694,52.9794948937431 -0.013167947872976,52.9793910703913 -0.013139434165776,52.9793941893931 -0.01315287169858,52.9793287992839 -0.01317482566921,52.9792410805352 -0.013189118922449,52.9791891865642 -0.013204884164661,52.9791373180856 -0.013224093317974,52.9790746308629 -0.01323588332932,52.9790451660006 -0.013246201221625,52.9790156774385 -0.013264458969518,52.978973736984 -0.013277598891979,52.9789469919401 -0.013277681279033,52.9789451951376 -0.013300478637799,52.9789033314256 -0.013368267240669,52.9788873858363 -0.01342577917449,52.9789000321865 -0.013643636156826,52.9789567027934 -0.013711970133448,52.9788967233124 -0.013724655368354,52.9788798579081 -0.013932636837309,52.9787286427233 -0.013983412935888,52.9786926389336 -0.013656906588583,52.9785038228506 -0.013501489394706,52.9784166464076 -0.013449505982195,52.9783825206087 -0.013417903382871,52.9783244679672 -0.01344968988214,52.9783142126472 -0.013698981677331,52.9783012999722 -0.013952771853222,52.9782893600977 -0.014273403933012,52.9782794350455 -0.014570309694018,52.9782700111495 -0.014894214905657,52.9782556445191 -0.015147634253158,52.9782517859054 -0.015198440894229,52.978247241247 -0.0153838354223,52.9782323593312 -0.015354972913273,52.9781787557477 -0.015337146809587,52.9781469990467 -0.01520161156792,52.9778857834893 -0.015082543399556,52.9776887491089 -0.015008297470314,52.9775534940117 -0.014972612741215,52.9774558244305 -0.014861078428057,52.9772552302439 -0.014826669816429,52.9771297182221 -0.014762759117225,52.9768975607586 -0.014694921274829,52.9766546421176 -0.014618337963047,52.9761174795989 -0.014528322138845,52.9756430101755 -0.014474333717871,52.9751970952585 -0.014429548375939,52.9749068305736 -0.014429713013663,52.9749032378281 -0.014606578720811,52.9749106855462 -0.014658525780441,52.9749133501537 -0.014689652595144,52.9749174653318 -0.014785607994149,52.974935246599 -0.014813748334726,52.9749402109851 -0.015228245341756,52.9750280255883 -0.015932080966105,52.9751719909352 -0.01596022163587,52.9751769541597 -0.015994333776627,52.9751802197112 -0.01599875255892,52.9751802934369 -0.016022722491049,52.9751770987665 -0.016057206274347,52.9751722804094 -0.016080115544148,52.9751600788409 -0.016034396438953,52.9747933981095 -0.016091008937817,52.9747907471336 -0.016244808139842,52.9747843246849 -0.016310418297338,52.9747809246076 -0.016316431002426,52.9747810249106 -0.01654177613598,52.9747703128653 -0.016623830404614,52.9747671868995 -0.016741879726872,52.9747610666182 -0.017092632426904,52.9747444448507 -0.017100036126198,52.9747436692101 -0.017228393246112,52.9747377203277 -0.017270237848751,52.9747357216442 -0.017419497432534,52.9747292219766 -0.017692532143548,52.9747175945477 -0.017835859897233,52.9747118936703 -0.017964216845038,52.9747059439872 -0.018096991012825,52.9747000677859 -0.018235777890119,52.9746942907425 -0.018371620926775,52.9746884652479 -0.018579086917231,52.9746793377152 -0.018782012040531,52.9746701341842 -0.018986491504192,52.9746618543951 -0.019186430069253,52.9746534995321 -0.019299856189146,52.9746490965154 -0.019392381277974,52.9746452444539 -0.019489364677337,52.974640567456 -0.019593793117868,52.9746369134386 -0.019597999578227,52.9746765321604 -0.019614493643485,52.9748368905269 -0.019620086647419,52.974907991818 -0.019626417450556,52.9749656233977 -0.019631849563315,52.9750106562195 -0.020356632213105,52.974989463694 -0.020368576705299,52.9749887642918 -0.020516322733269,52.9749831331066 -0.020690983651416,52.9749743550255 -0.0208955463063,52.9749642760284 -0.020982018163019,52.9749612211047 -0.02101928261449,52.9749600429166 -0.021068490050202,52.9749581652194 -0.021138722158699,52.9749557381911 -0.021219345304057,52.9749489902924 -0.021240041339177,52.9749529300929 -0.021256321569979,52.9749567964287 -0.021294688773201,52.9749637265935 -0.021315220791849,52.9749712582505 -0.021325529299635,52.9749741261351 -0.021337226201834,52.9749788153134 -0.021366840403733,52.9749811052492 -0.021375798531822,52.9749812542676 -0.021384715633228,52.9749823017019 -0.021387496929802,52.9749859434657 -0.021403119481111,52.9750041799308 -0.021430031318554,52.9750333906775 -0.021500667113994,52.9750840017101 -0.021579115864867,52.975127552559 -0.021618381574005,52.975149777751 -0.021635764277564,52.9751590551673 -0.021746562920893,52.9752122221689 -0.021789725736769,52.9751813906518 -0.021817419891951,52.9751611773594 -0.02190741427266,52.9751132379808 -0.021925781639471,52.9751036560452 -0.021994381626149,52.975069741893 -0.022071816078105,52.9750359755102 -0.022082452670002,52.9750316577906 -0.022171789578645,52.9750007847674 -0.022238178772825,52.9749803166028 -0.022274503239553,52.9749701349979 -0.022380039181923,52.9749422275638 -0.022465570426006,52.9749274703325 -0.022518010078453,52.974919353879 -0.022541979523355,52.9749161568801 -0.022630456549715,52.9749041458016 -0.022717256148046,52.9748939031721 -0.022846068349452,52.97487797794 -0.022896994041372,52.9748734316505 -0.022944852365633,52.9748688334551 -0.0232922136497,52.9747973066764 -0.023352384997598,52.9747839255529 -0.02346205029406,52.9747623776806 -0.023609470395659,52.9747315705634 -0.023752554331092,52.9746961966241 -0.0238006976407,52.9746853109271 -0.023969305790438,52.9746449680053 -0.024073204114612,52.9746206273673 -0.024086743251481,52.9746172576857 -0.024171128216733,52.9745979855962 -0.024186144891573,52.9745945496384 -0.024365141357965,52.9745552778208 -0.024440404220358,52.9745394495203 -0.024498937650777,52.9745296361113 -0.024618746586249,52.9745145475433 -0.024867892432156,52.9744719453779 -0.025510245648784,52.9743648616591 -0.026107360506824,52.974269518526 -0.026540937440895,52.9742030076355 -0.026745903546358,52.9741812406026 -0.027139925914843,52.9741311497005 -0.027403014850531,52.9740761897298 -0.027606302949046,52.9740292258271 -0.027796055886397,52.9741474245005 -0.027948751174011,52.9742596147723 -0.027984829179792,52.9743195363356 -0.028061439902893,52.9743685351033 -0.028160631452293,52.9744151209602 -0.028546971653696,52.9745338808482 -0.029168673828561,52.9747159519001 -0.029567617463771,52.9748519947264 -0.029743427358151,52.9749178259382 -0.029754963335436,52.97492610621 -0.02997343833299,52.9750664390535 -0.030016798997464,52.9750959202504 -0.030374686778196,52.9753491179043 -0.030400663773419,52.9753666255196 -0.030464150649655,52.9754126189953 -0.030527474819187,52.9754595079423 -0.03058945065106,52.9755063754321 -0.030626799343114,52.9755357568087 -0.030667052293427,52.9755687808462 -0.030707183219235,52.9756018037499 -0.030745921960774,52.9756357026882 -0.030784536163676,52.9756696885635 -0.030821762264023,52.9757044606332 -0.030857394407638,52.975739206304 -0.030870157859393,52.9757529004528 -0.030908571835253,52.9757939840389 -0.030946821520915,52.9758359639903 -0.03098212583899,52.9758778951724 -0.031015918948392,52.9759206995258 -0.031025777884313,52.9759334464819 -0.031058052701223,52.975977214697 -0.031089717952007,52.9760343657532 -0.031120116833297,52.976087002156 -0.031138406378851,52.9761439317907 -0.031149949846665,52.9762169289947 -0.031171021730595,52.9762774992681 -0.031198188404885,52.9763688215166 -0.031287658337483,52.9764646805884 -0.031335195384429,52.9764996240778 -0.031402201696374,52.9765330906937 -0.031472235153043,52.9765648109794 -0.031633446528575,52.9766223975886 -0.031886252535116,52.9766966907675 -0.031895889498028,52.9765196886406 -0.031916657948767,52.9764220586304 -0.031929733663875,52.9762991347124 -0.031946696082576,52.9761528140709 -0.031969670168356,52.9760417385805 -0.031992441267603,52.9759000086166 -0.032005356769914,52.9758130351034 -0.032010170612544,52.9757070510048 -0.032014539717987,52.9756108579021 -0.032024876831203,52.9755157516472 -0.032026753332791,52.9754744368294 -0.032030791962071,52.9753855182407 -0.031998786278761,52.9752033332272 -0.031996119837271,52.9751322801736 -0.031961543548686,52.9750391279978 -0.031928886820437,52.9748740096239 -0.031899626862367,52.9747638670272 -0.031814275896323,52.9745124875874 -0.03175744961406,52.974384720527 -0.03162149964103,52.9741334917278 -0.03150248963542,52.9738986333646 -0.031351245352427,52.9736218936391 -0.031278628900065,52.9734498217556 -0.031142560556797,52.973201287672 -0.031082098847914,52.9730887402348 -0.03102216124959,52.9729322490285 -0.030981084956468,52.9727876638947 -0.031057743674362,52.9729031759098 -0.030916891739143,52.9725951481377 -0.0308394866038,52.9723636741619 -0.030763785278247,52.9719650428093 -0.030725269792702,52.9716317441542 -0.030791425483117,52.9713568054817 -0.030869852658958,52.9711063383917 -0.031031259548553,52.9707997197284 -0.031202937481895,52.9705588852648 -0.031430561452816,52.970302798154 -0.031709433906572,52.9700970846546 -0.031988836194815,52.9698823010814 -0.032375591499491,52.9696288451237 -0.032912279103996,52.969385956882 -0.033296947418817,52.9692134488322 -0.033786488631464,52.9690920193929 -0.034126379231383,52.9689834846353 -0.03453445166594,52.9689174224688 -0.035088043248313,52.9688618531494 -0.035532604528754,52.9688440292813 -0.035923630189229,52.9688262187858 -0.036191475154371,52.9688306416186 -0.036460059442356,52.9688512553195 -0.036581051919839,52.9685466576709 -0.036575204206351,52.968545662037 -0.034617771317778,52.9682633647954 -0.034496343148129,52.9682469771258 -0.033497884844126,52.9681000506364 -0.032630754940968,52.9679760518917 -0.031211021942494,52.9677915765762 -0.030648060958797,52.9676941699299 -0.029323427085223,52.9675140337479 -0.029322853874153,52.9674942494658 -0.028947705329328,52.9674277205188 -0.028669275543547,52.9673592888102 -0.028389578770568,52.9672890363422 -0.028088288799528,52.9672022468131 -0.027796528199271,52.9671326929189 -0.027588858374702,52.9670824195582 -0.027204673794718,52.9670176233095 -0.027025709222912,52.9669894870729 -0.026857092785922,52.9669633195412 -0.026786055800954,52.9669540518138 -0.02658774886159,52.9669273913098 -0.025785238683539,52.9667927296629 -0.025726142930656,52.9667827604089 -0.025533526583295,52.966760597284 -0.0253809834694,52.9667427836796 -0.0251984640957,52.9667280685568 -0.024870926324723,52.9666947656398 -0.024826595123304,52.9666868384275 -0.02442487405722,52.9666136517438 -0.024098895247273,52.9665462166465 -0.023662782572565,52.9664760514988 -0.023624301077592,52.9664718165414 -0.023585735524606,52.966466681973 -0.023538378077021,52.9664605021874 -0.023492493821734,52.9664543459658 -0.023446649022424,52.9664472921805 -0.023411110873621,52.9664431060685 -0.023375613663923,52.9664380224246 -0.023338644855354,52.9664329134133 -0.023289855320882,52.9664258106262 -0.023264582230875,52.9664226941773 -0.02322609933746,52.9664184590668 -0.023187534498234,52.9664160207833 -0.023148888624009,52.9664126820396 -0.023123700730503,52.9664103752683 -0.023099981836382,52.9664081837182 -0.023076302435895,52.966405093719 -0.023014182654725,52.9663968701414 -0.022983020039642,52.9663936557335 -0.022950385782731,52.9663904168543 -0.022916278396377,52.9663871534778 -0.022883603207716,52.9663848121015 -0.022853994779672,52.9663825225966 -0.022824262890729,52.9663802301329 -0.022796085130556,52.9663788634979 -0.022772284342189,52.9663784678232 -0.022721532550002,52.9663794213901 -0.022696217641373,52.9663798996288 -0.022669390139718,52.9663812509165 -0.022642398143301,52.9663834985643 -0.0226320511679,52.9663842256397 -0.022620110528828,52.9663849262184 -0.022599130106026,52.9663872738035 -0.022588620163716,52.9663888963675 -0.022578149681044,52.9663896213848 -0.022543797955411,52.9663917466459 -0.022524371112004,52.9663923227457 -0.02249754359831,52.9663936739945 -0.022442334365973,52.9663954524299 -0.022360250987213,52.9663995711923 -0.022346878199962,52.9663993488288 -0.022334937593832,52.9664000484803 -0.022322995458354,52.9664007490042 -0.022302015013133,52.9664030965367 -0.021848629509075,52.9665177992295 -0.021816935442706,52.9665262612927 -0.021785239917119,52.9665347224241 -0.02175358538607,52.966542285128 -0.021709989182621,52.9665532446981 -0.021666228443245,52.9665651006165 -0.021621036996962,52.9665760345185 -0.021559240944446,52.966592983202 -0.021527545321152,52.9666014442639 -0.021498957509183,52.9666090579155 -0.021470206615825,52.9666175688475 -0.021441620271439,52.9666251825099 -0.021412910411345,52.9666327941106 -0.021385794171856,52.9666404331154 -0.02135867945198,52.9666480712402 -0.021328415876863,52.9666574551748 -0.021299704944917,52.9666677640341 -0.021269400367597,52.9666780454737 -0.021243675224291,52.9666875048934 -0.021192179783756,52.9667074119765 -0.021181628695153,52.9667099328337 -0.021170994120181,52.9667142496041 -0.021161834134373,52.9667185918069 -0.021141997057987,52.9667281491707 -0.02110248889375,52.9667463675491 -0.02103885166903,52.9667713745443 -0.021006909721821,52.9667852250785 -0.02095357846371,52.9668104035127 -0.020938445327627,52.9668164436099 -0.020894397023867,52.9668345863729 -0.020847487373395,52.9668508842021 -0.020823235185447,52.9668603680432 -0.020743114339092,52.9668886960859 -0.020410116232188,52.9670045884384 -0.020108978374868,52.9671110319369 -0.019906079272904,52.9671849551939 -0.019701707454102,52.9672561562857 -0.019680521252148,52.9672629945338 -0.019639827600659,52.9672749007705 -0.019535531620072,52.9673083081561 -0.0193691542103,52.9673648620313 -0.019166499007274,52.9674333943958 -0.019127112207796,52.967446220425 -0.019097051709084,52.9674538098685 -0.019062328056285,52.9674640171401 -0.019038157229967,52.9674717046644 -0.018979303768225,52.9674887010142 -0.018824092287034,52.9675292599039 -0.018786301597854,52.9675394169052 -0.018714074833019,52.9675561903531 -0.018632809285426,52.9675746113801 -0.018533584193685,52.967596417661 -0.018440417050221,52.9676146402761 -0.01839391630827,52.9676219556346 -0.01838041998274,52.9676244271717 -0.018297968531602,52.9676365353673 -0.018256007504295,52.9676412298695 -0.018181205159808,52.9676498708001 -0.01814983671728,52.9676511453763 -0.018119981000144,52.9676515469516 -0.018088777147546,52.9676519251541 -0.017984488683347,52.9676528844732 -0.01788470046411,52.9676521196039 -0.017782049492396,52.9676495105341 -0.017315376851993,52.9676300458479 -0.017027096859054,52.9676162512198 -0.016745971660981,52.96760976621 -0.016553920001421,52.9676074616043 -0.016160817680619,52.9676062986493 -0.016108755861602,52.9676063284 -0.016011828890513,52.9676074087871 -0.015934328075423,52.9676106095811 -0.015722562648788,52.9676151666476 -0.015645061803835,52.9676183672519 -0.01549439565094,52.9676239433519 -0.015368962895238,52.967630838548 -0.015364505264081,52.9676316623613 -0.015258416034037,52.9676370829358 -0.015164228323702,52.9676453984435 -0.014940025108305,52.9676641276293 -0.014586704722864,52.9677058685447 -0.01449819926731,52.9677187720796 -0.014451697856812,52.9677260849294 -0.01442912122869,52.9677311017001 -0.014400572645702,52.9677378151608 -0.014380940862708,52.9677428810885 -0.014365847678391,52.9677480218907 -0.014350755978636,52.9677531627156 -0.014294267625987,52.9677827808472 -0.014265473522486,52.967792186574 -0.014205434194614,52.9678028696806 -0.014102001267673,52.9678173218631 -0.013955004478308,52.9678419219701 -0.013896519038543,52.9678508326693 -0.013815662670525,52.9678602679308 -0.013749774559872,52.9678672576276 -0.013743804014432,52.9678689552109 -0.013734806227959,52.9678697040347 -0.013727321302908,52.9678695790256 -0.013721391888923,52.9678703790947 -0.013713948137769,52.9678693556733 -0.013684256943986,52.9678688597796 -0.01367382864339,52.9678686856074 -0.013605448490639,52.9678657453095 -0.013492327935641,52.9678638558601 -0.013339209929193,52.9678586017648 -0.01321717394592,52.9678556649235 -0.013133949008658,52.9678524763605 -0.013058167828404,52.9678476148044 -0.012985494695372,52.9678419069286 -0.012903948849563,52.9678342525623 -0.012812179180892,52.9678219327139 -0.012748750996044,52.9678100872751 -0.012642470246041,52.9677875475203 -0.012493368331096,52.967758990074 -0.012447525553442,52.9677519320553 -0.012334167929912,52.9677230717747 -0.012107617769356,52.9676644563535 -0.012088437470134,52.967659641158 -0.012069258663234,52.9676548259843 -0.01203249620801,52.9676452231912 -0.011960400327377,52.9676269405582 -0.01190449887287,52.9676116240991 -0.01179879161604,52.967579296609 -0.011747306755154,52.9675640548112 -0.011644462178905,52.9675335723432 -0.011587171674998,52.9675164352161 -0.011529881216408,52.9674992980627 -0.011472630493086,52.9674812633471 -0.011433092445262,52.9674679285581 -0.011390440780436,52.9674555298028 -0.011349262258485,52.9674431565645 -0.011302276544537,52.967428888009 -0.011256805202473,52.9674137465593 -0.011209819550794,52.9673994779689 -0.011108529823693,52.9673672237495 -0.011058681860259,52.9673511099353 -0.011004336652331,52.9673340217894 -0.010951586661198,52.9673169602985 -0.010897198819425,52.96730077049 -0.010854590150757,52.967287474066 -0.010813533960043,52.9672751026919 -0.010772397007278,52.9672618308547 -0.010732690551425,52.96724948113 -0.010694579247798,52.9672371589732 -0.010641788420019,52.967218299367 -0.010625717997814,52.9672126377602 -0.010586217567958,52.9671984941362 -0.010536247973668,52.967182378073 -0.010511386036739,52.9671729738909 -0.010485011251306,52.9671644425953 -0.010458554168073,52.9671550117179 -0.010430747453855,52.9671455582569 -0.010401392437577,52.9671350898794 -0.010373585748539,52.9671256364057 -0.010344267877095,52.9671143594474 -0.010285752668711,52.9670918084253 -0.010260890837657,52.9670824041938 -0.010237543407512,52.9670721261959 -0.010212681598096,52.967062721955 -0.010184794223171,52.9670523679899 -0.010132167106177,52.9670326118009 -0.010082239159864,52.9670155970726 -0.010058809333733,52.9670071158196 -0.010031044074815,52.9669967638152 -0.010003198020901,52.9669855122491 -0.009975475528678,52.9669742618449 -0.009952085509898,52.9669648821344 -0.009928696989338,52.9669555024443 -0.009903876590142,52.9669451996869 -0.009873127061854,52.9669330004024 -0.00984237759224,52.9669208002116 -0.009813223256722,52.9669086276053 -0.009789834796933,52.9668992478886 -0.00976795925442,52.966888994383 -0.009746083722292,52.9668787408734 -0.009719831487358,52.9668675159123 -0.009693458777855,52.9668562880301 -0.009668720965771,52.9668441892994 -0.009642511559322,52.9668320650363 -0.00961474823044,52.9668190165577 -0.00956678974057,52.9667938554365 -0.009524553233128,52.9667724754836 -0.009501245943627,52.966761298863 -0.009477981374262,52.9667492247495 -0.009456188463995,52.9667371752629 -0.009430020403105,52.9667241534409 -0.009405365265925,52.9667102578335 -0.009377643350195,52.9666963108893 -0.009309278821316,52.9666610105868 -0.009275832399464,52.9666433731872 -0.009223661539864,52.9666137367123 -0.009167031883959,52.9665822273702 -0.009136531836873,52.9665646392522 -0.009104515971709,52.9665479239543 -0.009082723266696,52.9665358744015 -0.00906093057381,52.9665238248447 -0.009053775712822,52.9665192104545 -0.009039137934321,52.9665117743858 -0.008981042482882,52.9664801514037 -0.008953525369985,52.9664644104818 -0.008925886260761,52.966448667511 -0.008901355219271,52.9664320774663 -0.008878297319187,52.96641551208 -0.008865337250215,52.966406306772 -0.008853848820757,52.9663971261013 -0.008843792285218,52.9663888676063 -0.00881349734865,52.9663667882243 -0.008784756303978,52.9663456339536 -0.008754420193088,52.9663244520702 -0.008727109559646,52.9663042208374 -0.008667786766537,52.9662645769349 -0.008647713250025,52.9662498596781 -0.008626044656338,52.9662351148103 -0.008605847663889,52.9662203954788 -0.008581358152464,52.9662029069593 -0.008556705365626,52.9661863148032 -0.008532215851886,52.9661688271724 -0.008481934510937,52.9661301437668 -0.008458875442708,52.9661135782775 -0.008435776598118,52.96609791122 -0.008414149393138,52.9660822688023 -0.008395384412372,52.9660684716182 -0.008379644907625,52.9660556241994 -0.00836087994927,52.9660418270101 -0.00831905600072,52.966011465201 -0.00829738763733,52.9659967202756 -0.00827735565477,52.9659811045477 -0.008255687279369,52.9659663605134 -0.008235490578322,52.9659516402231 -0.008189499631422,52.9659158148633 -0.008175027270448,52.9659047868441 -0.008160676972808,52.9658937599683 -0.008142077221887,52.9658763708981 -0.008129200045252,52.9658653686908 -0.008106310451468,52.9658451214471 -0.008094865106728,52.96583504232 -0.008084848604453,52.9658258862259 -0.008076387462799,52.9658176543852 -0.008066331167215,52.9658093967256 -0.008059135564361,52.9658029842855 -0.008048996737746,52.9657965225483 -0.008041924641949,52.9657901121758 -0.007981377738094,52.9657450546013 -0.007863433274608,52.965655890315 -0.007669127240989,52.9655078321894 -0.00763176157021,52.9654793412261 -0.007611565264876,52.9654646217325 -0.007591370461176,52.9654499022607 -0.007572810624885,52.9654343101745 -0.007552614360404,52.9654195906714 -0.007532419597542,52.9654048711899 -0.007512182101688,52.9653910491926 -0.007490473020491,52.965377202537 -0.007445624562426,52.9653485870462 -0.007422483699476,52.9653338181857 -0.007361772534795,52.9652950494563 -0.00734006354959,52.9652812027742 -0.007318354578236,52.9652673560883 -0.007295215289866,52.9652525872288 -0.007257684863228,52.9652276897954 -0.007237406231947,52.9652147661638 -0.007212798091101,52.9651998818663 -0.007186632009623,52.9651841631645 -0.007160548140698,52.9651693449373 -0.007137450306997,52.9651536767391 -0.007114350960679,52.9651380094102 -0.007091211810676,52.9651232405124 -0.00707240635451,52.9651103415385 -0.007056667586515,52.965097493952 -0.007037862151728,52.9650845949729 -0.007006095965211,52.9650624904634 -0.00697739797178,52.9650404373629 -0.006922659553785,52.9649999702914 -0.006895185832851,52.9649806340973 -0.006777453645932,52.9648869785466 -0.006748595200834,52.9648657318928 -0.00672275952464,52.9648455240089 -0.006695450764362,52.9648252923284 -0.006669450320771,52.9648059807739 -0.006645046465062,52.9647866959741 -0.006619209395877,52.9647664880437 -0.006597542188092,52.9647517437192 -0.006577389418355,52.9647361247733 -0.006555763558697,52.9647204820311 -0.006521343888096,52.964692040989 -0.00650405168084,52.9646782681853 -0.006482508475414,52.9646608295082 -0.006461046018968,52.9646442903844 -0.006439502888863,52.9646268508014 -0.006400669080868,52.96459563932 -0.006383581563888,52.9645800726227 -0.006313317032303,52.9645194811106 -0.006092948132442,52.9643270289718 -0.005879491988519,52.9641417934374 -0.005664683984183,52.9639566247474 -0.005474370351255,52.9637888541106 -0.005248083008208,52.9635944138772 -0.004949923910685,52.9639239624796 -0.004831917148478,52.9640631015369 -0.004585654659994,52.964299951092 -0.004512749505278,52.9643634443744 -0.004298276453959,52.9644937732185 -0.004171660823072,52.9644305273928 -0.004041646044825,52.9643771109205 -0.003765994826414,52.9643482157287 -0.003325506572647,52.9643102606161 -0.002875442610902,52.9642856251163 -0.002458506844316,52.9642534551163 -0.002314402637974,52.9642447426673 -0.002523827917881,52.9644505010343 -0.003003864133391,52.9649225466985 -0.003274806552867,52.9651203474261 -0.003514959966458,52.965304238515 -0.003350643049978,52.9656062785848 -0.003329024991026,52.9656544537206 -0.003246357612357,52.9658338232682 -0.003238480708246,52.9661007381026 -0.003294820633946,52.9662050511932 -0.003404012733153,52.9663560932267 -0.003620876713975,52.9665926248343 -0.003828347140625,52.9668092234927 -0.003905843416542,52.9669687204625 -0.004074918267049,52.9673392737267 -0.004165569728728,52.96760244743 -0.004280110364473,52.9680908212542 -0.004312067090209,52.9681407934385 -0.003886682265521,52.9681606200846 -0.003448898556595,52.9681937189973 -0.002992745764094,52.9682363951964 -0.00256163904445,52.9682498282209 -0.002070729922394,52.9682713341003 -0.002056371690602,52.9684229960253 -0.002072242973732,52.9685634820465 -0.002074256013142,52.9689699700942 -0.002051488562105,52.9693040458165 -0.002030745250306,52.9694636905017 -0.002049478622873,52.9696699287049 -0.002089693546968,52.9698630458547 -0.002208704173297,52.970091552546 -0.002311198990653,52.9702281899184 -0.002319700630127,52.9702382200858 -0.00200509893586,52.9702437213781 -0.001562754682368,52.9702767359789 -0.001348755181045,52.9703001035754 -0.001111804791006,52.9703365677614 -0.000684989996666,52.9703869172101 -0.000189787944017,52.970437102957 -0.00030364799581,52.9706466495962 -0.000470274685588,52.970910204796 -0.000637609977868,52.9711557952058 -0.000795260099873,52.9713877397227 -0.000996505530912,52.971641000047 -0.00119702140137,52.9718781593964 -0.001385283468917,52.9720908431753 -0.001601458084684,52.9723453425606 -0.001782386120923,52.9725227582235 -0.002060051849443,52.9728313205267 -0.002244466551266,52.9730637123375 -0.002434067623113,52.9733141675132 -0.002601592973631,52.9735560725361 -0.002787154219278,52.9737956737826 -0.002986779392758,52.9740525883619 -0.003154842293401,52.9742856033386 -0.003334486713861,52.9745871240267 -0.003352591569194,52.9746152918882 -0.003473608856788,52.9748006871196 -0.003547086672496,52.97491975802 -0.003796470619909,52.9753896327942 -0.00419609866462,52.9760266000825 -0.004300434337539,52.9762837090886 -0.004327755932707,52.976370454836 -0.004343463375504,52.9764507147448 -0.004386945584759,52.9766052342745 -0.004387550483493,52.9766241198644 -0.004390771324696,52.9768795317807 -0.004416682389527,52.9771568953898 -0.004466386231772,52.9774670173311 -0.004534416586568,52.9777045515099 -0.004536989884104,52.9777126837815 -0.004638716647178,52.9779625578295 -0.004746459154918,52.9782125327424 -0.004853417639204,52.9784768762083 -0.005002970588483,52.9787230579135 -0.005146474720664,52.9789699471426 -0.00530706713397,52.9792351900385 -0.005530159408864,52.9794367648206</coordinates></LinearRing></outerBoundaryIs></Polygon>
  </Placemark>
