  <Placemark>
	<Style><LineStyle><color>ff0000ff</color></LineStyle><PolyStyle><fill>0</fill></PolyStyle></Style>
	<ExtendedData><SchemaData schemaUrl="#Wards__December_2019__Boundaries_EW_BFE">
		<SimpleData name="objectid">7670</SimpleData>
		<SimpleData name="wd19cd">W05000559</SimpleData>
		<SimpleData name="wd19nm">Bryn-coch North</SimpleData>
		<SimpleData name="wd19nmw">Bryn-coch - Gogledd</SimpleData>
		<SimpleData name="bng_e">274655</SimpleData>
		<SimpleData name="bng_n">200490</SimpleData>
		<SimpleData name="long">-3.81473</SimpleData>
		<SimpleData name="lat">51.689129</SimpleData>
		<SimpleData name="st_areashape">5758026.47101845</SimpleData>
		<SimpleData name="st_lengthshape">12134.5732835847</SimpleData>
	</SchemaData></ExtendedData>
      <Polygon><outerBoundaryIs><LinearRing><coordinates>-3.83352251801364,51.697980231156 -3.83335800472914,51.6977417817797 -3.83324322623932,51.6975529891728 -3.8332096310626,51.697471616291 -3.83307555527695,51.6966608528877 -3.83308187404469,51.6966400773672 -3.83309227816893,51.6966111477302 -3.83311571522695,51.6965829140814 -3.83314378095031,51.6965600018482 -3.83316222197071,51.6965498262836 -3.83324759473345,51.6965160415005 -3.83334619658785,51.6964848370499 -3.83344487242603,51.6964554298288 -3.83363957686336,51.696402050034 -3.83370817258462,51.6963812031188 -3.83379961013298,51.6963528068452 -3.8338323323233,51.6963388114404 -3.83387632868453,51.6963174489606 -3.83392003574933,51.6962888989033 -3.8339269450647,51.6962798014634 -3.83393337239666,51.6962617210006 -3.83393199161477,51.6962275815402 -3.83392131201062,51.6962142641457 -3.83389683139881,51.6961812934906 -3.83388142362222,51.6961572617479 -3.83386777309711,51.6961412929969 -3.83384817116877,51.6961227202899 -3.83378235531694,51.6960707075481 -3.8335524379866,51.6958935103502 -3.83347931386743,51.6958407122082 -3.83337592819109,51.6957506289815 -3.83334421561474,51.6957187601706 -3.83332003141176,51.695693067673 -3.83330028315982,51.6956709011228 -3.83327019357116,51.6956408045485 -3.833256206914,51.6956194473656 -3.83325617061767,51.6956185495969 -3.83325470261988,51.695617673258 -3.83324535565021,51.6955989405154 -3.83323727891243,51.6955791988041 -3.83323358309147,51.6955585803563 -3.83321179346537,51.6954150841051 -3.83321217180071,51.6953890076114 -3.83319726421607,51.6953065339547 -3.83318202618922,51.6952158851169 -3.83318052335789,51.6952141109856 -3.83317033005228,51.6951774112511 -3.83315401357066,51.6951309190314 -3.83314103256109,51.6950960612377 -3.83313952828932,51.6950942871284 -3.83311769789332,51.6950559713036 -3.83304111768769,51.6949500973525 -3.83301366166567,51.6949172637428 -3.83289527603524,51.6947806673407 -3.83280215265448,51.6946580610724 -3.83271632960939,51.6945064826884 -3.83270658224147,51.6944778672702 -3.83267577217681,51.6943974399628 -3.83267269252433,51.6943920943732 -3.83266943131175,51.6943822563431 -3.83266121489134,51.6943590106575 -3.83264116386111,51.6942909113491 -3.83262956938996,51.6941841138385 -3.83262597493287,51.6940951717825 -3.83263391045268,51.6937542455183 -3.83264263052686,51.6934681450011 -3.83264165023999,51.6934438881558 -3.83263968600228,51.6933952836995 -3.8326158585798,51.6933075554269 -3.8325479789252,51.6932043331409 -3.8324554672628,51.6930996954627 -3.83242034736305,51.6930543055942 -3.83237804272067,51.6930082184099 -3.8323673628695,51.6929948999844 -3.83234915676797,51.6929754060442 -3.83246548581877,51.6929520172029 -3.83247837393936,51.6929491194726 -3.83248116161893,51.6929472784431 -3.83249842385032,51.6929434132832 -3.83256551215347,51.6929207920094 -3.83260105623438,51.6929058536891 -3.83262514526011,51.6928937916616 -3.83264351229413,51.6928818188438 -3.83267432880898,51.6928561669963 -3.83269640526869,51.6928297521814 -3.83271374453454,51.6927953208142 -3.83272826437607,51.6927590450134 -3.83274729897989,51.6927281832442 -3.8327485838691,51.6927245671716 -3.83276232111046,51.6927072729163 -3.83277896597754,51.6926881348528 -3.83275804336783,51.6926722793704 -3.83275499049261,51.6926705294032 -3.8326766968961,51.6925575797886 -3.83272995398212,51.6925144970728 -3.83275382492823,51.6924970448084 -3.83292684,51.6923737937677 -3.83291404157917,51.6923434283695 -3.83289550873127,51.6923158491957 -3.83288160556771,51.6922935914331 -3.83280478020875,51.6921815182399 -3.83279853745192,51.6921717267029 -3.8327844528603,51.6921449773847 -3.83273320186739,51.6920575863134 -3.83265243820115,51.6919572599105 -3.83254328514578,51.6917979532031 -3.83252733534769,51.6917604444595 -3.83252352033456,51.6917398276432 -3.83252610128374,51.6917298984271 -3.83252338968423,51.6917011730178 -3.83252634960909,51.6916651679361 -3.83251820512318,51.6916437193777 -3.83250309018714,51.6916268739119 -3.83246007036526,51.6916014737682 -3.83245566976029,51.6915988455461 -3.83243574391383,51.6915721870003 -3.83242900441558,51.6915471204594 -3.83242607150623,51.6915129149148 -3.83242277433589,51.6915021780996 -3.83240122645606,51.6914323928596 -3.8322947751759,51.6913783155239 -3.83214320154185,51.691350113084 -3.83200805900333,51.6912650182273 -3.83196284773619,51.6912207733673 -3.83195300091816,51.6910832923228 -3.83197295765813,51.6910398292942 -3.83200538648414,51.6910186475371 -3.83201541107027,51.6910157944536 -3.83205040971071,51.6909873804819 -3.83206980714849,51.6909655025872 -3.83208053748161,51.6909446581332 -3.83208535204937,51.6909221083048 -3.83208455377051,51.6909023436969 -3.83207171663746,51.6908709893615 -3.83207006737727,51.6908656205109 -3.83207907735293,51.6908376116261 -3.83207423998335,51.6908242028808 -3.83206202336668,51.6908082114315 -3.83205460496562,51.6908047309937 -3.83205156193752,51.6908002831112 -3.83203049690801,51.6907808344101 -3.83202723618261,51.6907709962609 -3.83202651048797,51.6907530281082 -3.83203043925143,51.6907439762376 -3.83204020977798,51.690734834208 -3.83205276932348,51.6907238511166 -3.8320747742263,51.6906956396707 -3.83208003534949,51.6906811733699 -3.83207156614548,51.6906516393586 -3.83206257255701,51.6906445874027 -3.83202337626668,51.6903888970284 -3.83201890703574,51.6903521085187 -3.83201256854053,51.6903369246842 -3.83198981822155,51.6903112084472 -3.83198608586102,51.6902896910862 -3.83199556601958,51.6902733614377 -3.83199688504148,51.6902705541235 -3.83204161726344,51.6902320994402 -3.83205010277586,51.6902265735098 -3.83205821572168,51.6902147604833 -3.83205044573774,51.6901995989646 -3.831999321263,51.6901536478239 -3.83197667992635,51.6901306276164 -3.83200887877937,51.6900653982038 -3.83205449803935,51.6900134455321 -3.83205485230205,51.6899513202955 -3.83207478858439,51.6898718986121 -3.83199711924757,51.6897742204479 -3.83207295769762,51.6897173013936 -3.83203848935383,51.6896170623097 -3.83204128831089,51.6895091400738 -3.83209873168576,51.6893895786925 -3.83204417742837,51.6892941480389 -3.83184026384059,51.6891867510919 -3.83182356370072,51.6891690319221 -3.83181861917142,51.6891529271098 -3.83180045647686,51.6890606142371 -3.83178974303188,51.6890463978261 -3.83177048326285,51.6890007601774 -3.83170990683553,51.6889333807208 -3.83169361562647,51.688922847308 -3.83164806381694,51.6889055768807 -3.83161304551985,51.6888980321493 -3.83158796906937,51.6888885339825 -3.83155868347286,51.6888782030636 -3.83154095107662,51.6888703880214 -3.83152777530288,51.688866098938 -3.83149239430054,51.6888495691927 -3.83142119569621,51.6888057291568 -3.83141220405772,51.6887986780291 -3.8313588467304,51.6887653481514 -3.83129989211913,51.6887410952011 -3.83119922494291,51.6886823416639 -3.83113995388856,51.6886473053515 -3.83098575213292,51.6885921733995 -3.83097893487016,51.6884232696221 -3.83093036886842,51.688260320899 -3.83077516615778,51.6882483553615 -3.83046187987352,51.688229861305 -3.83042123836034,51.688227797475 -3.83039198143429,51.6880762352912 -3.83029454079971,51.6879554909559 -3.83034323883111,51.6879088837373 -3.83031331941687,51.6878473199606 -3.83016583253867,51.6878136570608 -3.83003241204567,51.6876969789899 -3.82998784040301,51.6876329464771 -3.82988907074662,51.6875886356652 -3.8297792572856,51.6875543865935 -3.82976792238493,51.6874537867824 -3.82956989904718,51.6874595666339 -3.82938536829575,51.6873680458367 -3.82920355473883,51.6872728864034 -3.82924866006112,51.6872407198419 -3.82910258471609,51.687170984881 -3.82890738016813,51.687137164812 -3.82886367844351,51.6870946938931 -3.82883866868126,51.6869773156716 -3.828780958968,51.6869809105723 -3.82872801282546,51.686996118765 -3.82864237828662,51.6869875623478 -3.82852443256664,51.686970518898 -3.82842761400521,51.686936065525 -3.82824553175584,51.6869406968271 -3.82815501544771,51.6869205294603 -3.82808359223623,51.6868739042813 -3.82794015946926,51.686760166509 -3.82788603026997,51.6866720087179 -3.82787586321018,51.6866002482136 -3.82789324664328,51.6865639281311 -3.82791961587586,51.6865374480587 -3.82789092994139,51.6865064297884 -3.82779274533419,51.6864764924812 -3.827765744627,51.6863807205639 -3.82771294548639,51.6863285017905 -3.82759929665088,51.6862700372107 -3.8275686793425,51.686194010396 -3.82752982747738,51.6860912315077 -3.82746431712415,51.6860077458533 -3.82742060273402,51.6857871852666 -3.82740443574757,51.6855634994632 -3.82738817148173,51.6855565611483 -3.82728515527428,51.6855132135785 -3.82721164884397,51.6854828921006 -3.82704339933885,51.6854369625616 -3.82694161382618,51.6854241616808 -3.82680667605931,51.6854145729165 -3.82661369075908,51.685364532902 -3.82650433469546,51.685305910694 -3.82646776707634,51.685188711751 -3.82644708684097,51.6849623992383 -3.82646176180204,51.6848587880892 -3.82652938796359,51.6847786271096 -3.82680769513367,51.6845422723234 -3.82695303196511,51.6844132566313 -3.82643595289328,51.6839302694667 -3.82627149046248,51.6837619278161 -3.82617366614714,51.6836339895133 -3.82601952612726,51.6833602948301 -3.82589563002747,51.6830852305826 -3.82579025899702,51.6829475187323 -3.82565754760667,51.6828506883979 -3.82502642186677,51.6825529344643 -3.8245272615304,51.6822621188261 -3.82394508057098,51.6819204459134 -3.82370458641038,51.6818036182296 -3.82352361405811,51.6816571882322 -3.82342667684033,51.6815480217407 -3.82335275775264,51.6814358909993 -3.82315480057311,51.681118818105 -3.82296763927023,51.680708078462 -3.82276952717605,51.6802057170248 -3.82270997288256,51.6798748083488 -3.82258920603612,51.6791716626843 -3.82255360434007,51.6789680450849 -3.82250181848819,51.6785453152944 -3.82248233218669,51.6779853418051 -3.82246997716058,51.6776060530696 -3.82248073335146,51.6775501458277 -3.82248117345633,51.6774511562741 -3.82247962340541,51.677412521747 -3.82247283537911,51.6773532911022 -3.82247269118521,51.677349697088 -3.8224599532105,51.6772492031487 -3.82245450574522,51.6772204285611 -3.82244231934875,51.6771693733694 -3.82243231025286,51.6771012024659 -3.82236956664936,51.6769790076709 -3.82230536623959,51.676891807783 -3.82201565187706,51.6766292854764 -3.82198450308917,51.676610888488 -3.82172206530366,51.6764485441246 -3.8212795539759,51.6761999838599 -3.82089672642227,51.6762472683186 -3.81969215570355,51.6764359228194 -3.81891754995433,51.6765602868015 -3.81883984293527,51.6765704790557 -3.81831784802931,51.6766091193072 -3.81692345314073,51.6766801487829 -3.81634324170455,51.6767125937184 -3.81585150997823,51.6767507702905 -3.81562858969052,51.676782987187 -3.81557332795819,51.6768117118704 -3.81546993035929,51.6768654555594 -3.81535710246433,51.6768294414267 -3.81457354555764,51.6765124240348 -3.81383444257399,51.6761884216224 -3.81333553203335,51.675974881982 -3.81322236039328,51.6759271845207 -3.81298704878371,51.6758669891066 -3.81267772096657,51.6757988565971 -3.81225220254172,51.675720920708 -3.81200800058684,51.675871321934 -3.81162582778154,51.6756451852232 -3.81140419177667,51.6754911881146 -3.81113828584634,51.6753514553976 -3.81071227629096,51.6750783622439 -3.81052514377153,51.674958091535 -3.81024714243638,51.6747690139731 -3.81005927215395,51.6746271789713 -3.80998990393465,51.6745562421292 -3.80990629532188,51.6744541511146 -3.80986835977614,51.6744088885981 -3.80977583316493,51.6742654927093 -3.80974033900821,51.6741707507102 -3.8094955981358,51.6736187865485 -3.80913020221924,51.673669457974 -3.80912877122242,51.6736694800362 -3.80882686831646,51.6737154865893 -3.80882024275423,51.6737317701722 -3.80887908202669,51.6738288501999 -3.80887221742426,51.6738361479747 -3.80886087119524,51.6738417163947 -3.80870417447928,51.6738657067351 -3.80868441549853,51.6738785967637 -3.8087991892975,51.674182564894 -3.8087808940637,51.6741963306933 -3.80845204166194,51.6742544378478 -3.80843830091159,51.6742717302764 -3.80844334438391,51.6743265795495 -3.80842948359954,51.674343872927 -3.80759377775973,51.6744942899662 -3.80756879753352,51.6744838877285 -3.80748641096098,51.6743763818703 -3.80734452540011,51.6743020662263 -3.80731281194697,51.6743052514241 -3.80643821037256,51.6746802805509 -3.80591233553575,51.674876257253 -3.80588426764052,51.6748991633502 -3.80585079673472,51.6749662016744 -3.80583809522311,51.6749736781019 -3.80579839169285,51.6750309236203 -3.80576127436105,51.6751141994501 -3.80548441004231,51.6751723972767 -3.80525085605434,51.6752281297407 -3.80494256512555,51.6752967883237 -3.80462869359497,51.6753330791426 -3.80450488523013,51.6753475684722 -3.8042248376065,51.6753977210554 -3.80395430901316,51.6754684043968 -3.80369948889251,51.6755352516024 -3.80350402533348,51.6755652254991 -3.80333345724951,51.6756065041153 -3.80321261586464,51.6756596942774 -3.80284505955932,51.675908970006 -3.80283571367762,51.6759288918273 -3.80337968199889,51.6766238219294 -3.80338882727067,51.6767099858763 -3.80342421613076,51.6767993418325 -3.80345932427558,51.676845550318 -3.80350442028136,51.676888009203 -3.80357164001675,51.6769410064615 -3.80357049571616,51.6769482163113 -3.80346392129787,51.6770334605553 -3.8034241468541,51.6770529506825 -3.80243039119081,51.6773424991976 -3.80236348736412,51.6773695976801 -3.80229826260105,51.6774029624216 -3.80222928340514,51.6774498708799 -3.80192292800905,51.6777872924756 -3.80192490530114,51.6777980495763 -3.80194425845329,51.6778139345941 -3.80197082473938,51.6778252144204 -3.80198671266485,51.6778258689013 -3.80218277825759,51.6777356566683 -3.80221158635244,51.6777343151587 -3.80241043711497,51.6778976667253 -3.80295994753539,51.6782570093345 -3.8029664180416,51.6782757889583 -3.80280522249832,51.6784032258264 -3.80227754987585,51.678958096458 -3.80145232099075,51.6799617228718 -3.80135095171092,51.6801063083208 -3.80128289845184,51.6801406145348 -3.80100915602988,51.6802392091087 -3.8009737405888,51.6802604290382 -3.80026349314804,51.6809520430348 -3.80012916713936,51.681213102222 -3.80013245538701,51.6812238400915 -3.80016384737441,51.6812485304791 -3.80021398906531,51.681273831674 -3.80029757519718,51.6813004193415 -3.80036075158173,51.6812904597292 -3.80049942988194,51.6813197975144 -3.80064869589896,51.6813634470842 -3.80072819365513,51.681398186861 -3.80074804611877,51.681426650256 -3.80074882972306,51.6814464163556 -3.80045263197688,51.6817459190214 -3.80012300892629,51.6819334693078 -3.79998466891186,51.68202108474 -3.79997783753187,51.6820292800211 -3.79997676378497,51.6820382862757 -3.80001522979888,51.682097029866 -3.79997980693921,51.6821542094632 -3.79995191678482,51.6822148696506 -3.79993296422044,51.6822843825925 -3.79992976748176,51.682315086994 -3.79994715094934,51.6824226997795 -3.79994699116815,51.6824577630425 -3.79993101098503,51.6825631895629 -3.79990193390803,51.6825968985274 -3.79990511748337,51.6826050301893 -3.80088042769461,51.6831592276268 -3.80096554123584,51.6832272346806 -3.80100193983996,51.6832698278708 -3.8010223051589,51.6833081725159 -3.801061512134,51.6834577029327 -3.80107755518099,51.683642739467 -3.80107710027123,51.6837425345398 -3.80105929097191,51.6838768461965 -3.8009832685414,51.6840739881702 -3.80096689445015,51.6841362692473 -3.80097086484487,51.684164166401 -3.8010340572834,51.6843708606828 -3.80108408854843,51.6845014335136 -3.80112354133763,51.684545776587 -3.80122150833024,51.6846099002445 -3.8014651445584,51.6847347193916 -3.80159287133867,51.6848182533552 -3.80164592464942,51.6848776715847 -3.80169428289208,51.6849299697037 -3.80179022075482,51.685270200193 -3.80182572481196,51.6853622498791 -3.80186727254679,51.6854983475356 -3.80190985336876,51.6856604090723 -3.80192462896295,51.6857771394443 -3.80191880641889,51.6859938817533 -3.80196979146733,51.6860011904499 -3.8019782621448,51.6861063310519 -3.80191020595445,51.6861046767856 -3.80183507488224,51.6862883207169 -3.80178726047293,51.6864689389374 -3.80177738771961,51.686622815002 -3.80182041656678,51.6867570914911 -3.80180148155175,51.686974124698 -3.80181326516415,51.6871986883358 -3.80183913507918,51.6873754792057 -3.80189385304478,51.687551738776 -3.80187842070598,51.6876707298079 -3.80181729083418,51.687771452993 -3.80179998319221,51.6879183417667 -3.80185355810953,51.6880658506278 -3.80207764872562,51.6884247921617 -3.80232966735456,51.6887239727836 -3.80215497182182,51.6888066598119 -3.80198188179541,51.6889658250447 -3.80190786292932,51.6890694435388 -3.80196069137047,51.6892341346319 -3.80205677195877,51.689358518119 -3.80212852633842,51.6894140534133 -3.80223245977586,51.6894808716025 -3.80232807895713,51.6895935755314 -3.80221797667486,51.6896267279432 -3.80224850580815,51.6896685111579 -3.80232024604525,51.6897627027567 -3.80233881070504,51.6899387071778 -3.80246307823566,51.6901148882362 -3.80258568595346,51.6902883079054 -3.80264968865638,51.6904068900577 -3.80269564903986,51.6906507961344 -3.80263126762937,51.6906697636818 -3.80255253231043,51.690690747988 -3.80232531751576,51.6906888386819 -3.80222559954599,51.6906921661603 -3.80211910797266,51.6907081821606 -3.80153801941224,51.6908313500062 -3.80123860741472,51.6909069573633 -3.80103923842997,51.6909873254588 -3.80075057225881,51.6911141013744 -3.80078736555857,51.691202536084 -3.80082519810492,51.6912810660028 -3.80086163636209,51.6913605156195 -3.80088190066331,51.6914322136225 -3.8010839185421,51.6924757917134 -3.80181622739218,51.6924079318102 -3.80178712208247,51.693386732706 -3.80160290905583,51.6936296720024 -3.80150845199714,51.6936544934797 -3.80116997537004,51.6935850663018 -3.80108769672499,51.6935890246343 -3.80094871834424,51.6936612757095 -3.80090634742179,51.6937599128142 -3.80082793882584,51.6939724640569 -3.80066480895375,51.6942717166904 -3.80008675104779,51.6947274556989 -3.79997199689964,51.6949351696893 -3.79984595267547,51.6952221655748 -3.79975863725246,51.6955741939058 -3.79977253702596,51.6957079278316 -3.79979465690288,51.6957902948831 -3.79974636299303,51.695959232511 -3.79948421159427,51.6966466485456 -3.79907925047809,51.6977823230976 -3.79901433678842,51.6979685058893 -3.79898586159266,51.6979815276152 -3.79898596854869,51.6979842227727 -3.79896008029087,51.6979873160257 -3.7987133475215,51.6980415267532 -3.79842204725709,51.6982113986195 -3.79806909179799,51.6984362411294 -3.79734877671093,51.698808741992 -3.79728608099748,51.6989427488331 -3.7971407620563,51.6993281148308 -3.79692068221951,51.6997990377939 -3.7967949495312,51.7000977127604 -3.79666056392363,51.7007229372759 -3.79665927598426,51.7007265521009 -3.79672180711478,51.7007327877512 -3.79647883892204,51.7013219158273 -3.79644905228418,51.7014464292842 -3.7964249579302,51.7015700472733 -3.79639584616822,51.7017116312877 -3.79635127508518,51.7019749036487 -3.79633590625211,51.7021712043157 -3.79657926730801,51.702615261896 -3.79689112379257,51.7028155471839 -3.79701444671029,51.7029314266701 -3.79741539811595,51.703223841489 -3.79761386289208,51.7032666518649 -3.7977251688476,51.7032991093935 -3.79793988240846,51.7036402205605 -3.79801930860739,51.703891705786 -3.79803662483841,51.7039642577418 -3.7980302039479,51.704021980525 -3.79800698465434,51.7042758461428 -3.79798715122151,51.7044677209164 -3.79797244383468,51.7045722271075 -3.79791466049213,51.7048662669989 -3.79779862115407,51.7056621058187 -3.79772811520615,51.7059994907638 -3.79769749782526,51.706106037947 -3.79766535667115,51.7062073047791 -3.79744785311821,51.7065963823071 -3.79710268782744,51.7069802214127 -3.79712162613873,51.706985325262 -3.7978366722207,51.7071686515609 -3.79839481439543,51.7073012465326 -3.8001739503129,51.7077479331625 -3.80064782899918,51.7076156230994 -3.80104373639722,51.7074522332749 -3.80144959162594,51.7072868042694 -3.80171643928845,51.7072269779636 -3.80193933465413,51.7072262577583 -3.80245336198826,51.7071221854515 -3.80389835322828,51.7069165373166 -3.80432654965295,51.7068029869346 -3.80429858160767,51.7067539730182 -3.80428458044078,51.7067290167056 -3.80410618428014,51.7065374863756 -3.80413412781175,51.7063670625216 -3.80418485072584,51.706259306135 -3.80416479274983,51.7061930898867 -3.80404338080817,51.7060510281185 -3.80423453627064,51.7059815698073 -3.80442104802478,51.7057206114023 -3.80471892724957,51.7056791803275 -3.80479840302567,51.7056402031114 -3.8050329301731,51.7056051375936 -3.80503017565108,51.7055719173754 -3.80505395501941,51.705551775421 -3.80507083066103,51.7055380313993 -3.80511409845567,51.7055337708822 -3.80530585810781,51.7055155432782 -3.80539400349384,51.7054755332683 -3.80540779050936,51.7054591398496 -3.80544937248276,51.7054125639574 -3.80550148802014,51.7054117634103 -3.80564908575015,51.7054112935959 -3.80580183299454,51.7053604028841 -3.80589882556948,51.7052878932799 -3.8060602567602,51.705305190508 -3.80606626655816,51.7052403724815 -3.80612626439464,51.7051828152302 -3.80613191778025,51.705180929897 -3.80626393809638,51.7051878907242 -3.80646905614059,51.7050318233807 -3.80649853595806,51.7049720381895 -3.80653858011617,51.7048869193684 -3.80657083847756,51.7048639490946 -3.80660321686091,51.7048409769671 -3.80669228957309,51.7048243254189 -3.80683136319629,51.7047537759631 -3.80687670457946,51.7047297052556 -3.80690854620502,51.7047292157531 -3.80712114949636,51.7047250488425 -3.80726892975447,51.7048010770877 -3.80734686640052,51.7047953834377 -3.80741215082774,51.7048375299996 -3.80759319803702,51.704841038624 -3.80766584109337,51.7048821735442 -3.80772511427209,51.7049172203394 -3.80810003234278,51.7049555031292 -3.80825912722105,51.7049890149192 -3.80845167194171,51.7049905477709 -3.80873880594887,51.7050418655514 -3.80875112382094,51.7050245951209 -3.80885557044559,51.705028382238 -3.80924644422965,51.7047787440573 -3.80928247609456,51.7047367465994 -3.80940827974724,51.7045909745584 -3.80943868805044,51.7045545480272 -3.81010510848903,51.7046072148957 -3.81013723377378,51.7045779528847 -3.81027124269433,51.7044554263419 -3.81043953141971,51.7043187977551 -3.81049914786787,51.7042189920358 -3.81058344271059,51.7040827578 -3.81065301777141,51.7039036897343 -3.81082641431661,51.703715740181 -3.81095284067972,51.7036544602319 -3.81095759631691,51.7036301140433 -3.81104064921683,51.7035704015026 -3.81125789850623,51.7035751442317 -3.81149477985967,51.7035993625514 -3.81175812112656,51.7035988987173 -3.81176510775521,51.7035915998801 -3.81187067940972,51.7034802979167 -3.81191088389606,51.7033636208221 -3.81194246243193,51.7032849225835 -3.81195434772545,51.7032568713223 -3.81196269433884,51.7032477530476 -3.81213973427655,51.7030795230553 -3.81212618607357,51.7029943293615 -3.8122699942649,51.7027888546446 -3.81237984443464,51.7026055685247 -3.81238804716337,51.7025928564169 -3.81248395248941,51.702529347754 -3.81260158812236,51.7025049693104 -3.81274938531529,51.7024739235877 -3.81293876301053,51.7024323465998 -3.81299564172563,51.7024044995575 -3.81302678815124,51.7023896359382 -3.8130354577816,51.7023886029775 -3.81320546130246,51.7023697997663 -3.8134901722943,51.702286297514 -3.81361440841193,51.702280784577 -3.81369194457053,51.702265204073 -3.81378784870401,51.7022763097795 -3.81406138713542,51.7022028673881 -3.81408348022203,51.7021764568241 -3.81411395016511,51.7021417357694 -3.81419778438256,51.7021404418091 -3.81430533241713,51.7021145088276 -3.81445703085583,51.7021094703181 -3.81448600970348,51.702109022959 -3.81500718085649,51.7019679288143 -3.81540572246162,51.7018754720591 -3.81553843584255,51.7018283833406 -3.81563548528903,51.7017936226062 -3.81591885821774,51.7016768735284 -3.81613259852666,51.7015585020313 -3.81628902366199,51.7015255200871 -3.81658824039204,51.7013724753319 -3.81675438631034,51.7012575359773 -3.81702149116238,51.7011697130419 -3.81717650846484,51.7011016916027 -3.81750446597094,51.7008709778908 -3.81770666100602,51.7008606599918 -3.81798992122079,51.7007770796555 -3.81808026085781,51.7007208447777 -3.81817016793368,51.7006538293543 -3.81830480548819,51.70043770136 -3.81845367935686,51.7002879670146 -3.81852542753293,51.7002383130677 -3.81857052917384,51.7001727988255 -3.81848953925927,51.7000634787392 -3.81848765581364,51.6999808020538 -3.8185484973327,51.6998377329884 -3.81858898306471,51.6998029458051 -3.81859464583727,51.6997983638465 -3.81878352987709,51.6997091397537 -3.81901855747931,51.6995804561858 -3.81921472731102,51.6994201000978 -3.8192942889046,51.6993451525692 -3.81936644312138,51.6992342712656 -3.81952486804127,51.6990700044403 -3.81968603017422,51.6988669489554 -3.81995851807797,51.6985183332338 -3.82024891823674,51.6985417049135 -3.82033386361142,51.6985296023577 -3.82041957740418,51.6984653468272 -3.82051306012032,51.6984162533465 -3.82096829806265,51.698328294798 -3.82137341916714,51.6982194449231 -3.82140934541489,51.6982494540356 -3.8214198414302,51.6982582810185 -3.82163848396555,51.6981883687808 -3.82203102665674,51.6980546310636 -3.8222342112515,51.6979237367126 -3.82225540755936,51.6979108224877 -3.82229468315074,51.6978104277131 -3.82229997163284,51.6977609023837 -3.82233009617112,51.6974654820366 -3.82234834539741,51.6974148565435 -3.82237733162538,51.6973820438275 -3.8224467098519,51.6973062636674 -3.82245511386198,51.6973016381153 -3.82258316745191,51.697391438209 -3.82269810999249,51.6974399985756 -3.82292751144986,51.6974598150335 -3.82304909291227,51.6974983832557 -3.82323708573924,51.6976366964115 -3.82335747422354,51.6976456162696 -3.82357976630714,51.6977734189817 -3.82366806555154,51.6977765435041 -3.82382757726141,51.6977821600247 -3.82403422421968,51.6978472754872 -3.82411573072626,51.697859495598 -3.82413169824127,51.6978619446133 -3.82442900899535,51.6978762090745 -3.8245118374645,51.6978857106986 -3.82467724075919,51.6979695352497 -3.82474006260807,51.697982943295 -3.82511291389268,51.6979708620864 -3.82539906136599,51.6979241676248 -3.82588404254532,51.6979292211581 -3.82603255565344,51.6978809760588 -3.82633164342362,51.6978682392281 -3.82647892601206,51.697860556364 -3.82665407138624,51.6977922097618 -3.82673776275395,51.6977846163894 -3.82684562582315,51.6978054146508 -3.82696761965573,51.6978511645082 -3.82710245120984,51.6979282687696 -3.82724146011507,51.6980735399075 -3.82729430260401,51.6982004625594 -3.82742783381853,51.6982837895782 -3.82751846323778,51.6983417128874 -3.82754061647645,51.6983881150778 -3.82756273502054,51.6984336194702 -3.82751479425609,51.6985378367783 -3.82750494748896,51.6986162006041 -3.82749310903813,51.6986451519947 -3.82747078996937,51.6987012351977 -3.82750049763525,51.6987574088109 -3.82764291937773,51.6989162012492 -3.82773467308169,51.6990019750342 -3.82784197763957,51.69911537506 -3.82790073763333,51.6991729852193 -3.82796554379322,51.6993095204833 -3.8280715627847,51.6994265363285 -3.82827068905022,51.6993757936899 -3.82868465484919,51.6992704678124 -3.8290410290388,51.6991336731767 -3.82936833970135,51.6989981381428 -3.83003199890305,51.6988772340502 -3.83078522229228,51.6987494477705 -3.83144996261261,51.6985107533595 -3.83166231590801,51.6985011518442 -3.83174825774176,51.6984458739611 -3.83186126352724,51.698410761309 -3.83200534831571,51.6983977277519 -3.83204335040764,51.698334207135 -3.83211106400455,51.6983268589494 -3.83256667022214,51.6981777186519 -3.83274057870507,51.6980760305004 -3.83276305018671,51.6979884796613 -3.8327668451892,51.6979731380168 -3.83278083813912,51.69796213174 -3.83287887626976,51.6978814930516 -3.83295231309856,51.6978740551327 -3.83302384185861,51.6978873239002 -3.83309873008826,51.6979158218131 -3.83318358077335,51.6980106887231 -3.83327272753508,51.6980317729931 -3.8333897955499,51.6980263511349 -3.83352251801364,51.697980231156</coordinates></LinearRing></outerBoundaryIs></Polygon>
  </Placemark>
