  <Placemark>
	<Style><LineStyle><color>ff0000ff</color></LineStyle><PolyStyle><fill>0</fill></PolyStyle></Style>
	<ExtendedData><SchemaData schemaUrl="#Wards__December_2019__Boundaries_EW_BFE">
		<SimpleData name="objectid">7895</SimpleData>
		<SimpleData name="wd19cd">W05000845</SimpleData>
		<SimpleData name="wd19nm">Pillgwenlly</SimpleData>
		<SimpleData name="wd19nmw">Pilgwenlli</SimpleData>
		<SimpleData name="bng_e">331559</SimpleData>
		<SimpleData name="bng_n">185713</SimpleData>
		<SimpleData name="long">-2.98881</SimpleData>
		<SimpleData name="lat">51.56612</SimpleData>
		<SimpleData name="st_areashape">6428175.43396008</SimpleData>
		<SimpleData name="st_lengthshape">12870.5987413178</SimpleData>
	</SchemaData></ExtendedData>
      <Polygon><outerBoundaryIs><LinearRing><coordinates>-2.99716421016765,51.5566843300138 -2.99713528759124,51.5566126611988 -2.9970411798013,51.5563338026272 -2.99696775866315,51.5560763425326 -2.99683904910569,51.5557977776768 -2.99672557651715,51.55555782759 -2.9965774243164,51.5553090927175 -2.99640884097365,51.5550560360447 -2.99609746567152,51.5545380163066 -2.99577558777249,51.5540615267062 -2.99541158478877,51.5535781118204 -2.99504016184566,51.5530813643535 -2.99483861889858,51.5528375740038 -2.99453682429019,51.5524247343661 -2.99425953713332,51.5521429312922 -2.99400958355974,51.5519256189152 -2.99373304687749,51.5516779666887 -2.99348335341259,51.5514724267872 -2.99325530108892,51.5512666132994 -2.99299755803463,51.5510188011938 -2.99268782114843,51.5508352519312 -2.99236518695104,51.5506599917359 -2.99201515044546,51.5504767814263 -2.99171347682302,51.5503355016129 -2.99132182581503,51.5501688217585 -2.99099327873995,51.5500493413584 -2.99057690827702,51.549937793012 -2.99026005494696,51.5497542973958 -2.99003746018797,51.5495358465183 -2.98992544032489,51.5494262223793 -2.98981492781614,51.5493147879391 -2.98952901195892,51.5489673335592 -2.98945522685342,51.5488879510069 -2.98924765102633,51.5486982279512 -2.98912087783579,51.5485715582431 -2.98886322936391,51.5483921439877 -2.98852481281666,51.5482169163047 -2.98814930096789,51.5480582708296 -2.98780455142983,51.5479253437808 -2.9877531109145,51.5478781330818 -2.98773923742523,51.547835999558 -2.98759470052062,51.5477563120596 -2.98720834950406,51.5475635055154 -2.98683787081633,51.5473732600248 -2.98640077015355,51.547164786514 -2.98624562592927,51.5473917224607 -2.98601999467071,51.5476310261809 -2.98576957971479,51.5478570542436 -2.98550899910112,51.5480750761942 -2.98522351440479,51.5482797333204 -2.98493834752465,51.5484332375128 -2.98458366360071,51.548638472836 -2.98425251853353,51.5487995527431 -2.98387383056763,51.5489618386229 -2.98351930598808,51.5491087298676 -2.98287722398166,51.549359606366 -2.98241766137693,51.5495216664381 -2.98205001023161,51.5496613814304 -2.98167192792689,51.5497805964466 -2.98123433751943,51.5498921269143 -2.98046446116023,51.5501072033047 -2.97965953155921,51.5503018013032 -2.97923281283355,51.5503773666355 -2.97885380611865,51.5504596343135 -2.97848598222327,51.5505921478168 -2.97808388692623,51.5507403174145 -2.97769426650677,51.5508658183394 -2.97744001494086,51.5509821897365 -2.97665157929424,51.5513430230297 -2.97588228803678,51.5515876387759 -2.97510113146013,51.5518171562248 -2.97435458462954,51.5520472794447 -2.97357387293254,51.5522983581639 -2.97280342944724,51.5525573457596 -2.97241362604111,51.5526757288072 -2.97203425210523,51.5528092168925 -2.97166781896666,51.5529417873465 -2.97127719369785,51.5530888494675 -2.97091061879978,51.5532150362728 -2.97056536055401,51.5533258529541 -2.97046089665432,51.5533626744219 -2.97016304276297,51.5534658172189 -2.96986716184047,51.5536562290815 -2.96953495873331,51.5538387603014 -2.96921634439114,51.5540509325436 -2.96889719978527,51.5543053585024 -2.96888022102294,51.5543234770519 -2.96851319340928,51.5546978552208 -2.96832186885063,51.5549233580191 -2.96811805478525,51.5551768302878 -2.96794994485524,51.5554092418775 -2.96777048736283,51.5556562201829 -2.96767662334986,51.5557838337326 -2.96758970077344,51.555902309966 -2.96748020977799,51.5561846677474 -2.96743941306945,51.5564367949579 -2.96742155048901,51.5566823506662 -2.96741629110394,51.5569782325962 -2.96747991534468,51.5572582650101 -2.96755494350181,51.5575319099469 -2.96783188482425,51.5580053416156 -2.96799916070091,51.5582710347368 -2.96818906473036,51.5585211693476 -2.96840375881083,51.5587792790318 -2.96862768097618,51.5590013544916 -2.96889769109899,51.5592149580919 -2.96920360294194,51.5594218821541 -2.96956756315143,51.5597129157205 -2.9697920234347,51.5598927342608 -2.96999267716666,51.5600996275015 -2.97015241745996,51.5602170552525 -2.97033257933941,51.5603495056487 -2.97070054597045,51.5605542049262 -2.97092976838767,51.560683551918 -2.97128151648328,51.5608748992893 -2.97158510274725,51.5610386877556 -2.97193624329954,51.5612012732185 -2.97197987170381,51.561222486006 -2.97228599140162,51.5613709699705 -2.9726600749965,51.561527069717 -2.97300887268108,51.5616464322418 -2.97345184923225,51.5617866765661 -2.97458250367629,51.562173808789 -2.97610815664899,51.5626808877749 -2.97755322090033,51.5631948193161 -2.97850997535739,51.5635403027836 -2.97907050711679,51.5637801345307 -2.97973655632057,51.5640919854257 -2.98044922392366,51.5644250169064 -2.98109287444593,51.5647730932279 -2.98174880689729,51.5651497397164 -2.98233382743055,51.5655197834732 -2.98293624297778,51.5658905784984 -2.9832969484444,51.5662229437949 -2.98382796993087,51.5666968988103 -2.98436053026238,51.5672417614364 -2.98466791597832,51.5675116416922 -2.9851702504438,51.5679894210733 -2.98530329563169,51.568134825946 -2.98539688424198,51.5682599773934 -2.98553171591629,51.5684935501317 -2.98559520957373,51.5686242574728 -2.98573163317198,51.5689315276262 -2.985783490969,51.5691954615031 -2.98580263256288,51.5693436210074 -2.98581657762488,51.5694550581195 -2.98581530022371,51.5697319331984 -2.98580829540018,51.570008047134 -2.98580121290023,51.5702805668394 -2.9857605941657,51.5705371868732 -2.98572548984859,51.5706525418902 -2.98567978514189,51.5708058309815 -2.9855665835393,51.5711116021636 -2.98543984685692,51.5713195055831 -2.98521242612391,51.5715479406598 -2.98498465599593,51.5717602876311 -2.98470511708208,51.5719775626562 -2.98435140074065,51.5721702008504 -2.98399698438073,51.5723305727556 -2.98380573502217,51.5723609417119 -2.98321891857767,51.5724476612844 -2.98252584192553,51.5725613355052 -2.98193954205642,51.5726777986747 -2.98068515985221,51.5729256012258 -2.98031283831612,51.5729899286794 -2.97983682135777,51.573062221657 -2.97942981945716,51.5731294425954 -2.97932130078434,51.5731842821992 -2.97915153885961,51.5733404014906 -2.97908834362441,51.5734227296152 -2.97896211269691,51.5735892717782 -2.97890121104812,51.5737120323656 -2.97879407800914,51.5738315819209 -2.97863421322504,51.5739112103148 -2.97842905588425,51.5739704517335 -2.97830008232506,51.5740092813515 -2.97805066318774,51.5740850707429 -2.97767326772939,51.5741852980533 -2.97725579278994,51.5743030275525 -2.9768887370337,51.5744139526181 -2.97652932320575,51.5745428816813 -2.97613580611434,51.5746962746412 -2.97575438493902,51.5748757224369 -2.97551607465968,51.5750709698986 -2.97530310071326,51.5752993554508 -2.97512854660257,51.5755049487641 -2.97502695724756,51.5756172580713 -2.97490960105229,51.5757935225059 -2.97480542093239,51.5759850478394 -2.97474443049756,51.5761042112185 -2.97467346243041,51.5762909664715 -2.97464459010633,51.5765600716334 -2.97464710665939,51.5766778091143 -2.97464630912853,51.5767128735936 -2.97464516679732,51.5767929760132 -2.97464955759674,51.5768648526885 -2.97470083267815,51.5770982350229 -2.97482783663421,51.5773731466739 -2.9749053664,51.5774876531586 -2.97499410661375,51.5775866950507 -2.97512215424373,51.5777043781768 -2.97518860442724,51.5778404604491 -2.9752250688612,51.5779264535872 -2.97525968348804,51.5779926847912 -2.97530929035996,51.5780867483993 -2.9753916072473,51.5781579779712 -2.97553254581525,51.5782718667571 -2.97572968754811,51.5783763887606 -2.97723467869903,51.5791101392865 -2.97822838073207,51.5794821854725 -2.97970102565295,51.5801136949812 -2.98019607416627,51.580381120351 -2.9807660250866,51.5807117391553 -2.98107185577939,51.580911526444 -2.98137265675661,51.5811374227067 -2.98151358067732,51.5812495061449 -2.98158707561528,51.5813082190095 -2.98168583101919,51.5814072611457 -2.98183658321795,51.5815722974658 -2.98200777955893,51.5818136599242 -2.98221329144727,51.5820403515685 -2.98240168398515,51.582278782755 -2.98262032300062,51.582512555096 -2.98274758087887,51.5827246199607 -2.98281050500549,51.5828283662552 -2.98297462329287,51.5830113566102 -2.98323894645092,51.5832221817893 -2.98353363184066,51.5834337406919 -2.98378595491784,51.5836231813445 -2.984096664489,51.5838435040093 -2.98437188504368,51.5840237649821 -2.98449667270358,51.5841206999765 -2.98452603130645,51.5841411291987 -2.98528795025286,51.5837364203427 -2.98556197182595,51.5835911929532 -2.98609315951568,51.5833250573759 -2.98693589071081,51.5830536026193 -2.98728269594874,51.5830057401209 -2.98793880566874,51.5829093378412 -2.98883973990543,51.5827929799118 -2.98913345275905,51.5827554466159 -2.98971054566456,51.5826813641469 -2.99047775506049,51.5825174911278 -2.99089311803564,51.5823719572194 -2.99159514419265,51.5820674988864 -2.99320457591023,51.5814100881719 -2.99354556692317,51.5811671024546 -2.99410836552511,51.5807658268274 -2.9953403407617,51.5800135132243 -2.99599819331535,51.5796671551109 -2.99688709839243,51.5791345536715 -2.99759420814582,51.5787400358994 -2.99818956164284,51.5784428273463 -2.9982479593174,51.5784089804718 -2.99840258742409,51.5783519327398 -2.99850569968124,51.5783168968965 -2.99864830383772,51.5783030985252 -2.99908642401254,51.5782759967569 -2.99924788487828,51.5782647345888 -2.99992253239963,51.5782311201878 -3.00035460516724,51.5781941779994 -3.00076919104858,51.5781465960845 -3.00119460456475,51.578066469432 -3.00169840162817,51.5779417161154 -3.00171422420405,51.5779361878287 -3.00197207318985,51.5778494878515 -3.0023514470485,51.5777104229625 -3.0026953276816,51.5775969186468 -3.00313695673492,51.5774699928796 -3.00355795708869,51.5773845019139 -3.00397185985267,51.5773063516154 -3.0043741831168,51.577226500653 -3.00476740356,51.577127850082 -3.00514327208771,51.577024761105 -3.00531484057404,51.5769540751388 -3.00561260956044,51.5768436548605 -3.00586988698098,51.5767316927339 -3.00611001651548,51.5766244610401 -3.00633368793408,51.5764939989044 -3.00651593674318,51.5763844763101 -3.00682892689034,51.5761768403176 -3.00732695335,51.5758569581919 -3.00776533633898,51.5755843303002 -3.00825387527705,51.575293290947 -3.00822039504131,51.5743000147547 -3.00800165456526,51.572955778836 -3.00774107912075,51.5716074964953 -3.00763679263472,51.5711354756044 -3.00746743477846,51.5702593254551 -3.00726198320592,51.5691865330996 -3.00706185663542,51.5683547817938 -3.00688623751854,51.5675874518272 -3.0067863679594,51.5670505805087 -3.00671478569487,51.5665558036394 -3.00671141558746,51.5665324604017 -3.00659523307424,51.5659085323504 -3.00649734984023,51.565002997496 -3.00645493196745,51.5641257511496 -3.00644373345661,51.5640116847901 -3.00643758919177,51.5634686135976 -3.00644680671774,51.5631043844248 -3.00646369414451,51.5628236890363 -3.00649001753024,51.5625770704385 -3.00653487391322,51.5620597203983 -3.00663377880849,51.5615067580737 -3.00666003894063,51.5613868872124 -3.00547596772813,51.561010415831 -3.005377819639,51.5609447368475 -3.00533423612927,51.5608615105787 -3.00524680794837,51.5602346372227 -3.00517838413084,51.5596822106712 -3.00517000470851,51.5595663224586 -3.00515930298958,51.5595340528983 -3.00511009077411,51.5595299803139 -3.00508127094586,51.5595283388705 -3.00482074264919,51.559488321243 -3.00476986527416,51.5594734753978 -3.00465378259597,51.5594412087757 -3.00447679436223,51.5593977785872 -3.00434663895858,51.5593854085067 -3.00421155018591,51.5593380226464 -3.00412135255252,51.5593037374487 -3.00404837934202,51.5592684047505 -3.00395390121288,51.5592341551415 -3.00393877824949,51.5592009350856 -3.00393871896377,51.5591982389733 -3.00387444697844,51.5591637309024 -3.00381784189697,51.5591480344546 -3.00378484269406,51.5591564065577 -3.00371594758234,51.5591713789626 -3.00365821392639,51.5591691760867 -3.00362184554305,51.559159598893 -3.00363649576886,51.5591010435527 -3.0036340854293,51.5589913965331 -3.00361066242837,51.5589106047263 -3.00357606878481,51.5587167334012 -3.00355278408375,51.5586423213291 -3.00345089873785,51.5584660125257 -3.00318896021955,51.5581670196018 -3.00308166638036,51.5580097242049 -3.00300205533928,51.5579321076382 -3.00290724704314,51.5578232481435 -3.00281277489796,51.5577242740905 -3.00279509797069,51.5577046483459 -3.00257505107788,51.5576066570863 -3.00239214619508,51.5575533841215 -3.00233994369894,51.5575430432902 -3.00199664521557,51.5574758577219 -3.00157522277771,51.5573985512047 -3.00129276658257,51.5573451378488 -3.00126664514426,51.5573417648226 -3.00118420020262,51.5573298830125 -3.00096044587332,51.5573228021418 -3.00074033481357,51.5573516465985 -3.00055050766259,51.5573785249355 -3.00042443508592,51.5574164555465 -3.00032176762453,51.5574694691932 -3.00021200314189,51.5575297340485 -3.00017779364732,51.5575480039613 -3.00005890714248,51.5576532933149 -2.99980721805561,51.5578856543714 -2.99957810283369,51.5580953491813 -2.99946612383822,51.5582500201518 -2.99941777408535,51.5583449097229 -2.99937117533017,51.5585250923077 -2.99935316524422,51.558625926139 -2.99933200954262,51.5588437372819 -2.99922140273586,51.5590614077858 -2.99916688580411,51.5591409767259 -2.99898628667118,51.559394300718 -2.99877371995911,51.5596326141124 -2.99863513744707,51.5597623383338 -2.99853107998273,51.559882779649 -2.99843818583505,51.5599915301655 -2.99818054431001,51.5602139563235 -2.99786576667329,51.5604018997238 -2.99753233506742,51.5605909000369 -2.99722147972038,51.5607571446386 -2.99687738537864,51.5609210631675 -2.99658155657202,51.5610458281588 -2.99646676976307,51.5610782648993 -2.99624344995249,51.5610864531229 -2.99609139267298,51.5610625740074 -2.99600060898532,51.5610013193404 -2.99579999788566,51.5608672847745 -2.99551284733363,51.5606646781442 -2.99528711390738,51.5604966070237 -2.99510405732184,51.5602400795858 -2.99498632329377,51.5599354451818 -2.9949507850942,51.5596965441083 -2.99495320273425,51.5596110371768 -2.99495273251882,51.5595894663392 -2.99503101474182,51.5595357666616 -2.99505787687131,51.5595130658419 -2.99525160144003,51.5593316403999 -2.99534831422044,51.5592723001754 -2.99565887247296,51.5590925799379 -2.99585419536945,51.5589191390721 -2.99601474131848,51.5588036148665 -2.99616394987275,51.5587681894412 -2.99651725365695,51.5587651905057 -2.99662425657273,51.5587741695166 -2.99670087798553,51.5587807106427 -2.99685656106605,51.5587748944323 -2.99706641643501,51.558744346036 -2.99710536262336,51.5587413185331 -2.99730995257048,51.5586658675302 -2.99739692621651,51.5586182942252 -2.99759017051017,51.5584809130243 -2.997677254004,51.5583785941009 -2.99780161074785,51.5581913678804 -2.99782756540703,51.5581273227477 -2.99783907179057,51.5580553104241 -2.99783779135134,51.5579968011332 -2.99782038210488,51.5579295287715 -2.99763312402525,51.5576119098765 -2.99748548771543,51.5573928360904 -2.99735001335141,51.5571314984558 -2.99724351045629,51.5568788147002 -2.99716421016765,51.5566843300138</coordinates></LinearRing></outerBoundaryIs></Polygon>
  </Placemark>
