  <Placemark>
	<Style><LineStyle><color>ff0000ff</color></LineStyle><PolyStyle><fill>0</fill></PolyStyle></Style>
	<ExtendedData><SchemaData schemaUrl="#Wards__December_2019__Boundaries_EW_BFE">
		<SimpleData name="objectid">470</SimpleData>
		<SimpleData name="wd19cd">E05000636</SimpleData>
		<SimpleData name="wd19nm">Hyde Park</SimpleData>
		<SimpleData name="wd19nmw"></SimpleData>
		<SimpleData name="bng_e">526894</SimpleData>
		<SimpleData name="bng_n">181230</SimpleData>
		<SimpleData name="long">-0.17261</SimpleData>
		<SimpleData name="lat">51.515751</SimpleData>
		<SimpleData name="st_areashape">955100.52265699</SimpleData>
		<SimpleData name="st_lengthshape">4351.80453960456</SimpleData>
	</SchemaData></ExtendedData>
      <Polygon><outerBoundaryIs><LinearRing><coordinates>-0.160209361975995,51.5132176844198 -0.160396867358863,51.5133564650891 -0.160777664900496,51.5136349273744 -0.16208959121227,51.5145546812964 -0.162430836056392,51.514741717441 -0.162627785781153,51.5148616732294 -0.162861104338635,51.515011057585 -0.163202890502058,51.5152556368494 -0.164194831530415,51.5159285217341 -0.166548319176005,51.5174743180741 -0.167871199246803,51.518413955093 -0.170164951316413,51.5199470566628 -0.170247502574257,51.5199393543643 -0.170372987321202,51.5199368170787 -0.170487728413167,51.5199502934964 -0.170848135212392,51.5199487215056 -0.173687653689195,51.5199866703476 -0.179418724517087,51.520099129863 -0.179966582996617,51.5200968427206 -0.180507947879356,51.52007557403 -0.180790352734146,51.5200421955792 -0.182920640019098,51.5197568739871 -0.184030343086885,51.5195797825913 -0.184884064838934,51.5195336611077 -0.184141201464694,51.5189681956763 -0.18294641652747,51.5181664791394 -0.18244186810742,51.5178070608159 -0.182084114593642,51.5175604934157 -0.18203365711608,51.5175264476313 -0.180937206779804,51.516755003227 -0.180972773611555,51.5167302926003 -0.18192645452709,51.5161992889538 -0.179876682670013,51.5147619028785 -0.17713635691831,51.5128228016101 -0.176272257798973,51.5122661880433 -0.175926722493699,51.5122212592521 -0.176032004004796,51.5115700360128 -0.174507582820425,51.5117783559782 -0.17392554045299,51.5118475101099 -0.17237860634876,51.5120033098091 -0.169348258387899,51.5122797887556 -0.165921038496244,51.5126407844452 -0.164181536677389,51.5128204348544 -0.163711311748581,51.5128652167524 -0.162316377585927,51.5130394455907 -0.160886309887432,51.5131563794001 -0.160209361975995,51.5132176844198</coordinates></LinearRing></outerBoundaryIs></Polygon>
  </Placemark>
