  <Placemark>
	<Style><LineStyle><color>ff0000ff</color></LineStyle><PolyStyle><fill>0</fill></PolyStyle></Style>
	<ExtendedData><SchemaData schemaUrl="#Wards__December_2019__Boundaries_EW_BFE">
		<SimpleData name="objectid">2630</SimpleData>
		<SimpleData name="wd19cd">E05007012</SimpleData>
		<SimpleData name="wd19nm">Wombourne South West</SimpleData>
		<SimpleData name="wd19nmw"></SimpleData>
		<SimpleData name="bng_e">386266</SimpleData>
		<SimpleData name="bng_n">292267</SimpleData>
		<SimpleData name="long">-2.20386</SimpleData>
		<SimpleData name="lat">52.528111</SimpleData>
		<SimpleData name="st_areashape">1984383.52443829</SimpleData>
		<SimpleData name="st_lengthshape">7557.03107319477</SimpleData>
	</SchemaData></ExtendedData>
      <Polygon><outerBoundaryIs><LinearRing><coordinates>-2.19225538524898,52.5323764025944 -2.19247214274986,52.5323850365285 -2.1925663713706,52.5323642113111 -2.19282238527307,52.53226124758 -2.1930417743106,52.5322051673761 -2.19332468587975,52.5321660582347 -2.19359285384194,52.5321467451074 -2.1938197909503,52.5321212079234 -2.1940141725121,52.5320723571345 -2.19423965749295,52.5320486186192 -2.19438102853017,52.5320241201534 -2.19455347856151,52.5320184438004 -2.1947187060009,52.5320289556431 -2.19485869041281,52.5320206363208 -2.19519599139908,52.5319678616185 -2.19540364543182,52.5319252777457 -2.19560118243777,52.5319033808876 -2.1957309073611,52.5319112540664 -2.19590651280255,52.5319594949796 -2.19607014001436,52.5319655144111 -2.19630446563989,52.5319345670877 -2.19643249857858,52.5318903158234 -2.19670937960784,52.5318359301421 -2.19693325101494,52.5317780380919 -2.19712319028276,52.5317426700111 -2.19731481435972,52.5317306664161 -2.1979311174959,52.5317458117946 -2.19810041840482,52.5317158689305 -2.19831102916335,52.5316561086176 -2.19849084606284,52.5316405278656 -2.19858069168994,52.5316457688967 -2.1988771800513,52.5316812195959 -2.19903949145942,52.5317187829255 -2.19914143159574,52.5317644462952 -2.19921670451425,52.5317724075267 -2.19930661990403,52.5317659645316 -2.19935075201567,52.5317685869822 -2.19939356484835,52.5317748058341 -2.19943199010578,52.5318052978033 -2.19952639353918,52.531797049064 -2.19954847797068,52.5317889234512 -2.19958226960327,52.5317628025972 -2.19968535149154,52.531738362506 -2.19978697547375,52.5317408866033 -2.19990548072502,52.5318476359769 -2.20048965957311,52.5319338225399 -2.20042927350658,52.532285422071 -2.20038171983435,52.5328393063787 -2.20038250725486,52.5333319938633 -2.20044054841158,52.5337723676939 -2.20056308401293,52.5341479221692 -2.20069433928815,52.5344893096991 -2.20073346723638,52.5349657553722 -2.20074707505819,52.5356831053037 -2.20078090145154,52.5356902379533 -2.20085762312662,52.5356946015316 -2.20090331510602,52.5356918267962 -2.2010167537729,52.5356709630767 -2.2011564689963,52.5356015221582 -2.20144302916874,52.5354005249977 -2.20158733322308,52.5356690912733 -2.20163778842932,52.5357507904328 -2.20178164510841,52.5359213953825 -2.20200458252796,52.5360010015452 -2.20230558562067,52.5360598038529 -2.20380250659375,52.5361507885389 -2.20401415703586,52.5360236106653 -2.20419508920379,52.535930728301 -2.20447457390542,52.5358053192825 -2.20506146712754,52.5354959449847 -2.20607502864994,52.5350347449498 -2.20640173286285,52.5348975655971 -2.20661649853954,52.5348153148401 -2.2077766302263,52.5344590864966 -2.20888686769483,52.5341964936014 -2.20911821308151,52.5341519560409 -2.20948358396477,52.5340973840081 -2.21007293350568,52.5340343243863 -2.21021471490176,52.5340960848994 -2.21088407779855,52.5337865348206 -2.2122797910897,52.5330936216022 -2.21217893624925,52.5329742703482 -2.21217111724484,52.532890612011 -2.21216809742279,52.5325669810604 -2.21217505565729,52.5324726007967 -2.21218349064614,52.5323818129687 -2.21222247337959,52.5322234753147 -2.2124086168333,52.532008341394 -2.21270384795562,52.5317812374712 -2.21293431592196,52.5315839084148 -2.21320461842604,52.5313803048054 -2.21367270063611,52.5312328745635 -2.21415870543904,52.5311475127256 -2.2144038778416,52.5309267864465 -2.21445261287228,52.5309509637076 -2.21450277226834,52.5309679490762 -2.21456032316084,52.5309804269047 -2.2146045822293,52.5309839415787 -2.21465621229054,52.5309784555575 -2.21471507631252,52.5309612720873 -2.21474151229213,52.5309486416472 -2.21500452833686,52.5307738078644 -2.21506625208304,52.5307449356352 -2.2151516629969,52.5307132342278 -2.21523554384421,52.5306915117264 -2.21531070357834,52.5306760953539 -2.21546534619443,52.5306596367463 -2.21573225714514,52.5306600475737 -2.21589591346771,52.5306723308807 -2.21593472373699,52.5301850524749 -2.21564393661511,52.5300984061773 -2.21556566332981,52.5294538820781 -2.215388223526,52.5293562438169 -2.21514401572387,52.529448359807 -2.21502166127939,52.5294557728381 -2.21495523978942,52.529443311382 -2.21489183444753,52.5294263512079 -2.21479729770128,52.5293806868827 -2.2147822987734,52.5293456631277 -2.21477322673538,52.5292800716469 -2.21477892062394,52.5292513014437 -2.21481707343857,52.5292242701956 -2.21486265246843,52.5291999215188 -2.21496874932876,52.5291736646796 -2.2150172449596,52.5291492207336 -2.21506717831935,52.5291203699574 -2.21517445123734,52.5290365919914 -2.21520212824042,52.528979920857 -2.21525450491495,52.5288296450579 -2.21529986325961,52.5287603592888 -2.21572482251199,52.5285501773979 -2.21584237656756,52.5284815686057 -2.21584052903798,52.5284024826107 -2.21578853313551,52.5283324755486 -2.21564084016714,52.5282527578679 -2.21559498345951,52.5282204866492 -2.21553409349594,52.528145912619 -2.21561056557621,52.5281017346878 -2.21578293164492,52.5280825462793 -2.21587578376912,52.5280823765746 -2.21614421199693,52.5280980630369 -2.21628550970492,52.528063652281 -2.2163736419107,52.5279933887371 -2.2163575450724,52.5277353895153 -2.21639865541327,52.52769217485 -2.21655122250591,52.5275525000707 -2.21652858568364,52.5274473893292 -2.21640763141264,52.5274170540959 -2.21627924683994,52.5273831363545 -2.21620242169638,52.5273554161762 -2.2161418740984,52.5273258690576 -2.21608112621342,52.5272801438984 -2.21585758075533,52.5270728535357 -2.21584113457954,52.5270153647767 -2.21588099684948,52.5267428827769 -2.21587360356772,52.5267222256201 -2.21584978131596,52.5266971044014 -2.21580699190087,52.5266702207453 -2.21575524798359,52.5266514417249 -2.21569624861957,52.5266397753267 -2.21560192267635,52.5266363533929 -2.21519895826387,52.5265193529161 -2.21471473730825,52.5263620556059 -2.21433803536853,52.5261963830106 -2.21397741358482,52.5259884397346 -2.21364816185101,52.5252824457162 -2.21363674079341,52.5250576911084 -2.21368538403561,52.5244390905392 -2.213788601516,52.524147712284 -2.2140267500332,52.523714807518 -2.21406150936044,52.5235907179671 -2.21408435025345,52.5234395982926 -2.21411769381808,52.5233244994584 -2.21412032187307,52.5232651779623 -2.21411134567039,52.5232436246028 -2.21408765743021,52.5232202999269 -2.21404781117528,52.5231979035389 -2.21387662511051,52.523155883595 -2.21342283649543,52.5228753087986 -2.21331034663083,52.5227829423627 -2.21324366854037,52.5227156569112 -2.2132051385552,52.5226635999479 -2.21318572820736,52.5226204957225 -2.21317816815332,52.5225899515615 -2.21318671214401,52.5225224412241 -2.21320569846821,52.5224783686618 -2.21324513411425,52.5224162846107 -2.21330932418227,52.5222714714511 -2.21350162321563,52.5218071936024 -2.21332527437685,52.5213004437435 -2.21312946541461,52.5213413305149 -2.21296445480454,52.5213685901404 -2.21280537355521,52.5213904475595 -2.21174468799098,52.5214741393413 -2.2112952634365,52.5214884259802 -2.21117409632739,52.5214347182481 -2.21105886213501,52.5213765065976 -2.21100531510806,52.521283941786 -2.21095928987521,52.5211887582138 -2.21091088296898,52.5209514869764 -2.21083753985121,52.5207089588664 -2.21063260637194,52.5203919795905 -2.21045701603177,52.5203409744242 -2.21031621249918,52.5201695663487 -2.21008820185132,52.5199550832693 -2.21003270673768,52.5197592563541 -2.20994718472092,52.5197386479555 -2.20988815812723,52.5197189803829 -2.20979657562295,52.5196760039124 -2.20977437917268,52.5196589678075 -2.20972088454719,52.519576378488 -2.2096986710413,52.5195557464099 -2.20966178548154,52.5195414324726 -2.20960718324952,52.5195325421726 -2.20954242672924,52.5195344542465 -2.20948646112605,52.5195453388581 -2.20942314819471,52.5195697169439 -2.20928335140483,52.5196086109926 -2.20924206355395,52.5196140763775 -2.20920523643767,52.5196123445606 -2.20916838089065,52.5196043207008 -2.2090989655765,52.519572089679 -2.20902508664609,52.5195209920739 -2.20882236729172,52.5193594873377 -2.20867317603217,52.5192878520888 -2.20863484482199,52.5192762364817 -2.20858767305038,52.5192709276688 -2.20855073392031,52.519270992943 -2.2085271828434,52.5192755277418 -2.20849929457027,52.5192881593749 -2.20840537239206,52.519366515535 -2.20836559472415,52.5193827632183 -2.20809745846693,52.5193913254438 -2.2079354272311,52.5194050914693 -2.2078926506877,52.519404268723 -2.20781443982807,52.5193873300019 -2.20777317101609,52.5193712252018 -2.20772285582441,52.5193434529411 -2.20767844793471,52.519305783993 -2.20765322148542,52.5192644861936 -2.20764718066987,52.5192204585447 -2.20765425919822,52.5191755097161 -2.20766735518521,52.5191440307626 -2.20768643617723,52.5191188324587 -2.20778629409884,52.5190367814297 -2.20781854719412,52.5189962814553 -2.2078462514919,52.518945004212 -2.2078637502081,52.5188937449355 -2.20787637008797,52.5187615179676 -2.20786725783581,52.5187103064538 -2.20784346081979,52.5186627149908 -2.20780794076799,52.5186286255279 -2.20777392918416,52.5186053177704 -2.20768980203992,52.5185704148337 -2.20763518446721,52.518557928566 -2.20757026608196,52.5185508534745 -2.20752457391055,52.5185500348273 -2.20747310111572,52.5185600115947 -2.20740686354423,52.5185825966528 -2.20707309191091,52.5187404622912 -2.20700256440482,52.5187810291971 -2.20694963436228,52.5188171610182 -2.20681473965924,52.518968385844 -2.20673402573489,52.5190395273479 -2.20666210173919,52.5190935778526 -2.20658420871909,52.5191441335705 -2.2064239515766,52.5192253012262 -2.2062592018584,52.5192813108874 -2.2060766393473,52.5193220729648 -2.20588379478971,52.5193727389654 -2.20550846356631,52.5194804330628 -2.20474473947965,52.5197370026868 -2.20411646192994,52.5199341054668 -2.20377422487396,52.5201846368048 -2.20349007894135,52.520253431004 -2.20335466270558,52.5202950065526 -2.20320895657008,52.5203455869308 -2.20309567634297,52.5203917071519 -2.20292667071104,52.5204755802541 -2.20282960736832,52.52053416569 -2.20267241340618,52.5206494740141 -2.20261518870628,52.5207044856678 -2.20249942397763,52.520844887339 -2.20240986183261,52.5209232311817 -2.20231294802878,52.5209881062044 -2.20223065847885,52.5210359704513 -2.20216008558827,52.5210684462284 -2.20207904952787,52.5210982437865 -2.20187006372797,52.521156120088 -2.20178623974582,52.5211877193056 -2.20150097659378,52.5213329936018 -2.20116859271231,52.5214845493133 -2.1976764693538,52.5220038171082 -2.19731599270829,52.5218021146882 -2.19692898076426,52.5216166329507 -2.19656852077751,52.521416816155 -2.19627022154311,52.521613238535 -2.19560945699433,52.5215136782443 -2.19478362812511,52.5214036019435 -2.19415843459302,52.5213227584128 -2.19283272063924,52.5211622635601 -2.19155122763663,52.5209692373366 -2.19115442147721,52.5208997807185 -2.19129071818744,52.5210578266952 -2.19144487036031,52.5212696789177 -2.19178222055507,52.5218894386303 -2.19184464901514,52.5220215413993 -2.19200708489373,52.5224320896115 -2.19204892952679,52.5225533515606 -2.19650282778376,52.5238792883862 -2.19701794901615,52.5240384040124 -2.19698874955088,52.5240851870691 -2.19696676901552,52.5241157806392 -2.19695794187761,52.5241256816358 -2.19692574518412,52.5241815477357 -2.19689617810434,52.5241735079571 -2.19686841346828,52.5242148964121 -2.1969038167862,52.5242238245473 -2.19683500605267,52.5243263961257 -2.19683502613274,52.52433088927 -2.19678963351245,52.5243983707989 -2.19678082233369,52.524411865937 -2.19670177861434,52.5245361139972 -2.19668284887814,52.5245693985056 -2.19666523441021,52.5245981876394 -2.19665209273762,52.5246215771378 -2.1967022120963,52.5246331768764 -2.19668327027835,52.5246637653179 -2.19665986617664,52.5247024503565 -2.19665106693637,52.5247186424488 -2.19661886097295,52.524772620579 -2.19658374647291,52.5248284905393 -2.19654238409494,52.524818673244 -2.19652636951679,52.5248519528648 -2.19651037095748,52.5248888284364 -2.19650160770728,52.5249131087145 -2.1966431829427,52.5249398344525 -2.19680690959808,52.5249737132142 -2.19679667273099,52.5249944017923 -2.19677775745538,52.5250312813695 -2.19672220374414,52.5251366167175 -2.19671930691375,52.5251411147275 -2.19670172983315,52.525177992058 -2.19668270410306,52.5252175687869 -2.19665498273022,52.5252688433536 -2.19662872956844,52.5253228106515 -2.19661692648471,52.5253192352519 -2.1965656742114,52.525408296108 -2.19657310015073,52.5254109798212 -2.19656721010451,52.5254254598974 -2.19653211348259,52.5254857341222 -2.1964867892095,52.5255684931125 -2.19646171821234,52.5255604466085 -2.19645291077443,52.5255748407399 -2.19643239647977,52.5256072298188 -2.19640755014853,52.5256495114806 -2.19639151526682,52.5256782980013 -2.19636050152304,52.5256729574648 -2.19633424146969,52.5257251277341 -2.19632686402028,52.5257333190918 -2.19630497054872,52.5257836849885 -2.19621294529852,52.5259680794853 -2.19647706002876,52.526029652549 -2.19637753859526,52.5261952769134 -2.19636884384412,52.5262078737531 -2.19630297422918,52.526316730581 -2.19627220100783,52.5263654040492 -2.19616831741674,52.5265345397638 -2.19591893239039,52.5264792327032 -2.19588973431328,52.5265269136534 -2.19553705985234,52.5264466125976 -2.19550631323107,52.5265014870924 -2.19541574121408,52.5266859683935 -2.19534553359304,52.5268038191094 -2.19526661321492,52.5269576350793 -2.1956296109611,52.5270353136523 -2.19549346889561,52.5272485404704 -2.1954452281369,52.5273322927332 -2.19542765178217,52.5273700689272 -2.19541592007329,52.5273826707219 -2.195383785212,52.5274537249125 -2.19534005278118,52.5275400758483 -2.19531957115526,52.5275805529256 -2.19530481590863,52.5275967548021 -2.19529018299381,52.5276129564741 -2.19527708656791,52.5276472200366 -2.19519596098437,52.527632974873 -2.19512431985687,52.5277571189695 -2.19501459728002,52.5279542139192 -2.19487737159662,52.5279237939331 -2.19483634527339,52.5279904584636 -2.19467278350341,52.5279961207069 -2.19435566534404,52.527933642007 -2.19431035062105,52.5280200859386 -2.19425766857477,52.5281172364431 -2.19425626631064,52.5281298211043 -2.19425922558519,52.5281397024926 -2.19426812950362,52.5281468771013 -2.19427850859122,52.5281576452648 -2.19429471247872,52.5281666058402 -2.1943124831523,52.5281728677427 -2.19445849193043,52.5282103741793 -2.19443962943755,52.5282599255856 -2.19463162302715,52.5286919928933 -2.19446671990731,52.5287246188359 -2.19431506382435,52.5287572236248 -2.19428086657202,52.5286916721095 -2.19385394292085,52.5288379704926 -2.19361851867649,52.5289193333126 -2.19389842020903,52.5292227369303 -2.19356111245207,52.5292691261749 -2.19345443578122,52.5291388946056 -2.1931232666569,52.5292545653431 -2.1931173533416,52.5292644612813 -2.19305253987093,52.5292843398811 -2.19304813329465,52.5292771569234 -2.19297603396558,52.5292988444962 -2.19294504168478,52.5292988951906 -2.19289766021315,52.5292477451972 -2.19285638103598,52.5292576980475 -2.19283122192649,52.5292298783961 -2.19280912572638,52.5292353075891 -2.19284029125435,52.5292748007765 -2.19268276334479,52.5293271846556 -2.1926666223159,52.5293326040943 -2.19245023137076,52.5294039572973 -2.19228978532502,52.5294563454044 -2.19226036137145,52.5304831128825 -2.1921970797188,52.5318559478352 -2.19225538524898,52.5323764025944</coordinates></LinearRing></outerBoundaryIs></Polygon>
  </Placemark>
