  <Placemark>
	<Style><LineStyle><color>ff0000ff</color></LineStyle><PolyStyle><fill>0</fill></PolyStyle></Style>
	<ExtendedData><SchemaData schemaUrl="#Wards__December_2019__Boundaries_EW_BFE">
		<SimpleData name="objectid">552</SimpleData>
		<SimpleData name="wd19cd">E05000750</SimpleData>
		<SimpleData name="wd19nm">Norden</SimpleData>
		<SimpleData name="wd19nmw"></SimpleData>
		<SimpleData name="bng_e">384964</SimpleData>
		<SimpleData name="bng_n">415673</SimpleData>
		<SimpleData name="long">-2.22887</SimpleData>
		<SimpleData name="lat">53.637371</SimpleData>
		<SimpleData name="st_areashape">25826059.2739373</SimpleData>
		<SimpleData name="st_lengthshape">30468.2179092556</SimpleData>
	</SchemaData></ExtendedData>
      <Polygon><outerBoundaryIs><LinearRing><coordinates>-2.23657496385011,53.6670071610404 -2.23757326338937,53.6666330953974 -2.24587750356036,53.663521730583 -2.24588047219437,53.6635172313693 -2.24581455679792,53.6633618290484 -2.24583948431017,53.6632287928227 -2.24614842485534,53.6627373719522 -2.24644048764886,53.6622200176954 -2.24708998839869,53.6615077486128 -2.24750396117934,53.6611230349984 -2.24810472331459,53.660614920776 -2.24853545114912,53.6602608089683 -2.24872965968198,53.6601039678397 -2.24893466107245,53.6599579776545 -2.24921660932021,53.6597856779864 -2.24953486154309,53.6596133927164 -2.25031795947191,53.6592485649748 -2.2513590595409,53.6584878292516 -2.25149623670681,53.6583940924008 -2.25219243123142,53.6579198123363 -2.25272434026346,53.6575349206689 -2.25291681913419,53.6573439325464 -2.2530008323445,53.6572278425224 -2.25304753562267,53.6569446116493 -2.25332892273433,53.6566851445677 -2.25351417534668,53.6565382894288 -2.25368936806803,53.6564822084334 -2.25412261411859,53.6563122716675 -2.25461058672008,53.6561980173064 -2.25473290884208,53.6561465404002 -2.25489281273936,53.6560796173599 -2.25515388960026,53.6559505687817 -2.25540003928195,53.6558700725185 -2.25545136116643,53.6558573832939 -2.2556252250312,53.6558300559244 -2.25579721671743,53.6557613091351 -2.25630237545933,53.6557260833798 -2.25644436246574,53.6556880401534 -2.25682308926078,53.6555002397402 -2.25690882705735,53.6554236789109 -2.25729541898173,53.6552988491778 -2.25758134586656,53.6552982339429 -2.25786404200819,53.6552589872068 -2.25838155312423,53.6552659581461 -2.25877335277561,53.6552588215451 -2.25892198969076,53.6553088186081 -2.25913622874665,53.6552140073324 -2.25946869446464,53.6551538929198 -2.25958650766885,53.6551212894088 -2.25969831707005,53.6550860033006 -2.25981307471102,53.6550435229501 -2.26000619830151,53.6549640311362 -2.26022347324931,53.6548565417678 -2.26043775898965,53.654528015635 -2.26066298552941,53.6542543669125 -2.26084876730066,53.654199061259 -2.26104412891579,53.6542202001741 -2.26114270403555,53.6542641037547 -2.26116843959523,53.6542703374106 -2.26124549082172,53.6542432122586 -2.26144134933485,53.6541231886601 -2.26154211100584,53.654016939209 -2.26163498799719,53.6538665891111 -2.26171899829905,53.6537549860077 -2.26186430357024,53.6535101726489 -2.26200797003975,53.6532626680762 -2.26223926127925,53.6527436096829 -2.262411568757,53.6524690857675 -2.26244149871187,53.6524276868007 -2.2628151014265,53.6521670969415 -2.26283159292938,53.6518911160609 -2.26290739716711,53.6516850927193 -2.26326089062679,53.6516016487606 -2.2633981186611,53.6515240720027 -2.26369612583614,53.6512852107679 -2.26402817933091,53.6511452032759 -2.26414591591498,53.651102712159 -2.26426366859438,53.651062825626 -2.26454146779408,53.6509840381661 -2.26475566659823,53.6508685506138 -2.2648142772864,53.6508064204539 -2.26486220606013,53.6507316452608 -2.26498005928671,53.6507080225666 -2.26513887730412,53.6507121629376 -2.26539307788392,53.6507098026177 -2.26552749962574,53.6506825474112 -2.26562245219924,53.65062752573 -2.26581688275016,53.6502657878798 -2.26583572295755,53.6501281785497 -2.26592863916415,53.6499877980497 -2.26609916697471,53.6499308103616 -2.26635893609733,53.6498628417177 -2.2664779139704,53.6497807190161 -2.2665456604296,53.6497239595719 -2.26661190332802,53.6496663046341 -2.26664492959547,53.6496222021734 -2.26666885430909,53.6495790187952 -2.26662429358502,53.6494756953209 -2.26641151543668,53.6493207201062 -2.2663825611428,53.6492785533275 -2.26636407741531,53.6492354644254 -2.26637258623084,53.6491410080406 -2.26642181971065,53.6490366666926 -2.26648354991965,53.6489951958633 -2.26654842629318,53.6489582111185 -2.26666624521764,53.6489300936978 -2.26672508506416,53.6489048031817 -2.26678388295114,53.6488731330118 -2.26689690429432,53.6487965040697 -2.26693870884225,53.6487209327464 -2.26694144659713,53.6486804920934 -2.26693820811934,53.6486418614859 -2.26691046486994,53.6485546745756 -2.2669072605705,53.6485214358221 -2.2669731054086,53.6484206514939 -2.26708745054454,53.6483170633441 -2.26715673552937,53.6482674878446 -2.26723349358564,53.6482160099185 -2.26749125817246,53.648069868773 -2.26753346592636,53.6480383252002 -2.26757255010819,53.6480058897932 -2.26770007641684,53.6478374865823 -2.26774069065164,53.647790671305 -2.26789289950168,53.6476986784979 -2.26815680975805,53.6475784904183 -2.26835422857754,53.6474567440884 -2.26839493323457,53.6474243047734 -2.26843250863138,53.6473900757539 -2.26852521922627,53.6472199521431 -2.26857731441853,53.647095836014 -2.26859977398637,53.6470580465507 -2.26866318798946,53.6470273528658 -2.26918429874795,53.64691017896 -2.26925808017743,53.6468623897212 -2.26930295762957,53.6467805207841 -2.26936970739833,53.6465691224668 -2.26939649644187,53.6465061637389 -2.26946716992971,53.6464404106489 -2.26976847765789,53.6462410623291 -2.26983765830244,53.6461762102899 -2.26986609200328,53.646136610395 -2.26988228657387,53.646055704733 -2.26985908040466,53.6459765947816 -2.26982705758196,53.6459425222863 -2.26978445690235,53.6459120679599 -2.26964805707801,53.6458611579359 -2.26928597821585,53.6457820022614 -2.26923899173979,53.6457677316189 -2.26916897117396,53.6457013065612 -2.2691399879519,53.6456546473589 -2.26911549290405,53.6456079780532 -2.26906295677392,53.6454472558539 -2.26926119772119,53.6449874716043 -2.26946617968569,53.6448612141249 -2.26954445835844,53.6447953530597 -2.26961661328122,53.6447277998104 -2.26970950508375,53.6445874171736 -2.26972207539911,53.6444273573631 -2.26970128397424,53.644257578475 -2.26967058526332,53.6441767776241 -2.26958938017764,53.6440187267746 -2.26940412803575,53.6439140134656 -2.26929201124197,53.6438756289232 -2.26904795307887,53.6437997112367 -2.26867663400752,53.6436963139155 -2.26855838311247,53.6436543481367 -2.26848219922562,53.6435592726732 -2.26840202819825,53.6433275372706 -2.26808957645338,53.6431843803813 -2.26776479296147,53.6430233685731 -2.26768094036694,53.6429183366168 -2.26757443094018,53.6428197341077 -2.26720902401371,53.6426830731203 -2.2673178393097,53.6424176678471 -2.26726809475524,53.6422038343955 -2.2672578458977,53.6420232494008 -2.26716250044051,53.6417771676601 -2.26717865305138,53.6417088410389 -2.26730596522108,53.6412743708198 -2.26756947941751,53.6410787943595 -2.26766724665609,53.6409994120589 -2.2667970491581,53.6404333745075 -2.2664414306722,53.6401654063786 -2.26599333154677,53.6398652951968 -2.26564231558095,53.6396134895828 -2.26544770782265,53.6394449010902 -2.26528757040859,53.6385330353165 -2.26506312529268,53.6374674767102 -2.26485595525957,53.6362724867626 -2.26434955456739,53.6339097548661 -2.26427473538313,53.6333139899188 -2.26437290782378,53.6333011929978 -2.2641572234829,53.6321753969023 -2.26395478688158,53.6312509423376 -2.2639666799104,53.6307431323877 -2.26382748793555,53.6300009474979 -2.26377953100657,53.6298294259451 -2.26316839207287,53.62881870766 -2.26311279498653,53.6286408227036 -2.26302843650798,53.6279713905614 -2.26300802372585,53.6278572263282 -2.26293870000928,53.6276372279266 -2.26287114724867,53.627480934756 -2.26272787946226,53.6270588301135 -2.2626934522841,53.6268764051609 -2.26255103105485,53.6265890844868 -2.26250929276871,53.6264337222498 -2.26249277626715,53.6262045321612 -2.26252468441344,53.6260040802286 -2.26266065359389,53.6257386121003 -2.26282724059838,53.6255449633174 -2.26302627012629,53.6252173547566 -2.26299780495795,53.6250115539524 -2.26253282953919,53.6248741943212 -2.26203781490141,53.6247773344904 -2.26172407168199,53.6246620150773 -2.261602749021,53.6245975823833 -2.26144151881319,53.6244505683815 -2.26123960616448,53.624316133182 -2.26046264538838,53.6243438860563 -2.26037388750029,53.6239216590579 -2.26041288281116,53.6236366350337 -2.26043092400374,53.6233696287686 -2.26023825569564,53.6225332942702 -2.26020516551203,53.6223230095332 -2.2605617673923,53.6220363962712 -2.26058093663237,53.6219716564783 -2.26057791683865,53.621967170685 -2.25963021726141,53.621751685428 -2.25962702916922,53.6217400111049 -2.25962773318194,53.6215917442749 -2.25970671858062,53.621423449606 -2.25980127958677,53.6213145159866 -2.25985661790885,53.6212127673754 -2.25991046134267,53.6211111109684 -2.25995496582352,53.6209708366615 -2.26000040828242,53.6207406122028 -2.26000162678649,53.6206956804494 -2.25995433506495,53.6206274017399 -2.25978627114257,53.6205810409261 -2.25957298267275,53.6205788082796 -2.25870716069384,53.6206381919785 -2.25860135231472,53.6206411172365 -2.25801271810341,53.6205534287814 -2.25755277300925,53.6204942150518 -2.25711848076385,53.6204304520563 -2.25676901587734,53.6203979547478 -2.25714111447698,53.6199333106059 -2.25725611405288,53.6199456434499 -2.25753114703421,53.619935167243 -2.25804631557384,53.6198747512063 -2.25837845045065,53.6198057427494 -2.25861830961775,53.6197108738877 -2.25876136276972,53.6196233129562 -2.25896326717989,53.6195186410076 -2.25903865542346,53.6194744475177 -2.25910630288046,53.6194284730774 -2.25916488168229,53.6193671535767 -2.25921747337498,53.6193050380685 -2.25923524667463,53.6192564760052 -2.25924864748909,53.6192061266451 -2.25920463510749,53.6186992454765 -2.25915618401238,53.618442266825 -2.25911926347369,53.618337213772 -2.25859097522284,53.617478149235 -2.25843682252012,53.6172394607662 -2.25791657070209,53.616465742154 -2.2606087936808,53.6167178881362 -2.26057862591622,53.6162334420054 -2.26277417030037,53.6156066451146 -2.26563938273918,53.6147554749895 -2.26647690886034,53.6145387619212 -2.26673502760539,53.6147170930721 -2.26723597554734,53.6148040353511 -2.26689252732327,53.6152424991306 -2.26674903805467,53.6154927129083 -2.26676603541508,53.6155591698013 -2.26685580858259,53.6156435255113 -2.26740434959408,53.6158633506015 -2.26766666979395,53.6159751756139 -2.26784535088038,53.6160268927163 -2.2683900548981,53.6161119355943 -2.26870336784079,53.6161669437559 -2.26888930218979,53.6161827004827 -2.26904349736574,53.6161661792799 -2.26918538081786,53.6161344099011 -2.2692321165717,53.616114536674 -2.26940525974892,53.6160206942147 -2.27020889274511,53.6154534970733 -2.27049191841981,53.6152757484309 -2.27071453131156,53.6151036160279 -2.27109942595334,53.6147782687172 -2.27126513992564,53.6146934268512 -2.2717870687905,53.6145142332618 -2.27164645140802,53.6142772388165 -2.27132400802169,53.6139642774574 -2.27119547613311,53.6139582789204 -2.27065626607607,53.6135613409442 -2.27022854444949,53.6130958561948 -2.26982284533458,53.6127596265963 -2.26948090298635,53.6124728523839 -2.2691260575197,53.6118237105962 -2.26910613783765,53.6117878128327 -2.26892168748621,53.6115330316004 -2.26881715333264,53.6112636037183 -2.26848889227103,53.6109892862009 -2.26799779882751,53.6105256437873 -2.267359352763,53.6099527926984 -2.26716630390598,53.6097734187576 -2.26663349990148,53.6091723821175 -2.2666181775841,53.6091535461646 -2.26660278587358,53.6091041589836 -2.26582586308168,53.6086186806117 -2.26571808006873,53.6085407443954 -2.2655588408597,53.6084440526153 -2.26541597065061,53.6083148855414 -2.26536859161498,53.608231423911 -2.26525923774072,53.6081606789267 -2.2651578791162,53.6081330482141 -2.26511530905362,53.6081007946877 -2.26510574983654,53.6080270427034 -2.26441112235366,53.6076421055885 -2.2639768016471,53.6077932167808 -2.26314331714696,53.6074192723477 -2.261915233506,53.6067873985985 -2.26184228448139,53.6067183684033 -2.2618131000258,53.606653735544 -2.26180675123121,53.6065944438305 -2.26027512419466,53.6062382703733 -2.25940509330531,53.6060711409106 -2.25916916476059,53.606042898366 -2.25867029611039,53.6060313991954 -2.25813530446363,53.6060217736351 -2.25745095739717,53.6060609898805 -2.25621947124632,53.6061013765174 -2.25588553581044,53.6061029899357 -2.25572540911711,53.6061222026885 -2.25552016896985,53.6061819472703 -2.25499524266624,53.6063332203887 -2.25491390262813,53.6063792206604 -2.25428767573891,53.60655317018 -2.25304464463249,53.6069162250205 -2.25270196001371,53.6069978212207 -2.25239399383906,53.6070505896226 -2.25214786971029,53.6070888491232 -2.25177184885073,53.6071390629963 -2.2510030753814,53.6072126558237 -2.2508865000401,53.6066762746804 -2.2508152759402,53.6063905890168 -2.25062895334129,53.605543358724 -2.25046499564265,53.6049154220608 -2.25035637831029,53.6049426073737 -2.25026755060047,53.6047343247889 -2.2501576734755,53.6045691283742 -2.24964367925095,53.6040174029144 -2.24943225634443,53.6037887090544 -2.24911484755202,53.6035251015869 -2.24896752867544,53.6033905332798 -2.24897180224614,53.603354581144 -2.24843288464356,53.6034546361705 -2.24740527606261,53.6037011798277 -2.24662355212194,53.6038942816021 -2.24593400181888,53.6040620285519 -2.24562755050642,53.6041372401833 -2.24548881068315,53.6041698741821 -2.24535139589604,53.6041944176461 -2.24518534365971,53.6042226141444 -2.24497544764653,53.6042535968131 -2.24467653133126,53.604296441743 -2.24428232205136,53.6043439740673 -2.24354681152618,53.6044309300934 -2.24318744066186,53.6044703010243 -2.24239745492379,53.6045321101011 -2.24211947789959,53.6045551382322 -2.24184608555713,53.6045736640949 -2.2415907285691,53.6045867607923 -2.24121452197111,53.6046018977879 -2.24077791288859,53.6046225474305 -2.24035335932874,53.6046377791568 -2.23941053846833,53.6046657312601 -2.23880159366312,53.6046841123574 -2.23824858599826,53.6047013909925 -2.23751272828915,53.6047298140098 -2.23667568278388,53.6047566353743 -2.23565275860539,53.6047883100638 -2.23497589721639,53.6048058178438 -2.23468275886381,53.6048144809018 -2.23445450619837,53.604817625677 -2.23363852176195,53.6048228182372 -2.23330911504182,53.6048297521794 -2.23309143786558,53.604830177212 -2.23239622100491,53.6048180541084 -2.2318008090759,53.6048057323986 -2.23119933640443,53.6048015071097 -2.2307488197966,53.6047862039969 -2.23039213793357,53.6047725149632 -2.23006863271844,53.6047650518531 -2.22986461851996,53.604757357943 -2.22967871624045,53.604757715606 -2.22957604654564,53.6047579130115 -2.22943701745707,53.6047626725258 -2.22932665992064,53.6047700733092 -2.22920883765872,53.6047792850737 -2.2289944178051,53.6048057552098 -2.2286471366527,53.6048486529048 -2.22836921978585,53.6048842290487 -2.22824993482722,53.6048997326605 -2.22815777502156,53.6049079964118 -2.22812751095829,53.6049107498093 -2.22798702534631,53.604922699243 -2.22772274491024,53.6049456678617 -2.22750068806417,53.6049658598866 -2.2273284433359,53.6049805646256 -2.22720313925803,53.6049888907271 -2.22705964314476,53.6049972503877 -2.22692660249014,53.6050037932536 -2.22681024955999,53.6050085075236 -2.2266923779417,53.6050087313247 -2.22650196518509,53.6050045993747 -2.22635840158186,53.6050003783329 -2.22621630377956,53.6049907640741 -2.22609688329024,53.6049811058167 -2.22599701589453,53.6049696127849 -2.22591534532196,53.6049589849746 -2.22583514060037,53.6049429622705 -2.22552350212714,53.6048707668296 -2.22509063856869,53.6047538712322 -2.22491059641516,53.6047083828233 -2.22472295108208,53.6046619206395 -2.22458375959819,53.6046361236735 -2.22442351123624,53.6046103670172 -2.2242510796401,53.6045900232931 -2.22410434121413,53.604574124347 -2.22389878211521,53.6045565387594 -2.22378996486102,53.6045486559751 -2.22357224151066,53.6045400781997 -2.22328362821608,53.6045325305216 -2.22304937267359,53.6045311715266 -2.22281813940866,53.60453609553 -2.22259603186013,53.604546394143 -2.22238153818199,53.6045593737491 -2.2217334456835,53.6045983188225 -2.22115779952174,53.6046236474234 -2.22020447503869,53.6046703379193 -2.21988569822735,53.6046853029557 -2.21964851340354,53.6046956229586 -2.21931004043667,53.6047088250324 -2.21917101544914,53.6047145622198 -2.21908942615735,53.6047192042755 -2.21899875951868,53.6047274582326 -2.21885832303476,53.604749281263 -2.21875575084027,53.6047683391885 -2.21866218621842,53.6047945684555 -2.21840262327318,53.6048633354632 -2.21821400310738,53.6049166958209 -2.21761946710485,53.6050984828383 -2.21721518879398,53.6052304108585 -2.21681992049657,53.605370496882 -2.21661026962843,53.6054544449367 -2.21633732465105,53.6055636663828 -2.21615472007333,53.6056250993445 -2.21570664516951,53.6057715681461 -2.2152735301171,53.6058954540248 -2.21500093285271,53.6063687722827 -2.21463691040841,53.6069977072826 -2.21360107533054,53.6086812383543 -2.21340013190447,53.6089889982589 -2.21324378794232,53.609170878352 -2.212970024699,53.6094211688921 -2.21230631911397,53.6099904263804 -2.21132197655359,53.6108137350304 -2.21161147104111,53.6109641821058 -2.21188156773165,53.6114958354693 -2.2124655447738,53.6124888856066 -2.21244149952497,53.6125149862597 -2.21334609533163,53.6144567088833 -2.21293994637364,53.6148564882529 -2.21238786904557,53.6147891803146 -2.21223896811166,53.6149448978843 -2.21122730176105,53.6160603771929 -2.21148502492141,53.6162054895398 -2.21307394623703,53.6165424134778 -2.21348254871813,53.6166504111909 -2.21374762226158,53.616743477901 -2.21375974866936,53.6167506450073 -2.2137010563607,53.6170976873606 -2.21582492540245,53.6176906993848 -2.21609876859699,53.6177414230967 -2.2164603760223,53.6177955806888 -2.21681003887981,53.617877615361 -2.21684635016122,53.6178856362056 -2.21690208208685,53.6178648682582 -2.21760421240091,53.6179921767198 -2.21799629877237,53.6175042563343 -2.21820050860951,53.6172494979578 -2.2183428785616,53.6173041410176 -2.21839280453754,53.6173175286048 -2.2186135047134,53.6173108349943 -2.21952184539509,53.6172822118978 -2.21963888476401,53.6174024057085 -2.21986692454563,53.6176554730983 -2.22016104391629,53.6178166748746 -2.22030361739317,53.6179090543803 -2.22051732680405,53.6179949234731 -2.22083687278713,53.6181075525148 -2.22090046003717,53.6181352914854 -2.221009576638,53.6181934965171 -2.22119326225819,53.6183289310372 -2.22135832556973,53.6183834377659 -2.22128089514469,53.6186155023945 -2.22125697977701,53.6186658667116 -2.22116681193374,53.6187747613537 -2.22109798611554,53.6188890965973 -2.22103820247486,53.6190401672808 -2.22100578355185,53.6191804948574 -2.22092186136416,53.619339696869 -2.22087238459203,53.619412572772 -2.22075223918527,53.6195575547108 -2.22068455553097,53.6196286665015 -2.22062286611596,53.6196782015914 -2.22055805613084,53.6197268444774 -2.22035310057366,53.6198387348112 -2.220265656302,53.6198973036805 -2.22010466218468,53.620026095908 -2.22003086018561,53.620095511702 -2.21995751149158,53.6202277367429 -2.21992645863654,53.6203679706697 -2.21998678750076,53.6206303328061 -2.22000731294136,53.6207894316845 -2.22000194706327,53.6209314159881 -2.21995473363836,53.6211517427754 -2.21993397323031,53.6212101877361 -2.21989488965768,53.6212686664024 -2.21973574719498,53.6214667345289 -2.21964279753887,53.6216178653507 -2.21963820841102,53.6216223670251 -2.21960950544436,53.6216161297635 -2.21957770068104,53.6216125937786 -2.21954901798218,53.621609950879 -2.21951871310422,53.6216073109517 -2.21947183580537,53.6216055993757 -2.21942496168667,53.6216047875024 -2.21937809375933,53.6216048735288 -2.21932822925892,53.6216040662071 -2.21927687741917,53.6216050592492 -2.21923000949104,53.6216051452176 -2.21920733247445,53.621606983564 -2.21917705100109,53.6216088358502 -2.21913171566492,53.6216161077966 -2.21908189322914,53.62162338795 -2.21905324643074,53.6216279327939 -2.21901090294509,53.6216351992113 -2.21897165661878,53.6216388655267 -2.21892782258371,53.6216470325744 -2.21889605522001,53.6216506851666 -2.21886591319467,53.6216552336023 -2.21883866559108,53.6216651679018 -2.21881453430276,53.6216751854742 -2.21881005655342,53.6216769913271 -2.21879801786062,53.6216868977754 -2.21878598231493,53.6216977021459 -2.21877695266973,53.6217111974975 -2.21875902817597,53.6217399847089 -2.21874682511984,53.6217427026264 -2.2187423520239,53.6217454063972 -2.21871490782274,53.6216933398734 -2.2186188070093,53.6215262914259 -2.21853323735419,53.621370995599 -2.2185058398183,53.6213278237443 -2.21845568204844,53.6212704075113 -2.21839637826388,53.621204021487 -2.21824731275443,53.6210388662682 -2.21813975279774,53.6209932358749 -2.21784287871533,53.62088055754 -2.2175959531728,53.620784860774 -2.21721891469508,53.6206686426008 -2.21720835721269,53.6206758506207 -2.21719332977988,53.6206866602796 -2.21715559028596,53.6206921209484 -2.21712083644643,53.6206966764529 -2.21710540252481,53.6206526745155 -2.21709172355459,53.6206347282062 -2.21706146181257,53.6206159131961 -2.2170250786328,53.6205944137133 -2.21697661819133,53.6205756317384 -2.2168993506422,53.6205542064606 -2.21659655585978,53.6204765793332 -2.21618792814387,53.6203729960981 -2.21603042595733,53.620334642189 -2.21572306779618,53.62024174644 -2.21554910959254,53.6202267848458 -2.21523908895945,53.6201976905618 -2.21465835670713,53.6201484154475 -2.21392638575254,53.6200903329756 -2.21285248513256,53.6200023944834 -2.21268465460034,53.6199910113313 -2.2126301664303,53.6199875148128 -2.21258642077502,53.6199884905944 -2.21254109983082,53.6199984556393 -2.21250029293489,53.6200138038045 -2.21244457851016,53.6200390628715 -2.21234056300611,53.6201012489104 -2.21227231658028,53.6200636302296 -2.21218897844247,53.6200242415608 -2.21215412663112,53.6200090278871 -2.21210716875262,53.6199911401148 -2.21203600780244,53.6199688020467 -2.21196036908041,53.6199482686374 -2.21188012711224,53.6199295409997 -2.21181797778629,53.6199143756408 -2.21173787947896,53.6198992420642 -2.2115986989742,53.6198842130985 -2.21102547209473,53.6198385015213 -2.21077440975641,53.6198083936147 -2.2106745513955,53.6198049753508 -2.21063827552838,53.6198041404921 -2.21033274795533,53.6197749366294 -2.20990625370763,53.619733453604 -2.20961282748903,53.6197061132829 -2.20954785174468,53.6196990384582 -2.2094812480184,53.6196901696978 -2.20928913080051,53.6196572597241 -2.20930109086494,53.6196311799753 -2.20928135726223,53.6196231269028 -2.2091495196945,53.6195550667182 -2.20879937239916,53.6193749772731 -2.20879788619176,53.6193767766261 -2.20873278213033,53.6193436436921 -2.20871003482813,53.619331103455 -2.20866304809549,53.6193069235027 -2.20865102547811,53.6193204233134 -2.20855542866431,53.6192711691496 -2.20839021953195,53.6191842964233 -2.2083327285101,53.6191528568652 -2.20812353629224,53.6190435960933 -2.20784161204081,53.6188958227611 -2.20782187022416,53.6188859727099 -2.2076294170505,53.6187837808961 -2.20757479381591,53.6187524258762 -2.20754771519665,53.6187713429037 -2.20751757687473,53.6188019463957 -2.2074906175445,53.6188451243396 -2.20743665496956,53.6189225854923 -2.20728193332596,53.6191430028574 -2.20723094843138,53.61921776316 -2.20721891060992,53.6192285663702 -2.20720074333403,53.6192348878749 -2.20717660297499,53.6192430173903 -2.20714647918165,53.6192511563782 -2.2070558450669,53.6192728790686 -2.20708027221336,53.6193231566459 -2.20708953014216,53.6193554893738 -2.20709568122504,53.619389624242 -2.20709895573585,53.6194219673422 -2.20709911015143,53.6194534170247 -2.20709614887768,53.6194848721087 -2.20709179332212,53.6195119262572 -2.20709041732799,53.6195361897757 -2.20709651108639,53.6195586435893 -2.20710876812706,53.61959276787 -2.20715300966945,53.6196672731075 -2.20694457181705,53.6197116643134 -2.20662147972568,53.6197859058166 -2.20652173657994,53.6198059369754 -2.20646134194457,53.6198177225245 -2.20639495497839,53.6198277216419 -2.20633441721774,53.619835912966 -2.20623474461583,53.6198450706562 -2.2058373039844,53.6198816993297 -2.20558038726961,53.6199028084693 -2.20545505034726,53.6199147061524 -2.20525560809667,53.6199384113082 -2.20511661329254,53.6199611144248 -2.20485827760195,53.6199983988273 -2.20461965404717,53.6200392433123 -2.20421027993698,53.6201091336903 -2.20413247652658,53.619975380193 -2.20410812214462,53.6199394795403 -2.20408223639724,53.619896391787 -2.20407306328353,53.6198811319044 -2.20407003676036,53.6198739482616 -2.20404587802332,53.6198784827636 -2.20404438573556,53.619879384139 -2.2040276969368,53.6198821082247 -2.20396683043756,53.6197967580508 -2.20390293097434,53.6197025173389 -2.20389223680611,53.6196818688784 -2.20388455892574,53.6196666064293 -2.20387844519819,53.6196396592638 -2.20384621956241,53.6195480600371 -2.2037971236762,53.6193961963107 -2.20375415084205,53.6192731654575 -2.20363160322806,53.6192428233263 -2.20407359782895,53.6187288058238 -2.20430062791734,53.6184830182875 -2.20455192541627,53.6182300008197 -2.20480613001495,53.6179860523651 -2.20504083393242,53.6177564245736 -2.20541246520492,53.6173890799081 -2.20534278119263,53.6173613441941 -2.20521089142102,53.6172797111244 -2.20506080096551,53.6171973002192 -2.20491683999814,53.6171193718468 -2.20480773922125,53.6170593546709 -2.20467890012803,53.6169894877265 -2.20460010519251,53.6169589808361 -2.20447602531104,53.6169196566474 -2.20431849270612,53.6168696064158 -2.20420040984863,53.6168329673228 -2.2040763311204,53.6167936418831 -2.20398695719899,53.6167659390756 -2.20387351140051,53.6167346828947 -2.20379177590417,53.6167141557072 -2.20368435238663,53.6166909758028 -2.20341946284407,53.6166311340841 -2.20324390706321,53.6165909966292 -2.2030562572973,53.6165499824535 -2.20287010871181,53.6165098624616 -2.20282019337647,53.6164973672848 -2.20279300184041,53.6164929211328 -2.20263572168824,53.6164689270136 -2.2025872005464,53.6164609217034 -2.20250866341613,53.6164574605048 -2.2024208980585,53.6164531169704 -2.20233775049705,53.6164496634743 -2.20224551585172,53.6164489208876 -2.20212610416966,53.6164464274791 -2.2019901145014,53.6164439619928 -2.20186459865416,53.6164423765746 -2.20161055986606,53.6164356178148 -2.20151083592017,53.6164321917281 -2.20139291755044,53.6164296950864 -2.20128560675222,53.6164298760442 -2.20120546754921,53.6164300111199 -2.20105127175438,53.6164257776401 -2.20088798325555,53.616422458086 -2.20080633901761,53.6164207986748 -2.20074737833555,53.6164191001722 -2.20067480979223,53.6164129321836 -2.20056898702645,53.6164113132459 -2.20039508230495,53.6164035185236 -2.20037990009045,53.6163819784878 -2.20036307419941,53.6163558580979 -2.20033430700558,53.616334340853 -2.20029032008766,53.6163101526576 -2.20021161714886,53.6162716468525 -2.20012367491115,53.6162295611808 -2.20006611600515,53.6162080921267 -2.1999934686944,53.6161848506689 -2.1999208427029,53.6161661023595 -2.19978156815824,53.6161276976799 -2.19965752894702,53.6160955564431 -2.19954845861161,53.6160660865368 -2.19948046040621,53.6160509237292 -2.19922619832953,53.6159964462204 -2.19919588344836,53.6159902068213 -2.19916569252864,53.6159839672078 -2.19912026937004,53.6159723618366 -2.19914157193995,53.6159965874021 -2.19916891525229,53.6160333828471 -2.19917959524979,53.616051426028 -2.1991856698354,53.6160711846593 -2.1991858264264,53.6161044319489 -2.19918764579384,53.6161466611227 -2.19918612267168,53.6161673303555 -2.19918025967415,53.6161925000563 -2.19917427543793,53.6162185687844 -2.19915940553296,53.6162635222739 -2.19915207561513,53.6162949843996 -2.19913554439026,53.6163309542009 -2.19911766215989,53.616371510262 -2.1991041012421,53.6164029818769 -2.19909669088644,53.6164173718443 -2.19909219311031,53.6164416404377 -2.19908784617843,53.6164713008325 -2.19908197182439,53.616520731639 -2.19907934830145,53.6165989113447 -2.19907800828884,53.6166321611269 -2.19903875371272,53.6166331244999 -2.19898130895826,53.6166359158276 -2.19896461107519,53.6166368424803 -2.19894355633774,53.6166386752157 -2.19891477408902,53.6166405199231 -2.19889060807974,53.6166432557591 -2.19877886086381,53.616654225066 -2.19861865030903,53.6166697672287 -2.19843278319789,53.6166890361058 -2.19826808582942,53.6167045852559 -2.19814114530356,53.6167182747735 -2.19806117578733,53.6167282909443 -2.19798854204482,53.6167347013935 -2.19790856405707,53.6167429216234 -2.19779968660235,53.6167547831849 -2.19770450979405,53.6167648252092 -2.19752923924157,53.6167848840772 -2.19735857216641,53.6168031374283 -2.19718478944016,53.6168213956816 -2.19709260807603,53.6168323310969 -2.1970216028664,53.6168405350222 -2.19697177384564,53.6168460092928 -2.19689926938462,53.6168533167936 -2.19684333176254,53.6168588010848 -2.19679352778257,53.6168696654947 -2.19675580558577,53.6168787132222 -2.19669688053479,53.6168851002945 -2.19656384024935,53.6169005949386 -2.19640674916017,53.6169170278287 -2.19626623899261,53.6169343320932 -2.19607888117312,53.6169553066462 -2.19590062180604,53.6169762668749 -2.19573593915487,53.6169954069278 -2.19562409586154,53.6170127524175 -2.195453454766,53.6170372929999 -2.1952131967803,53.6170736292254 -2.19502898389557,53.6171008869681 -2.1948749064961,53.6171227049835 -2.19477663493143,53.6171372420632 -2.19476158627286,53.6171444554207 -2.19475250417308,53.6171480637409 -2.19474354340238,53.6171507748346 -2.19473446129968,53.6171543831535 -2.19472537505876,53.6171570944504 -2.19471478963684,53.6171589084672 -2.194704204214,53.617160722483 -2.19469212639586,53.6171634386561 -2.19466497654035,53.6171679752572 -2.19463470135481,53.6171707201948 -2.1945878715221,53.6171779853367 -2.19451239524333,53.6171897894652 -2.19446556385635,53.6171970545615 -2.19442633610724,53.6172043072571 -2.19442172967589,53.6172052126854 -2.19441724983138,53.6172070176317 -2.19441264753779,53.6172088218785 -2.19440817747629,53.617212423561 -2.19440370590238,53.6172160252457 -2.1943991118831,53.6172196271297 -2.19439316182152,53.617226825625 -2.19439006696731,53.6172313229945 -2.19438709607286,53.6172358210608 -2.19438562848286,53.6172421134319 -2.19438565330057,53.6172475045475 -2.19438422031442,53.6172609856693 -2.19438281214471,53.6172798579068 -2.19437831587638,53.6173050251533 -2.19437838246974,53.6173194916429 -2.19434218339481,53.617334826113 -2.19437560183729,53.6173653236916 -2.19435295912458,53.6173743461121 -2.1943303164021,53.6173833685284 -2.1943152649538,53.6173896830075 -2.1943153269758,53.6174031607961 -2.19431840802781,53.6174229245512 -2.19432005758109,53.6174561694243 -2.19432484336501,53.617493901523 -2.1943280526175,53.617541519673 -2.19433597476357,53.6176106965719 -2.19434071410208,53.6176655918184 -2.19434709009925,53.617723988022 -2.19435175874318,53.6177635179599 -2.19435497369639,53.6178120349236 -2.19435655711717,53.617830902289 -2.19435809353133,53.6178398853467 -2.19435663156484,53.617847076533 -2.19435517635624,53.6178560644605 -2.19435223850197,53.6178677512779 -2.19435083856802,53.6178884202516 -2.19434790898007,53.6179019038075 -2.19434495055153,53.617936054105 -2.19434521978529,53.6179945501289 -2.19434388036884,53.6180286977905 -2.19430763518869,53.6180341488351 -2.19422455499418,53.6180459651459 -2.19422305841986,53.6180459675804 -2.19417622753786,53.6180532325562 -2.19413996578452,53.6180550882749 -2.19407044065637,53.6180605924566 -2.19397375825673,53.6180688371968 -2.19394049073609,53.6180715868159 -2.19392229862511,53.6180725151898 -2.19390422895626,53.6180734424631 -2.19389513008057,53.6180734572395 -2.19385276518644,53.6180762216074 -2.19376515945568,53.6180799582133 -2.19364578012676,53.6180855439422 -2.19353088595455,53.6180911213831 -2.19342358733776,53.6180948896571 -2.19334956862754,53.6180986039467 -2.1932558637861,53.6181041468079 -2.19317872382039,53.6181069672184 -2.1930578518634,53.6181134527014 -2.19293848314353,53.6181217323848 -2.19281909796762,53.6181264184719 -2.19280850811819,53.6181273343987 -2.19279641758722,53.6181273539225 -2.19278582363357,53.6181273710286 -2.19276015160471,53.618128310404 -2.19273285645177,53.6181283544675 -2.19270867949092,53.6181292923172 -2.19268151239745,53.6181302349875 -2.19265584036445,53.6181311743405 -2.19263016423423,53.6181312157681 -2.19256811045105,53.6181349102694 -2.19247141378373,53.6181404582394 -2.19239739339147,53.6181441710431 -2.19222804478774,53.6181525314433 -2.19203464458751,53.6181618282164 -2.19185320529077,53.6181702066324 -2.19174142625366,53.618175778246 -2.19169755788436,53.6181767466138 -2.19169307525017,53.618177652636 -2.19169008360337,53.6181776574391 -2.19168547549814,53.6181785636625 -2.19168247977144,53.6181776696468 -2.19167948963633,53.6181776744472 -2.19165529631004,53.6181750177084 -2.19163859101242,53.6181741456976 -2.19164006569339,53.6181696510025 -2.19160989059379,53.6181670038555 -2.19160228827545,53.6181670160557 -2.19160680925156,53.6181472400402 -2.1916201787566,53.6180995943329 -2.19162309700432,53.6180834152905 -2.19162887641208,53.6180384782387 -2.19164076057833,53.6179656749974 -2.19164366657607,53.617946800397 -2.19164661294137,53.6179368214045 -2.19165104253852,53.6179242343368 -2.19165410511243,53.6179125482885 -2.19165706819369,53.6179062535533 -2.19166463375817,53.6178981537793 -2.19167356377533,53.6178882550627 -2.19169764937508,53.6178675497054 -2.19165075300283,53.6178604361891 -2.1915298815166,53.617866920131 -2.1913485795697,53.6178779940438 -2.19104927354605,53.617895545647 -2.19096317112451,53.6179010754473 -2.19093899982579,53.6179029108573 -2.19086497971905,53.6179066236133 -2.19078933652204,53.617909440092 -2.19073799670218,53.6179122176989 -2.19065175807337,53.6179150510171 -2.19058072549167,53.6179178600013 -2.19051580568246,53.6179215580142 -2.19043419133574,53.6179270802714 -2.19034048243576,53.6179317220315 -2.19010621692312,53.6179446752357 -2.18981151287467,53.6179605095414 -2.18952590705542,53.6179762387951 -2.18939892767642,53.6179827302769 -2.18933849284377,53.617986420535 -2.18931282888022,53.617989156808 -2.18924331681514,53.6179973546368 -2.18909071356911,53.6180155675322 -2.18905894636459,53.6180192122415 -2.18896825688732,53.618030139019 -2.18891991647119,53.6180347078479 -2.1889154780051,53.6180454980729 -2.18890350002907,53.6180706769308 -2.18889003500967,53.6180976548909 -2.18888546051482,53.6181057497542 -2.18889494772076,53.6181928955869 -2.18870496420749,53.6182975199155 -2.18831084812886,53.6184095640935 -2.18818857154402,53.6184367135419 -2.18825467982105,53.6186990814172 -2.18841721880799,53.6195383569031 -2.18819766828937,53.6201426296257 -2.18803423429626,53.6204457945218 -2.18801489278928,53.6205249880358 -2.18978288206685,53.6203262142756 -2.18983008786754,53.6204016189386 -2.19169349133561,53.6202737415308 -2.19175926651083,53.6204299865073 -2.19180564095244,53.6206780065546 -2.19185751224819,53.6207641852438 -2.19208575508122,53.6210955700744 -2.1920634613647,53.6211818679397 -2.19207901880282,53.6212860769276 -2.19217287405308,53.6213119846656 -2.19226396833249,53.6217172718144 -2.19238863480387,53.6225412366287 -2.19233516307133,53.622733706258 -2.19234823739922,53.6229493410724 -2.19323488768132,53.6227807761941 -2.19369405333498,53.622685682838 -2.19376571650968,53.622818554909 -2.19399026224905,53.6233161770567 -2.19392375492088,53.6233288649998 -2.1939288490873,53.6234339886513 -2.19394166765865,53.6235921160301 -2.19394828372895,53.6237296757848 -2.19394689015333,53.6237521423703 -2.19395350598581,53.6238626555917 -2.19396160503027,53.6239975173572 -2.19396828286726,53.6241215083469 -2.19397497756018,53.6242761411327 -2.19461321621153,53.6242993641259 -2.19529819271665,53.6243207105683 -2.19532088470928,53.6243215722926 -2.19562023991066,53.6243318647587 -2.19594056676143,53.6242944987513 -2.1963682768089,53.6242416798869 -2.19636541012769,53.6242686412532 -2.19639256857428,53.6242650022072 -2.19644241063768,53.6242604279297 -2.19651193318204,53.6242522259591 -2.19653161216278,53.624248599185 -2.19661320452592,53.6242358849715 -2.19679893991225,53.6242076337703 -2.19684889058946,53.6241994647434 -2.19694099199524,53.6241948197149 -2.19696207814524,53.6241723206206 -2.19704532222169,53.6241928509195 -2.19711201652408,53.6242197874297 -2.19703364979204,53.624282816475 -2.19696432167841,53.6243323517874 -2.19681059577137,53.6244350424151 -2.1966976209502,53.6245080126205 -2.19660266531724,53.62456936092 -2.19647297761335,53.6246405607619 -2.19624210574975,53.6247478698184 -2.19607914832315,53.6248227191708 -2.1958423629895,53.6249454025546 -2.19574681868837,53.6248799638234 -2.19573747208954,53.6248268738828 -2.19556504259005,53.6248217642295 -2.19542895890166,53.6248049146502 -2.19528681283029,53.6247979583022 -2.19525651706083,53.6247971089984 -2.19516876446704,53.6247720924962 -2.19515816883505,53.6247721098061 -2.19499784301847,53.6247696760372 -2.19493886251677,53.6247661778967 -2.19493740456177,53.624774267899 -2.194884532271,53.6247707597643 -2.194872310185,53.6247698808776 -2.19485572617076,53.6247690091045 -2.1945700980983,53.624789243399 -2.19449146152185,53.6247947625991 -2.19439336202354,53.6248236765642 -2.19431630076373,53.6248462662559 -2.19420320515571,53.6248941642578 -2.19398292740602,53.6250023505151 -2.19360256461005,53.6251611147808 -2.19356337499193,53.6251783413349 -2.19354372003317,53.625187358726 -2.19337776828774,53.625263107121 -2.19325411488097,53.6253199169034 -2.19304606710506,53.6254586324926 -2.19290140534537,53.6255560010696 -2.19287729155172,53.6255713154993 -2.19270539849512,53.6256839133932 -2.19259230941648,53.6257613729403 -2.19248680346873,53.625834415923 -2.19248232826831,53.6258371187021 -2.1921839973305,53.6260532552602 -2.19215386746454,53.6260892458381 -2.19206494593956,53.6261631614648 -2.19183595141287,53.626330662662 -2.19173642671675,53.6264036054365 -2.19155556860263,53.6265199010864 -2.19137011076543,53.6266397065162 -2.19097358310833,53.626894724529 -2.19097209029648,53.6268956257363 -2.19087265150686,53.6269604817876 -2.1907641319429,53.6270298445548 -2.19069017015875,53.6270776756379 -2.19068109933748,53.6270839800645 -2.19068111970182,53.6270884732428 -2.19068787174196,53.6272304358877 -2.19067293287676,53.6272628074194 -2.18889695456129,53.627078726263 -2.18887157538319,53.6271461581798 -2.18720485688405,53.6277276348817 -2.18578877651916,53.6282457089215 -2.18603031020329,53.62848174543 -2.18611435285019,53.6286820838063 -2.18614040747672,53.6287665080376 -2.18616953874348,53.6292077463006 -2.18620894288828,53.6292094825991 -2.18640697261543,53.6292199563699 -2.18660651036424,53.6292052685964 -2.18692245712895,53.6291823110328 -2.18693012682406,53.6291966756716 -2.18697547595478,53.6291894169231 -2.1870223165352,53.6291812561061 -2.18714932639575,53.6291738695716 -2.18710690473488,53.6295028995808 -2.18710692470549,53.629507391852 -2.18710107143275,53.6295649093089 -2.18709256575422,53.629671042693 -2.18708383578961,53.6297546232341 -2.18708389170718,53.6297672030308 -2.18708712383686,53.6298211109945 -2.18709187942817,53.6298813074161 -2.18709527343532,53.6299433925896 -2.18709682484858,53.6299559700471 -2.18710288973405,53.6299739324665 -2.18711977547163,53.6300143412691 -2.18713049630968,53.6300421798289 -2.18714874313043,53.6300798909382 -2.18717930639917,53.630140046983 -2.18722508462942,53.6302290223447 -2.18724948063413,53.6302757102199 -2.18728441226619,53.6303089019968 -2.1873694278487,53.6303896393197 -2.18740582869108,53.6304165397201 -2.18741946784098,53.6304273006013 -2.18743010095425,53.6304353715276 -2.18744223108938,53.630443439209 -2.18745435971713,53.6304515068916 -2.18747559946269,53.6304613579377 -2.18748922112471,53.6304685253565 -2.18753320417796,53.6304900218181 -2.18755893450294,53.630500764632 -2.18761035855729,53.6305133537802 -2.1876452681581,53.6305411543719 -2.1876816051964,53.6305536772678 -2.18775894100928,53.630589497959 -2.18782417108369,53.6306504982779 -2.18784705494242,53.6306935931395 -2.18785924790586,53.63071603821 -2.18788370108394,53.6307753048706 -2.18790823347151,53.6308526331936 -2.18792668562001,53.6309083148882 -2.18797829854654,53.6309630456758 -2.18819171530097,53.6310112330608 -2.18826274628824,53.6310030337539 -2.18837914823058,53.6309920683293 -2.18845477515009,53.6309802681885 -2.1885137092404,53.6309711889595 -2.18862124294166,53.6310123535717 -2.18878099465622,53.6312431228064 -2.18870253099397,53.6312621163837 -2.18872992994604,53.6313105951032 -2.1887756842317,53.6313931910564 -2.18879705631994,53.6314326937606 -2.18889862793785,53.6315063059859 -2.18894397523091,53.6314981468219 -2.18896814391618,53.6314936163615 -2.18919175347006,53.6314509403471 -2.18933987317725,53.6314228507695 -2.18945772300692,53.6314010988718 -2.18950755568372,53.6313920344674 -2.18959363610687,53.6313757238584 -2.19015721359627,53.6312696982628 -2.19020866549142,53.6312606300885 -2.19021016103052,53.6312606277116 -2.1902267272704,53.6312570078948 -2.1902660929087,53.6312497565473 -2.19037933368749,53.6312289089716 -2.19040051759947,53.631226179707 -2.19042169592783,53.6312225516262 -2.19044125065185,53.6312180282028 -2.190460933435,53.6312144024948 -2.19046392195241,53.6312134989175 -2.19049569500972,53.6312089560395 -2.19066797974,53.6311763331077 -2.19077822753243,53.6311554908135 -2.19088249820376,53.631136454693 -2.19098975278772,53.6311155261926 -2.19109401917964,53.6310955919678 -2.19123453827034,53.6310693088732 -2.19146113763776,53.631026713628 -2.19156839614552,53.6310067741936 -2.19158047814744,53.6310040583871 -2.19167876701604,53.6309859299553 -2.19175103622048,53.6309211178837 -2.19193021261717,53.630759897483 -2.1919498376363,53.6307436917037 -2.19185990362075,53.6305982690291 -2.19181266899235,53.630520168823 -2.19171366527903,53.6303540031995 -2.19168779322141,53.6303127114289 -2.19185065609223,53.6302109122739 -2.19184153816254,53.6302073325053 -2.1918126638875,53.6301911146171 -2.19180966469392,53.6301893226803 -2.19179453306766,53.6301794625933 -2.1917717846436,53.6301669191467 -2.19175665864455,53.6301579578681 -2.19173991013461,53.630148999188 -2.19172478824204,53.6301409358222 -2.19170967713332,53.6301355689031 -2.19170495304577,53.6301113154716 -2.19170188014211,53.6300933484512 -2.19196641366674,53.6300866343298 -2.19213884849944,53.6300881551691 -2.19224932339993,53.6300906732639 -2.19229008933109,53.6300897089274 -2.19233995114991,53.6300878320308 -2.19274667783196,53.6300674087568 -2.19283130400901,53.630060982428 -2.19304743789073,53.6300489527727 -2.19313819099837,53.63004611073 -2.19320626397484,53.6300460008162 -2.19325613395463,53.6300459202692 -2.1932970362015,53.6300476509373 -2.19334393020749,53.6300511695537 -2.19349510332252,53.6300653018197 -2.19374630899742,53.6300882583736 -2.19384308554776,53.6300943915746 -2.19394447300167,53.6300996184005 -2.19414563377072,53.6301118720616 -2.1942680981252,53.6301188620567 -2.19431798480157,53.6301223754354 -2.19439368468614,53.6301267447787 -2.19449344146126,53.6301301770447 -2.19454182020079,53.6301309972114 -2.19465228704056,53.6301317163591 -2.19478232425568,53.6301315047216 -2.19501970764422,53.6301311180121 -2.19518753910833,53.630134438717 -2.19524501937874,53.6301352428521 -2.19553386043644,53.6301275832451 -2.19569696965867,53.6301075478305 -2.1964090040337,53.6300551624436 -2.19776645478931,53.6299693598182 -2.19821761910659,53.630066557198 -2.19847173259471,53.6300975857972 -2.19847683383405,53.6308607308375 -2.19827146819672,53.6312268776247 -2.19811633096606,53.6313780939152 -2.1981148354234,53.6313780963908 -2.19811672110849,53.6314608516381 -2.19816695982046,53.631511986187 -2.19854453891406,53.6317324083983 -2.19897788917936,53.6319339558552 -2.19961280199296,53.6322025597996 -2.20008411042633,53.6324130257008 -2.20028869661219,53.6324872654397 -2.20045204010897,53.6325148475647 -2.20083638652672,53.632555537737 -2.20110469783509,53.6326835825688 -2.20149090454262,53.6327998362813 -2.20229814910456,53.6330654388519 -2.20250423096138,53.6331378744627 -2.20266435087467,53.6334270325064 -2.20269517508837,53.6335357067744 -2.20271988955023,53.6336444818268 -2.20271356235196,53.6339086704638 -2.20374814874528,53.6339438441016 -2.20378506617881,53.6340740725714 -2.20473231147257,53.6341982547156 -2.20575707586613,53.6343897787591 -2.2071850035575,53.635066808958 -2.20769935809939,53.6347899683291 -2.20846037756854,53.6345450445991 -2.2086173377084,53.6344899582179 -2.20876532498582,53.6344357861033 -2.20896739786955,53.6343258085826 -2.20926178877881,53.6342254637723 -2.20956527514105,53.6341242933581 -2.21033551414845,53.6339071967716 -2.21043053597415,53.6338594056099 -2.21050425795822,53.6337909852209 -2.21113028381171,53.633784490259 -2.21126416334253,53.6336288026219 -2.21216815850858,53.6335812868054 -2.21285750725543,53.6338173732933 -2.21291268307548,53.6342721288326 -2.21308014042933,53.6347876974271 -2.21325911459095,53.6351883182063 -2.2135383392369,53.6356614539572 -2.21366523719217,53.6359228001083 -2.21368232039684,53.6360207133972 -2.21367991378495,53.6361358235958 -2.21361590378101,53.6363479997298 -2.21337090892009,53.6369425672838 -2.21319660019773,53.6374615297617 -2.21310251893068,53.6376954144177 -2.21300840423638,53.6379229183047 -2.21282765304546,53.6380832741634 -2.21279353766139,53.6382163227198 -2.21268636006631,53.6385490719221 -2.2122637416196,53.6390163572772 -2.21141973756933,53.6402015295433 -2.21182496380612,53.641668617536 -2.21127583411406,53.6416632976669 -2.21055439561503,53.6416663659608 -2.21032145950559,53.6416712676046 -2.20980585637536,53.6417117093951 -2.20945368209775,53.6417635434022 -2.20934791953658,53.6417871812747 -2.2092497779753,53.6418134114184 -2.20907020657451,53.6418910011825 -2.2084587649368,53.6421212875029 -2.20759685120235,53.6424948739281 -2.20679981068813,53.6428252129844 -2.20660343051568,53.6428596967795 -2.20645997260981,53.6429030743958 -2.20639054040999,53.6429355421754 -2.20625321435179,53.643008561538 -2.2061868197546,53.6430500983308 -2.20607095338325,53.6431760949006 -2.20600658606895,53.6433002060512 -2.20598432435914,53.6433892901131 -2.20590804563131,53.6435772190624 -2.20584054192164,53.6436726707511 -2.20571112300266,53.6438076756666 -2.20557690520711,53.6439049495568 -2.20548485144765,53.6439536297133 -2.20515882912476,53.6440791770237 -2.20495214981233,53.6442026326158 -2.20415717609376,53.6446606347219 -2.20401405888332,53.6447758928506 -2.20390735176905,53.6449153503166 -2.20380050493279,53.6450261431522 -2.20356052909868,53.6451523486207 -2.20411986051903,53.6456826193122 -2.20347417258364,53.6460432292068 -2.20288128726375,53.6463893688831 -2.20264129680786,53.6464886155699 -2.20230149249453,53.6466069909043 -2.20196044044686,53.6467773930955 -2.20177345036167,53.6469017979375 -2.20169067823412,53.6469890966719 -2.20162477371306,53.6471348631507 -2.20162878126048,53.6473460160374 -2.20160051449083,53.6480569964029 -2.20162700154543,53.6482223755456 -2.2018135611604,53.6486300927448 -2.20210525653463,53.6492156345606 -2.20236773364709,53.649689805201 -2.20239517623588,53.6497418743207 -2.20223994253163,53.6498580497658 -2.20213611657029,53.6499778223676 -2.20202381519592,53.6502026501208 -2.20177950384946,53.6503684847148 -2.20166347409703,53.6504675208636 -2.20122329666611,53.6507846387856 -2.20113292996363,53.6508773400694 -2.20089358343318,53.6511446991068 -2.20082470012677,53.6512958601015 -2.20075243670888,53.651366067925 -2.20065148691058,53.6514372215987 -2.20063961355123,53.6514848645435 -2.20062978590097,53.6516476074914 -2.20066522454067,53.6517814321249 -2.20062656499704,53.6519406289824 -2.20051371013292,53.6520531357292 -2.20042641509055,53.6521629940371 -2.20037873756447,53.652314928285 -2.20036880582245,53.6524560165187 -2.20042272813579,53.6526465077204 -2.20038908311383,53.6528901602396 -2.20237241337394,53.653494421713 -2.20258588929331,53.6535282049801 -2.2027344180975,53.6535710841854 -2.2052285001861,53.654348835335 -2.20506544320488,53.654731086261 -2.20487473837419,53.6550208346045 -2.20477465026942,53.6552951514988 -2.20445620243664,53.6560749146655 -2.20369549274286,53.6558496890486 -2.20360363149993,53.6559181355292 -2.20389160672987,53.6560309516598 -2.20416890559457,53.6561284193962 -2.20444932416404,53.6562258820574 -2.20472670362674,53.656313555015 -2.20595109790149,53.6566835413225 -2.20667079616933,53.6568845621005 -2.20678146270892,53.6569373849141 -2.20687731887411,53.6570477403995 -2.2070221050781,53.6572650279213 -2.20706521489468,53.6574060248027 -2.20710222133924,53.6575489188173 -2.20711270279294,53.6578284380099 -2.20713951181585,53.6580539270953 -2.20724385655977,53.6583422690201 -2.20750069073932,53.65858631774 -2.20760204497887,53.6588746645533 -2.20789857300942,53.6594754553429 -2.20766171704943,53.6596160402673 -2.20766720971685,53.659819191423 -2.20759612553935,53.6598256046088 -2.20742348496242,53.6601108323422 -2.2071617994112,53.6607341572161 -2.20736652660029,53.660832641962 -2.2080490456155,53.661144240884 -2.20893069976377,53.6616559525236 -2.20991605321556,53.662291475285 -2.21050679084157,53.6627047560442 -2.21127551671783,53.6633020117123 -2.21187185127364,53.6633342028879 -2.2119083762027,53.6633521097325 -2.21218758804711,53.6635188332545 -2.21286504480333,53.6640227013354 -2.21461527021058,53.6650478686977 -2.21484155769564,53.6652065045217 -2.21513042141336,53.6654747404638 -2.21525984946604,53.665627259805 -2.21538317549476,53.6657816774702 -2.21556196567237,53.6660941382234 -2.21557603134553,53.6661848657143 -2.21559075545399,53.6664041735816 -2.21556949921258,53.6666882419635 -2.2155141342167,53.6668177321853 -2.21533691528303,53.6670814142389 -2.21554414646194,53.6670495920468 -2.21574988845422,53.6670438302034 -2.21599683661528,53.6670919054693 -2.21659955736852,53.6677478308216 -2.21705170349758,53.668263853048 -2.21772889962318,53.6689807388165 -2.21858091112417,53.6689441419834 -2.21963549263122,53.6688900946914 -2.22024075628338,53.6688710114618 -2.2205496351729,53.6688749355928 -2.22162783400025,53.6689933474295 -2.22248572247585,53.6692191768802 -2.22262537933436,53.6692925971537 -2.22281400354456,53.6694693492268 -2.22291391725999,53.6694844382311 -2.22332736102869,53.6695321889699 -2.22346751173575,53.6696981576913 -2.22357853627196,53.6698076623229 -2.22363781137272,53.669854275672 -2.22386664656596,53.6698942820574 -2.22481255075549,53.6698871175108 -2.22559799500463,53.6704438138111 -2.22582386832174,53.6707678518548 -2.22620746484638,53.6706232707129 -2.22851104106292,53.6700401417075 -2.2330799123683,53.6688466893082 -2.23657496385011,53.6670071610404</coordinates></LinearRing></outerBoundaryIs></Polygon>
  </Placemark>
