  <Placemark>
	<Style><LineStyle><color>ff0000ff</color></LineStyle><PolyStyle><fill>0</fill></PolyStyle></Style>
	<ExtendedData><SchemaData schemaUrl="#Wards__December_2019__Boundaries_EW_BFE">
		<SimpleData name="objectid">4577</SimpleData>
		<SimpleData name="wd19cd">E05010217</SimpleData>
		<SimpleData name="wd19nm">Broadfield</SimpleData>
		<SimpleData name="wd19nmw"></SimpleData>
		<SimpleData name="bng_e">353452</SimpleData>
		<SimpleData name="bng_n">422387</SimpleData>
		<SimpleData name="long">-2.70644</SimpleData>
		<SimpleData name="lat">53.69585</SimpleData>
		<SimpleData name="st_areashape">1311280.65424161</SimpleData>
		<SimpleData name="st_lengthshape">7188.78006975859</SimpleData>
	</SchemaData></ExtendedData>
      <Polygon><outerBoundaryIs><LinearRing><coordinates>-2.7018621769106,53.7037848338159 -2.70198138060641,53.7038479330952 -2.70203146020726,53.7038476396513 -2.70215640612555,53.7038055731796 -2.7022678951341,53.7037653831051 -2.70236047433376,53.7037747247686 -2.70244674114387,53.7037724213459 -2.70251407490572,53.7037208087944 -2.70254332358321,53.7036622298425 -2.70260035620574,53.7036535003593 -2.70279422556395,53.7036238273448 -2.70327211043765,53.7035805875725 -2.70329780699525,53.703578639974 -2.70361011709216,53.7035004275975 -2.70370004294417,53.7034405940316 -2.70378095836774,53.7033871033059 -2.70385942555273,53.7033740623625 -2.70440010872205,53.7032773428512 -2.70441829704513,53.7032745403293 -2.70450734846525,53.703259639968 -2.7045414706034,53.7032163082578 -2.70464098779457,53.7030953144808 -2.70478706952546,53.7030477297114 -2.70486921285358,53.7029707779311 -2.70493703429374,53.702956002148 -2.70495673543825,53.7029540885666 -2.70510334238126,53.7029379502226 -2.70512568026447,53.7029144564646 -2.7050847789983,53.7028212453797 -2.70512599122494,53.7027464218391 -2.70502441098532,53.7026543777181 -2.70494540054378,53.7026422627165 -2.70491826525304,53.7026478135488 -2.70477479190134,53.7026720208802 -2.70468061147229,53.702656400546 -2.70462959108254,53.7025929020033 -2.70463996678523,53.7025784642565 -2.7046826584583,53.7025099212554 -2.70487580363237,53.7024611615599 -2.7048937756991,53.702452968176 -2.70491052426744,53.7024537684494 -2.7051026915193,53.7024436519631 -2.7052303964051,53.7024698569245 -2.70529730920866,53.7024829417864 -2.70531358780102,53.7024630771667 -2.70533585014155,53.7024350905759 -2.70541110715001,53.7024094875124 -2.70547443601186,53.7023875490512 -2.70556152857816,53.7022557553918 -2.70551701891521,53.702215582049 -2.70546231055498,53.7022078166018 -2.70530279166528,53.7021835959642 -2.70531983686751,53.7021125090248 -2.70538287423192,53.7020806879313 -2.70540094168784,53.7020706971519 -2.70567813918089,53.7019773204616 -2.70571384730241,53.7019393701911 -2.70569042724159,53.7018981738422 -2.70543365636957,53.7018538595589 -2.70532526840522,53.701892237702 -2.70521621731955,53.7018910820891 -2.70515017366268,53.7018402530717 -2.70516715886238,53.7017655720997 -2.70518181603803,53.7017384383439 -2.70520088134711,53.7017059773594 -2.70534121852003,53.7016737011887 -2.7054201536163,53.7016813240164 -2.70545103983033,53.7017134908807 -2.70547418888496,53.7017385144926 -2.70563794345752,53.7017547121739 -2.70579228712154,53.7017384374597 -2.70581162368752,53.7014462885887 -2.70581251984857,53.7014102502618 -2.70599950155646,53.7014487758366 -2.70612751628069,53.7015010367567 -2.70625481842205,53.7015928384221 -2.70640493474644,53.7016000409075 -2.70659550795381,53.7015845393008 -2.70667217177401,53.7015535359472 -2.70669176676577,53.7015453336058 -2.70672411473469,53.7014858372898 -2.70673875879101,53.701457895358 -2.70682311444295,53.7014313388558 -2.70690967973513,53.701439813604 -2.70696207949242,53.701496114262 -2.70700134999904,53.7015812467523 -2.70698459776654,53.7016622166504 -2.7069484389686,53.7016732132734 -2.70687613635746,53.7016961034262 -2.70668019692328,53.7017566557547 -2.70672339001303,53.701807618768 -2.70687799108252,53.701806706573 -2.70703321238893,53.7017608626693 -2.70719300251226,53.7017193931408 -2.70722583228345,53.7016886482027 -2.70727810768292,53.7016407152289 -2.70737169878566,53.701621292628 -2.70750358273574,53.7016286014043 -2.70776778670733,53.7016692729377 -2.70783751383257,53.7016715565206 -2.70812935790633,53.7016401793497 -2.7082350890109,53.7017114397649 -2.70823620758534,53.7017780173572 -2.70817590846546,53.7018835060449 -2.7081852780103,53.7019059150363 -2.70820580874926,53.7019534180069 -2.70837375004322,53.7018544807387 -2.70840379305965,53.7018363319296 -2.70847618717754,53.7018188305711 -2.70852447304153,53.7018086605826 -2.70865128847346,53.7017818525417 -2.70868230058519,53.7017322479651 -2.70878483483915,53.7014350229525 -2.70880795778178,53.7013692007356 -2.70892886488738,53.7012660485891 -2.70905337625906,53.7012805872017 -2.70917718458064,53.7013499421391 -2.70938825867798,53.7013801422977 -2.70949182946633,53.7014119675818 -2.70960881170254,53.7015209001415 -2.70966837822323,53.7015502004804 -2.70968663789284,53.7015590778808 -2.70977455216236,53.701558557 -2.70991200586049,53.7014517113811 -2.71005998719307,53.701421181067 -2.71028889891352,53.7013388629269 -2.71027739158066,53.7012859156047 -2.71015392462978,53.7011554556507 -2.71015537865311,53.7011527514462 -2.71016083156605,53.7011131823835 -2.710162178123,53.7011041888195 -2.71025593474567,53.7010946473528 -2.71038218620701,53.7011235510164 -2.71045007808824,53.7012022227424 -2.71053799292211,53.7012906600734 -2.71056539767655,53.7013012798517 -2.71065224818549,53.7013340122706 -2.71078844825349,53.7013233197558 -2.71090587180584,53.7012803897038 -2.71096272722865,53.7012378199354 -2.71097614172719,53.7012260582489 -2.71098509128831,53.7012161216171 -2.71099238689029,53.7012043962469 -2.71102067280216,53.7011709816034 -2.71110481551026,53.7012208021081 -2.711120047684,53.7012279005082 -2.7111369171194,53.7012358871157 -2.71115216293512,53.7012438833601 -2.71118429490172,53.7012607658313 -2.71121483357597,53.7012794545114 -2.71124849533768,53.7012981246403 -2.71127143532983,53.701310568426 -2.71128668119748,53.7013185646536 -2.71138917523671,53.7012865060105 -2.71154603931001,53.7012496319808 -2.71164567213896,53.7012256768654 -2.71166995996406,53.7012291269833 -2.71167444005305,53.701228201538 -2.71168351078323,53.7012254520607 -2.71169707677252,53.7012226758746 -2.71170917517518,53.7012217051642 -2.7117319028955,53.7012215701249 -2.71175161811226,53.7012205550519 -2.71176668201054,53.7012177699574 -2.71178486894586,53.7012149654047 -2.71180140193521,53.7012103748186 -2.71181645216619,53.7012066909707 -2.71182550619279,53.7012030427534 -2.71183304865791,53.7011985055886 -2.71184197848625,53.7011948581081 -2.71185106435895,53.7011930064573 -2.71186164967467,53.7011911467937 -2.71187224863586,53.7011901849775 -2.711879850254,53.7011892409734 -2.71188735802961,53.7011900951831 -2.71189500669182,53.7011918473832 -2.71194625951938,53.7011798607016 -2.7120398171067,53.7011586378453 -2.71211982534765,53.7011410889814 -2.71212608082355,53.70114913945 -2.71213964675931,53.7011463632132 -2.71222194699102,53.7012644850875 -2.71223590761587,53.7012850688403 -2.71223665141372,53.7013290944236 -2.71223892501641,53.7013749085672 -2.71225697110759,53.7013712068512 -2.71225571606072,53.7013855910733 -2.71225563478385,53.7015582070444 -2.71225592321229,53.7015752785733 -2.71226372222954,53.7015860145451 -2.71225468135754,53.7018566282034 -2.71225477308106,53.7019581664902 -2.71225494006653,53.7019680499117 -2.71225943433666,53.7021379430752 -2.71226008708771,53.7021765771235 -2.71227984551217,53.7021854452286 -2.71250991656595,53.7022604558543 -2.71265764216427,53.702310795951 -2.71275665729804,53.7023462390963 -2.71280385647885,53.7023603359173 -2.71284964735964,53.7023798313743 -2.71289542309908,53.7023984289749 -2.7129091261386,53.702403739499 -2.71291227814683,53.702405517499 -2.71296549491835,53.7020591608213 -2.71298274463805,53.7019196903028 -2.71298669706282,53.7018801291099 -2.71300288141535,53.701677764902 -2.71300659067202,53.7016238283909 -2.71299537242388,53.7014109339136 -2.7129878995922,53.7013309152367 -2.71295778804163,53.701160366464 -2.71290900374411,53.700963779196 -2.71279256286982,53.7006139397801 -2.71269409784949,53.7003448645125 -2.71266883003986,53.7001059047898 -2.71266605823952,53.7000304412026 -2.71267075136899,53.6999459476022 -2.71268855067926,53.6998389115757 -2.71273363697241,53.6997280288646 -2.71293107779418,53.6993062321551 -2.71298252146587,53.6992169669584 -2.71299716134923,53.6991890241767 -2.71298690896064,53.6991144140509 -2.71304858810138,53.6990026243265 -2.71320466293079,53.6987347290545 -2.71336792590453,53.6984488185832 -2.71338229053911,53.6984047029305 -2.71342493968427,53.6983271719508 -2.71351192692332,53.6981908791203 -2.71361293984012,53.6980716657838 -2.71332732786398,53.6980194529906 -2.71322862814244,53.6980020697005 -2.71322420480154,53.6980137772395 -2.7124613820006,53.6978627758719 -2.71190661782178,53.6975712540542 -2.71262251458113,53.6970879661574 -2.71282462708911,53.6969509885302 -2.71331443986027,53.6966280896691 -2.71337563088761,53.6965765070435 -2.71345034726419,53.6966084098259 -2.71381526135206,53.6967797494444 -2.71381822802095,53.6967779349951 -2.71386454015394,53.6967399187793 -2.71391840745138,53.6966982630691 -2.71397224275177,53.6966547208765 -2.71402153493655,53.6966157879889 -2.7140783381815,53.696570520263 -2.71412761499409,53.6965306894849 -2.71416646105807,53.6965017032777 -2.71418149698301,53.6964899323818 -2.71422624430575,53.6964555188643 -2.71423672203939,53.696447369577 -2.71429358411994,53.696405695807 -2.71435194535381,53.6963640130611 -2.71437143033626,53.6963494301145 -2.71441029128175,53.6963213425592 -2.71442718962059,53.6963311261639 -2.71444651997885,53.6963148363477 -2.71447943243917,53.6962894798594 -2.71448406808834,53.6962903510252 -2.71454086635924,53.6962522719285 -2.71455625174972,53.6962611657142 -2.71456365226959,53.6962557294564 -2.71461313000606,53.6962203905082 -2.71462053051197,53.6962149542466 -2.7146699914328,53.696178716541 -2.71470280988499,53.6961551573078 -2.71472377870757,53.6961397564903 -2.71478064143853,53.6960980824554 -2.71483751775935,53.6960573071399 -2.71486292037297,53.6960382853942 -2.71488093620186,53.6960255078902 -2.71489315478878,53.696031724948 -2.71490809507479,53.6960217512833 -2.71496211261508,53.6959890806568 -2.71502501300226,53.6959500660285 -2.71508939732057,53.6959101445669 -2.71514636590594,53.6958747597262 -2.71521088938716,53.695835735293 -2.71521991319167,53.6958302901901 -2.71522431658483,53.6958248717922 -2.71525554790664,53.6957887427235 -2.71527050476272,53.6957796677404 -2.71531701089179,53.6957533309385 -2.7153515281949,53.6957342546126 -2.7153769440985,53.6957160416127 -2.71545333563887,53.6956625692992 -2.71545925193409,53.6956580406809 -2.71573627269725,53.6957346505172 -2.71575541806662,53.6957074893 -2.7157628968439,53.6956993568953 -2.71579403626881,53.695657837024 -2.71582359788759,53.6956190212753 -2.71554525135623,53.6955452050622 -2.71526727651006,53.6954120802043 -2.71521083498009,53.6953826742011 -2.71523915639465,53.6953591425567 -2.71540178767851,53.6952143990137 -2.71554626259652,53.6950741662249 -2.71562102755666,53.6951016648608 -2.71568353980947,53.6951282479949 -2.71571094167443,53.6951388674479 -2.71578102560508,53.695162709666 -2.71585875581672,53.6951883037833 -2.71593779721034,53.6952102955816 -2.71596728609616,53.6951597989942 -2.71605548966056,53.6951844315121 -2.71613314389153,53.69520553265 -2.71616666394935,53.6952161154014 -2.71619558043281,53.6952276236207 -2.71629014458391,53.6952665947406 -2.71628867735887,53.6952684011847 -2.71637223427136,53.6952840747603 -2.71646333081843,53.6952952116882 -2.7166577232008,53.695057632629 -2.7168157469805,53.6948257529563 -2.71663969268855,53.6947971537393 -2.71641934709166,53.6947561503286 -2.7163357911584,53.6947404759115 -2.71627854146541,53.6946707293617 -2.71626788321742,53.6946680975431 -2.71629867096512,53.6946059118478 -2.71631615018741,53.6945689650044 -2.71636788421969,53.6945785398513 -2.71639421914404,53.6945262652342 -2.71639862604673,53.694513658799 -2.71641605943096,53.6944740166124 -2.71642483744721,53.6944541061662 -2.71643791340159,53.6944225777506 -2.71644224182462,53.6944126673813 -2.71646278094652,53.694372108661 -2.71649659555481,53.6943117015439 -2.71650254580499,53.6943017814628 -2.71652367700578,53.6943034517306 -2.71655104048621,53.694216126324 -2.7165956387607,53.6940773887576 -2.71660412850973,53.6940404965746 -2.7162340030512,53.6940103630709 -2.71619464257674,53.6940088018401 -2.71614317054603,53.6940073130661 -2.71610830457394,53.6940057240155 -2.71607648267534,53.6940068132395 -2.71606506146595,53.6939592569408 -2.71604905590653,53.6939063368722 -2.7160459219715,53.6938982679286 -2.71603815262821,53.6938893287836 -2.71601641006831,53.6938589075504 -2.71593680971814,53.6937155220355 -2.71592584712658,53.6936949198636 -2.71592243678121,53.6936778678437 -2.71591887646995,53.6936446413354 -2.71591025437654,53.6935853870594 -2.71589113049938,53.6935252967697 -2.7158718490154,53.6934633207719 -2.7158697574726,53.6934282887114 -2.71587106631608,53.6933213504018 -2.71586329862642,53.6933124112391 -2.71585390995845,53.6932962929115 -2.71585508783483,53.6932774166799 -2.71585735369176,53.6932342708616 -2.71585414371221,53.6932217100058 -2.71584952747166,53.6932145496565 -2.7158002446356,53.693165332261 -2.71576333359619,53.6931314072901 -2.71575837852076,53.6931116680097 -2.71575665251353,53.6930982003433 -2.71575957316317,53.6930936896127 -2.71577323015605,53.6930891155669 -2.71580482215191,53.6930817377491 -2.7158545807483,53.6930706568259 -2.7158772128369,53.6930651302483 -2.7158952743567,53.693055137745 -2.71592530859289,53.6930369868196 -2.71594318499891,53.693023400985 -2.71595058714805,53.6930107766433 -2.71595196446919,53.6930035804408 -2.71595560602359,53.6929532384222 -2.71596163235428,53.692947810273 -2.71599142047163,53.6929224719382 -2.71600033696739,53.6929107373643 -2.71600621099874,53.6928963253946 -2.71600755478446,53.6928872409446 -2.71600890162266,53.6928782472584 -2.71600725017786,53.6928692715113 -2.71600232700706,53.6928513297115 -2.71598954564738,53.6928118692411 -2.71598174988336,53.6927939437287 -2.71598017460369,53.6927894607891 -2.71597401121991,53.692786802066 -2.71592991144779,53.6927780793778 -2.7158388226509,53.6927597542027 -2.71579316290416,53.6927474472658 -2.71573216836929,53.6927217540399 -2.71570771759266,53.692708421388 -2.71568612809357,53.6926869848256 -2.71567057627865,53.6926682077497 -2.71562236719192,53.6925939145515 -2.71557735527544,53.6925240046998 -2.71556327465496,53.6924962331898 -2.71556744158197,53.692388378967 -2.71558307526451,53.6923235884335 -2.71559662307737,53.6923199129864 -2.71561923958459,53.6923134877064 -2.71565994389226,53.6923060554139 -2.7157129001851,53.6922994486595 -2.71575658597807,53.692291100567 -2.71577467765182,53.6922829046568 -2.71578662126444,53.6922729496528 -2.71579241373575,53.6922611429958 -2.71579227671016,53.6922530570204 -2.71578894501399,53.6922333080304 -2.71577489479896,53.6922073331266 -2.71576067713775,53.6921714756623 -2.71575118218237,53.6921490679394 -2.71574788097144,53.6921311164311 -2.715747622152,53.692115842323 -2.71575040572079,53.6921032456148 -2.71575458031388,53.6920843505569 -2.71576339011365,53.6920663257059 -2.71578126855236,53.6920455519073 -2.71580350424089,53.6920166643459 -2.71582729991887,53.6919913618779 -2.71584217770951,53.691977793982 -2.71584812781103,53.6919678748239 -2.7158565284499,53.6918446295179 -2.71585018503253,53.6918239996498 -2.71584179378132,53.6917782227345 -2.71582916545027,53.6917477468721 -2.71582265618285,53.6917172335031 -2.71582221489281,53.6916911780093 -2.71582873041442,53.6916335398675 -2.71584007891673,53.6915885427938 -2.71586461520858,53.6915111186354 -2.71587761491536,53.6914750973346 -2.71589362650825,53.691439957746 -2.71589934832088,53.6914165600851 -2.71590023714129,53.6913806112406 -2.71590123402105,53.691350952698 -2.71590083832763,53.6913275916382 -2.7159048136061,53.6912969265562 -2.71591628521238,53.69125911762 -2.71592792269811,53.6912311921825 -2.71597261417074,53.6910979348824 -2.71597827502809,53.6910709440364 -2.71597634978458,53.691045795356 -2.7159729397886,53.691028742382 -2.71596950025646,53.6910026149423 -2.71597067971289,53.690983737734 -2.71597510020595,53.6909720291188 -2.71599381897245,53.6909197999334 -2.71598597808695,53.6908991799297 -2.71597639220652,53.6908713814813 -2.71597596604528,53.6908462238298 -2.7159742554085,53.6908336539652 -2.71598736136315,53.6908039220606 -2.71601817786155,53.690743532755 -2.71602245894206,53.6907309270349 -2.71602073307127,53.6907174584263 -2.71601386681475,53.6906733792775 -2.71601318188463,53.6906329474648 -2.71601298401996,53.690621267383 -2.71602194581439,53.6906122280953 -2.71603391944128,53.6906040696185 -2.71605352320755,53.6905967634146 -2.71613346534688,53.6905765159839 -2.71627836166643,53.6905504884587 -2.71645955607916,53.6905224466393 -2.71652604207395,53.6905112651766 -2.71650716150924,53.6904655511089 -2.71638773831786,53.6904842375145 -2.71632287706544,53.6904954091734 -2.71627908268059,53.6905046570124 -2.71617331544617,53.6905187681724 -2.71606449217553,53.6905293039833 -2.71588305247427,53.6905429697969 -2.71581055690768,53.6905604769037 -2.71563753819762,53.6906217167592 -2.71526956569376,53.6908055195438 -2.71495255792165,53.6909538820787 -2.71469921335279,53.691020183652 -2.71428017168197,53.6911305146646 -2.71407962541443,53.6911811332273 -2.71406396877971,53.6911560664731 -2.71404988987486,53.6911282946952 -2.71402640848677,53.6910835065521 -2.71398573881865,53.6909156248388 -2.7139759417455,53.6908752474056 -2.71395323461887,53.6908762817348 -2.71384285160877,53.6908832303797 -2.71373844362096,53.6908892444458 -2.71362954292493,53.6908952852164 -2.71361894647609,53.6908962472505 -2.71356145181456,53.690900184584 -2.71332100226371,53.6909168940014 -2.71321052367748,53.6909256394026 -2.71312022669487,53.6908650748051 -2.7131033142147,53.6908543922793 -2.71309258133645,53.690847268262 -2.7130252494724,53.6908009435907 -2.71301148965558,53.6907920390358 -2.71297156699946,53.6907644211386 -2.71296083416589,53.6907572971096 -2.71290573446537,53.6907180874675 -2.71282755816826,53.6906654473704 -2.71279078834356,53.690639607402 -2.71276007090253,53.6906173267082 -2.71265448617922,53.6905460686147 -2.71263907301867,53.6905353779934 -2.71263453341715,53.6905327094254 -2.71258701596497,53.6904988465906 -2.71256554901918,53.6904845966742 -2.71253334939967,53.6904632226867 -2.71251352237781,53.6904498618301 -2.7124920251949,53.6904338153099 -2.71242002787106,53.6903847325987 -2.71239854741917,53.6903695847975 -2.71239097945759,53.6903651374805 -2.71236288192383,53.6903203756092 -2.7123597944734,53.6903150027795 -2.71234573209133,53.6902881286466 -2.71233648187312,53.6902800969011 -2.71233336413432,53.6902729265813 -2.7123318060224,53.6902693414168 -2.7123270650696,53.6902621807606 -2.71232703479038,53.69026038417 -2.71232079933508,53.6902460444284 -2.71231277559854,53.6902218299468 -2.7123110963611,53.6902110575205 -2.71230950644562,53.6902056748753 -2.71230791805986,53.6902002931198 -2.71230004426069,53.6901850642959 -2.71229217198136,53.6901698354624 -2.71228433302421,53.6901492152183 -2.71227806426741,53.6901402659857 -2.71227034645965,53.690126833901 -2.71225938525006,53.6901062313433 -2.71224851642279,53.6900910203452 -2.71224224618276,53.6900819821348 -2.7122376309436,53.6900748207269 -2.71223136222279,53.6900658723904 -2.71221740448902,53.6900452885652 -2.71220652054789,53.6900291788185 -2.71220187504682,53.6900202208183 -2.71219874220565,53.69001215175 -2.71219722954771,53.690011262818 -2.71218943151391,53.6900005259127 -2.71218628354765,53.6899915589981 -2.71217999970605,53.6899817119141 -2.7121738264008,53.689970965337 -2.71217229708688,53.6899691776689 -2.7121674820208,53.6899575250709 -2.71216434919085,53.6899494560016 -2.712162789591,53.6899458708438 -2.71215650577679,53.6899360246574 -2.71214865178591,53.6899145056591 -2.71214082502542,53.6899019721508 -2.71213773761853,53.6898965984163 -2.71213298161247,53.6898885399062 -2.71212994115021,53.6898858623969 -2.71212838155564,53.6898822772386 -2.712119192007,53.6898778386577 -2.7121131247144,53.6898733823921 -2.71210234530818,53.6898635620607 -2.7120854652789,53.6898546768714 -2.71208240816606,53.6898511006251 -2.71207167569632,53.6898439756175 -2.71206097351286,53.6898386480985 -2.71205493498505,53.6898359884298 -2.7120502698179,53.6898333205876 -2.71201366768206,53.6898173638764 -2.71199841088796,53.6898084690153 -2.71197550750915,53.6897978219847 -2.71195410166272,53.6897871660389 -2.71192665884524,53.6897738513038 -2.71190678081964,53.6897648940451 -2.71187933650192,53.6897515784094 -2.71186713684606,53.6897462597831 -2.71185493566393,53.6897409402658 -2.71184874274188,53.6897364847346 -2.71184119158594,53.6897329352199 -2.71183351475473,53.6897293864524 -2.71182900554724,53.6897285144448 -2.7118213605045,53.6897267631572 -2.71181533712839,53.6897250013225 -2.71180619305389,53.6897232589521 -2.71179556658198,53.6897224233361 -2.71176364027974,53.6897172220544 -2.71173935902167,53.6897137720575 -2.71171359689729,53.6897112296994 -2.71170145627903,53.6897095051459 -2.71168781812835,53.6897077886 -2.7116726658284,53.6897051831229 -2.7116588884003,53.6897025694662 -2.71164523513612,53.6896999550694 -2.71162853994227,53.689694663158 -2.711611719061,53.689689371093 -2.71158277889571,53.6896760651859 -2.71155993619896,53.6896690121567 -2.71154620580043,53.6896619049321 -2.71153250718087,53.6896565951867 -2.71152785869498,53.6896548251613 -2.71152328749795,53.6896503599692 -2.71151559709236,53.6896459124276 -2.7115110576559,53.689643243817 -2.71150030870529,53.6896352209212 -2.71149107541664,53.6896280869474 -2.71147729967109,53.689618284379 -2.71146202793118,53.6896084907049 -2.71144825371281,53.6895986881242 -2.71144056182531,53.6895942414855 -2.71141302854153,53.6895755350624 -2.71139004982836,53.6895603959932 -2.71138083018708,53.6895541607648 -2.71137627564208,53.6895505934043 -2.71136856864416,53.689545248016 -2.7113578363705,53.6895381229446 -2.71134558994798,53.6895301080396 -2.71132264153447,53.6895167664472 -2.71129663761266,53.6894998476764 -2.711287433123,53.6894945111857 -2.71127368921562,53.689486505176 -2.71126448473171,53.6894811686835 -2.71124621504126,53.6894713928045 -2.71122325005458,53.6894570625737 -2.71121554460693,53.6894517171666 -2.71120482750547,53.6894454908264 -2.71118805686701,53.6894357060279 -2.71114677520679,53.6894161824315 -2.71113154745048,53.6894090840602 -2.71109036129117,53.6893877631063 -2.71106208077253,53.6895102275426 -2.71107270869192,53.6895110632146 -2.71106551567453,53.6895362661465 -2.71106141464047,53.6895596539314 -2.71103878261692,53.6896541391168 -2.71103030365183,53.6896919297789 -2.71101775380478,53.6897549039149 -2.71100521905346,53.689818867576 -2.71099266914886,53.6898818426066 -2.71097701359582,53.6899457349242 -2.7109644484956,53.6900078112056 -2.71095313907629,53.6900555031627 -2.71095191359584,53.6900716849745 -2.71094053008367,53.6901149739789 -2.71093480571696,53.6901383714019 -2.71091928925268,53.6902031608172 -2.7109179428461,53.6902121544671 -2.71091803352071,53.6902175451386 -2.71091807885803,53.6902202404743 -2.71091963684945,53.6902238256569 -2.71091968218687,53.6902265209926 -2.71091824510499,53.6902301239711 -2.71091978797927,53.6902328104089 -2.71091118790485,53.6902634137961 -2.71090975082102,53.6902670167744 -2.71090681466938,53.6902706277608 -2.71089499129031,53.690287771374 -2.71089512729826,53.6902958573811 -2.7108882075907,53.6903372332023 -2.7108771700273,53.6904010980619 -2.71086469683398,53.6904686548731 -2.7108562780095,53.6905100395973 -2.71085355341937,53.6905262303129 -2.71085370453693,53.6905352150645 -2.71085381032078,53.6905415044805 -2.71084427172006,53.6906053604285 -2.71083629109282,53.6906728015584 -2.71082985960769,53.6907358291943 -2.71082829682191,53.690739432918 -2.71080256284652,53.6907386878616 -2.71068283898321,53.6907322101607 -2.71066309673163,53.6907314285866 -2.71062678138228,53.6907325431102 -2.71040264946159,53.6907320763919 -2.71017706529379,53.6907343143773 -2.70986054680933,53.6907343958614 -2.70981823817105,53.6907355447975 -2.70979551591676,53.6907356795935 -2.70978041014504,53.6907357692036 -2.70963647522236,53.6907375217899 -2.7096198703802,53.6907376202706 -2.70946543444107,53.6907385360956 -2.70943211416153,53.6907396324973 -2.7092761957368,53.6907414557024 -2.70917021447111,53.6907429818375 -2.70913987572461,53.690743161652 -2.70912936965904,53.6907495139606 -2.70910064059269,53.6907487862896 -2.70909919186574,53.690662441172 -2.70905921155392,53.6906312278957 -2.70903748472893,53.6905046569714 -2.70902085512293,53.6904139094374 -2.70900553866563,53.6903196495639 -2.70898883535692,53.6902244999701 -2.70897372007213,53.6901347312727 -2.70895207760004,53.6900206509277 -2.70858559168961,53.6901082767889 -2.7083273684911,53.6901520383992 -2.70816560430224,53.6901700693043 -2.70782835234023,53.6901918329947 -2.70736943758919,53.6901882569775 -2.70668866928789,53.6901410615515 -2.70648552304689,53.6901260867289 -2.70619301675631,53.6901133459097 -2.70573245535993,53.6901007877059 -2.70538245660376,53.6900920692303 -2.70384045091085,53.6900616123321 -2.70351166224049,53.6900518647885 -2.70298681778673,53.6900028326202 -2.70254525183687,53.6899461203237 -2.70229482323346,53.6899107482677 -2.70228011463963,53.6899422847756 -2.70220671272165,53.6900784007519 -2.70215387319602,53.6901821368865 -2.70212782146007,53.6902523789773 -2.70210167376816,53.6904070876652 -2.70209218327778,53.6904746259447 -2.70208822023588,53.6905141861694 -2.70208754370037,53.6905636124747 -2.70208683578632,53.6906112412976 -2.70209108631368,53.6906866967591 -2.70210410427762,53.6908313801251 -2.7021196171033,53.6910361645949 -2.70212914600196,53.6911512168247 -2.70213920064075,53.6912077672214 -2.70215039460251,53.6912427461307 -2.70216761178438,53.6912794873581 -2.70218015557076,53.6913054718114 -2.70219725335906,53.6913350248692 -2.70223763095155,53.6913904993639 -2.70234359490414,53.6914780277613 -2.70239870236473,53.6915181400738 -2.70245988115082,53.691555521118 -2.70251643134169,53.6915848425072 -2.70261403275251,53.6916274008211 -2.70295682904621,53.6917503791195 -2.70316873326113,53.6918336000475 -2.70351320954349,53.6919672596672 -2.70340088183528,53.6921351436023 -2.70289583131847,53.6926315145122 -2.70193116876542,53.69263448129 -2.70191241170533,53.6925051976178 -2.70183262906941,53.6924454614937 -2.70154478307856,53.6924435549874 -2.70142381035813,53.6924523508574 -2.7014313213939,53.6921754594706 -2.7001733807502,53.692208877368 -2.70036689140425,53.692643640872 -2.69926556867132,53.6927103681897 -2.69916009555169,53.6932025892871 -2.69876313136473,53.6931941224226 -2.69873529818243,53.6933381448463 -2.69847229610979,53.6933738249248 -2.69809454033875,53.6934245489862 -2.69770584319838,53.6934555677855 -2.69770881563616,53.6934465649517 -2.6975516064608,53.6934690459434 -2.6973835661208,53.6934709231774 -2.69728349008662,53.693459823772 -2.69727143118502,53.6934706771286 -2.69707661953989,53.6934996663178 -2.69698443386467,53.6935127826364 -2.6969708545291,53.6935146583904 -2.69674709578776,53.6935375264041 -2.69669573068603,53.6935423174651 -2.69662635737088,53.6935606919569 -2.69628123182734,53.6934854223494 -2.69618111159121,53.6934716276168 -2.69607832637627,53.6936673024058 -2.69603960440595,53.6937043691899 -2.69611445322328,53.6942980649692 -2.69614473958805,53.6944838910258 -2.69616626166063,53.6945925826378 -2.69621644102272,53.6946974225361 -2.69626320870585,53.6947771233409 -2.69662377494274,53.6952424600475 -2.69686630187483,53.6955313750807 -2.69752029788235,53.6961531496626 -2.69771135806295,53.6963497212064 -2.69791124906921,53.6965364465648 -2.69810755558811,53.6966799717688 -2.69847046116942,53.696922355839 -2.69854719177886,53.6969785180642 -2.69868741832881,53.697128749151 -2.69897897407684,53.6974434337556 -2.69910271387503,53.6976008585581 -2.69935703084351,53.6979588904247 -2.69941490082118,53.698067368461 -2.69945185259487,53.698194748562 -2.70030699772878,53.6982526530697 -2.70036993066519,53.6985758583606 -2.70027012522762,53.6985818337267 -2.70021261956708,53.6985857632823 -2.7000748685954,53.6985928581487 -2.69999925733329,53.6985968942839 -2.69994473388647,53.6985999083653 -2.69995324586131,53.6986538625398 -2.69996169179452,53.6987113216046 -2.69997033796133,53.6987732718091 -2.69997732930957,53.6988334349355 -2.69998596063222,53.6988944873023 -2.6999980064305,53.6989807685176 -2.70003283088286,53.6989796662498 -2.70003623050198,53.6990039082791 -2.70005487047513,53.6991188152826 -2.70009241066362,53.6993792694824 -2.70009586000196,53.69939901801 -2.70012135934198,53.6995660012912 -2.70012323287614,53.6995885444726 -2.70014027961284,53.69970525841 -2.70015210086951,53.6997779732071 -2.70015843114199,53.6998884598024 -2.70016189694249,53.699909196036 -2.70017430114975,53.7001148952476 -2.70018644619575,53.70029732214 -2.70019101056691,53.7003916451223 -2.70020079433824,53.7005219705964 -2.70021367007238,53.7007483345155 -2.7002139984226,53.7007681004521 -2.70047724811989,53.7007521852127 -2.70049084448167,53.7007512069096 -2.70064680606853,53.7007422083899 -2.70078292520587,53.7007342236342 -2.70091767210543,53.7007262467501 -2.70112951675254,53.7007133263174 -2.70116698000591,53.7009683904725 -2.70144993118157,53.7009505600267 -2.70144994613777,53.7009514587641 -2.70147473719598,53.7010753154758 -2.70121749501524,53.7010920967699 -2.70118728983015,53.701093172341 -2.70118730478078,53.7010940710784 -2.70119053972897,53.7011084288535 -2.70120250201989,53.7011893196089 -2.70120585808912,53.7012108663748 -2.70121783238173,53.7012925659997 -2.7012245640909,53.7013293676414 -2.70122463881876,53.7013338595307 -2.70160887436528,53.701308247739 -2.70162221435541,53.7013818516775 -2.70162550043074,53.701391716808 -2.70163048927234,53.7014213407204 -2.70163051917792,53.7014231372963 -2.7016199199196,53.7014240982036 -2.70162054955881,53.7014619242592 -2.70163486408392,53.7015040726035 -2.7016349239106,53.701507666654 -2.70163819503834,53.7015166330467 -2.7016456727658,53.701515691321 -2.70164771062929,53.7015480271946 -2.70165349674556,53.7016180818724 -2.70112080255156,53.7016535490169 -2.70098172798173,53.7016642470089 -2.70088481701687,53.7016720017648 -2.70074725519267,53.701683589461 -2.70057770843413,53.7016944651706 -2.70044160108662,53.7017033475377 -2.70030237061396,53.7017122489002 -2.70011324862232,53.7017250350972 -2.69995133482146,53.7017367632499 -2.69987703694452,53.7017300093013 -2.69985341661783,53.7018569345624 -2.69984651581393,53.7019001067637 -2.69981777432197,53.7020871762127 -2.69982585632865,53.7022956868873 -2.69986017017486,53.7023538930138 -2.69986324219224,53.7023583682967 -2.69986487440744,53.7023664454891 -2.69986502359486,53.7023754301674 -2.69986514295082,53.7023826182694 -2.69986373450825,53.702388017645 -2.69986233947388,53.7023943157669 -2.69986094595373,53.7024006138798 -2.69985791533666,53.7024061126116 -2.69985652030085,53.7024124107334 -2.69985662473246,53.702418700098 -2.69985822863216,53.7024249807054 -2.69986145468438,53.7024312518391 -2.69986452670759,53.702435727122 -2.69986609926286,53.702440211162 -2.69986767180356,53.7024446943032 -2.69986921602742,53.7024473808595 -2.69987394003745,53.7024536432444 -2.69987405939527,53.7024608313463 -2.69987246707403,53.7024626373963 -2.69987099745145,53.7024644436285 -2.69986952932843,53.7024662489531 -2.6998545970398,53.7024771193595 -2.69982913981665,53.7024934423791 -2.69980066537139,53.7025160729873 -2.69979772911568,53.7025196836348 -2.69979627440977,53.7025223886035 -2.69979483611028,53.7025259905033 -2.69979491070443,53.7025304832917 -2.69979504495605,53.7025385692324 -2.69979511955026,53.7025430620208 -2.69979819157469,53.7025475373053 -2.69979976411228,53.7025520204473 -2.69980280629386,53.7025546982568 -2.69980595776745,53.7025564775022 -2.69980899994974,53.7025591553115 -2.69982430372121,53.7025707470642 -2.69985956375674,53.7025957010416 -2.69988878420662,53.7026179947076 -2.69993018839623,53.7026518983289 -2.69995945368355,53.7026768872907 -2.70000073709261,53.7027036027943 -2.70004366066678,53.7027312983082 -2.70008037414702,53.7027535472565 -2.70010161327026,53.7027615107988 -2.70012758431174,53.7027685478671 -2.70016558687674,53.7027782093096 -2.70016859925295,53.7027790905336 -2.70023711312026,53.7027984589523 -2.70025847799459,53.7028064208333 -2.70027372228013,53.7028144193758 -2.70030121490331,53.7028304321654 -2.70032109678598,53.702839302425 -2.70032723080501,53.7028401645033 -2.70033776591045,53.7028427985099 -2.70035309115166,53.7028481009944 -2.70040487005439,53.7028675662214 -2.70049958802123,53.7029155356291 -2.70061574591006,53.7029759595651 -2.70070434370208,53.7030239636942 -2.70072124471708,53.7030338391256 -2.70072582977727,53.7030392034648 -2.70072737256297,53.7030418900184 -2.70072890193651,53.7030436787247 -2.70073042978059,53.7030454665411 -2.70073214309275,53.7030508476724 -2.70073218791881,53.7030535438839 -2.70073060903958,53.7030562486912 -2.70073065385061,53.703058944004 -2.70073069866165,53.7030616393169 -2.70072482474925,53.7030688624628 -2.70071578282783,53.703073407659 -2.70070071610224,53.7030761913324 -2.70067509454444,53.7030826311174 -2.70067047490011,53.7030826581282 -2.70066749237319,53.7030835743913 -2.70066305667638,53.7030871947256 -2.70064050726003,53.7030981097647 -2.7006707288328,53.7030979330656 -2.70072167216686,53.7031497517376 -2.700719401938,53.7032009836302 -2.70067647933405,53.7032560467221 -2.70067050953692,53.7032650671758 -2.70068268340914,53.7032685903951 -2.70072836497977,53.703281802059 -2.70101728783986,53.70344194383 -2.70102620667538,53.7035200669193 -2.70106600855471,53.7035476904474 -2.70115881075424,53.7035705097493 -2.70122752068285,53.7036015575814 -2.70131276569716,53.7036280162834 -2.70139534377463,53.7036743482545 -2.70164462391335,53.7037259039536 -2.70173460926733,53.7037595223627 -2.7018621769106,53.7037848338159</coordinates></LinearRing></outerBoundaryIs></Polygon>
  </Placemark>
