  <Placemark>
	<Style><LineStyle><color>ff0000ff</color></LineStyle><PolyStyle><fill>0</fill></PolyStyle></Style>
	<ExtendedData><SchemaData schemaUrl="#Wards__December_2019__Boundaries_EW_BFE">
		<SimpleData name="objectid">571</SimpleData>
		<SimpleData name="wd19cd">E05000769</SimpleData>
		<SimpleData name="wd19nm">Little Hulton</SimpleData>
		<SimpleData name="wd19nmw"></SimpleData>
		<SimpleData name="bng_e">371481</SimpleData>
		<SimpleData name="bng_n">403993</SimpleData>
		<SimpleData name="long">-2.43171</SimpleData>
		<SimpleData name="lat">53.531818</SimpleData>
		<SimpleData name="st_areashape">4254907.85490253</SimpleData>
		<SimpleData name="st_lengthshape">10997.2063268384</SimpleData>
	</SchemaData></ExtendedData>
      <Polygon><outerBoundaryIs><LinearRing><coordinates>-2.40914956739797,53.5263683603866 -2.40920706686334,53.5263852378425 -2.41012525594539,53.5266490731125 -2.4112819779921,53.5269353578135 -2.41287352285841,53.5274126125163 -2.41318494061978,53.5274870221121 -2.41361291111093,53.5275880764072 -2.41452296749271,53.5277907128372 -2.4151521282636,53.5279494749275 -2.41553766939818,53.5280478833414 -2.41578878281071,53.5281108134419 -2.41651721907199,53.5283977195132 -2.41786801908733,53.5289332483817 -2.41974581566654,53.5296628084962 -2.42066937611818,53.5299894424244 -2.42165031615531,53.5303311433661 -2.42382443336239,53.5311001251807 -2.42317670620766,53.5318106559693 -2.42225907831996,53.5328403124749 -2.42162205162714,53.5335688570789 -2.42140066329375,53.5337610273617 -2.42101352136335,53.5339727376945 -2.42022955517783,53.5343367935845 -2.41960619847216,53.5346275000069 -2.41868238569879,53.5350423536132 -2.417854440841,53.5353777933209 -2.41673771413911,53.5358221475183 -2.41438120939104,53.5367668710614 -2.4138777206047,53.5369680873712 -2.4124651534305,53.5375607863558 -2.41106282668005,53.5381228832643 -2.41066474339718,53.5383049458243 -2.41028959422622,53.538517390781 -2.41034236737985,53.5385199060934 -2.41056436259724,53.5385380174519 -2.41108377638273,53.5385776651105 -2.41181666422725,53.5386802864445 -2.41289559977024,53.5388536001863 -2.41416441709862,53.53914405075 -2.41469871797516,53.5393058357663 -2.41601847490977,53.5397138025005 -2.41641954377928,53.5398374025162 -2.41761658805086,53.540199949219 -2.41856530217759,53.5404582189597 -2.4198839630589,53.5407448416779 -2.42029961664663,53.5408179687857 -2.42065033778411,53.5408796407405 -2.42137726099368,53.5409876167496 -2.42144068649554,53.5409972785969 -2.42143806600071,53.5407330206512 -2.42313855972995,53.54101647056 -2.42403204780872,53.5410330890151 -2.42474276921585,53.5410377663161 -2.42474003677563,53.5410630255825 -2.42544039916436,53.5410767217408 -2.42543566069731,53.5412124214312 -2.42655971268263,53.5411931602528 -2.42774004509046,53.5412276010423 -2.42900509816832,53.541273409591 -2.4296496398315,53.5412908747606 -2.42964377964759,53.5413142586861 -2.42976135720517,53.5413021561919 -2.43190133042655,53.5414706892979 -2.43372048629914,53.5416924597451 -2.43484626680526,53.541841144181 -2.43571386572134,53.5419746673519 -2.43576820515121,53.5419834555084 -2.43649674616504,53.5420967226359 -2.43714722764451,53.5422534894246 -2.43719892057717,53.5421381955757 -2.43720191615064,53.5421390825804 -2.43778783075535,53.5408579377241 -2.43798194843709,53.5403646387909 -2.4379980516012,53.540321449444 -2.43810076425207,53.5400379385635 -2.43834252039422,53.5399184462529 -2.43844678461911,53.5397859772242 -2.4385349834705,53.5397002018689 -2.43866887140299,53.5396655674529 -2.43878489600904,53.5396480712045 -2.43956714842322,53.5395562510861 -2.43967831794572,53.5395145100455 -2.43978198550098,53.5394692029325 -2.43988110934337,53.5394176215797 -2.43997560045133,53.5393632717042 -2.44012381557454,53.5392584953718 -2.44037655934302,53.5390355348794 -2.44048704116232,53.5389156212118 -2.44052445883212,53.538888527521 -2.44089727450988,53.5387513863022 -2.44098119877542,53.5386980631894 -2.440963985751,53.5384896607021 -2.44096486252252,53.5384302628943 -2.44098981102112,53.5383645766234 -2.44102383203721,53.5382979581988 -2.44122481121431,53.5380392435448 -2.44129321565672,53.537797190217 -2.44133759543868,53.5377098671821 -2.44138500764778,53.5376270252592 -2.44148184893711,53.5374998832159 -2.44148575850645,53.5374450564125 -2.44163775376903,53.5372620900438 -2.44171894041888,53.5370891784496 -2.44175726956517,53.5370063707169 -2.44175719493678,53.5369991822707 -2.44177928600342,53.5369460861845 -2.441796179142,53.5366799604518 -2.44181177323647,53.5365882509159 -2.44187271643828,53.5364908926042 -2.44187407953153,53.5364783077749 -2.44193624253686,53.5363666573846 -2.44196262653498,53.5361400337572 -2.44161364633678,53.5356703837747 -2.44147773180515,53.5353643858407 -2.44124934318136,53.5351620616501 -2.4413714964476,53.5348730849181 -2.44142493639179,53.5344963028544 -2.44147634118499,53.5343549504455 -2.44157194989616,53.5342656422721 -2.44161094812115,53.5342475270547 -2.44175229169039,53.5342020799152 -2.44183181191013,53.5341568591922 -2.44184965528086,53.5339823838445 -2.44186863763024,53.5339176172827 -2.44191257123525,53.5337997449874 -2.44197347288259,53.5336987924484 -2.44200921404369,53.5336546315473 -2.44204668208074,53.5336329283684 -2.44208568885411,53.5336157117925 -2.44216545034632,53.5335938528841 -2.44217602335136,53.5335938139565 -2.4422573534902,53.5337229070072 -2.44246653887022,53.5336700195925 -2.44237626627957,53.5334105779054 -2.44271760916791,53.5333023907605 -2.44284264085307,53.5329927339899 -2.44297031427296,53.5327935901076 -2.44324427447611,53.5325823149894 -2.44325529048155,53.5324815450865 -2.44313505,53.5323786539296 -2.44310913547112,53.5323508941485 -2.44322021706517,53.5323028600938 -2.44355474059554,53.5322575951945 -2.44357871237458,53.5322422311557 -2.44371328772141,53.5321329170989 -2.44379682064911,53.5320436510243 -2.44383207638663,53.5317981223374 -2.44387033120055,53.5317090226465 -2.4440503679767,53.5316176019591 -2.44424910084688,53.531577330345 -2.44435893168647,53.5315408910375 -2.44445036032193,53.531338375015 -2.44462171939019,53.5311309807533 -2.44460738061174,53.5309252626908 -2.44472924705543,53.5308860828793 -2.44492202033379,53.5308593109228 -2.444959739561,53.5308501847123 -2.44526890966102,53.5305587123638 -2.44534394167172,53.5305135055002 -2.44555884279437,53.5304381274348 -2.44560539569716,53.5304172871237 -2.44566919344427,53.5303209040881 -2.44576493507582,53.5302341968969 -2.44621017633319,53.5302514128934 -2.44630107815158,53.530154029042 -2.44644840648118,53.5299575044835 -2.44655175084983,53.5298843361022 -2.44671846290964,53.5298163239055 -2.44677692760227,53.5297810621138 -2.44686142383864,53.5296305973334 -2.44698750530727,53.5295789094029 -2.44709594118616,53.5295524469281 -2.44744869005508,53.5295277705122 -2.44760349441911,53.529475076041 -2.44780750203621,53.5293700813286 -2.44784192759104,53.5292018314657 -2.44795710590039,53.5291070521801 -2.44799885564049,53.5290556777931 -2.44795173627101,53.5288805433646 -2.44806605163563,53.5287039076606 -2.44805862291722,53.5284235822215 -2.44803297833982,53.528279817517 -2.4480061827422,53.5281801767899 -2.44812767923071,53.528106939201 -2.44848777763196,53.5282143215731 -2.44898568703481,53.5282151558877 -2.4498394688002,53.5283584256774 -2.4502913096482,53.5284251124161 -2.45082092183482,53.5285767796301 -2.4510972318287,53.5286053947657 -2.45111192019008,53.528559512979 -2.45105457938574,53.528418652479 -2.4510752835883,53.5283771514341 -2.45114516924407,53.528281640322 -2.45120824010475,53.5282589389339 -2.45138013930647,53.5282475103683 -2.45146142475715,53.5282301307995 -2.45156460283166,53.528154261397 -2.45164876785792,53.5281153047668 -2.45170998087437,53.5280583737913 -2.45175119028124,53.5279566804522 -2.451886610893,53.5277899335083 -2.45193288901704,53.5277438411388 -2.45202276557323,53.5276806014652 -2.45222619734212,53.5275234811726 -2.45232401247456,53.527493458765 -2.45276177954384,53.5273838827256 -2.45286109684498,53.5273547520713 -2.45288649903262,53.5271938115913 -2.45294606329287,53.5271225991735 -2.45304496731276,53.5270547412086 -2.45329687811995,53.5269190004155 -2.45367194131952,53.5267269904159 -2.45373048128957,53.5266998113744 -2.45380150748557,53.526712121647 -2.45383264707121,53.5266580889452 -2.4538525826291,53.5265447931797 -2.45386874051018,53.526508788544 -2.45400455749976,53.5263689046276 -2.45407636507094,53.5263147172736 -2.4541130617134,53.5262220244723 -2.4541718359264,53.5260770410242 -2.45417768042105,53.5260536564376 -2.45400099792761,53.526035458047 -2.45396178313125,53.5260320126633 -2.4536930682483,53.5260141635432 -2.45268046418022,53.5258319110952 -2.45251431659868,53.5258217583242 -2.45179513452797,53.5257112610395 -2.45182634290247,53.5256635186905 -2.45141987076609,53.5256030546772 -2.45140233342628,53.5256498461737 -2.45078736956019,53.525550529162 -2.45068269234451,53.525496110119 -2.4497245558193,53.5253352659602 -2.44973630666073,53.525305568788 -2.44741934294998,53.5248791327307 -2.44642945318408,53.5247004055876 -2.44588880359665,53.5246404133868 -2.44588849150352,53.5246106708152 -2.44336881924604,53.5242613823065 -2.44316044488073,53.5242441797789 -2.44146355612915,53.5239583057393 -2.43910469762545,53.5235535256635 -2.43774007355038,53.5233059220554 -2.43625737699663,53.5230156026672 -2.4351511647858,53.5228111512042 -2.43427954471619,53.5226830262554 -2.4333940004336,53.5225181907083 -2.43243161862647,53.522367015386 -2.43212791866412,53.5223177882384 -2.43174550653213,53.5222328999303 -2.43131568490218,53.5220959738755 -2.43089908149571,53.5220606279989 -2.43050494153258,53.5220207069149 -2.42957144682863,53.5218829735026 -2.4284581574131,53.5217233202235 -2.42811648754623,53.5216445662282 -2.42770897981196,53.5216226549693 -2.42719709483544,53.5215596902331 -2.42700859180252,53.5214138928555 -2.42684320932181,53.5213165363154 -2.42659323539821,53.5212041155234 -2.42630108326696,53.5211018164928 -2.42591234933321,53.5209917735323 -2.4254358550135,53.5208603839687 -2.42498514313054,53.5207325865369 -2.4248478002071,53.5207276804901 -2.42466050035003,53.5206888063122 -2.4246237401447,53.5206440075184 -2.42394687510378,53.5205214083303 -2.42336519230114,53.5204282120305 -2.42306335561215,53.5204014203826 -2.42278083825146,53.5203538932435 -2.42191794630874,53.5200306582789 -2.42177865992286,53.519979839096 -2.42150919454684,53.5198810445403 -2.42046717145053,53.5192851739531 -2.41892020866236,53.5184142097734 -2.41844250699841,53.5181543929271 -2.41832597708291,53.5181151726907 -2.41827180479178,53.5181198538157 -2.416481259252,53.5182465698611 -2.41644200179236,53.5182377203256 -2.41638602963667,53.5182235366314 -2.4163361416613,53.5182084339147 -2.41631493172145,53.5182013185792 -2.41629221267821,53.5181924117176 -2.41627710595576,53.5181861740634 -2.41626185651025,53.5181781401531 -2.41623609142884,53.5181629538605 -2.416214801664,53.5181476621849 -2.41621176588677,53.5181422806527 -2.41611604375989,53.5180689300685 -2.41609781853566,53.5180618043629 -2.41608269434017,53.5180537699963 -2.41606904415103,53.5180439328785 -2.41600545216538,53.5180136010481 -2.41591312020215,53.5179815727738 -2.41571634922648,53.517913063763 -2.41562414036984,53.5178936138778 -2.41547172784886,53.5178851551982 -2.41540229766519,53.5178809019211 -2.41535403484379,53.5178792719394 -2.4153269348409,53.5178802643955 -2.41514288538295,53.5178791024898 -2.4151142938276,53.5178801000487 -2.41507661603706,53.517880230151 -2.41502987103195,53.5178812903697 -2.41491970884407,53.5178825685758 -2.41481266368004,53.5178847356471 -2.41478411584733,53.5178902252965 -2.41478428205929,53.5179072978777 -2.41470285254801,53.5179093755642 -2.41461683919289,53.5179132666523 -2.4144389421783,53.5179183733089 -2.41428517804105,53.5179242944602 -2.41427925251137,53.5179288072011 -2.41423090818885,53.5179316702659 -2.41422638834508,53.5179271926212 -2.4140424158083,53.5179341163704 -2.41386601891455,53.517940114932 -2.41376955282874,53.5179431425721 -2.41370926129524,53.5179451477231 -2.41362636628457,53.5179499252913 -2.41354496130699,53.517954698575 -2.41340030057672,53.5179632828427 -2.41319225735322,53.5179756800978 -2.41288178573366,53.517992022321 -2.41259530423988,53.5180073825797 -2.41232845323269,53.5180208780747 -2.41213258653433,53.5180323328962 -2.41198631573281,53.5180418197945 -2.41180996308062,53.5180523083871 -2.4117406285327,53.5180579370175 -2.41168793139264,53.5180608130623 -2.41146633352915,53.5180732528296 -2.41143315060743,53.5180751640454 -2.41140457619752,53.5180779574058 -2.41137737835344,53.5180816448722 -2.41130359507306,53.5180899840431 -2.41123726238028,53.5180973997577 -2.41121168124227,53.5181010816559 -2.41118610876984,53.5181056614437 -2.41115904474487,53.518110247226 -2.41108829653948,53.5181239679249 -2.41100706592295,53.5181467099568 -2.41090326551217,53.5181759080268 -2.4108102672626,53.5182292411501 -2.41079377859566,53.5182472694659 -2.41076987091886,53.518269815448 -2.41074903835649,53.5182887565242 -2.41073710615979,53.5183022751473 -2.41072666703565,53.5183157895671 -2.4107116785275,53.5183347106704 -2.41069443718546,53.518416539123 -2.41067506774778,53.518445359547 -2.41065130808454,53.5184832703827 -2.41061125315637,53.5185463068495 -2.41054436374232,53.5186507691275 -2.41049543009685,53.5187345025154 -2.41048357567078,53.5187561084576 -2.41042116276816,53.5188606452591 -2.41027273450038,53.5191109528225 -2.41017336413698,53.5192776164215 -2.41016734897903,53.5192857245543 -2.41011400537906,53.5193766616059 -2.41009172833981,53.5194135785587 -2.41004989146522,53.5194596376386 -2.41028583858748,53.5195289210861 -2.4103752818136,53.5195708488128 -2.41088405250108,53.5197803632734 -2.41102046716918,53.5198571741908 -2.41176295401825,53.520366995894 -2.41257410479391,53.5209537638028 -2.41276384737733,53.5210790016602 -2.41285212336993,53.5211667580377 -2.41294241730761,53.521295841592 -2.41297169874292,53.521365918416 -2.41296661926318,53.5214575897428 -2.41295676230669,53.5215313064116 -2.41293335206368,53.5216050687321 -2.41273837347751,53.522184594594 -2.41263511046435,53.5224240574994 -2.41256278207672,53.5225834413969 -2.41255389515294,53.5226032406007 -2.41242023491024,53.5228247457577 -2.41234571735617,53.5229122518741 -2.41226942515818,53.5229835007292 -2.4121558680199,53.5230980072945 -2.41174962762912,53.5235030353126 -2.41145356662691,53.5237790094661 -2.41116007367725,53.5241539964548 -2.41081945607732,53.5246593462234 -2.41049868371851,53.5250181605172 -2.41001584986298,53.5254800527603 -2.40953356591679,53.5259867800101 -2.40914956739797,53.5263683603866</coordinates></LinearRing></outerBoundaryIs></Polygon>
  </Placemark>
