  <Placemark>
	<Style><LineStyle><color>ff0000ff</color></LineStyle><PolyStyle><fill>0</fill></PolyStyle></Style>
	<ExtendedData><SchemaData schemaUrl="#Wards__December_2019__Boundaries_EW_BFE">
		<SimpleData name="objectid">7938</SimpleData>
		<SimpleData name="wd19cd">W05000905</SimpleData>
		<SimpleData name="wd19nm">Cartrefle</SimpleData>
		<SimpleData name="wd19nmw">Cartrefle</SimpleData>
		<SimpleData name="bng_e">335091</SimpleData>
		<SimpleData name="bng_n">350685</SimpleData>
		<SimpleData name="long">-2.96974</SimpleData>
		<SimpleData name="lat">53.04948</SimpleData>
		<SimpleData name="st_areashape">437663.132960055</SimpleData>
		<SimpleData name="st_lengthshape">3476.97445248163</SimpleData>
	</SchemaData></ExtendedData>
      <Polygon><outerBoundaryIs><LinearRing><coordinates>-2.96447149155384,53.0449665670952 -2.96448608890047,53.0450859755493 -2.96453434264985,53.0455063544055 -2.96460800607273,53.0457978336197 -2.96465921260188,53.0459538813268 -2.96477076228543,53.0462730024957 -2.96483001067698,53.0464586423071 -2.96488859677542,53.0466091482166 -2.96498269019742,53.0468789818013 -2.9651529621494,53.0472883953636 -2.96525401521021,53.0475392996003 -2.96539955214469,53.0479093703723 -2.96557812399672,53.0481560510045 -2.96590685982355,53.0485174437433 -2.96603779148247,53.0487016017934 -2.96623378343247,53.0490613759423 -2.96653283301336,53.049425704204 -2.9665962494949,53.0495222489554 -2.96667210963797,53.0497131448227 -2.96673455601984,53.0501728598724 -2.96687783051119,53.0505726908246 -2.96723710717844,53.0512250932179 -2.96739493298288,53.0515438322067 -2.96763979172797,53.0520191333647 -2.96787930617965,53.0527220247448 -2.96730404861831,53.0526861738031 -2.96735993309236,53.0529787815756 -2.96730632974591,53.0529855083397 -2.96733964796712,53.053275602797 -2.96721077684567,53.0533818875689 -2.96674665465877,53.0534422781123 -2.96666556613502,53.0534851749648 -2.96612043476815,53.0535920549671 -2.96612685352537,53.0538787732695 -2.96618583958795,53.0540464389792 -2.96631287562337,53.0541271875626 -2.96619282893016,53.0542927127195 -2.96608572247734,53.0544427642906 -2.96607157705617,53.0545417351772 -2.96635094620287,53.0545583382763 -2.96905083261353,53.0546002613057 -2.96920830995349,53.054699630152 -2.96941444683342,53.0545775242718 -2.96972684305789,53.0544050343424 -2.96992147048863,53.0543018938961 -2.97089404654353,53.0537617478899 -2.97121910838564,53.0535567971921 -2.97131016074084,53.0534922457555 -2.97175938857275,53.0531694486739 -2.97210981874076,53.0529606920753 -2.97238211843309,53.0528658995062 -2.97260587273882,53.0527948690855 -2.97291151370922,53.0527222688273 -2.9733380694157,53.0526494863969 -2.97384687990208,53.0525860039061 -2.97394063843651,53.0525762486587 -2.97417573445491,53.0525446642422 -2.97416491596168,53.0525285772719 -2.97399707283435,53.052297102388 -2.97400293612851,53.0522952564294 -2.9740961666482,53.052262139921 -2.97392297217848,53.052055063118 -2.97398190353823,53.0519574316686 -2.97418156524384,53.0518821017608 -2.97437227060256,53.0518023520075 -2.97460130273055,53.0516386197582 -2.97464879119798,53.0515627401452 -2.97468764229946,53.0514312127583 -2.97468931645829,53.0511785765953 -2.97475544308643,53.0510674050262 -2.9749263356403,53.050840431533 -2.97489489455996,53.0508317027422 -2.9744878528112,53.0507109323689 -2.97411235817687,53.0505980806264 -2.97369864692608,53.0504432130984 -2.97290487872427,53.0501090205186 -2.97241517420469,53.0498946467451 -2.97212911783946,53.0497764721177 -2.97170145286217,53.0496020289581 -2.97136608602226,53.0494842557583 -2.97088818560707,53.0493893058951 -2.97091643038391,53.0493216723375 -2.97107439749386,53.0492466885565 -2.97094421078312,53.0488341713008 -2.97095128850992,53.0487496359664 -2.97096532061264,53.0485750844742 -2.97098078793128,53.0481363030886 -2.97097258212345,53.047968314103 -2.97084692821956,53.0476258582983 -2.97083445546889,53.0475360907748 -2.97084238448064,53.0473526912737 -2.97094246119336,53.0470938571565 -2.97094947565156,53.0470776240335 -2.97104202824741,53.0470147669163 -2.97130942294521,53.0468292473932 -2.97151608063678,53.0466666007275 -2.97178059456173,53.0463587900837 -2.97195868357173,53.046118279596 -2.97209386607825,53.0458295008065 -2.97205675858755,53.0454377924975 -2.97205360049922,53.0451664111499 -2.97202314942086,53.0449392003032 -2.97136721347565,53.0448223417464 -2.97114099241987,53.0447818618494 -2.97083156533578,53.0447493411522 -2.97038262578885,53.0446874036322 -2.97010742379943,53.0446563994302 -2.96981742633595,53.0446237174428 -2.96958748967344,53.0446148092568 -2.96954418582805,53.0446142645667 -2.96941136743882,53.0446090573962 -2.96938415943893,53.0445310927 -2.9693177091286,53.0444911027053 -2.96927085040799,53.0444636254326 -2.96922995353197,53.044438795477 -2.96911304625028,53.0444136874401 -2.96910105792882,53.0444110892516 -2.96874157734542,53.0444113238459 -2.96859586080328,53.0444286885254 -2.96855868161204,53.0444379784661 -2.96835884164806,53.0445043141777 -2.96832184656455,53.0445162985135 -2.96753989963783,53.0448346043281 -2.96728750346112,53.0450200816185 -2.96669956019202,53.0447425818825 -2.96656300885305,53.0448398532288 -2.96645250070171,53.0449028513142 -2.96628753213939,53.0449284566304 -2.96591322773752,53.0449314977734 -2.96475783796601,53.0449624462628 -2.96456853180127,53.0449666780109 -2.96447149155384,53.0449665670952</coordinates></LinearRing></outerBoundaryIs></Polygon>
  </Placemark>
