  <Placemark>
	<Style><LineStyle><color>ff0000ff</color></LineStyle><PolyStyle><fill>0</fill></PolyStyle></Style>
	<ExtendedData><SchemaData schemaUrl="#Wards__December_2019__Boundaries_EW_BFE">
		<SimpleData name="objectid">86</SimpleData>
		<SimpleData name="wd19cd">E05000132</SimpleData>
		<SimpleData name="wd19nm">Fortune Green</SimpleData>
		<SimpleData name="wd19nmw"></SimpleData>
		<SimpleData name="bng_e">524882</SimpleData>
		<SimpleData name="bng_n">185333</SimpleData>
		<SimpleData name="long">-0.20014</SimpleData>
		<SimpleData name="lat">51.55307</SimpleData>
		<SimpleData name="st_areashape">1006507.46047711</SimpleData>
		<SimpleData name="st_lengthshape">5405.26768385185</SimpleData>
	</SchemaData></ExtendedData>
      <Polygon><outerBoundaryIs><LinearRing><coordinates>-0.21347655163459,51.5551885440686 -0.213437544443278,51.5551519892827 -0.213214367209781,51.5549589000482 -0.212874385896151,51.5546506650911 -0.21278308150355,51.5545889505266 -0.212466252617322,51.5542424102303 -0.212355143217532,51.5541337350785 -0.211916209043405,51.5537044220787 -0.211705039818633,51.5535329983027 -0.211405294699932,51.5533062840156 -0.211255379292939,51.5531925208135 -0.210724547790944,51.552786974638 -0.210293434662968,51.5524530694115 -0.209731681595857,51.5520631395067 -0.209147154590247,51.551632492983 -0.208576965133652,51.5512398209436 -0.207948925957851,51.5507760504488 -0.207537870102767,51.5504442397475 -0.207284264372926,51.5502551708046 -0.207229234533812,51.550187803677 -0.206788670879571,51.549835764611 -0.206311728186644,51.5494201475859 -0.205742456757616,51.5488971245174 -0.205111494166284,51.5482921540204 -0.204247376820571,51.5474902375463 -0.204238984023771,51.54748291681 -0.203711509598678,51.5469596239305 -0.202484438497452,51.5472816428324 -0.200273389637038,51.5478664415443 -0.199865599009338,51.5479662685887 -0.199583963174659,51.5480122913176 -0.199249072637157,51.5480547982368 -0.198920961802247,51.5480731363408 -0.198678727148835,51.5480730136904 -0.198635502179274,51.5480714507869 -0.19835464176916,51.5480617445188 -0.197983762283405,51.5480308766829 -0.197794019541565,51.5480144769685 -0.197726080214808,51.5483101946078 -0.197713149391886,51.5484898857681 -0.197793883127982,51.5484902275551 -0.197783449096147,51.5485736741916 -0.19772903195098,51.5486717290263 -0.197626488911468,51.5488590343848 -0.198262664808195,51.5490018574538 -0.19815387345883,51.5491998557361 -0.198034163912828,51.5494183620077 -0.198345208883367,51.5500517215259 -0.198541532237882,51.5504494887124 -0.198594918528448,51.5505581884288 -0.199092244441888,51.5515532043035 -0.198494446622512,51.5516421081599 -0.19849302092527,51.5516420862672 -0.198186140774592,51.5517425568834 -0.197926625904989,51.5518482496432 -0.197742807114013,51.5519012549306 -0.197591756732584,51.5519286010665 -0.197203575223494,51.5519675871288 -0.194505793590064,51.5520510606917 -0.194218883361807,51.5520493416535 -0.193718439617275,51.5521180531209 -0.193224826411727,51.5522004419344 -0.193168322024504,51.5522067639781 -0.192956685449468,51.5522322724923 -0.192843372298856,51.5521054758447 -0.19283930584637,51.5521000185394 -0.192728284638197,51.5519904284892 -0.192593378222871,51.5519344098151 -0.192148028073042,51.5520713880357 -0.191753779565619,51.5521912622584 -0.191215832566678,51.5522998397489 -0.190130598858164,51.5525663776864 -0.18929726160905,51.5528116213711 -0.188753725683197,51.5529497672792 -0.189134714512434,51.5531643065187 -0.189858539928847,51.5535720272905 -0.191109339705039,51.5542567625771 -0.193799110129891,51.5557280758376 -0.194011932597667,51.555856314256 -0.194269047225833,51.5560284770098 -0.194501573464395,51.5562028677268 -0.19471796825179,51.556385190335 -0.194957104800365,51.5565399036624 -0.19512187651559,51.5567133395901 -0.195272124665164,51.5568901488947 -0.195392929836339,51.5570475350883 -0.195534186833655,51.5572682570318 -0.195637182090611,51.5574730164141 -0.195809120307251,51.5577571396064 -0.195838094354387,51.5578997182095 -0.195867707208965,51.5579900738956 -0.195907459570946,51.5580796871937 -0.19594663540038,51.5581478055436 -0.195969736647127,51.5581832213414 -0.196286686878811,51.5585603749469 -0.196599094105342,51.5589050927625 -0.196719931303739,51.5590588803959 -0.19679281805685,51.5591859503371 -0.197009329182707,51.5591101675889 -0.197321725364238,51.5590159912215 -0.19753922917692,51.5589150508858 -0.197598352681249,51.5588817979108 -0.197959762020864,51.5591184830803 -0.198204703878691,51.5589432568731 -0.198206129812748,51.5589432787814 -0.198454170420054,51.558761805646 -0.198475128582611,51.5584509813523 -0.19847400793371,51.5582594757461 -0.198482677802759,51.5582236491562 -0.198508298488722,51.5581592237671 -0.198555371811675,51.5580997141464 -0.198614047251306,51.558038583285 -0.198766310463559,51.5579087678881 -0.198881748097113,51.5578349342549 -0.199027352833938,51.5577652498411 -0.199101234467848,51.5577196361044 -0.199473147533575,51.5572532782893 -0.199599109224426,51.5570573404179 -0.199635253099531,51.5569823785663 -0.199648666723744,51.5569348469816 -0.19965068765639,51.5568836342775 -0.199644326309495,51.5568277983746 -0.199579121650928,51.5566505918322 -0.19949258975462,51.5565044332274 -0.199476865452081,51.5564628373324 -0.199459911550524,51.5563439082434 -0.199439088825956,51.5562868611404 -0.19938501776338,51.5561952313547 -0.199966619521794,51.5561897740478 -0.2001442913078,51.5561844099668 -0.200526506210092,51.5561498193784 -0.200956896856658,51.5560638234237 -0.201313319734196,51.5559864917265 -0.201623920780141,51.555940010468 -0.201825288715153,51.5559188238339 -0.202765737678538,51.5557741082801 -0.203322774538237,51.5556944477214 -0.203651786149531,51.5556545347835 -0.203923935100502,51.5556299327753 -0.204057157091779,51.5556175883201 -0.204285814416626,51.5555617527431 -0.204764446882323,51.5554251460159 -0.204950920619027,51.5554136153377 -0.205079623696861,51.5553679366865 -0.205321684782315,51.5553401742197 -0.205754144267637,51.5553099292921 -0.205790385741488,51.5553077866112 -0.205812496768963,51.5554411776203 -0.205852629119498,51.5555578534484 -0.205840463450672,51.5559398370826 -0.20587850273114,51.5560734716415 -0.205873102314941,51.5561382082357 -0.205868991407589,51.5562064698909 -0.205941256407319,51.5564225285433 -0.205967346292645,51.5564184320481 -0.206064696795229,51.5564018507122 -0.206190740849755,51.5563875955563 -0.206311043229168,51.5563741517531 -0.206471168965013,51.5563370426786 -0.206966493347086,51.556211560583 -0.207497847430203,51.5560892329177 -0.208013492854115,51.5559640568282 -0.208309146990217,51.5558921559599 -0.208820272241949,51.555733553441 -0.20883148398379,51.5557418153141 -0.20921230686815,51.556036300552 -0.209513742187967,51.5563322708846 -0.209541591856417,51.556356069645 -0.210002160829296,51.5567524584451 -0.210006298849688,51.5567561177473 -0.210819840434357,51.5564654708753 -0.21122204923461,51.5563241651667 -0.211672827688617,51.5561574386878 -0.212104583267839,51.5559266795814 -0.212486858417189,51.555704965241 -0.212975449955385,51.5554228365916 -0.213260492657442,51.5552905276915 -0.21347655163459,51.5551885440686</coordinates></LinearRing></outerBoundaryIs></Polygon>
  </Placemark>
