  <Placemark>
	<Style><LineStyle><color>ff0000ff</color></LineStyle><PolyStyle><fill>0</fill></PolyStyle></Style>
	<ExtendedData><SchemaData schemaUrl="#Wards__December_2019__Boundaries_EW_BFE">
		<SimpleData name="objectid">5131</SimpleData>
		<SimpleData name="wd19cd">E05010856</SimpleData>
		<SimpleData name="wd19nm">Wheatley</SimpleData>
		<SimpleData name="wd19nmw"></SimpleData>
		<SimpleData name="bng_e">579782</SimpleData>
		<SimpleData name="bng_n">190507</SimpleData>
		<SimpleData name="long">0.593615</SimpleData>
		<SimpleData name="lat">51.58474</SimpleData>
		<SimpleData name="st_areashape">3112240.68625011</SimpleData>
		<SimpleData name="st_lengthshape">10899.3292799309</SimpleData>
	</SchemaData></ExtendedData>
      <Polygon><outerBoundaryIs><LinearRing><coordinates>0.565918632574499,51.5882452416633 0.566334001107321,51.5882632261311 0.56664194691838,51.5882717795873 0.567044614617296,51.5882692708658 0.567195502032728,51.5882578808126 0.567514143085821,51.5882239419867 0.567754891219357,51.5881934134668 0.568440248327568,51.588083121425 0.568831504054131,51.5880071310256 0.569108100051477,51.5879453367072 0.569503956614289,51.5878475763189 0.570102464399274,51.5876834313841 0.570479545021506,51.5875609929872 0.570698730399778,51.5874796819437 0.571058778294096,51.5873360373093 0.571422690783362,51.5872102872767 0.571798642161998,51.5870679995152 0.572060902874388,51.5869570609711 0.572352338886216,51.5868274110839 0.573961434630789,51.5861023637377 0.574312934982704,51.5859615908588 0.574741989139925,51.5858136315923 0.575312904420797,51.5856464655476 0.575763486449642,51.5854962310066 0.576771136506092,51.5851152882093 0.578319719954187,51.5845471319015 0.579074355671279,51.5842598347285 0.579839678629741,51.5839848843474 0.580528065728706,51.5837511770033 0.58060010348401,51.5837244175695 0.582691479903893,51.5829544339439 0.582984624861552,51.5828283076964 0.583160204694634,51.5827426220734 0.583329704264251,51.5826525740074 0.583500188251269,51.5825526143729 0.583817560364147,51.5823459306683 0.584527779189679,51.5818616644786 0.585265785626911,51.5813346121341 0.58569816876393,51.5809905200306 0.586057713335282,51.5806633156892 0.586094867180924,51.580630128869 0.586371606561093,51.5803434112031 0.586893346000509,51.5799991428507 0.587489115727198,51.579636155866 0.588379169490159,51.5794986508651 0.588523754188019,51.5792742753171 0.58865012055433,51.5791104533701 0.588796947900246,51.5789506759058 0.588989185084001,51.5787773984741 0.589303341025071,51.5786175250168 0.589525794568858,51.5785173080545 0.589755787661273,51.5784241175602 0.58999046731823,51.5783380164618 0.590668911176194,51.5781089568504 0.590955582682565,51.5780226043912 0.59117015787256,51.5779639192313 0.591315349317133,51.5779282540944 0.59164757966404,51.5778561798012 0.592159097101703,51.5778143100386 0.593320621753276,51.5777320000948 0.594712764740519,51.5776158078483 0.595946111977164,51.5775012225605 0.596346296433275,51.5774564038102 0.596347722198413,51.5774563722629 0.598098439407809,51.5772755589129 0.598973079892433,51.5771986458994 0.598611132653983,51.5769269419729 0.598828171388904,51.5769095477079 0.599668319411541,51.5768351925795 0.600617467099668,51.5766980840797 0.601152016978111,51.5766304905475 0.601494247721577,51.5766588688316 0.602033151797835,51.5766154510426 0.606388545776554,51.5762480675779 0.607871258803273,51.5761018369011 0.607876913156352,51.5761008118573 0.608388244703073,51.5760561790118 0.608459760312992,51.5762721785924 0.60837396585968,51.5762848755538 0.608269393944557,51.5763250532246 0.608213958456912,51.5763649472446 0.608188005260474,51.576416774668 0.60828005341234,51.5766629780437 0.608449426048831,51.5767464284932 0.608496668266593,51.5769666541477 0.60851001039754,51.5770230026545 0.608513686013241,51.5770373066177 0.608525345371025,51.5770891974002 0.608531320865716,51.5771187352918 0.608583476478833,51.5773478428214 0.608617578079737,51.577515221224 0.608626129989826,51.5775897493419 0.608643857385896,51.5777476011881 0.608643715739121,51.5777700826716 0.608648331133446,51.5778257257633 0.608657669864542,51.5779119247927 0.60868032158308,51.5781308082545 0.608684009992904,51.5781702875128 0.608693076401704,51.5782537953311 0.608694876250896,51.5782852248045 0.608674567263972,51.5782838775213 0.608674837046327,51.5783135431389 0.608678693822461,51.5783808914977 0.608683179782415,51.5783843884119 0.608757187463211,51.5785419792599 0.608755852568265,51.5786184341837 0.608751419018183,51.5787426128118 0.608734073074109,51.5788428913387 0.608742980279581,51.5789236145877 0.608751938962324,51.5790052360752 0.608770260461712,51.5790965399448 0.608973560231862,51.5790677438288 0.609068226985547,51.5793345676834 0.60908118334379,51.5793342796042 0.609109799306737,51.5794307490203 0.608877720557321,51.5794620739484 0.608912983468389,51.5795727812963 0.609158524328609,51.5795250633639 0.609199825422649,51.5795915790871 0.609132972234021,51.5796587027031 0.609129259047213,51.5796686749021 0.609155367964254,51.5797463192571 0.609185055286962,51.5798365608645 0.609169228870019,51.579838710645 0.608963074231346,51.5798675706236 0.608862308465202,51.5798725082426 0.608871306264549,51.579929852638 0.608954651897617,51.5801735514279 0.609386454589537,51.58010280893 0.609892070361405,51.580057397491 0.610169960691023,51.5800466313202 0.610256759599522,51.580049285581 0.610315660233793,51.5800947298264 0.610359831991228,51.5801593842721 0.610401113994664,51.5802753517048 0.610443237020242,51.5804309533641 0.610598751674879,51.5804238969478 0.610668381522511,51.580405264002 0.610678383550067,51.580403243602 0.61075127822931,51.580391731245 0.610765625978102,51.5803887147644 0.610882856147511,51.5803699219913 0.610947244232482,51.5803594981726 0.611011580800451,51.5803481760811 0.611014119969232,51.5803426351362 0.611114112879297,51.5803242256879 0.611151247977669,51.5803180039351 0.611224159128812,51.5803046930524 0.611288598534227,51.5802951672907 0.611434611235172,51.5802739346808 0.611408872789593,51.5802277530073 0.611548391540259,51.5801949772855 0.611634076183696,51.5803297370535 0.611743563268684,51.5805018211332 0.611615610793356,51.5805370369248 0.611620627291967,51.5805477151836 0.611656226555084,51.5806143577649 0.611700353305673,51.5807051757433 0.611748822319524,51.5807949086289 0.611777979530286,51.5808509046431 0.61181854434604,51.5809273271651 0.611859253647243,51.581008331513 0.611847928687543,51.5810121802294 0.611746094482525,51.5810504114537 0.611726417364504,51.5810580426963 0.611630254535796,51.5810934503382 0.61159775834305,51.5811058628929 0.611512867396647,51.5811365235456 0.611446397449468,51.5811604811833 0.611405497477941,51.581175777968 0.611292337490483,51.5812178575008 0.611276836303709,51.5812235969703 0.611177871085494,51.5812599659994 0.611121298556868,51.5812801065718 0.611087381368762,51.5812926405482 0.611061862689642,51.5813021995396 0.611002489792155,51.5813233017545 0.610952997896966,51.5813423853075 0.610811858891503,51.5813967762495 0.610807513020373,51.5813977714301 0.610776390789078,51.5814092538085 0.610756661874284,51.5814159866612 0.610699970748368,51.5814361296744 0.610668968077539,51.5814476084655 0.610617947117523,51.581464928032 0.610524479972421,51.5814975775631 0.610376037978969,51.5815512310846 0.610349211398957,51.5815608199206 0.610235896577126,51.5816002046522 0.610213297517572,51.5816087991319 0.610200597859933,51.5816135776578 0.610179271747693,51.581619446561 0.610133822908953,51.5816322358879 0.609994387960365,51.5816686056763 0.609870673929503,51.5817010280985 0.609745533883324,51.5817334830082 0.609724207656995,51.5817393518329 0.609747428873686,51.5818413364084 0.609784345416025,51.5820078421973 0.609850868902472,51.5819847836659 0.609992432661721,51.5819356898596 0.61014890238436,51.5820968389402 0.61015032828655,51.5820968072214 0.610377529325614,51.5822563834543 0.610611297971713,51.5825326089073 0.610608444700091,51.582532672389 0.610652851260555,51.5825785297063 0.610537571249143,51.5826314456462 0.610364517382169,51.5826856458695 0.610121520930137,51.5827530919083 0.609772058466934,51.5828507774055 0.609403045035533,51.5829624737764 0.609086182082659,51.5830495426697 0.608855894812213,51.5831373821868 0.608664998498142,51.5832334275002 0.608504078303538,51.5833727734308 0.608324167580671,51.5835089446674 0.60799814955692,51.5837896161008 0.6076990950568,51.584038215526 0.607831340844545,51.5841027095961 0.608124474150806,51.5842059762373 0.608218422004941,51.5842335591654 0.608294617214862,51.5842525447153 0.608342220194754,51.5842523859033 0.60837497667225,51.584244464551 0.60839482685443,51.5842377294705 0.608426349273577,51.5842082577811 0.608472647682064,51.5841603847041 0.608534470478525,51.5841050632359 0.608639141255302,51.5840164207083 0.608639038428737,51.5840146251478 0.60866249780888,51.5839961206314 0.608680459085197,51.5839813358386 0.60872473304794,51.5839479830776 0.608752267465945,51.5839257922502 0.608807625569164,51.5838823035175 0.608887693581404,51.5838192926693 0.608948449011045,51.5837702879053 0.608966341743406,51.5837564037901 0.609011901906701,51.5837185258782 0.609035685312728,51.5837305848228 0.60905190777779,51.5837374173794 0.609072784956467,51.5837486415542 0.60909350926866,51.5837571718707 0.609152915059524,51.583786421867 0.609258303288039,51.5838371267111 0.609359315715234,51.5838862195065 0.609469138947964,51.583939523012 0.609503232486552,51.5839549490105 0.609504762746232,51.5839567128248 0.609572999853907,51.5839884621518 0.609599686780753,51.584001355626 0.609618983797903,51.5840099174841 0.609704985743777,51.5839486632022 0.609792418577174,51.5839871786483 0.609922259855974,51.5840616151398 0.609920936767518,51.5840634424159 0.609965700771307,51.584088521339 0.610040056713204,51.5841273274733 0.61005205145544,51.5841351523189 0.610086303362321,51.5841533617808 0.610125088209288,51.5841758764262 0.610168374987063,51.5842000887589 0.610181795734082,51.5842078818694 0.610195216536851,51.5842156758764 0.610284848038346,51.5842676290382 0.610353653549269,51.5843092556667 0.610383621192552,51.5843274704145 0.610488358674545,51.584391674978 0.61057512724003,51.5844455793935 0.610587565243891,51.5844362216963 0.610683319717541,51.5844953205439 0.610774688440842,51.5845526291133 0.610861570742408,51.5846064417461 0.610928883053793,51.5846490006317 0.610969367238632,51.5846741735016 0.611023207230265,51.5847080410878 0.611080178484044,51.5847446261256 0.611113103042341,51.5847645736304 0.611153537424909,51.5847888490708 0.611206207581383,51.5848272376703 0.61123014490974,51.5848419898063 0.611322940910683,51.5848992661807 0.611411303303589,51.5849539439355 0.611403191078178,51.5849640148817 0.611411715134065,51.5849611279533 0.61141874496903,51.584959172753 0.611424518591447,51.5849581457825 0.611430172488804,51.584957120577 0.611436050485336,51.5849578891292 0.611440432820712,51.584959589442 0.611538333649284,51.5850041644096 0.611631737781411,51.5850471314721 0.611744486189438,51.5850994674495 0.611754128793629,51.5850911611612 0.61178760490778,51.5851227844461 0.611801350343454,51.5851341667338 0.611816353539527,51.5851446225496 0.611832834182528,51.5851559439497 0.611837386281068,51.5851585398415 0.611856771860984,51.5851706959488 0.611891072957518,51.585189713219 0.61193114766941,51.5852077025845 0.611951974513978,51.5852180278474 0.612029135727279,51.585255871789 0.612088493217518,51.5852842207185 0.61212152151002,51.5853059634742 0.612194975078112,51.5853538692843 0.612207037244235,51.5853607939327 0.612250412407959,51.5853886001132 0.612293958752762,51.5854173009396 0.612388080124717,51.5854727491095 0.612404458041102,51.5854822748696 0.612472463515473,51.5854331074948 0.612588479159879,51.5854925630928 0.612514921317179,51.5855445513781 0.612642160328253,51.585598362593 0.612751672640252,51.5855194999137 0.612830483553278,51.5855591035367 0.612872036431911,51.5855779590355 0.612793529189528,51.5856453425476 0.612852841276878,51.5856728835622 0.613180734778761,51.5858256239945 0.613361544169554,51.5859583529656 0.613545084874137,51.586036982914 0.613668098327964,51.5860917865006 0.613829768335399,51.5860423306655 0.613835541978553,51.5860413026764 0.613946150524665,51.5860064702327 0.614060988343889,51.58597064499 0.614163190743241,51.5859386968354 0.61417451671912,51.585934847909 0.614222086529263,51.5859589633099 0.614244737088447,51.5859512663752 0.614336868743384,51.5859968660024 0.614408171467395,51.5860321416822 0.614454263921135,51.5860553905332 0.614469060374782,51.5860622540226 0.614535929143144,51.5860949303033 0.614637049273161,51.5861457247428 0.614708403932481,51.5861818975545 0.614769293210148,51.5862120097295 0.614809478019766,51.5862318834348 0.614831733415114,51.5862421772474 0.614937236729588,51.5862946715922 0.615011496856846,51.5863316788061 0.615072386412597,51.5863617906448 0.615081322859655,51.5863660874151 0.615131916695626,51.5863910333771 0.615240325608898,51.5864443626518 0.615280385912618,51.5864641489178 0.615317609353107,51.5864822005635 0.615375542723006,51.5865105802936 0.615393297444578,51.586519175521 0.615492945336151,51.5865691923086 0.615704006420372,51.586675078143 0.615738258451851,51.5866931958996 0.615772458934208,51.5867104154228 0.615719869692635,51.5867502501545 0.615790057717675,51.5867909431633 0.615845138244959,51.58681938626 0.615941763982035,51.5868685715624 0.616001228796432,51.5868987146702 0.616010163937562,51.5869030104971 0.61603786780318,51.5868817134872 0.61619286285451,51.5867657781827 0.616328345215944,51.5868365737818 0.616356617633728,51.5868521274857 0.616429006015032,51.5869062580181 0.616330668322218,51.5869785823053 0.616282272221045,51.5870147271864 0.616247471772179,51.587038879725 0.616337665599781,51.5870755305721 0.616313387220735,51.5871543848272 0.616515859005686,51.5872370833102 0.616545471143235,51.5872490104965 0.616656391188723,51.587294189861 0.616729622565247,51.5873132366747 0.616533486678407,51.5875191019919 0.616536510060014,51.5875199339346 0.616521558304915,51.5875373509693 0.616770847658624,51.5876288952194 0.616932331687832,51.5876756437007 0.61641585790087,51.5879084346577 0.616376757733438,51.5878805348406 0.616360103832879,51.5878683186329 0.616273277808447,51.5878136115746 0.616256487154698,51.587823875508 0.616225257476736,51.5878065898904 0.616171343777883,51.5877736259098 0.616169866129139,51.5877727594887 0.616166852697832,51.5877700395327 0.616130733902683,51.5877961101209 0.616059369192767,51.5877598487045 0.615977596808807,51.5877185148162 0.615909864833166,51.5877703755293 0.615835195786597,51.58782787525 0.615801854749598,51.5878007461985 0.615793485161867,51.5878063272445 0.615767223291768,51.5878257942053 0.61575043257143,51.5878360589683 0.615732524039063,51.5878247700149 0.615668350966873,51.5877893373231 0.615522261227388,51.5877079868029 0.615433374170582,51.5877459334172 0.615351754954657,51.5877819192021 0.61532503410081,51.5877933945826 0.615241870412657,51.5878294147225 0.6152207483639,51.587838876591 0.615043210974221,51.5879147631296 0.615038864650288,51.5879157593814 0.615033260565352,51.5879176821414 0.615130827906621,51.5880081165975 0.615098379379742,51.58802142751 0.615053333019069,51.5880413130287 0.615020935958641,51.5880555212459 0.614897072914957,51.5881104309477 0.614820802741548,51.5881400930355 0.615148862034406,51.5884466622233 0.615197619087826,51.5884914298611 0.614741913477877,51.5886778130709 0.614512836100454,51.588762129889 0.613235113290712,51.5889128731571 0.612574001299119,51.5889905332946 0.611685899264304,51.5890894265291 0.611771753036783,51.5893015949192 0.611793249991669,51.5893505674998 0.611856097551995,51.5894895200807 0.611869484291001,51.5895215905009 0.611926810033149,51.5896389973803 0.611946316219255,51.5896781247487 0.611984125990767,51.5897582931288 0.612030009376813,51.5898525781875 0.612077420610681,51.5899486270593 0.611503618097614,51.5900647975431 0.611393760566969,51.590088011761 0.611268960074257,51.5901267542204 0.611435369667213,51.5903091676731 0.611441436091064,51.5903153264639 0.611144914959146,51.5903821654663 0.611096497692458,51.5903931333133 0.610973937301209,51.5904211257786 0.610969758962684,51.5904230175 0.610850047008349,51.5904508565147 0.610838669674589,51.5904538068899 0.610723340380909,51.5904833461012 0.610697780544508,51.5904902086127 0.610606806012453,51.5905147107551 0.610565520680726,51.5905255197037 0.610485923392608,51.5905470714055 0.610481694929961,51.5905480639532 0.610368357542785,51.5905874497941 0.610247990616478,51.5906287888503 0.610243762193148,51.5906297822879 0.610126144459133,51.5906692622156 0.610082210990103,51.5906837264909 0.610076607828565,51.5906856489758 0.610002921973699,51.5907106654415 0.609929237432582,51.5907356809323 0.610073442831876,51.5909087897432 0.609993896171317,51.5909312393568 0.609992470008357,51.5909312710802 0.609890100629921,51.5909335481244 0.60984555076743,51.5909372362544 0.609835495083329,51.5909383592905 0.609801050928207,51.5909418226268 0.609748027331369,51.590949295783 0.609746599725577,51.5909493275355 0.609723585938383,51.5909507378729 0.609686185105807,51.5909524690916 0.609599731858096,51.590956190631 0.609546348038559,51.5909573779016 0.609531960939989,51.5909576978704 0.60950604195469,51.5909582743037 0.609354722926903,51.5909643367126 0.609350442990976,51.5909644318914 0.609330178635231,51.5909639831638 0.609311444813732,51.5909652991409 0.609291283332885,51.5909666459637 0.609271293053439,51.5909688892473 0.609246836311725,51.5909721303233 0.609222600736946,51.5909771652203 0.609206941797663,51.5909802106484 0.609188362298779,51.590984220391 0.609059726461398,51.5910059622121 0.609062785969516,51.5910094898709 0.608904861648095,51.59104986572 0.608909141592957,51.5910497705572 0.608807749209218,51.591069107607 0.608786315862756,51.5910731807376 0.608783462083866,51.5910732441873 0.608733758631418,51.5910888255536 0.608678549587727,51.5911080350554 0.608548175587035,51.5911513935942 0.60852765823737,51.5911194813225 0.608523001452171,51.5911150897873 0.608518412855716,51.5911097964644 0.608515456226993,51.5911080643492 0.608509476121261,51.5911055000773 0.608505093272043,51.591103798769 0.608496259386213,51.5911012979393 0.608486100787172,51.5911006253028 0.60847742263912,51.5911008182264 0.608470340304147,51.5911018741458 0.608392873395598,51.5911107894547 0.608382819079941,51.5911119123359 0.608362710395725,51.5911141571975 0.608341069814579,51.5911146382644 0.608323830316086,51.5911150214931 0.608208331183532,51.5911166895654 0.608090096554081,51.5911184192269 0.60807141402248,51.5911206323385 0.60805427595793,51.5911228120172 0.608047023973741,51.5911229732091 0.608034218692518,51.5911259550516 0.608015586153281,51.5911290664153 0.607975795562072,51.5911389418565 0.607951388636575,51.5911430809272 0.607935780997557,51.5911470244175 0.60793435482605,51.591147056116 0.60791297275369,51.5911520264201 0.607893016900131,51.5911569659206 0.607890215942846,51.5911579266472 0.607844752350701,51.5911706262479 0.607840455525376,51.5911725195919 0.607725653691459,51.5912092373104 0.607719877858965,51.5912102650474 0.607667590360061,51.5912285106708 0.607653341979161,51.5912333223881 0.607603906779758,51.5912515045938 0.607561502440586,51.591267731787 0.607573445772207,51.5912746595466 0.607472374296584,51.5913245579683 0.607413330427072,51.5913537433878 0.607312258621838,51.5914036416787 0.607401105138042,51.5915186424201 0.607404282860499,51.5915221683944 0.607314332926618,51.5915646272597 0.607224211770062,51.5916061913878 0.607162534593523,51.5916372321385 0.607159613955334,51.5916381964063 0.607087523809613,51.5916640740565 0.606978430119801,51.5915738896235 0.606916533226232,51.591603137282 0.606789986740738,51.5916634915013 0.606649582108823,51.5917313475254 0.606492117115529,51.5918068645772 0.606516878923685,51.5918359848004 0.606398651352501,51.5918898608919 0.60632834638524,51.5919219922264 0.606258092733862,51.591955021751 0.60608791843414,51.5920352265816 0.606085321572666,51.5920397802203 0.606030932605211,51.592073355717 0.606114302581278,51.5921426245768 0.606245253466816,51.592261094387 0.606592203014225,51.5925465826076 0.606013483912864,51.5928292549656 0.605975708703152,51.5927995249588 0.605355691108567,51.5923356945281 0.604418077011855,51.5916181603504 0.603767083222993,51.5911928511676 0.603277409975796,51.5908862388476 0.602926025619531,51.5906745596063 0.602461219477633,51.5904258352103 0.602171251307343,51.5902784276786 0.601552349888004,51.5899828555084 0.600931709898385,51.5897088081908 0.600805944761717,51.5896557610537 0.6005493876723,51.5895616450033 0.600149765508236,51.589415854136 0.599744792025194,51.5892763834381 0.598503902071704,51.5888865912603 0.59804469791789,51.5887582041893 0.597369129354078,51.5885825433727 0.597058233463653,51.5885246871588 0.596233565972133,51.5883666155454 0.595412355320596,51.5882210494928 0.595004721639601,51.5881617306043 0.594959780323026,51.5881564304548 0.594594694387,51.5881105548828 0.593839649195256,51.5880355342685 0.593471327288181,51.5880059109385 0.593023587303989,51.5879780410951 0.592586254531457,51.5879552450466 0.592237620756966,51.587943164959 0.591887815268238,51.5879356056568 0.591360631143583,51.5879319617942 0.59057330452111,51.5879484431629 0.589879306325349,51.5879817411396 0.589032439288059,51.5880417844168 0.588582813044021,51.5880832605877 0.587905511424194,51.5881548403883 0.58692971833591,51.588286042772 0.584439316608936,51.588617021645 0.584102622298914,51.5886621973164 0.58295193773514,51.5888142994021 0.581412298896254,51.5890073993472 0.580117117940379,51.5891824184409 0.57997525538678,51.5892018083146 0.578821099284393,51.5893449423956 0.577335197543366,51.5895429972012 0.576442570742502,51.5896633730272 0.572388528241165,51.5901982824979 0.570810598276066,51.5904055481573 0.568506158504223,51.5907077112319 0.567796991456223,51.5908060235406 0.566951916096569,51.5909260915203 0.566458718628222,51.5910123920234 0.565425306931765,51.5911977917988 0.56480627675622,51.5913326863574 0.564358533734338,51.5914315629675 0.563742030322965,51.5915861782395 0.563692619463879,51.5915036425808 0.563672029374605,51.5914699274131 0.563632075164305,51.591428453763 0.563571373451998,51.5913758343533 0.563539384816425,51.5913468628468 0.563417619814172,51.5912605132377 0.563293640676658,51.5911876972936 0.563203145422743,51.5911429208586 0.563061843612785,51.5910964653295 0.562933120554118,51.5910408353273 0.562826603069988,51.5909694355529 0.56274392120987,51.5908858287157 0.56271980372537,51.5908423004162 0.562692827470331,51.590798744564 0.562662304379268,51.5907175949409 0.562526609989868,51.5903077910992 0.562298250988722,51.5893558904352 0.562437863643686,51.5892710283875 0.563000992787764,51.5891435674249 0.564401441624024,51.5888368886068 0.565148775141682,51.5887000911842 0.565289373938291,51.5886835334143 0.56544767499767,51.5886495068178 0.56561874156382,51.5885864296475 0.565700105356714,51.5885432052995 0.565783617208297,51.588487435924 0.56583874489336,51.5884412773209 0.565852168839497,51.588423902074 0.565775286055919,51.5883671416069 0.565918632574499,51.5882452416633</coordinates></LinearRing></outerBoundaryIs></Polygon>
  </Placemark>
