  <Placemark>
	<Style><LineStyle><color>ff0000ff</color></LineStyle><PolyStyle><fill>0</fill></PolyStyle></Style>
	<ExtendedData><SchemaData schemaUrl="#Wards__December_2019__Boundaries_EW_BFE">
		<SimpleData name="objectid">5476</SimpleData>
		<SimpleData name="wd19cd">E05011205</SimpleData>
		<SimpleData name="wd19nm">Central St Leonards</SimpleData>
		<SimpleData name="wd19nmw"></SimpleData>
		<SimpleData name="bng_e">580488</SimpleData>
		<SimpleData name="bng_n">109164</SimpleData>
		<SimpleData name="long">0.562878</SimpleData>
		<SimpleData name="lat">50.853821</SimpleData>
		<SimpleData name="st_areashape">886287.407843305</SimpleData>
		<SimpleData name="st_lengthshape">6654.6466017607</SimpleData>
	</SchemaData></ExtendedData>
      <Polygon><outerBoundaryIs><LinearRing><coordinates>0.569325023024592,50.8556187236571 0.569327491167684,50.8556636281163 0.569334337347852,50.8557093355699 0.569350502958372,50.8557711120015 0.569381289065683,50.8558153918009 0.569436545636137,50.8558636297114 0.569509656434931,50.8559276586135 0.569793774462261,50.8561579717892 0.569821972675669,50.8561807285018 0.569759531944074,50.8562063814757 0.569188607341838,50.856523866593 0.569083696185475,50.8565783297002 0.568685861576144,50.8567858971292 0.56765771030537,50.8573670091454 0.566507704852553,50.8578780491802 0.566391508175311,50.8579084798865 0.566306809112864,50.857919334926 0.566221567677775,50.8579203117269 0.566134380136421,50.8579114393703 0.566059719195084,50.8578959980866 0.56599604548583,50.85787581792 0.565937811479643,50.8578501241906 0.565879083077212,50.8578154488274 0.565829987666518,50.8577769656305 0.565789301443579,50.8577337112607 0.565763074887816,50.8576956235351 0.565271494758641,50.8566352534753 0.565228652330611,50.8565291942974 0.565191489726665,50.8564220217259 0.565138440632415,50.8562046893724 0.565117967328509,50.8560387031304 0.56513009803324,50.855871190419 0.563191641088003,50.8556070962524 0.563024482301706,50.8555648220664 0.562906671108963,50.8555422338801 0.562678034331608,50.8555175842283 0.562591196560419,50.8555149966832 0.562479291095136,50.8555210510281 0.562367730244526,50.8555333927934 0.562284685636229,50.8555487048621 0.562120902389821,50.8555936645256 0.560572918934985,50.8553758881395 0.559939852471455,50.8554131623181 0.5594211804547,50.8554128543496 0.55926499720236,50.8551815079354 0.559311610902935,50.8550464190859 0.559224505995366,50.8550132624187 0.558970771740219,50.8549217187792 0.558965449431043,50.8549272303129 0.558945135852811,50.854945659126 0.558928985377021,50.8549630980772 0.558910242348455,50.8549823918582 0.558829435140992,50.8550642802427 0.558803898870236,50.8550900172298 0.558740572040316,50.8551552478297 0.558664853985866,50.8552252455478 0.558559318275199,50.8553219734901 0.558537699085452,50.855342229727 0.558501252427726,50.8553762981185 0.55848234848197,50.8553947867738 0.558401190846651,50.8554702984034 0.558374199913286,50.8554951677732 0.55836609991963,50.8555034384877 0.558242957811125,50.8556167375172 0.558226826318086,50.8556323770975 0.558194396340384,50.8556627604852 0.55814838318964,50.8557061210017 0.558129423427777,50.8557236205529 0.558103737566447,50.8557466632809 0.558099721842972,50.855750348163 0.55808342329893,50.8557650919585 0.558018513873591,50.8558249621001 0.557923736912149,50.8559106630819 0.55790211576065,50.8559309192435 0.557873103899688,50.8559980942548 0.55785185447646,50.8560508017256 0.55781432145958,50.8561442398054 0.557750358744193,50.8561186667283 0.557580477324396,50.8560522570014 0.557558688581669,50.8560437422615 0.557552923770391,50.8560411712756 0.557276902187734,50.8559320395229 0.556953018748628,50.8558024653549 0.556853355751338,50.8557731790164 0.556686112835302,50.8558856451335 0.556520890743001,50.8559558052761 0.556455860043068,50.8559878021229 0.556167325628394,50.85614257884 0.556073290748034,50.8561904968594 0.556062283264086,50.8561970322703 0.556000216709333,50.8561525349784 0.555951837555878,50.856152695661 0.555819644340014,50.8561519954358 0.555677621331636,50.8561515104317 0.555420401879687,50.8561526504818 0.555409002949157,50.8561520007782 0.555139097269668,50.8561525187041 0.554989453925251,50.8562484107512 0.554860647564704,50.8561532222454 0.554833567280395,50.8561529168523 0.554627102443487,50.8562230782094 0.554406573682377,50.856295345147 0.554381505524229,50.8563039871718 0.554197346493376,50.8563664656655 0.553976804483587,50.8564406208813 0.553777375044048,50.856508828735 0.553669894333001,50.8563879052674 0.553450517572543,50.8561445366088 0.553496407008797,50.8558907746263 0.553514000945471,50.8557967859392 0.553525019648915,50.8557389983833 0.553216912659953,50.8557178678106 0.552987249468916,50.8556743398952 0.55303281121267,50.8556247870273 0.553063791873197,50.8555935373619 0.553108636585279,50.8555565894608 0.553514694305471,50.8552904473155 0.553752310808335,50.8551385907773 0.553693233060606,50.8550994215796 0.553499413477872,50.8549849742878 0.5533925195831,50.8549261702179 0.553385184655592,50.8549227339663 0.553373392225197,50.8549148999452 0.553366175096461,50.8549114611137 0.553377556134515,50.8548860351729 0.553389380101591,50.8548686925945 0.553402601296008,50.8548512285867 0.553407942499574,50.8548439180346 0.553410554912634,50.8548402640323 0.55341457098501,50.8548365802025 0.553418753823431,50.8548337903518 0.553474703168579,50.8547921029771 0.553601545187537,50.8546949131738 0.553634173791341,50.8546681235222 0.55364576995593,50.8546723649985 0.553655274312055,50.854664064764 0.553687352381774,50.854678648279 0.553701952014261,50.8546864208107 0.55376715993134,50.8546319421933 0.553870485787865,50.8545460573933 0.553873196254738,50.8545441991917 0.553872950964897,50.8545397092175 0.553874271191642,50.8545359935535 0.553874124007895,50.8545332993893 0.553872357273437,50.8545288418267 0.553870805069778,50.8545261784246 0.553867800188071,50.8545226473992 0.553866200326681,50.8545190856117 0.553861840922602,50.8545164836713 0.553857363724414,50.8545138843098 0.553817530348081,50.8544859828024 0.553694888203712,50.854400549027 0.553690528820222,50.8543979470797 0.553618059920051,50.8543473820314 0.553590312101676,50.8543327036982 0.553569585113719,50.8543178716598 0.553560749952599,50.8543126694041 0.553588202605221,50.8542940852356 0.553697580465673,50.8542160703132 0.553805608356081,50.8541390742158 0.553879504749381,50.854087102696 0.553919222218908,50.8540592574282 0.554028407668564,50.8539777404346 0.554091198154692,50.8539305072972 0.554153886910886,50.8538813884524 0.55422598499582,50.8538222633579 0.554295061202425,50.8537614055343 0.554402172873315,50.8536655454392 0.554501779046489,50.8535652652257 0.554544873573399,50.8535220599949 0.554641302485577,50.8534408208963 0.554749994357327,50.8533224473471 0.554704966476493,50.8533045509259 0.554693371982546,50.853300309517 0.554684584567696,50.8532960057287 0.554681677889606,50.8532942714306 0.554677249808238,50.8532925695536 0.554672939567719,50.8532908659951 0.554670032841286,50.8532891307983 0.554667009791912,50.8532873990485 0.554665557138478,50.8532865314345 0.554662552280568,50.8532830004284 0.55466100007622,50.8532803370364 0.554640642709089,50.8532465245388 0.554623558723225,50.8532190244937 0.55462341150325,50.8532163303308 0.554621860722634,50.8532136669071 0.554621713453695,50.8532109718458 0.554618690411223,50.8532092400945 0.554615734651505,50.8532066074408 0.554614231492906,50.8532048415034 0.554611375331749,50.8532040055259 0.55460846861306,50.8532022703274 0.554604089681479,50.8532014676995 0.554598276294256,50.8531979982003 0.554591041104709,50.8531963577973 0.554580850207918,50.8531920856376 0.554572013784256,50.8531868843846 0.554563293685463,50.8531816796839 0.554555862244507,50.8531764476602 0.554551385139731,50.8531738483226 0.554546976738436,50.8531703480513 0.554545475051873,50.8531685829802 0.554545376875668,50.8531667862725 0.55454532778757,50.8531658879187 0.554545229660469,50.8531640921094 0.554545180572378,50.8531631937556 0.554543677466939,50.8531614287155 0.554544984269127,50.8531596012386 0.554544886142061,50.8531578054293 0.554565573727163,50.8531204865761 0.554587371772696,50.8530777477256 0.554601774812915,50.8530540543357 0.55460564337454,50.8530476754084 0.554608108379624,50.8530413272199 0.554613252888717,50.8530304241033 0.554615521584246,50.8530204833978 0.554630053585516,50.852973408325 0.554639534289005,50.8529389423422 0.554641899735113,50.8529307983749 0.554642862998615,50.8529226842174 0.554646584324637,50.8529136111261 0.554650374350075,50.8529036371012 0.554653997542936,50.8528927682004 0.554660496487023,50.8528809359891 0.554665622776104,50.8528718321269 0.554672270403681,50.8528626949453 0.554676138940712,50.8528563160161 0.554682932366403,50.852849873028 0.554686849991233,50.8528443924523 0.554693742964565,50.8528397452416 0.554697807809542,50.8528369588285 0.55470474987128,50.852833209971 0.554711690512732,50.8528294611442 0.554717160323858,50.8528266439594 0.554722648372699,50.8528220284166 0.554728118133203,50.852819210333 0.554732250303434,50.8528155239146 0.554734813413276,50.852810971533 0.55473742561379,50.852807317505 0.554738583804436,50.852802796793 0.55473969427374,50.8527973767977 0.554742373802022,50.8527928227656 0.554746273127684,50.8527612663458 0.554748442182173,50.852749528962 0.554750779585245,50.8527386882193 0.554751692365705,50.8527296766369 0.554751250642332,50.8527215932502 0.554750858059503,50.8527144091155 0.554749061882417,50.8527072548227 0.554747166153534,50.8526983047519 0.554745154054697,50.8526893572297 0.554743259697469,50.8526804062293 0.554742719892464,50.8526705279316 0.554743730806599,50.8526633121583 0.554746215431261,50.8526551655785 0.554747422659792,50.8526515423217 0.554747275435664,50.8526488481589 0.554748678979254,50.8526488174186 0.554758478557669,50.8526459045024 0.55477128158769,50.8526465235193 0.554826381815054,50.8526408213522 0.554912423851735,50.8526289558194 0.554893554695866,50.8525430482222 0.554833058324428,50.8523213787466 0.554808833633295,50.851852362425 0.554808773324777,50.8515897151785 0.554530412686613,50.851540063181 0.55412256957316,50.8515391031857 0.554047334852754,50.851540750534 0.553986226046149,50.851567265363 0.553858363368996,50.8516177211312 0.553681438479273,50.8516836372403 0.5535147281788,50.8517521168025 0.553488417676629,50.8517401043594 0.553413623420435,50.8517219605131 0.553234959406658,50.851702402593 0.553099136512296,50.8516864929035 0.553015879101289,50.8516721299571 0.552909501204008,50.8516483828465 0.552756970285459,50.8516139558134 0.552627923007978,50.8515934010444 0.552475084516643,50.8515769635583 0.552376708078068,50.8515710240558 0.552348226880666,50.8515707478334 0.552344963417591,50.8516139801487 0.552342921081627,50.8516302091656 0.552324009901418,50.8518546069017 0.552324058944586,50.8518555052577 0.551994601238737,50.8518591168458 0.551977517710949,50.8518594906013 0.55191358212533,50.8518599899403 0.551896616384239,50.8518603611071 0.551827063913158,50.8518609841805 0.551817396671549,50.8519457177226 0.551814132654608,50.8519889491348 0.551792444909281,50.8519822299538 0.551733605244836,50.8519709287326 0.551669081326034,50.8519606512563 0.551576241401773,50.851950993149 0.551476558740359,50.8519468794203 0.551386556587339,50.851939856477 0.551309278954282,50.8519298568627 0.551231037510498,50.8519279713407 0.551160228403579,50.8519313188892 0.551159869084908,50.851898956292 0.551159949437988,50.8518746771424 0.551083260041582,50.8518754549643 0.551037811477825,50.8518755495032 0.550823372946131,50.8518766431552 0.55071544268751,50.8518781039104 0.550559204994309,50.851878822901 0.550441280403254,50.8518796025074 0.550438667912757,50.8518832564465 0.550437458947315,50.8518868796977 0.550434945840198,50.8518923294227 0.550432264567152,50.8518968842948 0.550427041001636,50.8519041921416 0.550420343658552,50.8519124307416 0.55041371514392,50.8519197693066 0.550408324778142,50.8519261813704 0.550401481877658,50.8519317257637 0.550394755344837,50.8519372676123 0.550390572525857,50.8519400564554 0.550386507543826,50.8519428436215 0.55037951625018,50.8519456938699 0.550375500223923,50.8519493784949 0.550371435191178,50.8519521647621 0.550363236341469,50.8519586382292 0.550359102524342,50.8519623254291 0.550287755525244,50.8520331216103 0.550244492908043,50.8520754286276 0.55020583812787,50.8520690810026 0.550168588258917,50.8520627017503 0.550145644129618,50.8520587071183 0.550053895491057,50.8520454271224 0.550039589769509,50.8520430424786 0.549919444077351,50.8520546605664 0.549865796432355,50.8520612289885 0.549864441848383,50.8520621571294 0.549864424927682,50.8520360821471 0.549824709518387,50.8520360508868 0.549758014139461,50.8520375088007 0.549755089289322,50.852037572735 0.549689866231238,50.8520380989972 0.549604634694975,50.8520390625638 0.549576202195024,50.8520396840292 0.549516594720692,50.8520400883514 0.549398717235717,50.8520417653032 0.549313485679066,50.8520427286573 0.54921702165638,50.8520439383274 0.54909200727367,50.8520457709411 0.549040941547044,50.8520459874549 0.548996897735541,50.8520460505004 0.548991164400396,50.8520461757878 0.548986366331253,50.8517755407359 0.548988492642707,50.8517350307463 0.548987741730014,50.8516954839594 0.54868374306101,50.8516976304108 0.54869220158036,50.8519043458108 0.548597023498844,50.8519055259699 0.548307445340602,50.8519100533148 0.548235085572313,50.8519107350922 0.548238377450485,50.8520248574341 0.548239552317943,50.8520464126808 0.548228202003436,50.8520466605627 0.548110442123993,50.8520483328507 0.548039367826101,50.8520489855308 0.54781091748058,50.8520530746701 0.54781064995203,50.8521277124376 0.547638801233219,50.8521278679036 0.547472568070596,50.8521279005138 0.547306287371351,50.8521270344957 0.547124326554734,50.8521265114324 0.547079220153005,50.8521328908543 0.546964268462684,50.8521345006783 0.546863356444264,50.8521358048396 0.546864383855543,50.8521546650205 0.546760782450278,50.8521560268949 0.546655776077725,50.8521574193413 0.546655873946284,50.8521592160625 0.546655776165608,50.8521853834754 0.546630218056273,50.8521850427643 0.54659335988714,50.8521858472018 0.546557906675084,50.8521866209648 0.546520932132256,50.8521874279192 0.546485477497812,50.8521882016912 0.546448619321945,50.852189006083 0.546452664319091,50.8522374725575 0.546454195775445,50.8522913895587 0.546456935108334,50.8523416833842 0.546398615663709,50.8523420566943 0.546351810501829,50.852343078129 0.546309169930829,50.8523431101339 0.546243878844805,50.8523445349338 0.546191458075894,50.8523456788476 0.546140275553243,50.8523458962894 0.546048071583329,50.8523479082451 0.546038126139015,50.8523481252573 0.545930192981553,50.8523495809044 0.545901760189754,50.8523502012844 0.545832255597908,50.8523517177878 0.545761347454362,50.8523532648722 0.545728750097631,50.8523548754999 0.545677763168185,50.8523586852846 0.545625177074465,50.8523589331217 0.545620965017459,50.8523590250147 0.545522978726298,50.8523602641758 0.545484715419034,50.8523610989138 0.545423587412554,50.8523615330054 0.545380995672233,50.8523624621337 0.545280151891221,50.8523628630976 0.545273131320636,50.852363016242 0.545131198559024,50.8523661122262 0.545075802561943,50.8523664220054 0.545027428505973,50.8523665776996 0.544989166597695,50.8523674122442 0.544967821816199,50.8523669783696 0.54487123901761,50.8523681863703 0.544855676533042,50.85236852579 0.544852868019699,50.8523685870438 0.544713694811179,50.8523707229046 0.544569000923682,50.8523747778476 0.544427019156092,50.8523769746133 0.544374480485101,50.8523781202791 0.544297838817975,50.8523797914958 0.544161639298233,50.8523827612818 0.54400690206489,50.8523852356553 0.543874914563334,50.8523881132718 0.543737310005471,50.8523911131929 0.543630781565146,50.8523925360832 0.543599587633443,50.8523941155194 0.543510191900525,50.8523960642453 0.543454846070794,50.8523972706874 0.543418511749239,50.8523818775004 0.543401429322046,50.8523822498568 0.543334586502599,50.8523810094649 0.543324592160423,50.8523803278835 0.543244995353829,50.8523793654369 0.543136866575297,50.8523772268466 0.543038733511061,50.8523757688334 0.542949142374934,50.8523741245781 0.542901403711597,50.8524893598531 0.542849604622339,50.8524761014721 0.542848201069751,50.8524761320594 0.542792610916312,50.8524728481721 0.54271446630853,50.8524727522413 0.542686179891099,50.8524760660268 0.542656989813697,50.8525144672633 0.542590195661432,50.8525141248077 0.542562860008136,50.852586653947 0.541881092249244,50.8524603383036 0.541847519490657,50.8524439850495 0.541832360597387,50.8523741806619 0.542017167468131,50.852349473244 0.542141304323967,50.8523314830103 0.542371695236227,50.8522833034041 0.542795297802723,50.8521840662774 0.542776853492578,50.8521314164047 0.542768384842147,50.8520812474198 0.542736210814428,50.8518795459442 0.542734103353237,50.851868801441 0.542731674116272,50.8518499718026 0.542736002505945,50.8518498774782 0.542707706097663,50.8515923422898 0.542699243448296,50.8515142990168 0.542693461340924,50.8515135264917 0.542692582185115,50.8514973604556 0.542684902443646,50.8514336864602 0.542720845014351,50.8514418947771 0.542775615109633,50.8514559869774 0.542807394586719,50.8514651854198 0.542819531898944,50.8513480286338 0.542828446408901,50.8512254573702 0.542846914420249,50.8510416247677 0.542855524387402,50.8509909936395 0.542689050871715,50.8509865285006 0.542621478957187,50.8509718167121 0.542584255547796,50.8509141812695 0.543145224305636,50.850805744911 0.543759478410467,50.8506582881071 0.543733670564703,50.8501840016545 0.543707281407513,50.8496990340288 0.543828605068858,50.8496955713818 0.543958796173554,50.849693083619 0.54405786737655,50.8497207843498 0.5442352036184,50.8497517881864 0.544352522987257,50.8497678389661 0.54447125943926,50.8497746846035 0.54465251581469,50.8497766858492 0.544882380122891,50.8497612660986 0.545053659649338,50.8497530330198 0.545174610452507,50.8497394846672 0.545300056507726,50.8497346524808 0.545416720125273,50.8497642258537 0.545552876253079,50.8497883100867 0.545674156701657,50.8498089951071 0.545967839469118,50.8498107539105 0.546397150002077,50.8497942798398 0.546568383811087,50.8497974682228 0.546713224631932,50.8497723159305 0.546815927288597,50.8497910128002 0.54693022426955,50.8497959021571 0.547058493238121,50.8497933359663 0.547207615822799,50.8497938401207 0.547344241231368,50.8497949677048 0.547480003386449,50.8497927681153 0.547598665502028,50.8497841600756 0.547727146707852,50.8497797536853 0.547847842563141,50.8497763985969 0.547981510907691,50.8497795777358 0.548107527321489,50.849761490524 0.548211514561203,50.8497834140426 0.548313624707119,50.8498029590132 0.548430219633389,50.8497937023902 0.548569292429224,50.8497800416916 0.548676058258064,50.8497794358409 0.548794833889625,50.8497794309192 0.548951440132177,50.849769964721 0.54905663153627,50.849756117403 0.549171095729774,50.8497411409349 0.549312433278701,50.849736451093 0.549467772920194,50.8497363299314 0.54962519284216,50.8497381418289 0.549783082781342,50.8497290332054 0.54989493682684,50.8497253379135 0.550119876734233,50.8497077115946 0.550234212805366,50.8497002920571 0.550367133278634,50.8496926279725 0.550566990688606,50.8496791675843 0.550580288439788,50.8496782715026 0.550715073337577,50.8496784812002 0.550850590029956,50.849686895491 0.550964862490205,50.8497189344393 0.551050062895858,50.8497740857393 0.551169112447448,50.8497791001971 0.551263920710033,50.8497332875201 0.551342364647808,50.8496747730314 0.551506999536341,50.8496476429459 0.551698269674747,50.849625128649 0.551866624946643,50.8496057776503 0.552030990040568,50.8496078121141 0.552199136941269,50.8496325370669 0.552439166880234,50.8497099512287 0.552633114422337,50.8497414233199 0.552825213487045,50.8497765062655 0.552934492147957,50.8497927777108 0.553089437102357,50.8498156047189 0.553196888425194,50.849825988697 0.553328809226287,50.8498169310153 0.553513952277765,50.8497956541506 0.553651875337418,50.8497914025549 0.553758578532616,50.8498083771988 0.553866990069988,50.8498412791569 0.554017702709881,50.8498758271771 0.554139156926945,50.8498814155501 0.554312543526651,50.8498722402841 0.55448098500052,50.8498612302949 0.554611036526405,50.8498561875607 0.554750504852573,50.8498627928745 0.554856452319363,50.8498953071648 0.554968248228497,50.8499014659875 0.55510162677631,50.8498936065818 0.555222981617424,50.8498955533263 0.555355516509476,50.8498878560188 0.555463972188872,50.8498885290858 0.555560305606365,50.8499179974391 0.555669859764148,50.8499281082136 0.555779222489186,50.8499425133434 0.555889337569122,50.849955345878 0.555998310616521,50.8499535246954 0.556107514555366,50.8499611243396 0.556215037424166,50.8499676004612 0.556318376586126,50.849984088844 0.556432277499711,50.8499856040634 0.556539918226889,50.849977344698 0.556661173556939,50.8499751277826 0.556765814205763,50.8499605930079 0.556846297146346,50.8500135229895 0.556950183661371,50.8500298818902 0.557093727056474,50.8500369437254 0.557230772089071,50.8500353334687 0.557346161014446,50.8500274251611 0.557498465724586,50.8500310205014 0.557610409450934,50.8500411670052 0.557759944385775,50.8500523059638 0.557912537271024,50.8500635035931 0.558033867546093,50.8500732999454 0.558145755070883,50.8500829344954 0.558255047857509,50.850101233358 0.558296153530419,50.8501695696852 0.558375819948767,50.8502189637934 0.558478723059888,50.8502381041446 0.558608335042405,50.850228911242 0.558740030017459,50.8502346749384 0.558868727105155,50.8502414756318 0.558887863499951,50.8503102397293 0.5589753297426,50.850368438602 0.559078032264629,50.8504041502658 0.559198147006072,50.8504117055237 0.559310758422775,50.8504290941243 0.559428471538009,50.850425737828 0.55953547003857,50.8504296140615 0.559638061873648,50.8504523939075 0.559693144104225,50.8505104933828 0.559804243167292,50.8505586391117 0.559947002913287,50.8505806721056 0.560055911158428,50.8505929515682 0.560162397599595,50.85059810667 0.560346521388363,50.8506272272776 0.560443737664182,50.8506888178967 0.560564826561172,50.8507045441807 0.560716926337083,50.8507188790122 0.560832936351186,50.8507357778398 0.560957947033499,50.8507496907122 0.561076297745721,50.850744214082 0.561212547659267,50.8507371300869 0.561335517028335,50.8507436041274 0.561459047502558,50.8507447590861 0.561609173177989,50.8507438008399 0.561751083727674,50.8507459009923 0.56186606605461,50.850749221996 0.56198112223365,50.8507538904073 0.562102557050557,50.8507660637441 0.562223586753757,50.8507812139679 0.562364073404706,50.8507832547078 0.562482569645066,50.850772916537 0.562600893493959,50.8507594340322 0.562719879352398,50.8507502541212 0.562865904379268,50.8507496541762 0.563012091908793,50.8507520185925 0.563157454801858,50.8507471155728 0.563281020057631,50.8507359456611 0.563404349758724,50.8507230718803 0.563527032943094,50.8507087730916 0.563505408362224,50.8507771821906 0.563410526424245,50.8507455477808 0.563311205496301,50.850772626615 0.563404423308363,50.8508060425683 0.563511275279898,50.8507981538525 0.563619539737346,50.8507991833114 0.563723043651662,50.8507807637196 0.563828186025753,50.8507629466176 0.563935399853397,50.8507481869182 0.564029678276411,50.8507864269785 0.564140527695575,50.8507737098267 0.564242232059413,50.8507527929435 0.564285021927966,50.8508159185839 0.564270513581197,50.8508832359747 0.564247259651397,50.8509493784887 0.564353441109359,50.8509707081905 0.564422674786234,50.851025067627 0.564529976096566,50.8509986848381 0.564643793204996,50.8509768627018 0.564553158322032,50.8510190508976 0.56445695184272,50.8510542110572 0.564351513934885,50.851066647646 0.564314406300082,50.8511307022533 0.564414666026924,50.8511582961838 0.564526808022776,50.8511660212431 0.564610270232646,50.851215822437 0.564712348160126,50.8512470278148 0.564824415801657,50.8512541695932 0.564926865051986,50.8512732333253 0.565034740246172,50.8512896772387 0.565139428627508,50.851303196038 0.565188883184005,50.8513663096909 0.565216125511776,50.8514399494309 0.56531462648754,50.851484409575 0.565469229026316,50.8515108794092 0.565580832221516,50.8515162767925 0.565716491909863,50.8515227459103 0.565827587536262,50.8515349449081 0.56593683563567,50.8515416979268 0.566000857324785,50.8514865487114 0.566111454910578,50.8515109006816 0.566224713289762,50.8515213428074 0.566334908376741,50.8515189454179 0.566445390919357,50.8515414557739 0.566560577066769,50.8515520710214 0.566684364473946,50.8515451828894 0.566794563486562,50.8515325045088 0.566899634488463,50.8515208832713 0.566917492194253,50.8515907176854 0.567033458822829,50.8516075213486 0.567142275081096,50.8516040742256 0.567255522212094,50.8516057641566 0.567365638479437,50.8515864043017 0.567472069390683,50.8515638425459 0.567577686861821,50.8515730394379 0.567687152624693,50.8515571024323 0.567791926474004,50.8515369693407 0.567903487501647,50.851528658134 0.568045430267945,50.8515201726292 0.568159462802599,50.8515190921377 0.568297806744372,50.8515327755308 0.568451789694417,50.8515427595304 0.568524503112108,50.8515977684513 0.568632630151058,50.8515869508023 0.568740435591616,50.8515594197537 0.568893917325061,50.8515667429036 0.569025482356876,50.8515840105444 0.569170589549848,50.8516150108537 0.569322991834418,50.8516533605256 0.5694815143459,50.851695002005 0.56960119003725,50.8517280820214 0.569760106025357,50.8517797161032 0.569934137550903,50.8518225173406 0.570043953324188,50.8518437078255 0.57019986967111,50.8518782373038 0.57036855879503,50.8519135284535 0.570502043186782,50.8519406098756 0.570606443292196,50.851965624823 0.570793276237802,50.8520034836221 0.57095318532928,50.8520436804411 0.571101793835887,50.8520995423407 0.571231408753401,50.8521497695761 0.571361473565574,50.8521831134648 0.571516184710192,50.8522129997177 0.571669590354411,50.8522573773639 0.571806247205774,50.8522912140171 0.571930465525811,50.8523192536259 0.572061435581886,50.8523561205248 0.57217674572686,50.8523799544944 0.572155321372475,50.8524631986675 0.572099493885428,50.8526110842843 0.571923237948305,50.852584399118 0.571920380063657,50.8525835627029 0.571917522179111,50.8525827262878 0.571914597347085,50.8525827907776 0.571910335990116,50.8525819862069 0.571907576898705,50.8525829455715 0.571904652066642,50.852583010061 0.571903296546545,50.8525839393776 0.571900488083277,50.8525840013012 0.571899133982184,50.8525849305865 0.571897730460089,50.8525849615326 0.571894971417654,50.8525859217952 0.571893499478966,50.8525868527792 0.571892145377663,50.8525877820644 0.57189078985716,50.8525887113809 0.571889386334942,50.8525887423269 0.571889435706327,50.8525896397677 0.571888080185718,50.8525905690842 0.571886726084198,50.8525914983694 0.571886775504958,50.8525923967085 0.571885421353937,50.8525933250953 0.571885470774675,50.8525942234345 0.57188406583314,50.8525942544117 0.571884115253854,50.8525951527509 0.57188416462515,50.8525960501917 0.571882692735348,50.8525969820739 0.571882742156039,50.8525978804131 0.571882791576733,50.8525987787522 0.571882840948009,50.8525996761931 0.57188289036871,50.8526005745322 0.571881486846125,50.8526006054782 0.571806302208634,50.8527820976767 0.571744986963577,50.8529346003521 0.571697467751099,50.853052539587 0.571694907718169,50.8530570922728 0.571699334903599,50.8530587926241 0.571655337322666,50.8531640666919 0.571590449863615,50.8533283370067 0.571877282301157,50.8533759635197 0.571851960741206,50.8534331696438 0.571716772145282,50.8538165897138 0.571692568747689,50.8538153253721 0.571465685865002,50.8537969484015 0.57114980493031,50.8537643484351 0.570672829156928,50.8537209107218 0.570192897551917,50.853674838801 0.570082203881037,50.8536772777939 0.57006706452414,50.8537108803265 0.570065055213107,50.8537531860493 0.569986504482809,50.8539780011081 0.569868814992931,50.8542666204004 0.569649349164127,50.854796661295 0.569466858361325,50.8552513453244 0.569325023024592,50.8556187236571</coordinates></LinearRing></outerBoundaryIs></Polygon>
  </Placemark>
