  <Placemark>
	<Style><LineStyle><color>ff0000ff</color></LineStyle><PolyStyle><fill>0</fill></PolyStyle></Style>
	<ExtendedData><SchemaData schemaUrl="#Wards__December_2019__Boundaries_EW_BFE">
		<SimpleData name="objectid">7145</SimpleData>
		<SimpleData name="wd19cd">E05012918</SimpleData>
		<SimpleData name="wd19nm">Ifield</SimpleData>
		<SimpleData name="wd19nmw"></SimpleData>
		<SimpleData name="bng_e">524829</SimpleData>
		<SimpleData name="bng_n">137344</SimpleData>
		<SimpleData name="long">-0.2177</SimpleData>
		<SimpleData name="lat">51.12178</SimpleData>
		<SimpleData name="st_areashape">2296448.18032533</SimpleData>
		<SimpleData name="st_lengthshape">8966.44132789899</SimpleData>
	</SchemaData></ExtendedData>
      <Polygon><outerBoundaryIs><LinearRing><coordinates>-0.211702039115269,51.1313446164477 -0.211725729165287,51.131329961157 -0.211973671202605,51.1312384536336 -0.212338814048559,51.1312215599145 -0.212360457048755,51.1312164958212 -0.212382342801099,51.1312051429618 -0.212397390432728,51.1311846951597 -0.212399602322249,51.1311640502355 -0.212367484209781,51.1311077282641 -0.212376159158133,51.1310692013358 -0.212389724689246,51.1310505285983 -0.212433704088488,51.1310224319811 -0.212459621166558,51.1310165347964 -0.21268855383469,51.1310083458494 -0.212939730304187,51.1309825164918 -0.213042104076336,51.1309589074903 -0.213111516001152,51.130937491743 -0.213172688633269,51.1309096566825 -0.213235470167248,51.1308737550821 -0.213283896381424,51.1308403311366 -0.213322468945747,51.1308057673739 -0.213374657772432,51.1307481258056 -0.213494215812491,51.1305386757487 -0.213568097206117,51.1302547141938 -0.213642673710377,51.1300993285783 -0.213826801863567,51.1299205328272 -0.214073119512154,51.1297974384297 -0.214632812801077,51.1296243768628 -0.214821212493194,51.1295210753243 -0.214963998388957,51.1295250537275 -0.214965411043129,51.1295250752924 -0.215215734954365,51.1295181073162 -0.215369048774603,51.1295087598641 -0.215518111329642,51.1294966494044 -0.21579848466641,51.1294559757736 -0.216063368900738,51.1294411370616 -0.21625903135094,51.1294459196618 -0.216286291882728,51.1294418398527 -0.216324026912825,51.1294289303143 -0.216346291354632,51.1294076927926 -0.216354603092484,51.1293754534198 -0.21635437938864,51.1292710698244 -0.216359900375381,51.1292378894713 -0.21655847957329,51.1290934738212 -0.216739964601153,51.1289828710956 -0.216812029497129,51.1289291274868 -0.216880714075554,51.1288897176456 -0.216999712523974,51.1288411852623 -0.217060431549396,51.1288250296135 -0.217117963231434,51.1288151178054 -0.217176666870136,51.1288115172066 -0.217822508937339,51.1288519307988 -0.218503124921631,51.1288829808896 -0.219066142144384,51.1288834679498 -0.219111664543585,51.1288886561603 -0.219154636526273,51.1288866137256 -0.219202381001995,51.1288738549571 -0.219234432045368,51.1288554630672 -0.21925380078118,51.1288359795819 -0.219270019092254,51.128784980371 -0.219265610529853,51.1287525470744 -0.219231195721265,51.1286791095552 -0.219190440423082,51.1285499243756 -0.219203189823315,51.1284052820947 -0.219218064484705,51.1283524638019 -0.219237158818838,51.1283033070198 -0.219373210283498,51.1282586287018 -0.21941777041268,51.1282152538166 -0.21939343607265,51.1281034011841 -0.219318373878782,51.128048224683 -0.219259499726341,51.1280194574232 -0.219133934678997,51.1279752888866 -0.219101836986736,51.1279550205202 -0.219070672005028,51.12791049219 -0.21906867436823,51.1278888846246 -0.21907541353393,51.1278638138137 -0.219089113642039,51.1278415460715 -0.219112754442409,51.127821228377 -0.219143510702672,51.1278028167879 -0.21921708478571,51.1277832596981 -0.219446677037189,51.1277605940062 -0.21952225211065,51.1277257825359 -0.219430354852159,51.1276272853679 -0.219411820380244,51.1275883444547 -0.219386414297362,51.127504345089 -0.219379769675792,51.1274565040353 -0.219419665687696,51.1273474273925 -0.219562574297908,51.1273082473573 -0.219599342197768,51.1272836338344 -0.219615730392257,51.1272650033067 -0.219628015981385,51.1272427148585 -0.219631740489732,51.1272193958244 -0.219627400844638,51.1271851658635 -0.219641345656956,51.1271565184831 -0.219642174421591,51.1271349539687 -0.219634337081822,51.1271150551991 -0.219617883113891,51.1270986215453 -0.219594141088213,51.1270847748265 -0.219564317920387,51.1270789256795 -0.219511440154556,51.1270781203647 -0.219449843573579,51.1270834756034 -0.219349203643074,51.1270990251507 -0.219304889789738,51.1270992494919 -0.219229891393806,51.1270792270054 -0.219199035588771,51.1270634732264 -0.219161858907913,51.1270251467072 -0.219151298776495,51.1270025093981 -0.219148095800712,51.1269754885112 -0.219153474883573,51.1269459022249 -0.219203911491491,51.126863058099 -0.219249337304906,51.1267971309813 -0.219370362177282,51.1267693052723 -0.219440606747631,51.1267290186061 -0.219376195462563,51.1266543157538 -0.219552011800791,51.1265437128624 -0.219583868836732,51.1265334090117 -0.2196183466794,51.1265285400237 -0.21965406649503,51.1265280947583 -0.219688125099492,51.1265340974154 -0.219717740764133,51.1265453374323 -0.219748423746463,51.1265655840936 -0.219779381348389,51.1266155031548 -0.219866383765195,51.1266941461187 -0.219914903337938,51.1266948849145 -0.219946622258839,51.1266881761006 -0.22000194793958,51.1266620463966 -0.22003179335739,51.1266274376294 -0.220034795442315,51.1265861276839 -0.220025662549305,51.1265662092136 -0.219985382750133,51.1265350283864 -0.219962093201934,51.126509410371 -0.219946038667604,51.1264794967954 -0.219944111129686,51.1264560925888 -0.219953778371173,51.1264283683791 -0.219974750540772,51.1264008171979 -0.220258614602184,51.126228924649 -0.220424108002851,51.1261630262629 -0.220660996444048,51.1260974049347 -0.220697749191109,51.1260700938073 -0.220731813357373,51.12603914541 -0.220775300328952,51.1257628090781 -0.220901266591865,51.1256829123225 -0.221031009039365,51.1255814058253 -0.221058645405691,51.1255674419082 -0.221116554156979,51.1255476443551 -0.221172634875506,51.125538608874 -0.221228267043974,51.1255412530744 -0.221337359881216,51.1255662877756 -0.221364445645624,51.1255666998681 -0.221420629793191,51.1255549679152 -0.22146180701759,51.1255259261351 -0.22147760940214,51.1254857092853 -0.22158031788311,51.1253056633216 -0.221692756334557,51.1249826355917 -0.221689966092465,51.1249448329192 -0.221663800634109,51.1248437409551 -0.221663353982907,51.1248185606743 -0.221685154216869,51.1247325837096 -0.221770015004775,51.1245692576415 -0.22185971191812,51.1244303700765 -0.221957627360085,51.1243382672448 -0.221998720606512,51.1242714637669 -0.222019602396337,51.1242124439771 -0.222024049813551,51.124170255734 -0.222019728266165,51.1241324297764 -0.221995471392509,51.1240583390112 -0.221906324086132,51.1239220353552 -0.221737263422321,51.1231541895419 -0.221707645092822,51.1229558574693 -0.221672037427786,51.122842934402 -0.221645117698223,51.1227615204207 -0.221539623311185,51.122532454808 -0.221501973282353,51.1223960349011 -0.2214801556547,51.12221859009 -0.221465874264706,51.122182410293 -0.221442931215519,51.122147807406 -0.22141393898226,51.1221203950965 -0.221316484604216,51.1220532815873 -0.221297226507989,51.1220332091386 -0.221204567520946,51.1218780612496 -0.221151598638925,51.1218061395858 -0.221124931332271,51.1217580847319 -0.221094185059927,51.121665913277 -0.221075030362462,51.121382329982 -0.221205682540418,51.1211064203089 -0.221170451801041,51.1208702423649 -0.221164105542964,51.1206642630137 -0.221144262283226,51.1206226044672 -0.221137222458832,51.1205819501239 -0.221138809515939,51.1205406176736 -0.2211500252591,51.1205093214594 -0.221337368740292,51.120245063287 -0.221313690334396,51.1200792775075 -0.221265310922835,51.1199247133883 -0.221279113128885,51.1198628889421 -0.221309070316458,51.1198282815282 -0.221369142888921,51.1197887382459 -0.221487220390484,51.1196898406916 -0.221588538528165,51.1195825061307 -0.221802617751929,51.119514737857 -0.221877121970072,51.1195104770643 -0.221923118068019,51.1195030846826 -0.221966425884226,51.1194920559504 -0.222012904666731,51.1194720850213 -0.222052338137497,51.1194484096786 -0.222083501336987,51.1194192153756 -0.222107758584062,51.1193827224483 -0.222122178756125,51.1193415860537 -0.22211890902525,51.1192794110399 -0.222177176850083,51.1190627269372 -0.222201266954143,51.1188831924685 -0.222290727870391,51.1183755088363 -0.222341301455654,51.1178772134155 -0.222382138581948,51.1175927438448 -0.222413305379127,51.1174528758024 -0.222405675994906,51.1173538643572 -0.222374964362625,51.1172607943902 -0.222358534895285,51.1171670431934 -0.22233854535842,51.1169787472616 -0.222335231782522,51.1167673291214 -0.222339714080117,51.1166505201311 -0.222411345173568,51.1164968820406 -0.222454306512614,51.1164579773225 -0.222463660030052,51.1164383401049 -0.222463797752821,51.1163978848949 -0.222453102192657,51.116378842124 -0.222428489354121,51.1163479002785 -0.222427214994888,51.1163442845556 -0.222362346573487,51.1162111371866 -0.222385710129513,51.1160873335844 -0.222325909307297,51.1159326860777 -0.222342850039343,51.115752143495 -0.222435479896068,51.1155700557369 -0.222496513651818,51.1154316301553 -0.222587499166704,51.1152954585799 -0.222662779197675,51.1151571595903 -0.222786774903339,51.1148667623612 -0.222882182365137,51.1149131657926 -0.223086583423464,51.1151707951433 -0.22353879181012,51.1151533939178 -0.224254816234466,51.1151867485601 -0.225513025921052,51.1153848563278 -0.226335082008758,51.115445881414 -0.226448109451135,51.1150690044248 -0.226550431395422,51.1148609876845 -0.226589643923241,51.1147321186749 -0.226743117676141,51.1141570748709 -0.226802242744655,51.1137325400931 -0.226921355915653,51.113307206485 -0.226934360225613,51.1133029080773 -0.227083676751026,51.1132826963145 -0.227184664050931,51.1132941176281 -0.227291451554636,51.1132678665411 -0.227429989081294,51.1133077276271 -0.22757599535975,51.1132631908374 -0.228018064555066,51.1133193405387 -0.228288324597421,51.1132784840305 -0.229651778796637,51.1129655020329 -0.230096871237924,51.1128715479112 -0.230422828824365,51.1127909834467 -0.230740612128695,51.1127733171607 -0.231019513692724,51.1127280903915 -0.23126748359392,51.112709366171 -0.231798249250644,51.1127254869916 -0.231958351613583,51.1127620725525 -0.232044340594591,51.1127930422573 -0.23218166586398,51.1128616492155 -0.232232530970239,51.1128777022226 -0.232289253253443,51.1128884497146 -0.232346179775767,51.1128938053025 -0.232404725471659,51.1128937921801 -0.232490843438132,51.1128843053151 -0.232795403128046,51.1129168704336 -0.232973170207676,51.1129752988058 -0.233147237171307,51.1129824255625 -0.233329174428959,51.1130427150417 -0.23336906523679,51.1130469133546 -0.233412055748484,51.1130439676106 -0.233446693030985,51.1130346013411 -0.233517924776539,51.1130015138747 -0.233568252949518,51.1129914853713 -0.233618391407139,51.112989545976 -0.233665174689434,51.1129983439913 -0.233706170867576,51.1130106517874 -0.233746789025719,51.1130328426762 -0.234003400917657,51.1131212306011 -0.234212806859134,51.1129490787982 -0.234506868757525,51.1129201649828 -0.234647377461529,51.1127568615427 -0.234824014991314,51.1126191870682 -0.234983586586665,51.1125182051818 -0.234983362563203,51.1124498739827 -0.234960632770978,51.1122579424346 -0.235154671479418,51.1120406050714 -0.235213634579546,51.1119182360845 -0.235669964479803,51.1119772717579 -0.235823105512825,51.1118564134458 -0.235872399247252,51.1118023158972 -0.235791410409139,51.111788506419 -0.235837460325597,51.1114420767893 -0.235985428560734,51.1111196622288 -0.236076127934531,51.1108008786417 -0.236111632158827,51.1106943372732 -0.23610354068683,51.1106438681234 -0.236110801713974,51.1105675588088 -0.236148968690298,51.1105025041521 -0.236315234475603,51.1103368004522 -0.236417016518092,51.1102529264318 -0.236452440539482,51.1101113214239 -0.236570289269247,51.1100169007263 -0.236393576587852,51.1098937611851 -0.236161767063003,51.1097544150794 -0.236412815643556,51.109651216979 -0.236806857794086,51.1095078302871 -0.236892213653541,51.109440790403 -0.23660339803204,51.1091837087659 -0.235998673208655,51.1087069826466 -0.235432379523084,51.1086103249284 -0.234415023986521,51.1083916844987 -0.233534713363299,51.1082120612998 -0.232493211799714,51.1080281075763 -0.231703579244657,51.107867823548 -0.231370956689647,51.1080129327634 -0.231001721060535,51.1081791537334 -0.230681651664541,51.1083316431293 -0.230193277550102,51.1085886598367 -0.229950101250247,51.1087477048255 -0.228937853035935,51.1092531038476 -0.228195643080696,51.109648318016 -0.227841710873352,51.1098264500989 -0.226549961607005,51.1105056038685 -0.225690299063225,51.1109431647406 -0.225286076700883,51.1111635902075 -0.224468963231672,51.1115721189423 -0.223465888985504,51.1120990980244 -0.22267785154166,51.1124918739823 -0.22193732339295,51.1128771844805 -0.221276169349271,51.1132412225282 -0.221273274567391,51.1132429771033 -0.220146309435642,51.1138283693493 -0.219643983044583,51.1140743428352 -0.218986623731342,51.1143754919786 -0.218886527466724,51.1144144242185 -0.218089451223174,51.1147062478205 -0.217491820047583,51.1149031148573 -0.217222075103624,51.1149700282737 -0.216598435124965,51.115138533266 -0.21606928823535,51.1152636121533 -0.215510743169687,51.1153719677763 -0.215509330970209,51.1153719462285 -0.215442292873497,51.1153691256033 -0.215156495489468,51.1154061198064 -0.214857795715396,51.1154447158417 -0.214217863173622,51.1155159501412 -0.21382790669274,51.1155504520085 -0.21342404851757,51.1155757498175 -0.213060380250894,51.1155944676623 -0.212449777995656,51.1156076125468 -0.211544606024747,51.1155919759124 -0.211250996633146,51.115574898895 -0.211110086641276,51.1155601569818 -0.209642446411636,51.115382164032 -0.208300731963751,51.1152014981643 -0.208430976923919,51.1158968323873 -0.208563195484959,51.1166173691379 -0.208598982702226,51.1170199673573 -0.208598571659372,51.1172529026859 -0.208556932196348,51.1174797249005 -0.208493002918431,51.1176919110185 -0.208416829117607,51.117888625681 -0.208333095835502,51.1180950242506 -0.208195309146476,51.1183312528613 -0.208024999738597,51.1185615870024 -0.207898534918348,51.1186909113554 -0.207673386434586,51.1188952309268 -0.20745851656594,51.1190591612863 -0.207324423725342,51.1191632835769 -0.207101812784648,51.1193019210688 -0.206832586245438,51.1194669044254 -0.206626389662382,51.1195527486586 -0.20647098497568,51.1196168951511 -0.206209426297093,51.1197298499193 -0.203377186752406,51.1206170653073 -0.201799498699283,51.1211000592548 -0.200103521863732,51.1216099888698 -0.198986736597637,51.121961500168 -0.199516265833832,51.1224174693655 -0.200205207651771,51.1230009487847 -0.200717946471185,51.1234135911545 -0.201648381368119,51.124071804092 -0.202429778872909,51.1245577104284 -0.204377032403205,51.1257136052862 -0.205415136782483,51.1264363794745 -0.205681585740629,51.1266392497959 -0.206164660245843,51.1270081716801 -0.206379197013831,51.1271885759083 -0.206514863754513,51.1273031292973 -0.2067662762087,51.1275263543389 -0.207027267403043,51.1277974656422 -0.207048487628054,51.1278181307551 -0.207069267914542,51.1278394914804 -0.207188641421124,51.1279676750853 -0.207421877299922,51.1282462171729 -0.207632372094927,51.1284944855905 -0.20785196565997,51.1288383684321 -0.208130316395142,51.1292078589014 -0.208278286766215,51.1293709753002 -0.208442960796663,51.1295324444792 -0.2088176066077,51.1298689226371 -0.209031320944125,51.1299798823106 -0.209265285991361,51.1300152165974 -0.209458189632071,51.1302192133262 -0.209527802742232,51.1303254203748 -0.209631638766341,51.1304377028132 -0.209887158088771,51.1305693879406 -0.210248976637629,51.1307474348237 -0.210694293516484,51.1309418342999 -0.211245808086302,51.1311700222288 -0.211702039115269,51.1313446164477</coordinates></LinearRing></outerBoundaryIs></Polygon>
  </Placemark>
