  <Placemark>
	<Style><LineStyle><color>ff0000ff</color></LineStyle><PolyStyle><fill>0</fill></PolyStyle></Style>
	<ExtendedData><SchemaData schemaUrl="#Wards__December_2019__Boundaries_EW_BFE">
		<SimpleData name="objectid">2731</SimpleData>
		<SimpleData name="wd19cd">E05007320</SimpleData>
		<SimpleData name="wd19nm">Fetcham East</SimpleData>
		<SimpleData name="wd19nmw"></SimpleData>
		<SimpleData name="bng_e">515383</SimpleData>
		<SimpleData name="bng_n">155321</SimpleData>
		<SimpleData name="long">-0.34684</SimpleData>
		<SimpleData name="lat">51.285339</SimpleData>
		<SimpleData name="st_areashape">4282160.46356034</SimpleData>
		<SimpleData name="st_lengthshape">11905.9907181165</SimpleData>
	</SchemaData></ExtendedData>
      <Polygon><outerBoundaryIs><LinearRing><coordinates>-0.349068303382128,51.2634195219291 -0.349042047977885,51.2634299402673 -0.348730850890656,51.2635559982042 -0.348746522130211,51.2637980541362 -0.348778501281659,51.264066501679 -0.348787317602408,51.2642986615471 -0.34890120220154,51.264603325896 -0.34903943198722,51.2648651800935 -0.349184159640436,51.2651073480773 -0.349282168659168,51.2653703425879 -0.349283456819144,51.2653739569388 -0.349287218265397,51.265588964721 -0.349213734301577,51.2656805266088 -0.34911089105506,51.2659120111943 -0.349007251642286,51.2661623637473 -0.348949574125193,51.2662910085913 -0.348952042503915,51.2663837313288 -0.348960442429875,51.2664692563147 -0.349003443517487,51.2665885324244 -0.349139844430611,51.2669016048195 -0.349164355046673,51.2672202918996 -0.349167782569564,51.2677644290546 -0.349175266562828,51.2682349030784 -0.349252152176188,51.2685696147727 -0.349270789388087,51.2688476750744 -0.349272970587786,51.2691067146656 -0.349281938759058,51.2693775369889 -0.349251118029327,51.2699175948153 -0.349257733621334,51.270214454955 -0.349192102589571,51.2702054386677 -0.34915634940006,51.2702004389947 -0.349045202402686,51.270181790666 -0.348978217389315,51.2701709566045 -0.348847136099026,51.2701511276698 -0.348678670622327,51.2701289727039 -0.348627356130846,51.2701228549845 -0.348574504246816,51.270116714656 -0.348523070857806,51.2701105952136 -0.348470405582079,51.2701025698822 -0.34840635308125,51.2700890799237 -0.34834236505381,51.2700737931794 -0.348245771961382,51.2700481569859 -0.348108194653974,51.2700084568081 -0.347616011369323,51.2698603643109 -0.347467104353565,51.2698169072428 -0.347318115606488,51.2697724596238 -0.347234550303043,51.2697461072333 -0.347106640546509,51.2697137348056 -0.346961666046753,51.2696793227193 -0.346854999619443,51.2696544424189 -0.346705642413076,51.2696235643462 -0.346556103381988,51.2695944820746 -0.346537652282273,51.2695915236333 -0.346532572460588,51.2696112306467 -0.346522710891405,51.2696488503231 -0.346506652838399,51.2696944741978 -0.346460086448285,51.2698359512455 -0.346497715995542,51.269903909845 -0.346508432399376,51.2699247383472 -0.346532337240035,51.2699799167627 -0.346554964216913,51.2700278846849 -0.346621488216152,51.2701700606277 -0.346620972101195,51.2701844373183 -0.346616975204233,51.2702167459476 -0.346610251050248,51.2702427219995 -0.346603644349405,51.2702687006089 -0.346601904685357,51.2702776661386 -0.346572517859883,51.2703356880875 -0.346546342179601,51.270386562044 -0.34648227077401,51.270495427665 -0.346442679495444,51.2705578000456 -0.346426224774058,51.2705782456617 -0.346381318436409,51.2706306535664 -0.346341074006467,51.2706750364868 -0.34629790399179,51.2707185687141 -0.346265167237286,51.2707513697234 -0.346250324517576,51.2707664433068 -0.346233976572319,51.2707805972442 -0.346181274241009,51.2708131161814 -0.346146056622926,51.27083599363 -0.346131159464686,51.2708492678697 -0.346119215395487,51.2708625847268 -0.346113285966721,51.2708696933966 -0.346105499256109,51.2708857659256 -0.346102340935196,51.2708947114043 -0.346097604184049,51.2709081291829 -0.346095842270468,51.2709143974499 -0.346090234224238,51.270952077174 -0.346085688305817,51.2709996612814 -0.346084585161767,51.2710698596511 -0.34608629007823,51.2711409061446 -0.346090847147767,51.2712542473828 -0.34610488477516,51.271261638142 -0.346118846297886,51.2712744217033 -0.345919292523062,51.2714398089585 -0.345793614602319,51.2715459161153 -0.345739008370617,51.2715918935404 -0.345684087647044,51.2716433503019 -0.345594819809726,51.2717328908434 -0.34555016964844,51.2717781095988 -0.345480084120735,51.271853536268 -0.345453102573961,51.2718873176601 -0.345432049225739,51.271913990395 -0.345395794081566,51.2719657117256 -0.345377888993405,51.271987035069 -0.345358447822615,51.2720083366983 -0.345278449018482,51.272080026908 -0.345224915272061,51.2721323124043 -0.345201058263446,51.2721580461861 -0.345171143725278,51.2721944838899 -0.345154505789741,51.2722167243897 -0.345145267671027,51.2722336747136 -0.34513296777017,51.2722568758118 -0.345123587011959,51.2722811064823 -0.34511866629942,51.2722963201758 -0.34511934076583,51.2723170077412 -0.345192857415413,51.2723468149137 -0.345236536361912,51.2723681103639 -0.345248865033702,51.2723835678853 -0.345268207536495,51.2724045184236 -0.345304131606973,51.272440987487 -0.345360997553808,51.2724966311094 -0.345400916370933,51.2725403490417 -0.34543554102753,51.2725767987994 -0.345450573191833,51.2725959806553 -0.345470751926312,51.272633125511 -0.34549247838447,51.2726666969182 -0.345503196376742,51.2726875255262 -0.345515008684234,51.2727173605942 -0.345533510664018,51.2727616741776 -0.345539975784908,51.2727824426774 -0.345543550776064,51.2728013726724 -0.345543353830751,51.2728463212671 -0.345570120553341,51.2729402875496 -0.345587973493151,51.2730816862407 -0.345587586102782,51.27309246942 -0.345574637349487,51.2731731981817 -0.345564357886153,51.2732981066879 -0.345546024333052,51.2734497826217 -0.345504954570339,51.2736749464641 -0.345501668225271,51.2736874863305 -0.34549078528711,51.2737107074866 -0.345484695419952,51.2737223084507 -0.345464930712174,51.2737525956126 -0.345448442136827,51.2737739389797 -0.345430449683138,51.2737943627092 -0.345411040055089,51.2738147655066 -0.345387308149845,51.2738369956961 -0.345362194555178,51.2738582171444 -0.345332827926698,51.2738793784731 -0.34531216244626,51.2738952689055 -0.345276942033211,51.2739181460371 -0.345252022100074,51.273933975423 -0.345234255521519,51.2739481091586 -0.345217992796179,51.2739631625289 -0.345182330451655,51.2739950234788 -0.345139310667674,51.2740375681653 -0.345088707160448,51.2740871980629 -0.345041024578346,51.2741377685102 -0.345024597043827,51.2741574040483 -0.344985442456593,51.274210791971 -0.344907978198173,51.2743697226223 -0.344897063956342,51.2743938416572 -0.344881410753019,51.2744313792796 -0.344857931798374,51.2745255345796 -0.344847853347516,51.2745658479533 -0.344833068168723,51.274618681988 -0.344812065056756,51.2746867104542 -0.344795066834144,51.2747583917583 -0.344742476964832,51.274866519393 -0.344733044323741,51.2748888617006 -0.344720906431624,51.2749075695391 -0.344705640491974,51.274934324859 -0.344664625690925,51.2749966764554 -0.344634515083462,51.2750385042057 -0.344619454595674,51.2750562714272 -0.344582004909588,51.2751016824283 -0.344541721085703,51.2751469625115 -0.344509109097998,51.275176169446 -0.344484123593007,51.2751937962942 -0.344473887340957,51.2751990454107 -0.34445637849014,51.2752059902355 -0.34443895628981,51.2752138346628 -0.34439952391366,51.2752321564613 -0.344379298078283,51.2752390628496 -0.344357600698385,51.2752441498647 -0.34433593559882,51.2752483389525 -0.344305645320447,51.2752524051492 -0.344272519103909,51.275256432127 -0.344255268688293,51.2752561881436 -0.344236784583974,51.2752541290498 -0.344215377994242,51.2752511284391 -0.344188245244158,51.2752462500729 -0.344161297512978,51.2752395757595 -0.344134316035467,51.2752338002415 -0.344118581227647,51.2752308807381 -0.344091599793026,51.2752251043116 -0.344033051801231,51.2752161853169 -0.344008777021667,51.2752140433751 -0.343974459781529,51.2752117602664 -0.343938659262232,51.2752112538232 -0.34390424508354,51.2752116662601 -0.343865394215837,51.2752138135797 -0.343793568382345,51.2752190905895 -0.343731667459978,51.2752245079749 -0.343692967843203,51.2752257580982 -0.343628295632808,51.2752293385607 -0.343579455180928,51.2752331421002 -0.343530400217205,51.275239640421 -0.343504481916921,51.2752437691723 -0.343263769857242,51.2752808186824 -0.343178689389859,51.2752930992652 -0.343096140512921,51.2753171035455 -0.343046697386219,51.2753343848184 -0.342997307106985,51.2753534635775 -0.342981335589745,51.2753604299411 -0.342950621514922,51.2753762676438 -0.342919878308822,51.275392914277 -0.342880433379586,51.2754148307011 -0.342836423679825,51.2754420781671 -0.342793800318011,51.2754702427219 -0.342751143090856,51.2754993069598 -0.342646826913108,51.2755697519892 -0.342613150529187,51.2755890540579 -0.342589776807721,51.2756013095111 -0.342548978972788,51.2756214091211 -0.342511061218948,51.2756370548751 -0.342473325654252,51.2756509046293 -0.342465923533812,51.2756561946264 -0.342457223138823,51.2756614653413 -0.342453651904297,51.2756785866007 -0.342449677972964,51.2757495530723 -0.34244922064379,51.2758016897707 -0.342447446158484,51.2758115540697 -0.342449042527584,51.2758493358017 -0.342449133628183,51.2758861969363 -0.342455772179957,51.2760203363756 -0.342475097112672,51.2761599585108 -0.342474338237133,51.2762992971785 -0.342461832652947,51.2763675358236 -0.342453736201142,51.2764348485826 -0.342448344907854,51.276505794979 -0.342439778203483,51.2765434328093 -0.342428765079308,51.2765702481929 -0.342421105487982,51.276582726116 -0.342407579860762,51.2766005148847 -0.342379171313168,51.2766343654597 -0.342332546029403,51.2766948385764 -0.342310102273763,51.2767205928117 -0.342278809436802,51.2767525149269 -0.342249148423527,51.2767817622905 -0.342151497249007,51.2768639894836 -0.342147145486961,51.2768666248096 -0.342120623383264,51.2768842295017 -0.34210803576921,51.276875960386 -0.342000137390882,51.2768061065404 -0.341744746362249,51.2766136936097 -0.341620507671977,51.2765183443421 -0.34149354919218,51.276423047227 -0.341353789294539,51.2763221746826 -0.34132456618294,51.2762965878756 -0.34127336235393,51.2762445276423 -0.341246484764088,51.2761964982361 -0.34122630240298,51.2761989092196 -0.341132744234408,51.2762101699032 -0.341072129481867,51.276219200395 -0.341012986175676,51.2762300493774 -0.340981049641219,51.2762403855084 -0.340975314428027,51.2762421019013 -0.340930337391987,51.276256748737 -0.340895436821768,51.2762706381782 -0.34085461405659,51.2762881298439 -0.340829723703968,51.2763030604204 -0.340806251999733,51.2763180119976 -0.340703510238917,51.2763839823497 -0.340574363225015,51.2764675595226 -0.34044368096884,51.276551114798 -0.340323543892282,51.2766241206463 -0.340229697370625,51.2766794288961 -0.340134583260173,51.2767338198176 -0.340038082587476,51.2767872926201 -0.339947415662894,51.2768363525461 -0.339894777457129,51.2768634758543 -0.33981150961488,51.2769073357221 -0.339774812777715,51.2769283927501 -0.33972789908901,51.2769573948392 -0.339700173453629,51.2769722849791 -0.339626929496326,51.2770135008975 -0.339591768752503,51.2770345787578 -0.339518481547561,51.277080288624 -0.339477239527565,51.2771093719622 -0.339434276456858,51.2771501170813 -0.339380762615661,51.2772015021462 -0.339280873405169,51.2773062601716 -0.339264542738416,51.2773231104276 -0.339210510003993,51.277388871223 -0.339170058334133,51.2774386429309 -0.339093512761161,51.2775320448652 -0.339068232217683,51.2775577582752 -0.339008593101116,51.2776216417767 -0.33898163583607,51.2776545238618 -0.338935198176609,51.2777096044785 -0.338884357117392,51.2777655218851 -0.338830766404686,51.2778222995414 -0.33873998658179,51.2779137007239 -0.338673105748887,51.2779783805955 -0.338656807053593,51.277994331943 -0.338602295567453,51.2780340145182 -0.338553930252732,51.2780638957541 -0.33852608320433,51.2780787839117 -0.338469092116664,51.278108541801 -0.338407714620326,51.2781419235789 -0.338342607018666,51.2781967390039 -0.338253960913704,51.2782683022162 -0.338200855307378,51.2783116008127 -0.338070984928626,51.2784149440123 -0.338039650965346,51.2784478527998 -0.337738308926896,51.278811367072 -0.337591758262875,51.278937847178 -0.337483864655952,51.2790676629407 -0.337191583332612,51.2793404129276 -0.337066630460801,51.2794645921414 -0.336857356905598,51.2795829880114 -0.336741345597599,51.2796559600038 -0.336589472501625,51.2797725638224 -0.336011521496662,51.2800134722426 -0.335916622988175,51.2800615698123 -0.335865992359966,51.2800329804165 -0.335849151515101,51.2800246492735 -0.335766173428613,51.2799784290867 -0.335295206423521,51.2797191061707 -0.334850320408247,51.2794906296177 -0.33479671343631,51.2794691885574 -0.334657322760756,51.2794366380597 -0.334558323462615,51.2794379259976 -0.333916327776861,51.2795861167745 -0.333832341871389,51.2795678398639 -0.333117170189854,51.2793239063403 -0.333469172423192,51.2804134185941 -0.333845629257897,51.2813405531579 -0.334126166819745,51.2822690188025 -0.334145451111446,51.2823699845886 -0.334165676935629,51.2824448916834 -0.334306614939278,51.2830656094432 -0.334566465411877,51.2842069389462 -0.334767009105019,51.2850857162423 -0.334936350649663,51.2857976392538 -0.335290205969655,51.2872730299322 -0.335379305322077,51.2876636652243 -0.335555411600611,51.288506129003 -0.335687650758711,51.2890511105872 -0.335807733501433,51.2895007128345 -0.335843811846506,51.2896900212575 -0.335935197082391,51.2902596845087 -0.336001257688022,51.2906140301039 -0.336043310352034,51.2909554490576 -0.336036503602521,51.2912647069758 -0.336041596499891,51.2915588515063 -0.336033624696888,51.291700874585 -0.335985018024023,51.2921327054467 -0.335944380806758,51.2924226028859 -0.335892656568448,51.2927051511553 -0.335841257543244,51.2928969025169 -0.335700646248893,51.2933319210847 -0.33558551703713,51.2937816856323 -0.335550183936577,51.2938855606201 -0.335441134722883,51.2940853927857 -0.335385026947698,51.2942078520423 -0.335162419367277,51.2947712536088 -0.336231176918433,51.2951236639163 -0.336938684108145,51.2953117178348 -0.337242578808028,51.2954338947181 -0.337823355291912,51.2957550876536 -0.337920150381036,51.2958157966695 -0.338015492534656,51.2958773842674 -0.338456721388187,51.296211878014 -0.338717644122847,51.2963747957013 -0.338851642416261,51.2964369307996 -0.33912856114216,51.2965532352864 -0.339425738895833,51.2966653316803 -0.339716157514631,51.2967648341816 -0.339855245628885,51.2968072614367 -0.34014651204755,51.2968833117111 -0.340266088719335,51.2969092794273 -0.340498551097228,51.2969467356984 -0.340741547031507,51.2969708550913 -0.34087317390364,51.2969808112062 -0.34159672030264,51.2969613888317 -0.341953289805125,51.2969385667959 -0.34273941735679,51.297017118437 -0.343121675912009,51.2970756580312 -0.343436038034177,51.2971115698612 -0.343805866147015,51.2971968117768 -0.344004156137025,51.2972670422177 -0.344891526305738,51.2975988257581 -0.345193059502152,51.2977515144824 -0.345388768844508,51.2978936276924 -0.345491410694255,51.2979894738618 -0.345591263896686,51.2980871699344 -0.345750735445269,51.2982800143183 -0.346041012651415,51.298703237301 -0.346121864581876,51.2989282353814 -0.3461665397781,51.2991627010603 -0.346143588496711,51.2993998082133 -0.34604200093483,51.2996331091238 -0.345754161609646,51.300020208719 -0.345724873682793,51.3001933064886 -0.345752798525187,51.3003771914413 -0.345852566346734,51.3005530997998 -0.345910185334385,51.3006249356331 -0.346110503942484,51.3008399331661 -0.346166768956233,51.3008704845824 -0.346224650499683,51.300895575893 -0.346292153241894,51.3008965287768 -0.34652220394286,51.3008799972119 -0.346680676988068,51.3009002139516 -0.346917761267027,51.3010105430865 -0.347074717484174,51.3010729922559 -0.347172470520738,51.3011076357235 -0.347402508767122,51.3011738115306 -0.347656607673598,51.301208951338 -0.347936933103972,51.3012317842173 -0.349277266730028,51.3012182236813 -0.349636024869139,51.3012142880943 -0.349930719750132,51.3011564061163 -0.350048635788522,51.3011104195573 -0.350247282172841,51.3010098289392 -0.350476656277621,51.3008934000123 -0.350511508292358,51.3008813044402 -0.350547865116971,51.3008701284232 -0.350585490112764,51.3008598704266 -0.350623050672307,51.3008514091668 -0.350662051597296,51.3008456651068 -0.350700933508338,51.3008399193583 -0.350741321674528,51.3008350931802 -0.350777269461754,51.3008320030336 -0.350780139121549,51.3008311450532 -0.350303432366564,51.3005258685294 -0.350305269052143,51.3004746499801 -0.350591940946098,51.3002808122081 -0.350937874008481,51.3000735139592 -0.351015078268121,51.3000413364355 -0.351061332314803,51.3000311997606 -0.351120213957681,51.3000284323187 -0.351126754977447,51.2998459333762 -0.351046261111095,51.2998115361473 -0.350930988332484,51.2997442852133 -0.350852814644294,51.2996847488389 -0.35082920640229,51.2996636494889 -0.350812785829729,51.2996400434156 -0.350805175569059,51.299614763714 -0.350803154755941,51.2995886634216 -0.350807301532434,51.299555458435 -0.35081697332477,51.2995232296056 -0.350937493228938,51.2994044581142 -0.351028774018746,51.2992995680537 -0.351177068293652,51.2990822946721 -0.351471587371336,51.2986691147703 -0.351685440744749,51.2984275907345 -0.351862200303299,51.2982178185879 -0.351881046266313,51.2981704364292 -0.351951638503331,51.2981642371255 -0.352027688019785,51.2981212549807 -0.352018445320963,51.2980590028997 -0.351998023823333,51.2979885917906 -0.352623530281658,51.2979461451288 -0.353418709368626,51.2978916961615 -0.354080677530882,51.2978316841489 -0.354718289518025,51.2977714162673 -0.355539386985997,51.297673264982 -0.356735271673368,51.2975254361971 -0.357007521537771,51.2974923943608 -0.356909318707681,51.2972716565532 -0.356876488626864,51.2971874977304 -0.3568387619729,51.2970781866983 -0.35682832375252,51.2970492724345 -0.356813477938692,51.2970211938236 -0.356800106240068,51.2969949353398 -0.356620655065742,51.2967576835384 -0.356584767924504,51.2967194212734 -0.356464557538731,51.2965917830469 -0.35638355419744,51.2965286135672 -0.355965351959629,51.2962709298096 -0.355760602384977,51.2961394964619 -0.355686330312265,51.2960899074119 -0.355603355631496,51.296045590015 -0.355505639006188,51.296010054781 -0.355474462785661,51.2959988293992 -0.355370655894129,51.2959748964537 -0.354968429238107,51.2958693679327 -0.354300707182407,51.295690973909 -0.353898085390963,51.2955602626463 -0.353793225703778,51.2955228288298 -0.353680528534019,51.295466404448 -0.353587971319772,51.2954057684272 -0.353476789152702,51.2953070217692 -0.353317396337843,51.2951510489643 -0.353039061203394,51.2948323890305 -0.352913992373297,51.2946822920725 -0.352790581650399,51.2945222399033 -0.352681913094023,51.2943930512745 -0.352536927303211,51.2942344921713 -0.352365515363697,51.2940576718592 -0.352039989820093,51.2936933043997 -0.35195866286637,51.2936031578402 -0.351918538437588,51.2935612382447 -0.3518783161014,51.2935220141911 -0.351857479967156,51.2935028415976 -0.351835193866805,51.2934845478771 -0.351815614650283,51.2934698875506 -0.351783345133398,51.2934496556957 -0.351748272296759,51.2934284842099 -0.351745499646137,51.2934266475406 -0.351728532153011,51.2934183179929 -0.351628344425581,51.2933727662751 -0.35160712221507,51.2933643759389 -0.35159024158918,51.2933569459716 -0.351547732768927,51.2933419638278 -0.351517946300222,51.2933316552611 -0.35148525843248,51.2933231044073 -0.351456879991797,51.2933164118536 -0.351426932616227,51.2933105955891 -0.351412663615002,51.2933094963776 -0.351392666013032,51.2933065179788 -0.351368381444825,51.2933043776152 -0.35132538972424,51.293302873212 -0.351321102722407,51.2933037121478 -0.351426447082885,51.2932449603556 -0.351850999600625,51.2930036143807 -0.351916854347289,51.2929676813306 -0.352068958273492,51.2928844141191 -0.352376054973064,51.2927196283744 -0.352791442753572,51.2924962200747 -0.353025568633819,51.2923645691864 -0.353154630377424,51.2922872697612 -0.353258711298346,51.2922240038651 -0.353472062575407,51.2920713820621 -0.353488351597844,51.2920590247324 -0.353759471213861,51.29185507158 -0.354128696719616,51.2915563914023 -0.354445939633601,51.2912694762042 -0.354468414531694,51.2912428207948 -0.354469896500497,51.2912410439572 -0.354490924724027,51.2912151775708 -0.354478427493539,51.2912042142794 -0.354431124480751,51.2911612954118 -0.3542948888342,51.291042508652 -0.35421988362017,51.2909740288128 -0.354155929088883,51.2909173003778 -0.354011463442906,51.2907840136886 -0.353978130636103,51.2907538781249 -0.353917320715708,51.2906918898009 -0.353863377317654,51.2906362919846 -0.353836975400636,51.2906107483692 -0.353787150369206,51.2905623099893 -0.353758040281919,51.2905331320831 -0.353690311337198,51.2904629555914 -0.35356181393916,51.2903262965306 -0.353445657898561,51.2902050041001 -0.353416612538812,51.2901740293572 -0.353326919668599,51.2900765727503 -0.353229017190455,51.2899673145373 -0.353154597348083,51.2898825688731 -0.353066291076662,51.2897860317252 -0.352977996300329,51.2896858975559 -0.352853977718427,51.2895465137814 -0.353175193573972,51.2894656231061 -0.353306893639986,51.2894333119496 -0.353397992191178,51.2894121169246 -0.353428419431802,51.2894044538398 -0.353821537539798,51.2893199866937 -0.354029563786887,51.2892761610725 -0.354175499745745,51.2892458475424 -0.354244894741748,51.2892297407814 -0.354305652338754,51.289217108841 -0.354398007010869,51.2892004261817 -0.354732191090667,51.2891601692674 -0.354824257859327,51.2891515730326 -0.354877515975113,51.289146927168 -0.354913455718463,51.2891438357116 -0.354955282844625,51.2891381299925 -0.355033208817083,51.2891248404092 -0.35513580263098,51.2891029061943 -0.355176155843829,51.289095382043 -0.355234172603991,51.2890800142021 -0.355274687787806,51.2890679968015 -0.355390841010791,51.2890272842886 -0.355428702576496,51.2890134310221 -0.355482517197938,51.2889899132591 -0.35551174951508,51.2889759388153 -0.355574566199315,51.2889453549687 -0.355641712263422,51.2889094379974 -0.355672491952557,51.2888918899238 -0.355797039023355,51.2888181204875 -0.355835102322193,51.2887952798432 -0.35587914913317,51.2887671302036 -0.35590265438112,51.2887512776212 -0.355949733654924,51.2887176858239 -0.355968920304052,51.2887035702707 -0.356026458861697,51.2886585281568 -0.35611367996087,51.2885869314507 -0.356152095916241,51.2885542071961 -0.356183228234911,51.2885267736824 -0.356221868737904,51.2884877594109 -0.356245662538282,51.2884638200083 -0.356296433621081,51.2884096018888 -0.356360703862974,51.2883349860047 -0.356508868337473,51.2881626554484 -0.356585118746738,51.2880737327603 -0.356616539188108,51.2880382132734 -0.356687984799629,51.2879645971609 -0.356745970886566,51.2879069737881 -0.356811423377247,51.2878422636045 -0.356863268581057,51.2877943543572 -0.356886965480239,51.2877731095023 -0.356910663758572,51.2877518655612 -0.356963944470955,51.2877067632686 -0.357105487642944,51.2875972696524 -0.357168974898851,51.2875478149339 -0.357235301842691,51.2874983109791 -0.357317632490991,51.2874410287532 -0.357352953438347,51.2874154522315 -0.357369120767958,51.2874030926664 -0.357555473366903,51.2872870353748 -0.357614137606078,51.2872500990814 -0.357660986421102,51.2872228864506 -0.357694632901644,51.2872044787728 -0.35771511089568,51.2871938882276 -0.357871375118906,51.2871124696161 -0.358344380960695,51.2868394146765 -0.358189596289391,51.2866772196359 -0.35818402991846,51.2866708484678 -0.358181417683058,51.2866645187071 -0.358181706137584,51.2866564319487 -0.358186378450448,51.286644809527 -0.358234800003497,51.2865734767695 -0.358403290215993,51.2863546798023 -0.358714474528524,51.2859507055989 -0.359153471257546,51.2853840900021 -0.359194007749324,51.2853315258322 -0.359080607675704,51.28521576132 -0.358840557527289,51.2849911496911 -0.358604344024956,51.2847783673536 -0.358363242702885,51.2845402543917 -0.358085709439189,51.2842827507628 -0.357945625649879,51.2841495301455 -0.357734768530033,51.2839486994268 -0.357501971358225,51.2837232866169 -0.35723009583585,51.2834632535151 -0.357094359447926,51.2833309014069 -0.357052755955891,51.2832907613297 -0.35704715806123,51.2832852889423 -0.356824028221714,51.283070798998 -0.356538953619327,51.2827799216855 -0.356404413777337,51.2826539694531 -0.356197877256501,51.2824549942633 -0.356066120877783,51.2823272821123 -0.355826419878695,51.2820936789371 -0.35526456752,51.2815651667159 -0.355237191054284,51.2815306195867 -0.355167617177346,51.2814693180399 -0.355199521878919,51.2814598767426 -0.355482034950448,51.2813784376966 -0.355810942879477,51.2812823651821 -0.356047189370723,51.2812119613976 -0.35613279338075,51.2811852035036 -0.356176319196264,51.2811714304673 -0.356302364945561,51.2811345413555 -0.356392252635455,51.2811070340453 -0.356479088784906,51.2810821807798 -0.35660103931874,51.2810407392965 -0.356676501030249,51.2810166255607 -0.356717254442756,51.2810010148729 -0.356824884502712,51.2809566752996 -0.357050630481842,51.2808590620582 -0.357098667315782,51.2808381595475 -0.357171611401134,51.280805020108 -0.357225447410226,51.2807806026817 -0.357457395174541,51.2806714785911 -0.357502595432464,51.2806505352392 -0.357588493531242,51.2806121833539 -0.35764251391,51.2805858807451 -0.357881966170888,51.2804651731734 -0.358039582743009,51.2803882691119 -0.358083299490523,51.2803691041995 -0.35818676929902,51.2803220072618 -0.358287245676065,51.2802792738341 -0.358494088110875,51.2801877759925 -0.358527568779891,51.2801738613151 -0.358600318561466,51.2801461121591 -0.35874406935324,51.2800932861406 -0.359376372432557,51.2798530277846 -0.359649626582178,51.2797489727289 -0.35970933536829,51.2797255357331 -0.361015710357604,51.2792365982952 -0.360994812716505,51.2792192249781 -0.360748322142125,51.2790134054873 -0.360620379234102,51.2789046312358 -0.360439227669754,51.2787563638933 -0.360358281715108,51.2786922992421 -0.360277616351026,51.2786237438737 -0.360136710937646,51.2785138882772 -0.359762810190266,51.2782244724724 -0.359719567532579,51.2781906025542 -0.359660906917945,51.2781448305581 -0.359566118127694,51.2780678952095 -0.359502000717736,51.2780193488588 -0.359139132064382,51.2777390746139 -0.359010694764401,51.2776410801543 -0.358889306211065,51.2775476789099 -0.358880904789707,51.2775412680317 -0.358859880628502,51.2775274887382 -0.358810270707982,51.2775528644508 -0.358585503520028,51.2773815080122 -0.358379924933889,51.2772356817054 -0.358314562055187,51.277179026395 -0.358202869733318,51.2770955597429 -0.358088338618822,51.277012143102 -0.357985894824325,51.2769477752629 -0.357770823304444,51.2768295951938 -0.357708913829585,51.2767954627006 -0.357657072108163,51.2767210164508 -0.357633301824909,51.2766649440358 -0.357618486819187,51.2765964100176 -0.357664187144117,51.2765215331842 -0.357763615631746,51.2764284404456 -0.357929940193487,51.2763058091573 -0.358031526089022,51.2762317158252 -0.358162540880569,51.2761345710607 -0.358212587504523,51.2761002107805 -0.358420364106366,51.2759421987632 -0.358504348657144,51.2758776577319 -0.358525011735749,51.2758617648731 -0.358581146018897,51.2758158027633 -0.358759397091159,51.2756834481777 -0.358763778359213,51.2756799133716 -0.358833078783438,51.2756260448751 -0.358838942781151,51.2756207322912 -0.358930454358071,51.2755473063824 -0.358981948966032,51.275512067733 -0.359089523270199,51.2754290674953 -0.359173429489125,51.2753700087951 -0.359186627978366,51.275361203667 -0.359245499338107,51.275317976606 -0.359363087739653,51.2752359248936 -0.359470746172894,51.2751538247827 -0.359533871529181,51.2751106571822 -0.35961491778381,51.27504886119 -0.359641378432029,51.2750294531783 -0.359544817841876,51.2749228258303 -0.359194877615104,51.2745258600526 -0.358939598946611,51.2741661818352 -0.358764956432005,51.2739155149288 -0.358843399560492,51.273886946338 -0.358853945792992,51.2738331528377 -0.358918051909873,51.2737657260557 -0.359108230014427,51.2735372537702 -0.358945840273825,51.2734270954051 -0.358817802771989,51.2733182276312 -0.358727522002782,51.2732378483514 -0.358659299007941,51.2731388996711 -0.358647183655437,51.2730775061795 -0.358640479307498,51.2730666235769 -0.358615220020468,51.2729296189872 -0.358680969019036,51.2726535525664 -0.358686413052829,51.2725007958723 -0.358660590195937,51.2724194324312 -0.358683053037624,51.272392776193 -0.358726561472261,51.2723394447384 -0.358600567389111,51.2722927282338 -0.358288299278115,51.2721660837526 -0.357989546741473,51.2719820004564 -0.35763977012852,51.2717405623694 -0.357248500284654,51.2714562875507 -0.356652690199948,51.2710378829964 -0.35650930168983,51.2709189984279 -0.356434809716249,51.2708369503173 -0.356081092305241,51.2705838547888 -0.35575952308496,51.2703176349728 -0.355668943670486,51.270242642754 -0.355461016303603,51.2700445447995 -0.355147250082792,51.2697586540029 -0.354962118003853,51.2695644715236 -0.35466351531256,51.2692546080337 -0.354412051520574,51.269071179421 -0.354278373787752,51.268958721494 -0.354050792463505,51.2687486565603 -0.353893737942101,51.2686124046087 -0.353683475974938,51.2683577218416 -0.353479837993794,51.2680401102927 -0.353412204489397,51.2679284901482 -0.353253285969898,51.2677221769129 -0.353092184027639,51.2675373192025 -0.352923100936173,51.2673343687534 -0.352427917117545,51.2666295844167 -0.352232598697206,51.2663606365195 -0.351804684834111,51.2660191906242 -0.351592857271566,51.2658121318291 -0.351444771584625,51.2656634175933 -0.35124981581769,51.265424141067 -0.35095306148199,51.265063861354 -0.35090085773486,51.2650001949532 -0.350669150119225,51.2647873708121 -0.350438549306139,51.2645800455936 -0.349736635232413,51.2639271787116 -0.349643744634162,51.2638413620417 -0.349562778500965,51.2637789973546 -0.349280911242926,51.2635646541616 -0.349221336329064,51.2635088848514 -0.349068303382128,51.2634195219291</coordinates></LinearRing></outerBoundaryIs></Polygon>
  </Placemark>
