  <Placemark>
	<Style><LineStyle><color>ff0000ff</color></LineStyle><PolyStyle><fill>0</fill></PolyStyle></Style>
	<ExtendedData><SchemaData schemaUrl="#Wards__December_2019__Boundaries_EW_BFE">
		<SimpleData name="objectid">7891</SimpleData>
		<SimpleData name="wd19cd">W05000841</SimpleData>
		<SimpleData name="wd19nm">Liswerry</SimpleData>
		<SimpleData name="wd19nmw">Liswerry</SimpleData>
		<SimpleData name="bng_e">334076</SimpleData>
		<SimpleData name="bng_n">184916</SimpleData>
		<SimpleData name="long">-2.95235</SimpleData>
		<SimpleData name="lat">51.55925</SimpleData>
		<SimpleData name="st_areashape">18492850.4574038</SimpleData>
		<SimpleData name="st_lengthshape">22431.3143259232</SimpleData>
	</SchemaData></ExtendedData>
      <Polygon><outerBoundaryIs><LinearRing><coordinates>-2.98640077015355,51.547164786514 -2.98641330112648,51.5471449043943 -2.98642446433259,51.5471277304421 -2.98653610920492,51.5469568045174 -2.98663439653077,51.5466960959535 -2.98680911239848,51.5461757624116 -2.98698282821555,51.5456699103384 -2.98699980391009,51.5453883117614 -2.98697049593153,51.5450999097673 -2.98693049243936,51.5448556463754 -2.98685506083529,51.5445676330816 -2.98664533189421,51.544002079532 -2.98654565682861,51.5437969711471 -2.98640588578953,51.5435355677065 -2.98624934452402,51.5432958793237 -2.98607475071928,51.5430239805085 -2.98594223578867,51.5427679988062 -2.98576857657016,51.5425392402787 -2.98544551341217,51.5421364441012 -2.98509810151944,51.5417400540319 -2.98465696877264,51.5412096991723 -2.98399385667697,51.540551667258 -2.98307094699508,51.5397482938508 -2.98198884438689,51.5388437653114 -2.98089635810549,51.5380625585999 -2.97996481870667,51.5372565352895 -2.978322928712,51.5359259671579 -2.97749721012437,51.5351388188597 -2.97654144466757,51.5343393525791 -2.97550776220815,51.5333299953941 -2.97498471131732,51.5328065771257 -2.97496230075834,51.5324308279219 -2.97491905952224,51.5316920830532 -2.97485505299551,51.5305821591767 -2.97513218289319,51.5288434723758 -2.97603863399918,51.5272102106309 -2.97408375520997,51.5272749967839 -2.97130205226967,51.5273654757812 -2.96285907098849,51.5288773962928 -2.9563911464861,51.5296613010048 -2.954956091084,51.5297682740055 -2.95363328718553,51.529866318095 -2.95318512261107,51.5299436712488 -2.95267858510407,51.5300547576687 -2.95214776533377,51.5301814105882 -2.95153626384945,51.5303095245888 -2.95115042767845,51.5304007480548 -2.95100686738918,51.5304306776001 -2.95032878259667,51.530546829886 -2.94995011147569,51.5306397889248 -2.94935784703425,51.5307218898274 -2.94892117683059,51.5307983254172 -2.94876188333214,51.5308319752968 -2.94850658298893,51.5308960653176 -2.94811389747914,51.5310071110146 -2.94809999443778,51.5331131547735 -2.9481535917042,51.5350693406759 -2.94817568634617,51.5358524033417 -2.94814477717888,51.5361727632237 -2.94800108998408,51.5363348333292 -2.94793000639024,51.5364496623056 -2.94784186841272,51.5363729754578 -2.94765312954036,51.5363807922337 -2.94724584599295,51.5364839517001 -2.94687565809833,51.5365759338323 -2.94685417457426,51.5365832988962 -2.94653065883767,51.5367647963418 -2.94624451095052,51.5369424856405 -2.94583931290583,51.5372155218013 -2.94556556357193,51.5374353597356 -2.94543099793642,51.5375506086875 -2.94491551167066,51.5380727254049 -2.94473335849574,51.5382611694975 -2.94456854721121,51.5385178832051 -2.94433539734901,51.5388848162887 -2.94418872348117,51.5391162124431 -2.94416334995403,51.5391424858941 -2.9439770905427,51.5392707340327 -2.94375882227839,51.5393804506997 -2.94374722771047,51.5393832406083 -2.94368591169932,51.5394133988383 -2.94338445347809,51.5394787477697 -2.94262390753922,51.5395873368188 -2.94242082622742,51.5395979578661 -2.942002875636,51.5396067066643 -2.94154434125365,51.5396076895602 -2.94112705816032,51.5396488816356 -2.94073423380169,51.5397634982168 -2.94060578778423,51.5398247563534 -2.94045231021851,51.5399347567835 -2.9403802132381,51.5400073388967 -2.94038620498344,51.5400845996037 -2.94044211476091,51.5401380876837 -2.94059153024196,51.5402519532772 -2.94067417263271,51.5403448695638 -2.94070744980522,51.5404884317917 -2.94068301287255,51.5406352441 -2.94064387467564,51.540766801686 -2.94053344321121,51.5410041960183 -2.9404583975971,51.5411414346207 -2.94040061424749,51.5412048229085 -2.94005848380773,51.5413281109274 -2.9396929170009,51.5414335163789 -2.93946930205325,51.5414982318404 -2.93914975558478,51.5415925704379 -2.93882477141701,51.5416365215324 -2.93866340478169,51.5416468014283 -2.93857084468603,51.5416322599579 -2.93848798038003,51.541597864119 -2.93841328590427,51.5415444354036 -2.93837371203293,51.5415105925258 -2.9383471974855,51.5414874318959 -2.93830271202952,51.541492282604 -2.93818606183,51.5415031035261 -2.93790688676329,51.5415314041603 -2.9377819015672,51.5415531678783 -2.93771864374056,51.5415644608858 -2.93752894895601,51.541665757567 -2.93724313961597,51.5418631085744 -2.93695321511308,51.5420686716403 -2.93668642356674,51.5422776451708 -2.93660028254776,51.5423673271206 -2.93655574506672,51.5424449902688 -2.93654026320042,51.5425306023646 -2.93661367008504,51.5428050891411 -2.93664215208998,51.542929903896 -2.93665014111598,51.5429657968887 -2.93664459302146,51.5429793253964 -2.93661023452417,51.5430605031762 -2.9364994450807,51.5432817154001 -2.93648439486704,51.5433942016724 -2.93649018908589,51.543467958127 -2.93650966777338,51.5435711796943 -2.93650686458392,51.543643116452 -2.93646891858266,51.5437639653227 -2.9364474985686,51.5438441415155 -2.93644438584057,51.5439763092719 -2.93645279590565,51.5441021824862 -2.93653348610526,51.5442390748906 -2.93659485858627,51.544350053028 -2.93659633994012,51.5443527378724 -2.93663683015354,51.5444253182396 -2.9366371623303,51.5444414955826 -2.93664073057853,51.5445457432723 -2.9366181414426,51.5446385138544 -2.93655181941896,51.54470924902 -2.93643504469215,51.5447838935363 -2.9362157381746,51.5449204826651 -2.93608515041324,51.5450231936687 -2.93598649517174,51.5451291549075 -2.93591752988193,51.5452160026539 -2.93586700495551,51.5452802290123 -2.93584248425416,51.5453542271938 -2.93582817700959,51.5454972708149 -2.93585171339503,51.5455896734409 -2.93586759472114,51.5456624502778 -2.93588903988163,51.5457225068926 -2.9359307624027,51.5457913918892 -2.93605523375821,51.5458829895437 -2.93609461591927,51.5459015530043 -2.9364745128812,51.5460055851769 -2.9367703613178,51.5460814311364 -2.93697084592076,51.5461571385042 -2.9371946989436,51.5462416490172 -2.93733127944619,51.5463611052847 -2.93746622587143,51.5465398129512 -2.93746787361376,51.5465505873487 -2.93743611079321,51.5466192494696 -2.93739635284865,51.5466519287879 -2.93732921463654,51.5466830283826 -2.93735836367339,51.5466953806254 -2.93758885441369,51.5467555655958 -2.93749656978665,51.5468938398564 -2.93743424478647,51.5470202770291 -2.937259373079,51.5472132356965 -2.93710645264621,51.547351993826 -2.93685801393702,51.5474717365872 -2.93651080969064,51.5475590967801 -2.93627843914084,51.5476912960223 -2.93566779264377,51.548297729392 -2.93549868375187,51.5484186351704 -2.9352724651845,51.5485670541446 -2.93514083118163,51.5486193414002 -2.93501727928644,51.5487120167718 -2.93484329047175,51.5488096777999 -2.93460164024292,51.5489131815898 -2.93430964571753,51.5490898983014 -2.93402716769703,51.5493133718181 -2.93393241130437,51.5494013215163 -2.93394257205702,51.5494039373618 -2.93407450529557,51.549441632086 -2.93431887425639,51.5495403680815 -2.93483333533744,51.5498033448269 -2.93524513842033,51.5500526639472 -2.93547505626995,51.5501480059787 -2.9358624710095,51.5503327938073 -2.93599743126617,51.5504423761281 -2.93614094472615,51.5506210167813 -2.93626292146495,51.5507990206704 -2.93641913419869,51.5508894654589 -2.93674788015246,51.5510253673468 -2.93669754715041,51.5511048749816 -2.93601023094868,51.551697538495 -2.93598432035474,51.5517040376211 -2.93494606567527,51.5512186203293 -2.93429299755898,51.5509531516618 -2.93378647417257,51.5507297522143 -2.93350495987609,51.5506465021968 -2.93282478274986,51.5505314507218 -2.932798973929,51.550537049961 -2.93271442439435,51.5509207550008 -2.9326011603912,51.5510925403759 -2.9322717406039,51.5514871795549 -2.93216211024277,51.5516273831811 -2.93207481895993,51.5518016593649 -2.93192637309457,51.5521607007943 -2.93173338238931,51.5525281853936 -2.93135252813217,51.5532991611371 -2.93122818126703,51.5536391328535 -2.93112129966556,51.5537047027775 -2.93102740473858,51.5537656755173 -2.93095473840866,51.5538120974317 -2.93084398408083,51.5538219645046 -2.93062311181543,51.5538147258348 -2.9303196013597,51.5537847689078 -2.93015658227556,51.5537860601986 -2.92999520082293,51.5537918333193 -2.92986297920616,51.5538162519235 -2.92979864360579,51.5538455271293 -2.92974579544431,51.5538666204899 -2.92969864733722,51.5538931528298 -2.92961915675244,51.5539549095661 -2.92953845956174,51.5540274624156 -2.92949614909248,51.5540754405996 -2.92930441721903,51.554290093475 -2.92902893684938,51.5545036101704 -2.92892058796019,51.5546375087638 -2.92886242492288,51.5546838146174 -2.92869233308866,51.5546941489208 -2.92754840600123,51.5547598215745 -2.9269762141868,51.5547814184029 -2.92665532653459,51.5548154131863 -2.92615921471338,51.5548940271958 -2.92578482435055,51.5549931647356 -2.92539714797727,51.5551526330643 -2.92502358443699,51.5552985946835 -2.92468137194079,51.5554892557289 -2.9240986434405,51.5558481087615 -2.92350969867807,51.5562528524945 -2.92294202329829,51.5566394486235 -2.9228023101471,51.5567232469636 -2.92265818179398,51.5568709946201 -2.92210478885438,51.5572529792722 -2.92121693214411,51.5578579106437 -2.92095213015978,51.558031772373 -2.92091938805406,51.5580536031703 -2.92071244022948,51.5580182790798 -2.92058666639456,51.5580093775215 -2.92060257400717,51.5580785599945 -2.92058173653882,51.5581892903318 -2.92058313452227,51.5582584966077 -2.92074939436702,51.5584226860618 -2.92197930100588,51.5593922372479 -2.92278868458491,51.5600386806677 -2.92293802856109,51.5601480752804 -2.92360637171202,51.5606652775532 -2.9241645735908,51.5610879663881 -2.92425442899366,51.5611844331467 -2.92422914192441,51.5612160945095 -2.92420049783886,51.5612289048431 -2.92413043965562,51.5612582208883 -2.92369799104314,51.5614180360228 -2.9235518111899,51.5614651201792 -2.92368385678829,51.5617886840294 -2.92353734602088,51.5618195000567 -2.92356048430863,51.5618930304013 -2.92356206920881,51.5619712243192 -2.92363630313977,51.562359065787 -2.92373602712864,51.5623672707325 -2.92371518593977,51.5624070777704 -2.92364589088517,51.5624741432694 -2.92356966965294,51.562557443067 -2.92334201381379,51.5627867510461 -2.92319581521417,51.5629739777936 -2.92294871239654,51.5635235439023 -2.92289535509594,51.5636669825086 -2.92287071966565,51.5637309990916 -2.92287673177767,51.5638163498636 -2.92304066034806,51.5639346188868 -2.92325886846662,51.5640956991403 -2.92334678029248,51.5641606295505 -2.92344926456135,51.5642344353599 -2.92457249183327,51.5650537790052 -2.92491378396336,51.565306477054 -2.92507616550965,51.5654885784786 -2.92517277486087,51.5655598214359 -2.92523524354756,51.5655782068557 -2.92545916647261,51.5656627401472 -2.9256202953272,51.5657127096162 -2.92569352075607,51.5657687648867 -2.92580700141763,51.5658857191688 -2.92608105564111,51.566306143932 -2.92654367263689,51.566990353096 -2.92715866663108,51.5677903014642 -2.92732318910766,51.5680767465758 -2.92764021727058,51.5685498597149 -2.9278679980926,51.5689689334131 -2.92795916496371,51.5690527122285 -2.92810805303517,51.5694938925413 -2.928233161732,51.5697545779086 -2.92833987980678,51.5699650700362 -2.92848912496792,51.5702074972641 -2.92855451357981,51.5702987590438 -2.92864508052163,51.5704229931492 -2.92884529753255,51.5706911747847 -2.92907875768269,51.5709617897619 -2.92929459151383,51.5712837821806 -2.92942743569315,51.5715731704108 -2.92956476598734,51.5717266974795 -2.92959557550403,51.5717498258782 -2.92966149672237,51.5717970367942 -2.92980105990695,51.5719199821128 -2.92999578188078,51.5721980933744 -2.93016716363082,51.5723234838499 -2.93019004253644,51.5723835301876 -2.9302285546247,51.5727897143283 -2.93029654212514,51.5727981649474 -2.93040673096981,51.5728224618944 -2.9305446103414,51.5728627200007 -2.93068265663821,51.5729110664797 -2.93085728632571,51.5729797984807 -2.93104500329001,51.5730602020577 -2.93130582708477,51.5731839827089 -2.9318982378485,51.5734301716326 -2.93215112856104,51.5735207538196 -2.93234553497729,51.5735731451338 -2.93243532115192,51.57358861307 -2.93275638791298,51.5736211218893 -2.93335266375714,51.5736371510791 -2.93384390119748,51.5736656071558 -2.93476390716305,51.573710427018 -2.93554953996847,51.5737410265716 -2.93716010383873,51.573815380346 -2.93774059246745,51.5738386130442 -2.9379940473714,51.573811419362 -2.93814754676995,51.5737661463888 -2.93852619777551,51.5736597457995 -2.93888482457438,51.5735516166877 -2.93908404284143,51.573490695508 -2.93928479013982,51.5734288625812 -2.93944253922333,51.5733763623053 -2.94013243884518,51.5731783833363 -2.94051378441701,51.5730530773967 -2.94085647096963,51.5728821456153 -2.94104578356805,51.5727565778568 -2.94116755207093,51.5727133534622 -2.94127013858104,51.5727206211431 -2.94134414252255,51.5727380060625 -2.94156471950217,51.5727955670922 -2.9418000357419,51.5728754816711 -2.94208877303005,51.5729496630291 -2.94251302138541,51.5730927830034 -2.94238568155705,51.5732808690977 -2.94225810763926,51.5734634737514 -2.94200994267186,51.5738845399204 -2.94178702335277,51.5744104858972 -2.94166653214109,51.5749303068119 -2.94161448361493,51.5752040846227 -2.94153668842742,51.5757000997463 -2.94143566626195,51.5768168191728 -2.94145136783324,51.5772311815625 -2.94134808479762,51.5778874955707 -2.94126031446336,51.5782523480252 -2.94115268434872,51.578767567464 -2.9409951061246,51.5794512837693 -2.94091919387887,51.5800390607075 -2.94086389520483,51.5807147657533 -2.94079415482841,51.5813249659214 -2.94044003557896,51.5827665082871 -2.94407446728875,51.582918937924 -2.94413665059958,51.5829220339762 -2.94546552056204,51.582973462398 -2.94598854069918,51.5829971181843 -2.95165291646658,51.5832516927061 -2.95310059822204,51.5833217423802 -2.95398514743782,51.5833792747682 -2.95549007028587,51.5835000680671 -2.95685961527882,51.5836283286839 -2.95794608034883,51.5837462094284 -2.95850312056716,51.5838136631033 -2.95852913537734,51.5838170463711 -2.9589891837367,51.5838672222071 -2.95939141255014,51.5839124758369 -2.9598458411503,51.5839725816924 -2.96036855060164,51.5840483085464 -2.96108132765585,51.5841756015951 -2.96200891558743,51.5843594699263 -2.96266159459491,51.5845088214092 -2.96335613560166,51.5846622308547 -2.96502332527446,51.5850748003595 -2.96703420900421,51.5855644306499 -2.96878422066869,51.5860014303432 -2.96959948604932,51.5861942526418 -2.97080221017449,51.5864801351166 -2.9752294863771,51.5875754964903 -2.97702556440632,51.5880002054601 -2.97718847157699,51.5878550201202 -2.97732257884588,51.5877153780213 -2.97748360804472,51.5876879664554 -2.97735851942314,51.5874436031208 -2.97720013784873,51.5871895398277 -2.97715957055155,51.5869129194386 -2.97716238829662,51.5867114470434 -2.97716345180941,51.5866889649486 -2.97704328437475,51.5866737856995 -2.97700649751439,51.5866399332798 -2.97697266310435,51.5866105512506 -2.97698592439119,51.5864242733955 -2.97702281345723,51.5861911446228 -2.97706226840592,51.5859444204115 -2.97713855133006,51.5855283926448 -2.97724499942807,51.5849097643397 -2.97740017714491,51.5846045448565 -2.97747239965324,51.5843377716184 -2.97761182022126,51.5841135861642 -2.9775518759487,51.5840763311437 -2.97768346347237,51.5838198493792 -2.97783956651517,51.5835577727595 -2.97798850366682,51.5833056442312 -2.97811946065984,51.5830807224602 -2.97829423965231,51.5828184898942 -2.97848209709881,51.5828331030053 -2.97859882314963,51.5826883031601 -2.97871131728285,51.5827511864319 -2.97871866813175,51.5827610132436 -2.97878119940074,51.582846787285 -2.97883730255129,51.5828382282439 -2.97892648543159,51.5828240007007 -2.97895196086384,51.5828022142517 -2.9789158512356,51.5827332994588 -2.97881159538104,51.5826495822067 -2.97887630669806,51.5826373555217 -2.97917000289449,51.5824713014043 -2.97951970356458,51.5822867109211 -2.97984795965712,51.5821176699597 -2.98017472890029,51.5819404608465 -2.98049591913752,51.5817750721578 -2.98072848183365,51.5816552806822 -2.98151358067732,51.5812495061449 -2.98137265675661,51.5811374227067 -2.98107185577939,51.580911526444 -2.9807660250866,51.5807117391553 -2.98019607416627,51.580381120351 -2.97970102565295,51.5801136949812 -2.97822838073207,51.5794821854725 -2.97723467869903,51.5791101392865 -2.97572968754811,51.5783763887606 -2.97553254581525,51.5782718667571 -2.9753916072473,51.5781579779712 -2.97530929035996,51.5780867483993 -2.97525968348804,51.5779926847912 -2.9752250688612,51.5779264535872 -2.97518860442724,51.5778404604491 -2.97512215424373,51.5777043781768 -2.97499410661375,51.5775866950507 -2.9749053664,51.5774876531586 -2.97482783663421,51.5773731466739 -2.97470083267815,51.5770982350229 -2.97464955759674,51.5768648526885 -2.97464516679732,51.5767929760132 -2.97464630912853,51.5767128735936 -2.97464710665939,51.5766778091143 -2.97464459010633,51.5765600716334 -2.97467346243041,51.5762909664715 -2.97474443049756,51.5761042112185 -2.97480542093239,51.5759850478394 -2.97490960105229,51.5757935225059 -2.97502695724756,51.5756172580713 -2.97512854660257,51.5755049487641 -2.97530310071326,51.5752993554508 -2.97551607465968,51.5750709698986 -2.97575438493902,51.5748757224369 -2.97613580611434,51.5746962746412 -2.97652932320575,51.5745428816813 -2.9768887370337,51.5744139526181 -2.97725579278994,51.5743030275525 -2.97767326772939,51.5741852980533 -2.97805066318774,51.5740850707429 -2.97830008232506,51.5740092813515 -2.97842905588425,51.5739704517335 -2.97863421322504,51.5739112103148 -2.97879407800914,51.5738315819209 -2.97890121104812,51.5737120323656 -2.97896211269691,51.5735892717782 -2.97908834362441,51.5734227296152 -2.97915153885961,51.5733404014906 -2.97932130078434,51.5731842821992 -2.97942981945716,51.5731294425954 -2.97983682135777,51.573062221657 -2.98031283831612,51.5729899286794 -2.98068515985221,51.5729256012258 -2.98193954205642,51.5726777986747 -2.98252584192553,51.5725613355052 -2.98321891857767,51.5724476612844 -2.98380573502217,51.5723609417119 -2.98399698438073,51.5723305727556 -2.98435140074065,51.5721702008504 -2.98470511708208,51.5719775626562 -2.98498465599593,51.5717602876311 -2.98521242612391,51.5715479406598 -2.98543984685692,51.5713195055831 -2.9855665835393,51.5711116021636 -2.98567978514189,51.5708058309815 -2.98572548984859,51.5706525418902 -2.9857605941657,51.5705371868732 -2.98580121290023,51.5702805668394 -2.98580829540018,51.570008047134 -2.98581530022371,51.5697319331984 -2.98581657762488,51.5694550581195 -2.98580263256288,51.5693436210074 -2.985783490969,51.5691954615031 -2.98573163317198,51.5689315276262 -2.98559520957373,51.5686242574728 -2.98553171591629,51.5684935501317 -2.98539688424198,51.5682599773934 -2.98530329563169,51.568134825946 -2.9851702504438,51.5679894210733 -2.98466791597832,51.5675116416922 -2.98436053026238,51.5672417614364 -2.98382796993087,51.5666968988103 -2.9832969484444,51.5662229437949 -2.98293624297778,51.5658905784984 -2.98233382743055,51.5655197834732 -2.98174880689729,51.5651497397164 -2.98109287444593,51.5647730932279 -2.98044922392366,51.5644250169064 -2.97973655632057,51.5640919854257 -2.97907050711679,51.5637801345307 -2.97850997535739,51.5635403027836 -2.97755322090033,51.5631948193161 -2.97610815664899,51.5626808877749 -2.97458250367629,51.562173808789 -2.97345184923225,51.5617866765661 -2.97300887268108,51.5616464322418 -2.9726600749965,51.561527069717 -2.97228599140162,51.5613709699705 -2.97197987170381,51.561222486006 -2.97193624329954,51.5612012732185 -2.97158510274725,51.5610386877556 -2.97128151648328,51.5608748992893 -2.97092976838767,51.560683551918 -2.97070054597045,51.5605542049262 -2.97033257933941,51.5603495056487 -2.97015241745996,51.5602170552525 -2.96999267716666,51.5600996275015 -2.9697920234347,51.5598927342608 -2.96956756315143,51.5597129157205 -2.96920360294194,51.5594218821541 -2.96889769109899,51.5592149580919 -2.96862768097618,51.5590013544916 -2.96840375881083,51.5587792790318 -2.96818906473036,51.5585211693476 -2.96799916070091,51.5582710347368 -2.96783188482425,51.5580053416156 -2.96755494350181,51.5575319099469 -2.96747991534468,51.5572582650101 -2.96741629110394,51.5569782325962 -2.96742155048901,51.5566823506662 -2.96743941306945,51.5564367949579 -2.96748020977799,51.5561846677474 -2.96758970077344,51.555902309966 -2.96767662334986,51.5557838337326 -2.96777048736283,51.5556562201829 -2.96794994485524,51.5554092418775 -2.96811805478525,51.5551768302878 -2.96832186885063,51.5549233580191 -2.96851319340928,51.5546978552208 -2.96888022102294,51.5543234770519 -2.96889719978527,51.5543053585024 -2.96921634439114,51.5540509325436 -2.96953495873331,51.5538387603014 -2.96986716184047,51.5536562290815 -2.97016304276297,51.5534658172189 -2.97046089665432,51.5533626744219 -2.97056536055401,51.5533258529541 -2.97091061879978,51.5532150362728 -2.97127719369785,51.5530888494675 -2.97166781896666,51.5529417873465 -2.97203425210523,51.5528092168925 -2.97241362604111,51.5526757288072 -2.97280342944724,51.5525573457596 -2.97357387293254,51.5522983581639 -2.97435458462954,51.5520472794447 -2.97510113146013,51.5518171562248 -2.97588228803678,51.5515876387759 -2.97665157929424,51.5513430230297 -2.97744001494086,51.5509821897365 -2.97769426650677,51.5508658183394 -2.97808388692623,51.5507403174145 -2.97848598222327,51.5505921478168 -2.97885380611865,51.5504596343135 -2.97923281283355,51.5503773666355 -2.97965953155921,51.5503018013032 -2.98046446116023,51.5501072033047 -2.98123433751943,51.5498921269143 -2.98167192792689,51.5497805964466 -2.98205001023161,51.5496613814304 -2.98241766137693,51.5495216664381 -2.98287722398166,51.549359606366 -2.98351930598808,51.5491087298676 -2.98387383056763,51.5489618386229 -2.98425251853353,51.5487995527431 -2.98458366360071,51.548638472836 -2.98493834752465,51.5484332375128 -2.98522351440479,51.5482797333204 -2.98550899910112,51.5480750761942 -2.98576957971479,51.5478570542436 -2.98601999467071,51.5476310261809 -2.98624562592927,51.5473917224607 -2.98640077015355,51.547164786514</coordinates></LinearRing></outerBoundaryIs></Polygon>
  </Placemark>
