  <Placemark>
	<Style><LineStyle><color>ff0000ff</color></LineStyle><PolyStyle><fill>0</fill></PolyStyle></Style>
	<ExtendedData><SchemaData schemaUrl="#Wards__December_2019__Boundaries_EW_BFE">
		<SimpleData name="objectid">6844</SimpleData>
		<SimpleData name="wd19cd">E05012617</SimpleData>
		<SimpleData name="wd19nm">Cubbington &amp; Leek Wootton</SimpleData>
		<SimpleData name="wd19nmw"></SimpleData>
		<SimpleData name="bng_e">433020</SimpleData>
		<SimpleData name="bng_n">270825</SimpleData>
		<SimpleData name="long">-1.51681</SimpleData>
		<SimpleData name="lat">52.33453</SimpleData>
		<SimpleData name="st_areashape">56016232.2622248</SimpleData>
		<SimpleData name="st_lengthshape">63890.3042079247</SimpleData>
	</SchemaData></ExtendedData>
      <Polygon><outerBoundaryIs><LinearRing><coordinates>-1.50449893765669,52.377807147852 -1.50488074927108,52.3776838146238 -1.50523224750234,52.3775198206587 -1.50600920865923,52.3771400991402 -1.50623372167287,52.3768928870294 -1.50634260844411,52.3768708713035 -1.50665257632024,52.376879351708 -1.50693196946136,52.37671783873 -1.50802908322466,52.3759375100478 -1.50816988511133,52.375822154383 -1.50828879325004,52.375704010714 -1.5084066949145,52.3755345442297 -1.50844859549256,52.3754583240646 -1.50852418556598,52.3752707065369 -1.50858376627444,52.3750632493354 -1.50861692345229,52.3748467849989 -1.50875565165108,52.374261186297 -1.50881052272916,52.3740851661663 -1.50888753981015,52.3738886564817 -1.50904842749877,52.3735548936798 -1.50926802659965,52.3732231699395 -1.50936182074771,52.3731084269392 -1.50973032892232,52.3727260896749 -1.51028036098768,52.3722564234089 -1.51049713693986,52.3720478164809 -1.51049858952813,52.3720478224787 -1.51098070941589,52.3716182269403 -1.5114743976946,52.3712040450219 -1.51183767115881,52.3708872903175 -1.51205098120644,52.370728188871 -1.5123426853766,52.3705100005542 -1.5126577501506,52.3703035930401 -1.51283240743409,52.3701901678296 -1.51336384222332,52.3698093881338 -1.51379807093538,52.3691809572803 -1.51385218789702,52.3690714404177 -1.51391247813349,52.3690618020562 -1.51391984429854,52.3690636294038 -1.51426863613094,52.3695370894003 -1.5143599521882,52.3696471124589 -1.51445564636804,52.3697554452367 -1.51469259375784,52.3699811065587 -1.51500161994014,52.3701936705052 -1.51540454189864,52.3704245924678 -1.51580411075022,52.3706859670593 -1.51587854906814,52.3707339954969 -1.51673034481642,52.3711375091694 -1.51758170131805,52.3715940424251 -1.51767790015697,52.3716682225724 -1.51797747852973,52.3719390691674 -1.51809791424985,52.3720789560457 -1.51827347826199,52.3724176940175 -1.51832366577336,52.3725248504973 -1.51839495348841,52.3727301467614 -1.5184392806029,52.3729757785038 -1.51846979132873,52.3735467950207 -1.52000077262159,52.3730935564927 -1.52108376898039,52.37454988197 -1.51981119314384,52.3755534141391 -1.52011260843919,52.3759384939117 -1.52018810700572,52.3760241815589 -1.52045071610564,52.3761898057776 -1.52087146883151,52.3764037036425 -1.52139720205555,52.3766880362965 -1.52203081106695,52.3770556672054 -1.52230105811418,52.3771879744833 -1.52253749041135,52.3773337165314 -1.52278093779211,52.3775144481144 -1.52391365445555,52.3785996666225 -1.52449739095904,52.3792295206023 -1.52465132517521,52.3794009009746 -1.52987555273064,52.3778421588746 -1.52991942011397,52.3778630046909 -1.53266181148081,52.3762160848203 -1.53485827710667,52.3773017001244 -1.53547931771897,52.3776089040874 -1.53614659807509,52.3770136634003 -1.53666972922784,52.3765815192411 -1.53717821314254,52.3761358347036 -1.53776802870509,52.3756364494292 -1.53917257969663,52.3744803613802 -1.53993006847088,52.3738072577547 -1.54014041289392,52.3736337141549 -1.54024410342365,52.3735495431601 -1.54055825656791,52.3732918290544 -1.54150726268328,52.3725628341529 -1.54207827398541,52.3721748893028 -1.54207973584046,52.3721739959321 -1.54330383736072,52.3712563206642 -1.54422059620753,52.370510103052 -1.54567712824214,52.3692705501322 -1.54384845947715,52.3679932234233 -1.5425386661179,52.3671026300935 -1.54189288256097,52.3666334967773 -1.54251508515406,52.3662529338019 -1.54287710118259,52.3660448273206 -1.54333512703127,52.366344173755 -1.54368737666485,52.3662259935286 -1.54488341873048,52.3658781827469 -1.5463279702155,52.3655007530866 -1.54664609513126,52.365414699567 -1.54680821339246,52.3653568997077 -1.54789359987727,52.3657880468282 -1.54831934722363,52.3659425491248 -1.54894831256908,52.3661894973369 -1.54939034641301,52.3663385754036 -1.54952799471556,52.3662339430799 -1.55054522136171,52.3654115662551 -1.5524124217106,52.3638920750157 -1.55270344518118,52.3640181920121 -1.5545256367535,52.364923192493 -1.5550055166441,52.3651029506514 -1.55521924169508,52.3651747559887 -1.55535247391084,52.3652193853725 -1.55544469699274,52.3651028016051 -1.55555538969844,52.3650403030653 -1.55568050593679,52.3648672201451 -1.55593136152745,52.3646039228491 -1.55618906696308,52.3643819041712 -1.55642266982623,52.3642209112605 -1.55684813437549,52.3639681519498 -1.55726630338377,52.3637179701306 -1.55773020222076,52.3634347035019 -1.55848353118789,52.362999632825 -1.56023073673466,52.36199384867 -1.56063654703983,52.3617895357436 -1.56093573803198,52.3616782089954 -1.56134092306003,52.3615368050296 -1.56198155613498,52.3613503443498 -1.5619944960804,52.3613764557708 -1.56207974759505,52.3613749736539 -1.56210847927009,52.3612852026077 -1.56213419867838,52.3612062069122 -1.56263651277871,52.3610488894907 -1.56291067099608,52.3609456438012 -1.56320574655328,52.3608082325527 -1.56351158903692,52.3606098326919 -1.56374120175143,52.3604065682437 -1.5638929461207,52.3602048139914 -1.56389600766344,52.3602012309597 -1.56376413641456,52.3601665917268 -1.56356791283005,52.3601137412043 -1.56317526581185,52.360016126957 -1.56295403288643,52.3599703727214 -1.56275918390121,52.3599256144354 -1.56275037234118,52.3599228857536 -1.56292672879916,52.3596070807368 -1.56308916294038,52.3593649225161 -1.56327239597496,52.3591003714072 -1.56345841792012,52.3588475148986 -1.5636385246907,52.3586054199317 -1.56369512003929,52.3585256378917 -1.56365164492639,52.3584652598077 -1.56293787139243,52.3583260163142 -1.56251108376563,52.3582794126229 -1.56155576874154,52.3582156639743 -1.56129030348852,52.358187718639 -1.56114965433855,52.3581602340944 -1.56090500462896,52.3580964135708 -1.56090355101452,52.3580964081847 -1.56040472767181,52.3579039288987 -1.56020830447522,52.3578726419657 -1.56001743614171,52.3578674391773 -1.55985645742244,52.3578147127638 -1.55971403583003,52.3578195760782 -1.55941840617377,52.3578670115708 -1.55926269522062,52.3578691287347 -1.55890846039785,52.3577590582944 -1.55843286677944,52.3575936198658 -1.55826307136372,52.357539061217 -1.55756096899431,52.3574222969271 -1.55695624829035,52.357398466931 -1.55671262502349,52.3573903653071 -1.5563440335674,52.3573853905789 -1.55609626993295,52.3573557016653 -1.55567421880158,52.3572731402244 -1.55545858627834,52.3572507609143 -1.55524695896333,52.3572634486737 -1.55495727056907,52.3573099962901 -1.5548258129651,52.3572358023604 -1.55467782492899,52.3572163719459 -1.55462063620183,52.3572089665237 -1.55453142289263,52.3571717815441 -1.55451405475918,52.3571411580764 -1.55450111217231,52.3571159436519 -1.55443384918838,52.3570869297325 -1.55428134752936,52.3570710770761 -1.55399177246353,52.3570942541521 -1.55396536384892,52.3570959528112 -1.55388772131196,52.3570758871482 -1.55381309735891,52.3570567318346 -1.55368248880308,52.3570427580111 -1.553527082803,52.3570268035317 -1.55336420647106,52.3570073153516 -1.55327654907824,52.3569719324381 -1.55325327246751,52.3569511731766 -1.5533409512299,52.356840054924 -1.55336224656726,52.3567691321533 -1.55336991994996,52.356740400066 -1.55340967880309,52.356723472772 -1.55385383748339,52.3566531540905 -1.55399511997111,52.3566168363823 -1.55409389170107,52.3565821556976 -1.55435603086484,52.3562046674086 -1.55448562760146,52.3560298035561 -1.55464720246724,52.3555755392299 -1.55471420033642,52.355485913704 -1.55478065771756,52.3554501229824 -1.55502788899754,52.3553989222198 -1.55529414505168,52.3553459951928 -1.55556024594121,52.3553083469756 -1.55581168914741,52.3552715413445 -1.55582945330198,52.3552626203038 -1.55592096279896,52.3552153280377 -1.55593714401188,52.3552072991827 -1.55589068761821,52.3551558953853 -1.55566113526328,52.3549167681224 -1.55549734759132,52.354988954777 -1.55505498048025,52.3551842168192 -1.55481641622414,52.3552525264502 -1.55453343492229,52.3552110169737 -1.55442078568009,52.3551692503414 -1.55433332163647,52.3551149046562 -1.55428652116165,52.3550859675758 -1.5541415817977,52.3550530659279 -1.55395559938772,52.3549966418666 -1.55366854330609,52.354927253856 -1.55321332584176,52.3547870361985 -1.55318704065206,52.3540434684605 -1.55302261778928,52.3540464424951 -1.5528430149506,52.353946000535 -1.55265646162224,52.3539587781017 -1.55150045551042,52.3541557332373 -1.55077362908457,52.3543004699253 -1.54984882218583,52.3544380691163 -1.54944566400678,52.3545139216863 -1.54900025267791,52.354566154472 -1.5486329039283,52.3545962133014 -1.54851382179626,52.3546164312662 -1.54828137374447,52.3546658771895 -1.54816945358293,52.3546960097076 -1.54792923653338,52.3547831740627 -1.54779206640652,52.3548438571627 -1.5473421206653,52.3550551500408 -1.54706874317068,52.3552240648746 -1.54536152277864,52.356186682861 -1.54534407008312,52.3561767292112 -1.54525219217562,52.3561170574108 -1.54513454717723,52.3561381765849 -1.54473974968537,52.356257995766 -1.54435933013418,52.356415708486 -1.5440242790952,52.3565878838384 -1.54390754815133,52.356661135087 -1.5438321042961,52.3567103673211 -1.54383639730888,52.3567166753031 -1.54386686025434,52.3567563384713 -1.54422367519472,52.3569051116917 -1.5446081029484,52.3570648637357 -1.5445622718584,52.3570952459123 -1.54440116124255,52.357198885386 -1.5443973875449,52.3572833560615 -1.54444447093954,52.3574139503835 -1.5444307401155,52.3574660264594 -1.5443726573664,52.3575457950148 -1.54426138421807,52.3576649948934 -1.54429313374609,52.3577091571632 -1.54436272398064,52.3578055937194 -1.5443401184258,52.3578612309201 -1.54432647788879,52.3578926357804 -1.54403807204496,52.3580956396191 -1.54369164166978,52.3583721197828 -1.54369520577585,52.3584611120667 -1.54366627712252,52.3585544744619 -1.54359977843182,52.358592955264 -1.54345399562516,52.3586418274647 -1.54329511568199,52.358669077545 -1.54319338152201,52.3588493385208 -1.54289849691965,52.3589633347804 -1.54278028875255,52.3590383755648 -1.54261422854441,52.3590575072889 -1.54242769600839,52.3591952878572 -1.54225107507479,52.3592404437802 -1.54203805923051,52.3592459124923 -1.54176521719653,52.3592295783581 -1.54162572227553,52.3592200515288 -1.54143012591152,52.3591095554642 -1.5412328068815,52.3590252068749 -1.5411464975315,52.3589889216802 -1.54113348593537,52.3589708961847 -1.54103950002341,52.3588338300061 -1.54080833590749,52.3588851529925 -1.54069088617515,52.3588864951588 -1.54059561859245,52.3588735432424 -1.54049789128183,52.3588056673796 -1.54033878672045,52.3587142746641 -1.54007426637352,52.3585964070782 -1.53998992485791,52.3585222895131 -1.54001113015889,52.3584504694625 -1.5400474872623,52.3583418584422 -1.54003491647182,52.3582815912237 -1.53992532802451,52.3582371256927 -1.53965632035933,52.3582603481736 -1.53912593544304,52.3584344483948 -1.53838287838522,52.358720155615 -1.53814849710855,52.3588127156722 -1.53809065429188,52.3588683036905 -1.53804393906663,52.3589831638287 -1.53803861818619,52.359064033031 -1.53811882637374,52.3591164738297 -1.53812760812847,52.3591219004067 -1.53875661504615,52.3592098225354 -1.53877346034324,52.3592898789718 -1.53873500719551,52.3593086035272 -1.53861407326727,52.3593656535522 -1.5384610083418,52.3594037051005 -1.53817271584826,52.3594412297354 -1.5381089858147,52.3595039852437 -1.53812875455835,52.3595822551122 -1.5380738159935,52.3596377645343 -1.53807235446167,52.3596386578663 -1.53793724548882,52.3596381313464 -1.53789108524353,52.3595597576748 -1.5378648990789,52.3595398833035 -1.53779479464266,52.3594937722229 -1.53767739930024,52.3594897201542 -1.53722622510298,52.3595311005072 -1.5370671341448,52.3595781143096 -1.53696276767918,52.3597295982055 -1.53689190362106,52.3597679687696 -1.53674917568947,52.3597898805096 -1.53658100901842,52.3600104099457 -1.53650097006254,52.3600811003912 -1.53634441395785,52.3601632643086 -1.53620308025078,52.3602022578672 -1.53588921934636,52.3602989956415 -1.53571575612992,52.3603189877667 -1.5353013871986,52.3603479221888 -1.53497096630345,52.3603493227354 -1.53485759911236,52.3603767406375 -1.5347649898077,52.3603871619229 -1.53472426927952,52.3603564441256 -1.53456832966597,52.3602407895757 -1.53447669084226,52.3601586415341 -1.53438205678003,52.3600736946638 -1.53424758553136,52.3600237341243 -1.5341670150868,52.3599946566547 -1.53382076020156,52.359832415899 -1.53312475462398,52.3594151630067 -1.53272954752825,52.3591538599981 -1.53156005897067,52.3583823168823 -1.53129359471132,52.3581645667995 -1.53128496452218,52.3581564440042 -1.5319314365118,52.357562028394 -1.53220710097016,52.3573096607533 -1.5328405614991,52.3566954153518 -1.53306325248945,52.356471508119 -1.5337153396029,52.355753072541 -1.53425760377518,52.3551501454573 -1.53455793928286,52.35479352051 -1.53493874691207,52.3543238740577 -1.53607740405865,52.3528422007122 -1.53644032743034,52.3523896465963 -1.5368588301268,52.3518185788378 -1.53708223591745,52.3515218653383 -1.53774437901311,52.3506730341634 -1.53807248561115,52.3503174068068 -1.53846702986219,52.3499278842502 -1.5388631394007,52.3495383655597 -1.53965431293182,52.348834818854 -1.53984814068878,52.3486907786245 -1.54016173731649,52.3484591212779 -1.54106247946935,52.3478189052199 -1.54218947256143,52.3470087875665 -1.54271569655984,52.3466485198549 -1.54377894627661,52.3458991687613 -1.54671011270483,52.3437670907836 -1.54732405148218,52.3433073732872 -1.5479172674007,52.3428492807954 -1.54817026559127,52.3426534125584 -1.54868074439394,52.34224892784 -1.54921069730813,52.3418086539056 -1.54969961675268,52.3413682215141 -1.55011138163625,52.3410047892391 -1.55059730477385,52.3405597583823 -1.55133416425679,52.3398316587824 -1.5521537180634,52.3390489531974 -1.55285466693011,52.3383728406122 -1.55338347788556,52.3378929973484 -1.5539581381716,52.3373772836303 -1.55459420337834,52.3368788745324 -1.55540530243041,52.3362040592532 -1.55687786822192,52.3351208812247 -1.55762289457277,52.334573430629 -1.55913441783097,52.3334066928035 -1.55942274516395,52.3331884627184 -1.55952479301291,52.3331105583173 -1.56026700861081,52.3325469027395 -1.56048893461852,52.3323616789981 -1.56170508547735,52.3321135385125 -1.56212265255153,52.3320261035808 -1.56284161566039,52.331889359436 -1.56368253522157,52.3317279834505 -1.56384639942242,52.3316378100451 -1.56387437690254,52.3316225439837 -1.5638784798554,52.3313529238223 -1.56378956037984,52.3308472995568 -1.56384183766097,52.3306002357998 -1.56423587604871,52.3300731120321 -1.56454024855404,52.329719032066 -1.56536168758437,52.3287007611121 -1.56595839404092,52.328007110436 -1.56806949411103,52.3253275543451 -1.56947737819023,52.3287238918235 -1.57427858289147,52.3290397539143 -1.57442634224464,52.328619564384 -1.57543697161959,52.3288182321543 -1.57558474431255,52.3288637918293 -1.57578042283663,52.3289606633365 -1.57569141167257,52.3290708948349 -1.5768226265911,52.3293896115553 -1.57726014082491,52.3295143994266 -1.57728834465008,52.329487536136 -1.5775558900371,52.3292798843763 -1.57834097056753,52.3286560518888 -1.57889085506941,52.3282345930665 -1.57939787051805,52.3278416505984 -1.5796863520057,52.3275927231935 -1.5802069726236,52.3271540768448 -1.58059614026515,52.3268111328036 -1.58084800232541,52.3265566802152 -1.58092647675217,52.3264841564418 -1.58149025501476,52.3259817541264 -1.58197484823678,52.3256265599761 -1.58240702332228,52.325222643984 -1.58242141203002,52.3251076496523 -1.58252540824594,52.3251250939944 -1.58287067608514,52.32491860238 -1.58314544187669,52.3247217481257 -1.58356919957984,52.3244265517886 -1.58369181634923,52.3243415985089 -1.58372870652655,52.3243165623013 -1.58394446177049,52.3243101306995 -1.58428807599757,52.3242789820295 -1.58772993832272,52.3239943428552 -1.58853014363596,52.3239342150961 -1.58883928995184,52.3238237506721 -1.58986581837182,52.3235684658304 -1.59028477640406,52.3234871397387 -1.59063159782523,52.3234227296737 -1.59102103178897,52.323354870708 -1.59200441269585,52.3231586478801 -1.59254961516,52.3230688514403 -1.59329379148703,52.3230345633782 -1.59385294487863,52.3230194079252 -1.5943636942761,52.3230058818756 -1.59508278709691,52.3229759899104 -1.5958195629921,52.3229569398346 -1.59634649875069,52.3229325848082 -1.59682767917568,52.3229378216796 -1.59725300383682,52.3229528430461 -1.5975962388138,52.322975582343 -1.59801389265741,52.3230228406348 -1.59854733099034,52.3230956575186 -1.59938236103611,52.3232351045433 -1.59982774410893,52.3233068081467 -1.60025075093961,52.3234187897882 -1.60102067801619,52.3236290996765 -1.60168799062725,52.3238164993803 -1.60269206234825,52.3241039836231 -1.60421717485273,52.3245163394331 -1.60501647959852,52.3247339116503 -1.60563392225654,52.3249284030801 -1.60584316731933,52.3249884206088 -1.60651181804389,52.3252073451072 -1.60673864105885,52.3252773063197 -1.60721558497902,52.3254370783852 -1.60778862821197,52.325180939244 -1.60824249193731,52.3249532536671 -1.60851778246185,52.324849816301 -1.60896120047165,52.3246535508861 -1.60953138297158,52.3243902032755 -1.6101659992352,52.3241315596977 -1.61032084323378,52.324049382468 -1.61100427718316,52.3237405632466 -1.61254802230155,52.3230488937049 -1.61348009313361,52.3226625905143 -1.61412275717108,52.3223212633756 -1.61487422725286,52.3219587164694 -1.61575072114625,52.3215453409914 -1.61666585120906,52.3210825604764 -1.61741116693648,52.3207415482025 -1.61755710881491,52.3206647251276 -1.61761899554049,52.3206280753109 -1.61746412456028,52.3205475819309 -1.61725184378704,52.3203346918734 -1.61706711193511,52.320139865233 -1.61694052474481,52.3200199174354 -1.61679919575275,52.3199125038324 -1.61662103249968,52.3198120703665 -1.6164427685616,52.319723411076 -1.6162997553492,52.3196429555181 -1.61618608711923,52.3195544155565 -1.61610355283536,52.3194184306622 -1.61604213191369,52.3192329913573 -1.61601643795747,52.3189722598688 -1.61597046766291,52.3186924980732 -1.61595778790394,52.3184658726891 -1.61595656823495,52.3184389055058 -1.6160000610944,52.3183329901823 -1.61608672360303,52.3181444364753 -1.61612138440188,52.318038492422 -1.61616282867493,52.3180017760775 -1.61647511704697,52.3178508053011 -1.61637345659391,52.3177309368003 -1.61650288705448,52.3176882142987 -1.616629431776,52.3176435961037 -1.61689650755873,52.3174611090486 -1.61708256230726,52.317332196442 -1.61714370526199,52.3172128557855 -1.61718062133911,52.3170133552113 -1.61722588520007,52.3168696960972 -1.61725899081963,52.3167754306348 -1.61732282764882,52.3166802756904 -1.61735846517608,52.3166291608162 -1.61753609374822,52.3164526742702 -1.61778245006703,52.3162871055947 -1.61815906116836,52.3159961269642 -1.61835647720727,52.3158952012092 -1.61882076355497,52.3156476458957 -1.61886483841577,52.3156280144192 -1.61905020967323,52.3155773807565 -1.61971416691254,52.3151191601133 -1.62008748368255,52.3148713961542 -1.62107176272548,52.3141921058785 -1.62166216990645,52.3139297532863 -1.62203875960855,52.3138068358011 -1.62241690541923,52.3136714280659 -1.62306518226165,52.3133435520037 -1.62359697133475,52.3130737232545 -1.62372365459083,52.3130103123579 -1.62376336958718,52.3129906660724 -1.62397739276931,52.3128393617431 -1.62372617705709,52.3125400751939 -1.62343279730747,52.3121930179207 -1.6231281408871,52.3117928955982 -1.62254730897105,52.3110870222548 -1.62266886248902,52.3102585485416 -1.62271405335083,52.3099350393185 -1.62279349007647,52.309394941632 -1.62296029879887,52.3082338805956 -1.62308411858709,52.3078072613622 -1.62315050512656,52.3075934714825 -1.62313928692292,52.3073615485825 -1.62308037777219,52.3070350109358 -1.62307685340277,52.3069369417269 -1.62302599873974,52.3056592423411 -1.62300177100832,52.305235746098 -1.62299488795156,52.3048347749833 -1.62296647392382,52.3045487797533 -1.62298317755811,52.304146894867 -1.62302134838315,52.3037946014509 -1.6231231480805,52.3033679116508 -1.62312921742196,52.3033508536248 -1.62324562229106,52.3029412876294 -1.62325920570758,52.3028936050687 -1.623388021401,52.3024031867959 -1.6234214091274,52.3020868298666 -1.62344532371728,52.3018612203166 -1.62344105478752,52.3018513199083 -1.62340007399342,52.3018359100679 -1.62332111210947,52.3018077961422 -1.62328914685131,52.3017843253745 -1.62213572288991,52.3013436527264 -1.62120601112022,52.3009882618204 -1.62047513219215,52.3007134947556 -1.62049411041604,52.3005580656223 -1.62057052647902,52.3001897180359 -1.62007659757809,52.2996531739653 -1.61987739729106,52.2994484193001 -1.61976119562581,52.2993222154878 -1.61962904013225,52.2991671998302 -1.61958288371192,52.2990788803322 -1.6195800048091,52.2990761748366 -1.61966645162572,52.2990764530155 -1.61973688722247,52.2990685900342 -1.61975600677439,52.2990668543521 -1.61974741136415,52.2990398625985 -1.61982670386144,52.2990284336801 -1.61996179536841,52.299009993571 -1.62017018570709,52.298988193587 -1.62030807760369,52.2989814460458 -1.62064830361178,52.2989825384037 -1.62122009217673,52.2989951578487 -1.62161448163767,52.2990108011674 -1.62201611797008,52.2990273662842 -1.62232397920101,52.2990382361968 -1.62245438187508,52.2990449442721 -1.62245885583926,52.2990449585616 -1.62246643087869,52.2990072337321 -1.62247414288765,52.298967712152 -1.62247590629318,52.2989308678033 -1.6224869396268,52.2988418330368 -1.62248968222164,52.2985190879874 -1.62250299272452,52.2981622220165 -1.62250693333844,52.2978691410938 -1.6225108356669,52.2977514121453 -1.62253880951974,52.2975752494233 -1.62260087476154,52.2973426627926 -1.62268137797864,52.2970174687732 -1.62279246585198,52.2965358946646 -1.62285799357715,52.2962510979659 -1.62292620283187,52.2959779946419 -1.62298575167465,52.2956994711807 -1.62303154207466,52.2954893012443 -1.62307919685597,52.2954013721068 -1.62308022691165,52.2952799496523 -1.62313831703534,52.2951731792398 -1.62316168501576,52.2950122808615 -1.62317712774242,52.2949305404878 -1.62272320135759,52.2948544934728 -1.62221252913578,52.2947269423424 -1.62167000212268,52.2945499439224 -1.62004494443234,52.2939109072421 -1.61926495230802,52.2935703631385 -1.61829930770365,52.2931563235705 -1.61726204792767,52.2927223611519 -1.61620482568526,52.2922226236991 -1.61496409888273,52.2915874649125 -1.61418396024195,52.291260371929 -1.61363433409976,52.2910752266068 -1.61279466649998,52.2908530878424 -1.61197418637347,52.2906220176195 -1.60963180888536,52.2900587725323 -1.60954075838568,52.2902400250994 -1.60936207081473,52.2905576928326 -1.60926862331823,52.2906815058996 -1.60917375637486,52.2908016281429 -1.60890967085659,52.2911522672193 -1.60880578606875,52.2912940206693 -1.60870353548141,52.2914150170901 -1.60859107172586,52.2915287900122 -1.60847129948397,52.2916489199697 -1.60827914693875,52.2918199498461 -1.60798811116903,52.2920725303094 -1.60772953396436,52.2922910662681 -1.60714822107877,52.2927098588856 -1.606845983103,52.2928887006941 -1.60594293524645,52.2933648376854 -1.60536328414832,52.2935930827236 -1.60445567521542,52.293926285543 -1.60294949394143,52.2944499028739 -1.6012017839694,52.2950886298595 -1.59912212924939,52.2958017053719 -1.59723389318846,52.2964102384952 -1.59497501875803,52.2971280239947 -1.5902561269973,52.2985880265442 -1.58746673905963,52.299409977944 -1.58571978401673,52.2999396389538 -1.58489914772887,52.300189411489 -1.58356620697903,52.300660365728 -1.58293022965853,52.3009179660186 -1.58161382238111,52.3014904301496 -1.58084653927426,52.3018347370429 -1.58013195450888,52.3021927970549 -1.57962649149707,52.3024534480129 -1.57933892070464,52.3024704014025 -1.57916869864723,52.3024806717979 -1.57913526499184,52.3024490053516 -1.57904223983995,52.3023641883641 -1.57844900219458,52.3024447649162 -1.57816588585802,52.3024509454685 -1.57754586165812,52.3024235670438 -1.57742890455635,52.3023764124635 -1.57719194452305,52.3023225374433 -1.57710104671114,52.3023195163226 -1.576709672929,52.3022920515594 -1.5763228494178,52.3022565130792 -1.57597422440207,52.3022220092902 -1.57586436956552,52.3022036390901 -1.57571526164789,52.3021554693997 -1.57540336072111,52.3019601214646 -1.57532437269853,52.3019382671505 -1.57529361847824,52.3019300680364 -1.57530563392698,52.3015965705423 -1.5753256849577,52.3013332076777 -1.57534729765604,52.3010707494493 -1.57535044330938,52.3007417134969 -1.57535350974741,52.3005726624903 -1.5753554597993,52.3005205401017 -1.57533645177254,52.3005231681138 -1.57525719132229,52.3005300741551 -1.57517830581232,52.3000299741855 -1.5751571054612,52.2996424296882 -1.57523046918559,52.299480821584 -1.57522121573604,52.2993864154415 -1.57529007064624,52.2992283854944 -1.57530789423187,52.299210473941 -1.57535674365235,52.2991594180185 -1.57465708311255,52.299031973078 -1.5742486658992,52.29895671293 -1.57337484744601,52.2987854918261 -1.57302374830696,52.2986970428091 -1.57297996661206,52.298686098921 -1.57293832797084,52.2984395900049 -1.57292723122649,52.2983739384052 -1.57280990881505,52.2983662352302 -1.57279122285031,52.2983356082513 -1.57239383096997,52.2983341725382 -1.57225492915051,52.298295023063 -1.57190388092949,52.2982020765394 -1.57173135321964,52.2981520188922 -1.57141540854342,52.2980672867085 -1.57121234026219,52.2979873672863 -1.57068338472958,52.2978011972687 -1.57005233435755,52.2975462561435 -1.56977942383367,52.297413051879 -1.56943881299111,52.2977661154924 -1.56972606740981,52.2979289423646 -1.56987042838836,52.298015751586 -1.57010109871685,52.2982665431251 -1.57027727906466,52.2984011933755 -1.57046630158171,52.2985582690629 -1.57101764345907,52.2988686444997 -1.57134048124855,52.2989911509792 -1.57151605034643,52.2990395129076 -1.57182789224283,52.2990864798611 -1.57228364081855,52.2991177889089 -1.57280698984732,52.2991349591662 -1.57300181149193,52.2991554361346 -1.57321803264033,52.2992389043721 -1.57329987351766,52.2992652647454 -1.57341788904788,52.2993520644565 -1.5734467067303,52.2993980062585 -1.57346681017286,52.2994448156819 -1.57346781307889,52.2994915562388 -1.57341472050261,52.299681997763 -1.57335578047729,52.2998642395443 -1.57327629667841,52.3000455989507 -1.57313491680084,52.3004145808751 -1.57302226763728,52.3006874960576 -1.57289953073585,52.3009406010848 -1.57286909392544,52.3012138128624 -1.57282705173631,52.3014743097653 -1.57277986039643,52.3016539871986 -1.57285311220669,52.3018070454412 -1.57292992026259,52.3019044817176 -1.57297445772956,52.3020008134158 -1.57293395285297,52.3020887485247 -1.57284778656578,52.302209863474 -1.57266037720014,52.3023350171227 -1.57261725616617,52.302393282249 -1.5726121505255,52.3024715482142 -1.572643333867,52.3025732242612 -1.57270396028486,52.3026812981655 -1.5727801744867,52.3028407485531 -1.57284265592567,52.3031960855178 -1.5728829330775,52.3034336005583 -1.57289123090713,52.3036394535184 -1.57287434456289,52.3038740659216 -1.57287820443103,52.303925311068 -1.57288722748248,52.3040557573893 -1.57289099377197,52.3041168889993 -1.57286302757033,52.3041329663564 -1.57281582763905,52.3041624554459 -1.57274464360368,52.3042466843928 -1.57278686796847,52.3042693067196 -1.57312399242032,52.3044449788996 -1.5733079716087,52.30452653331 -1.57325771286372,52.3053400249666 -1.57322086721009,52.3054998762689 -1.57318322726201,52.3056040899698 -1.57309811011564,52.3057664633027 -1.57299722908732,52.3058829418527 -1.57286148804087,52.305965229635 -1.57275086357266,52.3060385312082 -1.57253434926614,52.3061330209114 -1.57201701047146,52.3062489811748 -1.5716763277618,52.3062908898077 -1.57146804391052,52.3062964270514 -1.57125254949916,52.3062848613324 -1.57082749451294,52.3062482672607 -1.57058001685178,52.3062177088318 -1.5703542288678,52.3062078113967 -1.57019126146288,52.3062288801324 -1.56986525266238,52.3062663434232 -1.56954195954354,52.3063352732847 -1.56912719452185,52.3064595937627 -1.56877530383341,52.306596814918 -1.56841315005803,52.3067321095856 -1.56778024816178,52.3069662705779 -1.56757891826719,52.3070023850659 -1.56716050680977,52.3070529846088 -1.56679903684028,52.3071172732312 -1.5666357939256,52.3071661993871 -1.56653556822055,52.3072134681869 -1.56647430307787,52.3073327825836 -1.56645232487288,52.3074783950194 -1.56644732120189,52.3075448871447 -1.56639682740604,52.3076013257865 -1.5663127787172,52.307651349913 -1.56599681180558,52.3077238915726 -1.56559546989373,52.3078087928383 -1.56541427570846,52.3078998040457 -1.56536820060889,52.3079616509531 -1.56532499410354,52.3080271036615 -1.56530211406598,52.3081160898111 -1.56525201999148,52.3081437680834 -1.56519180026556,52.3081435468206 -1.56507633280734,52.3081044743249 -1.56495903644583,52.3081040431446 -1.56469746748918,52.3081534133452 -1.56459751947945,52.308171920179 -1.56429235478402,52.3081905705188 -1.56417182378255,52.3082116974391 -1.56414358718745,52.3082547350199 -1.56413527492668,52.3083499762226 -1.56421182957227,52.3084725831682 -1.56445507306196,52.3086397544298 -1.5643195201985,52.3087003734096 -1.56405732521664,52.3088253271186 -1.56370810899868,52.3089822270613 -1.56347686540676,52.3090830274757 -1.56328287171715,52.3091218579838 -1.56304512705712,52.3091335633654 -1.5627825683974,52.3091352897889 -1.56243974044613,52.3090971725418 -1.56156690649384,52.3089698196285 -1.56103643291878,52.3089157227216 -1.56062619424522,52.3088710585869 -1.56034031002545,52.3088592108767 -1.56007810018978,52.3088258805926 -1.55966561147644,52.3087155924049 -1.55929112810986,52.30861434307 -1.55888107259296,52.3085516971136 -1.55842075860289,52.3085329037345 -1.55754362383323,52.3085359187009 -1.55656208653533,52.3085672973224 -1.55605283264481,52.308593250105 -1.55561407062373,52.3086203644981 -1.5552032535951,52.3086341002197 -1.55470442208169,52.3086457061315 -1.55361068573245,52.3086020378061 -1.55239695107581,52.3085381327475 -1.55137823573841,52.3084785502951 -1.55083013663731,52.3084351280592 -1.55048008301942,52.3083834674933 -1.55030690246334,52.3083962920397 -1.55011091356155,52.3084881223902 -1.54996915188494,52.3085747660396 -1.54950628802556,52.3090935853235 -1.54898837042874,52.3092569906925 -1.54864106870194,52.3093743972381 -1.54813854126044,52.30960535704 -1.54792591620968,52.3097384647135 -1.54781742941726,52.3098818574288 -1.54764497368176,52.3101077835717 -1.54730565080448,52.3104499134837 -1.54711292619472,52.310646999963 -1.54700508563664,52.3107265800968 -1.54681563580659,52.3108868276131 -1.54651736072046,52.3110807229706 -1.54632134051244,52.3111735367503 -1.54604022159267,52.3112740219103 -1.54576773582632,52.311381730988 -1.54554285723092,52.3115643104078 -1.54488236527658,52.312040918479 -1.54457366343498,52.3122474417965 -1.54422685602259,52.3124547157914 -1.54373637241428,52.3126496613488 -1.54346944625899,52.312791630307 -1.54318670044051,52.313036897348 -1.54299672968095,52.3132572666966 -1.54246022223471,52.3137856598455 -1.54199875935125,52.3142954662438 -1.54174414205625,52.314661277455 -1.54155377418123,52.3149185820015 -1.54141687064249,52.3151050003595 -1.54140272232853,52.3151984193446 -1.54138636086355,52.3153656207239 -1.54142416251516,52.315534829051 -1.54148250801557,52.3157058250961 -1.54152630296876,52.3158687650651 -1.54160544123227,52.3160173716947 -1.54171143887144,52.3161301302877 -1.54184077099946,52.316243968016 -1.5419883222471,52.3164440693531 -1.54220117884083,52.3167155176932 -1.54260487332785,52.3171190156599 -1.54280821667233,52.3173166351684 -1.54294205695972,52.317427792817 -1.54309327880049,52.3175542067421 -1.54327228366649,52.3176960068959 -1.54353562419935,52.3179056312823 -1.54386601562762,52.3181586549182 -1.5440352158306,52.3182545774074 -1.54424035196258,52.3182787359356 -1.54483167632771,52.3182702243463 -1.54495483395228,52.318279685394 -1.54509658536443,52.3183278658802 -1.54521159134343,52.3184128834425 -1.54551527755304,52.3186999536402 -1.54556461449162,52.3187603618889 -1.54590343845001,52.3190538573937 -1.54614550358674,52.3191931986368 -1.54630956694255,52.3192127018087 -1.54633300541633,52.3192154878323 -1.54641088060349,52.3192058993313 -1.5466092702069,52.3191805948076 -1.54688498156018,52.3191879415305 -1.54690189555368,52.3192491232946 -1.54687355390183,52.3193002460155 -1.54684736971109,52.3194242679224 -1.54690064943268,52.319513452015 -1.5470476732197,52.3196263626207 -1.54715949883414,52.3197392283613 -1.5472412429259,52.3197772899758 -1.54726905529883,52.3197899793251 -1.54741115318244,52.3198049035588 -1.54776737424794,52.3198413171778 -1.54785944568699,52.3198749234723 -1.5479179306033,52.3200352206931 -1.54806257713213,52.320096890688 -1.54819728946838,52.3201126839316 -1.54832263362163,52.3201931536048 -1.54837929746433,52.3202472970699 -1.54839534707727,52.320405635019 -1.54842695651729,52.3204731640879 -1.54853228716951,52.3204996307447 -1.54882742116055,52.320477386564 -1.54899653265943,52.3204411806458 -1.54942875989619,52.3203430606637 -1.55007043532381,52.3201431828117 -1.55027768442838,52.3201152086457 -1.55040360595439,52.3201390555874 -1.55053384535145,52.3201665131593 -1.55127653548742,52.3204192825078 -1.55172858722728,52.3205495214286 -1.55219253689623,52.3206637156872 -1.55238697214177,52.3207309615253 -1.55276543508382,52.3208779959265 -1.55295091433488,52.3209578790102 -1.55337332407412,52.3211257491371 -1.55369023845956,52.3212591561274 -1.55417430492073,52.321419167139 -1.55478446257921,52.3215869300547 -1.55566356324444,52.3218481852113 -1.55594991890335,52.3219661921215 -1.55621629348811,52.322171215556 -1.55646919195611,52.3224176220928 -1.55661872094732,52.3225737617512 -1.55691324013651,52.3229048089975 -1.55726667167286,52.3233574125103 -1.55748982117259,52.3236405554821 -1.55754194733264,52.3238601438308 -1.55752045917374,52.3240983315053 -1.55747315510003,52.3242806082681 -1.55729524314869,52.3247618714375 -1.55727870422759,52.3249523527504 -1.55726885901194,52.3251995716177 -1.55727325071547,52.3254989738809 -1.55714331133238,52.3257304644105 -1.55705987036501,52.3258604757526 -1.55694720133799,52.3259733911188 -1.55659356858606,52.3261203669322 -1.55635048522441,52.3262210192895 -1.556265539263,52.3260535264699 -1.55621776158664,52.3259922294912 -1.55621545208352,52.3259328111421 -1.55601133543882,52.3258026212357 -1.55582872413642,52.3257237409631 -1.55562079368406,52.3256726285163 -1.55540559588157,52.3256222975453 -1.55513778081164,52.325559275339 -1.55469414775001,52.3254641337069 -1.55426500135243,52.3253843242152 -1.55302137143966,52.325180013891 -1.55224902780288,52.3250997996957 -1.55149135773745,52.3250043558999 -1.55126709376063,52.3249900252888 -1.55083876312476,52.3249739308269 -1.54994131788225,52.3247763866405 -1.54954150756164,52.3247038630701 -1.54865330768357,52.3244667071646 -1.54801241466193,52.3242978979164 -1.54753817228117,52.3241819410557 -1.54640417075178,52.3238863071634 -1.54568199489708,52.3236237002586 -1.54520536904991,52.3234582917783 -1.54480140014322,52.3233685688467 -1.5443131143659,52.3233379298916 -1.5439118739268,52.3232653816508 -1.54348903667065,52.3231523025948 -1.54275198422381,52.3229156853707 -1.54201034561064,52.322702413734 -1.54177030397346,52.3226475578656 -1.54036757329108,52.3223768897793 -1.5400820540447,52.3223218539565 -1.53985342451195,52.3222984969612 -1.53944306413007,52.3222555575087 -1.53887251137412,52.3222389562644 -1.53809390458149,52.3221981730199 -1.53763797051261,52.3221640381804 -1.53720125505562,52.3221084049952 -1.53683070575829,52.3220529390735 -1.53639408456505,52.3219999994987 -1.53597518048879,52.3219300512613 -1.53554462223726,52.3218528652634 -1.53487118222461,52.3217162132507 -1.53482868812049,52.321707956737 -1.53432279443416,52.321547782572 -1.53389735295555,52.3213986179268 -1.53277647608869,52.3209860617275 -1.53239616426895,52.3208713134097 -1.53201608940305,52.3207456890428 -1.53163919408333,52.3205941016928 -1.53129259772542,52.3204829885069 -1.53084944587941,52.3203518081396 -1.53005365189029,52.3201445381797 -1.52963381011339,52.3200287250051 -1.52920992612542,52.3198723598821 -1.52917340922328,52.3198596316663 -1.52891957633322,52.3197282974721 -1.52872586790851,52.3195963038531 -1.52823380229287,52.3192319527753 -1.52773362874212,52.3188119325054 -1.52758264729653,52.3186666261576 -1.5272086697073,52.3185167434663 -1.52680194000227,52.3184099602503 -1.52641246726301,52.3183409946904 -1.52597881672041,52.318286141359 -1.52595263197358,52.3182689591629 -1.52577344969332,52.3181487027845 -1.52571951609559,52.3181134338825 -1.52570789947976,52.3174121528122 -1.52564904647398,52.3171583680257 -1.52559486517198,52.3170106597711 -1.52556148520017,52.3168406549368 -1.52552406972161,52.3166408844923 -1.52549918642207,52.316490687287 -1.52547030160193,52.3161830960525 -1.52542944946484,52.315886241792 -1.52541863029314,52.3158008133412 -1.52522945745052,52.3157901682611 -1.52511521797678,52.3157734428641 -1.52481079550242,52.3157048121308 -1.52443688983578,52.3155514155443 -1.52406312728221,52.3153961312452 -1.52362780583768,52.3152182181838 -1.52335647325758,52.3150759266879 -1.52315805222051,52.3149807549983 -1.523019257583,52.3149307628777 -1.52253240549381,52.3147768162351 -1.52147572204619,52.3144147422359 -1.52118484602221,52.3143138010909 -1.52080706700061,52.314532566271 -1.52021488315169,52.3148933687357 -1.51975330753333,52.3152546988752 -1.51912235283351,52.3158095667152 -1.51868529370426,52.3162060451036 -1.51843681925263,52.3163992630107 -1.51827072685537,52.3165576727456 -1.51801252160953,52.316432589715 -1.51741354633469,52.3162008693109 -1.51709365279869,52.31607643098 -1.5166759426168,52.3159047657212 -1.51635350254792,52.3157479582348 -1.51607470455827,52.3156155062536 -1.51577982145688,52.3154830777172 -1.51538253511517,52.3153249733349 -1.51488145050146,52.315135972755 -1.51389814949056,52.3147812325052 -1.51333711392236,52.3145677119356 -1.51262331231236,52.3142564006631 -1.51207432732319,52.3140149720837 -1.51108022805964,52.3135793611171 -1.51044518392152,52.3133016171965 -1.5099210069893,52.3130827498351 -1.50922409946238,52.312822717692 -1.50853880020927,52.3125852902443 -1.50819834722309,52.312465146081 -1.50865493666108,52.3121667559373 -1.50950898710184,52.311600283379 -1.51017687298058,52.311156259269 -1.51051208064881,52.3109508340505 -1.51153984320381,52.3103320370456 -1.5119079566258,52.3100693116772 -1.51223635386298,52.3098108241883 -1.51297400013406,52.3092977764356 -1.51295082288643,52.3092608299533 -1.51288466802953,52.3091509052196 -1.51255710387101,52.3083862127247 -1.5123657114739,52.3080518832677 -1.51219662467783,52.3078228027107 -1.51202303752105,52.3076072762778 -1.51179981918148,52.3073635915765 -1.51172250935082,52.3073228270704 -1.51168650092375,52.3072651555006 -1.5116406219537,52.3071705030353 -1.5114529618472,52.3067615868679 -1.51129052883443,52.3064561355859 -1.5112423233181,52.3061772211619 -1.51116256825698,52.3060951015505 -1.51110250122365,52.3059491587622 -1.51106256839989,52.3058528232974 -1.51105829163269,52.3058348300217 -1.51101767835172,52.3056683856104 -1.511014764052,52.3056583968099 -1.51101659329966,52.3056350353641 -1.51100134573695,52.3052843536515 -1.51100566612527,52.3050236317167 -1.51100596276779,52.3049966686338 -1.51096751957073,52.3047538363599 -1.5109204496854,52.3046358096021 -1.51086336864073,52.3044935641781 -1.51085174813023,52.3044836301825 -1.51061501306733,52.3042722438309 -1.51037697821924,52.3040473694376 -1.51016979629975,52.3038209149724 -1.51013931950985,52.3037884319689 -1.50978724966756,52.3034003128183 -1.50973814366422,52.3033246106739 -1.50968963678431,52.3032057691486 -1.50965160376041,52.3030581195759 -1.50955048336221,52.3027870735949 -1.50943100544452,52.3024593273691 -1.50932322688845,52.3021235407515 -1.5092791791749,52.3017322934052 -1.50923937837196,52.301613486848 -1.50922855499768,52.3015315617841 -1.50921108715239,52.3013831890662 -1.50918440607458,52.3010180780562 -1.50918307217373,52.3009965015909 -1.50910805079074,52.3007606164489 -1.50898560829564,52.3004283629151 -1.50892172728343,52.3002347673274 -1.50889266395478,52.3002058850841 -1.50769378677198,52.3005488249264 -1.50747623402404,52.3005955555631 -1.50697872351616,52.3007553564084 -1.50672319045912,52.3005196152957 -1.50642017518485,52.3002153680487 -1.50625390637893,52.2999989626881 -1.50608196440993,52.2997707603011 -1.50566964429905,52.2993914538267 -1.50556097157997,52.2992695726828 -1.50555954132029,52.2992677685991 -1.50553746715541,52.2992739678996 -1.50502281471615,52.2993995349053 -1.50470382810641,52.299478192004 -1.50454784703831,52.2995224788322 -1.50426098924122,52.2996039664602 -1.50423745448555,52.2996110575504 -1.50426946499733,52.2996354589349 -1.50412529870028,52.2996717958469 -1.50386094463329,52.2997084367916 -1.5034961437062,52.2998075712818 -1.50328004079373,52.2998542994285 -1.50324912983547,52.2998613602467 -1.50318417945086,52.299776600795 -1.50317830542835,52.2997720826586 -1.5029614929536,52.2994924547038 -1.50290742870204,52.2994724546517 -1.50272584096058,52.2994492213891 -1.50265118380759,52.2994435140968 -1.50251189239017,52.2994330423751 -1.5023443294985,52.2993450637847 -1.5021411001726,52.299289382559 -1.50210367968246,52.299219118716 -1.50201511706746,52.2991486395663 -1.50187981590735,52.2990518990975 -1.50163518127556,52.2990229162158 -1.50148436573368,52.2990052032015 -1.50081442627628,52.298853177485 -1.50073717987963,52.2988088103732 -1.50081297578041,52.2987237446015 -1.50082831064673,52.2986608037036 -1.50077216269835,52.2985679911962 -1.50065316640853,52.2984623292437 -1.50041123726968,52.2983219047419 -1.50029478114957,52.2982486100706 -1.50029778392359,52.2982396349263 -1.50039107943834,52.2981573396245 -1.50052686233734,52.2980814253813 -1.5012751306349,52.2976512741219 -1.501609896507,52.2974909025364 -1.50178112640851,52.2973800828552 -1.50185072215851,52.2973192583409 -1.50223127955252,52.2969882161456 -1.50201877012278,52.2968551986212 -1.50172136392243,52.2967028584827 -1.50167077882328,52.2966316399569 -1.50155445625292,52.2965466631102 -1.50138828440479,52.2964541962927 -1.50106469749292,52.296286553317 -1.5006924145651,52.296138388609 -1.50039747360293,52.2960256926087 -1.50042266911413,52.2959997337014 -1.50017292433447,52.2959105962647 -1.49999938424544,52.2958288812658 -1.499669366877,52.2957070463744 -1.4992558880945,52.2955677805297 -1.49924600684134,52.2955433815282 -1.49922250330123,52.2955369904177 -1.4992225235278,52.2955351923963 -1.49919043659068,52.2955287649288 -1.49890380247416,52.2954520517013 -1.49863008351131,52.2954095466806 -1.49851274700022,52.2954153406945 -1.4984601499012,52.295405231627 -1.4980931165699,52.2953075025525 -1.49801575837103,52.2954132319327 -1.49792054780844,52.2955260760922 -1.49776453047339,52.2958418803906 -1.49766395125414,52.2960446707197 -1.49757633542162,52.2961485590204 -1.49748034931005,52.2962012699267 -1.4973049344023,52.2962859101469 -1.49719366115759,52.2964076732641 -1.49699748579404,52.2966388181132 -1.4968500475719,52.2967082963478 -1.49651845670863,52.2967257596969 -1.49622136036727,52.2966759598468 -1.49603714129428,52.2966194497399 -1.495959882811,52.2965876625671 -1.49570611919772,52.2964588610769 -1.49549886427315,52.2963761865209 -1.49536352261366,52.2962848306782 -1.49515857799203,52.296126576548 -1.49485103495736,52.2959643792924 -1.49454891861203,52.295707739952 -1.49441794218718,52.2956262885587 -1.49415905953136,52.2955658609217 -1.4939933457223,52.2955624547481 -1.4938785931383,52.2955961186909 -1.49356084801624,52.2958212541622 -1.49325926205131,52.2960285731524 -1.49318994799999,52.2962018339142 -1.49309470152376,52.296316471256 -1.49289431173083,52.2964063904033 -1.49273099353614,52.2964578206294 -1.49247310760358,52.2964369402619 -1.49226838129518,52.296387525972 -1.4921532401019,52.2963277110593 -1.49208934825874,52.2962690152303 -1.49190793394306,52.2962322835978 -1.49172250525362,52.2961658746465 -1.49151465445571,52.2961361294958 -1.49129952004523,52.2960983537628 -1.49114401987419,52.296100380958 -1.49093209419235,52.2961732604203 -1.49070319810079,52.2961866551376 -1.49048307617056,52.2961937965396 -1.4903939923555,52.2961709425978 -1.49035177902804,52.2961410100736 -1.49028918706542,52.2960958010765 -1.49033635098429,52.2959468036855 -1.49035227319493,52.2958444098387 -1.49023032937812,52.2957350393318 -1.49003728294576,52.2956901658774 -1.489877720727,52.2956670084648 -1.4898689159833,52.2956651723722 -1.48980081023581,52.295594772105 -1.48988115978524,52.2954934654315 -1.48990060042136,52.2954638886088 -1.48987786888522,52.295400874748 -1.48956181054023,52.2953401903371 -1.48932218126464,52.2952672520247 -1.48918892720928,52.295121880201 -1.48912283195607,52.295002953682 -1.48890415829156,52.294895051828 -1.48865287898763,52.294815680301 -1.4884752778441,52.2948265962384 -1.48832328182902,52.2949132115877 -1.48828458114683,52.2949669720759 -1.48828520467031,52.2950388784252 -1.48831853083472,52.2950740758635 -1.48834455423349,52.2951029501119 -1.48838024498873,52.2951848950906 -1.48840412378615,52.295274069492 -1.48830192489617,52.2953617094008 -1.48821078639887,52.2953810878648 -1.48820933628877,52.2953810815885 -1.48808770878016,52.2953814541484 -1.48802031209342,52.2953757698252 -1.48788607862618,52.2953158680537 -1.4878571058784,52.2952806893501 -1.48779361288226,52.2951985338777 -1.487697192257,52.2951621638925 -1.48754053980781,52.2951489019183 -1.48739313216412,52.2952148640068 -1.48720396836322,52.2953371791545 -1.48713754708604,52.2953728424599 -1.48704057360753,52.2953948918762 -1.48693917979448,52.2954124285609 -1.48672067589944,52.295415973747 -1.48654385983245,52.2953585818578 -1.48645351902311,52.2953087559398 -1.48632676529961,52.2952398970299 -1.48623239583873,52.2951621000463 -1.48616203972195,52.2950359627028 -1.48604410636257,52.2949572549132 -1.48603832379832,52.2949554325693 -1.48600627466872,52.2949355194601 -1.48554310082925,52.2947905069995 -1.48540843611183,52.2947683491096 -1.48529874494411,52.2947507950475 -1.48505689456789,52.2947452476744 -1.48491164295906,52.2947500084473 -1.48479898072741,52.2947279457077 -1.48476388501887,52.2947206030591 -1.48474966233159,52.2946854878587 -1.48473549844321,52.2943842393343 -1.48473414200858,52.2943761437324 -1.48468243692918,52.2942788484168 -1.48467361186196,52.2942788099582 -1.4846077384944,52.2942776247133 -1.48457222543234,52.2943062306755 -1.48455306275983,52.2943115405755 -1.48438392334298,52.2943539452108 -1.48429038342333,52.2943301681833 -1.48416188372702,52.2942873647331 -1.48407053729217,52.2943247157192 -1.48401297136196,52.2943577196683 -1.48389932057416,52.2944210385816 -1.48378997052548,52.2944888696346 -1.48372667387893,52.2945155577439 -1.48351814142758,52.294535319082 -1.48334262167452,52.2945021953657 -1.48314406763593,52.294433019319 -1.48296626793143,52.2943360710844 -1.48287903322925,52.2942691784737 -1.48281255892522,52.2941843109961 -1.48275857432009,52.2940339759129 -1.48268269782593,52.2938843532791 -1.48261752869337,52.2938121644667 -1.48239562870743,52.2935989876935 -1.48231918343657,52.2934881007873 -1.48236210705833,52.2932068746804 -1.4822972530086,52.2931077235057 -1.48219059270256,52.2930793938772 -1.48212478771764,52.2930620281501 -1.48205759549402,52.2930392637792 -1.48193367394476,52.292977513265 -1.48183944145812,52.2928890181744 -1.48182688238699,52.2928359341885 -1.48181908291319,52.2927478178091 -1.48186217898914,52.2927012692917 -1.48195320350888,52.2926809952463 -1.4821040686505,52.2927023289708 -1.48224909954727,52.2927056603554 -1.48251808098787,52.2926537189518 -1.48286466972802,52.2926022062746 -1.4829559614332,52.292569349456 -1.48302855557839,52.2925121444351 -1.48302548104447,52.2923916918137 -1.48307897649489,52.2923343124551 -1.48319919783604,52.2923294454212 -1.48335442579293,52.2923498975648 -1.48352299546322,52.2923560264986 -1.48352592823173,52.2923533430431 -1.48353620292607,52.2923533879204 -1.48363811381202,52.2922909171406 -1.48379890991878,52.292081300621 -1.48387191486266,52.2919781681351 -1.48388106007442,52.2918254124427 -1.48385893780871,52.2917002937741 -1.48376738628478,52.2915057547433 -1.48373625720156,52.2912817289352 -1.48358157118646,52.2911003064195 -1.4833717814399,52.2908549182487 -1.48325623038338,52.2907078194787 -1.48307897911426,52.2904400131233 -1.48285162537154,52.2901981426769 -1.48270355324555,52.2900724730639 -1.48244435540561,52.2899185435752 -1.48222987890668,52.2898276359245 -1.4818443693701,52.2896938249602 -1.48167224284045,52.2896202683411 -1.48152877193401,52.2895980686069 -1.48062157414868,52.2895752138272 -1.48047336444525,52.2895862478885 -1.47988106225036,52.2897085767944 -1.47976072760725,52.2897134400714 -1.47963571438738,52.2897461450971 -1.47941662823258,52.2898018049719 -1.47918626842044,52.2898187673372 -1.47903888549416,52.2898829208596 -1.47885992724258,52.2900214455896 -1.47873342039641,52.2900577383404 -1.47858959144093,52.2900660921478 -1.47856467081725,52.29006778038 -1.4782383717085,52.2900088183884 -1.47810933207168,52.290013641557 -1.47801044620797,52.2900653356353 -1.47791245709854,52.2901746455444 -1.47784923737639,52.2903082860937 -1.47777658560813,52.2905039921474 -1.47758369861363,52.290829491383 -1.47749774836286,52.2910250476498 -1.4774487727112,52.2910779497437 -1.47728172033687,52.2912003460587 -1.47729228301257,52.2912992602198 -1.47732950885323,52.2914954506109 -1.47728495885464,52.2915419907309 -1.47727162450711,52.2915554139191 -1.47723302915812,52.2915992840923 -1.4772285243677,52.2916019604237 -1.4771766262126,52.2916565576495 -1.47711496560606,52.2916571831604 -1.47693616078811,52.2916581904719 -1.47682233617385,52.2917359715575 -1.47679249593908,52.2917753859651 -1.47672996298794,52.2918604945689 -1.47667223621168,52.2920302005623 -1.47658782906671,52.2921044265725 -1.47646422657721,52.2921398316955 -1.47639385029671,52.2921413172867 -1.47626468390339,52.2921461386724 -1.476031684135,52.2921397129814 -1.47590976537029,52.2921553511632 -1.47565267820267,52.292202746897 -1.47549229954142,52.2922505701968 -1.47525465561129,52.2923817290944 -1.47520107001504,52.2924560912968 -1.47529353111712,52.2925706492943 -1.47527826775199,52.2926245095989 -1.47523099934212,52.2926450617151 -1.47515883310352,52.2926753012079 -1.47511178270919,52.2926876755378 -1.4749605218226,52.2927103722363 -1.47486753009507,52.2927638873252 -1.47451335468061,52.2928324204087 -1.4744853879258,52.2928358905421 -1.47425385753492,52.2928276715738 -1.47407945741305,52.2929465261212 -1.47390337371053,52.2930850559406 -1.47371025934702,52.293293707042 -1.47350495782865,52.2934186248861 -1.47333034177718,52.2935553631765 -1.47302512659563,52.2938174409418 -1.47282334030636,52.2939002192645 -1.47273557180499,52.2940022914704 -1.4727223973138,52.2941244691832 -1.47272397232054,52.2943690390227 -1.4726882212535,52.2945397405551 -1.47271035302879,52.2946512906293 -1.47269301508103,52.2947473843521 -1.47261695067177,52.2948612826812 -1.47255409420906,52.2949625667934 -1.47254568911359,52.295059599391 -1.47256246314982,52.2951234882482 -1.47266436322686,52.2951860503499 -1.47277992220207,52.2952081366641 -1.47288710623184,52.295202322915 -1.47316134973561,52.2950758253113 -1.47322011942106,52.2950644030158 -1.47326996962114,52.2950610297591 -1.4733561241053,52.2950955677015 -1.47369413816273,52.2952706307163 -1.47389468466905,52.2954261165543 -1.47411300321049,52.2955610981158 -1.47429918912624,52.295694049303 -1.47440410186117,52.2957475446204 -1.47464525500541,52.2958125210674 -1.47481763131596,52.2958762026227 -1.47503501608349,52.2959679463526 -1.47530504575906,52.2960653158118 -1.47557203224003,52.2961852320322 -1.47574280773278,52.2962516013889 -1.47624495723417,52.2964426639975 -1.47648893904828,52.2965246359159 -1.47664679342866,52.2965693757308 -1.47671656383789,52.2966200171685 -1.47673407755592,52.2968682526205 -1.47675858752061,52.297035537575 -1.47677955419774,52.2971238015244 -1.47685806961936,52.2973048076078 -1.47690233165977,52.2974066577036 -1.4769095623088,52.2975424073573 -1.47688167111698,52.2976627231151 -1.47678659521499,52.2977693493145 -1.47668544803788,52.2978884418307 -1.47666932886864,52.2980151911163 -1.47667994542015,52.2981096109413 -1.47676414204682,52.2983114040557 -1.47677721841914,52.2984435851433 -1.47674904352301,52.2985980537746 -1.47666482250801,52.2987685427716 -1.47667281483005,52.2989628080323 -1.47676400398301,52.299187012213 -1.47684119695812,52.2993573154336 -1.47686718146258,52.2995228096029 -1.47691735525592,52.2996156970545 -1.47700347179938,52.2997778618256 -1.47711952255067,52.2998827255086 -1.47721481497015,52.3000152690917 -1.4772210239641,52.300104277719 -1.47706839659748,52.3002412085418 -1.4770213631076,52.3003749218513 -1.47697990412147,52.3005384095217 -1.47697157751334,52.3006192642017 -1.47698150703434,52.3006489679148 -1.4770235476831,52.3006931949042 -1.47707143471903,52.3007338524121 -1.47723935049268,52.3007984096479 -1.47771734683075,52.3009300384444 -1.47793441758017,52.3009274015804 -1.47800811939766,52.3008908764808 -1.47810243909986,52.3008490488989 -1.47820966200957,52.3007173089232 -1.47829388216416,52.3006601580999 -1.47849853117562,52.3005927514818 -1.47869500347939,52.3005936177045 -1.47877274657941,52.3005939603741 -1.47894663525852,52.3006441611349 -1.47917862233905,52.3007512408451 -1.47939528059466,52.3009077761154 -1.47949230112369,52.3010070712519 -1.47960622344955,52.3013051639962 -1.47974223919745,52.3014613446299 -1.4799250768653,52.3016257298986 -1.48008639333434,52.3017486754728 -1.48021323740354,52.3018104406348 -1.48036054367248,52.3018802953522 -1.4804431643226,52.3019705376722 -1.48048563229562,52.3021029373067 -1.48048227672268,52.3022557185745 -1.48047696050322,52.3024625081796 -1.48044186569198,52.3027032312082 -1.48043855566213,52.3028623941436 -1.48035021348678,52.3030238788405 -1.48025497327516,52.303134012467 -1.4801942599753,52.3031867745186 -1.48011442148811,52.3032412496752 -1.48003173310264,52.303291218777 -1.47985949440309,52.3033471754862 -1.47965399233577,52.3033624499593 -1.47934421647077,52.3033916454233 -1.47920379946695,52.3033631645835 -1.47895545503801,52.3032783930669 -1.47883689159918,52.3032527043314 -1.47877392688729,52.3032497305814 -1.47854182999967,52.3032747727994 -1.47829912178609,52.3033385052824 -1.4782268468654,52.3033768349563 -1.47801425076031,52.3034918414772 -1.47796130999431,52.3035104825338 -1.47774625333156,52.303587728241 -1.47748940243824,52.3037331871208 -1.47743766610547,52.3037626192117 -1.47723839760731,52.3038749869598 -1.47707442035413,52.3039786115888 -1.476835003239,52.3041321459063 -1.47679812345898,52.3041526555963 -1.47668468044384,52.3041952956597 -1.47648057237338,52.3042150642536 -1.47627688722237,52.3041988830086 -1.47606426026227,52.3041925486918 -1.47593356840931,52.3042108443595 -1.47584198334703,52.3042662535329 -1.47571295451454,52.3043897159407 -1.47563206038762,52.3044100292355 -1.47549943687951,52.3044588746931 -1.47542076524473,52.3045367209522 -1.47541172919817,52.3046877686367 -1.47544461798236,52.304759818131 -1.4754894467331,52.3048139448921 -1.47556630225607,52.3048798977608 -1.47562215008255,52.3049943827474 -1.47561690767693,52.3050698584272 -1.47559452982225,52.3051012170869 -1.47548839644019,52.3051492809342 -1.47548175007519,52.3052104599232 -1.4755588112744,52.3052692230733 -1.47564932951667,52.3053046776378 -1.47590311855749,52.3055539602424 -1.47598030408789,52.3055920517267 -1.47605120355308,52.305681346975 -1.47611060371124,52.3058641557337 -1.47638218699734,52.3062150794667 -1.47653200637586,52.3063289910523 -1.47674667179048,52.3065331594318 -1.47710560228816,52.306809868029 -1.47718429990044,52.3068533579213 -1.47755625162441,52.3071543908325 -1.47763201207249,52.3073245979871 -1.47789119980369,52.307486717069 -1.47797243281578,52.3075616754913 -1.47827747678452,52.307814774406 -1.47825431953622,52.3079126411652 -1.47821719484801,52.3079538212365 -1.47813445330253,52.3080073840626 -1.47788025891539,52.3081717310556 -1.47786678756877,52.3081860519361 -1.47782969391943,52.3082245366605 -1.47784622103479,52.3083207804342 -1.47774966827039,52.3084175138753 -1.47775017991298,52.3084975093769 -1.47770145041853,52.3085278529981 -1.47744291944001,52.3086903817837 -1.47742935841135,52.3087226778826 -1.4772518187742,52.3088468265119 -1.47715967597387,52.3089488814969 -1.47715907284325,52.3090002003319 -1.47728457899585,52.3090537839036 -1.47779866430707,52.3092403075705 -1.47825565218504,52.3094284651222 -1.47862770421837,52.3095891922189 -1.47902045810502,52.3097483020265 -1.47933172975445,52.3098431472113 -1.4797121493659,52.3100543310322 -1.48010072091503,52.3101890608025 -1.48070188306483,52.3104605318891 -1.48101254359769,52.3106084886109 -1.48140992229565,52.3107459498423 -1.48179812707353,52.3109131191567 -1.48204966012077,52.3109879225268 -1.48259510054229,52.3111233309017 -1.48296803436931,52.3112212232353 -1.48330445198657,52.3113080790375 -1.48379448906103,52.3114243651085 -1.4837327451307,52.3115652961609 -1.48358048606747,52.3119188460827 -1.48340362416428,52.3124952800754 -1.48330088428919,52.3127500881795 -1.48319506262439,52.3128953207197 -1.4830536196171,52.3130771578928 -1.48287401888422,52.3132535254622 -1.48264108066696,52.3134817891575 -1.48259730787882,52.3135849589171 -1.48262931316274,52.313734388191 -1.48275693162177,52.3139929003521 -1.48296685248641,52.3142257967735 -1.48314168183445,52.3144603375703 -1.48321298980289,52.3146314194274 -1.48326016545345,52.3147350766574 -1.4832774269471,52.3147693061221 -1.48338693321992,52.314942353734 -1.48345817933231,52.314993985431 -1.48379543185266,52.3151365683386 -1.48404963631057,52.315223063058 -1.48440474075214,52.3153388485496 -1.48440002233668,52.3153702857753 -1.48439313751416,52.3154529441787 -1.48426240899371,52.3155970800833 -1.4840983605769,52.3155792880946 -1.4839649922255,52.3156902461663 -1.48385180003717,52.3158344581219 -1.48375309952348,52.3160012931032 -1.48375723643654,52.3161451179479 -1.48379833908049,52.3162721174531 -1.48380419244919,52.3162784345562 -1.48410299193008,52.3163165884792 -1.48413105229364,52.3164209710936 -1.48413562495142,52.3165378343793 -1.48409728649842,52.3166833610474 -1.48397338452396,52.3169893995799 -1.48391191892483,52.3173559290871 -1.4838597175947,52.3175598174777 -1.48368643594585,52.3175761377993 -1.48367282794487,52.3176021437001 -1.48366522651923,52.3176317711268 -1.48367985266163,52.317757666222 -1.48370673793484,52.3178486516102 -1.4836876818369,52.3179690062652 -1.48361323589111,52.3183175033497 -1.4836249697673,52.3184425766641 -1.48365372460855,52.3184975290434 -1.48368975912565,52.3185507150886 -1.48379693095395,52.3186653300068 -1.48423320801042,52.319502482381 -1.48398703846396,52.3196074662001 -1.48390734173687,52.3196475641136 -1.48388304994832,52.319718553293 -1.48392469051691,52.3199245583618 -1.48401887297738,52.3202728921438 -1.48409643073721,52.3205528452189 -1.48415092302789,52.3207877576763 -1.48414132121919,52.3208542266974 -1.4840508927052,52.3209329263032 -1.48379587141199,52.3210388600533 -1.48368007763798,52.3216560053674 -1.48368005676213,52.3216578033781 -1.4835843523803,52.3220655277138 -1.48356215847443,52.3222057321954 -1.48357960242503,52.3224745481268 -1.48364852197843,52.3224775452537 -1.48361328930952,52.3227300417952 -1.4836053842662,52.3227857331471 -1.48323363625799,52.3227023194005 -1.48231047531152,52.3224752920257 -1.48186226050139,52.3224140092403 -1.48185478805435,52.322422065268 -1.48182580184389,52.3225217940685 -1.48181151701788,52.3226161048538 -1.48179158888107,52.3229351787799 -1.48178259221397,52.3230843395339 -1.48182635678162,52.3232320232296 -1.48182125208311,52.323285928626 -1.48178572242418,52.3234385675392 -1.48182359796387,52.3235934160337 -1.48176625965341,52.3237279837758 -1.48172539156415,52.3239543906484 -1.48156740405096,52.3245452843764 -1.48138702086613,52.3250435035275 -1.48137218913016,52.3251845489604 -1.48141835136041,52.3252512622001 -1.4819369512738,52.3251924163052 -1.48249415483456,52.325101381106 -1.48382504622822,52.3248410638369 -1.48400564105546,52.3248328630594 -1.48438371589261,52.324873160071 -1.48450242364885,52.3248916530718 -1.4851339678899,52.3250868349872 -1.48547295758388,52.3252114442939 -1.48550964254521,52.3252089075503 -1.4858153189461,52.3252956216869 -1.48598032360825,52.3253593430907 -1.48613482355377,52.3254525901857 -1.4862726988947,52.3255817160894 -1.48642778992146,52.3257496547877 -1.4866157727247,52.3259923354999 -1.4869297773808,52.3263748745228 -1.4870018331876,52.3264839413108 -1.48700404195369,52.3265441701139 -1.48698752685128,52.3265809487599 -1.48689398935358,52.3266768035662 -1.48681272860871,52.3267258854492 -1.48654036278903,52.3269279207087 -1.48649449214014,52.3269609766265 -1.48646321905027,52.3272593298503 -1.48634124390487,52.3279106050692 -1.48622063876254,52.3280556853343 -1.4861779303975,52.3283279244856 -1.48613236217616,52.3285857691081 -1.48608650251768,52.3288687795319 -1.4860323593115,52.3291148138269 -1.48587221195679,52.3295088675068 -1.48586375362375,52.3297380227023 -1.48588793350832,52.3299278630735 -1.4858759821413,52.3301975385137 -1.4858348680242,52.3304572004364 -1.48573391296641,52.330806482135 -1.48576829846888,52.3308776357085 -1.48576716521201,52.3309755992676 -1.48545353221153,52.3313222485227 -1.48519159254432,52.3315197429767 -1.48498132675283,52.3316744089125 -1.48484445631972,52.3317079682927 -1.48469606578863,52.3317226014331 -1.48453472615749,52.331716505082 -1.484408917948,52.331682701851 -1.48400971538747,52.3316854555059 -1.48371011166069,52.3317075163092 -1.4836808527334,52.3317055914012 -1.48357665292346,52.3316970468883 -1.48333746362445,52.3316951042482 -1.48328460770347,52.3317038611677 -1.48327861657741,52.3317092274944 -1.48323401165541,52.331757567813 -1.48310728474611,52.3318028521425 -1.48301749580537,52.3318348165358 -1.48273769671572,52.3320368099346 -1.4827021849184,52.3320627198756 -1.48263263343442,52.3321127480655 -1.48235804209469,52.3322518478714 -1.48234914668676,52.3322572014411 -1.48191413515188,52.3324458414408 -1.48175773041498,52.3325143633147 -1.48148086921544,52.3325986244149 -1.48086375481979,52.3327864621466 -1.48073574970867,52.3328164589759 -1.48044327033145,52.3328493286585 -1.48011721651024,52.3328767474683 -1.47995581027096,52.3328760379684 -1.47982078045396,52.332875444243 -1.47970944487351,52.3328559900429 -1.4796261960973,52.3328250651634 -1.47945980863566,52.3327434411268 -1.47924241532436,52.3326364270294 -1.47906670159619,52.3325970050003 -1.47886583592167,52.3325871324324 -1.47865721100163,52.3326095821042 -1.47857483057667,52.332618206785 -1.4784485920789,52.3326212455413 -1.47829144108556,52.3326394271672 -1.47815748500108,52.3326711930551 -1.47789841407019,52.3327338634509 -1.47785874255488,52.3327426761348 -1.477642243579,52.3329305565511 -1.47753932366788,52.3330703141134 -1.47750104120921,52.3330845253085 -1.47736245300576,52.3331396379158 -1.47722844995098,52.3331750877428 -1.47718251248528,52.3332126339855 -1.47714750704924,52.3333185364822 -1.47708217094261,52.3333901509121 -1.47683979095915,52.333524886814 -1.47653834045696,52.3337024126838 -1.47628562416339,52.3338514818695 -1.47615945538379,52.3339713614643 -1.47612807614049,52.3340260482423 -1.47613040595162,52.3341978180815 -1.47618785919093,52.3344255559145 -1.47619160378211,52.3344875888216 -1.47620514225744,52.3347042581786 -1.4761845502699,52.3348291885937 -1.47613438054038,52.3349790642647 -1.47605369351379,52.3351001332169 -1.47590300533662,52.3354312098603 -1.47581857571449,52.3356231762699 -1.47568824567789,52.3357260494365 -1.47545227005056,52.3359523977013 -1.47530692111206,52.3360767747175 -1.47514034646166,52.3361335586753 -1.47502823368386,52.3361896850472 -1.47495726358624,52.3362253212146 -1.47493682491612,52.3362243323529 -1.47487369353371,52.3362213558901 -1.47483558812844,52.3362202876892 -1.47452766403402,52.3360733159227 -1.47401003998449,52.3356600885428 -1.47358765108343,52.3353903697422 -1.4735532612115,52.33532091986 -1.47354881712587,52.3353182038366 -1.47337080461294,52.3352374195639 -1.47307685335434,52.3353925899413 -1.47257845972772,52.3355934954023 -1.47241030294927,52.3356611433668 -1.47229939101096,52.3357280584141 -1.47226652887671,52.3357746488517 -1.47209037307975,52.3360265134749 -1.47178672686754,52.3363856630105 -1.47177277898321,52.336449415191 -1.47162787084222,52.3364137150685 -1.47129706951024,52.3362171094288 -1.47096447603712,52.3360493461851 -1.47057319683454,52.3358713426057 -1.47009483223596,52.3356192471997 -1.46960630368619,52.3353573063881 -1.46948689905218,52.3352838787551 -1.46951107137777,52.3352255660525 -1.46924716806699,52.3350724861311 -1.46820416237236,52.3352790181271 -1.46814373469374,52.3353030135929 -1.46808039070149,52.3353279848744 -1.4680039966428,52.3353312366399 -1.46794674193102,52.3353327772403 -1.46664167112409,52.3356055255401 -1.46651813345312,52.3356247421717 -1.46646811883782,52.3356380877571 -1.46630022195808,52.3356831693223 -1.46628861535153,52.3356723310632 -1.46628286068504,52.3356678116515 -1.4660167623144,52.335698068522 -1.46573397895603,52.3357875696102 -1.46544603157416,52.3358033453232 -1.46517168540423,52.3357949155886 -1.46487731228953,52.3357513406913 -1.46384738484789,52.3354724554486 -1.46351682756369,52.3353792798164 -1.46330650395083,52.3353001309553 -1.46317218463886,52.3352401113946 -1.46267594534493,52.3351291048614 -1.46206463109403,52.3349581620058 -1.46189903400871,52.3349331416986 -1.46171179826477,52.3348864517998 -1.46136448100951,52.3348390318987 -1.46120312104716,52.3348338036036 -1.46112805889111,52.3348469438369 -1.46104750571327,52.3348339937603 -1.46089438878061,52.3347577974619 -1.460728596827,52.3347489521214 -1.4602592843443,52.3347234436004 -1.46009377676423,52.3347011165181 -1.45999674730443,52.3347096623189 -1.45992468922229,52.3347246127017 -1.45980993908274,52.334747456842 -1.45969841139443,52.3347442512423 -1.45966919524852,52.3347387252944 -1.4595081652395,52.3347065318941 -1.4593509553758,52.3347183965788 -1.45924058393485,52.3347394629788 -1.45917570741984,52.3347607372838 -1.45901219794508,52.3348130182618 -1.45889287260835,52.3348538170852 -1.4587948508738,52.3348246071658 -1.4587161438699,52.3347793080478 -1.45850580981066,52.3347019477685 -1.45834275407278,52.3345878634558 -1.45830489136914,52.3345670182279 -1.45824641456329,52.3345496729819 -1.45817220666974,52.334492709154 -1.45807487640398,52.3344167647021 -1.4579274210109,52.3343531735805 -1.45767873609705,52.3342854330142 -1.45749290409067,52.3342432363 -1.45727928675695,52.3341874305658 -1.45713163566693,52.3341400159487 -1.45703800474464,52.3341180153149 -1.45695669639102,52.3341670754314 -1.45697901628409,52.334261551148 -1.45697197732749,52.3343523866929 -1.45696481965182,52.3344629054859 -1.45707983469367,52.3345371339236 -1.457039235576,52.3346115480279 -1.45704067745756,52.3346124527968 -1.45711077986362,52.3346488165496 -1.4571086687261,52.3346928477091 -1.45705990721988,52.3347222835612 -1.45695695883976,52.3347397874988 -1.45692415836795,52.3347800824652 -1.45686529740591,52.3347941925206 -1.45679176331053,52.3348109323162 -1.4568231689263,52.3348847770261 -1.45681333512374,52.3349666119197 -1.45679842171178,52.3351076537752 -1.45678496924008,52.3351291628982 -1.45678330814579,52.3351363458691 -1.45675057262587,52.3351811354326 -1.45671179879235,52.3352249982048 -1.45646329742721,52.3353893240198 -1.45638580313318,52.3354824421056 -1.45622637828285,52.3356750400817 -1.45605975967773,52.3357434810793 -1.4558650447384,52.3358234766525 -1.45582767762597,52.3358808277496 -1.45576456741222,52.3359947733432 -1.45539646255503,52.3362115761134 -1.4552926177998,52.3363018759079 -1.4551541432394,52.3364630203447 -1.45515263669476,52.336467507754 -1.45512131780657,52.3365051127869 -1.45513881828579,52.3365187645479 -1.45523324372444,52.3365946980151 -1.45505721212025,52.3367098322303 -1.45499212980056,52.3368758987967 -1.45480271207179,52.3368786203458 -1.45477329761233,52.3368793838241 -1.45472151747969,52.3369177934885 -1.45452156762119,52.3370687669366 -1.45444899590143,52.3371151702506 -1.45441495914064,52.3371374823155 -1.4544318748546,52.3371987685138 -1.45448663902849,52.3374003505936 -1.45446844370202,52.3374434084662 -1.45446839956842,52.337447003561 -1.45446546204709,52.337449686263 -1.45442917801333,52.337536791444 -1.45427934853649,52.3375477852776 -1.45417034336083,52.3375751447938 -1.45390804057052,52.3376593195971 -1.45390343062903,52.3376799701569 -1.45392008041499,52.3377627361813 -1.45393115480146,52.3378168039844 -1.45380594858853,52.337970818365 -1.45366348053973,52.3381014738051 -1.4536117102726,52.338129098029 -1.45342304139898,52.3380706135569 -1.45325022149241,52.3380419524771 -1.45305733874078,52.3379718538025 -1.45281184573209,52.338125400815 -1.45262138338286,52.3382126012999 -1.45252702643782,52.3382490148769 -1.45246952386853,52.3382703196252 -1.45244414181414,52.3383070523715 -1.45232793900242,52.3384468155695 -1.45212653367371,52.3385968800575 -1.45179257301079,52.33877967571 -1.45156520616673,52.3388855780966 -1.45124046518966,52.3390270693871 -1.45104438669736,52.3390980628252 -1.45088821046836,52.3391521646392 -1.45079983690878,52.3391742242921 -1.45070709462174,52.3391971617417 -1.45024190319311,52.3393046531203 -1.45047120235627,52.3395224173247 -1.45061045821478,52.3396525803077 -1.45078729036592,52.3398367553552 -1.45083946401526,52.3398846337051 -1.45034869078864,52.3400442261898 -1.44978400221458,52.340250120891 -1.44948446066819,52.3403782423764 -1.44921581223274,52.3405037217001 -1.44889224483617,52.3406757715151 -1.4485814984969,52.3408774499281 -1.44813180744764,52.3406803148482 -1.44795769678835,52.3406381578332 -1.44779659728232,52.34084412869 -1.44750461683176,52.3413076202877 -1.44716682437399,52.3417950742465 -1.44678529652086,52.3423731904245 -1.4464864159921,52.342796201644 -1.44614039827489,52.3433591126167 -1.44601762706087,52.3435473738719 -1.44568577980035,52.3437885830538 -1.44466520027166,52.3444122310421 -1.44457196215696,52.3444738096462 -1.44438935581478,52.3446357230144 -1.44430002375851,52.3447332718023 -1.44421063509457,52.3448353137008 -1.44395567447774,52.34515956834 -1.44364269087787,52.3455356790609 -1.44376255265212,52.3455712948486 -1.44395745535078,52.3455974672475 -1.4446313354165,52.3457075891892 -1.44469532487885,52.3457591209698 -1.44472307214965,52.3457664418119 -1.44508464154787,52.3458508266944 -1.44524451743826,52.3458614634134 -1.44558786359221,52.3458738590013 -1.44577726263583,52.3458756455796 -1.44599623236659,52.3458550995365 -1.44643718523117,52.3458050343487 -1.44665482423663,52.3457745949248 -1.44709194194126,52.3456921526111 -1.44826682136284,52.3455276768294 -1.44848004382892,52.3455017077911 -1.44904994854432,52.345476500227 -1.44957237077426,52.3454834266234 -1.44992750906471,52.3455012569654 -1.45030829944308,52.3455686387036 -1.45035578133951,52.3455266157662 -1.45056528811514,52.3455563504995 -1.45107246368047,52.3457394524098 -1.45118507179086,52.3457750278869 -1.45140216214272,52.3457886179456 -1.45178914271278,52.3458353507884 -1.45212292382573,52.34590700302 -1.4523062046862,52.3459240300513 -1.45249546068433,52.3459375790634 -1.45300637122156,52.3459263704382 -1.45334686947692,52.3459343257509 -1.45380857192984,52.3459975764616 -1.45432982002164,52.3461006464478 -1.45472449453636,52.3462408791165 -1.4552860274958,52.3464152254328 -1.45580485048198,52.3466082463144 -1.45619918213479,52.3467772347763 -1.4562306155522,52.346968012408 -1.45626889568022,52.3471928864029 -1.45641520429513,52.3479569012855 -1.45658759678053,52.3489834819675 -1.45657405134751,52.349130911144 -1.45650207890157,52.3492555121291 -1.4564310189117,52.3493055179214 -1.45616781339068,52.3494580912448 -1.45590205423341,52.3495818009152 -1.45568237809623,52.3496589859502 -1.45547715785815,52.3497516054253 -1.45528026841028,52.3498855174791 -1.45507233594358,52.3500805854709 -1.45477571249125,52.3503218923558 -1.45456614855822,52.3505313330629 -1.45381479613343,52.3511023730521 -1.45360543271905,52.3512947364924 -1.45338185862299,52.3515597452323 -1.45314404320288,52.3518014096106 -1.45288125773513,52.3520357674765 -1.45236219690342,52.3524567857136 -1.45205409865322,52.352556113649 -1.4516161334418,52.352712270966 -1.45154396571337,52.3527335081908 -1.45143340155848,52.3527662504458 -1.4512537377832,52.3528166485016 -1.4507399844664,52.3529240064996 -1.45057063210479,52.3529627664774 -1.4504246080419,52.353014218548 -1.45028155385955,52.3530701776753 -1.45013089239698,52.3531441667207 -1.44998310214203,52.3532207752598 -1.44973171722647,52.3533634123945 -1.44939518651027,52.3535093379285 -1.44895963518051,52.3535864036226 -1.44864785880329,52.3536200039237 -1.44834527507852,52.3536347716777 -1.44824243570127,52.3536396845645 -1.44805105842048,52.3536774400587 -1.44807423033953,52.3537027142894 -1.44857387308014,52.3542651702588 -1.44971441125099,52.3554734207864 -1.45058864525992,52.3563702507308 -1.45084649647499,52.3566555555907 -1.45119987620187,52.3570482581028 -1.45129243356827,52.357043294947 -1.45157035572808,52.357017620236 -1.45202616957409,52.3569685005939 -1.45229668395627,52.35693470004 -1.4528365263664,52.3568553176882 -1.4530880011885,52.3568241235328 -1.45333073650771,52.3567946865635 -1.45351138982239,52.3567829379371 -1.45406822657537,52.3567585448941 -1.4542370815966,52.3567611209699 -1.45455253636065,52.3567742603314 -1.45470664336141,52.3567848564721 -1.4550847847717,52.3568396267792 -1.45562953608562,52.3569617628384 -1.45613898480161,52.3570899357386 -1.45639354951663,52.3571621102353 -1.45712639183675,52.3573875647309 -1.45756053955915,52.3575459445179 -1.45806587694024,52.3577739453285 -1.4586227343435,52.3579869003591 -1.45949612076233,52.3583747650575 -1.46020570884352,52.3585839165326 -1.46151300712587,52.3589144233676 -1.46197782902347,52.3587223099522 -1.46323616131627,52.3582479817782 -1.46366824203195,52.3580889677316 -1.46400132161815,52.3579871163338 -1.46491357144704,52.3580775285269 -1.46490141741835,52.3582320642321 -1.46490954939146,52.3584110494609 -1.46487563278017,52.3585529945372 -1.46487720537165,52.3586635526167 -1.46499395526291,52.3588411416326 -1.4650738045089,52.35903662806 -1.46509215196856,52.3591014240647 -1.46505440519251,52.3591894243451 -1.46479349226678,52.3592700342063 -1.46473826524236,52.3593416871636 -1.46473760359895,52.3593965095796 -1.46474282127638,52.3594558537976 -1.46483345954847,52.3596100457964 -1.46491881909014,52.3597200834567 -1.46498333614482,52.3598418006912 -1.46498668852161,52.3599352892802 -1.46489041774439,52.3599968699901 -1.46471798406564,52.3600491193528 -1.46465589339792,52.3600874856498 -1.46459811770285,52.3601295575084 -1.46454314037657,52.3601805398223 -1.46449260890572,52.3602342375561 -1.46441203989201,52.3603390312732 -1.4643052397138,52.3604303140765 -1.46418678055666,52.3605043767889 -1.46410594183188,52.3605112013301 -1.46402662048089,52.3605126393324 -1.46389923997418,52.3604833011492 -1.46384902716621,52.3603904093884 -1.46394872505772,52.3602758159168 -1.46395652224367,52.360241697508 -1.46395985176642,52.3602066598215 -1.46391874787031,52.3600814528011 -1.46378688388439,52.359942442456 -1.46361181690715,52.3598418842014 -1.46342728290563,52.3598032987183 -1.46327119034121,52.3598457323926 -1.46307347593686,52.3599158401731 -1.46295673314738,52.3599782254921 -1.46289840066745,52.3600660417894 -1.46291044368695,52.3601614569949 -1.46295347848909,52.3602470370549 -1.46314036425852,52.360341358389 -1.46320298421108,52.3603793914197 -1.46322226010669,52.3604874232859 -1.46319636258247,52.3605663990949 -1.46305922099523,52.36061341277 -1.46284221804646,52.3605863630481 -1.4626438641937,52.3605890579129 -1.46245352134149,52.3606699830617 -1.46229336256383,52.3607978716782 -1.46220070566407,52.3609304703352 -1.46219503989554,52.3610382991352 -1.46220878309137,52.361113050445 -1.46222700749898,52.3611877322089 -1.46227243585982,52.3613155666921 -1.46226669081964,52.3614198897608 -1.46222385742449,52.3614475573755 -1.46217647795306,52.3614707100039 -1.46203426189259,52.3614565825388 -1.46176199772551,52.3613834419857 -1.46168736214879,52.3613678224234 -1.46160915336051,52.3613971270034 -1.46155295900108,52.3614283288715 -1.46149675218432,52.3614604296993 -1.46141953708921,52.3615274867798 -1.46124730303523,52.3618117075209 -1.46112531954548,52.3619360840691 -1.46084360500981,52.3621622831866 -1.46076757934103,52.3622509168959 -1.46072227312993,52.3623523634302 -1.4607023901815,52.3624241755684 -1.4606867013751,52.3624996020849 -1.46068771606563,52.3626551860274 -1.4606781347234,52.3627261460549 -1.46066407457578,52.3627970865719 -1.46058614486951,52.3630421898435 -1.46056862104651,52.363158951346 -1.46059966778553,52.3632544542718 -1.46067984671964,52.3633024553937 -1.46084099038346,52.3633436347437 -1.46115991269003,52.3633145285671 -1.46126276120874,52.3633105024118 -1.46143145363311,52.3633283474011 -1.46163936996386,52.3633868148746 -1.46206340526161,52.3635361443175 -1.46221394227746,52.3635935408438 -1.46235706367841,52.3636633974814 -1.46242398610344,52.3638362689798 -1.46239809453351,52.3639045487165 -1.46230389837473,52.3639238934952 -1.46214612949522,52.3639735086906 -1.46200714140619,52.3640519702969 -1.46197006317618,52.3640841582961 -1.46193877390624,52.3641181697837 -1.46194007555726,52.3641406454614 -1.46194521307501,52.3643160215916 -1.46202659685589,52.3643846989189 -1.46214356388286,52.3644346642868 -1.46221023191956,52.3645087569743 -1.46224856015565,52.3646131903135 -1.46230526380671,52.3646601846004 -1.46241217960448,52.3646804437403 -1.46254246656755,52.3647205815304 -1.46268037632541,52.3647310943824 -1.46276476608351,52.3647916961472 -1.46281939652486,52.3648900016805 -1.46284478139426,52.3649835902631 -1.46283770412116,52.3650779305756 -1.46275332936994,52.3651360582104 -1.46251894848802,52.3652024034893 -1.46245266478616,52.3652263694467 -1.46243613550709,52.3652514603661 -1.46242371482884,52.3653071283766 -1.46242622886548,52.3653394963122 -1.46252200587334,52.3654396961061 -1.46281431676209,52.3656792906343 -1.46294288394949,52.3658516323316 -1.46300406444799,52.3660190830972 -1.46299850539804,52.3661081277407 -1.46297435200294,52.3661628444311 -1.46288593819565,52.3663143373021 -1.46288102220336,52.3663502667753 -1.46288057590655,52.3663871146711 -1.46294220203332,52.3665178074566 -1.46301889504751,52.3666143258524 -1.46317206772132,52.3666950118839 -1.46330860721579,52.3666992262471 -1.4634513733722,52.3666792017445 -1.46364911378524,52.3665992074557 -1.46371519465801,52.3666022030584 -1.46378944809812,52.3666501751318 -1.46383979875797,52.3667421683529 -1.46393268533984,52.3668315689424 -1.4640468076576,52.3668671383953 -1.4644151522798,52.3668885789574 -1.46450896286221,52.3669015863224 -1.46459838073267,52.366917269971 -1.46476209850774,52.3669773299432 -1.46490521139386,52.3670490703964 -1.46498344950176,52.367138403285 -1.46499846002045,52.3672292473218 -1.46498354927325,52.3673712765027 -1.46478974944942,52.3678576266761 -1.46449528461476,52.3680352413209 -1.46431234233432,52.3682231557658 -1.46420125154679,52.3684276640181 -1.46404832877451,52.3685662824384 -1.46384971190929,52.3687182646924 -1.46341723993978,52.3688915667915 -1.46322646087271,52.3689959492334 -1.46308144077447,52.369091460442 -1.46294762073955,52.3692221645934 -1.46279853321033,52.3692835045641 -1.46250828843782,52.3693612799835 -1.46230077441378,52.3693971875039 -1.4620850642474,52.3693800297365 -1.46183692365663,52.3693708136987 -1.46165176387502,52.3693807568924 -1.46153976899551,52.3694090086911 -1.46143077907999,52.3694390712228 -1.46125359660494,52.36951016732 -1.46103611589411,52.3696386916761 -1.46093548473742,52.3697083385343 -1.46084212970599,52.3697771194067 -1.46078255687627,52.3698362572579 -1.46072756450827,52.3698971232067 -1.4606326892619,52.3700908277216 -1.46058042675824,52.3701562902222 -1.46039885855199,52.370348699755 -1.4603728092727,52.3704393574744 -1.4605649449541,52.3705832286526 -1.46069345337677,52.3706413349968 -1.46075579274974,52.3707135208988 -1.46081440402924,52.3708433016957 -1.46086920408397,52.3710475734518 -1.46099125846597,52.3712783059241 -1.46117992580677,52.371468896422 -1.46143044143833,52.3716426007379 -1.46158206527095,52.3717323581748 -1.46172043874455,52.3718363462258 -1.46172189132871,52.3718363528264 -1.4620090503558,52.3720147165592 -1.46218800788114,52.3721576258524 -1.46242323419537,52.3723843759895 -1.46251196524799,52.3724476929251 -1.46259953850735,52.3724966236042 -1.46267109178437,52.3725284053237 -1.46274719016802,52.37255481521 -1.46287019037172,52.3725886272658 -1.46332455015396,52.3726715768483 -1.46379860787041,52.3726980799465 -1.4639246013418,52.3727247148589 -1.46399919393257,52.3727556104579 -1.4640546203737,52.3727891155032 -1.46408942653471,52.3728252243441 -1.46411234442143,52.372872963221 -1.46412210586877,52.3729170473559 -1.46410363401054,52.3729825742627 -1.46406926994308,52.3730301439379 -1.46401360334253,52.3732671682518 -1.46447743031373,52.373539886734 -1.46494015581189,52.3737739506926 -1.46533682799823,52.3740122089331 -1.46633235788727,52.374536277046 -1.46503433378777,52.3753449835565 -1.46469575144741,52.3755313877425 -1.46499156195853,52.3757286556521 -1.46518054583987,52.3758859842448 -1.46538535222148,52.3760873336845 -1.4663847122753,52.3771437559851 -1.46648265861637,52.3771873374656 -1.46654274404867,52.377196596305 -1.46660878554623,52.3772040829588 -1.46749698649407,52.3771208953972 -1.46804899708172,52.3770343053182 -1.47070926510022,52.376544607729 -1.47100830681801,52.3764730520106 -1.47132819248265,52.3763801081216 -1.47150365977608,52.3763215718365 -1.47167627458826,52.376258529273 -1.47193013933994,52.3761562122006 -1.47244494059617,52.3759778513412 -1.47310906658763,52.375718275274 -1.47427915357263,52.3752784890952 -1.47524717899898,52.3749024177953 -1.47535480442788,52.3748651457327 -1.47549787818653,52.3748208408773 -1.47591340806165,52.3747085343091 -1.47650830010072,52.3745861437694 -1.47695106958725,52.3745359687679 -1.4771612771626,52.3745189208045 -1.47732147382608,52.3745115386026 -1.4775564809587,52.3745071820458 -1.47963780541528,52.3743914056161 -1.48040989552119,52.3743183071523 -1.48067119855278,52.3747061023373 -1.48087783122389,52.3749947026478 -1.4811247078636,52.3753634694594 -1.48135193533128,52.3756629426802 -1.48154225350548,52.3759703421768 -1.48196217742398,52.3766131740275 -1.48227797499042,52.3771188484217 -1.48254575226165,52.377078673918 -1.48303444301045,52.376997219834 -1.48332730951847,52.3769553558174 -1.48392279710492,52.3769076180047 -1.48511192836326,52.3768452905422 -1.48539251720416,52.3768384193573 -1.48605504872224,52.3768367997938 -1.48660451510808,52.376830191909 -1.48685559757541,52.3768402672105 -1.48726931122004,52.3768843881149 -1.48727076396352,52.3768843943971 -1.48764965838726,52.3769022100888 -1.48887102334227,52.3769748880107 -1.49035994560095,52.3770262354005 -1.49164450079725,52.3770919667883 -1.49172972253739,52.3770959273025 -1.49347394301812,52.3771707977562 -1.49355637015168,52.3772925728174 -1.49443563364929,52.3773511488613 -1.49594041734275,52.3774258616457 -1.49608319534612,52.3772781730621 -1.49631477037661,52.3773213981653 -1.49697966707816,52.3773682598807 -1.49772113093531,52.3774028595772 -1.49830401880889,52.3774295943575 -1.49957525533207,52.377507764849 -1.50001875270409,52.3775222183094 -1.50084350770457,52.3775931902216 -1.50230827437188,52.3777062996251 -1.50364687638407,52.3778161668029 -1.50449893765669,52.377807147852</coordinates></LinearRing></outerBoundaryIs></Polygon>
  </Placemark>
