  <Placemark>
	<Style><LineStyle><color>ff0000ff</color></LineStyle><PolyStyle><fill>0</fill></PolyStyle></Style>
	<ExtendedData><SchemaData schemaUrl="#Wards__December_2019__Boundaries_EW_BFE">
		<SimpleData name="objectid">5723</SimpleData>
		<SimpleData name="wd19cd">E05011458</SimpleData>
		<SimpleData name="wd19nm">Walker</SimpleData>
		<SimpleData name="wd19nmw"></SimpleData>
		<SimpleData name="bng_e">428852</SimpleData>
		<SimpleData name="bng_n">563892</SimpleData>
		<SimpleData name="long">-1.55087</SimpleData>
		<SimpleData name="lat">54.968819</SimpleData>
		<SimpleData name="st_areashape">3185560.43102877</SimpleData>
		<SimpleData name="st_lengthshape">7183.63615053488</SimpleData>
	</SchemaData></ExtendedData>
      <Polygon><outerBoundaryIs><LinearRing><coordinates>-1.56547386180763,54.9645769484976 -1.56550224547061,54.9638320407978 -1.56426263013004,54.9635023200797 -1.56222646863979,54.9627330360132 -1.5615362083245,54.9624420914287 -1.56084623426992,54.9621259896056 -1.55967233642221,54.9615061965848 -1.55928115454682,54.9612935773902 -1.55860484051248,54.9608741997937 -1.55791423038079,54.9604799204494 -1.5577946326288,54.9604192061507 -1.55750256709748,54.9602815942479 -1.55747298236403,54.9602671133758 -1.55692328418894,54.959987431227 -1.55635460874657,54.9597247466451 -1.55620396578428,54.9596424468833 -1.55609367245697,54.9595908389711 -1.55593973046676,54.9595273924995 -1.55585573349652,54.9594965421972 -1.55559427483655,54.9594218326739 -1.55522520920862,54.9593207677159 -1.55503682393465,54.9592751613562 -1.55470023401654,54.9592065547569 -1.55447738475309,54.9591688165817 -1.55414693633464,54.9591155029573 -1.55388177614905,54.9590848858707 -1.55355858753576,54.9590738207798 -1.55309314359638,54.9590837928523 -1.55269058477162,54.9590544663154 -1.55238606512513,54.9590551442451 -1.55230630696402,54.9590602411307 -1.55222665683236,54.9590671356077 -1.55171288639512,54.9591964974042 -1.55126647025807,54.9593242200032 -1.55047965160558,54.9595747509234 -1.54999313927649,54.9597868576642 -1.54936413965309,54.9600396711641 -1.5486271711482,54.9603092401901 -1.54821014566381,54.9604434392925 -1.54799257283709,54.9604974337987 -1.54679317039282,54.9607688704911 -1.54555442358127,54.9610679981205 -1.54475145499589,54.9612374895885 -1.54449176398366,54.9612688613351 -1.54418110538896,54.9612641069388 -1.54355849438587,54.9612096722726 -1.54345088065989,54.961206574454 -1.54330239860355,54.9612078157159 -1.54313529478327,54.9612161733337 -1.5426256028856,54.9612645713336 -1.54246125525647,54.9612909054691 -1.54160394301933,54.9614252257565 -1.54061695397801,54.9615598603686 -1.54023348393195,54.961627589558 -1.5399861679626,54.9616797503356 -1.53967447394865,54.9617540370938 -1.53939731680094,54.9618257585376 -1.5392217100776,54.9618789973696 -1.5388470507866,54.9620088325545 -1.53860846761354,54.9621076487594 -1.53849542895382,54.962162021894 -1.53822666972801,54.9623093253131 -1.53752164578467,54.9627694026022 -1.53720823439907,54.9630027782572 -1.53699225088055,54.9631735464846 -1.53668144784604,54.9634482549112 -1.53653919683348,54.9635897466579 -1.53643332181363,54.9637034364523 -1.53621931076781,54.9639704266742 -1.53606212255553,54.964200799838 -1.53552528994903,54.9652348447808 -1.53542926040216,54.965576846341 -1.53541789987439,54.9656127381999 -1.53528874135691,54.9659797686707 -1.53500384921897,54.9675189347835 -1.53483615873891,54.9682435477982 -1.53467784525666,54.9690920815748 -1.53452689827608,54.9702606408311 -1.53452380826038,54.9707944391594 -1.53446993206549,54.9712650679633 -1.53434956003655,54.9720832914657 -1.53429191189683,54.9728792042165 -1.53427735650788,54.9730571149349 -1.53421664485116,54.9735835066952 -1.53415258805646,54.9741205747518 -1.53380660454037,54.9756675898434 -1.53356215089271,54.9768133331841 -1.53344761869624,54.9773943194157 -1.53503206656538,54.9775189538835 -1.53503361325362,54.9775189597788 -1.53518649845822,54.9775321195799 -1.5351849636746,54.9775312151064 -1.53519591235629,54.9775312568241 -1.53540199752763,54.9775446190476 -1.53558927727881,54.9775579093305 -1.53563304261259,54.9775607709157 -1.53589692521169,54.9775779459041 -1.53612477140273,54.9775922883149 -1.536156051743,54.97759420361 -1.53630433161316,54.9776046495158 -1.53652612848479,54.9776072896437 -1.53656992486707,54.9776074560318 -1.53673327590002,54.9775281212879 -1.53679589991087,54.977526562741 -1.5386069251136,54.9774965921361 -1.53954816767883,54.9774435512461 -1.54037283020426,54.9773334675738 -1.54156548606283,54.9771357322484 -1.54329487741661,54.976872618669 -1.54581339314336,54.9764588001091 -1.54794169739927,54.9761467963923 -1.54989807841677,54.9758278318158 -1.55183465459781,54.9754682476223 -1.55397611237505,54.9750879108391 -1.55415461945806,54.9750553232286 -1.55609885185412,54.9746975869915 -1.55804436637426,54.9743721650462 -1.55838411754064,54.9743060174837 -1.559299977326,54.9741268710451 -1.56244351965686,54.9739512362009 -1.56613272784109,54.9737452103884 -1.56685638549056,54.9737073544345 -1.56680773432106,54.9735840166067 -1.56677673476942,54.9734123183001 -1.56588722259231,54.9734702457406 -1.56581250079899,54.9731608520984 -1.56569716173992,54.9727002994714 -1.56560744637868,54.9723243740033 -1.56550088745474,54.9717785964777 -1.56530723700531,54.9707579028919 -1.56522598795583,54.9703263087252 -1.5653029440796,54.9702843594041 -1.56546336427572,54.9701824277791 -1.56561867044333,54.9701245866183 -1.56561729993645,54.9701084110272 -1.56567671932974,54.9701041312832 -1.56574886571965,54.9700783352698 -1.5658225665265,54.9700516470228 -1.56581964953542,54.9700354659299 -1.56587274855654,54.9700320613188 -1.56590393491854,54.9700303759545 -1.56586546423667,54.9699790319485 -1.56582854816504,54.9699267957387 -1.56581927223813,54.9699150833277 -1.5657901158185,54.9698717683898 -1.56578239598488,54.9698591637909 -1.56576096974224,54.9698276447208 -1.56572561815549,54.9697736168009 -1.56570092051659,54.9697348997889 -1.56568862124324,54.969716888043 -1.56565177345031,54.9696583634572 -1.56562261800479,54.9696151383408 -1.56561962365665,54.9696061432502 -1.56560139266083,54.9695529850145 -1.56558008891646,54.9694981093483 -1.56556345403468,54.9694522329364 -1.56553911889025,54.9693919565272 -1.56551783470237,54.9693352836721 -1.56551635770247,54.9693289898504 -1.56550745013686,54.969283140952 -1.56550447520223,54.969272350479 -1.56549407225927,54.9692219150745 -1.56548370712748,54.9691679760737 -1.56547329201706,54.9691185291078 -1.56546441361381,54.9690699853386 -1.56546291725983,54.9690654877937 -1.56545259095887,54.9690079562334 -1.56543632558783,54.9689278534768 -1.56543502145861,54.9689053895549 -1.56542780576964,54.9688460718269 -1.5654234411334,54.9688209020317 -1.56540571366543,54.9687211205125 -1.56539535847111,54.9686662838095 -1.56538663838619,54.9686149557623 -1.56537777958096,54.9685646157045 -1.56536745354691,54.9685070832331 -1.5653570887791,54.9684531442143 -1.56534385581913,54.968378532941 -1.56533347986205,54.9683254925016 -1.56532464153872,54.9682732663006 -1.56531426719758,54.968220225864 -1.5653112827127,54.9682103330737 -1.56530905418477,54.9681303701705 -1.56530678844925,54.9680540016247 -1.56530563740593,54.9680054853711 -1.56530331294309,54.9679344166916 -1.56530209771522,54.9679038672727 -1.56530071615867,54.9678885902544 -1.56530086153812,54.9678751150247 -1.56529533636133,54.9678023284518 -1.56530478327135,54.9676549403462 -1.56530536476778,54.9676010403238 -1.5654010014814,54.9675699383054 -1.56540633149792,54.9670757659302 -1.56538218719924,54.9668545925958 -1.56531807119455,54.9667096376395 -1.56543901624854,54.966505242517 -1.56560377032022,54.966286540106 -1.56560548340949,54.9662829526413 -1.56498056711949,54.9661459714418 -1.56545412497264,54.9651052035519 -1.56547386180763,54.9645769484976</coordinates></LinearRing></outerBoundaryIs></Polygon>
  </Placemark>
