  <Placemark>
	<Style><LineStyle><color>ff0000ff</color></LineStyle><PolyStyle><fill>0</fill></PolyStyle></Style>
	<ExtendedData><SchemaData schemaUrl="#Wards__December_2019__Boundaries_EW_BFE">
		<SimpleData name="objectid">7711</SimpleData>
		<SimpleData name="wd19cd">W05000609</SimpleData>
		<SimpleData name="wd19nm">Litchard</SimpleData>
		<SimpleData name="wd19nmw">Litchard</SimpleData>
		<SimpleData name="bng_e">290775</SimpleData>
		<SimpleData name="bng_n">182034</SimpleData>
		<SimpleData name="long">-3.57588</SimpleData>
		<SimpleData name="lat">51.526619</SimpleData>
		<SimpleData name="st_areashape">1211105.69780409</SimpleData>
		<SimpleData name="st_lengthshape">6023.77950557696</SimpleData>
	</SchemaData></ExtendedData>
      <Polygon><outerBoundaryIs><LinearRing><coordinates>-3.57925787691695,51.5205661669119 -3.57904168472745,51.5206517827739 -3.57874291441919,51.5207654795802 -3.57846194625954,51.5208510679436 -3.57841347238257,51.5208652951063 -3.57756418932987,51.5211095559976 -3.57749985612782,51.5211257037421 -3.57718562021006,51.5212082304157 -3.5768683734889,51.5212862124467 -3.57611202195717,51.5214240329301 -3.57438777720835,51.5217106803919 -3.57390579418306,51.5217782800131 -3.57318705696088,51.521794215585 -3.57316990911588,51.5220066934192 -3.5731648658434,51.5220705886414 -3.57315194818889,51.5220716611388 -3.57220987313977,51.5222147343284 -3.57185832726218,51.5222634960927 -3.57087365210469,51.5222605067907 -3.57061716407374,51.5222603457538 -3.57021289081587,51.5222414866998 -3.5694115654892,51.522206274653 -3.56918509760523,51.5221598604335 -3.56894555902487,51.5221100254828 -3.56811031890272,51.5219251292447 -3.56802460600003,51.521903800626 -3.56788218026344,51.5218715437117 -3.56773705414878,51.5218438177932 -3.56766313926426,51.5218304229062 -3.56751380294737,51.5218081475038 -3.5674154163246,51.5217950787422 -3.56730541697763,51.5217830643731 -3.56729243691718,51.5217823395579 -3.56718934511994,51.5217603438501 -3.56701246818576,51.5217321430812 -3.56683013725133,51.5217112061077 -3.56656754647478,51.5217066247003 -3.56614752424091,51.5216897616564 -3.5661567182648,51.521746274505 -3.56625862645116,51.5222799852937 -3.56626355191219,51.5222987980419 -3.5662637682054,51.5223050880027 -3.56626444796259,51.5223248558091 -3.56626463337917,51.5223302478461 -3.56626159273469,51.5223662471008 -3.56625263673999,51.5223996294759 -3.56624222617921,51.5224321311486 -3.56623841162632,51.5224456670471 -3.56623143967527,51.5224952037599 -3.56622731641118,51.5225447033139 -3.5662275327004,51.5225509932748 -3.56622938967603,51.522604996337 -3.56623567072768,51.5226597505041 -3.56625453449238,51.5227071444768 -3.56626998285535,51.5227761594329 -3.56627797626712,51.5228012240372 -3.56628119862554,51.5228119682137 -3.56628506447118,51.5228379871988 -3.56628592967818,51.5228631470385 -3.56628239863809,51.5228883656148 -3.56628103535479,51.5228901814009 -3.56628546086906,51.5229774137573 -3.566287659869,51.5229998580695 -3.56630218179171,51.5230868656021 -3.566311467694,51.5231460739848 -3.56633317383935,51.5232726292082 -3.56635281062093,51.5233424874054 -3.56637371402193,51.523404237352 -3.56644826698985,51.5236020054191 -3.56654712100434,51.5235836034467 -3.56673040614126,51.5238841997438 -3.56674067903772,51.5240135154026 -3.56677651289708,51.5242189918152 -3.56680793916413,51.5245036372915 -3.56681596019321,51.5245260046518 -3.56682082443826,51.5245430205971 -3.56682162822087,51.5245663827632 -3.56682097597591,51.5245888660562 -3.56682103782445,51.524590663699 -3.56681697291819,51.524638363988 -3.56681570640385,51.5246464713325 -3.56681101372967,51.5248866513183 -3.56683815823808,51.5255481172334 -3.56801555058645,51.5254101103841 -3.56896186859243,51.5253020728076 -3.56910542386832,51.5251599122978 -3.56916211230494,51.5252148901408 -3.56923004741719,51.5252202740185 -3.56912270915469,51.5252855377608 -3.56912248918781,51.5253619530715 -3.56914606293973,51.5253769210437 -3.56915040147717,51.5253786605643 -3.5691782506869,51.5253900643159 -3.5692045536237,51.5254013997256 -3.56921644813257,51.5254120277824 -3.56922403651445,51.5254218151201 -3.56922704287555,51.5254262692636 -3.56922862276309,51.5254307433927 -3.56923333286623,51.5254432660426 -3.56924590812738,51.5254736630106 -3.5693271572119,51.525486061012 -3.56933360046592,51.525507550555 -3.56930661408319,51.5255178007449 -3.56931032254601,51.5255842769136 -3.56936211431344,51.5256249377812 -3.56925125533195,51.5257541681129 -3.56914773968546,51.5258445540205 -3.56904091317363,51.5259250941724 -3.56895745218194,51.525972959342 -3.56890812519181,51.5260041848595 -3.56885577123073,51.5260337431727 -3.56884303730079,51.5260402064954 -3.56870203783382,51.5261328911291 -3.56860615015075,51.526196204215 -3.56852029725117,51.5262575854109 -3.5684797673462,51.5262922892256 -3.56844206186135,51.5263296521137 -3.56844069841551,51.5263314688555 -3.5684115457524,51.5263652111572 -3.56838684795559,51.5264006024542 -3.56837194015883,51.5264268729814 -3.56829979901051,51.5265518987592 -3.568286225209,51.5265754545788 -3.56827674181004,51.5265935610743 -3.56826890065559,51.526617938581 -3.56826508610968,51.5266314747961 -3.56826295135216,51.5266558659137 -3.56826347519432,51.5266711417168 -3.56826848788696,51.5266890552477 -3.56827176951917,51.5267015973086 -3.56827545317875,51.5267258206875 -3.56827563805914,51.5267312119357 -3.56827553799316,51.5267698703707 -3.56827575369762,51.5267761604599 -3.56827072828591,51.526796005843 -3.5682613387088,51.5268168079448 -3.56825858457527,51.5268231377515 -3.56820369635653,51.52694523591 -3.56815526154707,51.5270475604016 -3.56814059983188,51.5270810189511 -3.56810086570399,51.5271840364056 -3.56809311675795,51.5272111095353 -3.56807674324577,51.5272778543523 -3.56806837330671,51.5273284000027 -3.5680631278256,51.5273869045279 -3.56806203233095,51.5274381622283 -3.5680660778512,51.5275145230778 -3.5680684889533,51.5275432588469 -3.56807201850692,51.5275629889245 -3.5677657379774,51.5275850659002 -3.56761630905015,51.5275987515245 -3.56754926318762,51.5276195155536 -3.56751558054113,51.5276460372485 -3.56745487235825,51.5277268603463 -3.56730754718095,51.5277602956482 -3.56712995224294,51.527795033913 -3.56700459766762,51.5277967101472 -3.56710230653374,51.5281676785558 -3.56721385788103,51.528561025754 -3.5670620254683,51.5287994925625 -3.56673387813302,51.5293218821415 -3.56671336094285,51.5293545206144 -3.56668751416258,51.52940161391 -3.56667845653049,51.5294287045388 -3.56667213275571,51.529455759515 -3.566671321808,51.529473750043 -3.56660639136153,51.5301877922527 -3.56657457336465,51.5301855207899 -3.5663374933934,51.5301671144221 -3.56617173894217,51.5304228469222 -3.56615540556606,51.5304492263457 -3.56629990507615,51.5309229535217 -3.56642725926967,51.5313160010203 -3.56656526992553,51.5320165414148 -3.5665704110758,51.5326314758946 -3.56674618724995,51.5326264284978 -3.56702415138116,51.5326164179616 -3.56762126745048,51.5325805610162 -3.56858305001985,51.5325398235186 -3.56923445387155,51.5325311043542 -3.5698864759648,51.5325403529239 -3.57034344813301,51.5325782822509 -3.57073886049202,51.5326306098085 -3.57074800201633,51.5326475676584 -3.57070841986682,51.5327514821695 -3.57071290851501,51.5327990687804 -3.57075122637178,51.5329074238801 -3.57077731559709,51.5329124679496 -3.57100826976251,51.5328769186685 -3.57109112591113,51.5328560308855 -3.57118537961255,51.5328277971679 -3.57125609111833,51.5327890915793 -3.57132097470467,51.5327468679842 -3.57135707676557,51.5327077279617 -3.57151913777636,51.5324699294335 -3.57160215270467,51.5324121798801 -3.57160289825664,51.5323923917964 -3.57154112305061,51.5323141086046 -3.57151255692326,51.5322785324158 -3.5714361025921,51.5321536085488 -3.571394575007,51.5319104479828 -3.57141728786391,51.5319002544526 -3.571881043093,51.5318832491028 -3.57230951335885,51.5318496340057 -3.57269333384133,51.5318588685112 -3.57308557989131,51.5318607973962 -3.57355196723954,51.5318788100232 -3.57421454148055,51.5319013783887 -3.57515272007207,51.5319320163369 -3.57521749853252,51.5313834826254 -3.57525588534166,51.5309108177236 -3.57524773380517,51.5308812602363 -3.57513592292768,51.5306930765633 -3.57499169853869,51.5304818641752 -3.57490940959085,51.5303120715108 -3.57489007530444,51.5302511995761 -3.57487802356336,51.5301947251379 -3.57486046003599,51.5300196583794 -3.57485543986454,51.529874000229 -3.57496892490766,51.52990394036 -3.57510710365517,51.5299398415364 -3.57634975679767,51.5302279864236 -3.57855766811683,51.5307459392927 -3.57922606279535,51.5308960580635 -3.57998168354955,51.5310657624996 -3.58060709143029,51.5312237334601 -3.58062013756228,51.5312262552755 -3.58057205097947,51.5310425215017 -3.58056363801449,51.5308853127423 -3.58059933704648,51.5307489956915 -3.580581259468,51.5306422603351 -3.58046878758586,51.5301437618023 -3.58047984686217,51.5301301276917 -3.58074880144851,51.5301525723542 -3.58108972402503,51.5301695505168 -3.58139276975972,51.530222099078 -3.58176478488982,51.5303061698547 -3.58249529587809,51.5304167742945 -3.58252166522603,51.5304299033309 -3.58273432211868,51.5304090531307 -3.58284888161902,51.53051088923 -3.58308847059961,51.530683944435 -3.58328192588451,51.5306921191271 -3.58335184317746,51.5307954567917 -3.58345155392679,51.5309695010259 -3.58385373650299,51.530840009079 -3.5843981213463,51.5306977159909 -3.58461112817562,51.5306049389221 -3.58500609535889,51.5304367982016 -3.58511364128771,51.5305045665443 -3.58518762242024,51.5305162425388 -3.58526005576291,51.5305278494759 -3.58537954675688,51.5305630926131 -3.58548565448931,51.5303395212575 -3.58566543829155,51.53003674216 -3.58571797393831,51.5298894989307 -3.58576219758924,51.5297117130995 -3.58576343543454,51.5297063018537 -3.58576301339494,51.5295264226512 -3.58569827999187,51.529322330251 -3.58540489611326,51.5288865145173 -3.58518961230426,51.5285809832842 -3.5845604174788,51.527815279741 -3.58364663555656,51.5266999426491 -3.5835276131468,51.5265514202334 -3.58329876385028,51.5262280901085 -3.58291077043312,51.5256820724806 -3.58259731412309,51.5252906614637 -3.58202939559734,51.5245879552086 -3.58186772499065,51.5243302418388 -3.58182006132164,51.5242444937426 -3.58179128722982,51.5241208229573 -3.58179261162117,51.5240767553446 -3.58182032290121,51.5238785174119 -3.58196764642229,51.5237192098009 -3.58182342919315,51.5236356632371 -3.58179167749648,51.5236351922415 -3.58133999969357,51.5237852087076 -3.58109747215061,51.523899951715 -3.58096795323975,51.5240312391951 -3.5808494656742,51.5241892585754 -3.58075298748798,51.5244028063905 -3.58073169126274,51.5244947889649 -3.5807133881138,51.5245085205301 -3.58025630829389,51.5245029927857 -3.58023288770319,51.5244925211688 -3.58022653639738,51.5241446130792 -3.58024061702918,51.5235940719575 -3.58027381570797,51.5228886484812 -3.58028352086708,51.5226268259499 -3.58032272745203,51.5222594263429 -3.58034649879841,51.521823912837 -3.58031651543266,51.5211678855257 -3.58034601105334,51.5208941098489 -3.58034181022852,51.5208140673475 -3.58031381329354,51.5203387975058 -3.58021460051369,51.5203464270482 -3.57986857789952,51.5203447956018 -3.57954846251361,51.5204255193384 -3.57936475658274,51.5204882246699 -3.57925787691695,51.5205661669119</coordinates></LinearRing></outerBoundaryIs></Polygon>
  </Placemark>
