  <Placemark>
	<Style><LineStyle><color>ff0000ff</color></LineStyle><PolyStyle><fill>0</fill></PolyStyle></Style>
	<ExtendedData><SchemaData schemaUrl="#Wards__December_2019__Boundaries_EW_BFE">
		<SimpleData name="objectid">5729</SimpleData>
		<SimpleData name="wd19cd">E05011464</SimpleData>
		<SimpleData name="wd19nm">Bensham Manor</SimpleData>
		<SimpleData name="wd19nmw"></SimpleData>
		<SimpleData name="bng_e">531864</SimpleData>
		<SimpleData name="bng_n">168045</SimpleData>
		<SimpleData name="long">-0.10593</SimpleData>
		<SimpleData name="lat">51.396118</SimpleData>
		<SimpleData name="st_areashape">1441461.63754414</SimpleData>
		<SimpleData name="st_lengthshape">5760.68286640494</SimpleData>
	</SchemaData></ExtendedData>
      <Polygon><outerBoundaryIs><LinearRing><coordinates>-0.103940759168016,51.3889310808495 -0.103543068383393,51.3891655891376 -0.100814342683826,51.390672690851 -0.10069386707175,51.3907372663754 -0.096276460080722,51.393135006596 -0.095801410117647,51.3933925848517 -0.095649151095891,51.393494395354 -0.095591819929658,51.3935250187439 -0.095528918924152,51.3935527638507 -0.095274827357574,51.3936466255479 -0.094945671957492,51.3937842168671 -0.094236606398534,51.393968758846 -0.093994930959736,51.3940061821513 -0.09367762899798,51.39403248532 -0.093558033133427,51.3942122285297 -0.093134921254029,51.3949840625228 -0.093105359172055,51.3950394103824 -0.093664207767949,51.3952184168389 -0.094881255755555,51.3956815122856 -0.095402919182076,51.3958914612621 -0.095895850654931,51.3961027395861 -0.09620345459478,51.3962416901579 -0.096725059753091,51.3964875923416 -0.097229491679053,51.3966990521153 -0.097515774865461,51.3968664215142 -0.097901430554766,51.3970669588609 -0.098197524911728,51.3972407790288 -0.099098182923235,51.3978471235302 -0.101184188592369,51.3992307234301 -0.102709461374182,51.400306728201 -0.103104738907932,51.4006224737576 -0.103896337275863,51.4011576917185 -0.105891129467133,51.4025299089205 -0.10993590409197,51.4053073355499 -0.110072908473267,51.4052277358829 -0.110464761625923,51.4049993253307 -0.110564490374885,51.404949689862 -0.110510122511701,51.4049083579448 -0.1104572579696,51.4048679495144 -0.110475028067666,51.4048538514457 -0.112855508151043,51.4033985111651 -0.113640093901151,51.4029561535915 -0.113700338232154,51.4029238602978 -0.113757409999607,51.4028995166909 -0.113821483089029,51.4028807694773 -0.116670241263623,51.4023042889125 -0.118590499451678,51.401896319262 -0.118444665610618,51.40156215322 -0.118284019962574,51.4012394363816 -0.118173792381858,51.4010514806638 -0.117913662424153,51.4006633341018 -0.117095931606118,51.3993993015105 -0.117002381438693,51.3992269850207 -0.116942714816778,51.3991387307228 -0.116882489183605,51.3990640438488 -0.116721054447233,51.3988996258078 -0.116199309380389,51.3980602766549 -0.11601735691222,51.3977291192548 -0.115253856089081,51.3961952534978 -0.113154698726363,51.3970436958178 -0.112236327858679,51.3956782253637 -0.111908302162449,51.3957547539272 -0.111692681600395,51.395789938462 -0.110444110221914,51.3959118669656 -0.109761316821695,51.3959459014412 -0.109009022618906,51.3959580430928 -0.108635064271208,51.3958952828772 -0.108537113539583,51.3958649340136 -0.108494815868727,51.3958444738988 -0.108420621847508,51.3957956288883 -0.108403206246205,51.3957638823432 -0.108382731715362,51.3957401772005 -0.110704103174093,51.3947317811596 -0.109979918773297,51.3940284956933 -0.10870264172953,51.3927939591805 -0.10749798707142,51.3916476893438 -0.107203617568288,51.3913632505791 -0.107107250471671,51.3912259425294 -0.107088858320424,51.391045749898 -0.107126781386939,51.3908908297519 -0.107225355862855,51.3906963434072 -0.10726935104178,51.3905378359463 -0.107204941317024,51.3903929511014 -0.107107492118282,51.3902789997915 -0.106870437168906,51.3901393296024 -0.106456777330723,51.3899573403501 -0.105803470803048,51.3896985674087 -0.104948572894268,51.3893771973711 -0.104451340683025,51.3892018513329 -0.1041246374072,51.3890725043062 -0.103989009753697,51.388982206626 -0.103940759168016,51.3889310808495</coordinates></LinearRing></outerBoundaryIs></Polygon>
  </Placemark>
