  <Placemark>
	<Style><LineStyle><color>ff0000ff</color></LineStyle><PolyStyle><fill>0</fill></PolyStyle></Style>
	<ExtendedData><SchemaData schemaUrl="#Wards__December_2019__Boundaries_EW_BFE">
		<SimpleData name="objectid">2029</SimpleData>
		<SimpleData name="wd19cd">E05005007</SimpleData>
		<SimpleData name="wd19nm">Sutton Valence and Langley</SimpleData>
		<SimpleData name="wd19nmw"></SimpleData>
		<SimpleData name="bng_e">580500</SimpleData>
		<SimpleData name="bng_n">147100</SimpleData>
		<SimpleData name="long">0.58192</SimpleData>
		<SimpleData name="lat">51.194599</SimpleData>
		<SimpleData name="st_areashape">12527170.0832858</SimpleData>
		<SimpleData name="st_lengthshape">24550.5625332286</SimpleData>
	</SchemaData></ExtendedData>
      <Polygon><outerBoundaryIs><LinearRing><coordinates>0.585936346324514,51.2287657071171 0.586126707840685,51.2282766943697 0.58631282060811,51.2275351206271 0.586265193363911,51.227298715604 0.586178283517797,51.226490347922 0.58617339667971,51.2262242261564 0.586399409461448,51.2252739814549 0.586482271175603,51.2247846416931 0.586579347603282,51.2243445294384 0.586663804028528,51.2237805266859 0.586712856342748,51.2235833417508 0.586741089083712,51.2232697309103 0.586742118951325,51.2228290444359 0.586824227961017,51.2217641886025 0.586856751588488,51.2205816530091 0.587026642160907,51.220164116591 0.587087765044942,51.2199253952095 0.587046511572586,51.2197014352707 0.586991390669364,51.2191270306527 0.586919185777728,51.218835420397 0.586860871002347,51.2185093361599 0.586764272854561,51.2182164672116 0.586674006966932,51.2177058684119 0.586601622606281,51.2171561217848 0.586577934484352,51.2168346638872 0.586562735487221,51.2162054243433 0.586564276069895,51.2157484481701 0.586549913226724,51.2155680394492 0.5863590388952,51.2150254032921 0.586260975966787,51.2147820162889 0.58606547866897,51.2141567608706 0.585929550502368,51.2137748447311 0.585792259079021,51.2133938570567 0.585561743096274,51.2128071385114 0.585313135467006,51.2123062375403 0.585058994316037,51.2117317294863 0.58481739576161,51.2112271658766 0.584749136280443,51.2110307736374 0.584704613442085,51.2109778087957 0.58462572597639,51.2109247045912 0.583934048503725,51.2105901274617 0.583154320221061,51.2102431045342 0.58302586768107,51.2102261591932 0.582688425127233,51.2100294143661 0.582421861272772,51.2099220078128 0.582383841319502,51.2099092697223 0.581877090916341,51.2099105628978 0.581317773066257,51.20958833471 0.581017389131888,51.2093890594768 0.580594266281336,51.2091186710891 0.580439360641246,51.2089853292576 0.580205603860385,51.2088268414313 0.580029490274208,51.2086984619013 0.579955376700371,51.2086524417518 0.579902806293138,51.2086095432006 0.579855309269026,51.2085539448235 0.579820013212285,51.2084863888595 0.579804682715062,51.2083895301618 0.579842579208467,51.2081720023724 0.57989317953821,51.2079747842886 0.579868897724489,51.2077198743856 0.579801506505792,51.2074371433847 0.579776374664318,51.2073972364435 0.579730284416511,51.2073667828724 0.579720820319372,51.2072734805255 0.57961674692827,51.2070778749903 0.579355485389781,51.2068093087678 0.579319729196274,51.2067588459139 0.579286117454559,51.2066939499466 0.579265341731127,51.2066305688851 0.579247928218962,51.2065238653783 0.579217709388135,51.2064436093712 0.579151515997762,51.2063110973757 0.578891616204935,51.2060667757131 0.578691897050981,51.2059255180843 0.578623905248005,51.2058621882476 0.578579972936053,51.2057921249791 0.57849597115346,51.2055457243637 0.578422987489838,51.2053908830378 0.578346158690281,51.2052729008795 0.57828208476595,51.2052014825904 0.578287342567725,51.2049891697006 0.578302102383842,51.2048412959361 0.578314603898973,51.2047079486008 0.578496828119533,51.2043036360462 0.578539266770658,51.2040130881947 0.578769880595337,51.2037841205512 0.578901025652778,51.2034925166279 0.579202879805132,51.2033851589193 0.579266504119277,51.2033450031018 0.579298302933075,51.2032993448622 0.579302667238344,51.2032506956686 0.57927547034718,51.2031991447044 0.579109202779332,51.2030669501659 0.579086240773302,51.2030404825842 0.579072998399212,51.2030084052584 0.579072807176734,51.2029796378066 0.579079246951822,51.2029660085065 0.579092006380532,51.2029387525532 0.579119100305728,51.2029102820981 0.579166736707626,51.2027635721101 0.579187168135822,51.2027468471221 0.579291491811077,51.2026914981321 0.579172499676923,51.2023047046692 0.579141704323095,51.202059828735 0.579198198555736,51.2016871489965 0.579254222714738,51.2014349644394 0.579289339895849,51.2013451752118 0.579249684364327,51.2011994902228 0.579259625833576,51.2009168517301 0.579239215631277,51.2007310898664 0.579462811363483,51.2003007774522 0.579533427496579,51.2001534707034 0.579526512724116,51.2000043657783 0.579511665483357,51.1999435522366 0.579492653050411,51.1998863363749 0.579398453676879,51.1998650362419 0.579337126870989,51.1998448082698 0.579251392421436,51.1997954482221 0.579192701902625,51.1996681654671 0.579099569797156,51.199537055959 0.579087863250921,51.1994563918249 0.579102366034224,51.1994075182345 0.579145858037191,51.1993409224272 0.579032886534138,51.1990870690372 0.578996048843772,51.1989664069644 0.578963528445999,51.1988448411505 0.578896417898445,51.1985414227675 0.57887443337414,51.1982999492962 0.578840290475909,51.1981514454399 0.578804274970198,51.1980433531243 0.578727702880661,51.1978769026072 0.578136533065816,51.1970318846111 0.577292218834435,51.1959604636531 0.57693460467701,51.1953999067584 0.576769331397639,51.1951579925817 0.576605174220042,51.1948324341089 0.576372031815563,51.1943978005898 0.576297582301711,51.1941421969335 0.576302210438441,51.1939163215575 0.576295896227199,51.1938813940858 0.576261096276838,51.1937949434082 0.575980792604444,51.1934413714955 0.575667733582841,51.1930632534463 0.574958183677675,51.1923512921884 0.574621571613272,51.1920394184834 0.574459405980253,51.1919036213992 0.574227808571119,51.1913690580374 0.574194994052776,51.1912672782961 0.574169169088394,51.1912147078449 0.57393208803278,51.1908907519795 0.573874556255442,51.1907562484479 0.573850014525744,51.1906758665975 0.573842087272211,51.1906373779805 0.573872927082869,51.1902400020557 0.573873964360188,51.1896932156721 0.573861699625219,51.189371505122 0.573807568603947,51.1889634100339 0.57379110184496,51.1889008329325 0.573761355405635,51.1888286583189 0.573664713399251,51.1886868326101 0.573641724462789,51.1886342896086 0.573603867225158,51.188416543398 0.573591984165246,51.1884087121269 0.57356304505501,51.1884039542995 0.573537552393168,51.1884081118554 0.573450678832464,51.1884415828549 0.573341799505241,51.1884655573704 0.57327593353018,51.1884652085291 0.573240636183589,51.1884480017167 0.573224619958461,51.1884167944121 0.573230372063367,51.188365417842 0.573279227342242,51.1882150863219 0.573280968378876,51.1881700919308 0.573274324277622,51.1881270789949 0.573247503060812,51.1880565478626 0.57319818484606,51.1879677197548 0.573125752968939,51.187874904041 0.573038656218749,51.1877751276121 0.572856752031109,51.1875939073998 0.572828758650417,51.187553162835 0.572781479805458,51.1874246373461 0.572745946513806,51.1873777646697 0.572578308801508,51.1872196081546 0.572531903343878,51.1871575994487 0.572323093234514,51.1868258257424 0.572228551948461,51.186746983044 0.572120400013106,51.1866801280712 0.572008188759394,51.1866187568162 0.571892229004956,51.1865663700581 0.571710677778552,51.1864930359346 0.571393637642494,51.1863768248205 0.571264538399994,51.1863194217237 0.571209621715627,51.1862846632229 0.570848573756331,51.186020072465 0.570706005653218,51.1859008340194 0.570668779156465,51.1858764764626 0.570598688743633,51.1858510423986 0.570435182751688,51.1858177715826 0.570372514903322,51.1857984690998 0.5701282173271,51.1857022351829 0.569931573723098,51.1856417288935 0.569906597970035,51.1856296897973 0.569869239489053,51.1856008388467 0.569853829683013,51.1855804977432 0.569803008568542,51.1854899026197 0.569777163469332,51.1854643953407 0.569747594385055,51.1854461631999 0.569593655320969,51.1853812113895 0.569518171432692,51.185335125578 0.569428860724682,51.1852228974188 0.569379371679245,51.1851817258438 0.569288649909155,51.1851459551702 0.569113066053187,51.185101258519 0.568681870099651,51.1849667782203 0.568364515695013,51.1848955230719 0.568015481690656,51.1847934930082 0.567889446827477,51.1847422221715 0.567619135621997,51.1846150856298 0.5673206398097,51.1844966580706 0.567170812183556,51.1844270278723 0.566999110070908,51.1843246982196 0.566207474948413,51.1838060084474 0.566047111582334,51.183648582467 0.565897074297379,51.1835241081297 0.565878839199611,51.183480450801 0.565895214042122,51.1834396308289 0.565971523726092,51.1833965965529 0.566030160208991,51.183371033834 0.566144007815083,51.1833325703851 0.566167186884341,51.1833122806916 0.566174442890062,51.183287845226 0.566164542956339,51.1832646855667 0.566141842839917,51.1832426153028 0.566000080078189,51.1831630053641 0.565839282527209,51.1831017960976 0.565656438983148,51.1830302802849 0.566316480743762,51.1825993217624 0.566494538872935,51.1824551506207 0.566560547316664,51.1823817717978 0.566583842051659,51.1823381016938 0.566598348355649,51.182289140881 0.56660217590171,51.1822306137861 0.566596154248767,51.1821732013196 0.566557521450987,51.1820958248807 0.566436689888832,51.1819554243497 0.566413830514809,51.1818795005131 0.566415630259705,51.1817823550499 0.56644508085347,51.1816179770935 0.566473717115473,51.1815409223433 0.566541672209307,51.1814495184335 0.566870300314761,51.1811571914312 0.566925124943213,51.1810885538565 0.566992741958382,51.1809655966644 0.567013141581359,51.180869841695 0.566999748879417,51.1807838187064 0.566959065901248,51.1806695333454 0.566856311501782,51.1805189367536 0.566841621089192,51.1804859908189 0.566835715294366,51.1804582475097 0.566837729323685,51.1804159437729 0.566851918050592,51.1803633932234 0.566905244924168,51.1802678140723 0.56705507369402,51.1801296560073 0.567188107432953,51.1800268426962 0.567224444217623,51.1799864827992 0.567247556478457,51.1799374229023 0.567256292439962,51.1798886776792 0.567244047387162,51.1798233100393 0.567219339831154,51.1797905849352 0.567177025020035,51.1797509630738 0.567081792143466,51.1796847188585 0.566852025165478,51.1795414061416 0.566805673618444,51.1795055584401 0.56674599081745,51.1794357474168 0.566698408805096,51.179352273512 0.566604040659138,51.1791465553561 0.566515900584347,51.1787959403721 0.566432601783216,51.1785855739635 0.566397361865849,51.1785161248723 0.566303647811198,51.1783752200145 0.566266234220436,51.1782942200774 0.566253424152407,51.1782441498374 0.566244906119902,51.1781417453676 0.566243596457961,51.1779907201027 0.566262585784953,51.1775594408138 0.566320389512307,51.1773639594403 0.566347989412772,51.1772427809256 0.566379752976805,51.1771944298193 0.56658492255433,51.1770757373905 0.566743424324099,51.1769940344779 0.566801422681367,51.1769549980258 0.566857185522909,51.1769033328336 0.566902439251861,51.1768429970327 0.566927429233486,51.1767768120691 0.566934319169132,51.1766948398921 0.566918993962993,51.1765485283129 0.566923139018357,51.1764935899361 0.566934385737625,51.1764645707471 0.566972669101504,51.1764061866807 0.567028384767167,51.1763537129786 0.567077980049493,51.1763184574764 0.567122595050411,51.1762976070525 0.567215112129179,51.1762641065691 0.567424933655778,51.1762037545147 0.567521459696361,51.1761638718512 0.567571104312843,51.176129514437 0.56760915199924,51.1760945113271 0.567621696787639,51.1760357927376 0.56764619886243,51.1759353614978 0.567680902917458,51.1758401907277 0.567687873718025,51.1757851902647 0.567685029322493,51.175734002858 0.567657108941188,51.1756688894584 0.567611325799601,51.1756177445087 0.567504222394416,51.1755436703949 0.567183110241201,51.1753780855346 0.567148984107804,51.1753562671695 0.566827938884709,51.1750368392445 0.566786965233071,51.1749703032084 0.566762228674845,51.1749115034928 0.566745644539827,51.1748444321311 0.566731887129387,51.1747772996251 0.566690649419002,51.1743428442242 0.566660526074771,51.1741870564805 0.56649619929707,51.1739343206187 0.566340677504242,51.1736319383511 0.566236655046669,51.1734857740625 0.566229702443856,51.1734625496868 0.566233862185844,51.173435483901 0.566248153505013,51.1734081966852 0.566286050378758,51.1733705008649 0.566454456966757,51.1732337331867 0.566514791750165,51.1731603886054 0.56653947870981,51.1731418644043 0.56659239764236,51.1731155272659 0.566645865199587,51.1730990686548 0.566704022833018,51.1730905988929 0.566772444156503,51.1730863998782 0.566893151109905,51.1730954389208 0.566925108917271,51.1731037286521 0.567076460740139,51.1731760234973 0.567117269139242,51.1731886149453 0.567160554805295,51.1731948571663 0.567235031285442,51.1731977182809 0.56732489599812,51.1731930482011 0.567364605364998,51.1731858825028 0.567441939773975,51.1731616162925 0.567729286542012,51.173027630842 0.56796590753786,51.1731420198562 0.568140851847722,51.1732524573608 0.568295014922032,51.1733731525594 0.568417558927386,51.1734937325556 0.568530117075001,51.1736405160406 0.568594267092332,51.1737631878432 0.568637683429908,51.1740816059381 0.568660143012305,51.1741503458891 0.568707006824896,51.1742230449493 0.568823227354626,51.1743571607494 0.568915782187893,51.174502675326 0.568958469285839,51.1745511896944 0.569072960549284,51.1746286978397 0.569370572420001,51.1747831935183 0.569473137623618,51.1748519720978 0.569604823000193,51.1750074154683 0.569633338894408,51.1750301667491 0.569736218160222,51.1750791570106 0.56997045858372,51.1751504353329 0.57015006423464,51.1751896472741 0.570232181689879,51.1752004303951 0.570337173921636,51.175208911918 0.570441749326221,51.1752120088638 0.570525912861592,51.1752065622746 0.5707175426975,51.1751798715291 0.570831633059404,51.175173766859 0.570974755352797,51.1751742171584 0.571035146213352,51.1751782840334 0.570920591191396,51.1754092719424 0.571212618591888,51.175539520389 0.571660864080405,51.175651136744 0.571728836722686,51.1755858042294 0.57181842649143,51.17562699216 0.571864942984399,51.1756403549212 0.571957276311192,51.175654508819 0.572048508542786,51.1756489056865 0.572126349465127,51.1756337073247 0.572210927045559,51.1756102671315 0.572278001756126,51.1755818182202 0.572365317157196,51.1755312541244 0.572395824540797,51.1756151922947 0.573020066786616,51.175571787766 0.573107848818633,51.1759152130771 0.573327543944813,51.1766487466106 0.573407782105721,51.176778254148 0.573361482547518,51.1767963568587 0.573170188216214,51.1768546040456 0.572615278427739,51.176961221172 0.57253768690537,51.176980910394 0.572463172068391,51.1770050279353 0.572260308617476,51.1770886138582 0.572175774165401,51.1770599020039 0.572148342018745,51.1770820843983 0.572101531632333,51.1771397592771 0.572066437387518,51.1772044597164 0.572054530215136,51.1772469812023 0.572055829916123,51.1772703295473 0.57207977453912,51.1773147598082 0.572121267687863,51.1773417202088 0.572149036317535,51.1773510000588 0.572211176254928,51.1773631205905 0.572576263025873,51.177391954345 0.572664057000914,51.1774008121421 0.57270450193834,51.1774089136151 0.572748392352229,51.1774259313741 0.572944809292458,51.1775358893812 0.573094966456504,51.1776117095372 0.5732667694483,51.1776906498864 0.573425085732893,51.1777582873318 0.573542050290099,51.1778015697906 0.573645304007373,51.1778316657159 0.573829380163876,51.177849193752 0.573830793561367,51.1778491626458 0.574687012755525,51.1780641805041 0.574899671371615,51.1781817805073 0.575062753400809,51.1783094629512 0.575079324725797,51.1783252825963 0.57508273956192,51.1787210055443 0.575114095516117,51.1788983439668 0.575208838595259,51.1792371184838 0.575531999274529,51.1791823480052 0.575943161726835,51.1790618005307 0.577108409849489,51.1785324344825 0.577776445935762,51.1785797516822 0.578230326852966,51.1785589573915 0.578554481294738,51.1785221389557 0.579217440369919,51.1786074134352 0.579732409636067,51.1787066487551 0.580068564742983,51.1788593688988 0.580514458033469,51.1789511334925 0.581190207130688,51.179163791369 0.582129438991873,51.1797105026391 0.582452035430543,51.1799264553186 0.582520557481597,51.1799492187072 0.582572302973537,51.1799525721806 0.582626173964889,51.1799432899105 0.582664003053482,51.1799298666916 0.582782438063239,51.1798472288727 0.5829564503168,51.1797858411448 0.583116145667276,51.1798524470363 0.583494667533901,51.1797370893718 0.584365869025856,51.1795541094304 0.584912422664165,51.1794772937373 0.585075810717691,51.1794053475459 0.586461873881096,51.1787568173107 0.586966603190761,51.1791089948173 0.587357507156932,51.1789348169247 0.587842456645614,51.1787020010514 0.588980141676123,51.1791381692656 0.589724898149061,51.1794319728001 0.589831006288786,51.179485369535 0.589886061431368,51.1795246114891 0.589969191824196,51.1796037836283 0.590378571367497,51.1802179990923 0.590460835589921,51.1803321657847 0.590655703083592,51.1805671103118 0.590812657079978,51.1809422610828 0.590788582645686,51.181200936977 0.590824537923744,51.1814591816384 0.591088582076494,51.1820333668736 0.591195897949326,51.1823143070513 0.591396414528929,51.1824457246237 0.591450988737521,51.1824741874433 0.591564125957325,51.1825265276538 0.59185073495325,51.1826361656748 0.59196089619446,51.1826606991967 0.592029631065375,51.1826618732823 0.59208946243794,51.1826578500665 0.592174445139923,51.1826415799717 0.592240855452803,51.1826517976074 0.592328362722795,51.1826805185814 0.592371355442816,51.1827065394865 0.592506725155361,51.1828249233612 0.592592484037614,51.1829255239386 0.592648425318149,51.1829783223559 0.592733835755392,51.1830474607041 0.592882425016348,51.183144870439 0.593032682656928,51.1832215632003 0.593183570578322,51.1832821462142 0.593281124919484,51.1833132520128 0.59356092939974,51.18337718028 0.593542094546957,51.1835250566116 0.59362806382209,51.1835788976242 0.593950398353577,51.1836626525904 0.594196420525472,51.1837111448401 0.59496260049607,51.1838488005696 0.595095478609941,51.1838449540439 0.595143845635539,51.183838485456 0.59531465767314,51.183772655136 0.595347234014039,51.1837665377305 0.595405970496934,51.1837661338249 0.595443444792748,51.183771596273 0.595679857021738,51.1838779329477 0.596176579076466,51.1841357520159 0.596232322550736,51.184184956677 0.596641877934651,51.1845985527835 0.596720008168199,51.184842374272 0.59707289285458,51.1851376401354 0.597292456153974,51.1853764330977 0.597475746458682,51.1856332043162 0.597601746786552,51.1857608714096 0.597676647967639,51.1858212486392 0.597809077337254,51.1859100202917 0.598221255580572,51.1861410268636 0.59843658519819,51.1862288549481 0.598711250391292,51.1863289428445 0.599051474408648,51.1865245900003 0.599386940925837,51.1867635904655 0.599559890891476,51.1869369685631 0.599482228320315,51.1869827524557 0.599876684708155,51.1873786901269 0.59942961034007,51.1875721412042 0.599374305668667,51.1876336128847 0.599409410964633,51.1876723947121 0.600191609423027,51.1881686012593 0.60034822817961,51.188280209762 0.600498854562853,51.1883901533729 0.600745729476575,51.1886041455483 0.601031585895671,51.1888271611609 0.601059417588974,51.1888373324179 0.601112773922784,51.1888460358065 0.60115138074388,51.1888442788393 0.601210610766492,51.1888294743604 0.601369969916964,51.1888115447042 0.60156492754572,51.1888935262948 0.601862521724821,51.1890713214349 0.602060631224777,51.1891568297074 0.602127353482808,51.1893252836313 0.602237547160118,51.1895782782788 0.602407217950497,51.1899234612169 0.602504513233777,51.1904312908536 0.602580562997991,51.1906625669771 0.602762517594171,51.1915543348635 0.602778053841479,51.1920854726582 0.602762345178982,51.1923637468204 0.602452083520403,51.1928788451854 0.602258535787441,51.1932536886311 0.601920742515721,51.1937621145425 0.60163460576417,51.1942470027112 0.601236892980955,51.1950140046404 0.60157937486931,51.1957574428123 0.60160528427303,51.1958863424763 0.60159835433486,51.1959665207295 0.601579234768146,51.1960335725995 0.601540578062991,51.1961099603085 0.601380609868447,51.1963186114806 0.601097770708855,51.1966612700216 0.601029578281382,51.1967706836687 0.601005940289647,51.1968350486524 0.600987279599537,51.1969605341227 0.601034840380294,51.1974235239074 0.601236314036138,51.1983328426308 0.601442864793,51.198873310292 0.602312808749666,51.20089735216 0.602470944373453,51.2011375922249 0.602488192861347,51.2011650817913 0.602702145600024,51.2014301543055 0.603082250494224,51.2020000251527 0.603375496868556,51.2025052011279 0.603569309550728,51.2024882999958 0.60374591854552,51.2032839764392 0.603924247103933,51.2040849189462 0.604193462552512,51.2049504636783 0.604212499758954,51.2049824092678 0.604244539669738,51.2050167627053 0.604284870050245,51.2050474248264 0.604351268821661,51.2050819118733 0.604813523252666,51.205407989379 0.605099471595632,51.2057307977524 0.605396901409201,51.2060038972019 0.605820822989034,51.2064369238238 0.60618498607759,51.2073084419037 0.606448898745561,51.2076712997483 0.606565765105104,51.2081436225761 0.606404100453412,51.2083225566978 0.606392666871092,51.2084253140757 0.606399538845649,51.208647338501 0.606392343882898,51.2087248245812 0.606375318999962,51.2088017210943 0.606340099023363,51.2088888236989 0.606268299739999,51.2090118069943 0.606028147063443,51.2092977790368 0.605972743248486,51.2094330748462 0.605954432818324,51.2095144052135 0.605946499114107,51.2096017984344 0.605950808943672,51.2096781297481 0.605962463812713,51.2097319087198 0.605987472680539,51.2097942915839 0.606058646032042,51.2099131914556 0.606152023737418,51.2100217950123 0.606265407385515,51.2101271664867 0.606484012785157,51.21034807068 0.606579129036071,51.2104853187967 0.606638359933806,51.2105954922079 0.606695579022921,51.2107201871368 0.606726304904834,51.2108085178364 0.606770315986016,51.2110045388302 0.606818415340236,51.2115007824426 0.606809371195506,51.2116458357174 0.606784330343809,51.2117605840157 0.606746233953665,51.2118720273998 0.606706517899843,51.2119548241336 0.60665470047899,51.2120261119478 0.606597019530167,51.212093933679 0.60653840959841,51.2121473892971 0.606482036988701,51.2121882070575 0.606431983529383,51.2122154874695 0.606301459779374,51.21226245316 0.60601308188669,51.2123282202145 0.605930896334644,51.2123426388116 0.605778754905261,51.2123622121599 0.605712601827415,51.2123573915468 0.605651268440179,51.2123605554428 0.605591587148449,51.2123699774024 0.605511628406635,51.2123987319872 0.605477117250191,51.2124210798192 0.605445840501042,51.2124505489999 0.605423577387796,51.2124870108316 0.605414404575706,51.2125294742369 0.60542530288277,51.2125949586713 0.605351143906724,51.2129042070571 0.604411560658783,51.2129521004908 0.6034735630947,51.2130260264147 0.602760528797441,51.2131803588605 0.601791899176503,51.2133728304444 0.600949288724817,51.213488672615 0.600532947787295,51.2134943308488 0.600974359637865,51.2140088970335 0.601176861654335,51.2143003022039 0.601501113874659,51.2148956962702 0.602023154965923,51.2157718088253 0.602191350227759,51.2160638844054 0.602400738771738,51.2168057837144 0.602423462072292,51.2175121798256 0.602395677108042,51.2177062008986 0.602328317024052,51.2179333812893 0.602277508960807,51.2180478920446 0.602211716025499,51.2181500582414 0.602070188581409,51.2183079467466 0.602107412098051,51.2187396913027 0.602182882622592,51.2194161393593 0.602204667748517,51.2197771951928 0.602282237273528,51.2202396028642 0.602442641876614,51.2214313414614 0.602770617987913,51.2213547233139 0.603718020209707,51.2210134644565 0.60394045576345,51.2209186016234 0.604259594894647,51.2207378761912 0.604371426121916,51.2206877329103 0.604489459103546,51.2206491408534 0.604610845556396,51.2206176664524 0.604939324213176,51.2205501119695 0.605237630341915,51.2205066062193 0.605498538972446,51.220484612155 0.605698745386719,51.2204792544709 0.605925118318534,51.2204814064068 0.605991456157064,51.2210222861981 0.606204224244313,51.2220751991035 0.606257893102611,51.2224670152109 0.606398835654498,51.2228317116125 0.606667307019573,51.2232233279231 0.606938677633599,51.2236912158433 0.606902017206422,51.2239807443803 0.606976727072827,51.224239020246 0.606980240980922,51.2243513334938 0.606946048930263,51.2245320121607 0.606849043349536,51.2247923137823 0.606892363953618,51.2250781726523 0.606957122091358,51.2253609465922 0.606948216870848,51.2256588473759 0.606909932519391,51.2259196381575 0.606707111372686,51.2265393399151 0.606624486013249,51.2267741447234 0.606314092358701,51.2275176244709 0.606181388458093,51.227779618234 0.605979880529771,51.2280404475983 0.605831215343956,51.2283000990374 0.605476817722089,51.2287459553047 0.605729471284987,51.2294903823783 0.605666925007993,51.2297274363826 0.605565138107635,51.2299284999769 0.605541107135189,51.2300863824182 0.605546151815786,51.2303282253856 0.605501880325409,51.2305334028909 0.605423773261744,51.2306978836617 0.604657180073987,51.2316817783098 0.604419191158106,51.2320081529467 0.604228320531611,51.2322570525121 0.60387783415278,51.2327478613094 0.60279506993478,51.2339699413343 0.603078691839633,51.2341731298506 0.603426236435248,51.2343138457571 0.604227362901574,51.2344210017359 0.604232776428759,51.2344415617108 0.604250848068558,51.2347091894099 0.60421693555978,51.234869988362 0.6040602359199,51.2354688756058 0.603878523929714,51.2357526363201 0.603569376744983,51.2361894751482 0.603330535832425,51.2363737135497 0.602845793858648,51.2366444317574 0.602303923820954,51.2370207157451 0.601477629872214,51.2375086058326 0.600755574165555,51.2379662119283 0.60056906991208,51.2380629650183 0.600450120678022,51.2381133513487 0.600281630494175,51.2381755371418 0.600013850079023,51.2382534162159 0.599088137054799,51.2384538887751 0.597592279885094,51.2387082813253 0.596629079309406,51.2389293507014 0.596491136916324,51.2388964467354 0.595900613281361,51.2387395223232 0.59477072113817,51.2383940506305 0.59431110877078,51.2382981437434 0.593585999260101,51.2380920416619 0.593476134702646,51.2383544130962 0.593324751928764,51.2385402885508 0.593189098195409,51.2387789541681 0.593112570468185,51.2388948385537 0.592882268659281,51.2392066310573 0.592613163622702,51.2394923093592 0.592251509809246,51.2399914204897 0.592165656282199,51.2401200984086 0.592074200288258,51.240405437128 0.592000026852534,51.2405905898899 0.59192033670438,51.2407784729582 0.591742591118111,51.2411575226765 0.591726368542947,51.2412513902494 0.591693398653671,51.2415327361712 0.591642478302681,51.2417217797582 0.591588407061925,51.2422392515155 0.591455797124879,51.2427845392648 0.591405469981259,51.2429106314337 0.590187797488237,51.2437308812427 0.59007393690606,51.2438197161721 0.589936000162631,51.2439405539234 0.589822172448396,51.2440573504674 0.58964501441841,51.2442707662917 0.589496844854118,51.2444134977184 0.589447448513815,51.2444532530559 0.589390669343574,51.2444877763228 0.589327855932197,51.2445179379536 0.589277197919859,51.2445352429387 0.58921364542576,51.2445501359049 0.589010175807795,51.244577114903 0.587488311646296,51.2445748025147 0.587027873073523,51.2445912741003 0.586558893048336,51.2446618800241 0.586029300179217,51.2447240227023 0.585540228618533,51.244767194861 0.585183500729972,51.2448191312248 0.5850503402528,51.2448463491081 0.584863786424157,51.2448927272336 0.584700175767803,51.2449394977938 0.58443601748602,51.2450325460649 0.584169741223312,51.2451131418313 0.584090647850552,51.2448783292946 0.584006989748402,51.2444862723223 0.583048519311949,51.2445146204942 0.583029769297262,51.2443845724499 0.582177838254733,51.2443449267098 0.581273948306822,51.2442740541483 0.581256558861204,51.2444740425783 0.581141889893016,51.2448588767094 0.580913930773141,51.2448558123707 0.580361169503992,51.244835632428 0.580155131265234,51.2447915322363 0.579567355340027,51.244580609225 0.57926152449231,51.2444928523419 0.578871259469826,51.2444079445646 0.578499431533016,51.2443442071136 0.578399603749493,51.2442493018423 0.577800833827327,51.243792973243 0.577508369918855,51.2437391737843 0.577506954509616,51.2437392049573 0.577255796157522,51.2437564244763 0.575844173622039,51.2435994971951 0.575310590771469,51.2435141354736 0.574173400723205,51.2432657326985 0.573962168418853,51.2432299185553 0.572689515244687,51.2433037566906 0.572494674231405,51.2426874701562 0.572338699506725,51.2421260742039 0.5722794161816,51.2419889135682 0.572196272053267,51.241860279058 0.572119504509897,51.2417675592608 0.572031593561571,51.2416804796554 0.571959193827821,51.2416173340389 0.57183385815976,51.2415264908791 0.571469771919967,51.2412430888016 0.570327521877604,51.2403391267746 0.571394176967135,51.240093613353 0.571484410370932,51.239604130612 0.57165976558669,51.2388448416764 0.571761611840514,51.2385889626032 0.571866120106527,51.2383321264407 0.572299366671847,51.2375204142901 0.572847892359275,51.2365415364917 0.573171926208016,51.2358265388401 0.57342123152172,51.2352373509389 0.573385838460632,51.2351661992332 0.57337819132959,51.2351582757447 0.572948835550077,51.2350634194312 0.572310192498376,51.2349668685132 0.571986567110877,51.2348911740962 0.57081563556089,51.234601224849 0.570332968349571,51.2345012364564 0.569675319296629,51.2344491463156 0.568413846189951,51.2343823440573 0.567581594717969,51.2342810258532 0.56724292958517,51.234041109339 0.565907041741163,51.2338212655596 0.565221323521757,51.2336762567441 0.564787499682984,51.2336300201879 0.564142108686195,51.2335388779611 0.563857882299219,51.2337358085347 0.563592259644923,51.2338531192215 0.562708253695786,51.2337744786683 0.562465454950104,51.2334524266965 0.562249653395266,51.2329976126205 0.562164173663289,51.2328771143503 0.560919330191663,51.2330087525211 0.560379803808502,51.2330178617124 0.560179385339967,51.2328396358053 0.560124596504055,51.2327293443172 0.560101264732329,51.232645247817 0.560087965224894,51.2325610208626 0.560092756651248,51.2324665085758 0.560110552934026,51.2323743199526 0.560190740043546,51.2320380032105 0.560344211255492,51.2317324514637 0.560489913771644,51.2315188696733 0.560512940763129,51.2314166760809 0.560527309371624,51.2313138616078 0.560395962239371,51.2310648924597 0.560619103472165,51.2309548133213 0.560914116058841,51.2307990131802 0.56128952953883,51.230646937745 0.561204051114363,51.2302414183925 0.561505142544858,51.2302716913762 0.561726588184594,51.2302353744555 0.561840653709972,51.2301753342609 0.56215370952517,51.2300595961477 0.563551776222437,51.2303932086293 0.564174301888555,51.2305370044952 0.564750888278234,51.2305513422648 0.565458695216876,51.2305529090452 0.565693882065489,51.2305576429679 0.565927752424425,51.2305642031388 0.566438247636001,51.2306006612332 0.56724842453643,51.2306143583411 0.567739067273654,51.2306017949994 0.568106999466335,51.2305469665406 0.569281253800542,51.2302819336923 0.569815520183696,51.2301515171779 0.57010351261081,51.2300759598526 0.57234410246778,51.2303118375103 0.572665304057931,51.2303425390811 0.574879922571591,51.2299817429534 0.575368207020008,51.2299799883588 0.57567098092795,51.2299895084856 0.575973922438061,51.2299999235159 0.576528624074023,51.2300326662267 0.576741524893025,51.2300486584502 0.576742939884831,51.2300486272909 0.57816700793952,51.2302052652915 0.578555049067152,51.2302272847716 0.579230052880189,51.2302843377272 0.580140279597529,51.2303974309112 0.580843088902507,51.2304637519123 0.581334025884024,51.2304565194395 0.581762757757855,51.2305153937756 0.581992310997061,51.2304195178939 0.582915056385828,51.2301149416188 0.584376084381879,51.2296536233462 0.584465230044427,51.2293792210521 0.584816982079377,51.2284990336409 0.585360815217836,51.2286182908869 0.585936346324514,51.2287657071171</coordinates></LinearRing></outerBoundaryIs></Polygon>
  </Placemark>
