  <Placemark>
	<Style><LineStyle><color>ff0000ff</color></LineStyle><PolyStyle><fill>0</fill></PolyStyle></Style>
	<ExtendedData><SchemaData schemaUrl="#Wards__December_2019__Boundaries_EW_BFE">
		<SimpleData name="objectid">277</SimpleData>
		<SimpleData name="wd19cd">E05000366</SimpleData>
		<SimpleData name="wd19nm">Barnsbury</SimpleData>
		<SimpleData name="wd19nmw"></SimpleData>
		<SimpleData name="bng_e">531071</SimpleData>
		<SimpleData name="bng_n">183811</SimpleData>
		<SimpleData name="long">-0.11149</SimpleData>
		<SimpleData name="lat">51.537991</SimpleData>
		<SimpleData name="st_areashape">830100.86152053</SimpleData>
		<SimpleData name="st_lengthshape">4345.28621569828</SimpleData>
	</SchemaData></ExtendedData>
      <Polygon><outerBoundaryIs><LinearRing><coordinates>-0.110865717223539,51.5444906274364 -0.111082756564505,51.5444383852144 -0.112455634346002,51.5440927111394 -0.113682208189597,51.5438309718323 -0.113322634227503,51.5432847032339 -0.113317338254117,51.5430994225348 -0.11340320545726,51.542348963853 -0.113450872809866,51.5418578825526 -0.113563043386553,51.540612397686 -0.11369843016518,51.5389779235089 -0.113750828593438,51.5386855980381 -0.113882781023646,51.5368549934468 -0.113887498786754,51.5368128153079 -0.113889319460182,51.5367687929356 -0.11466780942931,51.5368064825267 -0.115608467340994,51.5368989151639 -0.116582744299881,51.5369460308894 -0.116585892886626,51.536938889979 -0.116681510895904,51.5364746459687 -0.116690246919653,51.5364387353523 -0.116918275948096,51.5355260316696 -0.117093148493649,51.5347833760101 -0.117124582506056,51.5345806136733 -0.117136371059704,51.5345052856439 -0.117177493477391,51.5342406470096 -0.117361876627947,51.5335466890462 -0.117383704723428,51.5333663374961 -0.117378624949199,51.5332474960412 -0.117357427195548,51.5331302834548 -0.117321939895343,51.533013650849 -0.117258425307462,51.5328732834523 -0.117150911061933,51.5320910318385 -0.116976956321542,51.5311358208548 -0.11473510550374,51.531341735394 -0.113096256284607,51.5314683056977 -0.112455162731103,51.5315254175111 -0.112293127401313,51.5315398907006 -0.111374685363019,51.5316114120693 -0.110625973154351,51.5316893454959 -0.109760338485683,51.531771594014 -0.109730052428265,51.5317738028626 -0.109120019050103,51.5318098197191 -0.108298099356613,51.531846911813 -0.107017930389914,51.5318775028129 -0.106518813889412,51.5318847298463 -0.106272991929927,51.5319014382664 -0.106269668402915,51.5319814871497 -0.106258647637486,51.5323499940229 -0.106198515601373,51.5326529802399 -0.106129723551426,51.5328524392324 -0.106086615308872,51.5329515334345 -0.105996120515255,51.5331181881176 -0.106549117415708,51.5335516297241 -0.106846963077967,51.5337739989574 -0.106903679545505,51.5339026645538 -0.107031745899272,51.5342886979656 -0.107049704639381,51.5343429285566 -0.107160453066798,51.5346621563629 -0.107207766970409,51.5349830572914 -0.107236190441656,51.5353036533478 -0.107181732674132,51.5356103256814 -0.107124848333356,51.5360069502545 -0.10703001141353,51.536799424726 -0.107009914422245,51.5370401245701 -0.106973418388502,51.5373264097159 -0.106902981355884,51.5379835279412 -0.106860089899614,51.5387732442071 -0.10672028062649,51.5392224693191 -0.106223691659196,51.5406927816726 -0.106170142780725,51.5408025841432 -0.106135626081174,51.5409036149711 -0.106116240086899,51.54098960713 -0.106108258445601,51.5410758724994 -0.106111102568866,51.5411820012394 -0.1067964911843,51.5431516439028 -0.107089272837541,51.5438469850854 -0.107410124020233,51.5444564749859 -0.10785812692219,51.5452344209708 -0.109483051053416,51.5448280327068 -0.110865717223539,51.5444906274364</coordinates></LinearRing></outerBoundaryIs></Polygon>
  </Placemark>
