  <Placemark>
	<Style><LineStyle><color>ff0000ff</color></LineStyle><PolyStyle><fill>0</fill></PolyStyle></Style>
	<ExtendedData><SchemaData schemaUrl="#Wards__December_2019__Boundaries_EW_BFE">
		<SimpleData name="objectid">6733</SimpleData>
		<SimpleData name="wd19cd">E05012506</SimpleData>
		<SimpleData name="wd19nm">Hurley &amp; Walthams</SimpleData>
		<SimpleData name="wd19nmw"></SimpleData>
		<SimpleData name="bng_e">483516</SimpleData>
		<SimpleData name="bng_n">178413</SimpleData>
		<SimpleData name="long">-0.79824</SimpleData>
		<SimpleData name="lat">51.498489</SimpleData>
		<SimpleData name="st_areashape">47644423.9272112</SimpleData>
		<SimpleData name="st_lengthshape">40253.8077816068</SimpleData>
	</SchemaData></ExtendedData>
      <Polygon><outerBoundaryIs><LinearRing><coordinates>-0.824891216386313,51.5501670364494 -0.825231444853474,51.5500049471189 -0.82531334755216,51.5499599213463 -0.825619486675872,51.5497777136036 -0.825764833336607,51.5496793857828 -0.825904425019225,51.5495783026112 -0.826151959687754,51.5493766293857 -0.826353083107834,51.5491808740069 -0.82647340978698,51.5490426521375 -0.826592727536089,51.5488928230964 -0.82668241574419,51.5487668789381 -0.826763610196352,51.5486382430207 -0.826804334944171,51.5485712300692 -0.827044036242687,51.5481095921706 -0.827082620037866,51.5480101955763 -0.827175501205501,51.5477089896397 -0.827288309675316,51.5474142762305 -0.827563820842238,51.546849616873 -0.827882772204084,51.5463942530386 -0.828207464228129,51.546048526442 -0.828617579814457,51.5457469803721 -0.828773910486473,51.545669344637 -0.82888585703159,51.5456300095593 -0.82905574183143,51.5455894540728 -0.82962358540682,51.5455447776473 -0.831119076200097,51.545715199474 -0.831277539103003,51.5457212718432 -0.831362648928456,51.5457176251923 -0.831501735694846,51.5456956372502 -0.831639759937615,51.545654760791 -0.832143479726002,51.5454115768091 -0.832241066168883,51.5453756915203 -0.832323758981362,51.5453549398442 -0.83243101354881,51.5453362299693 -0.83254229424754,51.5453274485344 -0.83272947731808,51.5453356030384 -0.833575675098805,51.5455185014397 -0.833784778001205,51.5455763136529 -0.834047826875749,51.5456634277182 -0.834300569682698,51.5457630240076 -0.834613938552351,51.5459145516412 -0.834724833193627,51.5459767812035 -0.834953366893555,51.5461211724369 -0.835082744454143,51.5461952715698 -0.835290159355717,51.5464310560156 -0.835578657146994,51.5466533512655 -0.835656800840902,51.5466990741939 -0.835746543371041,51.5467422145842 -0.835928259976559,51.5468016402591 -0.83671937798526,51.5469353393544 -0.837597840945815,51.5469871957154 -0.837649808983899,51.5469823172254 -0.837849241761638,51.54696721273 -0.837954882107255,51.5469511797886 -0.838086806978504,51.5469255176879 -0.838214517332185,51.5468926228042 -0.838310491971978,51.5468639086256 -0.838463354132998,51.5468051929371 -0.839018076399784,51.5464302514852 -0.839535177020158,51.5460568225609 -0.840097195014881,51.5456748469189 -0.84071791348875,51.5452565911817 -0.840922682303755,51.5451434601158 -0.841030474079505,51.5450986783763 -0.841176056656667,51.5450452814075 -0.841280699527409,51.5450121543349 -0.841879800489493,51.5448732508562 -0.842263401954531,51.5448159083152 -0.842743668055121,51.5447586197339 -0.84275703286026,51.5443442488242 -0.842722814492,51.5441604365891 -0.842736589667339,51.5440158425093 -0.842695075843837,51.5435478027579 -0.842726707238786,51.543097653804 -0.842761209287802,51.5429280046773 -0.842936565740702,51.5423847940427 -0.843116441839106,51.5418318308216 -0.843450767343308,51.5410437886561 -0.843843429363528,51.5400549571604 -0.844058368023899,51.5395391037913 -0.844571532203778,51.5385793244972 -0.844692246218422,51.5383098415067 -0.84498841386366,51.5380034307837 -0.845080475853003,51.537898261984 -0.84522459347479,51.5377278928144 -0.845276856258837,51.5376591885559 -0.845323660471313,51.5375760469603 -0.84536061112132,51.5374829207841 -0.845499868823024,51.5372226086375 -0.84568473803959,51.5369825220098 -0.845899227565296,51.5367652001044 -0.845946823719173,51.5366506039218 -0.846080347566151,51.5363300053135 -0.84619285854856,51.5359894238045 -0.846229551265806,51.535675963803 -0.846011647328365,51.5351118021566 -0.846000824622507,51.5350838286131 -0.845954487612858,51.5345797848878 -0.845971821171686,51.5344630926101 -0.846044745938557,51.5342587615606 -0.846119212997255,51.5340545346414 -0.846286231630477,51.5336640583879 -0.846541176889789,51.5333878921873 -0.846678662409047,51.5332534141627 -0.846817455477312,51.5331235320408 -0.846924491900019,51.5330508711448 -0.847847936584315,51.5325635460783 -0.847900501790262,51.5325955251484 -0.848041693149993,51.5325447721396 -0.848043118647966,51.5325447861335 -0.848569073018863,51.5322684899134 -0.848907432679912,51.532115303958 -0.849183322410456,51.5319786736951 -0.849534606285383,51.5318266017942 -0.849767578960983,51.5315627083671 -0.850133376693368,51.531008770205 -0.85024735244378,51.530886731795 -0.850353729594334,51.5307879017908 -0.850465621177857,51.5306919123278 -0.850559788973117,51.5306200203298 -0.8506771202399,51.5305392759169 -0.850944864551949,51.5303809872213 -0.851225137615495,51.5302443060317 -0.851327634130821,51.530181484244 -0.851487512885103,51.5300724791393 -0.851851969913732,51.5297972849862 -0.852104035215811,51.5296333575595 -0.852205439756116,51.5295570410816 -0.852292459508355,51.5294760886835 -0.852365151608762,51.5293976927541 -0.852418611511096,51.5293325930407 -0.85252963661001,51.5291618905789 -0.852608957801256,51.5289899796227 -0.852655296290097,51.5288061499552 -0.852697888414042,51.5287193693113 -0.85276982628117,51.528609412808 -0.85300294193648,51.528338323803 -0.853052320890468,51.5282084594652 -0.853204500919118,51.5279464672113 -0.85333421428287,51.527660883138 -0.853550693144738,51.5272520913659 -0.853598938256132,51.5271104406409 -0.853598431254029,51.5270690841721 -0.853563821775564,51.5269563783358 -0.853563253899887,51.5269222130737 -0.853573282101737,51.5268683743471 -0.853620737062475,51.5267581779921 -0.853638503747729,51.5266801436617 -0.853662949987939,51.5265680148773 -0.853783779531024,51.5262904325731 -0.853907491772685,51.5260731085118 -0.851695894443271,51.5251136162233 -0.851260889673146,51.5248683521882 -0.851110126121693,51.5247904658334 -0.850992939852908,51.5247479678457 -0.850859903950408,51.5247071111247 -0.850072661845424,51.5244844625023 -0.8495722581161,51.5240947200695 -0.84862470299334,51.5233723854343 -0.848521953169689,51.5232759999886 -0.848517693856092,51.5232705638933 -0.848323780445727,51.5230142601843 -0.848284095034381,51.5229337753657 -0.848062017747607,51.5226492377433 -0.847641193916682,51.5222485820126 -0.847403448849429,51.522071851637 -0.846109240192466,51.5212111592161 -0.845286359741491,51.520633853425 -0.844777075049087,51.520199056003 -0.843673875489645,51.5193689827347 -0.843291118641871,51.5190585809065 -0.842908413940373,51.5187463799037 -0.842117129715076,51.5180650852317 -0.841647322193505,51.5176081896166 -0.84152712832093,51.5174603855485 -0.840189011206135,51.5163492858491 -0.83990496147982,51.5161827808621 -0.839695142071535,51.5160458637322 -0.839264331242079,51.5158752081454 -0.83923920454156,51.5158399015142 -0.838906809790691,51.5153689812592 -0.838244865016517,51.514876909605 -0.838152987794241,51.5148031852109 -0.838078593052355,51.5147241505418 -0.838007281458378,51.5146407411698 -0.837737688445628,51.514135471229 -0.837695593187459,51.5140900177194 -0.83765059875919,51.5140464219979 -0.837028110903426,51.5135879947049 -0.836927958946741,51.513503400476 -0.836884347256431,51.5134615266418 -0.836707174516724,51.5132332360549 -0.836618363931048,51.5131559458142 -0.836616819457537,51.5131559304999 -0.836519630825394,51.5130110459369 -0.836463504568769,51.5129520574215 -0.836338054340194,51.5128438388352 -0.836254444915805,51.5127862861202 -0.836186202718656,51.5127505502474 -0.83610901422847,51.5127255133132 -0.836013038296833,51.5127056833571 -0.835941094541622,51.5126986769857 -0.835835737316953,51.5127066209748 -0.835586432744103,51.5127634772917 -0.835056996660263,51.5128419141029 -0.833995173057139,51.5129419375542 -0.833951910983922,51.5129424059444 -0.833833903400337,51.5129385364682 -0.833513083814461,51.5129155704881 -0.833091348229338,51.5128987918892 -0.83275523677871,51.5128558956112 -0.831902697147651,51.5127169752 -0.831610928639815,51.5126313670689 -0.831390020437693,51.5125905122664 -0.831220449836368,51.5125726421798 -0.831086616999506,51.512565016397 -0.830776542615099,51.512572714748 -0.830622567387776,51.5125675844284 -0.83017249932384,51.5125298376215 -0.828854131609265,51.512407823565 -0.828318762528162,51.512379106744 -0.827871869369628,51.5123845319143 -0.827450182426936,51.5124216694444 -0.827307311528275,51.5124283326641 -0.827194962184673,51.5124263105624 -0.826219421448057,51.5123680132717 -0.825836190657687,51.5123650772936 -0.825485728223651,51.5123723574932 -0.825116432341704,51.512386638986 -0.824689083720664,51.5124175080994 -0.824489797674503,51.5124370863174 -0.824251017041642,51.5124769447015 -0.824165710409266,51.5124859774951 -0.824109524191723,51.5124854144379 -0.824056327909973,51.5124794879065 -0.824006332245326,51.5124646041085 -0.823956517761509,51.5124380351794 -0.82392101178201,51.5124188014616 -0.823897073416643,51.5123978861752 -0.823839108160873,51.5122956342067 -0.823821061198742,51.5122720803531 -0.823778839332125,51.5122321039246 -0.82365604194718,51.5121328877755 -0.823551409841949,51.5120526415513 -0.823093022725153,51.5117801599251 -0.822499348078778,51.5111051193131 -0.822084652773836,51.5107008364187 -0.822021259479429,51.510648061582 -0.821658804036787,51.5104528571285 -0.821002452117989,51.5100856965272 -0.820696315708407,51.5099459809288 -0.82021152650042,51.5097450472918 -0.819221605122389,51.5091883514718 -0.818961926994911,51.5089753849431 -0.818823682534371,51.5089137648202 -0.818525491768934,51.5086328995655 -0.817895223094711,51.5078756677643 -0.817700438968982,51.507662454554 -0.81740443474417,51.5072979185108 -0.817390197616722,51.5072375468219 -0.817548380492349,51.5069693680272 -0.817659383630802,51.5067475492879 -0.81748753818521,51.5063690722547 -0.817414544892187,51.5061875603442 -0.817294695589537,51.5055263507734 -0.817228946572107,51.5048405159178 -0.817252724809036,51.5047022287732 -0.817306526529083,51.5045697283749 -0.81729138526333,51.5043195799897 -0.81716609203359,51.5038183266024 -0.817143007181493,51.5035951567758 -0.81713538582517,51.5032794624764 -0.81710116033723,51.5030965426362 -0.817090629089124,51.5028931863342 -0.817091816479131,51.5028473518041 -0.8171432482242,51.5025861883031 -0.817267783802354,51.5020066379129 -0.817352648267638,51.5017341251826 -0.817462813569256,51.5014295060441 -0.817518451274227,51.5012259171552 -0.817592810866779,51.5010837342409 -0.818274704521731,51.4998425151011 -0.818451539184706,51.4994630571337 -0.818558939569735,51.4991548138329 -0.818648520716546,51.4989245993472 -0.818690046764921,51.4987658159269 -0.818694402091541,51.4986525936751 -0.81865251791788,51.4984902730628 -0.81864832401903,51.4983769647507 -0.818682646173743,51.4981614757502 -0.818741086420179,51.4980191325609 -0.818280080759769,51.4979650502207 -0.818129015554955,51.4977899441179 -0.818102632392307,51.4977492263979 -0.818054867136717,51.4976489636161 -0.818038807509605,51.497544435111 -0.817995763991499,51.4974819752191 -0.817703673231562,51.4972488152673 -0.817614201900247,51.4971400421159 -0.817273961911611,51.4972067305262 -0.817066457377209,51.496432272645 -0.818055622172236,51.4960052645824 -0.818604728777769,51.4957751817544 -0.818542734439231,51.4952197339442 -0.819592899604827,51.4951053487157 -0.820441536513132,51.4949897371641 -0.820680244012422,51.4956710137633 -0.819728539457457,51.4957667128052 -0.819882781560769,51.4962645671579 -0.819989036131674,51.4971118046214 -0.820939579696167,51.4971770927877 -0.821220261089196,51.4966845072608 -0.821358752640001,51.496344122336 -0.821408816486248,51.4961900076531 -0.821443100136956,51.4959754164882 -0.821542999953953,51.4955655145349 -0.822138100754813,51.4955589033256 -0.822460551363503,51.4945649477781 -0.822145499812096,51.4942686424898 -0.8223474762435,51.494201451048 -0.822807719840305,51.4940028186216 -0.823129961119137,51.4937992047686 -0.823705460051526,51.4933769893658 -0.82373668711807,51.4933404461031 -0.823862334299415,51.4931609283057 -0.824072249135315,51.4928959570795 -0.824206832987932,51.49270133741 -0.824297221727136,51.4926041685103 -0.824391556432512,51.4925197141244 -0.824556386639654,51.492386524309 -0.825233749193863,51.4920336413489 -0.82529573897882,51.4919784370646 -0.825522021611893,51.4917460791279 -0.8256649465538,51.4915685307452 -0.825746982597661,51.491458781993 -0.826203802950564,51.4907772826514 -0.826469419347735,51.4903033212235 -0.826566051421321,51.4901892236559 -0.826753836458766,51.4899986381048 -0.826844466367382,51.4898916720718 -0.827158935478641,51.4894802247608 -0.827302253017804,51.4893423211211 -0.827466436356544,51.4892288977458 -0.82863677451657,51.4883539611901 -0.829148655807479,51.4878285157085 -0.829216750027628,51.487701545219 -0.829304115566232,51.4874389380458 -0.829356379818715,51.4871975550892 -0.829375464515667,51.4870691973525 -0.829382577277158,51.4869631038755 -0.829369741447913,51.4867319482268 -0.82932982967175,51.4865471781603 -0.829307170753769,51.4864768346658 -0.829142265132452,51.4862809292018 -0.82865058854655,51.4854037833611 -0.828290109942127,51.4844677161282 -0.82816939057211,51.4842300897156 -0.828061287934926,51.4840653134349 -0.828006821293547,51.4839991471004 -0.827953434196771,51.4839464758653 -0.827645815615877,51.4836997005837 -0.827456173991981,51.4835152315062 -0.827260072817504,51.4833002238086 -0.827122213960666,51.4831153733009 -0.826983825598512,51.4829557766428 -0.826865195786347,51.4828637082245 -0.826723373713968,51.482777790318 -0.826399084679362,51.4825056747121 -0.826418907965047,51.4820715962461 -0.826470519194921,51.4818005424899 -0.826702939279156,51.4814980361333 -0.826636167128031,51.4811808523435 -0.82659261248878,51.4808612030513 -0.826605140158922,51.480650886677 -0.826517667882796,51.4804693257115 -0.826423103602758,51.4802264755527 -0.826206668723354,51.4797963257658 -0.82612728693415,51.4798036227251 -0.825963066944214,51.4795825489972 -0.825837314725962,51.4793753433649 -0.825494783457967,51.4789780900273 -0.825239343333484,51.4786617135302 -0.825154721096648,51.478535913988 -0.825055798379299,51.4784629186152 -0.825077457043235,51.478405603044 -0.825043492958186,51.4783827902636 -0.824905590858525,51.478311291897 -0.824428919822538,51.4781491133913 -0.824383325723171,51.4781261830124 -0.824345089475297,51.4781033263281 -0.824287325000085,51.4780551036607 -0.824154449759404,51.4779036495933 -0.824091089631922,51.4777914567244 -0.82406339053484,51.4776913961566 -0.82400983378021,51.4773644544893 -0.823870401114614,51.4769099021754 -0.823786816059736,51.4766887341035 -0.823791678323967,51.4766105751502 -0.823707230279208,51.4765935476305 -0.823733331824987,51.4762484365443 -0.823703920988259,51.4761043115125 -0.8237050184949,51.4760063378685 -0.823687726035929,51.4759494413553 -0.823643386606523,51.4758824751553 -0.823402362897987,51.4756804944717 -0.82292317203518,51.4751658096247 -0.822802776023059,51.4749775319168 -0.822702600981971,51.4747877493708 -0.822663776303021,51.4747280298842 -0.822603772168206,51.4746563219887 -0.822400307954656,51.4744484234125 -0.822293336539474,51.4743519719693 -0.822100231521862,51.4741936183159 -0.821989854084941,51.4741187967741 -0.821939319244504,51.4737306668123 -0.821838869326544,51.4731605388332 -0.821784170089364,51.472602466139 -0.822165247680305,51.4722843815265 -0.822964921272317,51.4715919507181 -0.822921224755776,51.4715555543714 -0.823543337357653,51.4710456209506 -0.823967273429959,51.4706848112219 -0.82442273800842,51.4702747834827 -0.824625364335869,51.4700673594008 -0.824770045655255,51.4695328602074 -0.824918288317556,51.4691459126686 -0.825007004982223,51.4688302831861 -0.825066751193143,51.4683533638478 -0.825086690706638,51.4680810946366 -0.82515744450624,51.4662249499325 -0.825178919955604,51.465671326969 -0.825198923857925,51.4655626657665 -0.82564892530187,51.4654736805704 -0.828210153749087,51.4649624377655 -0.82874165949073,51.4648373973393 -0.829351969797405,51.4646708010535 -0.829543189119282,51.4646241662478 -0.829725678055033,51.4645801398578 -0.830052791938017,51.4645105873856 -0.830249364052298,51.464481983376 -0.832857516772044,51.4642112144705 -0.833743912704367,51.4641129637231 -0.833754365368195,51.4640986840307 -0.832719754703475,51.4636846824446 -0.831172508727017,51.4631144533961 -0.83005852807746,51.4627149194451 -0.829577903548686,51.462536630463 -0.82927957719809,51.462437378067 -0.829114404712878,51.4623710065587 -0.828953524164388,51.4622992833548 -0.828433958719544,51.4620153353879 -0.828290694642909,51.4620435694763 -0.828236735294543,51.4617364019636 -0.828196269988028,51.4615741878863 -0.827998015323012,51.4607709809229 -0.827771452205511,51.459896474639 -0.827605663541218,51.4591790806994 -0.827502489082855,51.4587644468503 -0.827170804719552,51.4575013555512 -0.826726708333227,51.455736248525 -0.826656882718507,51.4555439858788 -0.826610377373036,51.4554464352296 -0.826064122806684,51.4544680472168 -0.826018329876961,51.4544028647336 -0.825926491628177,51.4542778024632 -0.825770211811483,51.4540883600589 -0.825130224202031,51.4531755506435 -0.823938689823493,51.4515495649438 -0.823916439881486,51.4515196764681 -0.822961780673083,51.4500839290536 -0.822475947502965,51.4493902788564 -0.822223337312159,51.4490307692607 -0.821801377699289,51.4484285506474 -0.821428529333359,51.447928404472 -0.821206051921983,51.44762942474 -0.820482416003167,51.4466168524939 -0.820045089692263,51.4459955932886 -0.819581642794734,51.4453893503509 -0.818933406324645,51.4444089880079 -0.818195527712104,51.4433405193598 -0.818085732865223,51.4431909950858 -0.815716610371033,51.4428856293433 -0.814897538590075,51.4427299251309 -0.814161155056364,51.4426065138949 -0.813215309373728,51.4424584157691 -0.812833483713472,51.4424239852675 -0.812579165071206,51.4424088246607 -0.812303216821142,51.4423997371304 -0.81215797286697,51.4423964683 -0.811947691153068,51.4424033273456 -0.811809123221346,51.4424217006604 -0.811489278655113,51.442490375883 -0.811007970007964,51.4425772804533 -0.810809005830986,51.4425914433093 -0.809808981710337,51.4425929841611 -0.809343168070461,51.4425765679125 -0.808836098631949,51.4425453485721 -0.808645837625856,51.4425577986483 -0.808529365936017,51.4425521208994 -0.808492262510964,51.4425418551459 -0.808438171248036,51.442518831257 -0.808346067820357,51.442465665819 -0.808144846204029,51.4423431592128 -0.807809640640954,51.4421221117585 -0.807262789265204,51.4417919331626 -0.806984943757423,51.4416326851332 -0.806773113690756,51.4415351495441 -0.806621808196237,51.4414868633587 -0.806508961235168,51.4414560483584 -0.806391703095512,51.4414305828003 -0.806232672429013,51.441401095819 -0.806069326611408,51.4413778565661 -0.805933025552275,51.4413638829777 -0.805766316988406,51.441355892306 -0.805651224397164,51.441352023198 -0.805415232309535,51.4413532150468 -0.805005064080708,51.4413598233681 -0.804284948069399,51.4413875417138 -0.803445823016576,51.4413978595976 -0.803143955457385,51.4413866873274 -0.802921289890855,51.4413727278272 -0.802432976220231,51.4413371765224 -0.802033850348645,51.441302533571 -0.801445904729896,51.4412300017126 -0.80069382927559,51.4411008585955 -0.800019761547891,51.4411821496758 -0.800020430842626,51.4413241940218 -0.80002538897439,51.4415742480219 -0.80001782216198,51.4416955321145 -0.800004598766132,51.4417610214832 -0.799926837472207,51.4419850575342 -0.79990366217985,51.442099889038 -0.799891776588639,51.4422230154467 -0.799902021273071,51.4423256033982 -0.799935038717875,51.442441998293 -0.799987773210707,51.4425710906568 -0.800043754831515,51.4426849338693 -0.800187525017291,51.4429076411862 -0.800232472889707,51.4430033922304 -0.800247094065253,51.4430521765303 -0.80026710383254,51.4432213873363 -0.800246043818668,51.4433686926243 -0.800203553017991,51.4434509623387 -0.800050396867885,51.443749740989 -0.800019504882964,51.4438285342497 -0.80000266186155,51.444308591054 -0.800012507112226,51.4444264563165 -0.800056220276922,51.4446283628141 -0.80006345238942,51.4447327174187 -0.80006326516843,51.4448531776634 -0.800047675063559,51.4449546909252 -0.800025368966479,51.4450362688384 -0.799994662898453,51.4451078719792 -0.799889299872329,51.4452848798877 -0.799832524505344,51.4453643064753 -0.799610503946673,51.4456012493175 -0.799574669397572,51.44565122471 -0.799526010384258,51.4457514110699 -0.799473665612637,51.4459379501444 -0.799447606026159,51.4459952176037 -0.799347594481972,51.4461353315426 -0.799131002658653,51.4463822179174 -0.798990634612633,51.4465229073671 -0.798762939627972,51.4466455312637 -0.798049750506826,51.4470617264488 -0.797161425904609,51.4475184627833 -0.79708371534231,51.4475725021869 -0.797035136116264,51.4476151549758 -0.796956221817689,51.4477150299241 -0.796892563406321,51.4478394232154 -0.796770904535306,51.4483606552317 -0.796698263974831,51.4485513902204 -0.796590795189921,51.4487535448915 -0.796500804175964,51.4488910626024 -0.79608955251177,51.4493742621712 -0.795951755921323,51.4495247725435 -0.795790842378408,51.4496202986319 -0.794695627240208,51.450225919161 -0.79333810043369,51.4509546813337 -0.793098077997929,51.4511608605753 -0.792942730486416,51.4513192767604 -0.79285770198748,51.4513804296591 -0.792781828477613,51.4514183042525 -0.792701875640248,51.4514489448542 -0.792529437173337,51.4514949045641 -0.792420846579603,51.4515180581722 -0.79217540782112,51.4515469943036 -0.79202489448075,51.4515805037246 -0.79173824549768,51.4517007088437 -0.79165985542594,51.4517259704766 -0.791385966208275,51.4517942567275 -0.790578155455763,51.4520313461981 -0.790435679372953,51.4520839038792 -0.79031486764404,51.4521383942796 -0.790155381662932,51.4522329380077 -0.789922126732133,51.452402323436 -0.789808738074166,51.4524991408148 -0.7895695245414,51.4527277966663 -0.789231221741235,51.4531136466097 -0.788847502456436,51.4534756534313 -0.788082744174033,51.4543085581894 -0.787067333533234,51.4556432773116 -0.786687442582799,51.456293977735 -0.785704988930728,51.4577882377543 -0.785248167609665,51.4585684892717 -0.78488612027372,51.4591393557341 -0.784677996459192,51.4594995661009 -0.784131999088681,51.4603814391382 -0.783873977248825,51.4607743917937 -0.783841147638524,51.4614152725178 -0.783832669777445,51.4615689049966 -0.783807060612457,51.462424709916 -0.783818998441043,51.4628950740274 -0.783809411691631,51.4633626081657 -0.783801369830888,51.4638300683718 -0.78376704496364,51.464576110977 -0.783538221672346,51.4645755365746 -0.78322528632226,51.4658401717931 -0.782994103925353,51.4668466666587 -0.782788362146088,51.4676501653044 -0.782742061243866,51.4678241694639 -0.782656712496523,51.4682162092087 -0.78256490664671,51.4686900761317 -0.780632516743447,51.4687050794062 -0.779435348403544,51.4687339898807 -0.777667702871013,51.4687227900593 -0.777666277992423,51.4687227752233 -0.777244890637482,51.468704902536 -0.776135584725177,51.4687328961049 -0.775652153005369,51.4687224618303 -0.775494569395043,51.4686408128162 -0.775160145187381,51.4683855300039 -0.774342880289545,51.4682619346289 -0.77230493871892,51.4680266000353 -0.771087470540341,51.4679014928057 -0.770561824864021,51.4678545470569 -0.769641635286935,51.4677586073994 -0.769638156422274,51.4675130683907 -0.769673350585699,51.4673785953053 -0.769699304663287,51.4672169674099 -0.769762123540466,51.4670216519379 -0.769792944574902,51.4667890529462 -0.769839354638709,51.4666124428856 -0.769896237893611,51.4663198871303 -0.76990833489399,51.4661347372031 -0.769965433118817,51.4658871313442 -0.769994803964588,51.4657570887789 -0.770053999593647,51.4655904115446 -0.770121062872827,51.4653474053295 -0.770139526130823,51.4651947750775 -0.770123200587615,51.4647288498862 -0.770090775094976,51.4645441325278 -0.770056831213999,51.464358500001 -0.769905575150615,51.4638300300527 -0.769848058149983,51.4636648269506 -0.76975938690699,51.4634841038441 -0.769803041816321,51.4634098577368 -0.769559439945684,51.4632086314632 -0.769046114503556,51.4628111175146 -0.768483502145396,51.4623754166345 -0.768077699786058,51.4621022730406 -0.767730676207113,51.4618414304981 -0.767153943283333,51.4614460223023 -0.7663500278044,51.460831478276 -0.765871313126234,51.4605431727593 -0.765566454763576,51.4603700566561 -0.765338976407517,51.460210250583 -0.765013429704831,51.4599550195433 -0.764819145872137,51.4598450951871 -0.76462816963277,51.459722619744 -0.764547244452877,51.4597352514468 -0.764478856247857,51.4598154376038 -0.764345330064305,51.4598553825758 -0.764153255829639,51.4598263884139 -0.763933595040859,51.4596982156907 -0.76382818969404,51.4596548518 -0.763724185437106,51.459616807138 -0.763526613068995,51.4595760666152 -0.763310504346049,51.45958457424 -0.763151647183889,51.4596044728969 -0.762941721427392,51.4597003350947 -0.762248160877299,51.4594277244951 -0.762037012660042,51.4593580716193 -0.761506816615511,51.4592678751235 -0.761242423159346,51.4591967587616 -0.760745497242927,51.459105203652 -0.760514121950292,51.4590901708912 -0.760021932622349,51.4590867613281 -0.759720376853101,51.4590601971587 -0.758555269023355,51.4590307786754 -0.757813519269638,51.4589959491812 -0.757329114646446,51.4590249741995 -0.757086357762061,51.4591626395738 -0.756429501637031,51.4596071365632 -0.75545511545097,51.4603458207681 -0.754944695389241,51.4606937868559 -0.753499321019122,51.4617026290843 -0.752752386472378,51.4622270587016 -0.752748270472885,51.4623259021235 -0.752683347932798,51.4624871178643 -0.752633512005724,51.4625737882725 -0.752581812690616,51.4627288518401 -0.752233423183297,51.4633618004953 -0.75208035419656,51.4636955799947 -0.751830054489625,51.4641128289998 -0.751751677192922,51.4643494145391 -0.751668244467043,51.4645580779671 -0.751402871115266,51.4649967399317 -0.751240756804879,51.465348399841 -0.751041288834773,51.4656942675776 -0.750701468298528,51.4663812400017 -0.750567100517115,51.4663986852015 -0.750167331587707,51.4664331651486 -0.74945538360501,51.4665154639412 -0.74929207583579,51.4665406891187 -0.749128626748548,51.4665668117995 -0.748743333614362,51.466653493001 -0.747612873160127,51.4668779321587 -0.746947841960915,51.4669760001369 -0.746824747623715,51.4671105184123 -0.746719595235196,51.4672703103861 -0.74658121335482,51.4673821903672 -0.746204923087045,51.4676641268953 -0.745615166180342,51.4675920972272 -0.745491657414963,51.4678974147042 -0.745298060177385,51.4683432113023 -0.745228511947193,51.4685159679452 -0.745095595714494,51.4688481541824 -0.744890343835827,51.4694026012431 -0.744774290536214,51.4696954124533 -0.744252704788597,51.4709712240814 -0.74400391515139,51.4715368899414 -0.743564072150157,51.4726616476727 -0.743232827118917,51.4734538697055 -0.743008458564719,51.4740197961252 -0.74288629271275,51.4740112935588 -0.74284431265594,51.4741781430202 -0.742702650538298,51.4746675547228 -0.742642322903546,51.4748755594819 -0.742544038575801,51.4751514798834 -0.742587879274463,51.4751762224001 -0.742683285860246,51.4752168015134 -0.742766149568815,51.4752428618393 -0.742833430884569,51.4752570676062 -0.742975409574954,51.4752747722525 -0.743451204272462,51.4752547032497 -0.743656693346356,51.4752164524736 -0.747274265387385,51.4750384347797 -0.747278936223359,51.4752884897216 -0.747114138301766,51.4763630482325 -0.746942407924733,51.4775859448173 -0.746882555421741,51.4778245163897 -0.746832985068923,51.478108144853 -0.746720385142936,51.4786464931539 -0.746608459585654,51.4789438389427 -0.746491719506923,51.4792131759281 -0.746490890922185,51.4793472005875 -0.746507031407393,51.4796504094937 -0.746498997401172,51.4798913334107 -0.746515649458248,51.4800200615002 -0.746516180852514,51.4801045686083 -0.746507165719633,51.4801691964716 -0.746488225033227,51.4802320106582 -0.746445475955819,51.4803187519393 -0.74616107213065,51.4806618988978 -0.746125394669418,51.4807028694963 -0.745962685829482,51.4808558401184 -0.745935946130012,51.4808870176178 -0.745866824276083,51.4809914556708 -0.745816285326923,51.4811023859647 -0.745679050689588,51.4812745067566 -0.745544653042535,51.4815032910036 -0.745482017319627,51.4815790325575 -0.745216316358425,51.4818675417048 -0.745122069150725,51.4818404646032 -0.745103949849114,51.4818690365684 -0.745080568725986,51.4819335117193 -0.745040122900725,51.4821480185317 -0.744946489644475,51.4823061324568 -0.744905226071813,51.4823947768593 -0.744878476816222,51.4824780940298 -0.744869730610906,51.4825328362023 -0.744876733645711,51.4828008897114 -0.744903036869613,51.482893763798 -0.745012557970972,51.4830478470518 -0.745108944510783,51.483208891651 -0.74514924858916,51.483263260052 -0.745352600538026,51.4834596981979 -0.745487133027441,51.4836500067124 -0.745528516302989,51.4837169718028 -0.745575985714306,51.4838217570773 -0.745601422436325,51.4839461735336 -0.74559860727798,51.4840486224805 -0.745581921599339,51.4841329445813 -0.745555497209942,51.4842000831966 -0.745242120333126,51.4847578524951 -0.74505296828069,51.4849303153061 -0.744955777087275,51.4850101806457 -0.744868803125021,51.4850811658809 -0.744778635058157,51.4851647021026 -0.744707342373475,51.4852440358621 -0.744678828811683,51.4852877791067 -0.744634125684917,51.4853933759954 -0.744568976520926,51.4857199843263 -0.74473942633416,51.4863314700549 -0.744930427998609,51.4870852970634 -0.744985163045905,51.4873447778998 -0.745015886122363,51.487432393413 -0.745183070889785,51.4876921769484 -0.745536628946271,51.4881878558287 -0.745609096172493,51.4882776256141 -0.74577698439685,51.4884601959407 -0.745865537139384,51.4885393505783 -0.746042179958124,51.4886626839531 -0.746100294911804,51.48869566677 -0.746179967584921,51.4887306772716 -0.746258438512112,51.4887575838976 -0.746320015044656,51.4887726249944 -0.746514969788419,51.4888043710787 -0.746770891832477,51.4888214866466 -0.746877180831089,51.4888343071005 -0.74700901186856,51.4888554910196 -0.747157973874906,51.4888885435519 -0.747300920129495,51.488928723479 -0.747432061064032,51.4889750689601 -0.748012073020547,51.4891521439133 -0.748347592681363,51.4890469489597 -0.749134547932284,51.4887666865892 -0.749993341479873,51.4884386420793 -0.750932447894994,51.4880655100545 -0.752349798407889,51.4874817946488 -0.753245096037284,51.4870803075655 -0.753551436412139,51.4869379307891 -0.753875356611954,51.4867866614681 -0.75389090023867,51.4867958156074 -0.754050095469772,51.4869279395922 -0.754116707678927,51.486967300692 -0.754147620262237,51.4869963946737 -0.754171978615881,51.4870523868402 -0.754158819248527,51.4871124761404 -0.754114405120298,51.4871560529399 -0.753972978649254,51.4872211641027 -0.753792468256862,51.4872911638784 -0.753739781371116,51.4873202692678 -0.75372797110537,51.4873309315826 -0.753670297542922,51.4873860534477 -0.753631282384185,51.4874449691455 -0.753765145070348,51.4878699680254 -0.75398151596722,51.4884873161924 -0.754082506169974,51.4887986100014 -0.754179248666832,51.4891089594549 -0.75420036859089,51.4892314395493 -0.7542136061931,51.489486068676 -0.754272393987566,51.4898121964383 -0.754318735112507,51.490224490401 -0.754319451192273,51.4905158427998 -0.754265322808576,51.4913893040051 -0.754274563273901,51.4918425555857 -0.754314790656973,51.4921091567163 -0.754351381485171,51.4921913478938 -0.754432485202527,51.4922830902033 -0.7544628113291,51.4923337521602 -0.754492944096295,51.4924437416804 -0.754457076600848,51.4929136840009 -0.754453274156936,51.4930529789467 -0.754632585093572,51.4932365547352 -0.7549744131324,51.4935360179 -0.755069249094684,51.4935990492983 -0.755152054500072,51.49368083077 -0.755235724725345,51.493831030993 -0.755273175781893,51.4939384011448 -0.755313433658176,51.4942041029113 -0.755124966917868,51.4942470528092 -0.754930039879433,51.4943178007976 -0.754873093093119,51.4943459632545 -0.754771896258309,51.4944115009226 -0.754590596365622,51.4945659942997 -0.754535445534268,51.4946328292094 -0.754520049143458,51.4946704212502 -0.754511529959711,51.4947170754303 -0.754514427809758,51.4947675364495 -0.754528989835818,51.4948171320271 -0.754547976316381,51.4948568869951 -0.755002878784201,51.4954524891366 -0.755258015520076,51.4957609208798 -0.755348464134782,51.4958239055189 -0.755572069821662,51.496130204069 -0.755885467453661,51.496523751303 -0.755988175234032,51.4966642631969 -0.756129223541251,51.4968797032906 -0.756417980101916,51.4973845463043 -0.756539682039587,51.4976780781634 -0.756875049358902,51.4983775820208 -0.756953848383605,51.4989206525551 -0.756998209362333,51.4993544980023 -0.757056391773219,51.4997039899387 -0.757172152767062,51.4998976766799 -0.757320263322909,51.5000637487489 -0.7580135417327,51.5007419544742 -0.758359429003046,51.5010522379644 -0.75854185699099,51.5012321547355 -0.758674819768139,51.5014314152971 -0.758824398679742,51.5017054626167 -0.759422187731568,51.5025551579119 -0.759467446760157,51.5026905658942 -0.759581648686475,51.5028373986402 -0.759854398564791,51.5028196032039 -0.759890829368743,51.5028559446757 -0.760374937978809,51.5035975516483 -0.760949616200898,51.504455984477 -0.761157373030272,51.5048151421601 -0.761658645038364,51.5048735543883 -0.76234370262418,51.5049535878508 -0.763400425383927,51.505092364862 -0.763546529040462,51.5051235680107 -0.763379130085209,51.5056631445795 -0.76335501459902,51.5058077082443 -0.763346633221628,51.5059065032285 -0.76337614726348,51.5061981583403 -0.763374478917589,51.5063123057513 -0.763365939898578,51.5063643536908 -0.763324995576038,51.5064898634389 -0.763270137025428,51.506922662089 -0.764891571873571,51.5068507275491 -0.765247350009421,51.5069614409905 -0.765255947146311,51.5069642280326 -0.765640127150417,51.5070879138281 -0.765884164895748,51.5071749776413 -0.766089560187142,51.5072544433174 -0.766310169011198,51.5073556436202 -0.766444945281418,51.5074326594376 -0.76590632112734,51.5082748769007 -0.76565883608797,51.5087408003971 -0.765389294681351,51.5092225841014 -0.765079510359132,51.5099135757328 -0.767200470859398,51.5105598961368 -0.769059662399075,51.5111350310166 -0.770029037506366,51.5114176582596 -0.771651379438065,51.511909462399 -0.771879395263236,51.5120017412288 -0.773394053088813,51.512425783653 -0.773517165777957,51.5125134581786 -0.773367862006369,51.5125999940922 -0.773697192511143,51.5126232106483 -0.773804995339874,51.5126351243166 -0.773764920169126,51.5128352583673 -0.774003234648033,51.512977981191 -0.773979031353801,51.5130739152115 -0.773859338983438,51.5132390582921 -0.773821993113415,51.5133420458565 -0.773801677142247,51.5135055301129 -0.773803100232916,51.5135630772022 -0.773817184540542,51.5136800853513 -0.773840419759217,51.5137793014133 -0.773878004569733,51.5138839707912 -0.773980397286352,51.5140972787199 -0.774087674302485,51.5143941492967 -0.77428809492477,51.5148198208381 -0.774336312198775,51.5149003300461 -0.774379430944205,51.5149583115537 -0.774517023731533,51.5150955775305 -0.774560698222147,51.5151328896117 -0.774760377831023,51.5152635217458 -0.774890145704077,51.5153692428339 -0.775013275351534,51.5155053681914 -0.77504016084147,51.5155263248072 -0.775153722976857,51.5155895361631 -0.775252693782649,51.515660686125 -0.775311151719395,51.5156829602913 -0.775619850294111,51.515727531674 -0.77578894909963,51.5157625555502 -0.775837481816619,51.5157783434718 -0.775900145442468,51.5158077630402 -0.775939883253023,51.5158324484514 -0.776073765434057,51.515944413804 -0.776261761069089,51.5161343412598 -0.776391323039891,51.516301096772 -0.7768627563493,51.5168842051282 -0.777744653834272,51.516730683546 -0.779728884615197,51.5163646939052 -0.779979222613042,51.5163258556578 -0.780292920520684,51.5162904609253 -0.780757689139847,51.5162089906835 -0.78105974219136,51.5161779680123 -0.781290120313916,51.5161300194513 -0.781950903635062,51.5161036173894 -0.78216240057444,51.5161174976671 -0.782789420694458,51.5160070488949 -0.782959697070562,51.5161050912092 -0.783288697038999,51.5162532307674 -0.783383576422708,51.5162065702679 -0.784050396077176,51.5166001126479 -0.784191138945059,51.5167275117472 -0.784243315847046,51.5167181636899 -0.784521537065203,51.5169304971351 -0.785246622763443,51.5173057603077 -0.785433897719433,51.5174174595836 -0.786565936723492,51.518148504668 -0.78699788401808,51.518381391442 -0.787567344014114,51.5187568323867 -0.787704382137431,51.5188589298229 -0.788223869453476,51.5191610358965 -0.788507527382492,51.5193357523999 -0.788569585778607,51.5193885323042 -0.788518332136946,51.5194167695356 -0.789149752050893,51.5199035017691 -0.789265932823562,51.5200305526241 -0.789506677581875,51.5203585432723 -0.789569563767753,51.5204877407804 -0.789595906232224,51.5205788956116 -0.789724801872715,51.5210468670512 -0.789793923793144,51.5210484782117 -0.789846545841892,51.5211839531415 -0.789896198428811,51.5213238008116 -0.790198253608812,51.5224869119143 -0.790235628698939,51.5225475265809 -0.790336041259086,51.5226735146231 -0.790461615321332,51.5228322140786 -0.790430937046198,51.5228462805763 -0.790590652996047,51.523129386415 -0.790709263391524,51.5233850996168 -0.790776670908719,51.5235592895918 -0.790841368134135,51.5237326432177 -0.790840646976455,51.5239214139294 -0.790816875153069,51.5240561002944 -0.79159940949148,51.5252087858767 -0.791794407552763,51.5254661837789 -0.791924915727296,51.5256545975612 -0.792229518768487,51.5262350358114 -0.792233676544129,51.5262440688363 -0.792280658766738,51.5263731015419 -0.792542733870608,51.5267102957323 -0.792610818928917,51.5269178435191 -0.793128520868346,51.5277288044321 -0.793071793961946,51.5277479980546 -0.793179736543257,51.5279721365547 -0.793227078450555,51.5281462090915 -0.79324409840942,51.5284287427165 -0.793158027666329,51.5290680870263 -0.793198121200592,51.5290756902829 -0.793287666051732,51.5302706799214 -0.793337982237816,51.5304942255594 -0.793346568147581,51.5308800509066 -0.793235363160899,51.530886998381 -0.79322598388407,51.5316243061119 -0.793232022009855,51.5317196566482 -0.793239747750154,51.5318096302244 -0.793256431353388,51.5318889990096 -0.793368786641512,51.5322749921261 -0.793474219540031,51.5322661885651 -0.793668816215823,51.5327609005547 -0.793574486605787,51.5330018368011 -0.793572493808455,51.5332392271761 -0.793599095988849,51.5335416360572 -0.793593421566464,51.5338688835692 -0.793624802631094,51.5341524637971 -0.793662040548653,51.5348712828601 -0.793830898815598,51.5360123404877 -0.793838534108796,51.5361598457783 -0.793841611342631,51.5365878650146 -0.793824642417904,51.5367397024319 -0.793796907958618,51.5369705355475 -0.793833496999604,51.5371695785131 -0.793721236132157,51.5374364001555 -0.793622114081431,51.5374218967973 -0.793571581025884,51.5375301492148 -0.793751231285661,51.5383709805471 -0.793864552198578,51.5386131519366 -0.793859260343038,51.5389754621756 -0.793911067702614,51.5393635296797 -0.794019440466586,51.5393565524096 -0.794174231616299,51.5398833061592 -0.794108813177991,51.5399024109861 -0.794339308707971,51.5401287055084 -0.794382601752665,51.5402361246332 -0.794459651588409,51.5404293802554 -0.794481033668627,51.5407137564088 -0.794750177835457,51.5417685544294 -0.794908848408203,51.5420408559084 -0.795107266557362,51.5422803037982 -0.795213615870615,51.5425124245351 -0.795221786475641,51.5428065523679 -0.795358772119095,51.5433510999129 -0.795791888507967,51.5446458874383 -0.795886362698275,51.54494539574 -0.795990392957715,51.545211741475 -0.796358279177847,51.5458611353452 -0.796408449603427,51.5459290709994 -0.796481491505848,51.5460044320829 -0.796616944480069,51.5461164811161 -0.796949216325843,51.5463131599395 -0.796847072193056,51.5465207577437 -0.796817670852054,51.5465986642236 -0.796552325630448,51.5473090746226 -0.796245532781693,51.5480036874312 -0.796059759882432,51.5484873001595 -0.796051704081573,51.5485718079199 -0.796067022149207,51.5486492746404 -0.795974585664042,51.5487094539401 -0.795723605367036,51.5490908172401 -0.795345028854404,51.5497739032664 -0.795246384170236,51.5499069235587 -0.795237949365978,51.5500057201333 -0.795210253634776,51.5500728568953 -0.795074764800893,51.5503987709219 -0.794705230299995,51.5506260940396 -0.794335762777761,51.5508012784116 -0.794470592464457,51.5511578354515 -0.795047811862414,51.5511448853138 -0.795439449992759,51.5511704800378 -0.797102897727413,51.5514815845024 -0.797722543534458,51.551501418183 -0.799401486544462,51.5515545633238 -0.800248287620647,51.5516009783233 -0.801566612814323,51.5517106337786 -0.80326750171006,51.5519159576022 -0.803673504803182,51.5519974061625 -0.804467519656369,51.5521889701554 -0.804654043404914,51.5522277272097 -0.804834814033087,51.5522637277874 -0.805093691870739,51.5522915340279 -0.805320915245765,51.552374751584 -0.805510223597598,51.5524162314105 -0.80608488349072,51.5525561111453 -0.806947112911574,51.5527365762592 -0.807128190450366,51.5527609803509 -0.807182905975807,51.5527651323311 -0.807763091804543,51.5527484637676 -0.808587198601477,51.5526768260923 -0.808683973355585,51.5526688191384 -0.809341933354899,51.5527159479477 -0.809582291356219,51.5527336679067 -0.810211319615176,51.5527274610117 -0.810515002812092,51.5526972786962 -0.810726543765539,51.5526616668823 -0.81088460886707,51.5526291088021 -0.811133040306898,51.5525606095852 -0.812061025596383,51.5522076426712 -0.812367958398527,51.5521072809117 -0.812707660761851,51.5520226216355 -0.812904812007717,51.5519868603384 -0.813171106949754,51.5519491012207 -0.813951820341468,51.5518211631359 -0.814095353861781,51.5517938472806 -0.81440017252259,51.5517196183136 -0.816920159292072,51.5509879596926 -0.817197890128202,51.5509583068918 -0.817794608250736,51.5509175741829 -0.818626084579951,51.5508899888583 -0.819501666429791,51.5508259862538 -0.819937094206241,51.5507773271683 -0.820363422606619,51.5507447569576 -0.822912615435975,51.550663289089 -0.823318870164621,51.5506251133749 -0.824150378287284,51.5504851220621 -0.824891216386313,51.5501670364494</coordinates></LinearRing></outerBoundaryIs></Polygon>
  </Placemark>
