  <Placemark>
	<Style><LineStyle><color>ff0000ff</color></LineStyle><PolyStyle><fill>0</fill></PolyStyle></Style>
	<ExtendedData><SchemaData schemaUrl="#Wards__December_2019__Boundaries_EW_BFE">
		<SimpleData name="objectid">1311</SimpleData>
		<SimpleData name="wd19cd">E05002251</SimpleData>
		<SimpleData name="wd19nm">Gillingham North</SimpleData>
		<SimpleData name="wd19nmw"></SimpleData>
		<SimpleData name="bng_e">578132</SimpleData>
		<SimpleData name="bng_n">168869</SimpleData>
		<SimpleData name="long">0.558918</SimpleData>
		<SimpleData name="lat">51.390888</SimpleData>
		<SimpleData name="st_areashape">4098916.86206634</SimpleData>
		<SimpleData name="st_lengthshape">9687.12632574155</SimpleData>
	</SchemaData></ExtendedData>
      <Polygon><outerBoundaryIs><LinearRing><coordinates>0.576841316488695,51.3823733176001 0.577304407368611,51.3832229408508 0.577604251095242,51.3837253251354 0.577754776969396,51.3838965291052 0.578900536566615,51.3849991697716 0.579557918621457,51.3857239547777 0.580164307495822,51.3862835233006 0.5805455617832,51.3866456551163 0.58078650354297,51.3869425421715 0.581714037737301,51.3880480796891 0.581789969457945,51.3881462991797 0.58186810530321,51.3884099082844 0.581740109153146,51.3884352053014 0.581962699237867,51.3888646659353 0.581496764689163,51.3890133917496 0.581612741532265,51.3891071335112 0.581681200359019,51.3891757562657 0.582279945959359,51.3900295879431 0.582374407267805,51.390151585858 0.582379868943709,51.3902990106859 0.582494547919141,51.3926393141606 0.58283903025275,51.3996468152422 0.582069712396297,51.3995423759548 0.581313194621563,51.3994610277064 0.580422442316171,51.39939782482 0.579958174174541,51.3993738742173 0.579261456072683,51.3993586306354 0.578414707061831,51.3993610692204 0.577545965355897,51.3993792690025 0.576508951106419,51.3993732873868 0.576121858777665,51.3993683050862 0.575650630160269,51.3993238111876 0.575112001348268,51.3993329436811 0.574351739470481,51.3993640221906 0.573407418801923,51.3993937407586 0.571256694782201,51.3993986623812 0.570535073315926,51.3994000970696 0.568673134127448,51.3993734653365 0.56840714363365,51.3993738963075 0.567693026976141,51.3993823431159 0.566890365988705,51.3994268888505 0.566450820163837,51.399458987412 0.563799550370025,51.3996896251215 0.563018637068762,51.3997903210774 0.562426485342095,51.3998959667634 0.561914217937496,51.3999907815131 0.560886252522619,51.4001976532328 0.560546067887499,51.4002599303456 0.560082823873908,51.4003581617426 0.559694491388164,51.4004583518119 0.559494937199012,51.4005149472055 0.559097888743769,51.400639602926 0.558708541541918,51.4007748791836 0.558191904731171,51.4009723638489 0.557842108923213,51.4010941851318 0.557486896214467,51.4012719592456 0.557309925855817,51.4013998989275 0.557047970571586,51.4011115127676 0.556165590911141,51.4001396723391 0.555206701079856,51.3991092631021 0.554075086299498,51.3978694359787 0.553103775880975,51.396771760794 0.552503485724053,51.3961373057669 0.552452227715584,51.3960682921986 0.552136431184457,51.3955103564105 0.551970706177747,51.3955292499249 0.551956022760392,51.3954720279984 0.551948589174673,51.3954407214181 0.551916549207899,51.3954081519507 0.551893602007656,51.3953834768779 0.551791213442267,51.395273229395 0.551651827806549,51.395326613915 0.55143847165561,51.395420360166 0.551269192958844,51.3955031653937 0.551241174759461,51.3955172620809 0.551065172739484,51.395609205109 0.550846660178809,51.3957381274001 0.550658451807615,51.3958429228222 0.550283691064497,51.3960588593606 0.550080265758976,51.3961756738201 0.549857152020559,51.3962731349682 0.549811494291002,51.3963046974118 0.549374093374315,51.3965049122078 0.548999064257728,51.3966651063662 0.548867732461711,51.3965267147518 0.548855671487443,51.3964910137073 0.548849533088234,51.3964318069518 0.548858648421231,51.3964145254796 0.548875655924535,51.3963835865499 0.548831951145163,51.3963224097239 0.548726690096513,51.3962392846533 0.548610067935488,51.3961330296694 0.54845794071995,51.3960085766072 0.548341919052139,51.3959130979314 0.548227433236982,51.3959731305484 0.548034816181053,51.3960520346314 0.547908395704573,51.3961042341591 0.547861718765999,51.3961196353454 0.54718634761928,51.3962548004695 0.546659387113528,51.3963687533064 0.546469621051686,51.396394546399 0.546354387932597,51.3964177299456 0.546156821897585,51.3964588876049 0.546004645044924,51.396489167432 0.545883895654352,51.3965133697801 0.545804086933615,51.3965276914875 0.545738373027287,51.3965354131669 0.545666625009032,51.3965369722316 0.545581606506178,51.3965343246193 0.545467635987856,51.3965269107681 0.545341982785087,51.3965161541013 0.54531002147666,51.3965105548085 0.54526298993861,51.3965430451244 0.545223010592632,51.3965744828546 0.545191325013108,51.3965994475872 0.545158019686047,51.396620850074 0.545116021558719,51.3966415429455 0.545073823881142,51.3966586436098 0.545017301164705,51.3966760545603 0.544929265952959,51.3966959496611 0.544771452425199,51.3967272497827 0.544676100858859,51.3967455948515 0.544600839972699,51.3967607154575 0.54454533825012,51.3967709127561 0.544498110879859,51.3967764335237 0.544455332487524,51.3967809591853 0.544422401128997,51.3967834722471 0.544379255688761,51.3967835108623 0.544323004460526,51.3967802366654 0.544215988976135,51.3967699733926 0.544119104519112,51.3967585906505 0.54403938189678,51.3967467461066 0.543905957171143,51.3967262664325 0.543769592582687,51.3967040526159 0.543704500619335,51.3966973744395 0.543593421527381,51.3966907953466 0.543417250515432,51.3966775369057 0.54334064357151,51.3966684104387 0.543294088710294,51.3966604302304 0.543247355456942,51.3966470595181 0.543197679357085,51.3966319539516 0.543138762325718,51.3966062602484 0.543098932375573,51.3966403912779 0.543075340251113,51.3966552886615 0.543037054798481,51.3966660099939 0.542988524980735,51.3966715593284 0.542933896331172,51.3966718457681 0.542631647532055,51.3966658186448 0.542210045291751,51.3966578857786 0.541953484824949,51.3966463695359 0.541670865785752,51.3966309230729 0.541675005174649,51.3966029611652 0.541677469162205,51.3965426675981 0.541680760356937,51.3964994394495 0.541679958400783,51.396484980731 0.541684292269191,51.3964327390476 0.541687809620658,51.3963679276199 0.541690347698167,51.3963346051859 0.541691643905139,51.3963067049622 0.541691394838943,51.3963022144593 0.541695285176011,51.3962697629482 0.541669376072224,51.3962685263273 0.541647728868248,51.3962671981388 0.541626081615572,51.396265869048 0.541604384592422,51.3962636425709 0.541568211857668,51.3962590329443 0.54154641519971,51.3962550098948 0.541539212050674,51.3962533683361 0.541526040168456,51.3962509569001 0.541505781401431,51.39624690048 0.541507156003404,51.396194722988 0.541508048884589,51.3961595484804 0.54144801207088,51.3961392724944 0.541386505359678,51.3961181289986 0.541102225741651,51.3959957234929 0.541208698782328,51.3958936136835 0.541259262039332,51.3958456736687 0.541309812006874,51.3957996216864 0.541363122084948,51.3957499132693 0.541416531681201,51.3957020013987 0.541443955577518,51.3956771309459 0.541464580817867,51.3956856744513 0.541487774544772,51.3956635929382 0.541515248197797,51.3956396207543 0.541435709567385,51.395605381582 0.541486209328024,51.3955584321751 0.54153951395617,51.3955086338859 0.541591552797543,51.3954616510583 0.541643541711855,51.3954137699354 0.541653156253089,51.3954054689067 0.541703773316345,51.395358516886 0.541748839678489,51.3953161802763 0.54176383864514,51.3953023680599 0.541758031395299,51.395274621942 0.541815200147662,51.3952175475409 0.542009049627171,51.3947717915724 0.542088191691824,51.3946963484702 0.542373907058509,51.3944302185776 0.542606260946263,51.394212897856 0.542818316789726,51.3940185849485 0.542850873951521,51.3939837125997 0.542886317486396,51.3939495870274 0.542926096910761,51.3939145579229 0.542953518929907,51.3938896872624 0.542973919277415,51.3938685646302 0.543016390636656,51.3938307798991 0.543050517061611,51.3937985706327 0.543051838865657,51.393796743225 0.543091666441981,51.3937626123935 0.54314639378628,51.3937128735432 0.543192875834953,51.3936705058155 0.543257062355165,51.3936096820636 0.54326261398197,51.3936050656656 0.54329409931289,51.3935765102119 0.543344644757912,51.3935304577028 0.543290212126565,51.393506464317 0.543049510047677,51.3934172827634 0.543000890756589,51.3933976589587 0.542735822071332,51.3932837406763 0.542412944977758,51.3931639728679 0.542368906227924,51.393147845926 0.54198363166742,51.3930185519545 0.541467687766824,51.3928391327154 0.54093584838248,51.3926572694142 0.540547528088458,51.3925263274768 0.539915590583945,51.3923025729974 0.539870083681613,51.3922855765713 0.538573891251939,51.3918000905699 0.538262943234299,51.3916899410693 0.538140490833811,51.3916575277191 0.538068909372211,51.3916383988182 0.537918136042822,51.391614690277 0.537762409497668,51.3916063745546 0.537428387554445,51.3915974234639 0.537056677465,51.3915820950759 0.536667827674733,51.391569742903 0.536388796611384,51.3915649937859 0.536227269764573,51.3915568006445 0.536143102329059,51.3915415395198 0.536013936382856,51.39149488365 0.535848500634221,51.3914139467554 0.535919094189988,51.3913638663485 0.53621315604071,51.3911712949495 0.536342788847871,51.3910722840755 0.536807459197571,51.3907159758964 0.537105401828191,51.3904630784962 0.537342464532248,51.3902537566032 0.537456223009075,51.3901784649325 0.537577530025054,51.3901111013851 0.537685458917599,51.3900611110223 0.537853193745827,51.3900017338032 0.537999053052102,51.3899625209961 0.538184441814474,51.3899351285608 0.53835177242605,51.389919816127 0.538538205811422,51.3899112819602 0.538816250404445,51.3898962678563 0.539013898167176,51.3898847927788 0.539243845178814,51.3898573336112 0.539487567206445,51.3898196842167 0.539911599913161,51.3897421625765 0.540667442893186,51.3896061968513 0.541398000665368,51.3894823730377 0.54189254102301,51.3894069121032 0.54205638087988,51.3893799811106 0.54225720868584,51.3893468531309 0.542467202221158,51.3892973427201 0.54253885204167,51.3892408521332 0.543233001068289,51.3886961245213 0.543336335074122,51.388614760147 0.544227678387191,51.3878929380929 0.544746323849817,51.3874985674514 0.544825825205162,51.3874554820886 0.544908383658532,51.3874141290352 0.545680918823418,51.38727228648 0.547173620678964,51.3869997940756 0.549496439500083,51.3865859593686 0.549567809390685,51.3865267736453 0.550321714939397,51.3866938778033 0.550366821943325,51.3867036849542 0.551040157913243,51.3868454749538 0.551554437717697,51.3869422610437 0.552192404471724,51.3870425559486 0.552609368855308,51.3870964119981 0.553255473618706,51.3871597497069 0.553513705253524,51.3871766010768 0.554299078291938,51.3872125328021 0.554756629926361,51.387220540948 0.555285462806777,51.3872189015147 0.555879595271731,51.3872023487291 0.556147605928632,51.3871884116836 0.556417036254602,51.3871744430588 0.556981470355986,51.3871396513468 0.557422593705286,51.3871102451453 0.557552603335348,51.3870975176456 0.557682732049828,51.387084787404 0.558008117388554,51.3870435196448 0.558801293320725,51.3869092302938 0.559048794599716,51.3868633664808 0.559918163237295,51.3866780454087 0.560208959050064,51.3866095651869 0.562602030607663,51.3859898385153 0.565093805101934,51.3853624187316 0.565248222683697,51.3853221759805 0.568287613492241,51.3845414500692 0.568624526648598,51.3844504496288 0.568630275909937,51.3844494242524 0.569089328380286,51.3843323680975 0.569803753294985,51.3841538760383 0.570591484085951,51.3839513834586 0.571185279426842,51.3838007045563 0.572287809759974,51.3835210763888 0.572883021506293,51.3833704485717 0.573183389663067,51.3832937237806 0.574259025943352,51.3830209601808 0.575119171378775,51.3828023727548 0.575520175672238,51.3827009525274 0.576841316488695,51.3823733176001</coordinates></LinearRing></outerBoundaryIs></Polygon>
  </Placemark>
