  <Placemark>
	<Style><LineStyle><color>ff0000ff</color></LineStyle><PolyStyle><fill>0</fill></PolyStyle></Style>
	<ExtendedData><SchemaData schemaUrl="#Wards__December_2019__Boundaries_EW_BFE">
		<SimpleData name="objectid">7466</SimpleData>
		<SimpleData name="wd19cd">W05000311</SimpleData>
		<SimpleData name="wd19nm">Llandrindod East/Llandrindod West</SimpleData>
		<SimpleData name="wd19nmw">Llandrindod - Dwyrain/Llandrindod - Gorllewin</SimpleData>
		<SimpleData name="bng_e">305745</SimpleData>
		<SimpleData name="bng_n">261339</SimpleData>
		<SimpleData name="long">-3.38184</SimpleData>
		<SimpleData name="lat">52.242142</SimpleData>
		<SimpleData name="st_areashape">1014102.76741603</SimpleData>
		<SimpleData name="st_lengthshape">5911.64480620451</SimpleData>
	</SchemaData></ExtendedData>
      <Polygon><outerBoundaryIs><LinearRing><coordinates>-3.36907532399837,52.2419299210033 -3.36952399328311,52.2420883087181 -3.36950064600952,52.2421380167065 -3.37040385716257,52.2425510785381 -3.37054605219334,52.2426509983647 -3.37088974327174,52.2429176546415 -3.37101596923483,52.243020456717 -3.37110427001319,52.2431309793332 -3.37123899417305,52.2431294144133 -3.37137645512804,52.2430755940553 -3.37144449052776,52.2430496355156 -3.37198532099908,52.2432510777939 -3.37203734830226,52.2432738429739 -3.37203385079029,52.2433053437774 -3.37198077446447,52.2433895553027 -3.37165378605478,52.2435201840202 -3.37201089991198,52.243794771366 -3.37195060565053,52.2438368198891 -3.37212039030503,52.2439265295806 -3.37221454252942,52.2439407165629 -3.37228309656828,52.2439785700372 -3.37247614005383,52.244062706734 -3.37268048301815,52.2440863970681 -3.37282227892052,52.2441260958787 -3.37310634713518,52.2442639130605 -3.37340267411757,52.2442784436888 -3.3735346889961,52.2442867943941 -3.37374332380648,52.2443086365188 -3.37401075891724,52.2441931656333 -3.37416146437452,52.2441419742454 -3.37437628578657,52.2440747556732 -3.37453691351917,52.2440594022294 -3.37464111035977,52.244019537592 -3.37505718471228,52.244024579268 -3.37507433280385,52.2440558396765 -3.37520152956826,52.244048965018 -3.37534551748229,52.2440149282234 -3.3753832646911,52.2440054100236 -3.37547996356704,52.2440042833144 -3.37616529639573,52.2439998913046 -3.3763923128709,52.2439991317896 -3.37739903449409,52.2439684232313 -3.37837729490766,52.243915657542 -3.37777808562407,52.2453325170028 -3.37817504920021,52.2454258592681 -3.37961752596015,52.2457452739954 -3.38123316557213,52.2460788239479 -3.38193822529552,52.2461875143179 -3.3834460706692,52.2463469290761 -3.38506763964657,52.2465356412365 -3.38568983371505,52.2466200224289 -3.38638453680853,52.2467755484897 -3.38625117097562,52.2475691921835 -3.38614118160648,52.2483186067685 -3.38602244284279,52.2491633127117 -3.38598291900326,52.249491951629 -3.38598945878558,52.24960881697 -3.38605855201757,52.2497563181305 -3.38616793365828,52.249882761751 -3.38624596814286,52.2499411702024 -3.38648297849398,52.250074115102 -3.38671289027492,52.2502117266247 -3.38701596006092,52.2503016475533 -3.38716169729459,52.2503233059505 -3.38732630553582,52.2503420450414 -3.38763946289302,52.2503293759201 -3.38826868829487,52.2502617540376 -3.38867636981707,52.250228196192 -3.38954156659294,52.2503025082936 -3.38969639819433,52.2501010479414 -3.38972037235868,52.2500720019848 -3.3897463448357,52.2500141696681 -3.3898545569554,52.2498205389782 -3.38993400478871,52.2496882799856 -3.39007888197907,52.2494969138243 -3.39025754140818,52.2492619145628 -3.39032747267905,52.2491072956613 -3.39037153205854,52.2488784659936 -3.39036667136083,52.2487229296883 -3.39032586297753,52.2485417503836 -3.39011643821188,52.2482133460716 -3.39004246619484,52.2480955665995 -3.38989398797341,52.2478931832314 -3.38978189093432,52.247726416175 -3.38955549988312,52.2473263008116 -3.3894198490786,52.2470626436891 -3.38931456665545,52.2468354812232 -3.38920752713707,52.2465984526173 -3.38915546614603,52.2464318766409 -3.38912642023626,52.2461552787378 -3.38914279595338,52.2457900586288 -3.38911969537833,52.2455646261867 -3.38908976300496,52.2453563520122 -3.38901327998591,52.2450650317038 -3.38892092258584,52.2448764580473 -3.38872055529972,52.2445587304869 -3.38864772001941,52.2443842193569 -3.38864371017691,52.2442557292173 -3.38867145323339,52.2441114950755 -3.38878788009547,52.2438988923599 -3.38893561847172,52.2437029099727 -3.38912426398033,52.2435523775565 -3.38939171660191,52.2433963335543 -3.38970446831198,52.2432793951545 -3.38986413325985,52.2432334710017 -3.39032328342002,52.2431138180742 -3.39092409065839,52.2429826974156 -3.39170049522645,52.2426588539756 -3.39216635918951,52.2424761941802 -3.39276671606834,52.2422848453477 -3.39330054385467,52.2420708179668 -3.39364687078042,52.2419507767268 -3.3943018047456,52.2417712707057 -3.39442627474277,52.2417239580343 -3.39451302152769,52.2416905749449 -3.39458509684247,52.2416052307507 -3.39459032935762,52.2414909235774 -3.3945831867358,52.2414056161601 -3.39452472057703,52.2413164213029 -3.39441753241332,52.2412600703806 -3.39431369384827,52.2412181519767 -3.39394525376177,52.2410984604591 -3.39308638025381,52.2408927839827 -3.3927181547432,52.2408261196054 -3.39241615025514,52.2407685596332 -3.3922637768866,52.2407191216922 -3.39191376026048,52.2405820388105 -3.39156925094602,52.2404279020582 -3.3910844386411,52.2401467902166 -3.39096403780012,52.2400924800194 -3.39077243523623,52.2400047612856 -3.39070699209669,52.2399740722443 -3.39021668978915,52.2397487514727 -3.39002110200438,52.2396764497558 -3.38968651484376,52.2396075815821 -3.38935072254455,52.239550411566 -3.38920503033395,52.2395251609011 -3.3889235321222,52.2395167885987 -3.38879693078248,52.2394958065789 -3.38875092760449,52.2394765726518 -3.38874061019343,52.2394748967032 -3.3887167724824,52.2394616940005 -3.38864405818558,52.2394301003338 -3.38850796363293,52.2393409166033 -3.38806628914371,52.2390790601204 -3.387853281644,52.2389629155356 -3.38781899650102,52.2389902840477 -3.38771975742871,52.2390489780674 -3.38780008236463,52.239138818408 -3.38784445148526,52.2391986103875 -3.38782272557428,52.2392995381139 -3.38777668282298,52.2393719880896 -3.38765887545336,52.2394470799587 -3.38753616337023,52.2395043414391 -3.38739990770992,52.2395958286042 -3.38728123861942,52.2396394701324 -3.38712765889581,52.2396943075951 -3.38696931193193,52.2397357177212 -3.38682364732932,52.2397616990467 -3.38669774633463,52.2397631781654 -3.38656372519617,52.2397404826837 -3.38635872325784,52.2396952508967 -3.38616747015249,52.2396183981136 -3.38607596819903,52.2395961018746 -3.38601824924885,52.239530263888 -3.38598547810657,52.2394667403832 -3.3858749069071,52.2393943317569 -3.38561720995481,52.2392544388813 -3.38544543204307,52.2391476027549 -3.38519474563839,52.2391397590332 -3.38512855381292,52.2390848058418 -3.38504118455483,52.2390516745064 -3.38498346785601,52.2389858359872 -3.38485510802544,52.2389082431226 -3.38474617271583,52.2388456119202 -3.38458544990769,52.2388106443029 -3.38438567568635,52.2387896167172 -3.38427017681853,52.2387954659307 -3.38411046219119,52.2387928441385 -3.38395102560864,52.2387992082363 -3.3838562893535,52.2388164985291 -3.38356557520177,52.238791142769 -3.38346208922998,52.2387599965031 -3.38330350606929,52.238653991644 -3.38315412518348,52.2385603737642 -3.38300137855957,52.2384983442263 -3.38281219441283,52.2383944954742 -3.38252465616809,52.2383313478576 -3.38240731725111,52.2382778913066 -3.38231001069635,52.2382124261213 -3.38223226636331,52.2382052462793 -3.38215810373133,52.2381773510642 -3.38212908288267,52.2380905017617 -3.38204695593274,52.2380860704638 -3.3817557663221,52.2380957714796 -3.38159775328532,52.2381012166267 -3.38136915336499,52.2380967009371 -3.38125865136314,52.2380728259861 -3.3810953885432,52.2380064232671 -3.38104225441488,52.2379440348707 -3.38089976597355,52.2379322187339 -3.38077800187424,52.2379228573502 -3.38068533739861,52.2379562995654 -3.38063267246017,52.2379596120173 -3.38058078632458,52.2379413428401 -3.38060992162188,52.2378879694953 -3.38060426628503,52.2378457897633 -3.38057749676664,52.2378353161631 -3.38029253092743,52.2378548283619 -3.38015484251776,52.2378537418956 -3.38009008867599,52.2378410158561 -3.37987874168988,52.2377814656589 -3.37981222361904,52.2377624680759 -3.37971604924362,52.2377294357375 -3.37957409972833,52.2377310948511 -3.37948388625139,52.237750126112 -3.3792742680483,52.2378397656621 -3.37908514064265,52.2380685769915 -3.37900423934064,52.2381504201291 -3.3788289624981,52.2383079698128 -3.37873752351645,52.2383810364008 -3.3784950859678,52.238498922379 -3.37819658064457,52.238744290895 -3.37801212405216,52.2389370021392 -3.37747514514931,52.2387617004014 -3.37747547892048,52.2387724823008 -3.37749684301279,52.2390842270984 -3.37744439899964,52.2390947266706 -3.37596836482266,52.2391469973038 -3.37596914281432,52.2391721562821 -3.37605728155964,52.2405071912859 -3.37608031700279,52.240970914003 -3.37609616289399,52.2411982297638 -3.37609935875481,52.2413015611112 -3.37604781435158,52.2412904770833 -3.37580436457361,52.2412357875802 -3.37561813340649,52.2411804316871 -3.37560775918071,52.2411768671097 -3.37556097149653,52.2412727806114 -3.37544443506666,52.2414835731018 -3.37539998865236,52.2415614823396 -3.37529242889046,52.2415861062505 -3.37517298350698,52.2416090702976 -3.37503709789925,52.2415729012044 -3.37481147593792,52.2415206984295 -3.37441921829482,52.2413867521946 -3.37382853945127,52.2412327333621 -3.37341072066065,52.2411233501978 -3.37312270620905,52.2410449047562 -3.37280988226501,52.2409685453775 -3.37263451676771,52.2409364273291 -3.37230272847894,52.2408637927832 -3.37216436567266,52.2408411314266 -3.37206965868429,52.240855715427 -3.37198085280311,52.2409206567376 -3.37166059909974,52.2411751597268 -3.37147095663318,52.2413419444412 -3.37127101160575,52.2414134793946 -3.3711323153238,52.2413800349152 -3.37080352851381,52.241357786357 -3.37054832005608,52.2413445701845 -3.37047208483502,52.2413903984572 -3.37033529866337,52.2414189518156 -3.37007696194449,52.2414453212048 -3.36984066729251,52.2414777253467 -3.36972704166681,52.2415446612748 -3.36972479034233,52.2416166858189 -3.36975517629773,52.2416504897027 -3.36974749796339,52.2416874317201 -3.36968775069844,52.2416962143359 -3.36954132087675,52.2416979133114 -3.36942513854333,52.2417289239032 -3.36937200428529,52.2418113363747 -3.36932916947958,52.2418477870784 -3.36907532399837,52.2419299210033</coordinates></LinearRing></outerBoundaryIs></Polygon>
  </Placemark>
