  <Placemark>
	<Style><LineStyle><color>ff0000ff</color></LineStyle><PolyStyle><fill>0</fill></PolyStyle></Style>
	<ExtendedData><SchemaData schemaUrl="#Wards__December_2019__Boundaries_EW_BFE">
		<SimpleData name="objectid">3256</SimpleData>
		<SimpleData name="wd19cd">E05008735</SimpleData>
		<SimpleData name="wd19nm">Hartshill and Basford</SimpleData>
		<SimpleData name="wd19nmw"></SimpleData>
		<SimpleData name="bng_e">386493</SimpleData>
		<SimpleData name="bng_n">346156</SimpleData>
		<SimpleData name="long">-2.20276</SimpleData>
		<SimpleData name="lat">53.01255</SimpleData>
		<SimpleData name="st_areashape">1947691.88915211</SimpleData>
		<SimpleData name="st_lengthshape">8020.60887370447</SimpleData>
	</SchemaData></ExtendedData>
      <Polygon><outerBoundaryIs><LinearRing><coordinates>-2.17933819847582,53.0065429490555 -2.17935016961734,53.0065555123276 -2.17935017704599,53.0065573092573 -2.17962681161526,53.0068059124045 -2.17991704224875,53.0070724673789 -2.18024609181809,53.0073362670806 -2.18202521320292,53.00871157228 -2.18247223573659,53.0090291050986 -2.18286219831664,53.0092766278885 -2.18308036747558,53.0094057893927 -2.18327903514766,53.0095142226537 -2.18350912638404,53.0096432760355 -2.18361074807565,53.0097006332377 -2.18396772948272,53.0099050676513 -2.18446227584571,53.0101793831148 -2.18474917626082,53.0103443828695 -2.18561688155302,53.0107780756683 -2.18575723336199,53.0108389662891 -2.18624543611277,53.0110333035253 -2.18652928510682,53.0111712523907 -2.18670842494779,53.0112500540987 -2.18722505094904,53.0114506333188 -2.18803714718632,53.0117451036542 -2.1889342279758,53.0120529128707 -2.18953587097533,53.0122713208751 -2.18982844477303,53.0123768966948 -2.19052721028549,53.0126580501215 -2.19084366275132,53.0127707747457 -2.19160686308467,53.0131129277376 -2.19202348069679,53.0132812945567 -2.19214292593135,53.0133350216632 -2.19247294189945,53.0134837557679 -2.19365182870706,53.0141065927958 -2.19391334918957,53.0142706222493 -2.19420327308435,53.0144373896407 -2.19462181429521,53.0147000142677 -2.19487890657825,53.0148614419114 -2.19567402040613,53.0153419993793 -2.19583692853333,53.0154378877269 -2.19616265174681,53.0156089951146 -2.19626135587131,53.0156664368048 -2.19685911028419,53.0160097258634 -2.19775295149437,53.0165421377048 -2.1981161378047,53.0167582004526 -2.19879642991262,53.0171885113561 -2.19923761140473,53.0174961016559 -2.19963234906982,53.0177525447258 -2.20025166123675,53.0182234770531 -2.2004716558987,53.0184055332805 -2.2005928814802,53.0185186491963 -2.20107222694368,53.0190175801982 -2.20162674618875,53.0196341965157 -2.20203418022111,53.0200479639245 -2.20215689703583,53.0201627826791 -2.20255276447723,53.0200245263916 -2.20251669188531,53.0199598851989 -2.20284256901064,53.0198371129425 -2.20323561616574,53.0197277060821 -2.20336800286986,53.0196519033405 -2.20404288424401,53.0192579478472 -2.20415732333133,53.0191822648807 -2.20427028342996,53.0191056863321 -2.20464445056558,53.0188021078496 -2.20483318924542,53.018688463217 -2.20490160843798,53.0186541968303 -2.20499388974953,53.0186234840562 -2.20509367618459,53.018594555201 -2.20530802907828,53.0185429623176 -2.2055656124292,53.0184588536895 -2.20579182902708,53.018395557232 -2.20594353449551,53.0183260986957 -2.20627773769615,53.0180738076457 -2.20638768050971,53.0179846502938 -2.20652568705743,53.0178532080272 -2.20661323098482,53.0177837700319 -2.20683307182247,53.0176225294604 -2.20722675797703,53.0173458690486 -2.20748221966375,53.0171557192875 -2.20791191577726,53.0169060424743 -2.2082464373138,53.0167481029561 -2.20832985868697,53.0167165040197 -2.20841906626577,53.0166866927248 -2.20861559364584,53.0166369217609 -2.20887173755291,53.0165888437334 -2.20912341272323,53.0165316975723 -2.20958374439346,53.0164679821708 -2.20978188930384,53.016447862511 -2.21025102349032,53.0163751425886 -2.21056388772196,53.0163404408744 -2.21089621790916,53.0163155883169 -2.21111528899964,53.0163026188874 -2.21158770892813,53.0162739220695 -2.21228931700461,53.0161908055482 -2.21243976901413,53.0161698684867 -2.21303097842875,53.0160555814467 -2.21314567012258,53.0160356054878 -2.21345702255042,53.0159946083041 -2.21365510988787,53.0159636989561 -2.2137950470058,53.0159292090618 -2.21393792826805,53.0158939046923 -2.2142387032643,53.0158268631857 -2.21472246877249,53.0156840039359 -2.215097161323,53.0155053041925 -2.21537815560779,53.0153421397225 -2.21548673693578,53.01530509862 -2.21517465744982,53.014903783157 -2.21508726021413,53.0147035409251 -2.21495120522001,53.0143324625796 -2.21493599055947,53.0142632934888 -2.21490875461021,53.014174375389 -2.21487392136576,53.0140648022734 -2.21487680242419,53.0140513169694 -2.21491099145968,53.0140313946818 -2.21490019188946,53.013960420686 -2.2152591430797,53.0139058528746 -2.21534101849666,53.0138868330637 -2.21541392389216,53.0138678294228 -2.2154093293519,53.0138336889137 -2.21555965893849,53.0137902816435 -2.21532285274884,53.0132270724482 -2.21539127333776,53.0131963946556 -2.21529749002351,53.0129223839285 -2.2151699241589,53.0124542355473 -2.21530992953384,53.0124360087554 -2.21527515804586,53.0123390168058 -2.21540171429407,53.0123100308487 -2.21543933263994,53.0120914998346 -2.21560271944249,53.011662454745 -2.2156497162461,53.0115256844493 -2.21571646469796,53.0111615179177 -2.21570981822919,53.0110366169011 -2.21565091508629,53.010881165628 -2.21549448272314,53.0105865996002 -2.21537828714502,53.010597683905 -2.21530754794728,53.010458429793 -2.21521870530401,53.0102869472187 -2.21442675691556,53.0101723588175 -2.21442071339787,53.0101678760242 -2.21441599940531,53.0101094721739 -2.2150353708796,53.0099933271363 -2.21458567893102,53.0094628519087 -2.21339742219885,53.0096897409094 -2.2130251684763,53.0097560089946 -2.21223896511035,53.0083820151463 -2.21257530250892,53.0082852587762 -2.21245714018988,53.0081947036324 -2.21229556758672,53.0080717854492 -2.21201054645221,53.0076812836532 -2.21190704484415,53.0075475671212 -2.21165979181626,53.0072657362607 -2.21149622353702,53.0070349796078 -2.21168384897888,53.0070085857287 -2.21195184522806,53.0069595809382 -2.21190398244443,53.0069210232346 -2.21168500609438,53.0066418379801 -2.21152154239222,53.0064317509709 -2.21147245945982,53.0064453183428 -2.21143796721202,53.0064022439064 -2.21142300689961,53.0063833984942 -2.21135846475119,53.0063008355906 -2.21129406695067,53.0062227661061 -2.21127899331989,53.0062057178215 -2.21119501996258,53.0060943428898 -2.21087414881644,53.0056796382107 -2.2107074348068,53.0057347521647 -2.21057547568731,53.0055587572747 -2.2092209709487,53.0058956264145 -2.20844546917605,53.0060884013522 -2.20822075450046,53.0061436132651 -2.20808677263431,53.0061842871514 -2.20792604827613,53.0062340839737 -2.2078189609209,53.0062720147457 -2.20772671580551,53.0063045278101 -2.20767767485626,53.0063270800549 -2.20762266055816,53.0063595281282 -2.20760789554313,53.0063811216808 -2.20760349654418,53.0064116836849 -2.20760372457395,53.0064593126372 -2.20760535762946,53.0064925599944 -2.20761151596273,53.0065213066562 -2.20761750520241,53.0065402580662 -2.20763562420911,53.0065779703986 -2.2075938863952,53.0065861307311 -2.20756118044347,53.0065816949089 -2.20747169881289,53.0065755601239 -2.20747325586536,53.0065926315244 -2.20747326016633,53.0065935304383 -2.2074747942334,53.0066061090698 -2.20748089659838,53.0066231734532 -2.20748839363409,53.006649221025 -2.20751274368318,53.0067561196893 -2.20751887618968,53.0067794746694 -2.20752188994624,53.0067929496439 -2.20752339822683,53.0068001356905 -2.20753248429426,53.0068243844462 -2.20754607134929,53.0068648904424 -2.20754758824158,53.0068738743162 -2.20756155062816,53.0069924734449 -2.20757247629943,53.0070931048287 -2.2075669051332,53.0071615026682 -2.20756266519214,53.0072253154868 -2.20755852013921,53.0072837355105 -2.20755436366579,53.0073394605874 -2.2075501824153,53.0074158537039 -2.20754609516953,53.0074860467957 -2.20754336954673,53.0075327819633 -2.20753321803361,53.0075939092095 -2.20753180864275,53.0076073909879 -2.2075230793898,53.0076577313974 -2.20752021610679,53.0076757103139 -2.20751303963576,53.007742223205 -2.20750587069065,53.007810624715 -2.20749880347991,53.0078744415487 -2.20749160395392,53.0079364616682 -2.20748443170192,53.0080038743669 -2.20744588009669,53.0080362936678 -2.20743586202818,53.0081253681244 -2.20743291269231,53.0081253732593 -2.20742852910043,53.0081595300051 -2.2074256528487,53.0081748130756 -2.2074185725646,53.0082359340581 -2.20708446510733,53.008184393086 -2.20686223263299,53.0081443393717 -2.20669657088852,53.0081140716534 -2.20661906756443,53.0080952442416 -2.2065399200374,53.0080666249862 -2.20645325643055,53.0080335240973 -2.20636665956485,53.0079887406525 -2.20611109568687,53.0078382083455 -2.20490695147451,53.0072002563071 -2.20488608338824,53.0072047859016 -2.20481610114798,53.0072165886059 -2.20477877261409,53.0072220444996 -2.20472069391782,53.0072311317222 -2.20386289772954,53.0073620094274 -2.20360824077527,53.0074019866196 -2.20353382475162,53.0074119991998 -2.20345632305909,53.00741932024 -2.20337439121997,53.0074248527479 -2.2032760942541,53.0074259185175 -2.20317323926585,53.007424297014 -2.20317794916196,53.0074854875085 -2.20319002853613,53.007519616909 -2.20320524679701,53.0075681182933 -2.20321582976406,53.0075977565382 -2.20325361783798,53.0077163154609 -2.20312552933977,53.0077318110563 -2.20304656571702,53.0077418310804 -2.20305714589928,53.0077705704222 -2.20306624541494,53.0077985032579 -2.20307671034331,53.0078290397367 -2.20308432020591,53.0078532904339 -2.20311268776565,53.007849648194 -2.20316475794204,53.0078432687713 -2.20317834078892,53.0078836853558 -2.2031874372649,53.0079106293747 -2.20320560077979,53.007958227712 -2.20320563025539,53.0079645183088 -2.20320405369334,53.0079690138032 -2.2031996515048,53.0079735150155 -2.20319965571668,53.007974413929 -2.20319524361323,53.0079771173166 -2.20319217629293,53.0079780214682 -2.20318923117384,53.0079789245124 -2.20318776146733,53.0079798259394 -2.20318481214066,53.0079798309689 -2.20318033677403,53.0079951157578 -2.20317744787965,53.0080077019781 -2.20314319419569,53.0080140510305 -2.20311188141516,53.0080185981173 -2.20291975154229,53.0080297089337 -2.20276925212444,53.0080353577729 -2.20277702992268,53.0080955542408 -2.20278184858444,53.0081801102004 -2.20278336033002,53.0081881961153 -2.20279409172479,53.0082492864747 -2.20280772478499,53.0083004873629 -2.20271686984446,53.0083168180472 -2.20269599827415,53.0083204483381 -2.20264246042626,53.0083286269902 -2.20261716827212,53.0083331637057 -2.20255160685359,53.0083449575453 -2.20243848019373,53.0083810967328 -2.2023789689251,53.0083991708433 -2.20237142226119,53.0083883993111 -2.20236406220273,53.0083911085729 -2.20233276163806,53.0083983503955 -2.2023373337826,53.0084037352558 -2.20234327022825,53.008411812763 -2.20231799517856,53.0084200331617 -2.20231342681298,53.0084154582217 -2.20230453831337,53.0084064868046 -2.20224794129209,53.0084173663347 -2.20216899338193,53.0084310704161 -2.20216902689686,53.0084382599256 -2.20217057353783,53.0084535344556 -2.20217216477234,53.0084786943388 -2.2021721815301,53.0084822890935 -2.20217365965191,53.0084831846071 -2.20217686258104,53.0085110376182 -2.20215892198727,53.0085110680576 -2.20216500575927,53.0085245379476 -2.20218580973404,53.0085325911354 -2.20220833286017,53.0085667020065 -2.20223816381787,53.0085603607334 -2.20226365313454,53.0085980613428 -2.20223983471731,53.0086025945763 -2.20225939597837,53.0086340146022 -2.2022653408262,53.0086438899398 -2.20229062901145,53.0086384552856 -2.20230263529236,53.0086573068276 -2.20234323460805,53.008720144034 -2.20227619310027,53.0087310412576 -2.20228675714198,53.0087562756724 -2.20226440995378,53.0087599083736 -2.20227049404889,53.0087733781902 -2.20206807444803,53.0088447153244 -2.20191631664099,53.0088970953335 -2.20182110422534,53.008927810797 -2.20180455492994,53.0089098658992 -2.20178660623855,53.0088820379889 -2.2017669942515,53.0088398338307 -2.20167313982064,53.0088453844174 -2.20155543327433,53.00884827943 -2.20149891532404,53.0088762342267 -2.20147054078511,53.008852017764 -2.20140495184551,53.0088584192605 -2.20132906935563,53.0088971901062 -2.20132462926392,53.0088936028427 -2.2013216715006,53.0088918109069 -2.20130978105042,53.0088981216113 -2.20127083022402,53.0088721260356 -2.20109295471237,53.0087520057554 -2.20090575862799,53.0088736410571 -2.20089681332828,53.0088790478387 -2.20087901717535,53.0088835715241 -2.20094469569518,53.0089230014064 -2.20092986981576,53.0089320128733 -2.2008718021839,53.0089437930936 -2.20087032674233,53.0089437955809 -2.20077949237958,53.0089646183544 -2.20066485173127,53.0089926697861 -2.200661893985,53.0089908769347 -2.2005919147461,53.0090044749111 -2.20055906035457,53.0089946448344 -2.20055758074261,53.0089937493076 -2.2005546286639,53.0089928553602 -2.20055007744324,53.0089919641044 -2.20054712387448,53.0089910701593 -2.20053225200747,53.0089901971719 -2.20051135764601,53.0089893334184 -2.20040408398248,53.0089895138897 -2.20032052054683,53.0089887554889 -2.20025798766283,53.008991556452 -2.20017307813579,53.0089916991262 -2.20016558585578,53.008992610629 -2.20009113316072,53.0089954315278 -2.20001803636139,53.0089991490204 -2.19999272697706,53.0090000904195 -2.19993609135758,53.0090028813153 -2.1998735625842,53.009006580986 -2.19977516050135,53.0090121377086 -2.19963956569752,53.0089997837375 -2.19963080703404,53.0090456305608 -2.19948915796656,53.0090260970288 -2.19950091596489,53.0089910294927 -2.19934131806696,53.0089697288992 -2.19942730900669,53.008884212223 -2.19939607602227,53.0088797717082 -2.19933189170002,53.0088708917307 -2.19931406222094,53.0088682257052 -2.19925138917974,53.0088674325049 -2.19915454771298,53.0088648976527 -2.19894589001837,53.0088634492791 -2.19892240622979,53.0089407728287 -2.19890298737134,53.0089399072279 -2.19890004211143,53.0089408101618 -2.19889402111727,53.0089408202122 -2.1988881181987,53.0089399320475 -2.19888664424745,53.0089399345078 -2.19887766558731,53.008938151661 -2.19886721298094,53.0089363721724 -2.19886278550088,53.0089354806452 -2.19885381097881,53.0089345967062 -2.19876574580967,53.0089167707049 -2.19878062558337,53.0088924823291 -2.19880687147258,53.0087747137416 -2.19883608272577,53.008633485579 -2.198782273286,53.0086093117008 -2.19874359517391,53.0086156668619 -2.19874200577056,53.0086174664544 -2.19870493745661,53.0086534751963 -2.19869932111953,53.008714592914 -2.19862775211697,53.0087030299155 -2.19851875208717,53.008675353236 -2.19849645827202,53.0086906674621 -2.19849350625869,53.008689773463 -2.19845621954888,53.008678153249 -2.1984472368401,53.0086754723582 -2.19845161889464,53.0086664785914 -2.19845466720953,53.0086610818131 -2.1983799883861,53.0086414353366 -2.19834418558196,53.0086316095108 -2.19832929597287,53.0086271414906 -2.19829496862238,53.0086173131943 -2.19813989807535,53.0085915096528 -2.19809549870499,53.0086634763819 -2.1980540413166,53.0087336410148 -2.1980363647277,53.008764314461 -2.19802453968803,53.0087850029026 -2.19792311443017,53.0087743880093 -2.19781874132922,53.008763777024 -2.19769346998806,53.0087514036856 -2.19766666882699,53.0087487522963 -2.19764578024462,53.0087487869452 -2.19764135692038,53.0087487942819 -2.19763976338762,53.0087496958417 -2.19761445820478,53.0087515347448 -2.19761150882498,53.008751539636 -2.19761003488025,53.0087515420804 -2.19760708550044,53.0087515469715 -2.19760401391288,53.0087515520652 -2.19760106042805,53.0087506589452 -2.19759958088392,53.008749762482 -2.19759663299458,53.0087497673704 -2.19757734008748,53.0087767587713 -2.19756109559583,53.0087983534128 -2.19753122431249,53.0087957070832 -2.19745968422677,53.0087904339518 -2.19743734891792,53.0087967615806 -2.19735583075446,53.0088939517582 -2.1973009658518,53.0089614424899 -2.19726248002193,53.0090100333268 -2.19725062583062,53.0090244320219 -2.19720016385919,53.0090875116264 -2.19693758421661,53.0090105707413 -2.19677490465627,53.0089596156257 -2.19666292048869,53.0089238546162 -2.196670043428,53.0088420648042 -2.196675422607,53.0087278359614 -2.19667677799976,53.008701773227 -2.1966782897906,53.0086828988721 -2.19668232963261,53.0085984180837 -2.19668232147973,53.0085966202569 -2.19668229295281,53.0085903296607 -2.196680802712,53.0085867373387 -2.19667474101697,53.0085777608388 -2.19667177127606,53.0085732729373 -2.19666880560786,53.0085696830503 -2.19666584401624,53.0085669920766 -2.1966612862753,53.0085643028382 -2.19665832061265,53.0085607138498 -2.19665228744438,53.008558027046 -2.19664785191652,53.0085553385044 -2.19663738581223,53.0085508629728 -2.19663148041951,53.0085490748773 -2.19662692934691,53.0085481843658 -2.19660760441521,53.0085410266887 -2.19663716987215,53.008503234044 -2.19668458619553,53.0084456410783 -2.19655330721341,53.0084089228603 -2.19625335251433,53.0083258419465 -2.19624748633934,53.0083330402723 -2.19613554134215,53.0083053661483 -2.1960311009302,53.0082794765151 -2.19600612082643,53.0083532083855 -2.19585987222791,53.008321096721 -2.19575396463684,53.0082970070966 -2.1955675966308,53.00827844118 -2.19556464322983,53.0082775471069 -2.19553033960261,53.0082731105973 -2.1954960334169,53.008267774263 -2.19546024628381,53.0082615423267 -2.1954244566051,53.0082544123627 -2.19541400028619,53.0082517336491 -2.19539456967514,53.0082481707303 -2.19537513906728,53.0082446078083 -2.19528718709905,53.0082240822107 -2.19523048487851,53.008211593837 -2.19519011191259,53.0081963828283 -2.19503490881014,53.0081400211664 -2.19498420192443,53.0081221311397 -2.19491700946715,53.008099684465 -2.1948901821446,53.0080907418398 -2.19488710507417,53.0080898479522 -2.19479911478462,53.0080603364515 -2.19477524087592,53.0080522869936 -2.19468565715756,53.0080236769337 -2.19466171726941,53.0080012493333 -2.1946527163012,53.0079940744736 -2.19464826736648,53.007988690018 -2.19464530997014,53.0079868970085 -2.19464074435578,53.0079824116633 -2.19463926491279,53.0079815151597 -2.19463482553502,53.0079779276293 -2.19462879257735,53.0079752416217 -2.19457952517408,53.0079492605884 -2.19456906092005,53.0079447848722 -2.19445704398299,53.0079009332213 -2.19441102819228,53.0079423469451 -2.1942767232306,53.0078877471406 -2.19419609424606,53.0078555264325 -2.19418267268644,53.0078492576617 -2.19411988861583,53.007823299363 -2.19411250400347,53.0078206155313 -2.19401684769949,53.007780240805 -2.19390038993029,53.0077319030586 -2.19377801774572,53.0076799800349 -2.19373763775449,53.0076629707053 -2.19365553167275,53.007629854012 -2.19362869538516,53.0076191132773 -2.19365089833255,53.0075831302792 -2.19361657287267,53.0075733015314 -2.19354496168993,53.0075518491762 -2.19353302774561,53.0075482746764 -2.19340005236816,53.0074881901097 -2.19339857846613,53.0074881925019 -2.19337778864978,53.0074828336201 -2.19336576160092,53.007486447919 -2.19319018419971,53.0075443373043 -2.1931901882035,53.007545236218 -2.19316786482431,53.0075542589122 -2.19312173464202,53.0075705097508 -2.19327297851805,53.0077320234148 -2.19284697442367,53.0077623698755 -2.1928363146179,53.0077138589258 -2.19281348373375,53.0076087527827 -2.1927821382054,53.0076061076367 -2.19275828888228,53.0076034494578 -2.19269425013595,53.007599060228 -2.19268822533403,53.0075981710504 -2.19268379414365,53.0075963812744 -2.19267481604745,53.0075945979513 -2.19266730786865,53.0075919142298 -2.19265832179251,53.0075883339772 -2.19264945542406,53.0075838555092 -2.19264046535866,53.0075793763415 -2.19263602618759,53.0075757887365 -2.19262850604203,53.0075704091705 -2.19261654422876,53.0075605430822 -2.19261508878924,53.0075650391363 -2.19204526385053,53.0074436508798 -2.19202436246682,53.0074409887019 -2.19176483234229,53.0073820940953 -2.19146643921718,53.0073151746887 -2.19146041447982,53.0073142854488 -2.19125611576233,53.0072687820845 -2.19118600689286,53.0072527185222 -2.19115906905081,53.007246471096 -2.19112930167153,53.0072393292822 -2.19111134575937,53.0072357632996 -2.1910621446426,53.0072241598325 -2.19103230109647,53.0072278024605 -2.19071608551448,53.0071590220132 -2.19058929036566,53.0071340623072 -2.19048635759893,53.0071144560463 -2.19048340438595,53.0071135627459 -2.19044762435792,53.0071082273141 -2.19024326853117,53.0070771005307 -2.19021645856924,53.0070717516073 -2.19019702891343,53.0070681878395 -2.19002252727727,53.0070361141031 -2.18994506501561,53.0070245552379 -2.18991973836727,53.0070210008245 -2.18980636867379,53.0070032084498 -2.18974184725314,53.0069161411305 -2.18971045316698,53.006873953559 -2.18967893898713,53.0068325751983 -2.18964594596552,53.0067903910535 -2.18961145311951,53.0067419177445 -2.18960997775229,53.0067419200921 -2.18957846023286,53.0066997335805 -2.18956350298512,53.0066790876076 -2.18954706646314,53.0066575459646 -2.18953347120954,53.0066395945816 -2.1895125801983,53.0066108704561 -2.1894974993247,53.0065902255703 -2.18947818429238,53.006584863663 -2.18947349728171,53.0065524299891 -2.18941509203506,53.0064869205538 -2.18938520626985,53.0064528189804 -2.18934926608906,53.0064106385371 -2.18929234049837,53.0063460256099 -2.18925035485372,53.006298463017 -2.18922489931886,53.0062652523879 -2.18920539022148,53.0062437155762 -2.18919488342648,53.0062292641395 -2.18917550980807,53.0062104229692 -2.18917396148419,53.0061933504397 -2.18917541182872,53.0061879564143 -2.18917687542012,53.0061852582293 -2.18917833752108,53.0061825600466 -2.18917832576402,53.0061798642039 -2.18917978935105,53.0061771651199 -2.18917977367746,53.0061735712622 -2.18917976191639,53.0061708745205 -2.1891797462428,53.0061672806627 -2.18917973448173,53.006164583921 -2.18917972272459,53.0061618880783 -2.18917971096744,53.0061591922355 -2.18917822386299,53.006156498735 -2.18917673824898,53.0061538052321 -2.18917672649203,53.0061511093893 -2.18917523938804,53.0061484158887 -2.18917375377058,53.0061457214869 -2.18917214838671,53.0061439270942 -2.18916917958645,53.0061394381055 -2.18916621862695,53.0061367469447 -2.18916473301437,53.0061340534416 -2.18916177205552,53.0061313622806 -2.18915868889663,53.0061286713135 -2.18914374231532,53.0061107220303 -2.18912129737202,53.006091885726 -2.18899020215902,53.0060938906591 -2.18887555315153,53.0061201339312 -2.18885761744888,53.0061210603801 -2.18884718943648,53.0061246716886 -2.18883554818653,53.0061884954861 -2.18875959680726,53.0061850210415 -2.18875961636154,53.0061895147121 -2.18864335631384,53.0061843061982 -2.18860157230009,53.0061825753977 -2.18853902313645,53.0061808774394 -2.18850711777504,53.0063886081161 -2.18846520862686,53.0063581201139 -2.18839495246098,53.0063079060692 -2.18817074638807,53.0061464115692 -2.18785831097384,53.0059266421486 -2.1877282972519,53.0058378791268 -2.18753991232896,53.0056907951173 -2.18740982969918,53.0055857667953 -2.18723773446189,53.0054260753993 -2.18700279402809,53.0051953975892 -2.1869698450845,53.0051621991359 -2.18693835839266,53.0051263016189 -2.1868860684064,53.0050814502181 -2.18684267623433,53.0050482681079 -2.18680825995503,53.0050168688519 -2.18676799577185,53.0049971611185 -2.18676049763905,53.0049962748495 -2.18666213963283,53.0049819599497 -2.1865875823071,53.004987469343 -2.18654898717025,53.0050127822371 -2.1864897660062,53.0050991461003 -2.18638784421382,53.0053132773224 -2.18630657798919,53.0054733663395 -2.18622607901367,53.0054689984701 -2.18616046969303,53.005469999907 -2.18610988525469,53.0054790654261 -2.18603541564018,53.0055052432021 -2.1858866238013,53.0055638881267 -2.18557272579941,53.005687584253 -2.18526177480089,53.0058111850699 -2.1849732761492,53.0059275606555 -2.18472032925214,53.0060250983816 -2.18444944506012,53.0061234722614 -2.18418919187943,53.0062371062394 -2.18389159436213,53.0063535830166 -2.18372355628255,53.0064239381063 -2.18345587936716,53.0065555549203 -2.18309003501503,53.0067476223933 -2.18298882683284,53.0067864196701 -2.18289790087375,53.0067865592187 -2.18282633796053,53.0067749866392 -2.1826485698037,53.0066656224059 -2.18224790327638,53.0063794721384 -2.18200434927406,53.0061991236066 -2.18173825866046,53.0060063175401 -2.18158126858539,53.0058986270635 -2.1815095209864,53.0058421205577 -2.18138235175482,53.0057254877926 -2.18122666079547,53.0055459019405 -2.18122062150202,53.0055414183198 -2.18023259548789,53.0058916873306 -2.18010171199266,53.0059449960352 -2.179979649289,53.0059919107442 -2.17990975386972,53.0060261653229 -2.17985324746393,53.0060595007405 -2.17978045998525,53.0061072398096 -2.17970614775547,53.0061729541374 -2.17961119326117,53.0062684456809 -2.17947917194088,53.0064034438585 -2.17940489739681,53.0064781444405 -2.17933819847582,53.0065429490555</coordinates></LinearRing></outerBoundaryIs></Polygon>
  </Placemark>
