  <Placemark>
	<Style><LineStyle><color>ff0000ff</color></LineStyle><PolyStyle><fill>0</fill></PolyStyle></Style>
	<ExtendedData><SchemaData schemaUrl="#Wards__December_2019__Boundaries_EW_BFE">
		<SimpleData name="objectid">5725</SimpleData>
		<SimpleData name="wd19cd">E05011460</SimpleData>
		<SimpleData name="wd19nm">West Fenham</SimpleData>
		<SimpleData name="wd19nmw"></SimpleData>
		<SimpleData name="bng_e">420709</SimpleData>
		<SimpleData name="bng_n">565731</SimpleData>
		<SimpleData name="long">-1.67793</SimpleData>
		<SimpleData name="lat">54.985748</SimpleData>
		<SimpleData name="st_areashape">2301317.2192513</SimpleData>
		<SimpleData name="st_lengthshape">7941.31067086954</SimpleData>
	</SchemaData></ExtendedData>
      <Polygon><outerBoundaryIs><LinearRing><coordinates>-1.68080851491337,54.9952569966109 -1.68124743827043,54.9948996103606 -1.68162964964745,54.9945914848828 -1.68231859681266,54.9940334258261 -1.68278896293922,54.9936563531871 -1.68286755549564,54.9935927740761 -1.68294782330041,54.9935291992873 -1.68320259862111,54.9933312357992 -1.68341800844931,54.9931574239886 -1.68372949237099,54.9929084899715 -1.68429402218345,54.9924668842757 -1.68469662552045,54.9921489197845 -1.68502838134373,54.9918927580929 -1.68551107119319,54.9915139077782 -1.68610387296227,54.9910580792946 -1.6865471972593,54.9907177525537 -1.68698430129756,54.990381001002 -1.68718233417873,54.9902331904421 -1.6874370321279,54.9900388990977 -1.68796831040614,54.9896358178181 -1.68823398935499,54.9894370608655 -1.68869133948339,54.9890948765851 -1.68917229050539,54.9887321769889 -1.68956845926843,54.9884357395079 -1.68987334907566,54.988212823621 -1.69021600655491,54.9879539791465 -1.69068434464772,54.9876029212619 -1.69088082562938,54.9874524061396 -1.69110561960925,54.9872724050716 -1.69128643828668,54.9871308321911 -1.69152071661698,54.9869400745803 -1.69177554675937,54.9867232267438 -1.69193922608585,54.9865816094735 -1.69222712548825,54.9863191170973 -1.69245056556859,54.9861120697148 -1.69258433290803,54.9859893315335 -1.69286762791472,54.9857213462801 -1.69327213116076,54.9853376862625 -1.69347838399126,54.9851360735559 -1.69364852110281,54.9849567398335 -1.69067915820102,54.9841692477273 -1.68902741353742,54.9837669610223 -1.68902586813964,54.9837669570645 -1.68726072107527,54.9832879033103 -1.68512713803909,54.9827593564255 -1.68275373987275,54.9821456998831 -1.67715698665912,54.9807102646918 -1.67405263757956,54.9798994550755 -1.67202421055159,54.9793620673815 -1.67128514959742,54.9791695243538 -1.67004238810548,54.9788507346096 -1.66816042429104,54.9783747692425 -1.66663582348772,54.9779670509123 -1.66545087619219,54.9776618535452 -1.66483508280118,54.9774948566075 -1.66485234491292,54.9774949041681 -1.66427224352131,54.9773584582584 -1.66396491862537,54.9772920282836 -1.66364520677393,54.9772282582749 -1.66224420516964,54.9769943025819 -1.66013005848303,54.9766568222287 -1.65867588271538,54.9764244728377 -1.65862906324691,54.9764162555293 -1.65763198395997,54.9762697128212 -1.65722943427563,54.9762092862216 -1.65725810928726,54.9763225627126 -1.6572625358221,54.9763630020874 -1.65726673447663,54.9764151203812 -1.6572740691551,54.9764772187665 -1.65729003022128,54.97661651175 -1.65730008889426,54.9767225493818 -1.65730783990722,54.9767351485166 -1.65731086370239,54.9767432420559 -1.65731378929129,54.9767630148791 -1.65731665370115,54.9767900637784 -1.6573254739553,54.9768592637608 -1.65733122823013,54.9769257600977 -1.65733275068557,54.9769284593933 -1.65734157255784,54.976997659377 -1.65735028744674,54.977064164051 -1.65735026478794,54.9770668589938 -1.65735756349806,54.9771334495406 -1.65736332385419,54.9771990472543 -1.65737201616206,54.9772682468668 -1.65738085328067,54.9773356496154 -1.65738825857752,54.9773895732976 -1.65738812942963,54.9774049350994 -1.65739097202282,54.9774345899734 -1.65739528423244,54.9774732326404 -1.65739523136545,54.9774795211393 -1.65740410632303,54.977542432612 -1.65740406101168,54.9775478224971 -1.6574113892937,54.9776107296123 -1.65741286803162,54.9776188187958 -1.65741854417707,54.9776790262505 -1.65742582800189,54.977747413114 -1.65743310348965,54.9778166087239 -1.65743748373867,54.9778471665593 -1.65744182025704,54.9778831133849 -1.65744340289891,54.9778938987649 -1.65744910334831,54.9779514103784 -1.65745785690822,54.9780287859264 -1.65746813377112,54.9781087700056 -1.65747531902897,54.9781734739765 -1.65748405079556,54.9782534537015 -1.65749289584806,54.9783199587137 -1.65750317208677,54.9784000335452 -1.65751048713214,54.9784647369768 -1.65752067383481,54.9785402294133 -1.65752944350931,54.9786157178586 -1.65753973499429,54.9786939954551 -1.65754695798833,54.9787694795428 -1.65755723676614,54.978849463607 -1.65756758195175,54.9789213637375 -1.65757326685398,54.9789807624219 -1.65757620626362,54.9789987379984 -1.65758490819907,54.9790823112582 -1.65758788692231,54.9790957955684 -1.65758940348608,54.979099393477 -1.65759675496281,54.9791596056198 -1.65766867494087,54.9791553157371 -1.65779214344278,54.9791484758143 -1.65802983017932,54.9791320754862 -1.65805483716608,54.9791303485058 -1.65819391603677,54.9791208579443 -1.6582783453358,54.9791148064763 -1.65840505031808,54.9791061777548 -1.65849566347044,54.9791001434993 -1.65861914672091,54.9790915064105 -1.65873798680412,54.9790837548071 -1.65882086322775,54.9790785972424 -1.65890374559041,54.9790725410036 -1.65945862863091,54.9790363636022 -1.65949304541964,54.9790337640318 -1.65951959747356,54.9790320419743 -1.65952268942579,54.9790320506275 -1.65961962177871,54.979025134588 -1.65964784869406,54.9790234171885 -1.65967749113155,54.9790217028436 -1.65967899286589,54.9790270979519 -1.65987594035212,54.9790141728003 -1.65993227197386,54.9790098380017 -1.66000576662137,54.9790019584032 -1.66008233820551,54.9789958837274 -1.66011519473702,54.9789950768907 -1.66018077811125,54.9789934637269 -1.66027935517511,54.9789901453956 -1.66030589812233,54.9789893208772 -1.66037149802238,54.9789859103885 -1.66049187518159,54.978979060002 -1.66059974966486,54.9789729824899 -1.660709168561,54.9789669990529 -1.66082012670045,54.9789619184433 -1.66092167338646,54.9789577092376 -1.66102180453718,54.9789534960031 -1.66112799578671,54.9789484018312 -1.66114835636025,54.9789475599085 -1.66118123523466,54.9789440587416 -1.66125152440818,54.978934372198 -1.66125938907592,54.9789334954623 -1.66135785863196,54.9789274809561 -1.66145014583282,54.9789214491664 -1.66165018420938,54.9789085297523 -1.66176270374179,54.9789016562584 -1.66177994250802,54.978904399188 -1.66187652381035,54.9789397044917 -1.66193097900938,54.9789596194813 -1.66198247943689,54.9789786285013 -1.66207430841701,54.9790122139347 -1.66211797999711,54.9790276075132 -1.66218026441874,54.9790511377693 -1.66227054770841,54.9790846288958 -1.66235158817764,54.9791144997672 -1.66236248526055,54.9791208186491 -1.66237633287057,54.9791442152669 -1.66238867251704,54.9791631154281 -1.66243493024038,54.9792396060886 -1.66244879282039,54.9792612054711 -1.66249354202432,54.979333289514 -1.66251363488676,54.9793647884467 -1.66270134268356,54.9793320685338 -1.66271049387744,54.9793626393622 -1.66271799995134,54.9793896110943 -1.66271953185298,54.9793914117098 -1.66272119186372,54.9793932135792 -1.66272116955562,54.9793959085197 -1.66272113980901,54.9793995020734 -1.6627211175009,54.9794021970139 -1.66272105800764,54.9794093841212 -1.66272232063639,54.9794435258163 -1.66272370968405,54.9794623955824 -1.66272482515424,54.9795145041508 -1.6627263331831,54.979519000601 -1.66272622907474,54.9795315775892 -1.66272887488901,54.9795854876665 -1.66273007312631,54.9796430763311 -1.66273271895216,54.9796969864073 -1.66273511939487,54.979780541726 -1.66273733980981,54.9798856583592 -1.66273803813692,54.9799881647339 -1.66273905122715,54.9800681234656 -1.66273733913489,54.9800726100904 -1.6627342099186,54.9800770936856 -1.66272413641972,54.980157919419 -1.66271927604029,54.9801848577637 -1.66271437104336,54.98021718509 -1.66271099314576,54.980236041639 -1.66270940997352,54.9802406193828 -1.66271552139109,54.9802648922414 -1.66272757894274,54.9803179297682 -1.66273052969729,54.9803350074918 -1.66274112971752,54.9803772600696 -1.6627455662374,54.9804015291819 -1.6627530832235,54.9804428754773 -1.66275893116772,54.9804833185123 -1.66276636639539,54.9805345459536 -1.66277676499552,54.9806011446452 -1.66278577525753,54.9806487837124 -1.66279028619114,54.9806640684901 -1.66279914778347,54.9807296744213 -1.662800499729,54.9807530363477 -1.6628064567048,54.9807961746815 -1.66280937623019,54.9808168450512 -1.66281087101153,54.9808231378305 -1.6628108115308,54.9808303249361 -1.66281224526991,54.9808438048165 -1.66281220066323,54.9808491946963 -1.66281194713818,54.980879828408 -1.66281457084074,54.9809364334102 -1.66281732267159,54.9809930387668 -1.6628187877206,54.9810029250984 -1.66281997612792,54.981046050215 -1.66282105301528,54.981102650929 -1.66282225041921,54.9811448783351 -1.66282199020571,54.9811763207968 -1.66282308865774,54.981230316431 -1.662824546287,54.9812411004763 -1.66282435298301,54.9812644581183 -1.66270084762558,54.9812748958306 -1.66264771111102,54.9812819357948 -1.6624609814345,54.981382036146 -1.6624574188155,54.9814233517194 -1.66228397249112,54.9814282604648 -1.66221685491041,54.9814280741687 -1.66222342929784,54.9815674309301 -1.66200946127589,54.9815650395297 -1.66114866632424,54.9815437796072 -1.66065649215942,54.9815334244111 -1.66042682243849,54.981529190066 -1.6602525305092,54.9816356104287 -1.66010951728327,54.9817295406403 -1.66001854779277,54.9817777992588 -1.65997617939269,54.9818065189359 -1.65986439536858,54.9818942474864 -1.65990651638198,54.9819105352328 -1.65997782461468,54.9819799095426 -1.66005220277475,54.9820519882853 -1.66007239408779,54.9820718083435 -1.66009245416297,54.9820916289302 -1.66010805890996,54.9821051484298 -1.66015291874168,54.9821484854251 -1.66017160666831,54.9821629112617 -1.66019016803798,54.9821773376405 -1.66019951279775,54.9821845501091 -1.66020578783843,54.9821890599014 -1.66021974013237,54.982199879769 -1.66024918257899,54.9822224206292 -1.66030819131243,54.9822684031038 -1.66031601326495,54.9822729163096 -1.6603936045658,54.9823306292543 -1.66042165995092,54.9823495734622 -1.66046046399086,54.9823775312954 -1.66053500839187,54.9824298456393 -1.66053962272085,54.9824326433768 -1.6605568045703,54.982442573579 -1.66057077201577,54.9824515961792 -1.66063758602677,54.9824886157177 -1.66069989821815,54.9825247249314 -1.66073722305353,54.9825445926429 -1.66084291509879,54.9826005872576 -1.66084766738536,54.9826023968706 -1.66085702731036,54.98260781296 -1.66088651525452,54.9826249646801 -1.66093319273761,54.982651147029 -1.66096590266055,54.9826683077062 -1.66101413460854,54.9826935966188 -1.66103580961038,54.9827053356351 -1.66108726044069,54.9827306334834 -1.66109803015938,54.9827369521133 -1.66112766965463,54.9827514990564 -1.66118526180824,54.9827822039667 -1.66123352981557,54.982803000621 -1.66124595965926,54.9828111211257 -1.66125994231715,54.9828183473178 -1.6612693098171,54.982822864762 -1.66127547188802,54.9828255769153 -1.66127854762198,54.9828273827431 -1.66128790765518,54.9828327987985 -1.66129726022018,54.9828391134659 -1.66130342229539,54.9828418256177 -1.66130508985327,54.9828427288922 -1.66130969755782,54.9828463353511 -1.66135637556277,54.9828725175335 -1.66142792681776,54.9829131434401 -1.66151499293943,54.9829627969936 -1.66158962340238,54.9830052277342 -1.66159592110627,54.9830070425132 -1.66160054378293,54.9830088517355 -1.66160515153209,54.9830124581829 -1.6616098889723,54.9830160649907 -1.66161296630526,54.9830178699155 -1.66161756659282,54.9830223749751 -1.66162077951048,54.983023282542 -1.66162077205432,54.983024180256 -1.66165647036719,54.9830539263228 -1.66172314976178,54.9831072056397 -1.66173863476462,54.9831198259535 -1.66178830119969,54.9831585944405 -1.66185663435655,54.9832144834141 -1.66186905699731,54.983223501567 -1.66192806153426,54.9832703809422 -1.66199640407786,54.9833253721244 -1.66206461637511,54.9833804518691 -1.6621344822319,54.9834381421924 -1.66219347820426,54.983485920021 -1.6622539855565,54.9835381933806 -1.66231451385022,54.983587771767 -1.66237350280398,54.9836364481173 -1.66243248602097,54.9836860221558 -1.66249763835887,54.983737500401 -1.66256904325369,54.9837960924478 -1.66263430993651,54.9838492774369 -1.6626559413213,54.9838664069249 -1.66266067150509,54.9838709114021 -1.66263545342056,54.9838977932916 -1.66261337385022,54.9839192929792 -1.66257866872645,54.983956029922 -1.66254084299493,54.9839963518347 -1.66249990176904,54.9840394508576 -1.66240996563895,54.9841335308971 -1.66238956090164,54.9841550351905 -1.66225231827688,54.9842983942995 -1.66197175327837,54.9846031532016 -1.66193420840697,54.9845940643922 -1.6619061820072,54.9845868001764 -1.66184772074876,54.9846603939416 -1.66206923077598,54.9847185054814 -1.66333535939016,54.9850437220029 -1.66364555914869,54.9851434013288 -1.66350995293189,54.9852760762177 -1.66320260226125,54.9855951374632 -1.66290472665064,54.9859052405628 -1.66274412323849,54.9860530268813 -1.6626730464946,54.9861408707349 -1.66233572784027,54.9864984771923 -1.66218759512593,54.9866490831457 -1.66179671201427,54.9870478648842 -1.66161713072505,54.9872145527701 -1.66137463939728,54.9874312854824 -1.66099074376695,54.9877474333137 -1.66074994940614,54.9879453935087 -1.66042601895438,54.9881925317682 -1.66007843149523,54.9884638590155 -1.65991026956591,54.9885729910582 -1.65951245688655,54.9888558559284 -1.65935854717341,54.9889551448221 -1.65915118902441,54.9890822232769 -1.65886385875395,54.9892341428793 -1.65868505638859,54.9893207839229 -1.6584652327897,54.9894433349161 -1.65838342840846,54.9895023980744 -1.65833111119771,54.9895947834525 -1.65830536714973,54.9896837405215 -1.65828310708153,54.9897259020899 -1.65932166510226,54.9896209174397 -1.65947656738748,54.9896033835388 -1.66013686820029,54.9895055082622 -1.66067836567322,54.989422571514 -1.6610147177261,54.9893714031139 -1.66134471981042,54.9893398898779 -1.66201869396155,54.9893013360129 -1.6626298811078,54.9892823689594 -1.6630440104649,54.9892835158448 -1.66359698665974,54.9893075045555 -1.66387992237691,54.9893109810128 -1.66439234060738,54.9893312604943 -1.66531218961278,54.9893994637531 -1.66618362860941,54.9894791160595 -1.66725433059003,54.9896473475384 -1.66818780259212,54.9897847419059 -1.66916648028737,54.9899428281534 -1.66945378986332,54.9899642722298 -1.66968196356888,54.9899684863021 -1.66991014460785,54.9899718013355 -1.67088541658206,54.989962768029 -1.67138081551755,54.9899703973554 -1.67170736943115,54.9899829586141 -1.67203695775345,54.9900028042939 -1.67227430039425,54.990020514108 -1.67241334933578,54.9900352626274 -1.67271296419141,54.9900809888931 -1.67287378090116,54.9901128649924 -1.67311080874272,54.9901701003712 -1.67327619970681,54.9902100732155 -1.67362377724721,54.9903171058126 -1.67384037333208,54.9903994393336 -1.67399459931969,54.9904663320393 -1.67412842195356,54.9905385616142 -1.67429796447767,54.9906397229208 -1.67464925317824,54.9908796312268 -1.67486977622132,54.991051901088 -1.67565040408929,54.9917495068026 -1.67742167708451,54.9932504508784 -1.67793429279678,54.9936588605721 -1.67839530606088,54.9940590455877 -1.67870294490994,54.9942836413545 -1.67895801881862,54.9944416191495 -1.67931914333429,54.9946339240513 -1.67963674594319,54.9947893702631 -1.67991406228692,54.9949059897007 -1.67999049908884,54.9949367359776 -1.68080851491337,54.9952569966109</coordinates></LinearRing></outerBoundaryIs></Polygon>
  </Placemark>
