  <Placemark>
	<Style><LineStyle><color>ff0000ff</color></LineStyle><PolyStyle><fill>0</fill></PolyStyle></Style>
	<ExtendedData><SchemaData schemaUrl="#Wards__December_2019__Boundaries_EW_BFE">
		<SimpleData name="objectid">6287</SimpleData>
		<SimpleData name="wd19cd">E05012047</SimpleData>
		<SimpleData name="wd19nm">Dronfield South</SimpleData>
		<SimpleData name="wd19nmw"></SimpleData>
		<SimpleData name="bng_e">435757</SimpleData>
		<SimpleData name="bng_n">377769</SimpleData>
		<SimpleData name="long">-1.46499</SimpleData>
		<SimpleData name="lat">53.295689</SimpleData>
		<SimpleData name="st_areashape">2726298.89343492</SimpleData>
		<SimpleData name="st_lengthshape">8387.36172585149</SimpleData>
	</SchemaData></ExtendedData>
      <Polygon><outerBoundaryIs><LinearRing><coordinates>-1.48087649097322,53.3081747817606 -1.48087650187025,53.3081738829306 -1.48061763126157,53.3076136368154 -1.4804980781024,53.3073299627633 -1.48037770292823,53.3069815828975 -1.48034357366455,53.3068268725233 -1.4802883232395,53.3065569555386 -1.48025157264077,53.306251175541 -1.48024394887201,53.3061352204279 -1.48023583162454,53.305937398778 -1.48023760937835,53.3057909307884 -1.48024589466079,53.3055976739444 -1.48026474267708,53.3054107524726 -1.48027321298842,53.3053245222045 -1.4802993131206,53.3051619855503 -1.48033142512584,53.3049832098302 -1.48037735413029,53.3047874199806 -1.48045091759082,53.3045370247481 -1.48052562742023,53.3043144016821 -1.48058437533636,53.3041734837215 -1.48074291307349,53.3038433899737 -1.48082137865295,53.3036882698811 -1.4808873735276,53.3035617607924 -1.48099206629707,53.3033456478588 -1.48107063063633,53.3031823500277 -1.4811521688598,53.3030083719969 -1.48120785634126,53.3028746287471 -1.48125267864483,53.3027696851104 -1.4812975503187,53.3026503632143 -1.48135515610919,53.3024806838729 -1.48140052275437,53.3023307213227 -1.48143010781067,53.3022373933181 -1.4814600798877,53.3021224992994 -1.48149205413272,53.3019545064313 -1.48151461843827,53.3018278984351 -1.48153266657308,53.3017065733249 -1.48154649309237,53.3015556648904 -1.4815638570699,53.3013579537157 -1.48156516228123,53.3012501245352 -1.48156194403345,53.3011377831375 -1.48155706294797,53.3010505060412 -1.48155240281794,53.3009345637702 -1.48153892471468,53.3008113940163 -1.48152068508069,53.3007033901545 -1.48150290469145,53.3005676210251 -1.48147163793095,53.3004218194253 -1.48143741188435,53.3002751950908 -1.48140009709205,53.3001384432375 -1.48136253941477,53.3000114844932 -1.4813061256381,53.299837806499 -1.48124801188281,53.2996820024812 -1.48120150417,53.2995586893308 -1.48111824324542,53.2993749198387 -1.48103048313282,53.2991848394949 -1.48095424347621,53.2990344388655 -1.48083396019279,53.2988127653566 -1.48083247634322,53.298812758911 -1.48071188348758,53.2986064511513 -1.48058076138278,53.2984116894389 -1.48041093079412,53.2981853075343 -1.48028664363604,53.2980391901473 -1.48011187236274,53.2978532241679 -1.47991606221121,53.2976681551391 -1.47977196199083,53.2975443267652 -1.47947500053169,53.2972949243543 -1.47918383756475,53.2970573181723 -1.47900994685114,53.296921677202 -1.47869615279736,53.2966839711468 -1.47830818193504,53.2963919340319 -1.478050984771,53.2962002127425 -1.47766748638931,53.2959072941541 -1.4774877089556,53.2957582354856 -1.47731552242274,53.295605526132 -1.47713160036949,53.2954312873605 -1.47701595744237,53.2953183639296 -1.47683378492317,53.2951225655311 -1.47675097338121,53.295025960884 -1.47661951531322,53.2948609370825 -1.4764894325154,53.2946949312853 -1.4763762399362,53.2945193076267 -1.47636281497882,53.2944984766018 -1.47611973627281,53.2941350864825 -1.47586680735527,53.2935965122538 -1.47573802065921,53.2932139424162 -1.47564318220019,53.2928673767794 -1.47560692831136,53.2925247526348 -1.47554535691717,53.2921586536717 -1.47549066432642,53.2912307651747 -1.47544404643313,53.2906336952978 -1.47540536902914,53.2894991946158 -1.47530397021883,53.2879823231658 -1.47527072258096,53.2868998747699 -1.47520616683478,53.286172425643 -1.47480432994841,53.2861535859864 -1.47482551011446,53.2860197845029 -1.47478190581162,53.2859044794996 -1.47463938393202,53.2855353271698 -1.47454300722802,53.2853263325075 -1.47432314872549,53.285031426095 -1.47431712232135,53.2850287038401 -1.47425067056025,53.2849412452109 -1.47404232730164,53.2849376317254 -1.47395534481306,53.2849309584709 -1.47349387631075,53.2848947784959 -1.47318230092645,53.2848583587842 -1.47260158739106,53.2848746682702 -1.47227645620139,53.2848444776269 -1.47189165911278,53.2847888600382 -1.47187064665353,53.2847878682896 -1.47174648446623,53.2847675494726 -1.47185239457787,53.2844525112839 -1.47186795655808,53.2844040539709 -1.47141996392651,53.2842384335969 -1.47138413342872,53.2842256943538 -1.47118488943602,53.2840864246194 -1.47115510597613,53.2840646360649 -1.47108742146195,53.2840877909957 -1.47076335267119,53.2839721406806 -1.47038410046118,53.2839488934907 -1.47021024146764,53.2839373398001 -1.46999726231874,53.2839390910694 -1.4696820349237,53.2838388433945 -1.46962480095284,53.2837369555606 -1.46926486231467,53.2836122457036 -1.46913595075636,53.2836062806653 -1.46871007147472,53.2834740877888 -1.46865335324954,53.2834504709641 -1.46857289226222,53.2834167745312 -1.46775978854323,53.2831867016303 -1.46754355296639,53.2830823064249 -1.46739239066578,53.283175179167 -1.46735187581512,53.2831812888988 -1.46684536387357,53.2832581084861 -1.466458737527,53.2833507379168 -1.46582784103043,53.2834251998168 -1.46568512392722,53.2834453203294 -1.46552601098928,53.2835803009962 -1.46518758490691,53.2837738768905 -1.46509344766692,53.2838651152425 -1.46450398157258,53.2841069898325 -1.4642073913977,53.2841883336658 -1.46431759924976,53.2843749332088 -1.46437138323215,53.2845144605328 -1.46444486645412,53.2848689384348 -1.46476367655477,53.2861279011287 -1.46480967492989,53.2864058722427 -1.46488923703361,53.2867693621983 -1.46490584583387,53.2869941828999 -1.46471091994537,53.2872324326269 -1.46458544059721,53.2874259737501 -1.46444892846144,53.2876707751934 -1.46436414590592,53.2878538045249 -1.46425959675604,53.2879360093737 -1.46381055459,53.2879717369615 -1.46355391770333,53.2879912527722 -1.46323861443214,53.2880140990722 -1.46293248359218,53.288015419827 -1.46224250006147,53.2880123158535 -1.4620351852593,53.2880437322663 -1.46200108715565,53.2880112288859 -1.46168564595784,53.2880448534348 -1.46169137970254,53.288061054633 -1.46213377770609,53.2892639681903 -1.46066894568984,53.2893247602301 -1.46002884148564,53.2894055310769 -1.4597763744471,53.289446624459 -1.45934626554512,53.2895291491834 -1.45931920170216,53.2895371148246 -1.459251411897,53.289557475954 -1.45925700064841,53.2899475938896 -1.45809054731753,53.2900124910507 -1.45659934016447,53.2901315245524 -1.4556509359763,53.2901577596642 -1.45468070354468,53.2902467912673 -1.45439198523818,53.2902976826497 -1.45437697326951,53.2903012087089 -1.45433327652393,53.290313589855 -1.45432386846268,53.2903530868456 -1.45372672473198,53.2904770630186 -1.45338082643036,53.2905401822107 -1.45253969883705,53.290736813218 -1.45156087522059,53.2910316552247 -1.45145509503613,53.2909754540453 -1.45121124336795,53.2910372371194 -1.45073308482475,53.2912364199725 -1.44860041621998,53.2919986868335 -1.44828539275346,53.2921113570595 -1.44814685244315,53.2921593318668 -1.44782686725211,53.2923016329262 -1.44771359749007,53.2923658095711 -1.44770307262076,53.2923666597663 -1.44754088573679,53.2923775912642 -1.4473974895644,53.2924470205908 -1.44716079781951,53.2926526980155 -1.44698346604489,53.2927464588128 -1.44704654100848,53.2927858549624 -1.4472167030274,53.2928921382647 -1.44744194935784,53.2930312022656 -1.44768364741182,53.2931836867269 -1.44806775161139,53.2934108069689 -1.4485570365274,53.2937087788755 -1.44880445700547,53.2938540451906 -1.44924816841207,53.2941081919425 -1.44960604121914,53.294308191897 -1.44994436979596,53.2944847936569 -1.45019987933741,53.2946191549416 -1.45072061449439,53.2948736508281 -1.45104261492844,53.2950240124161 -1.45157547500947,53.2952623884033 -1.45212037947542,53.2954893992827 -1.45244027316115,53.2956183424231 -1.4527657743819,53.295743504526 -1.45315158929173,53.2958861275214 -1.45432592519438,53.2962990754951 -1.45502711906845,53.2965377270208 -1.45546004812996,53.2966866473196 -1.4563670381176,53.2969966578086 -1.45683659641033,53.2971586153065 -1.45784531085826,53.2975047193087 -1.45889674562109,53.2978643269194 -1.45992606499115,53.2982162153167 -1.46063760111812,53.298458209849 -1.46095696338946,53.2985700039274 -1.46186302281999,53.2988766063471 -1.46296825164689,53.2992573496323 -1.46367351907523,53.2994954928047 -1.46431864154593,53.2997181405106 -1.4647176595005,53.2998543445665 -1.46481987053736,53.2998873274948 -1.4657655645475,53.3002142547521 -1.46595347619181,53.3002761970388 -1.46624078529833,53.3003747279456 -1.46679030439991,53.3005614994531 -1.46765706311657,53.3008584880092 -1.46831827319307,53.3010838012021 -1.46893004098467,53.3012940273528 -1.46941039066421,53.3014572893436 -1.46975330931758,53.3015777256999 -1.46998352091529,53.3016625816585 -1.47016431486289,53.3017305699721 -1.47038265574794,53.3018123990398 -1.47056739293166,53.3018877876014 -1.4708123326049,53.3019807827178 -1.47110659842843,53.3021033781619 -1.47133468365004,53.3022001133516 -1.47156068208162,53.3023051624904 -1.47178369733786,53.3024107930709 -1.47196619657183,53.3025019745405 -1.47219016321136,53.3026111762063 -1.47249052014275,53.3027664585544 -1.47266541902563,53.3028677510395 -1.47276300547437,53.3029228828117 -1.47308495855819,53.3031188999015 -1.4734888030949,53.3033886586196 -1.47390396177251,53.30369074537 -1.47425015222026,53.303951502491 -1.47445760855893,53.3041129491261 -1.47458631139765,53.3042211322626 -1.47474256583729,53.304349057952 -1.47490755138086,53.3044936690136 -1.47527939728129,53.3048326914506 -1.4755413084609,53.3050871286409 -1.47570132265339,53.3052490785921 -1.47584248436689,53.3053941779788 -1.47592598601447,53.3054815896808 -1.47603531306335,53.305600150995 -1.47614397515936,53.3057244171657 -1.47622266567806,53.3058157311684 -1.47633416360157,53.30595178219 -1.47644338394016,53.3060792613156 -1.47662928325997,53.3063165953929 -1.47679159035934,53.3065352766562 -1.4768882665983,53.3066659103384 -1.47701721712614,53.3068362843178 -1.47707056018288,53.3069064396066 -1.47715563676443,53.3070116937374 -1.47723253731615,53.3071037129266 -1.47734179658452,53.3072283374308 -1.47747106837238,53.3073726700222 -1.47755563814035,53.30747078725 -1.47770498725701,53.3076294770171 -1.47780321263259,53.3077312213793 -1.47790319532584,53.307835470416 -1.47799559594367,53.3079264862376 -1.47805856690765,53.3079888341171 -1.47814333486796,53.3080708987275 -1.47823284608275,53.3081547673548 -1.47842316451601,53.3083243370685 -1.47848400906168,53.3083778979007 -1.47848528665907,53.3083789704426 -1.47849381857674,53.3083747766527 -1.47879732897017,53.3082241434943 -1.47905210381404,53.3082549090508 -1.47947642620898,53.3082837159096 -1.47982751204576,53.308290636694 -1.48009465058003,53.308291798964 -1.48032177628367,53.308255942591 -1.48083433520242,53.3081817878857 -1.48087649097322,53.3081747817606</coordinates></LinearRing></outerBoundaryIs></Polygon>
  </Placemark>
