  <Placemark>
	<Style><LineStyle><color>ff0000ff</color></LineStyle><PolyStyle><fill>0</fill></PolyStyle></Style>
	<ExtendedData><SchemaData schemaUrl="#Wards__December_2019__Boundaries_EW_BFE">
		<SimpleData name="objectid">369</SimpleData>
		<SimpleData name="wd19cd">E05000476</SimpleData>
		<SimpleData name="wd19nm">Boleyn</SimpleData>
		<SimpleData name="wd19nmw"></SimpleData>
		<SimpleData name="bng_e">541637</SimpleData>
		<SimpleData name="bng_n">183316</SimpleData>
		<SimpleData name="long">0.040561</SimpleData>
		<SimpleData name="lat">51.530991</SimpleData>
		<SimpleData name="st_areashape">917193.38453715</SimpleData>
		<SimpleData name="st_lengthshape">5199.43155082876</SimpleData>
	</SchemaData></ExtendedData>
      <Polygon><outerBoundaryIs><LinearRing><coordinates>0.049072453873128,51.5260349610985 0.048766483922597,51.5267021651828 0.048572989631721,51.5271768112411 0.048364858610475,51.5271318982655 0.047429513657735,51.529453965137 0.047862311636265,51.5295542855999 0.047710630897365,51.5298060544713 0.047288811781897,51.529722623481 0.046380036973293,51.5313535897519 0.046820274655788,51.5314286113021 0.046714902784061,51.531618437082 0.046656103236422,51.5317228514851 0.045135546347471,51.5314445405738 0.04475320241815,51.5313747965334 0.044580358123631,51.53179684614 0.044562177409189,51.5318421147438 0.044946034342728,51.5319137214419 0.04498883533209,51.5318076985601 0.045257804713679,51.5318569458456 0.045215527561074,51.5319746467105 0.045285425379895,51.531990508551 0.045286729430349,51.5319877879519 0.045344985323627,51.5320011560146 0.045326184066362,51.5320644157506 0.045324920241258,51.532068034028 0.044771672429581,51.5332359890746 0.044341396456563,51.5331580892874 0.044220977349055,51.5334289982094 0.045025310213298,51.5335849679129 0.044921923635754,51.5338538716105 0.044475275044519,51.5337635827804 0.044282011210012,51.5342130491545 0.044302121625826,51.5343727240918 0.044020888663218,51.534466722665 0.044232602711664,51.5347210486764 0.044514361348157,51.5346361204308 0.046461431198954,51.5350329426347 0.046346454615087,51.5353640819787 0.046187494543616,51.5358703998113 0.046040350130734,51.5361895143016 0.045894282883895,51.5363099259727 0.045139755294441,51.5368473168785 0.044165066320485,51.5374281916056 0.043370905584148,51.5372432698522 0.040726194606289,51.5366301983929 0.037968767643635,51.5360073397417 0.036930322679231,51.5357421140698 0.036445133271518,51.5356300780142 0.035958641473197,51.5355207603901 0.035425934831775,51.5354094557416 0.034641758664657,51.5352522600095 0.033621654635915,51.5350109603645 0.032824924672918,51.5348305061184 0.032499825533655,51.5347516365251 0.032605344309555,51.5345636188891 0.032500396480091,51.5345375696765 0.032275409720078,51.5344722470696 0.032191710278021,51.5344053721546 0.032188630086818,51.5343362006512 0.03226204438534,51.5341721142222 0.032288976252317,51.5340961290291 0.032276079083289,51.5340334209632 0.032253639673834,51.5339833748114 0.032257057487903,51.5338331786102 0.032245279121251,51.5337956238211 0.032111894037614,51.5337475916506 0.032017791598247,51.533706070581 0.031933848613558,51.5336337158279 0.031877617398602,51.533537596271 0.031824437255701,51.5334432223436 0.03196827623531,51.5331439595587 0.032027299850511,51.5331105708591 0.032071316236327,51.5329964413138 0.032131375406939,51.5328875164647 0.032561269405026,51.5329573762498 0.033251781546417,51.5330839366171 0.03435392412276,51.5333238168498 0.034384819131082,51.5332728451522 0.034725553734421,51.5333479309574 0.034798751227238,51.5332431822625 0.034823099730865,51.5330773392707 0.034485582583872,51.5330103786287 0.034579021368568,51.5328423468886 0.034917897459665,51.5323265355784 0.034966283087799,51.5322465810021 0.035091258417725,51.532042040726 0.035136634110563,51.531961239075 0.035195578897447,51.5318595245545 0.03527705102341,51.5316818107214 0.034878401849947,51.5316033264846 0.035099194168298,51.5310895660676 0.035134190344719,51.5309999545546 0.035238032759109,51.5309693821365 0.0360392825402,51.5311218726877 0.036215210314127,51.5307032874258 0.036287149771667,51.5304745838308 0.036293893421334,51.5304312237845 0.036270569684585,51.5304253359015 0.036335720191012,51.5302363078519 0.036326808465391,51.5302310679206 0.036353749689432,51.5301235258721 0.036679833431993,51.5301611027282 0.037089536438029,51.5301998312159 0.037447755326524,51.5302142807218 0.037764985885766,51.5302159571723 0.037676986433686,51.5301167067161 0.037613623163833,51.5300234109165 0.037564629758139,51.5299271682768 0.037540164546127,51.5298637626608 0.03753058771344,51.5298089992602 0.037526315902287,51.52974524253 0.037537743041474,51.5296470500303 0.037691455399477,51.5291173695134 0.03786814452433,51.5287483047137 0.038304547850348,51.5281579669834 0.03859752684711,51.5276807928639 0.038824743932404,51.5272802811396 0.039122646537831,51.5265250413883 0.039403706145699,51.5257495076647 0.039460405569927,51.5255020979854 0.03946385956898,51.5254516924062 0.045344174021438,51.52467656299 0.045432617239751,51.5249474241536 0.045480609088476,51.5251165910572 0.045463639337932,51.5251888099154 0.046655318639909,51.5253685766127 0.046639951444316,51.5254128971222 0.046856298258888,51.52544777605 0.046875980903722,51.525404279424 0.047249164942336,51.5254642887193 0.047418543508408,51.5254802092098 0.048217343582059,51.5256110836893 0.049161030248465,51.5257600213874 0.049072453873128,51.5260349610985</coordinates></LinearRing></outerBoundaryIs></Polygon>
  </Placemark>
