  <Placemark>
	<Style><LineStyle><color>ff0000ff</color></LineStyle><PolyStyle><fill>0</fill></PolyStyle></Style>
	<ExtendedData><SchemaData schemaUrl="#Wards__December_2019__Boundaries_EW_BFE">
		<SimpleData name="objectid">209</SimpleData>
		<SimpleData name="wd19cd">E05000298</SimpleData>
		<SimpleData name="wd19nm">Pinner South</SimpleData>
		<SimpleData name="wd19nmw"></SimpleData>
		<SimpleData name="bng_e">511946</SimpleData>
		<SimpleData name="bng_n">188424</SimpleData>
		<SimpleData name="long">-0.38565</SimpleData>
		<SimpleData name="lat">51.583561</SimpleData>
		<SimpleData name="st_areashape">2345612.77341623</SimpleData>
		<SimpleData name="st_lengthshape">8273.77001689035</SimpleData>
	</SchemaData></ExtendedData>
      <Polygon><outerBoundaryIs><LinearRing><coordinates>-0.38839226230947,51.577256170894 -0.388255747691811,51.5767930214529 -0.387856915843898,51.5756661354539 -0.387828496690806,51.5756118050922 -0.387751177669322,51.5755136512574 -0.387492093853419,51.5752897470223 -0.388054615102885,51.5749719507016 -0.387437495056437,51.5743852368584 -0.387165120758488,51.5740496741528 -0.386835761850272,51.5735694872775 -0.386640777630752,51.5732898255155 -0.385965553258418,51.5725107284224 -0.385686901404867,51.5721481052429 -0.386033517637758,51.571855216537 -0.386439487745663,51.5715559509025 -0.385913596101868,51.5709651790239 -0.385605161714212,51.5711578152143 -0.385559454490534,51.5712255097562 -0.385508544822258,51.5712788390557 -0.385419168166083,51.5713567209512 -0.385292261952463,51.5714763386055 -0.385110617369795,51.5716330513904 -0.384947707607316,51.5717512738605 -0.384845143626554,51.5718352665711 -0.384738612299577,51.5719103044017 -0.384574688030945,51.5720168249824 -0.384431241669304,51.5721128399569 -0.384326172000059,51.5721869083636 -0.384176121430699,51.5723080938779 -0.38406353301837,51.5723928459095 -0.38399092479242,51.5724439878464 -0.383964330340413,51.5724625003514 -0.383909786481091,51.5724941120519 -0.38382353338822,51.5725676308414 -0.383710513494432,51.572620911707 -0.383622119429475,51.5726709366235 -0.383531563758658,51.5727416082157 -0.383464996960064,51.5727901353261 -0.383398307111599,51.5728387506277 -0.383335965043844,51.5728855382864 -0.383285085854348,51.5729378776388 -0.383245017850305,51.5729705887152 -0.383199569189026,51.5729906387571 -0.383145660646662,51.5730042800842 -0.383098879650071,51.5730216148595 -0.38292316226888,51.5731316565742 -0.382842402939788,51.5731709978169 -0.382791117298609,51.5731945642337 -0.382755329731576,51.5732273332618 -0.382704522644917,51.573274279632 -0.382658784804427,51.5733024169572 -0.382368232418969,51.5734396422861 -0.382266998747464,51.573485892977 -0.382091823871289,51.5735437086913 -0.382034837845788,51.5735636000294 -0.381792127438471,51.5736501509072 -0.381722657265599,51.5736563846492 -0.381635823525176,51.5736623787668 -0.381439799433012,51.5736974316856 -0.381243932990886,51.5737280810107 -0.381019414285925,51.5737915079666 -0.380981185700904,51.5738125560601 -0.380958518885112,51.5738410111827 -0.380913621449752,51.5739257961927 -0.380880526728628,51.5739630971841 -0.380851895196426,51.5739986612729 -0.380813909127109,51.574053065961 -0.38075865687499,51.5741044445826 -0.380726828683867,51.5741462583814 -0.380700477811426,51.5741980359799 -0.380684776988205,51.5742346778017 -0.3806717389585,51.5742767510044 -0.380670620742024,51.5743082004348 -0.380683602783459,51.5743480250435 -0.380714269897936,51.5743790140524 -0.380770608931354,51.5744175496964 -0.380818584153394,51.5744469800164 -0.380833083877457,51.5744876348874 -0.380902322817187,51.5746486119061 -0.380919949149061,51.5747217639711 -0.380946901035485,51.574776975171 -0.380968311632281,51.5748240183939 -0.380980754233144,51.5748790284014 -0.38098897811496,51.5749321834659 -0.380998000634995,51.5749628736218 -0.380998371339542,51.5749926350235 -0.380979761475967,51.5750274391181 -0.380943555831576,51.5750718894042 -0.380871676444636,51.5751859682771 -0.380847039189244,51.5752296789762 -0.380812771004115,51.5752597715151 -0.380729809459624,51.5753207474891 -0.380682737611498,51.5753461678575 -0.380641918050075,51.5753563926238 -0.38057041001345,51.5753796779569 -0.380459414417277,51.5754159032008 -0.380425657103545,51.5754316191277 -0.38041619996699,51.5754566604295 -0.380394883202369,51.5755273863895 -0.380357909592934,51.5755934016885 -0.380331020955289,51.5756200907111 -0.380267297630979,51.5757055138636 -0.380230143531666,51.5757364656418 -0.380234860598344,51.5757643995446 -0.38027267788922,51.5758386398858 -0.380280272037098,51.5758693103784 -0.380278046460015,51.5758917546817 -0.380259624229968,51.575921256567 -0.380231503685902,51.5759424449076 -0.380153559687877,51.575982721533 -0.38012641818721,51.5760165093191 -0.380114114229664,51.5760379151735 -0.380113443017977,51.576056784827 -0.380129728894318,51.5760839792563 -0.380144460333085,51.576114748329 -0.380132220267094,51.5761343574602 -0.380027230047598,51.5762057262389 -0.379999042136462,51.5762288002271 -0.379985119636847,51.576255578333 -0.379967519512347,51.5763020829181 -0.379942060060835,51.5763287007674 -0.379921170985861,51.5763472911588 -0.379900400177081,51.57636588318 -0.379897862863788,51.5763937168905 -0.379901400738243,51.5764180393019 -0.379889755965845,51.5764610300212 -0.379911385953769,51.5767059454563 -0.379925068959681,51.5768464674142 -0.379923310743917,51.5768958885657 -0.379914576368922,51.5769407170918 -0.379919293317916,51.5769686519 -0.379948854653659,51.5769906359967 -0.380007102329246,51.577015713161 -0.380081575927413,51.5770329238161 -0.380126859969293,51.5770578218759 -0.380170268507901,51.5770952799634 -0.380189529186388,51.5771225163605 -0.380195898166827,51.5771441800981 -0.380180672099439,51.5771674331343 -0.380163798803751,51.5771968673669 -0.380138156723555,51.577225281241 -0.380114059536918,51.5772537164461 -0.380107328681831,51.5772823914932 -0.380118854141697,51.5773230053702 -0.380126641626414,51.5773482848149 -0.380144004439892,51.5773853831941 -0.380160217276423,51.5774179712216 -0.380183969808322,51.5774795204037 -0.380181742644774,51.5775019646782 -0.380162046452948,51.5775304606714 -0.380113543127165,51.5775927205381 -0.380048891756608,51.5776673433044 -0.380009444699325,51.5777225359817 -0.379995755081163,51.5777394282153 -0.379988702966118,51.5777770886498 -0.379991894316667,51.5778077882652 -0.379998414996926,51.5778285548534 -0.380018782871746,51.5778647963995 -0.380038927047957,51.5779073269255 -0.380043997233198,51.5779253775166 -0.38004145031789,51.5779568072036 -0.380025589211951,51.5779979411875 -0.380003195488918,51.5780587640124 -0.379992255056303,51.5780819871889 -0.379963297280019,51.578126626312 -0.379922527090344,51.5781755077108 -0.379893413932783,51.5782245510102 -0.379871659334317,51.5782674020736 -0.379854465719407,51.5783058216673 -0.379837793219832,51.578326267893 -0.37981547505144,51.5783448385242 -0.379796353744875,51.5783571603386 -0.379769634345441,51.5783756701647 -0.379751941131519,51.5783880116991 -0.37973428805375,51.5783958584197 -0.379712385449841,51.5784027480801 -0.379469165895195,51.5784660037069 -0.379410744430563,51.57848587305 -0.379390173922455,51.5784954779156 -0.379371028642028,51.5785051024703 -0.379350170307488,51.5785227939314 -0.379339515827497,51.57853792952 -0.379330281267017,51.5785566808402 -0.379317656385956,51.5785870729051 -0.379306819898235,51.5786876107315 -0.379305684873043,51.5787596045302 -0.379303170822234,51.578790135401 -0.379293880411076,51.5788070883393 -0.379280468408063,51.5788194889599 -0.379255230996097,51.5788398167544 -0.379209966560413,51.5788544740837 -0.379160291197827,51.5788726665543 -0.379116229492423,51.5788936334404 -0.379077875955073,51.5789146791945 -0.379061514490759,51.578929736789 -0.379029233466092,51.5789841289163 -0.378981916920156,51.5790563837278 -0.378956519285197,51.57908120461 -0.378901388102395,51.5791289879252 -0.378895166566221,51.5791432863875 -0.378893567052786,51.5791882143396 -0.378897165397583,51.5792475976825 -0.378900830921215,51.5792683248672 -0.37891543454405,51.5793026884239 -0.378919034639479,51.5793252132093 -0.378915421709507,51.5793431429389 -0.378910753059333,51.5793539566767 -0.378900259640825,51.5793645990857 -0.378886813921835,51.5793778984485 -0.378851178517708,51.5794061739222 -0.378822967436722,51.579426460524 -0.378810823296813,51.5794433739807 -0.378810247435036,51.5794595480779 -0.378809671572722,51.5794757221751 -0.378798792737702,51.5794971475854 -0.378771680119792,51.5795300353019 -0.378756679625184,51.579546909272 -0.378752994395132,51.579570231716 -0.378763826850787,51.5795901596134 -0.378771879578896,51.5796046544698 -0.378792599158981,51.5796310119965 -0.378827514827776,51.5796630493773 -0.378863129328008,51.5796788244248 -0.378912984781814,51.5796956955376 -0.379004516490773,51.5797185363251 -0.379065900179254,51.5797391628053 -0.379108555341857,51.5797577319354 -0.379126717825145,51.5797723673739 -0.379131522347885,51.5798012008668 -0.379118705061533,51.5798369839665 -0.379079915420315,51.5799137611859 -0.379035516810606,51.5799842587307 -0.379009159025625,51.5800360358459 -0.37898977918809,51.5800924047567 -0.378972456145212,51.5801344185407 -0.378988582779599,51.5801661062712 -0.379011305271301,51.5801763093812 -0.379051427230626,51.5801858536897 -0.37911145704309,51.5802010668136 -0.379181524442807,51.5802218132292 -0.379223049425806,51.5802286800071 -0.379267900894049,51.5802257036521 -0.379308501266059,51.5802217692879 -0.37934729109684,51.5802285982289 -0.379396987411196,51.5802499622964 -0.379429501435199,51.5802692904406 -0.379460491373381,51.5802912943777 -0.379475540251196,51.5803131679908 -0.379498252031909,51.5803638255407 -0.379512155584059,51.5803810989345 -0.379535953299807,51.5804012049795 -0.379555406844212,51.5804230495089 -0.379594981414361,51.5804847283368 -0.379599946169314,51.5805090695539 -0.379602065590814,51.5805297762504 -0.379601458032702,51.580546848263 -0.379587981615321,51.580561046533 -0.379564555298655,51.5805706110783 -0.379506450913739,51.5805814959263 -0.379472913263119,51.5805909216568 -0.379449550855123,51.580598689456 -0.37939391437672,51.5806204857065 -0.379360184788313,51.5806353024708 -0.379342308326489,51.5806494390184 -0.379329874764038,51.5806744391039 -0.379307459239818,51.5806957060513 -0.379279205939332,51.5807204866435 -0.379265601426883,51.5807382792185 -0.379251293259334,51.5807758393337 -0.379248363234719,51.5808180511347 -0.379254636261487,51.5808424113427 -0.379272661658314,51.5808642361833 -0.37930232111228,51.5808835249154 -0.379359209111245,51.5809067859696 -0.379431723343947,51.5809357465367 -0.379481602737629,51.580955314586 -0.379499701896392,51.580971745793 -0.379503687580884,51.5809834884448 -0.379492872673854,51.5810031162925 -0.379473216080293,51.5810271182464 -0.379449277779193,51.5810510601411 -0.379432786311244,51.5810697112015 -0.37940002440874,51.5811375819667 -0.379383724775791,51.5811508419533 -0.379335259475299,51.5811717480814 -0.379313219324312,51.5811858279934 -0.379290771605508,51.5812079919466 -0.3792769192969,51.5812293763104 -0.379247736264416,51.581280306005 -0.379232319546594,51.5813088609693 -0.379225755634398,51.581329446785 -0.37922508392743,51.5813483164131 -0.379230304433137,51.5813654698538 -0.379259076805694,51.5814063221043 -0.379284635642215,51.5814606151363 -0.379300315157288,51.5815048825753 -0.379303853079891,51.5815292040862 -0.379286150952408,51.5815784939186 -0.379278630354842,51.5815891783359 -0.379268264409311,51.5815962273258 -0.379197982113795,51.5816249225127 -0.379174329778201,51.5816407777273 -0.379128198836824,51.5816796956849 -0.379108861635377,51.5816947121631 -0.379086189636953,51.5817231659474 -0.379076834557294,51.5817419155765 -0.379070100880799,51.5817705905115 -0.379069780989238,51.5817795759189 -0.37906222521989,51.5818280176539 -0.379083270608465,51.5819254898121 -0.379116071922202,51.5820203376353 -0.378896728689657,51.582301479149 -0.378791754127006,51.5823719477974 -0.378707577119833,51.5824265217758 -0.378686715256948,51.5824442130696 -0.378559869964347,51.5824370659651 -0.378142069934553,51.5824160069297 -0.378068849731337,51.58248700393 -0.377922534616229,51.582582072031 -0.377777367318705,51.582728398835 -0.377663543269195,51.5828033284815 -0.377608406116718,51.5828511120071 -0.377561376022882,51.5829151887953 -0.377526555383203,51.5829605564414 -0.37743109335081,51.5830077811909 -0.377293311545921,51.5830670072443 -0.377139491272303,51.5831287971207 -0.377015476453822,51.5831657383042 -0.376952413588348,51.5831954313029 -0.376877405339634,51.5832330504453 -0.376884807530083,51.5832691130874 -0.376950320921485,51.583374302353 -0.37696471905355,51.5834177439401 -0.376909772644449,51.5834601351633 -0.376905242818916,51.5834636685926 -0.376659223029013,51.5835645476407 -0.376551218182987,51.583596315294 -0.376571169252967,51.5836442383243 -0.376611149143006,51.5836978322693 -0.376584993599272,51.5837037632415 -0.376526850738702,51.5837156343777 -0.376458555219644,51.5838486390588 -0.376422771451938,51.5839209625316 -0.376408475042903,51.5839180677866 -0.375881379716239,51.5838010933297 -0.374842972084468,51.5835753565912 -0.374716467186302,51.5835619170898 -0.374675655639302,51.5835316843403 -0.374216231880169,51.5838661270132 -0.3742015185012,51.5838749129079 -0.373879688720506,51.5837922392043 -0.373784479408317,51.5837522621661 -0.373700498129185,51.5837178353431 -0.373121195545922,51.5838131863616 -0.373134818856713,51.5838349510879 -0.373149226862738,51.5838747063573 -0.373451322498407,51.5844697157766 -0.373396336102161,51.5847162675584 -0.373608684090793,51.5850753035418 -0.373644036601838,51.5851351273057 -0.373941247647115,51.58590725986 -0.373592880005804,51.5860040168263 -0.373876648979002,51.5865861848085 -0.374192238199208,51.586560892181 -0.374302285015681,51.5867521057121 -0.374609979608978,51.5868679346134 -0.374783506897636,51.5869413592612 -0.374956882877615,51.587015681704 -0.375092874351373,51.5870903834727 -0.375105488120374,51.5871004472826 -0.374946871713514,51.5872961186985 -0.375516439382907,51.5875180588096 -0.375755776771889,51.5879287073535 -0.376049140111076,51.5881630019479 -0.376256318789199,51.5883843261962 -0.375532342056745,51.5886099287602 -0.375566048287454,51.5886760220522 -0.37534511756762,51.5887566583794 -0.374712651103878,51.5889258974623 -0.374636701270409,51.5888295522645 -0.374354640721615,51.5889254318001 -0.374385907170666,51.5889798049436 -0.373518258680252,51.5891818282375 -0.373326671211495,51.5891306254362 -0.373019401244068,51.5893655866207 -0.37373284048516,51.5896821266347 -0.374168584426666,51.5898490871917 -0.374722862074581,51.5900932940082 -0.375705251904712,51.5905187307661 -0.37750036779518,51.5913088874124 -0.378706019872586,51.5917904271015 -0.380796725507522,51.5926763151944 -0.381616098758767,51.5930194414974 -0.382429526916059,51.5933660752205 -0.382664335733386,51.5934646064399 -0.383254371852661,51.5937200527764 -0.384032317412234,51.5940509034235 -0.384635998098926,51.5942912479126 -0.385201234285569,51.5945148783182 -0.385824503164974,51.5947302233066 -0.38649181703695,51.5949255833093 -0.38714091409872,51.5951044180717 -0.387741725185004,51.5952619991837 -0.388486138046961,51.59544213633 -0.389426949280356,51.5956196603565 -0.391428289322108,51.595939379815 -0.395030777208498,51.5964688693161 -0.397264017513542,51.5968042475922 -0.397679328708009,51.5968593657417 -0.39769124561282,51.5968082855797 -0.397715495643658,51.5967348988726 -0.397718342990642,51.5966540285521 -0.397675528931632,51.5965176056712 -0.39752271392063,51.5963069525226 -0.397317269012524,51.5960730144302 -0.397106473809481,51.5958659732187 -0.397042644295387,51.5957922833933 -0.396906859937733,51.5956322048983 -0.396674443969846,51.5953835136274 -0.396551539306068,51.5952262185615 -0.396485644719612,51.5950895697194 -0.396468931279218,51.5949895531912 -0.396476121227595,51.5947854899814 -0.396471769435852,51.5945812690175 -0.396449749075704,51.5940981178169 -0.396398052659627,51.5938051482832 -0.396343135775396,51.5936002361455 -0.396271440609022,51.5934221549044 -0.39619017159709,51.5932726198693 -0.396059382815601,51.5930082361566 -0.395931096360327,51.5927979153267 -0.395668123594599,51.5922718240359 -0.39558987117317,51.5921178353403 -0.395573195598351,51.5920573745099 -0.395526873345145,51.5918958208102 -0.395467295038859,51.5916207234022 -0.39544965688312,51.5913039454816 -0.395482436656605,51.5909447064403 -0.395499898593616,51.5908207935995 -0.395527888073316,51.5906818327543 -0.395526844593706,51.5905459801561 -0.395514472135178,51.5904073656967 -0.395468278392653,51.5902016730091 -0.395138217681342,51.5903096237256 -0.394870103606653,51.5902574099091 -0.394623837099577,51.5903214646655 -0.394676847237409,51.5904147868661 -0.394450359290743,51.5904512431471 -0.394124994391463,51.5902201545121 -0.393650884632736,51.5896642879587 -0.39347411245791,51.5893983724 -0.393050009185828,51.5890211905988 -0.392850387198258,51.5888700321468 -0.392515305795548,51.5887090169191 -0.392157621352234,51.5884972564557 -0.39201186793132,51.5883307435626 -0.391920887097537,51.5877188991208 -0.391869129811059,51.5874690780348 -0.391815669059202,51.5872237289329 -0.39171759662247,51.5870182229672 -0.391709009099889,51.5869749537423 -0.391519340996374,51.5860506139641 -0.391497444875442,51.5854442114443 -0.391504725953151,51.5849956229877 -0.391390264577605,51.5844760529386 -0.391328160286792,51.584108321768 -0.391186906835564,51.5841045865828 -0.391099778965727,51.5835862905478 -0.391023383750286,51.5831347566723 -0.391012799810775,51.583067187458 -0.391150212649652,51.5830582833652 -0.391122552969274,51.5829013893764 -0.391046629485347,51.5820694982776 -0.391027065676931,51.5817239263536 -0.391483575717624,51.5817103173874 -0.391550998932758,51.5815602105404 -0.391341875971796,51.5813522827761 -0.391251137556049,51.5812629372204 -0.391093642402553,51.5811061504835 -0.391205789215406,51.5810779319652 -0.390808987300709,51.5805033370732 -0.390173403180847,51.5796582836256 -0.38963952632292,51.5789225921197 -0.388999320303876,51.5781287115467 -0.388592532119128,51.577757145129 -0.38839226230947,51.577256170894</coordinates></LinearRing></outerBoundaryIs></Polygon>
  </Placemark>
