  <Placemark>
	<Style><LineStyle><color>ff0000ff</color></LineStyle><PolyStyle><fill>0</fill></PolyStyle></Style>
	<ExtendedData><SchemaData schemaUrl="#Wards__December_2019__Boundaries_EW_BFE">
		<SimpleData name="objectid">1298</SimpleData>
		<SimpleData name="wd19cd">E05002238</SimpleData>
		<SimpleData name="wd19nm">Little Thurrock Rectory</SimpleData>
		<SimpleData name="wd19nmw"></SimpleData>
		<SimpleData name="bng_e">563012</SimpleData>
		<SimpleData name="bng_n">178449</SimpleData>
		<SimpleData name="long">0.346211</SimpleData>
		<SimpleData name="lat">51.481499</SimpleData>
		<SimpleData name="st_areashape">1633294.33268897</SimpleData>
		<SimpleData name="st_lengthshape">5521.42680763937</SimpleData>
	</SchemaData></ExtendedData>
      <Polygon><outerBoundaryIs><LinearRing><coordinates>0.348251758151174,51.4752014389504 0.348253597416519,51.4752094932214 0.34829643207949,51.4754262964179 0.348342763945481,51.4755701167144 0.348376275725475,51.4756909075867 0.34842591650727,51.4758436517663 0.348473328244421,51.4759830453687 0.348518462243057,51.4761035136815 0.348580713967453,51.4762498021625 0.348647463642851,51.4764004063383 0.348721639568397,51.4765545472841 0.348788659959452,51.4766826696535 0.348863102017761,51.4768142398446 0.348938649088955,51.4769395835855 0.349025362768948,51.4770834948627 0.349238121494026,51.4773301623528 0.349556016039612,51.47760079844 0.349898141305716,51.4778691501992 0.34996577242708,51.4779235383257 0.350020993950812,51.4779628901896 0.350083201272934,51.4779949095734 0.350145104691847,51.4780233395868 0.350201222680916,51.4780500867548 0.350292322462862,51.4780851240641 0.350380025822941,51.4781095311565 0.350470294976178,51.4781284019626 0.350551535035315,51.4781402617023 0.35063286744073,51.478153917249 0.35072262756937,51.478162909294 0.350804830422345,51.4781657583319 0.350892613631648,51.4781640008606 0.350985887681301,51.4781558400486 0.351113377788905,51.4781433977413 0.351288437573581,51.4781300027513 0.351463839660937,51.4781255918991 0.351599074506247,51.4781228836268 0.351961901601151,51.4781192130427 0.351824717580635,51.4781417392034 0.351715285036303,51.4781682059257 0.351597536238077,51.478203828551 0.35149719948177,51.4782409009714 0.351393166963613,51.4782915323961 0.351315204979242,51.4783434402881 0.351247468851226,51.4783979303107 0.351204211658124,51.4784527395139 0.351172092262634,51.4785001330408 0.351151129856854,51.4785428084332 0.351134953562369,51.4785907820227 0.351116456901678,51.478651388746 0.351107678380482,51.47870469817 0.351110818129979,51.4787657700777 0.35112789564515,51.4788184718646 0.351149456745826,51.4788728824859 0.351170296737819,51.4789156192716 0.351200054813338,51.4789608754013 0.351234407897999,51.4790123319553 0.351267037144747,51.4790603166267 0.351318847690478,51.4791141215087 0.351376122187902,51.4791633213286 0.351494526286857,51.4792535526392 0.351602389056484,51.4793350936198 0.351703776447659,51.4794292609406 0.351796597938777,51.4795253983504 0.351925396788688,51.4796514724256 0.352117529623444,51.4798013611905 0.352331127449545,51.4799229492859 0.352526558236128,51.4800261108813 0.352788144402016,51.4801548278215 0.353329408077785,51.4804290706085 0.353956959325978,51.4807276530958 0.354645790680641,51.48106995543 0.354978891013025,51.4812449733627 0.355179618374908,51.4813677139307 0.355335131379301,51.4814518923048 0.355594268817877,51.4816157163403 0.355835905038575,51.4817763836434 0.356012105170402,51.4818978163047 0.356305492496571,51.4821131861266 0.356473312222375,51.4822401803364 0.356645260260798,51.4823896577815 0.356927384339479,51.4826375283095 0.357209793863949,51.4828908755533 0.357275355251781,51.4829623827139 0.357283008249045,51.4829703210564 0.35718355023026,51.48302455194 0.356989902794402,51.483124636767 0.356786057149585,51.4832204311907 0.356511311167902,51.4833393150039 0.356357617730887,51.4834035348049 0.356109134515465,51.4835020213739 0.356058167880757,51.4835201253497 0.355921099412382,51.4835705250073 0.355663449103501,51.483659395657 0.35563662392969,51.4836689241169 0.355520776997947,51.4837117049475 0.355409221399146,51.4837570966065 0.355300862560206,51.4838069196717 0.355274177444776,51.4838191422556 0.355190118382963,51.4838657808346 0.355107649163898,51.4839132858756 0.355020604587528,51.4839572871839 0.355003700325244,51.4839657172352 0.35471550398484,51.4840749767297 0.354685805167596,51.4840863611975 0.354391629840488,51.4841902557937 0.353152029772568,51.484706160816 0.35257914853323,51.484937905543 0.35179880654179,51.4852557055369 0.351117270728023,51.4855319644016 0.350293339891168,51.4858686074808 0.349648400520999,51.4861270419881 0.349159207523418,51.4863077377304 0.349118346597998,51.4863238387568 0.348688936672399,51.486491559349 0.348299710331123,51.4866531706331 0.347950003998941,51.4868004179219 0.347717563062819,51.4869021647125 0.347309900975384,51.4870704390194 0.346962621994393,51.4872095443688 0.346299813307207,51.4874863084922 0.345367285469058,51.4878700534871 0.345247302600816,51.4879183026166 0.344767330375351,51.4881104913854 0.344747527106352,51.4881180797522 0.34453483120612,51.4882113359515 0.344320577657512,51.488302014961 0.344225814487235,51.4883371735677 0.344159333772245,51.488360977201 0.344109733706914,51.4883781511176 0.343996803000254,51.488422662903 0.34393769752623,51.4884490170559 0.343836459216425,51.4884968906278 0.343738208339194,51.4885474024061 0.343507709799167,51.4886896511848 0.34337369155947,51.4887723431339 0.343259404759805,51.4888483484571 0.343216147803525,51.4888456158954 0.343167050913523,51.4888447985598 0.343003666230319,51.4888597484613 0.342940488882946,51.4888646062655 0.34286304404614,51.4888715466302 0.342785738763391,51.4888811821052 0.342777122706097,51.4888822525418 0.342732784801104,51.4888885327364 0.342689962170122,51.4888965794959 0.342648774348594,51.4889063922344 0.342587991413221,51.4889301722166 0.342453418770717,51.4890020862208 0.342229178950672,51.489097367273 0.342206710994828,51.4891086048481 0.342180065167338,51.4891217235459 0.342151875143536,51.4891348730618 0.342122243198266,51.4891453543038 0.342079512323197,51.4891551976755 0.342027935236674,51.4891616212318 0.341976338094544,51.4891653481165 0.341901466040959,51.489166842458 0.341756936368408,51.48915803941 0.341652889271339,51.4891511253617 0.341518354469911,51.4891403239153 0.341096048865321,51.4891370627183 0.34035546745058,51.4891347534435 0.339460043338846,51.4891472152355 0.338390225371714,51.4891568522926 0.337305150127659,51.4891236275948 0.336862677967195,51.4888095848876 0.336853694378134,51.488803470305 0.336464456953334,51.4885432081246 0.336221633326418,51.4882170953994 0.335910169378625,51.4878446962693 0.335839319252857,51.4877552104324 0.335669879093284,51.4875401087897 0.335525062591885,51.4872722800761 0.335495661920219,51.4872036365622 0.335488696073906,51.4871533371841 0.335494238295656,51.487036347337 0.335764680906347,51.4860417169606 0.335820950085456,51.4855648081001 0.335845846335542,51.4848970222233 0.335875747311678,51.484466580343 0.336018382698629,51.4836507159281 0.336052835480868,51.4831950190803 0.336048894121595,51.4824711792232 0.336259472983454,51.481515519168 0.336274736443099,51.4813353152979 0.336275102317508,51.4810331355714 0.336243737641562,51.4805886369878 0.336218141208603,51.4803966592703 0.336168625522629,51.4800199512454 0.336157055126116,51.4799328833944 0.336063302139012,51.4795642480347 0.335837364976305,51.4789464164201 0.335775807459753,51.4787291699304 0.33576347526651,51.47865740096 0.335636824458868,51.4767668690188 0.335639034002885,51.4765007039511 0.335750733021024,51.4761206999365 0.336570879622535,51.4762483242091 0.336975234929329,51.4762978184504 0.337702123026039,51.47634538638 0.337838752965171,51.4758633803024 0.337925166674188,51.4754955658456 0.338016531771749,51.4755360918231 0.338173595015868,51.4755958988306 0.33819856422196,51.4755477526042 0.338221026758159,51.4755086459021 0.338236136842691,51.4754372307816 0.338243254977287,51.4754092178239 0.338321735351039,51.4751117796687 0.338322746384713,51.4751036675977 0.338359174442852,51.4749707823314 0.338370725446292,51.4749714516538 0.338389004015675,51.4748505251644 0.338401888681451,51.4747657582836 0.338406002036323,51.4747324120103 0.338420656460479,51.4746242342665 0.338433215012444,51.4745330906088 0.33842922000342,51.474510693834 0.338437879293315,51.474510521421 0.338440724961253,51.4745104647615 0.338439623870468,51.4744610393241 0.338440449809513,51.4744493355171 0.338441736339108,51.4744466128869 0.338468631916407,51.4744361877185 0.338474232822197,51.4744342775893 0.33854765836466,51.474404945235 0.338550459533317,51.4744039901543 0.338638051872162,51.4743707793374 0.338660100269039,51.4743514602963 0.338697399998449,51.474319250885 0.338709686278268,51.4743064195606 0.338717886322869,51.4742972659239 0.338719400297039,51.4742711640367 0.338786732346056,51.4742085976644 0.338791397097855,51.4741581581028 0.338855977307504,51.47401392398 0.338883607102045,51.4739621277714 0.33889277063389,51.4739439645859 0.338897526462942,51.473923191264 0.338919868712247,51.4739676989632 0.338959923473152,51.473989377589 0.339009528948512,51.4740027740493 0.339087773990523,51.4740120046761 0.339149967295823,51.4740161600241 0.339691917460051,51.4740260425156 0.340334664667185,51.4740357125686 0.340418400441987,51.4740385395588 0.340461806720849,51.4740421692871 0.340499492829094,51.4740477116028 0.340576683074742,51.4740641548951 0.341212896203418,51.4741990076622 0.341309031995106,51.4742213652362 0.341391988963037,51.4742367937259 0.341459556053263,51.4742624177345 0.341577511405809,51.4743167060552 0.342486886863819,51.4747239114113 0.343976604735856,51.4753821400181 0.344201395151196,51.4754982151129 0.34454910011567,51.4755937665806 0.345456349647771,51.4757061032473 0.345572312672035,51.4757190710247 0.345638734257789,51.4757222400775 0.345721664546217,51.4757115933641 0.345784500571674,51.4757004486441 0.34583125767695,51.4756860287273 0.345875481853826,51.4756499923993 0.346273200288216,51.4752319922701 0.346393409332416,51.4751055217192 0.346439151901937,51.4750713434467 0.346475134704554,51.4750436525866 0.346514492707852,51.4750238971936 0.346575443868439,51.4750037993837 0.346630951361809,51.4749910020515 0.346689812873805,51.4749880282304 0.346963803152466,51.4749960392231 0.347263631741955,51.4750008352552 0.347317213788239,51.4750060576809 0.347474268121337,51.4750353745095 0.347563310404178,51.4750605657584 0.347651826852178,51.4750731816787 0.347778536778184,51.4751012161235 0.348074080474093,51.475163635067 0.348251758151174,51.4752014389504</coordinates></LinearRing></outerBoundaryIs></Polygon>
  </Placemark>
