  <Placemark>
	<Style><LineStyle><color>ff0000ff</color></LineStyle><PolyStyle><fill>0</fill></PolyStyle></Style>
	<ExtendedData><SchemaData schemaUrl="#Wards__December_2019__Boundaries_EW_BFE">
		<SimpleData name="objectid">5649</SimpleData>
		<SimpleData name="wd19cd">E05011378</SimpleData>
		<SimpleData name="wd19nm">Sharston</SimpleData>
		<SimpleData name="wd19nmw"></SimpleData>
		<SimpleData name="bng_e">383099</SimpleData>
		<SimpleData name="bng_n">387587</SimpleData>
		<SimpleData name="long">-2.25556</SimpleData>
		<SimpleData name="lat">53.384869</SimpleData>
		<SimpleData name="st_areashape">3268760.73049544</SimpleData>
		<SimpleData name="st_lengthshape">12155.9224906258</SimpleData>
	</SchemaData></ExtendedData>
      <Polygon><outerBoundaryIs><LinearRing><coordinates>-2.27539034372627,53.3861118720801 -2.27481682827053,53.3860061720311 -2.27464851097524,53.3857810108138 -2.27463341129764,53.3857846401458 -2.27458407922683,53.3858233939933 -2.27451575169557,53.3859529494667 -2.27445343836707,53.3860735959307 -2.27439992163879,53.3861743626961 -2.27433707157075,53.3862122486942 -2.27425767978212,53.3862609554433 -2.27422175917303,53.3862844021515 -2.27420224954279,53.386296128616 -2.27415422258524,53.3863070227077 -2.27408516984855,53.3863251533106 -2.27401462863382,53.386343287295 -2.27394260535279,53.3863624133894 -2.27375762077617,53.3863573571227 -2.27369599472511,53.386354802957 -2.27358168029596,53.3863514708384 -2.273435867397,53.3863464140486 -2.27329601532957,53.3863431402351 -2.27315318944981,53.3863398730725 -2.27314192831703,53.3864577061478 -2.27312725255089,53.386526932209 -2.27309655591322,53.3866492124222 -2.27230021572422,53.3864955755239 -2.27145250010143,53.3863132059303 -2.26998761029651,53.3859992363865 -2.26974216836858,53.3859413832759 -2.26953736314731,53.385879842339 -2.26939420075142,53.385823554008 -2.26923896841135,53.3857601045899 -2.26911677224528,53.3857063743614 -2.26898557242967,53.3856401737736 -2.26889055352485,53.3855909652662 -2.26867617588769,53.3854467736349 -2.26857634728025,53.3853624401951 -2.26845691502172,53.3852557755136 -2.26838130545267,53.3851786654268 -2.26829045854714,53.3850835288037 -2.26821005143256,53.3849731814864 -2.26815385300458,53.3848879405329 -2.26811128857717,53.3848025789984 -2.26804245505779,53.3846212164328 -2.26797814550592,53.3844298690317 -2.26770368240192,53.3835865193043 -2.26767165699634,53.3835209036339 -2.26762302080129,53.3834356456914 -2.2675638035537,53.3833432224429 -2.26748789035047,53.383237358301 -2.2673954925319,53.3831314412595 -2.26730015892986,53.3830319108402 -2.26720493541084,53.3829494530206 -2.26706590337433,53.3828391470173 -2.26685609987197,53.3826904501995 -2.26657383977851,53.3825112723372 -2.26620537644088,53.3822639931865 -2.26494190935316,53.3814327312061 -2.264787958561,53.3813332394338 -2.26475613154803,53.3812982646532 -2.26473929589076,53.3812623576573 -2.26473154879435,53.3812129520594 -2.26473084930052,53.3811015266292 -2.26438493954829,53.3810870195242 -2.26378063208755,53.3810784758143 -2.2634514101015,53.3810962789244 -2.26330428971237,53.3811172719802 -2.2630294553272,53.3811708971107 -2.2629003807949,53.3812035322352 -2.26276985550408,53.3812424606304 -2.26245780540228,53.3813509816571 -2.26179939435218,53.3815924476585 -2.26121279705142,53.3817825327409 -2.2607084971579,53.3819121383654 -2.25959125674181,53.3821231461298 -2.25915867272786,53.3821851932513 -2.25883408641691,53.3822128581697 -2.25805408232366,53.3822379151628 -2.25780291891311,53.3822321693161 -2.257445147499,53.3822248567977 -2.25715034742028,53.3822183051133 -2.25690239770829,53.38223142103 -2.25665298842693,53.3822490329631 -2.25639897187393,53.3822630588729 -2.25624720827762,53.3822759661516 -2.25595588379785,53.3823314979476 -2.2559213297607,53.3823360647465 -2.25588631502579,53.382265061155 -2.2558241817369,53.3821780308142 -2.25576504561481,53.3820945876292 -2.25568349806944,53.3820354554075 -2.25558838374622,53.3819672765155 -2.25552024891986,53.3818919404519 -2.25537498541975,53.3817296059724 -2.25531895604249,53.3816676331861 -2.2552887627227,53.3816353481152 -2.25524335105795,53.381586920756 -2.2552055447341,53.3815456670234 -2.25518892523217,53.3815439049523 -2.25495872233102,53.3815192376132 -2.25491352296857,53.3814851877867 -2.25485301727637,53.381441286001 -2.25475041430497,53.3813641366273 -2.25473373509006,53.3813524898959 -2.254843150718,53.3812857600019 -2.25490452466472,53.3812478873517 -2.25490600205233,53.3812460864736 -2.25494947313825,53.3812199336903 -2.25504974368405,53.3811577156789 -2.25504499342947,53.3811100999413 -2.25502085959373,53.3810957744555 -2.25487905914185,53.3810133169542 -2.25477047679719,53.3809515463629 -2.2546497170644,53.3808844103949 -2.25464075941674,53.3808790373244 -2.25467028174177,53.3808007960862 -2.25468810112814,53.38075492974 -2.25471761730475,53.3806756997578 -2.25472652966867,53.3806532155538 -2.25474128872782,53.380613645948 -2.25475619277117,53.3805776696585 -2.2547665592198,53.380549790995 -2.2547827886343,53.3805075216644 -2.2547917118086,53.3804868351445 -2.25481085036549,53.3804336870087 -2.25503290218531,53.3803622222489 -2.25523851348723,53.3802979804959 -2.25537364399958,53.3802617461518 -2.255332288249,53.3801459156333 -2.2552671890207,53.3800597003449 -2.25525806462846,53.3800471395203 -2.25517321448009,53.3799331990686 -2.2551895086227,53.3799017131196 -2.25512626204727,53.3798757891007 -2.25513069255189,53.3798703882567 -2.25513819253884,53.3798604874448 -2.25517842928752,53.3798118772633 -2.25518888186615,53.3797982857009 -2.25522468257381,53.3797541775037 -2.25525458780942,53.3797190678159 -2.25527242450106,53.3796965644162 -2.25530971175481,53.3796524530018 -2.25534403096094,53.3796092468018 -2.25546916962323,53.3796628942971 -2.25548706403472,53.379629608052 -2.25550630400059,53.3795936223432 -2.25552422015966,53.3795639296751 -2.25555279314303,53.3795746518914 -2.25558748833385,53.3795934479652 -2.25561163638937,53.3796104698747 -2.25560855783739,53.3795934027005 -2.25560521750715,53.3795332035371 -2.25560346847426,53.3794899848573 -2.2556033757614,53.3794747089818 -2.25559836398342,53.3794046286776 -2.25559301344694,53.3792581687247 -2.25559298617716,53.379253675397 -2.2555944565167,53.3792509765659 -2.25559444561201,53.3792491797741 -2.25558652046915,53.3791889904571 -2.25557233419131,53.3790775042338 -2.25556457054515,53.379023604769 -2.25555966248754,53.3789705980261 -2.25656308066825,53.3790879521609 -2.25716176071711,53.3791540550045 -2.25731968711615,53.3791780653787 -2.25737449775998,53.3790403713025 -2.25754626323576,53.3786112769416 -2.25764097249074,53.378371056237 -2.25785117188448,53.3778231731554 -2.25800503088912,53.3774264666665 -2.25813669957428,53.3770900144826 -2.25825401730769,53.3768389605066 -2.25839076781987,53.3766040391277 -2.25843091031302,53.3765212803545 -2.25806531237837,53.3764627665935 -2.25753854458196,53.3763551780074 -2.25738187479024,53.3763122946621 -2.25699058882116,53.376227773538 -2.25696502525568,53.3762224374222 -2.25696504717505,53.376226031008 -2.2568732873333,53.3762181421971 -2.25582309543029,53.3760613537692 -2.25527376518838,53.3759510173462 -2.25503610274932,53.3759173805308 -2.25455144231672,53.3758024995146 -2.25432402357948,53.3757409828798 -2.2539700874018,53.3756212366357 -2.25374265288206,53.3755363549446 -2.25351653927958,53.3754442818497 -2.25340046709244,53.3753914220525 -2.25313053799714,53.3752464232255 -2.25278093492916,53.3750817339429 -2.25244615712963,53.3749090140769 -2.2520949376874,53.3747425284697 -2.25143462588818,53.3744068601555 -2.25028864401314,53.3737980459876 -2.24982116608691,53.3735420280423 -2.24907213087913,53.3731803832989 -2.24888970892456,53.3730953975633 -2.24838350380312,53.3728896869916 -2.24822529327705,53.3728334051763 -2.24761851767364,53.3726360781811 -2.24713808459101,53.3724698468776 -2.2468068266389,53.3723833703345 -2.24617936101941,53.3722488914624 -2.2457172135786,53.3721357249709 -2.24539522076287,53.3720645006166 -2.24502054601453,53.3719906891635 -2.24480693467837,53.3719532977716 -2.24401119289091,53.3718399121156 -2.2436486155911,53.3717786520012 -2.24278390612831,53.3716959518149 -2.2421134180722,53.3716621832799 -2.2419615281034,53.3716472162724 -2.2416786398321,53.3716082523687 -2.24132219615705,53.3715568574973 -2.24122295345731,53.3715381881231 -2.24078790825103,53.3714366281675 -2.24039956239891,53.3713312886566 -2.24019942072872,53.3712858645413 -2.24004588427345,53.371242142837 -2.23867568327427,53.370799102113 -2.23865490517628,53.3708503638261 -2.23856267997038,53.3710221835168 -2.23860960493156,53.3713465758955 -2.23865044641956,53.3713816296443 -2.23867397863045,53.3715559127005 -2.23884377933017,53.3718261425272 -2.23885328957009,53.371908794687 -2.2389773057129,53.3720578046203 -2.23900931968742,53.3721314255793 -2.23908002630883,53.3721438639231 -2.23924746795635,53.3722576505177 -2.23963004284613,53.3723935577585 -2.23981522936872,53.3724453041115 -2.23999406554785,53.3724476389411 -2.24008140192969,53.372486102989 -2.24014007834116,53.3724967672629 -2.24024567044851,53.3725639498797 -2.24047492255458,53.3726938738467 -2.24048586695689,53.3727666390336 -2.24050400813023,53.37279715473 -2.24049068843867,53.3728304306592 -2.24025352362212,53.3728794344473 -2.24010954330749,53.3729273516397 -2.2399411453028,53.3729303873165 -2.23989518384011,53.3730428956214 -2.23997568231517,53.3731874089455 -2.2400170857859,53.3733213082565 -2.24003880953569,53.3734596499223 -2.24016355791377,53.3737146915561 -2.2401897971901,53.3738404435578 -2.24026607618683,53.3740272899869 -2.240353573567,53.3740936101738 -2.24040652012903,53.374164492693 -2.24053769926211,53.3742191317468 -2.24107026989548,53.374576687052 -2.24124835761301,53.3747075221361 -2.24146119084857,53.3748680306746 -2.2414242576483,53.3749768376382 -2.24149963768204,53.3752876921844 -2.24154566138181,53.3754467404782 -2.24157750649295,53.3754889094783 -2.24162430701129,53.3755238599091 -2.24167893485597,53.3756055215074 -2.24169899443922,53.3757106173697 -2.24165902605106,53.375807837243 -2.24160507828026,53.375844789268 -2.241600848921,53.3758852347584 -2.24153793610737,53.3759365830953 -2.24141642944318,53.3759709766187 -2.24133285527551,53.3760718794637 -2.24131950468349,53.3760997630545 -2.24135578199255,53.3761365317644 -2.24137564020665,53.3762065825356 -2.24135497348768,53.3762551493099 -2.2414569072468,53.3764814785938 -2.24140473973315,53.3765480811095 -2.24141388903463,53.3765876014597 -2.24161717566487,53.3766357123303 -2.24175902433754,53.376733461372 -2.24183612850463,53.376822266221 -2.24181834757611,53.3768555502225 -2.24184582093926,53.3769345712868 -2.24173814445809,53.3770256387055 -2.24175044529407,53.3770741384912 -2.24190339352,53.3772697215493 -2.24191127348267,53.3773255083583 -2.2418245063554,53.377410153208 -2.24188083015977,53.3775277556252 -2.24183608281476,53.3775916475473 -2.24201575438185,53.377735147525 -2.24201649271127,53.3778636457204 -2.24210732557621,53.3779686863352 -2.24207895828047,53.3779930069578 -2.24205748566136,53.3781817567172 -2.24176833639329,53.3783558641414 -2.24167420772231,53.3784540031054 -2.24143661917857,53.378715169731 -2.24136919360395,53.3787368729449 -2.241277950516,53.3788197296622 -2.24128424883462,53.378880821168 -2.24134473812916,53.3789463868199 -2.24132847499114,53.3789850590015 -2.24125962788376,53.3790400137554 -2.24127949522491,53.3790893961723 -2.24119559876566,53.3791569618384 -2.241158492771,53.3792353050905 -2.24115151406394,53.3793152941377 -2.24130774026537,53.3793032955225 -2.24125105458602,53.379382487522 -2.24125745199153,53.379439086336 -2.24120977372914,53.3795327271311 -2.24124836391835,53.3796917006169 -2.24118379349523,53.3797142967884 -2.24114928437375,53.379726947209 -2.24114933067851,53.3797350350282 -2.24114800857045,53.3797637921384 -2.24123091090498,53.3798040607766 -2.24124052573494,53.3799029775243 -2.24133840601783,53.3799396211561 -2.24134624553701,53.3799881300175 -2.24128496856939,53.3800448662235 -2.24134243621532,53.3801022592964 -2.24120149780163,53.3801871044427 -2.24120174994427,53.3802311344259 -2.24113137268764,53.3802789031497 -2.241040495827,53.3804048914673 -2.24094758173026,53.3804563003143 -2.2409273021295,53.380594815686 -2.24101643878639,53.3806844945588 -2.24110741422435,53.3808137984225 -2.24125844901681,53.3809330057011 -2.24120945133908,53.3810346471811 -2.24119813333392,53.38115786743 -2.24125700320294,53.3811999825159 -2.24137122266324,53.3812105332882 -2.24147540112537,53.3812858040443 -2.24156891065168,53.381337733315 -2.24156330580416,53.3813979510137 -2.24163109139978,53.3814167736992 -2.24176043354032,53.3814272933507 -2.24181629371315,53.3814846903442 -2.241831880103,53.3815655323414 -2.24189062217086,53.3815851822499 -2.24188503899464,53.3816705607052 -2.24190017198789,53.3816938929818 -2.24205199153726,53.3816899893548 -2.2420972698659,53.3817177535912 -2.24200896050133,53.3817728382898 -2.241997530576,53.3818762003872 -2.24201582322913,53.3819318760556 -2.24195169974453,53.3820110835042 -2.24207799557595,53.3820305957731 -2.24211898335063,53.3820881127934 -2.24216719079096,53.3821077831236 -2.24234901776091,53.3820840494211 -2.24249786447612,53.3821017175457 -2.24262455483282,53.3821679554752 -2.24268929033741,53.3821732146447 -2.24280991801252,53.3822412615689 -2.24287775686765,53.3822689794107 -2.24288087563102,53.3822941338224 -2.24275797859949,53.3823699571505 -2.24263829812259,53.382466352201 -2.24260693314804,53.3825086498911 -2.24260718681551,53.382552680746 -2.24274432263,53.3826027222985 -2.24288312084568,53.3826834023036 -2.24290778565719,53.3827902852234 -2.24300159078332,53.3828925343059 -2.24307003823725,53.3830254762841 -2.24306740508692,53.3831063562518 -2.24299126803634,53.3831873856258 -2.2429700774561,53.3834247485383 -2.24294043895006,53.3835083793747 -2.24287037999872,53.3836119512311 -2.24275152116485,53.3838512206912 -2.24264974345744,53.3839359863365 -2.24244118552786,53.3839903278542 -2.24243865510552,53.3840891780842 -2.24246899008511,53.3841259583897 -2.24251559782172,53.3841258632978 -2.24256796441507,53.3840925087596 -2.24271859612081,53.3841389281169 -2.24273398318075,53.3842062917975 -2.24286387988073,53.3842896853976 -2.24286141938871,53.3844002178936 -2.24280913412961,53.3844479504442 -2.24280951793146,53.3845144450106 -2.24285933687538,53.384554869817 -2.24284171566902,53.3846375769285 -2.24296249518131,53.3847092176804 -2.24298502803167,53.3849617672999 -2.24288472563294,53.3850446433953 -2.24285324507512,53.3850671718483 -2.24269162924513,53.3852014831404 -2.24263682503437,53.3853282964206 -2.24259960177618,53.3854083478251 -2.24252402895194,53.3855883112439 -2.24243420875158,53.3856621788083 -2.24251299357956,53.3857599652022 -2.24256931271097,53.3858740621292 -2.24256353312711,53.3861832801655 -2.24255654629471,53.3865410252089 -2.24260609727949,53.3870505178281 -2.24262085500963,53.3875242270647 -2.24262478843436,53.387690549002 -2.24379604872715,53.387688153464 -2.24511812224481,53.3877609177573 -2.24622223602741,53.3878296255701 -2.24615669354191,53.3881964790451 -2.24599033234542,53.3888125413328 -2.24565408005968,53.3899314481267 -2.24573595070103,53.3900454009946 -2.2457341043808,53.3902386932447 -2.24391405448314,53.3904005912023 -2.24446686201418,53.3913369614081 -2.24492703456449,53.3913503921257 -2.24533595043233,53.3913333747753 -2.24574082159003,53.3913882519211 -2.24602495770076,53.3913831722585 -2.2459806954191,53.392041213707 -2.24596762379911,53.3923747053268 -2.24589261627942,53.3937043150348 -2.24598491873492,53.3938209404282 -2.2453182207397,53.3939913390844 -2.24488736883654,53.3941009540246 -2.24440592765808,53.394081276022 -2.24502037145413,53.3947397529401 -2.24517459821193,53.3948868031237 -2.24528638326577,53.3949846076966 -2.24538910160234,53.3950580803794 -2.24575778938691,53.3953683200778 -2.2462062421909,53.3956837852852 -2.24682802957703,53.3960599942886 -2.24604931551194,53.3963564294607 -2.24519394443543,53.3966934529495 -2.24372512439947,53.3972879114297 -2.2430797728491,53.3975382257456 -2.24309191266647,53.3975579691446 -2.24254434365739,53.3977784282895 -2.24263416151869,53.3979813244774 -2.24261680256864,53.3980901775604 -2.24258569463643,53.3981800994167 -2.24253845288961,53.3983329538115 -2.24250487588807,53.3985119293747 -2.24249028730483,53.3985847441853 -2.24239355516022,53.3987791237732 -2.24240131467135,53.3988132539398 -2.24243649421034,53.3989156202583 -2.24242164421092,53.398942608358 -2.24242349059239,53.3990055951249 -2.2442476568024,53.3989712337857 -2.24738121679062,53.3988569481611 -2.24961273588272,53.3987822108331 -2.25069378713388,53.3987368124626 -2.25274175251449,53.3986660032173 -2.25555356372236,53.3985799647427 -2.25648431232304,53.3985393326904 -2.25690479146052,53.3979451793428 -2.25698666287174,53.3978075188714 -2.2570191700655,53.397708603332 -2.25704259898426,53.397605124957 -2.25709830019224,53.3973640926077 -2.25712276813067,53.3971870167824 -2.25712889850102,53.3969505834594 -2.25731070964912,53.396935814983 -2.25745021363902,53.3968762074268 -2.25765581538372,53.3967975866948 -2.25779525771415,53.3967280042674 -2.25786852179739,53.3966640457023 -2.25791775758486,53.3966046323137 -2.2579744973619,53.3965353180245 -2.25789385540518,53.3963646690313 -2.25778350726469,53.3962840339706 -2.25772615010856,53.3962518089831 -2.25761001977338,53.3961990416632 -2.2573176683699,53.3961007371239 -2.25717163689903,53.3960651075082 -2.25713262262641,53.3958270644119 -2.25713843172621,53.3955582829769 -2.25714081254857,53.3954395738316 -2.25712686009204,53.3948769943433 -2.25709091135507,53.3946532318823 -2.25702803103843,53.3944457022533 -2.25688716914197,53.3935435487644 -2.25681345422752,53.393286619154 -2.25672798077331,53.3930738367306 -2.25664973436063,53.3928259035556 -2.2562765862523,53.3920320804388 -2.25625631144884,53.3916743926824 -2.25616454334726,53.3906723831873 -2.2561413130937,53.3900737871968 -2.25613307133155,53.3894526938201 -2.25606866634995,53.3890142266239 -2.2560531130745,53.3886789922276 -2.25616735862766,53.3886697607043 -2.25624404084114,53.3886606098913 -2.25632801885301,53.3886280793649 -2.25642688616895,53.3885774551105 -2.25649575498723,53.3885269852639 -2.2565567267924,53.3884217183478 -2.25914457585769,53.388700162602 -2.26266081731194,53.389068165925 -2.2630142507337,53.389086256683 -2.26565326976419,53.3891307222412 -2.26597503998644,53.3891210183412 -2.26615255489212,53.3891385936325 -2.26838505625079,53.3893169901958 -2.27016622795912,53.3894648300307 -2.27119524096977,53.3895497476558 -2.27157126205531,53.3895713568557 -2.27176375707754,53.3895852963472 -2.27192469932531,53.3895894218495 -2.27207063303061,53.3896115540799 -2.27222416309634,53.3896390601446 -2.27263066493932,53.3897154115447 -2.2736364251534,53.3899216723001 -2.27377473698786,53.389685831121 -2.27391868364958,53.3894014527899 -2.27406837616265,53.3890667384043 -2.27428568651668,53.3884927509129 -2.27442504662396,53.38819040974 -2.27489301791527,53.3870846795612 -2.27521039610526,53.3864232941544 -2.27536948083033,53.3861442702523 -2.27539034372627,53.3861118720801</coordinates></LinearRing></outerBoundaryIs></Polygon>
  </Placemark>
