  <Placemark>
	<Style><LineStyle><color>ff0000ff</color></LineStyle><PolyStyle><fill>0</fill></PolyStyle></Style>
	<ExtendedData><SchemaData schemaUrl="#Wards__December_2019__Boundaries_EW_BFE">
		<SimpleData name="objectid">1229</SimpleData>
		<SimpleData name="wd19cd">E05001780</SimpleData>
		<SimpleData name="wd19nm">Normanton</SimpleData>
		<SimpleData name="wd19nmw"></SimpleData>
		<SimpleData name="bng_e">434915</SimpleData>
		<SimpleData name="bng_n">333757</SimpleData>
		<SimpleData name="long">-1.48238</SimpleData>
		<SimpleData name="lat">52.900139</SimpleData>
		<SimpleData name="st_areashape">2267375.59091558</SimpleData>
		<SimpleData name="st_lengthshape">7838.75169343735</SimpleData>
	</SchemaData></ExtendedData>
      <Polygon><outerBoundaryIs><LinearRing><coordinates>-1.48895949976969,52.8884162671002 -1.48849589773051,52.8886579084022 -1.48672952862121,52.8895950906273 -1.48558707388094,52.8901825717248 -1.48121721904311,52.8924298196396 -1.4812157490924,52.8924298132295 -1.47978285440039,52.8931787255351 -1.47855183537782,52.8938295593506 -1.4779324189348,52.8941576498104 -1.4761250059896,52.8951394314915 -1.47448265808577,52.8961066372652 -1.47437022215502,52.8961915162049 -1.47411979189164,52.8963666425644 -1.47321957198187,52.8969326081637 -1.47274009695452,52.8972460143445 -1.47195139116879,52.8978006918615 -1.47133932040418,52.8982618766555 -1.47065614874137,52.8988135103445 -1.47032718149891,52.8990943242924 -1.47000711624647,52.8993786819705 -1.46938757204921,52.8999566530871 -1.4696407009172,52.900045943252 -1.47013920244729,52.8995132645616 -1.47019547087024,52.8994119629973 -1.47041190387844,52.8992232139281 -1.47052784866616,52.8994655672201 -1.47064965822138,52.8997196291877 -1.47074091521241,52.8999159497331 -1.47083688068533,52.9000881157855 -1.47096473227578,52.9003395083344 -1.47107056119575,52.9005574618669 -1.47116200640206,52.9007385943452 -1.47120257633155,52.9008295421782 -1.47122567841802,52.9008853642441 -1.47127369999632,52.9009683463456 -1.47130593423448,52.9010089313878 -1.47134858806467,52.9010495618222 -1.47130019863195,52.9011077612142 -1.47128016820743,52.9011723774457 -1.47152564646002,52.9016400679085 -1.47188708845807,52.9021180675355 -1.47204341723825,52.9023471179106 -1.47267423945687,52.9021835683205 -1.47371237782539,52.9019094820062 -1.47475643882836,52.9016310088631 -1.47516226974778,52.9015113873101 -1.47521789341623,52.9015745409052 -1.47560336496661,52.9024113917272 -1.47586407754547,52.9029824882657 -1.47635422203217,52.9041281375059 -1.476877406379,52.9052603601071 -1.47688622466303,52.9053934940002 -1.47684379014972,52.9054562156071 -1.47684359557323,52.9054723912693 -1.47683100194549,52.9055307502488 -1.47700548936004,52.9056088050511 -1.47710153392722,52.9056550598966 -1.47717832080182,52.9057022188845 -1.47733266711254,52.9058547755602 -1.47752430738751,52.90610733982 -1.47763245700362,52.9062686799747 -1.47775638010025,52.9064742139687 -1.47790616628312,52.9067517571221 -1.47807755347254,52.9070887080975 -1.47826843059889,52.9074158585627 -1.47832382320649,52.9075095647173 -1.47836037395442,52.9075591534363 -1.47852199902701,52.907719019147 -1.47852088910842,52.9078115795142 -1.4785319402415,52.907881724954 -1.47860926721795,52.9080070710568 -1.47870236025942,52.9081773309286 -1.47870393259884,52.9081791357063 -1.47876208538641,52.9082882211879 -1.47880251321837,52.9083827604879 -1.47883686242616,52.9084934496554 -1.47886188791609,52.9086455267327 -1.47889559258178,52.9088101341322 -1.47891854453845,52.9088795233245 -1.47895504316781,52.9089336044105 -1.47900182334326,52.9089994131554 -1.47937032790916,52.9088994743378 -1.4795328477409,52.9088624405183 -1.47974599380953,52.9088156522762 -1.47993215705885,52.9087904048395 -1.48014812930719,52.908763489463 -1.48040267648792,52.9087403361177 -1.48061541202772,52.9087277852399 -1.48063184956195,52.9087269580449 -1.48095464115547,52.9087175819057 -1.48102294650163,52.9087160828517 -1.48110929548911,52.9087128645597 -1.48127731068341,52.9087082052578 -1.48137989870657,52.9087104494125 -1.4815541472803,52.908686944504 -1.48177629209776,52.908635788722 -1.48237428194094,52.9084954099684 -1.48338800665505,52.9082715492587 -1.48352666244995,52.9082406971079 -1.48371463853719,52.9081964883377 -1.48393356462837,52.9081578961668 -1.48467106972131,52.9080370732157 -1.48483643755493,52.9080072341638 -1.48524622707601,52.9079389078867 -1.4855221734064,52.9087383134605 -1.48597464146601,52.9099655313 -1.48602603752582,52.91001518035 -1.48704285274563,52.9097903084375 -1.48781349374026,52.9096264687578 -1.48851420396264,52.9094766135514 -1.48896574442836,52.9093823926471 -1.48927422250245,52.9093288954617 -1.48961378368694,52.9092800244511 -1.49049241362913,52.909168664562 -1.49065468251205,52.9091522830964 -1.49054001249048,52.9087895351773 -1.49049113032679,52.9086401444967 -1.49025310883794,52.9078920496001 -1.49003485084835,52.9072366925934 -1.48997488130769,52.9070189546884 -1.48893176759722,52.9070890741519 -1.48892930046475,52.9070486228263 -1.48887751785594,52.9057593254704 -1.48881133127488,52.9045589361337 -1.48933026789372,52.9045566697934 -1.48934574444258,52.9050133578492 -1.48943195136594,52.9050110315562 -1.48989862213602,52.9050337017443 -1.49002492028635,52.9050414315182 -1.4900589765475,52.9050433752418 -1.49006204069845,52.9050433883629 -1.49057909450771,52.9050662707007 -1.49057922081932,52.9050554875269 -1.49057419952177,52.9049817734382 -1.49057065008817,52.9049080665434 -1.49056804912438,52.9048685127333 -1.49056360787171,52.9047452846708 -1.49056374472585,52.9047336017 -1.49056246384177,52.9047174197494 -1.49055861209572,52.9046589890856 -1.49055738384327,52.9046383144448 -1.49055398184727,52.9045520256759 -1.49055160809449,52.9045034861055 -1.49054792585811,52.9044305876829 -1.49054697131965,52.9043865479972 -1.49055887105384,52.9043856999645 -1.49069721600575,52.9043800009507 -1.49071806423007,52.9043791911749 -1.4907418456093,52.9043792928821 -1.49076709585606,52.9043794008661 -1.49096479656109,52.9043820440425 -1.49102571888312,52.9043823044563 -1.49108074779379,52.9043834376952 -1.49121460504666,52.9043840096991 -1.49130963151461,52.9043925043612 -1.49138385184803,52.9043982132535 -1.49144483454519,52.9044038655655 -1.49144777674205,52.9044038781308 -1.49146859343169,52.9044057649153 -1.49153239495107,52.9044114292198 -1.49159484804175,52.9044170877326 -1.49163784188811,52.9044199681118 -1.49171657726175,52.904427493055 -1.49178492380495,52.9044322785795 -1.49185031915801,52.9044379495139 -1.49190370042205,52.9044435691504 -1.49193640934706,52.904445506594 -1.49199579694238,52.904451151815 -1.49202849390146,52.9044539872251 -1.49206265220963,52.9044577278016 -1.49208642313791,52.9044587281362 -1.49216810986073,52.9044653673227 -1.49223057360767,52.9044701266018 -1.49229586665694,52.9044739998677 -1.49236130409012,52.9044760767281 -1.49241324657418,52.9044789940733 -1.49243555616912,52.9044790891668 -1.49245198135946,52.9044791591757 -1.49247576279916,52.9044792605349 -1.49249954275231,52.904479361883 -1.49254562181214,52.9044804571964 -1.49259464457417,52.9044815641361 -1.49260800565287,52.904481621067 -1.49264067121405,52.9044871529992 -1.49273413350546,52.9045037267282 -1.49280679896203,52.9045167077312 -1.49283652385595,52.9045222270836 -1.49288105926688,52.9045296055866 -1.49294332643181,52.9045406553435 -1.49297891333691,52.9045479966045 -1.49299677897239,52.9045507685966 -1.49300265143129,52.9045516916418 -1.49312734223278,52.9045710948337 -1.49326685265915,52.9045914598972 -1.49355929712471,52.9046376384653 -1.49357557954081,52.9046395046944 -1.49358443390301,52.9046476310239 -1.49360965441034,52.9046504341995 -1.49368685590862,52.9046633440495 -1.49371352736282,52.9046679503556 -1.49373873593884,52.9046716523941 -1.49395247800871,52.9047076097054 -1.49413488951006,52.9047389397323 -1.49419275664475,52.9047490711904 -1.49425097943083,52.9046019343717 -1.49429991098197,52.9044843251461 -1.4943336112698,52.9044008900975 -1.49436729201194,52.9043192528399 -1.49439794536685,52.9042447924515 -1.49443315994137,52.9041576799467 -1.49447419351978,52.9040760738799 -1.49452433353649,52.9039810259356 -1.49457147745841,52.9038904590623 -1.49463835631924,52.9037684320854 -1.49494818400141,52.9038479320186 -1.49502081877778,52.9038635175764 -1.4951391459624,52.9036600181524 -1.49523609342417,52.9035030695457 -1.49534730383772,52.9034055851369 -1.49475422052144,52.9031333741571 -1.49362295402289,52.9026134424189 -1.4919575245917,52.9018719420759 -1.49189686819044,52.9018492168411 -1.49177844512295,52.9018082697282 -1.49165686232186,52.9017753985851 -1.49155306155851,52.901752488034 -1.49145371102853,52.9017367861441 -1.49133189746215,52.9017236841211 -1.4911491352978,52.9017130174021 -1.4909128887424,52.9017057165679 -1.4909366494922,52.9011942864056 -1.49096287469198,52.9006082751497 -1.49102706688398,52.9000772469839 -1.4910763848536,52.8995498386815 -1.49107720502759,52.8994797443062 -1.49068686067206,52.8994231644246 -1.49071167056806,52.8993351991987 -1.49138652204442,52.898583008484 -1.49158586835106,52.8983168602372 -1.49166579374577,52.8982110668667 -1.49200727026203,52.8977388270471 -1.49204362554348,52.8976904527082 -1.49237128759705,52.897245922225 -1.49256803654215,52.8969492062175 -1.49287272439168,52.8964453531086 -1.49315691219384,52.8960384700714 -1.49363725332644,52.8953842029323 -1.49380308389434,52.8951836033855 -1.49397020632031,52.8949981958778 -1.49437549149898,52.8945361066316 -1.49500667366538,52.8938177700065 -1.49516968612075,52.8936054731069 -1.4953041807459,52.8934109386268 -1.49462602521901,52.8928039622178 -1.49399580790714,52.8922916385693 -1.493578738232,52.8919779292452 -1.49255440425887,52.8911114543458 -1.4924589535227,52.8910157860081 -1.49170966658009,52.8902637102131 -1.49098553604121,52.8895315991795 -1.49057569080324,52.8891181556791 -1.49045697780699,52.889104975677 -1.49029664196498,52.8890881122193 -1.49014230140843,52.8890721731872 -1.48998783760384,52.8890562334249 -1.48989822935807,52.8890899992151 -1.48982017249057,52.8890375400039 -1.48973956232736,52.8890668513396 -1.48951579845367,52.8888789636318 -1.48923619903297,52.8886458120426 -1.48895949976969,52.8884162671002</coordinates></LinearRing></outerBoundaryIs></Polygon>
  </Placemark>
