  <Placemark>
	<Style><LineStyle><color>ff0000ff</color></LineStyle><PolyStyle><fill>0</fill></PolyStyle></Style>
	<ExtendedData><SchemaData schemaUrl="#Wards__December_2019__Boundaries_EW_BFE">
		<SimpleData name="objectid">3057</SimpleData>
		<SimpleData name="wd19cd">E05008358</SimpleData>
		<SimpleData name="wd19nm">Devizes East</SimpleData>
		<SimpleData name="wd19nmw"></SimpleData>
		<SimpleData name="bng_e">401356</SimpleData>
		<SimpleData name="bng_n">160982</SimpleData>
		<SimpleData name="long">-1.9819</SimpleData>
		<SimpleData name="lat">51.347912</SimpleData>
		<SimpleData name="st_areashape">1183632.11102016</SimpleData>
		<SimpleData name="st_lengthshape">5657.96332600228</SimpleData>
	</SchemaData></ExtendedData>
      <Polygon><outerBoundaryIs><LinearRing><coordinates>-1.98942243204895,51.3515891384842 -1.98965514234775,51.351315795539 -1.98970976409243,51.351132329707 -1.98993538286824,51.3502404332394 -1.99009487393269,51.349615512616 -1.99024860216852,51.3493502518022 -1.99017391081868,51.3492818372161 -1.99017391233454,51.3492746455335 -1.9897174595192,51.3489941397618 -1.99024308747387,51.3485445418388 -1.98968761123908,51.3474520261568 -1.98875587157986,51.3466381388342 -1.98779680099339,51.3467891508976 -1.98599905107917,51.3470586246564 -1.98556273896328,51.3464957525099 -1.98532595663887,51.3461711192392 -1.98490966748199,51.3456081562666 -1.98454380481351,51.3450901453927 -1.98458831517186,51.3450901513032 -1.98435870260232,51.344608204531 -1.98424254112396,51.3443510053983 -1.98410189772468,51.3440380694165 -1.98407029117492,51.3440344692386 -1.98395414137362,51.3437565938826 -1.98393543656386,51.3437610863281 -1.98382635986284,51.3435677119426 -1.98348639259521,51.3428771059322 -1.98342761281192,51.3427305724007 -1.98285478015743,51.3424652146885 -1.9828303879771,51.3424840886058 -1.98269832400206,51.3423743097536 -1.98269405243476,51.3424022666303 -1.98176392567466,51.3419740544866 -1.9817883303164,51.3419237184618 -1.98183994126628,51.3419201307193 -1.98199501308561,51.3419075699254 -1.98093425106053,51.3414074178887 -1.98097018090274,51.3415414533046 -1.98114641009409,51.3421843943615 -1.97973940755341,51.3425114578706 -1.97757266683308,51.3430622833937 -1.97678146777996,51.3432571960962 -1.97667361838871,51.3435098641878 -1.9766203303294,51.3437814197901 -1.97591246239429,51.343959353278 -1.97503221355251,51.3441695175466 -1.97420368660635,51.344379776633 -1.97382459279408,51.3444605965165 -1.97368676745492,51.3445189955995 -1.97362934384213,51.344535163505 -1.97359488497463,51.3445540332512 -1.97357048522197,51.344577490227 -1.97355899058918,51.3445999601201 -1.97355897820836,51.3446215343287 -1.97357327914825,51.3446601918538 -1.97360627746008,51.3447123378305 -1.97368946092912,51.3447779784537 -1.97378121698328,51.3449632686516 -1.9738786773915,51.3453220537943 -1.97394027254348,51.3456745374022 -1.97402610454753,51.3460863565333 -1.97411353342567,51.3463956982278 -1.9742038064163,51.3467050395613 -1.97440450634784,51.3472751855394 -1.97458662608701,51.347841730292 -1.97467409665176,51.3480908429844 -1.97468550767602,51.348221190709 -1.97469943056248,51.3489548997084 -1.97461020020034,51.3493191265863 -1.97449514686965,51.3497057312147 -1.97490430403598,51.3497166072431 -1.9754155019752,51.3497544708366 -1.97593523329597,51.3497752538991 -1.97631142700447,51.3498867983373 -1.97627258862694,51.3501286923188 -1.97609580822375,51.3503921323701 -1.97578380830898,51.3511257753553 -1.97566581844973,51.351477322866 -1.9754675215908,51.3518864752932 -1.97537396354993,51.352152628995 -1.97540400881668,51.3524259103813 -1.97552718848498,51.3530086237202 -1.97569204995145,51.3535877487 -1.97582246456464,51.35416147383 -1.976064564649,51.3551371323984 -1.97627980422107,51.3556398578725 -1.97723541705877,51.3571857564938 -1.97779357990652,51.3582270933362 -1.97802891693223,51.3586218568657 -1.97858630996663,51.3583414026652 -1.97961203604284,51.3577697745393 -1.97974416159801,51.3578237330981 -1.97984608912961,51.3578839788806 -1.98006878626618,51.3576996464405 -1.98042791678098,51.3574587926681 -1.98066634324172,51.3573104192994 -1.98090336122645,51.3571296826217 -1.98124958278165,51.3568726443884 -1.98137750599034,51.3567763896004 -1.98148956182694,51.3566775245591 -1.98128853301199,51.3565992862347 -1.98127564439663,51.3565552366571 -1.98096112088362,51.3563303647055 -1.98077601337939,51.3561297829138 -1.98049312159842,51.3558806439113 -1.98038411397341,51.3557718548551 -1.98014725359071,51.3555992208925 -1.97998640142871,51.3554507811625 -1.97983855776501,51.3553464800041 -1.97942228383904,51.3549813526211 -1.97976841079391,51.3549210941412 -1.98021791469644,51.3548402669502 -1.98043615424762,51.3547962557877 -1.98048790594888,51.3547764876467 -1.98053812003309,51.3547522250941 -1.98058419789889,51.3547081851262 -1.98090453669248,51.3542981453458 -1.98116753146156,51.3539609998453 -1.98129535043662,51.3538082016337 -1.98134131359353,51.3537524755351 -1.98136004060865,51.353703936806 -1.98209811559141,51.3538245072545 -1.98220006368541,51.3538164327237 -1.98243129355247,51.3538452333098 -1.98282189995972,51.3538605725813 -1.98377109249889,51.3539892538563 -1.98453499286821,51.3541018122911 -1.98475340621328,51.353868928317 -1.98496447187202,51.3536486283971 -1.98436137980662,51.3534993276634 -1.98448352162774,51.3532951971403 -1.98460566262115,51.3530902572302 -1.98463161305047,51.3530254481989 -1.98465024750249,51.3528897122189 -1.98501647209421,51.3528529042163 -1.98545159542212,51.3528448688406 -1.98559377247202,51.3529132058654 -1.98566988921429,51.3529617569621 -1.98581198614956,51.352905141949 -1.98606195315413,51.3528296623045 -1.98674836702636,51.352660654715 -1.98835099805403,51.3522993683662 -1.98846881059029,51.3522742102036 -1.98843442165671,51.3520143268259 -1.98838410119315,51.3520224117397 -1.98836415036495,51.3517850031287 -1.98834546195226,51.3517130870656 -1.98835837816027,51.3516690408599 -1.98837128937689,51.3516447704436 -1.988421621876,51.351592638027 -1.98856372234272,51.3514964672249 -1.98921713604258,51.3515729385816 -1.98942243204895,51.3515891384842</coordinates></LinearRing></outerBoundaryIs></Polygon>
  </Placemark>
