  <Placemark>
	<Style><LineStyle><color>ff0000ff</color></LineStyle><PolyStyle><fill>0</fill></PolyStyle></Style>
	<ExtendedData><SchemaData schemaUrl="#Wards__December_2019__Boundaries_EW_BFE">
		<SimpleData name="objectid">855</SimpleData>
		<SimpleData name="wd19cd">E05001152</SimpleData>
		<SimpleData name="wd19nm">Whiteleas</SimpleData>
		<SimpleData name="wd19nmw"></SimpleData>
		<SimpleData name="bng_e">436809</SimpleData>
		<SimpleData name="bng_n">563431</SimpleData>
		<SimpleData name="long">-1.42664</SimpleData>
		<SimpleData name="lat">54.964161</SimpleData>
		<SimpleData name="st_areashape">1861354.99244828</SimpleData>
		<SimpleData name="st_lengthshape">6582.87036289094</SimpleData>
	</SchemaData></ExtendedData>
      <Polygon><outerBoundaryIs><LinearRing><coordinates>-1.43548224159331,54.9555175870099 -1.43540708890772,54.9555334092076 -1.43474395988568,54.9556121727248 -1.43367217585772,54.9556449226021 -1.43057143109025,54.9557229887615 -1.42948585257954,54.9557475523243 -1.42848772488295,54.9557698209556 -1.42742234400769,54.9557953596388 -1.42627103830916,54.9558331503905 -1.42628003982726,54.95585205889 -1.42512118088059,54.956202441602 -1.42445781598879,54.9563942565244 -1.42423209296083,54.9564588609615 -1.424240398653,54.9565262786464 -1.42426130018737,54.9567033597014 -1.42424462735131,54.9571041399743 -1.42417988952459,54.9573725403903 -1.42417116298732,54.9574425734365 -1.42416594931936,54.9574739922672 -1.42418712070201,54.9576322084861 -1.42418912963135,54.9584823595631 -1.42425373515314,54.9588717562359 -1.42386574623855,54.958919332255 -1.42320146636113,54.9589647908273 -1.42281084852782,54.9589800088707 -1.42238738578859,54.9589959694252 -1.42238878844281,54.9590058584776 -1.42244369583943,54.9594239582499 -1.42073149687791,54.9595713377847 -1.41921947310917,54.9597033873259 -1.4189310323287,54.959775678993 -1.41832898620181,54.9598347938164 -1.41775031061489,54.9598896237994 -1.41685886159583,54.9599806017344 -1.4158944226303,54.9600433732822 -1.41379731342102,54.960243641845 -1.41379563825871,54.9602526175841 -1.41358989470604,54.9615070403183 -1.41381772864773,54.9623798420748 -1.4137564354277,54.9626185197497 -1.4137690436189,54.9627165938811 -1.41421082139199,54.9626305818858 -1.414292019934,54.9626255802377 -1.41439361218817,54.9626260672814 -1.4145619135396,54.962643943749 -1.41468672010016,54.9626598143022 -1.41479269820896,54.9626774807933 -1.41489247446652,54.962687841143 -1.41500786931483,54.9626955811612 -1.41603002642343,54.9627507814699 -1.41717557839237,54.9628128506872 -1.41749543474428,54.9628314460498 -1.4176592962701,54.9628448047305 -1.4178276649563,54.9628581846695 -1.41799764298819,54.962876063482 -1.41817230646445,54.9628993553577 -1.41830786526535,54.9629197660421 -1.41846060227705,54.9629456500071 -1.41865531500205,54.9629807178158 -1.418873332146,54.9630249700811 -1.41909581931463,54.9630808330962 -1.41926848725528,54.9631265749569 -1.41944428517352,54.9631786210983 -1.41958732612188,54.9632251199747 -1.41971164508582,54.9632661394406 -1.41983589958386,54.9633116507965 -1.41996641066561,54.9633608753465 -1.42008122848329,54.9634090356571 -1.42019461557371,54.9634580885877 -1.42031408081361,54.9635143567866 -1.4204986221448,54.9636032765835 -1.42065218261804,54.9636795612202 -1.42079337161189,54.9637386281111 -1.42097051200942,54.9638050521074 -1.42113834481394,54.9638651428996 -1.42131564124885,54.9639207860531 -1.42146491709637,54.9639638092516 -1.4216066120857,54.9639968240181 -1.42180122937566,54.9640390725472 -1.42201145443046,54.964079599279 -1.42222964997458,54.9641120774164 -1.42243552248326,54.9641328170758 -1.42264936673301,54.9641455099408 -1.42280227768006,54.9641507256188 -1.42305373490559,54.9641537135022 -1.42329262467869,54.9641530468241 -1.42340202620445,54.9641481743752 -1.42353027798106,54.9641397973134 -1.42369764985283,54.9641244177529 -1.42422013573775,54.9640675938265 -1.424233105001,54.9641422208956 -1.42422968029248,54.964165563144 -1.4242246713126,54.9641826083059 -1.42421833728753,54.9641933594031 -1.42420562797751,54.9642085717995 -1.42419438772105,54.9642291811957 -1.42418630083738,54.9642453140713 -1.42418143429311,54.9642614621606 -1.42417800994897,54.964275820676 -1.42417776457717,54.9642929782062 -1.42417749478869,54.9643118430425 -1.42421300480609,54.9645662539643 -1.42424820450158,54.9648333306552 -1.42428491228453,54.9651031094619 -1.42432353882635,54.9653558284713 -1.42432769901734,54.9653890880132 -1.42433187204993,54.9654214498711 -1.42433318666561,54.9654466108859 -1.42433743678194,54.9654735821494 -1.42434012943001,54.9655014447006 -1.42433978263092,54.9655257001254 -1.42433940887668,54.9655518407752 -1.4243390749243,54.9655751976179 -1.42433575290746,54.9655913530063 -1.42432896796211,54.9656245608617 -1.42432397286279,54.9656496920805 -1.42432053523806,54.9656739320111 -1.42431872086853,54.965692789548 -1.42431989300477,54.9657188485318 -1.42432263703592,54.9657431176527 -1.42433685777108,54.9658384139662 -1.42435536562483,54.9659670602733 -1.42437986393929,54.9661091210342 -1.42441753652523,54.9663205095458 -1.42442052466898,54.9663277100966 -1.42450679407282,54.966409870427 -1.42448582608687,54.9666784790273 -1.42446501755548,54.966710722052 -1.42444419457031,54.9667438645468 -1.42443626260593,54.9667582008914 -1.42442965732513,54.9667788330979 -1.42442788020674,54.9667950847469 -1.42442607866566,54.9668130446001 -1.42442726374227,54.9668382049953 -1.42442857724659,54.9668543822674 -1.42444876177005,54.9669739628455 -1.42445763609143,54.96701083829 -1.42446786247894,54.967061196157 -1.42447646621586,54.9671080425565 -1.42448084466355,54.9671350144067 -1.42448355034178,54.9671619792602 -1.42448628171419,54.9671871469499 -1.42448737694531,54.967218595617 -1.42448682476105,54.9672572229522 -1.42448622119378,54.9672994446143 -1.42448379041806,54.9673614214948 -1.42447250889815,54.967718117592 -1.42446687419014,54.9678870770977 -1.42446643754973,54.9679176198898 -1.42446782936716,54.9679373911972 -1.42447359884563,54.9679661668905 -1.4244868153227,54.9680237252924 -1.42456541949143,54.9683179584908 -1.42457447396623,54.9683422573599 -1.42458954231337,54.9683783532184 -1.42460468743091,54.9684089704149 -1.4246442790542,54.9684864179448 -1.42470531216331,54.9685864263523 -1.42473583538792,54.968631489838 -1.42475869601147,54.9686720248641 -1.42478616680615,54.9687234524975 -1.42481488877108,54.9687864749088 -1.42485576766302,54.9688818958571 -1.42492357942934,54.9690485065641 -1.42495093646705,54.9691079297209 -1.42497670745106,54.9691610557979 -1.42500549417551,54.9692195861355 -1.42503291560436,54.9692745172582 -1.42504804727828,54.9693061219175 -1.42505711508965,54.9693295221517 -1.42506601633022,54.9693556175248 -1.4250749815208,54.9693862046093 -1.42508520924488,54.9694365623675 -1.42509536002112,54.9694923098137 -1.42510131111596,54.9695174926366 -1.42511343162633,54.9695436031746 -1.42513472133852,54.9695769433569 -1.4251453725105,54.9695976569138 -1.42518482391124,54.9696850757475 -1.42524064718892,54.969816502685 -1.42464055006651,54.9699458264322 -1.42465286143893,54.969958461886 -1.42472815406539,54.9700432650155 -1.42464578598033,54.9701291219492 -1.42452840021397,54.9702499397843 -1.4246703634512,54.9702658817379 -1.4248360272606,54.9703717742649 -1.42559790572427,54.9713881113775 -1.42605798836647,54.971983388897 -1.42630328734907,54.9723134410594 -1.42645121822517,54.9724534750027 -1.42715431892673,54.9729896074939 -1.4277229636734,54.9733265632733 -1.42859236764079,54.973709842666 -1.42916652375694,54.9739776413841 -1.42950154138212,54.9738148033778 -1.42969666708339,54.9737159051682 -1.42985237120869,54.9736447621104 -1.42999065112621,54.9735852162065 -1.43022478929945,54.9734964715558 -1.43060479234658,54.9733580068744 -1.43087484723741,54.973261342645 -1.43108354868478,54.9731949374918 -1.43131267510293,54.9731232362366 -1.43224447722949,54.9728471893723 -1.43314960988721,54.9725799964651 -1.43335356517663,54.9725207519842 -1.43345073481622,54.9724987434589 -1.43353212946882,54.9724810640622 -1.43367790334685,54.9724467036279 -1.43383177120576,54.9723953118974 -1.43399045336583,54.9723313641165 -1.4341300292486,54.9722888894083 -1.43424768589774,54.9722570929713 -1.43435425494665,54.9722351273275 -1.43447481322876,54.9722168200534 -1.43455307642416,54.9722019103638 -1.43465024466265,54.9721799009174 -1.43499196159682,54.9720969466852 -1.43520989972429,54.972041360733 -1.43546072785355,54.9719733497125 -1.43562545357166,54.9719282970255 -1.43605207750164,54.9718062096987 -1.43680334908432,54.9715868919776 -1.43722673631382,54.9714746669356 -1.43866627404751,54.97108144871 -1.43902220881483,54.9709842692674 -1.43918517975608,54.9709535773297 -1.43928986953602,54.9709459739109 -1.43946321919482,54.9709467726442 -1.43964594719156,54.9709494115907 -1.43963529398294,54.9708172111615 -1.43951108831583,54.9704320433283 -1.43948549605025,54.9703645476235 -1.43936292835691,54.9700746154452 -1.43934805770545,54.9700233391377 -1.43933635614156,54.9699665975581 -1.43932595882604,54.9699270214122 -1.43919385894003,54.9696559110462 -1.43917130877447,54.9695920220275 -1.43915360736773,54.9695128839591 -1.43913418891961,54.9694552980121 -1.43907637403102,54.9693435423927 -1.43897171073896,54.9691184658861 -1.4388229733586,54.9688032578387 -1.43873304850066,54.968648232053 -1.43859353031235,54.9684571326319 -1.43842433194117,54.968270297568 -1.4381273091719,54.967949912722 -1.43793490316944,54.9677467988448 -1.43769949161784,54.9674878774823 -1.4374344776148,54.9672278293802 -1.43790911528653,54.9671311112183 -1.43854776063043,54.967038832552 -1.4390520096824,54.9669423364391 -1.43910998153466,54.9669318236784 -1.43843909339847,54.9648582369023 -1.43724941363825,54.9611386638454 -1.43695581077735,54.9602467428243 -1.43672752772373,54.9594818840986 -1.43640482441627,54.9584353053185 -1.43623471921522,54.9578755462515 -1.43608588731246,54.9573509224074 -1.43593780948643,54.9568829895523 -1.43586637945948,54.9566328197126 -1.43557378129545,54.9557840213715 -1.43552127329921,54.9556355460049 -1.43548224159331,54.9555175870099</coordinates></LinearRing></outerBoundaryIs></Polygon>
  </Placemark>
