  <Placemark>
	<Style><LineStyle><color>ff0000ff</color></LineStyle><PolyStyle><fill>0</fill></PolyStyle></Style>
	<ExtendedData><SchemaData schemaUrl="#Wards__December_2019__Boundaries_EW_BFE">
		<SimpleData name="objectid">1453</SimpleData>
		<SimpleData name="wd19cd">E05002642</SimpleData>
		<SimpleData name="wd19nm">Gold Hill</SimpleData>
		<SimpleData name="wd19nmw"></SimpleData>
		<SimpleData name="bng_e">498007</SimpleData>
		<SimpleData name="bng_n">190166</SimpleData>
		<SimpleData name="long">-0.58628</SimpleData>
		<SimpleData name="lat">51.601822</SimpleData>
		<SimpleData name="st_areashape">4707619.89928825</SimpleData>
		<SimpleData name="st_lengthshape">11659.8594413282</SimpleData>
	</SchemaData></ExtendedData>
      <Polygon><outerBoundaryIs><LinearRing><coordinates>-0.612784167255248,51.6073250020971 -0.612759830229333,51.6071781884115 -0.612738191093078,51.607083454573 -0.612687867018018,51.6068868917319 -0.612590716357937,51.6065665322205 -0.612552382868878,51.6064023830129 -0.612505889889996,51.6062714875469 -0.612450908061899,51.6061808547294 -0.61233442652865,51.6061156535611 -0.611936254088234,51.6058196026943 -0.611541630682733,51.6055478634507 -0.610907271666769,51.6051339517877 -0.610819249744168,51.6050843684548 -0.610584602272284,51.6049665279248 -0.610276806794527,51.6047839074963 -0.610023412531329,51.604617302826 -0.609422711303264,51.6042872922743 -0.609431783718636,51.6042280700406 -0.609185485093655,51.6039697651202 -0.609014037458651,51.6038140163454 -0.608958924051214,51.6037747098564 -0.608800704968879,51.6037081115355 -0.608495043346487,51.6034095490158 -0.608368353652779,51.6032542397427 -0.608225369406941,51.6030205298551 -0.608113886790188,51.6027962723438 -0.608066114287394,51.6026571799257 -0.60805506656443,51.6025941234097 -0.60800842616263,51.6023246990913 -0.60798904907007,51.6020124483336 -0.60800765780237,51.6018283872962 -0.608011207419423,51.601712376751 -0.608037268831023,51.6015221105886 -0.608027154032707,51.601475246107 -0.607988463585626,51.6013740166305 -0.607883109157592,51.6011830926642 -0.607861921848292,51.6011207242831 -0.607980248573291,51.601027738673 -0.608012986050279,51.6009966648631 -0.608031369262494,51.6009600257275 -0.608052620868259,51.6008802727794 -0.608053830592048,51.6008407333855 -0.60804336125665,51.6008054607001 -0.607966870555532,51.6006634210112 -0.607858080702342,51.6005848231272 -0.607441746162647,51.6005034766725 -0.607655243880403,51.6000860255085 -0.607722755520663,51.5999106343581 -0.607772786569763,51.5996917972788 -0.607933389107043,51.5995398933065 -0.607958674469654,51.5995150228248 -0.608148761636888,51.5992943398612 -0.608171492748867,51.5992595506231 -0.60820519377013,51.5991969345664 -0.608225920569531,51.5991342546439 -0.608242327564946,51.5990688268352 -0.608270751322506,51.5988479359426 -0.608290727301604,51.5988059222732 -0.608446740828062,51.5985703624528 -0.608577814487007,51.5983444843569 -0.608652764929919,51.5982059470404 -0.608642813574783,51.5982004357619 -0.608519628262042,51.598168412473 -0.60836716895175,51.5981477280467 -0.606525423654727,51.5978947692559 -0.605752954096011,51.5978010997822 -0.604556107847219,51.5976565373093 -0.603011619880973,51.5973621091088 -0.602350764004028,51.5972085269022 -0.602053751120634,51.5971465606922 -0.601112299745843,51.596962662664 -0.600535479882429,51.5968910651412 -0.59983378289177,51.5967964022201 -0.599238173505744,51.5967281700865 -0.598746396541315,51.5966629724715 -0.598408015280329,51.5965878280691 -0.598230454374936,51.5965398620261 -0.59810029859326,51.5964987551828 -0.597763412247481,51.5963751735691 -0.597454203486066,51.596241943198 -0.597311965227572,51.5961719249516 -0.597052150959218,51.5960312834069 -0.596909182090029,51.5959386923945 -0.596561942842848,51.5956801427333 -0.596487620975061,51.5956081477074 -0.596376935854963,51.5954531060668 -0.596343361941972,51.5954185451325 -0.596212270476846,51.59531530755 -0.596192458143243,51.5953015872231 -0.596001601255211,51.595171655231 -0.595756361891533,51.5950257915689 -0.594899740849161,51.594618031801 -0.594377296003497,51.5943789528881 -0.594107082957218,51.5942479785871 -0.593329336340763,51.5938619174229 -0.592482777620517,51.593411200941 -0.592189881629105,51.5932673649539 -0.592030289410169,51.5931971319544 -0.591199225992381,51.5929003104668 -0.590396761728216,51.5926604596176 -0.590018263173122,51.592529164539 -0.589649910861734,51.5923970000748 -0.588714322784315,51.5920287876772 -0.588398918653682,51.5919090320943 -0.587751913784638,51.5916854146221 -0.587619317902941,51.5916316801834 -0.587506474447818,51.5915934660758 -0.587371892415535,51.5915576869909 -0.587242743322276,51.5915309624487 -0.587150774110664,51.5915181696457 -0.587041385343964,51.5915105605332 -0.586833492999577,51.5915089565678 -0.586409983009409,51.5915245341707 -0.585800747441868,51.5915720320647 -0.584209297065092,51.5914971105347 -0.583861681335014,51.591487521522 -0.583365709423568,51.5915138950126 -0.582836793973662,51.5915317792307 -0.582667567491922,51.5915423201542 -0.582485118685791,51.5915607912202 -0.582456213150817,51.5915640378774 -0.582211319909376,51.5915925417508 -0.581967658974354,51.5916273526547 -0.581824151960254,51.5916489901164 -0.581272455849516,51.5917484862088 -0.580532001535303,51.5918815627183 -0.580278567459528,51.5919090609958 -0.579382420791067,51.5918514676835 -0.578262285955705,51.5917551948337 -0.577918785862213,51.5917510315559 -0.577776284632506,51.5920145838363 -0.578233658660216,51.5929039729433 -0.577478203379384,51.5931924570773 -0.576022265544969,51.5937691805667 -0.576211951489615,51.5940295706339 -0.576014967911873,51.5941431444137 -0.575753182998378,51.5942506278239 -0.57545222459992,51.5944078863221 -0.575472218229371,51.5944612568343 -0.574748018179321,51.5947689821786 -0.574464318538443,51.5948841969816 -0.574052383071821,51.5950347104543 -0.574043505226126,51.5950444911451 -0.574027026079959,51.595061370418 -0.574007581135918,51.5950854954231 -0.573988048784815,51.5951086311352 -0.573935196160917,51.5951808038899 -0.57393368438537,51.5951834822382 -0.573927690701081,51.5951923987665 -0.573920123203096,51.5952021953744 -0.573914129513606,51.5952111119021 -0.573907989313528,51.5952209258557 -0.573894456277003,51.5952387401249 -0.573885488183861,51.5952476205023 -0.573858759976166,51.5952724662569 -0.573789245101027,51.5953255585021 -0.573777392741442,51.5953353030234 -0.573707904471744,51.5953875862636 -0.573638473733432,51.5954379827317 -0.573628133142758,51.5954450479952 -0.573557274914895,51.595495427069 -0.573507117448748,51.5955271798024 -0.573483639294046,51.5955394796907 -0.573516237671668,51.5956045999918 -0.572978439239235,51.5958130004438 -0.571948863584943,51.5955441841515 -0.571809037373591,51.5956756173799 -0.571676503336614,51.5957567080336 -0.57183786395889,51.5958153059086 -0.571606550924065,51.5958691244269 -0.571528402318315,51.5959203119389 -0.571420001795866,51.5959720303326 -0.57130391715038,51.5960372295315 -0.571157490158048,51.5961019692595 -0.570972034094865,51.5961662335449 -0.57096480845308,51.5961688422805 -0.570762876500677,51.5962535811221 -0.57032425031218,51.5963813732305 -0.570231317712127,51.596399118996 -0.570024913602878,51.5964442477438 -0.569817392383645,51.5964794748216 -0.569810586307608,51.5964650090207 -0.569717935776523,51.5964737684331 -0.569597981769048,51.5971655779714 -0.569333577170088,51.5973098729909 -0.567843637360848,51.5980856537025 -0.56730103185187,51.5983541987647 -0.567292868220835,51.5983828657098 -0.567245210981435,51.5983840812349 -0.565264127045332,51.5984804208337 -0.565264528485395,51.5986979717979 -0.565287594610198,51.5989707273064 -0.565279119864288,51.5992395002472 -0.565240860453078,51.5994485781231 -0.565189786821214,51.5996034728999 -0.565167829385871,51.5997938720845 -0.565125896321436,51.6000703268957 -0.565122219598671,51.6000963518417 -0.565145402662778,51.600138885676 -0.56511253081116,51.6003129709629 -0.565067932206503,51.60044367248 -0.564962835323451,51.6006618198161 -0.564845161538111,51.6009616167594 -0.564632081715036,51.6013986840922 -0.564524702455159,51.6016437716222 -0.564390056093488,51.6018398921292 -0.564208685068856,51.6020490151493 -0.563739752451052,51.6026781105694 -0.563683102675716,51.6027340507548 -0.563593199172434,51.602700588875 -0.563563254978475,51.602691232994 -0.563487497229925,51.6026660334164 -0.563287376476496,51.6026015563574 -0.563255090526698,51.6026173422105 -0.563259289433555,51.6026200903315 -0.563053606555803,51.6027317382068 -0.563034524260512,51.602744089778 -0.562996236452093,51.6027651954898 -0.562704948991938,51.6024811565753 -0.562491884804217,51.6024119345021 -0.562367976038917,51.6023582779452 -0.562304019368321,51.6023251320033 -0.56195532394557,51.6021212034871 -0.561948177303339,51.6021175199844 -0.562098259948703,51.602028565714 -0.561990080912277,51.6020272400008 -0.561596260421389,51.6017858997431 -0.561441545151583,51.6018820783431 -0.561276131531726,51.6020454562252 -0.56119668188904,51.6021370740361 -0.560963407738222,51.602345556201 -0.560722005983281,51.6024910110285 -0.5605738672883,51.6026087540068 -0.560478040667526,51.6026723032565 -0.560292493512415,51.6027869793124 -0.560205746100989,51.6028344585619 -0.560112058488355,51.6028755590558 -0.559832755981891,51.6029845007363 -0.559608432088289,51.6030942056812 -0.559502685331215,51.6031513389126 -0.559396707541115,51.6032120660454 -0.558672558271016,51.6036455465031 -0.55893665047811,51.6039230584847 -0.558998067813047,51.6039912342235 -0.559106125829791,51.6041355833295 -0.559175426423411,51.6044098044482 -0.559222324959918,51.604477801774 -0.559423872523661,51.6047266780769 -0.559479194188151,51.6047129734396 -0.559616349913472,51.6046679116734 -0.560031275117363,51.6045138000698 -0.560136403355755,51.6044800308281 -0.560356515741369,51.6044584598454 -0.560445814378061,51.6044658478873 -0.56053494389978,51.6044786272159 -0.560948793675843,51.6045879806494 -0.561338444602535,51.6047321839947 -0.561509287142086,51.6048115881133 -0.561642264778218,51.6048986171378 -0.561982951068251,51.6050853681263 -0.561884039722413,51.6051974234366 -0.561867642260599,51.6052152020862 -0.561883244331495,51.6052225841985 -0.56190599350381,51.6052336506988 -0.561910977472773,51.605305717296 -0.561913244899739,51.6053695705505 -0.561923768493748,51.6055413979227 -0.561908101585469,51.6056716426274 -0.561909055020445,51.6057318838625 -0.56190786193156,51.6057696250021 -0.561907066537518,51.6057947857617 -0.561905646180005,51.6058397159462 -0.561917425913331,51.6058776160373 -0.561928175725743,51.605902918255 -0.561989663008959,51.606014332086 -0.562163212511724,51.6060497189014 -0.562694890362507,51.6060894915757 -0.563550940692969,51.606143121509 -0.564025032902879,51.6061740931753 -0.564032424831632,51.6061247409957 -0.564054029544759,51.6061268037178 -0.564211004531122,51.6061404101017 -0.564226805806983,51.606141502597 -0.56424561054844,51.6061417326285 -0.564280273304575,51.6061412574356 -0.564297678772504,51.6061405711408 -0.564387316774958,51.6061335774514 -0.564482906384686,51.606126656486 -0.564529227827546,51.6061227279048 -0.56454808926124,51.6061211610776 -0.564572692536681,51.6061187643684 -0.564590006513986,51.6061171786095 -0.564592981608583,51.6061172149938 -0.564604583576388,51.6061155593771 -0.564616185571742,51.6061139028603 -0.564629215179002,51.6061122647004 -0.564640873866469,51.6061088113709 -0.564651075106904,51.6061062394185 -0.564661304706863,51.6061027686107 -0.564686191455144,51.6060913869278 -0.564714019993548,51.60607734361 -0.564730251496506,51.6060685527815 -0.564734620908553,51.6060659095078 -0.564741995213904,51.6060624037777 -0.564749249706096,51.606058896582 -0.56477702645191,51.6060502469261 -0.564792997831223,51.6060459471171 -0.564810516630126,51.6060416671269 -0.564843948666675,51.6060348841111 -0.564864295849222,51.6060315369994 -0.564884523188521,51.6060281893181 -0.564900557678676,51.6060256877702 -0.564916442527761,51.6060240844909 -0.564932391949122,51.6060242795022 -0.564938132301769,51.6060234504869 -0.564945421519745,51.6060226413081 -0.564961222802589,51.6060237328062 -0.564977114071981,51.6060257255029 -0.564990001927843,51.6060285797786 -0.565002862875046,51.6060323329251 -0.565005689827238,51.6060332657899 -0.5650200117524,51.6060397335007 -0.565035586246074,51.6060480149257 -0.565042733757853,51.6060516982155 -0.565058279935434,51.6060608775928 -0.565085143177587,51.6060773871349 -0.56511352701248,51.6060948135615 -0.565147537825297,51.6061150063727 -0.565164574826848,51.6061260014622 -0.565162460499453,51.6061439551396 -0.565181066853561,51.6061504752044 -0.565212561120686,51.606159849516 -0.565223993037338,51.6061635851672 -0.565236852599096,51.6061673382688 -0.565244056844525,51.6061692238365 -0.565246913574578,51.6061692587571 -0.565259829837633,51.6061712141473 -0.565274265180636,51.606174088205 -0.565281377964835,51.6061750734514 -0.565290038176859,51.6061760785117 -0.565304410407017,51.6061771533923 -0.565323186852937,51.6061782812061 -0.565327471227294,51.6061783335753 -0.565356365294568,51.6061795859532 -0.565383740253912,51.6061799205553 -0.565401087587605,51.6061810317879 -0.565416888909557,51.6061821241219 -0.565420199058255,51.6061677809638 -0.565434747792311,51.6061670595841 -0.565447777387075,51.6061654213337 -0.565453519192257,51.6061645923107 -0.565459379337692,51.6061637656329 -0.565463663710918,51.6061638179972 -0.565472352269745,51.6061639241897 -0.56550130302068,51.6061633788233 -0.565518588669885,51.6061626908833 -0.565534565044195,51.6061619869395 -0.565547594634114,51.6061603486781 -0.565557740622236,51.6061595734754 -0.565593916027439,51.6061564196782 -0.565598228714008,51.6061555740821 -0.565648954283178,51.6061516988842 -0.565660527910758,51.6061509411192 -0.5656721000661,51.6061501842344 -0.565687958065255,51.6061494788234 -0.565692362249855,51.6061495326435 -0.56572842575219,51.6061499733411 -0.565778918166959,51.6061496911416 -0.565805010705234,51.6061491116741 -0.565809295077723,51.6061491640258 -0.565865592426404,51.6061498519209 -0.565879992999844,51.6061500278766 -0.565942177406745,51.6061489892656 -0.565962439587002,51.6061483376281 -0.565969552354631,51.6061493237314 -0.565976755156769,51.6061512101346 -0.565985387074604,51.6061531130987 -0.565990987225613,51.6061567774219 -0.565998078193286,51.6061622574605 -0.565999420862658,51.6061649705666 -0.56600222092518,51.6061668031773 -0.566006538694803,51.6061695526317 -0.566019173183119,51.6061804938006 -0.566021915164722,51.6061841232026 -0.566027605357776,51.6061886878242 -0.566054555447542,51.6062025014869 -0.566068730904818,51.6062098655736 -0.5660844806852,51.6062163505904 -0.566105858971173,51.606225601068 -0.566118387371404,51.6062851741758 -0.566140854895074,51.6063052256576 -0.566153374684799,51.6063197622089 -0.566164495192844,51.6063333815654 -0.566177014997827,51.6063479181137 -0.566181220944137,51.6063542620962 -0.566185307078743,51.6063606046149 -0.566186734728638,51.6063606220548 -0.566188107189165,51.6063624363217 -0.566209174017772,51.6063815714767 -0.566217662923988,51.6063879677764 -0.566242873998577,51.6064116486499 -0.566251336057613,51.6064189429197 -0.566259824976771,51.606425339216 -0.566262596736662,51.6064280706737 -0.56627397217972,51.6064336030278 -0.566285375954348,51.6064382365266 -0.566292578815809,51.6064401229088 -0.566298235684085,51.6064419895074 -0.566312671209968,51.6064448625345 -0.566316927283279,51.606445813721 -0.566325587571529,51.6064468187029 -0.566328415992544,51.6064477524509 -0.566331272741555,51.6064477873446 -0.56635430540302,51.6064498661757 -0.566390345919631,51.6064548014808 -0.566397288842425,51.6064611788833 -0.566403007462787,51.6064648437317 -0.566421042656535,51.6064857402151 -0.566423961153956,51.6064875733616 -0.56643499680663,51.6065038892511 -0.566457151640063,51.6065338253453 -0.566457123342935,51.6065347233005 -0.566474988694997,51.6065610111005 -0.56649028560026,51.6065818732278 -0.56650540466789,51.6066046215006 -0.566526160261614,51.606633641289 -0.566553950348096,51.6066699387817 -0.566583104972191,51.6067044545301 -0.566623585112393,51.6067498962748 -0.566639080346606,51.6067644681987 -0.566593932697028,51.6067765020659 -0.566556532730628,51.6068147001366 -0.56660654965147,51.6068332895472 -0.566779284993493,51.6068947289283 -0.566950045316888,51.6069319626495 -0.567177848951428,51.6069877811158 -0.567430177047036,51.6070474943297 -0.567686761983045,51.6071081581176 -0.568353031109021,51.607271892276 -0.568847521138129,51.607392985404 -0.569568388840159,51.6075662772343 -0.569667301769442,51.6075900459291 -0.569766500154339,51.6076047388133 -0.569774949788377,51.6076578791497 -0.569599551394239,51.607680912627 -0.569424062722088,51.6077030455462 -0.569299412496483,51.6077177076613 -0.568988646279183,51.6077705534722 -0.568757839598044,51.6078099896959 -0.568551862706419,51.6078398406279 -0.56831805180616,51.6078801385652 -0.568044949516103,51.6079317333408 -0.567808054426041,51.6079791840506 -0.5676672047608,51.6080053325868 -0.567592991048473,51.6080215064078 -0.567144241195899,51.6081454775449 -0.566962523411723,51.6081838015353 -0.566831041070731,51.6081884889694 -0.567095600285158,51.6086349869665 -0.567679857104791,51.6097589597143 -0.568108644593856,51.6105419517878 -0.56802186200099,51.6105903346774 -0.567860486957224,51.6106252233375 -0.567558936167447,51.6107061344412 -0.567545877028665,51.6107086717895 -0.567748868181144,51.6110501381044 -0.568078676361713,51.6111269753823 -0.568695061956463,51.611227980605 -0.569271448661231,51.6113627444856 -0.569601482388667,51.6114287930882 -0.570337954568085,51.6115699070049 -0.570577846103057,51.6116132798907 -0.571315976695317,51.6117473059535 -0.571333921330018,51.6118167425464 -0.57149572680659,51.6117719666154 -0.571703374792655,51.6117349390007 -0.571783080178658,51.6117260201254 -0.571921636660964,51.611727705461 -0.5724275152016,51.6118102673257 -0.572668465726148,51.6118617397352 -0.573059770148693,51.6119563893916 -0.573213488255207,51.6119834277145 -0.57384063122341,51.6119281213573 -0.574383185455027,51.6118969548763 -0.575804688849788,51.6117928498791 -0.5758615757595,51.6118205076281 -0.577231029117695,51.6117660945384 -0.576834247173398,51.6104609736967 -0.576838819213542,51.6104061935519 -0.576981892068207,51.6103584863974 -0.577112491921744,51.6102908510335 -0.577239008937208,51.6101709381537 -0.577393407674669,51.6100847131922 -0.577619173214449,51.6100200278153 -0.577918427036044,51.6099661205747 -0.57870920507235,51.6098479573654 -0.579220737637939,51.6097453776042 -0.579476436704979,51.6096981311055 -0.580891670978362,51.6094679474121 -0.581632493298466,51.6093780168449 -0.582209032397859,51.6093211556502 -0.582607563193409,51.6092755371734 -0.583088290502127,51.6092822388966 -0.583230851450023,51.6092965443814 -0.584428105403221,51.6094351281703 -0.584971693239831,51.6095073036679 -0.585345523317172,51.6095630462244 -0.586035518529062,51.6096181005983 -0.586717755519427,51.6096469890484 -0.58665322828475,51.6092595802061 -0.586618727170927,51.6089750110116 -0.586595482220227,51.6088416893511 -0.586502787030987,51.6084296700177 -0.586461233626355,51.6081881643383 -0.586333462389676,51.6081156106799 -0.586266054815771,51.6079627886962 -0.586265922633542,51.6077793146879 -0.586247161012427,51.6076397533349 -0.586294306696465,51.6074253847767 -0.586432367752218,51.6073506377122 -0.586574443323436,51.6072885230239 -0.586630199403551,51.6072568320974 -0.586677476727599,51.6072259382964 -0.586734099519802,51.6071663917318 -0.587052782295847,51.6071377746037 -0.587255024987007,51.6071357127159 -0.587394239743175,51.6071158130477 -0.587514454163558,51.6070597268172 -0.587696243669908,51.6069225786413 -0.587841643595301,51.606799285287 -0.587870972169308,51.6067367123754 -0.587870407773186,51.6067088386703 -0.587847785625397,51.6066474385367 -0.58779562296501,51.6065596146284 -0.587890743000025,51.6064258281195 -0.587976649535687,51.6061247283283 -0.588030417949265,51.6058807742827 -0.588099325286327,51.6056631606767 -0.588136377069691,51.6054936171094 -0.589371923265624,51.6056505874059 -0.589487290977893,51.6056546698561 -0.589594114821534,51.6056577512836 -0.58977911435044,51.605650983804 -0.590545481927482,51.6055719986911 -0.591392342908164,51.6054581061901 -0.591591350922086,51.6054218385867 -0.591870794030826,51.6053487807199 -0.592416167138123,51.6052275795401 -0.592587735573421,51.6051891838617 -0.593287747380304,51.6050609334472 -0.593835683667908,51.6049451506609 -0.594262771380603,51.6048639656295 -0.595028955373226,51.6046977525111 -0.595963092993788,51.6045597019482 -0.596928390297856,51.6043994519055 -0.59718950974636,51.6045455926725 -0.597448742581885,51.6047104971632 -0.598032161773286,51.6051311547454 -0.598372995817369,51.6053644519264 -0.598511324737565,51.605469570342 -0.598892944990851,51.6057357137906 -0.599164967362026,51.6059071503684 -0.59936201382377,51.6060272608424 -0.59981882528346,51.6062916921382 -0.600478195884788,51.6066870835093 -0.600679724432526,51.6068010425099 -0.600755094904416,51.6068396958901 -0.601090547301909,51.6070126920486 -0.601965545782267,51.6075329888212 -0.602601953899671,51.607878653258 -0.603160690049883,51.6081676565484 -0.603472274291043,51.6083197770436 -0.603785842824386,51.6084538519274 -0.604407688359287,51.6086617964916 -0.604540328210405,51.6087164099091 -0.604880065866151,51.6088903456715 -0.60504621189759,51.608982302673 -0.605606456666038,51.6093162594286 -0.606245867814746,51.6090954312246 -0.606772963599985,51.608859782698 -0.607087128811186,51.6087376587775 -0.607879835180383,51.6085069532742 -0.608226937991328,51.60839780189 -0.608488788812691,51.6083351930599 -0.608758911682233,51.6082862558632 -0.608898176631097,51.6082645330584 -0.609233068476719,51.6082235537915 -0.609546902381746,51.6081625464766 -0.609833953657089,51.6081245939684 -0.610134784549224,51.6081110757647 -0.610728819827733,51.608045201498 -0.611146011963461,51.6079566475197 -0.611632418713942,51.6078239633765 -0.611967607698831,51.6077262560327 -0.612154724973264,51.6076502604123 -0.612487121710649,51.6074995714071 -0.612784167255248,51.6073250020971</coordinates></LinearRing></outerBoundaryIs></Polygon>
  </Placemark>
