  <Placemark>
	<Style><LineStyle><color>ff0000ff</color></LineStyle><PolyStyle><fill>0</fill></PolyStyle></Style>
	<ExtendedData><SchemaData schemaUrl="#Wards__December_2019__Boundaries_EW_BFE">
		<SimpleData name="objectid">2713</SimpleData>
		<SimpleData name="wd19cd">E05007302</SimpleData>
		<SimpleData name="wd19nm">Shalford</SimpleData>
		<SimpleData name="wd19nmw"></SimpleData>
		<SimpleData name="bng_e">498605</SimpleData>
		<SimpleData name="bng_n">147046</SimpleData>
		<SimpleData name="long">-0.58962</SimpleData>
		<SimpleData name="lat">51.2141</SimpleData>
		<SimpleData name="st_areashape">19861842.3358559</SimpleData>
		<SimpleData name="st_lengthshape">31104.9097717358</SimpleData>
	</SchemaData></ExtendedData>
      <Polygon><outerBoundaryIs><LinearRing><coordinates>-0.639356277223495,51.2369171010005 -0.639816310607104,51.2368613228341 -0.639756963279669,51.2366870398754 -0.64022483153712,51.2366097759038 -0.640580051362815,51.2365635638767 -0.640581469044256,51.2365635803609 -0.641474054236069,51.2364102512343 -0.642119186939386,51.2362972823346 -0.642598289120937,51.2362273316113 -0.642489188365947,51.2359895439522 -0.642294665253001,51.2357849243673 -0.642134736943848,51.2354764252955 -0.641996061924872,51.2351762632648 -0.641835158220341,51.234901014225 -0.64170086764233,51.2345964073863 -0.641594408676575,51.2342732460531 -0.641599107393953,51.2341618266668 -0.641628644875318,51.2338366493232 -0.641601765171966,51.233682610531 -0.641572069444518,51.2335239537651 -0.641360411600724,51.2326824707208 -0.64136227638719,51.2323785455767 -0.641398457080095,51.2321686034703 -0.641469575013078,51.2321397630705 -0.64155560901513,51.2315041015208 -0.641632113331671,51.2312882450892 -0.641704372091591,51.2293674127403 -0.641590245629584,51.2293049550693 -0.641827929425843,51.2290172550407 -0.641890121181281,51.2281681655824 -0.641912432459303,51.2277512054738 -0.641947969860874,51.2274665500452 -0.641858558859664,51.2271984223636 -0.641756891459741,51.2269535253201 -0.641658732800048,51.2267860722516 -0.641589965333726,51.2266871943805 -0.641577944109481,51.2264136728717 -0.64167071783991,51.2260379849263 -0.641678975478166,51.2259499810654 -0.641730672409978,51.2254092113865 -0.641808140602998,51.225063910469 -0.641879353700874,51.2244936998556 -0.642032716679795,51.2236637365454 -0.642199803353627,51.2233383552398 -0.642360021778722,51.2231018942129 -0.642532737844508,51.2229743555566 -0.642644938462365,51.222909133158 -0.642616869087667,51.2227433933494 -0.642696462040993,51.2224700355167 -0.642858953590234,51.2220114600107 -0.642949553629281,51.2217049666247 -0.642967472638696,51.2213886404645 -0.643512999778027,51.220559631278 -0.644364700762984,51.2191100023258 -0.64463329192549,51.2186437540018 -0.64516064279517,51.2177038602871 -0.645244817177064,51.2175672007033 -0.645472410141201,51.217278475911 -0.645589657296704,51.217040613157 -0.645597450276285,51.2170164309689 -0.645277895181816,51.2168302323785 -0.645069066387692,51.2166766913105 -0.645329796060648,51.2165259862478 -0.645467344846694,51.2164250050147 -0.645605603601455,51.216299850176 -0.645787277194803,51.2161112796767 -0.645925541812177,51.2159375777386 -0.646004799313546,51.2158234254905 -0.646289324990228,51.215299733283 -0.646530231092648,51.2149428367291 -0.646579452136174,51.2148786797493 -0.646748504069145,51.2146773757321 -0.647297681160911,51.2141135928227 -0.64786345584193,51.2135670805895 -0.648210740431412,51.2131484827687 -0.648398016729051,51.2129653667316 -0.648948378826063,51.2124565186011 -0.649037492391083,51.2123964169346 -0.649276603361407,51.2122489594381 -0.649467981802746,51.2121190193822 -0.649172633887343,51.2121308888305 -0.648512383634272,51.2120908918248 -0.647808812911009,51.2120629766654 -0.64708959480774,51.2119808457055 -0.64696446457702,51.2117069132202 -0.646834144766067,51.2113160514776 -0.646719545783589,51.210831876725 -0.646457473452265,51.2105383773831 -0.646551396375149,51.2099234762333 -0.646572770566205,51.2094398866155 -0.646652920192107,51.2088517959976 -0.647128318626996,51.2088015617803 -0.647298621505655,51.2078755007071 -0.64758518064058,51.2058609311851 -0.647141110796008,51.2058701754352 -0.646622918085606,51.2058713683886 -0.646808767130242,51.2056837428409 -0.647175745898832,51.205227614893 -0.647445093555228,51.2049735295831 -0.647594815951367,51.2047980696557 -0.647796182980681,51.2044227319691 -0.647906553978717,51.2042729774046 -0.647962110061517,51.2041854284892 -0.648006286349694,51.2040915448609 -0.648073582212363,51.2038972410146 -0.648093777748508,51.2036951101904 -0.648160208286024,51.2033811406797 -0.648317168549847,51.202812812018 -0.648052250991228,51.2028636880759 -0.647886063863358,51.2028680587259 -0.647712850365827,51.2028705493413 -0.647119105402553,51.2028573855659 -0.645883813938364,51.2028592632187 -0.645696932585141,51.2027402284038 -0.645017978308698,51.2024131266263 -0.644580001711453,51.2022641195997 -0.644359857271055,51.2022049298394 -0.644223290633436,51.2021772747312 -0.644032362040462,51.2021480904871 -0.64382111245467,51.2021276599915 -0.643382435467133,51.2020991951408 -0.643207875550605,51.2020953714185 -0.643043172077761,51.202101550043 -0.642847947564615,51.2021181623977 -0.642655356659377,51.2021455924407 -0.642391721475462,51.2022009659091 -0.642125925920881,51.2022374338745 -0.641857204543366,51.2022730588069 -0.641590562689109,51.2022861423475 -0.641589146058703,51.2022861258839 -0.640959095689681,51.2023399331368 -0.640295741232765,51.2024104308564 -0.64031640692122,51.2021453784362 -0.640295899627383,51.2018196142584 -0.640224998951855,51.2015058488762 -0.640132786947767,51.2012826347964 -0.63921107559008,51.2013780792131 -0.638545377692012,51.2014764085746 -0.637411089178516,51.2014002619131 -0.636369404187864,51.2012937198439 -0.635808558282055,51.2011863984102 -0.635409406593792,51.2010828504953 -0.635165205993926,51.2011114641998 -0.635332740170342,51.201304995775 -0.635509384277541,51.2014778670622 -0.635500955838864,51.2016154044282 -0.635144959727284,51.2017487939837 -0.634478709718005,51.2021087899835 -0.633818483594472,51.2022647804669 -0.633152469454056,51.2025204876126 -0.632800022257949,51.20238592047 -0.632133695169669,51.2023610429017 -0.630585179203541,51.2023509984418 -0.62976903837435,51.2023594127068 -0.629351360505103,51.2023473225493 -0.629222588601773,51.2023476097934 -0.629141277132761,51.2023394647101 -0.629072840156091,51.2023269743424 -0.628963804190803,51.2022906343068 -0.628859616890805,51.2022300784655 -0.628697378862177,51.2021014173109 -0.628604353455206,51.2025355282691 -0.628502642506934,51.2027771531931 -0.628420449826582,51.2027986635694 -0.628329137134939,51.2028371472245 -0.628261673883167,51.202891194422 -0.628218036303403,51.2029617023765 -0.628205337099234,51.2030038064303 -0.628201141406827,51.2030496954298 -0.628222830700217,51.2031380514608 -0.628250624300111,51.2033109844692 -0.628182960092566,51.2035664929984 -0.627021445323623,51.2036823983079 -0.626224321747792,51.203772818963 -0.625881506111351,51.2038425065959 -0.624880491362424,51.2031814791968 -0.623779730919393,51.202414984027 -0.623632263603012,51.2023178646178 -0.621848247882829,51.2027168501054 -0.621259375962478,51.2028807136479 -0.620631562376562,51.2031943364611 -0.618366215334994,51.20461001319 -0.618612164880875,51.2048080924051 -0.618722016824158,51.2049631188071 -0.618604001784629,51.2050336433943 -0.618206807419748,51.2052474939662 -0.61806800737424,51.2051487618301 -0.617751760337817,51.2053356093979 -0.617582143003136,51.2054541591461 -0.617452654065996,51.205525446463 -0.617677667910056,51.2057565416634 -0.617456867737573,51.2058618100869 -0.617278711148877,51.2059343191825 -0.617389933314733,51.2060435134329 -0.616994096258681,51.2064992961775 -0.616551653870867,51.2069778092467 -0.616495696062509,51.2070293781614 -0.616412331188035,51.2070895234354 -0.616284035796614,51.2071680147634 -0.616158975981631,51.2072330599797 -0.616016660227174,51.2072988899245 -0.615887674001829,51.2073531000365 -0.615666334302627,51.2074286912767 -0.614593317230253,51.207883544808 -0.614114278544194,51.2080541587251 -0.613682375287783,51.2077082294742 -0.613481107792418,51.2075907706612 -0.613352263252274,51.2074947580986 -0.611577731042286,51.2071877245342 -0.610122338290397,51.2068862579741 -0.609719236534169,51.2066279481688 -0.609432720325986,51.2064922993509 -0.608078101630501,51.2060283893693 -0.606259442369504,51.2053835396359 -0.605301117788178,51.2050250104662 -0.604549457698936,51.2047921016943 -0.604274659536153,51.2046953264101 -0.604005700799635,51.2045967318118 -0.6034702476264,51.2043610941766 -0.602612755662741,51.204361635743 -0.601273574872571,51.2044328279524 -0.600185962875312,51.2044710779666 -0.599513137970152,51.2043758336791 -0.596380538061569,51.2037313406382 -0.59439008561918,51.2032830603519 -0.593368908725016,51.2030666420651 -0.592866730053504,51.2029653176963 -0.592499804328719,51.2028835069165 -0.592008408166291,51.2025215124804 -0.591621138728607,51.2019845675189 -0.591561283186371,51.2017877785342 -0.591595872440832,51.2015939235724 -0.591564482542733,51.201450606854 -0.591511801594011,51.2013474893125 -0.591466469311727,51.2012821276382 -0.591412502265018,51.2012212464631 -0.591302329852467,51.2011264272471 -0.5910028610927,51.2009501303199 -0.590850724816698,51.2008691893503 -0.590634913066882,51.200763209732 -0.59011689214144,51.200478199659 -0.589271542774679,51.2002728523166 -0.588753693146376,51.2002144727951 -0.588708220858557,51.2002040359389 -0.588658602712145,51.2001863578293 -0.588595350951103,51.2001514342171 -0.588546309586961,51.2001148832966 -0.588522803010729,51.2000885290637 -0.588488005449722,51.2000107070004 -0.588467385507046,51.1999825899409 -0.588374219591786,51.1998915676466 -0.588314995461167,51.1998638845945 -0.588269322472445,51.1998561419876 -0.588203611225068,51.1998553500474 -0.588146083836421,51.1998609496456 -0.588072545103447,51.1998807406018 -0.587912845480861,51.1999084817959 -0.587745661318721,51.1998992750546 -0.587350328063023,51.199906194877 -0.587212485350128,51.1999216128205 -0.58714076473522,51.1999243439019 -0.587065108559598,51.1999207345293 -0.58698518950551,51.1999098814979 -0.586860301145115,51.1998760119122 -0.586567991362339,51.199697990561 -0.586269055229353,51.1995514440071 -0.585707611247649,51.1992829700488 -0.585397636629341,51.1991695502293 -0.585338351550918,51.199140066397 -0.585193787600283,51.1990474324411 -0.585002736579625,51.1988851042858 -0.584873649551033,51.1987072524813 -0.584867443726542,51.198674813533 -0.584865392339834,51.1985992734047 -0.584876012568831,51.1985337754041 -0.584895699088128,51.1984998516584 -0.584926552342445,51.1984750526039 -0.584959960391434,51.1984592741979 -0.585140318940847,51.1984119185976 -0.585340984809958,51.1983064629 -0.585513385156503,51.1981952718532 -0.585601351816465,51.198124324906 -0.585836850038187,51.1979141074181 -0.586036776724077,51.1978365111672 -0.586625627792103,51.1977680125901 -0.586880526436347,51.1977180475811 -0.587007552971603,51.1976818223092 -0.587135026462013,51.1976348140062 -0.587365793674661,51.1975288196524 -0.587731401358484,51.1974126732247 -0.588229216630524,51.1973764212581 -0.588348064763357,51.1973760560286 -0.588424081307473,51.1973715784313 -0.588500146713016,51.1973617067826 -0.58864569969264,51.1973292991008 -0.589009358437048,51.1971879534969 -0.588131150868742,51.1972142306262 -0.587832406519886,51.1972007402983 -0.58753514754105,51.1971387211774 -0.587331623525158,51.1970562570292 -0.587267151867022,51.1967758032011 -0.587396876938767,51.1967477006271 -0.587244095192557,51.1964994449354 -0.587082185980254,51.1962718452657 -0.587505724228319,51.1959936811529 -0.587741645367066,51.1958615873552 -0.588025213620104,51.1958578138596 -0.588118580471416,51.1958454542053 -0.588185007447319,51.1958264777196 -0.588244513955271,51.195798427097 -0.588295802290153,51.1957612876068 -0.588320844316733,51.1957373169029 -0.588366488333235,51.1956956140119 -0.58842731526549,51.1956243379422 -0.588718697110266,51.1955037879048 -0.58881159899016,51.19559930136 -0.588867240717305,51.1957016479591 -0.588958003828686,51.1958672571174 -0.589058152378411,51.1960114926064 -0.589089076420668,51.1961233404408 -0.589186511560703,51.1962135135767 -0.589207624246711,51.1962254554027 -0.589285427473513,51.1962551594369 -0.589377999060466,51.1962688602011 -0.589498425372511,51.1962631191551 -0.589553162565298,51.196252090761 -0.589605117011383,51.1962356360423 -0.589688037913294,51.1961943814989 -0.589778995105594,51.1961217598565 -0.590216449935361,51.1959012894004 -0.59062406240985,51.1957228002731 -0.591103643338497,51.1954866515008 -0.591656757205405,51.1951839611845 -0.592012948261796,51.195000263788 -0.592819184675349,51.1942824901154 -0.593098225250896,51.1940007726329 -0.593351657314973,51.1937151508743 -0.593471274221043,51.1935457788978 -0.593542014438687,51.1934314680334 -0.593671480476496,51.1931749223659 -0.593707815163104,51.1917446999131 -0.593696933552262,51.1912571310897 -0.59335814535914,51.1911029293392 -0.593201577410283,51.1911684741016 -0.592716556973032,51.1910233011134 -0.59262037870991,51.1909888826061 -0.59244223414159,51.1909183268119 -0.592315129765049,51.1908610611255 -0.59221516257585,51.1908077176588 -0.592062189517115,51.1907087864382 -0.591865180681758,51.1905525983754 -0.591458296635956,51.1905656847388 -0.591112223293485,51.1905579253924 -0.590905016947651,51.1904538445784 -0.590719958895612,51.1905172447375 -0.590430646609426,51.1904319532163 -0.590049771464989,51.1903428616012 -0.589945937565023,51.1903235415677 -0.589593714763398,51.1902815415201 -0.588448541063973,51.1901985192572 -0.588323293780542,51.1901772310039 -0.588002716266687,51.1900843648138 -0.587828001536559,51.1900409034621 -0.587675167088423,51.1899841304564 -0.586776125164075,51.1895272858628 -0.5864661315748,51.1896980418232 -0.586233412651657,51.1898651447435 -0.586593327374459,51.1901222002079 -0.586931215348443,51.190351120355 -0.58724431698827,51.1905958317536 -0.587257899768766,51.1906185608522 -0.587263527534693,51.1906698724053 -0.587242267738134,51.1907091718469 -0.587196983361373,51.190739191498 -0.587110236361324,51.1907669132509 -0.587072944590879,51.1907709587273 -0.586860221666925,51.1907549065172 -0.586554313239381,51.1906954763376 -0.586123598306965,51.1906003753968 -0.5856874459562,51.1904979257569 -0.585391098287406,51.1904538908707 -0.584913892836894,51.1904283465878 -0.584717496578891,51.1908153337675 -0.584575949575094,51.190810025807 -0.584180272763562,51.1907845620585 -0.583854869991719,51.1908031004236 -0.58373057016995,51.1907971017644 -0.583630845205747,51.1907824095168 -0.583549892355792,51.1907634498464 -0.583426751556988,51.1907197055812 -0.583307157143343,51.190652630371 -0.58321352510232,51.1905777777285 -0.583163755107368,51.1905231454653 -0.583095441048461,51.1904153362428 -0.582971472518514,51.190260104736 -0.582773856679353,51.1899825244609 -0.582726634452864,51.1898910627868 -0.582687332456901,51.1897260677215 -0.582372697839255,51.1897168630826 -0.582099229520713,51.1897234394044 -0.581767474894011,51.189760774125 -0.581710601184083,51.18974929638 -0.581692379724897,51.1897355910403 -0.581691066224577,51.1896861289076 -0.581707683554054,51.1896099150521 -0.581809038580015,51.1894330488327 -0.582006505781273,51.1891539619557 -0.582020549156401,51.1891154744093 -0.582028010902388,51.1890607256994 -0.582021166101758,51.1890031058421 -0.582005327799885,51.1889578732315 -0.581980774718466,51.1889198172893 -0.581909697894824,51.1888560253052 -0.581870431614473,51.18883217573 -0.581582141214101,51.188714507309 -0.581324295994336,51.1886736233956 -0.580898211713148,51.1886630635627 -0.579526618809731,51.188547441695 -0.579126429152378,51.188481451244 -0.578815051414087,51.1884165370852 -0.577630946490382,51.1881593287967 -0.577554413853421,51.1881350238729 -0.577486185422267,51.1881207090997 -0.577404909192885,51.1881125296561 -0.577337681886423,51.1881117124006 -0.577231300187452,51.1881257021562 -0.577176513278069,51.1881385205923 -0.57709690403849,51.1881681197049 -0.577011329902936,51.1882075345949 -0.576949905625586,51.1882481423619 -0.576646174095433,51.1885403134411 -0.576364957804725,51.1888444445755 -0.576240370366911,51.1890318104779 -0.576198564132259,51.1892282759467 -0.576200489160257,51.1893955157405 -0.576186499900485,51.1894780540104 -0.576127262461692,51.1897309451342 -0.576380763030387,51.18972144296 -0.57696675676987,51.1897465498167 -0.577294210508011,51.1897532279459 -0.5776218107694,51.1897590076692 -0.578168506337674,51.1897575601646 -0.578229927708176,51.1897592056397 -0.578283914245154,51.1897724476536 -0.578321964925819,51.1897935867728 -0.578352432984665,51.1898272199273 -0.578375458119227,51.1898688542768 -0.578384877806209,51.1899346863278 -0.578323646667741,51.1902028372186 -0.578255045056207,51.1905724861718 -0.578169405253384,51.1908439357304 -0.57783753800909,51.1914900680987 -0.577694648893842,51.19194601785 -0.577678444107887,51.1920546017937 -0.57764843539138,51.1921478239426 -0.577614533688083,51.192225625547 -0.577588990067299,51.1922657700729 -0.577552088977338,51.1923030796864 -0.577475834817862,51.1923614869212 -0.577455700022698,51.1924098786268 -0.577438379493308,51.1924627091073 -0.577503799278245,51.1926603852759 -0.57719187488763,51.1927043311057 -0.574751997454902,51.1928850135587 -0.574374531581264,51.1929649230952 -0.574385604343232,51.1934435088682 -0.574348454897671,51.1938557901019 -0.574414302852998,51.1955265835123 -0.574364040189148,51.1958092481382 -0.574345942009451,51.1960247886847 -0.574343639822931,51.1960993778437 -0.574375173018451,51.1963317957231 -0.574472577367988,51.1964219824703 -0.574902576231873,51.1967248775591 -0.574901800399744,51.1968418278707 -0.574740313296331,51.1971608970895 -0.574439923785036,51.1976176214606 -0.574106058474916,51.1980920067084 -0.573768634483239,51.1983145374262 -0.573571988323407,51.1984227204272 -0.572769443803257,51.1985963409547 -0.572448472920781,51.198698601733 -0.571220445216351,51.1992051422141 -0.570759928757667,51.19938121332 -0.570491467808433,51.1995443438139 -0.570374476079132,51.1996256251258 -0.570321253054475,51.1996789153418 -0.570280757007487,51.1997404533841 -0.570254250512664,51.1998075550757 -0.570239326155578,51.1999198388108 -0.570216380523551,51.1999672063903 -0.570178161735061,51.2000009021372 -0.570087943407385,51.200048347807 -0.570086500481665,51.2000492294603 -0.5698433437789,51.2001838992618 -0.569575927586964,51.2004044878897 -0.569501263889592,51.2004603037614 -0.568776622882151,51.2003767441362 -0.568402601531695,51.2003470015299 -0.567542895976118,51.2002348966207 -0.567109352117533,51.2001837390715 -0.566285165481934,51.2000378040646 -0.565840629205268,51.1999721242002 -0.565124477472065,51.2002160576914 -0.564245287279529,51.2005487876588 -0.564060954036713,51.2006319313167 -0.563737632134797,51.2008087525106 -0.563493926537443,51.2009603898472 -0.563129590414446,51.2012149191978 -0.563061662545406,51.2012815107572 -0.563023857198056,51.2013017232584 -0.562802040433031,51.2013907879248 -0.562548412943153,51.2015387056289 -0.562346527100891,51.2016774591888 -0.562101873995667,51.2015332206422 -0.561993454135785,51.2014788475897 -0.561889022672104,51.2014290179298 -0.561712187108428,51.2013621171448 -0.561682466421475,51.2012591760098 -0.561660725965917,51.201222049063 -0.561628902095949,51.2011865976081 -0.561593968186485,51.2011600969242 -0.561339324867365,51.2010185205287 -0.560915671762573,51.2007408243063 -0.560790081518842,51.200680844158 -0.560760311515897,51.2006741850295 -0.560691532575488,51.2006733391852 -0.560271842829537,51.2007760577745 -0.560190477894675,51.2008155118977 -0.560137059826483,51.2008292393037 -0.560092532749538,51.2008340852561 -0.560011209509072,51.2008267916526 -0.559968687401658,51.200812783123 -0.55990131607561,51.2007705997829 -0.559496575256056,51.2003447928037 -0.559290465881353,51.2002064145398 -0.559113121397976,51.2001107340175 -0.559072106070679,51.2000976428312 -0.559019360050564,51.2000898019158 -0.558964891947582,51.2000918281517 -0.558657851353321,51.2001132194095 -0.558527279574518,51.2001259950421 -0.558291341787784,51.2001644434813 -0.558188291583722,51.2001613754002 -0.558129996137771,51.2001498695299 -0.558029797267296,51.2001045833018 -0.557952877391607,51.2000469976401 -0.557824383215554,51.1998987854442 -0.557797287160937,51.1998481067509 -0.557759861837549,51.1998107853218 -0.557713712240391,51.1997769534443 -0.557623143665875,51.199740775552 -0.557550714105296,51.1997245997282 -0.557399836483229,51.1996507290556 -0.557223869657242,51.1996018111967 -0.557015296932216,51.1996369982319 -0.556887805395359,51.1996381230817 -0.556753739792596,51.1996229843361 -0.556672728260694,51.1996058028566 -0.556597575065597,51.1995824013761 -0.556567913821511,51.1995685500682 -0.556506328028954,51.1995264356713 -0.556461285717753,51.1995025053316 -0.556401766755827,51.1994810942123 -0.556329339474968,51.199464917653 -0.555880889767948,51.1994306160946 -0.555824012355364,51.1994191256609 -0.555765971416679,51.1993995300972 -0.555699740149333,51.1993663488512 -0.555632462151944,51.1993213768924 -0.55555854676358,51.1992584328673 -0.555183015991974,51.19950381261 -0.554931622903367,51.1997156632952 -0.554849982900456,51.1998090516869 -0.55473345207005,51.1999199891689 -0.554699128601864,51.1999646052849 -0.554656177791825,51.2000548760602 -0.554628978265529,51.2001471381013 -0.554600320489982,51.2001917351349 -0.554552859401541,51.2002450899358 -0.554480699072497,51.2003108148706 -0.554354812611018,51.2004000602084 -0.553439532928206,51.2008311550001 -0.553180185817946,51.2007011881785 -0.552848653418623,51.200456962433 -0.552495843717544,51.2008879015858 -0.552273585978222,51.2011296836676 -0.552038866027579,51.2014037659157 -0.551935327647523,51.2015554067073 -0.551861106958129,51.2016866433394 -0.551824705611163,51.2022527510908 -0.551825807788586,51.2024020003889 -0.551584885201777,51.2029637799735 -0.551471612596107,51.2034255490767 -0.551420670604877,51.2037702292694 -0.55135906130832,51.2037739620906 -0.550996409148561,51.2037425014329 -0.550816643182788,51.204179084249 -0.550707208516434,51.204608446168 -0.550682245598094,51.2047682511663 -0.550714265461786,51.2048423662744 -0.550741686079309,51.2050630539984 -0.550719174318441,51.2053703273681 -0.550648769313053,51.2055150958302 -0.550474659395735,51.2057260951982 -0.550275037740169,51.206065337022 -0.550294372489106,51.2061788521758 -0.550080715705628,51.2064612819869 -0.549921905304087,51.2067336033629 -0.549517095295799,51.2071791723422 -0.549223397965348,51.2074128708214 -0.549181927660545,51.2074591952046 -0.54914708900128,51.2075198965815 -0.549097326330443,51.2076460398495 -0.549019951318726,51.2079634212176 -0.548973192295603,51.2080878939557 -0.548862296195675,51.2082887971297 -0.548797739910343,51.2083860791181 -0.548693297747125,51.2085205341775 -0.548629389075716,51.2085934610864 -0.547990557621878,51.2092428912048 -0.547840186711269,51.2093813596515 -0.547599840180778,51.2096032176517 -0.547177228491213,51.2096114578974 -0.546875788402793,51.2096364840306 -0.546501543535111,51.2097469092132 -0.546423066715627,51.2097836928131 -0.54618642060748,51.2098427855966 -0.545947755784878,51.2099172248318 -0.545850810495943,51.2099519801175 -0.545756494942093,51.2099894657889 -0.545521805346867,51.2101249964291 -0.545457860195234,51.2101538693553 -0.545378222734733,51.2101825463316 -0.545268519843297,51.2102100411515 -0.544848540786631,51.2102731448063 -0.544489498983395,51.210309135723 -0.544409175033108,51.210310834637 -0.544360276346928,51.2103192164606 -0.544273325997744,51.210351397934 -0.544261597909887,51.2103602420057 -0.544109852174471,51.2106802891233 -0.544070437109967,51.2109307113391 -0.544074992216819,51.2111493159706 -0.544099865304349,51.2112215457217 -0.544104116740739,51.2112701453293 -0.544099891781414,51.2113105479388 -0.544081280192967,51.2113579639197 -0.544042211201476,51.2114177115403 -0.544014013752723,51.2114471174405 -0.543904281054911,51.2115203706894 -0.543895981827152,51.2116038746733 -0.543636089850723,51.2116734612321 -0.543203589991431,51.21181111112 -0.54285274610882,51.211949686949 -0.542637219984847,51.2120198236791 -0.542307938312143,51.2120661572876 -0.541371202964736,51.2121677641259 -0.541016703777637,51.2121939134027 -0.540519328152799,51.2122137840759 -0.540329299437435,51.2122464762451 -0.540151591085286,51.2122964033262 -0.539938466725645,51.2123351889655 -0.539139558358097,51.2124717612138 -0.538093403504408,51.2126358960473 -0.538055615413508,51.2126101619078 -0.537990176653014,51.212551808596 -0.537952126181468,51.2125306556103 -0.537898182022914,51.2125155980851 -0.537845459033765,51.2125104441415 -0.537051595508393,51.2125769423305 -0.536479220891779,51.2127020328628 -0.535775466576232,51.2129495408749 -0.535250022245206,51.2131281644402 -0.535054036130505,51.2131697638308 -0.53471646164133,51.2131160930982 -0.533931662532293,51.213119750172 -0.533659209696371,51.2131343169144 -0.533354509108691,51.2131718536575 -0.532904682127625,51.2133146430572 -0.532445111045568,51.2134482277123 -0.532397664872311,51.2134998660101 -0.532234667959718,51.2135805305883 -0.531841414792732,51.213837301193 -0.531567874538113,51.214064017155 -0.531553852907477,51.2141448421626 -0.531628929380464,51.2141709565191 -0.531798613359621,51.2141919646117 -0.5320953584771,51.2142712040595 -0.532369199216544,51.2144841981498 -0.532609529908841,51.2145816081167 -0.532751188008704,51.2146301327283 -0.532806491189237,51.2146470084153 -0.533492791250264,51.2147643912277 -0.53342217495006,51.2149173275145 -0.533422990799664,51.2149362170273 -0.533436699400483,51.2149543688272 -0.533456360205272,51.214967201385 -0.533490386393809,51.2149775170312 -0.53361292683917,51.2149961331936 -0.533724649639388,51.21499483604 -0.533793644307744,51.2149858111315 -0.533897493064911,51.2149610413252 -0.534647469648086,51.2148355809847 -0.535081015530733,51.2153436454128 -0.535146256214914,51.2154082918287 -0.535303990815275,51.2155344191842 -0.535542681323792,51.2156839434409 -0.535684256156748,51.2158692028022 -0.535782414059876,51.2159792104189 -0.536054848278353,51.2161481245783 -0.536332593352426,51.2162873475788 -0.536574927949211,51.2163667926531 -0.536804146503171,51.2164057069257 -0.537366402366735,51.2167391618971 -0.537720531296085,51.2169494583859 -0.537741611224584,51.2169623077608 -0.53827670756381,51.2165247869042 -0.538409636406424,51.2164392423689 -0.538573888079486,51.2163189371647 -0.538836664863388,51.2161145450492 -0.538961866160809,51.2160045406099 -0.53912964537199,51.2159032469961 -0.539470369787618,51.2157276062485 -0.540315406539004,51.2153101252363 -0.540539184468878,51.2153866329051 -0.540676803306074,51.2154288043049 -0.540731315044805,51.2154708373011 -0.540752587579638,51.2155224360825 -0.540779469927533,51.21562435932 -0.540793995607003,51.2157063501145 -0.540865425198877,51.2157584830739 -0.540951187505115,51.2158090877684 -0.541088775881369,51.2158485604345 -0.541214268311636,51.2158636083751 -0.541361952641925,51.2158600543498 -0.541483793425764,51.215856178241 -0.541578852192051,51.2158816351856 -0.541684169859174,51.2159485742976 -0.54178211800735,51.2160208162162 -0.541868084869498,51.2160650388402 -0.542026954315232,51.2161110683808 -0.542546777556507,51.2162452880025 -0.542749509755207,51.216308044673 -0.542873817759499,51.2163644313495 -0.542944536231311,51.2164354331777 -0.543041010931071,51.2165544937089 -0.543148627224588,51.2165935908652 -0.543290898890493,51.2166232298191 -0.543459521292669,51.2166334179557 -0.543581192454206,51.2166349312512 -0.54375094909855,51.2166091733476 -0.543899453933896,51.2165759586514 -0.543979103601533,51.216547282345 -0.544066831500524,51.2164908364797 -0.54411259709105,51.216447264275 -0.544170542957803,51.2163805597797 -0.544212170947376,51.2162884793453 -0.544279122786807,51.2162506541771 -0.544352597798132,51.2162380831157 -0.544430801307285,51.2162552365503 -0.544507220862146,51.216284056367 -0.544601465979677,51.216339167288 -0.544770992484547,51.2164554480437 -0.544848400381581,51.2164978542538 -0.54493479612808,51.2165285944534 -0.545029324928633,51.2165297689898 -0.545142465743586,51.2165284777973 -0.54521149047728,51.216518547784 -0.545304798410017,51.216464777339 -0.545450950913014,51.2163712989887 -0.545530684239209,51.216339924937 -0.545674174289368,51.2163309186516 -0.545768585341934,51.216332091145 -0.545902269727353,51.2163607218817 -0.546113995881012,51.2164154926316 -0.546424493829136,51.2164678938158 -0.546717902331629,51.2165156765843 -0.546868563565474,51.2165526065985 -0.546984652702789,51.2165927044839 -0.547048977542214,51.2166420491601 -0.547102902641528,51.2167029506503 -0.547226256732218,51.2169248266655 -0.547252560430595,51.2170456196191 -0.547313851378831,51.217187613172 -0.547389765467527,51.2172326055742 -0.547510846109855,51.2172529861875 -0.54769262247933,51.2172579374058 -0.547879607569324,51.2172737412055 -0.547969974606939,51.2172721648316 -0.548070508113725,51.2172626229979 -0.548161919009282,51.217269149952 -0.548291750921679,51.2172815476928 -0.548481012551598,51.2173225504739 -0.548549359676899,51.2173341849416 -0.548624216841711,51.2173189307173 -0.548921623549916,51.2172435057532 -0.549298479093153,51.2171420025074 -0.549490220205403,51.2171003265218 -0.549743369704146,51.2170657037342 -0.549842684468721,51.2170498530971 -0.549925563198914,51.2170535762341 -0.550020804580211,51.2170772306497 -0.550110290239916,51.2170999144662 -0.550328079596248,51.2170972169094 -0.550553942118691,51.2171081032285 -0.550960725096011,51.2171023497584 -0.551212772095407,51.217102770407 -0.551444017169234,51.2170813582524 -0.55186057982952,51.2170838099764 -0.552033826143592,51.2170859504849 -0.552172528162721,51.2170903608707 -0.552286376855413,51.2170665952686 -0.552409402936367,51.2170249632025 -0.552662937329725,51.21693280036 -0.553066636266393,51.216795653348 -0.55345271756309,51.2166781557308 -0.553695880813813,51.2166380051812 -0.553981354419722,51.2165776088219 -0.554129879256862,51.2165434819207 -0.554232249627411,51.2165204721765 -0.554484567492531,51.2164669477847 -0.555062464705292,51.2163464162874 -0.55543727183269,51.2162682399256 -0.555631837214841,51.2162265872377 -0.555766935547549,51.2162102716425 -0.555860379969179,51.2161970396241 -0.555960141021456,51.2161668040695 -0.556042200168269,51.2161552292291 -0.556279761222069,51.2161581560193 -0.556566904734487,51.2161347235693 -0.556695967046609,51.2161264240507 -0.55678704023119,51.216143727668 -0.556968168111009,51.2161693314242 -0.55725943183397,51.2161953924416 -0.557408050163367,51.2162035149029 -0.557519044866438,51.2162255576065 -0.557607791407807,51.2162266499062 -0.557699824830904,51.2162169951788 -0.557865374523475,51.2161857691921 -0.558005933710444,51.2161344582778 -0.558187745225799,51.2160890484417 -0.558264666659652,51.2160567324067 -0.558349317029626,51.2160037441225 -0.558566187751354,51.215799643643 -0.558641426266285,51.2157304473411 -0.558781966592014,51.2156305003406 -0.558878920002777,51.2155993286625 -0.558952187462592,51.2155894422447 -0.559033678684428,51.2155922419007 -0.559213137707635,51.2156259131512 -0.559331352810182,51.2156435484855 -0.559536104490181,51.2156460654286 -0.559607423601019,51.2156532349903 -0.559699576131063,51.2156813369901 -0.559882524448402,51.2157394125053 -0.560116285687829,51.2158186994398 -0.560430296027683,51.2158989716655 -0.560629253045602,51.2159472636184 -0.560767588399001,51.2159633469566 -0.560931965335886,51.2159734560721 -0.561059876631033,51.2160019960239 -0.561189952420045,51.2160558249621 -0.561347449157508,51.2161503539743 -0.561412068016441,51.2161907032911 -0.561477493719534,51.2162013954057 -0.561619088164205,51.2162076277711 -0.561806668238,51.2162081322666 -0.561914834001233,51.2162301359836 -0.562110340291062,51.2162945648743 -0.562308433276853,51.2163707126496 -0.562522747224318,51.2164795119119 -0.562729305768327,51.2166061061235 -0.562992009829256,51.2167685380506 -0.563337232822752,51.2169957193504 -0.563610856615662,51.2171753646838 -0.563769800409823,51.2172654130813 -0.563990233389871,51.2173599005348 -0.564315392506143,51.2174960346741 -0.564504936435344,51.2175702749165 -0.564752277611536,51.2176272422742 -0.565108251976101,51.2177368722697 -0.565316863710982,51.2177978595758 -0.565498086968769,51.2178207548561 -0.565665749771681,51.2178165138646 -0.565936694647403,51.2178054449849 -0.566041085275364,51.2178085206625 -0.566115938673957,51.2178426984495 -0.566298080741351,51.2180185205677 -0.566415000523712,51.2180819803265 -0.566446838468696,51.2181174302418 -0.566500540554859,51.2181864095799 -0.566583578731765,51.2182764248086 -0.566704354462951,51.218402050982 -0.566832793429834,51.21850520697 -0.566958602706675,51.2186056338338 -0.567075382639314,51.2186736755176 -0.567213666069459,51.2187373965116 -0.567358068927216,51.2187904030437 -0.567524647606534,51.2188212065915 -0.567632292594571,51.2188602794269 -0.567762024719497,51.2189256928359 -0.567899973736165,51.2190497299651 -0.567822356969249,51.2191045183379 -0.567970613805076,51.2192160056256 -0.568037641656399,51.2191790672065 -0.568191679438794,51.219290714753 -0.568385541534511,51.2194126475938 -0.568589994893373,51.2195167300482 -0.568739285810941,51.2195949670218 -0.568794021127754,51.219630784904 -0.568820972623646,51.2196868516189 -0.568852341321652,51.2197375777193 -0.568946260144025,51.2198043501224 -0.569039476862831,51.2198899925323 -0.569147337329655,51.2200136608672 -0.569278867465858,51.2202535867722 -0.569425040900279,51.2205277625731 -0.569480354917169,51.220636405885 -0.56949079669597,51.2207147447555 -0.569499103274605,51.2207705828508 -0.569494850069591,51.2208163796087 -0.569462327561973,51.2208942840221 -0.569436226840395,51.220997348416 -0.569365224032324,51.2210710971398 -0.569301378546426,51.2211881749515 -0.569272947169294,51.2212750290244 -0.569273858185496,51.2213370697366 -0.569301671341101,51.2214111262596 -0.569345990119854,51.2214593134751 -0.569427268266487,51.2215188289973 -0.569464916001044,51.2215498536762 -0.569480867288538,51.2215914017236 -0.569452572458992,51.2216243183763 -0.569428700794846,51.2216554914276 -0.569442090235555,51.2216844224451 -0.569490195240276,51.2217056867052 -0.569565857674861,51.2217102062016 -0.569684267127787,51.2217260345986 -0.569782082191548,51.2217586926428 -0.569875169351253,51.2218029794432 -0.570048234488272,51.2218573224751 -0.570231279221157,51.2219134937485 -0.570381610439143,51.2219584793351 -0.570696961163614,51.2219973858459 -0.570899567671997,51.2220205326282 -0.571004994555441,51.2220362013962 -0.571108427623544,51.2220743213741 -0.571399149328338,51.2221651563119 -0.571504249107948,51.2221952048926 -0.571905797827953,51.2222684206891 -0.572272751059186,51.2223493050648 -0.572677836332429,51.222449530418 -0.573077137188771,51.222549774776 -0.573449564942937,51.2226370150086 -0.573592458918151,51.2226935915961 -0.573650795447793,51.2228003813317 -0.57372763056401,51.2228625375392 -0.573836261818662,51.2229160000654 -0.573998889949388,51.2229836044696 -0.574071027887111,51.2230105528965 -0.574120109497758,51.223046210495 -0.574174161818598,51.2231044032576 -0.574191357999916,51.223147853323 -0.574208424524192,51.2231993032495 -0.574219939120947,51.2233846337836 -0.574241698796827,51.2234217565457 -0.57427243315642,51.2234473918711 -0.574318870271093,51.2234731282718 -0.574372810665742,51.2234890669739 -0.574436945089141,51.2234961399345 -0.574488581267157,51.2234949694867 -0.574546353914079,51.2234785919567 -0.574585901661605,51.223452103809 -0.574684075548912,51.2232401480679 -0.574821877518688,51.2229990090555 -0.574926046310862,51.2228222763941 -0.575040390242798,51.2225071348349 -0.57511361080338,51.2224072489077 -0.575141680209051,51.2223815193609 -0.575188807755944,51.22233894131 -0.575294513098936,51.2222997721152 -0.575411139189777,51.2222778166355 -0.575599216062114,51.2222630213763 -0.575754365045636,51.2222936743796 -0.575863524149524,51.2223300612697 -0.57600722605033,51.2224064226348 -0.576123782271212,51.2224824540521 -0.576196121963261,51.2225526445097 -0.57623630671596,51.2226394354797 -0.576271719126616,51.2227009960223 -0.576293954921574,51.2227686902843 -0.576297656699589,51.222836248437 -0.576285739544349,51.2228972349559 -0.57626281636497,51.2229437035281 -0.576225714960788,51.2229828077394 -0.576180308403692,51.223015519062 -0.576136825971047,51.223035667071 -0.576084802212487,51.2230494193113 -0.576012914392569,51.2230602324725 -0.575852175007854,51.2230690667705 -0.575669460909215,51.2230515639239 -0.575505612525375,51.2230693505707 -0.575466682254121,51.2230796647066 -0.57544183393429,51.2230928477073 -0.575415298877756,51.2231185959713 -0.575394009643418,51.2231579820256 -0.575387235507822,51.2231938594161 -0.575392068081643,51.223220887276 -0.57542584208537,51.2232896202769 -0.575500733962741,51.2233651467962 -0.575548399816162,51.2234007865931 -0.575614486407279,51.2234402453992 -0.575728673631635,51.2234974605851 -0.575884216754072,51.2235613802243 -0.57616259873058,51.2236393777554 -0.576435856792726,51.2236921408532 -0.576672582545785,51.2237732272832 -0.576723489152276,51.2237919157096 -0.576817258715519,51.22381822589 -0.576954236982009,51.2238792218658 -0.577021354850991,51.2239312781739 -0.577039034335613,51.2239629572419 -0.57704784780011,51.2240026200348 -0.577037988679095,51.2240888022485 -0.57702253935994,51.224126461916 -0.576909308902702,51.2243138736935 -0.576887234328811,51.2245204615412 -0.576892615941115,51.2247633424774 -0.576966984169891,51.2250475151438 -0.577337271256357,51.2251131407204 -0.577547597867813,51.2251660365993 -0.57772093682173,51.2252121903792 -0.577877988858533,51.225273428876 -0.578097236861352,51.2253165439721 -0.578425444838908,51.225307040242 -0.578595077207109,51.2252857236246 -0.578782633634685,51.2252421502891 -0.578970555599449,51.2252327423302 -0.579374245247819,51.2252376360825 -0.579634928494577,51.2252389970099 -0.579648903981397,51.2256213247541 -0.579891499684593,51.2256503343008 -0.580510706810288,51.225631765367 -0.580773472889375,51.2256115735039 -0.581178713210891,51.2255661367113 -0.581610430568513,51.2254967466323 -0.581763223275952,51.2254662319183 -0.581887359280206,51.2254344719375 -0.582056487154188,51.225383388316 -0.582154918344861,51.2253504169314 -0.58256949916257,51.2251891195251 -0.582868583156424,51.2257088428939 -0.584282271406641,51.2255164642934 -0.585265823502645,51.2253880159625 -0.586618336051437,51.2252299558722 -0.587329324308072,51.2251638349925 -0.588035539922631,51.2250644790853 -0.589632357665289,51.2248750795715 -0.589823328976461,51.22485850213 -0.589925625778377,51.2248417543384 -0.590101658862434,51.2247962287351 -0.590221948713539,51.2247509306247 -0.591022945042405,51.2245015790799 -0.591141268760638,51.2244742358004 -0.591769147912383,51.2243604295906 -0.591916201484552,51.2243280366256 -0.592061892359416,51.2242938303846 -0.592450846722017,51.2241698637683 -0.592671858664435,51.2241554404413 -0.59299450798185,51.2240954922418 -0.593843663408823,51.2239581737139 -0.594637410676501,51.223802293046 -0.594886452201616,51.2237630312201 -0.595135265103177,51.2237273612965 -0.595656506429549,51.2236831834909 -0.597285528213032,51.2234222334991 -0.598089296345025,51.223316703411 -0.598513531486141,51.2232588547171 -0.599387265287135,51.2232054851668 -0.600650203691256,51.2231162194506 -0.6019474531311,51.2230283439978 -0.603219157675141,51.2229338707227 -0.60324847477468,51.2231941205918 -0.603290675889342,51.2235983621744 -0.603299324664254,51.223691062218 -0.603551106547487,51.2247903023255 -0.603670793024535,51.225615388469 -0.603801061347024,51.226137641599 -0.603837760471481,51.2266264120497 -0.603981872776497,51.2269761338431 -0.604087642912977,51.2271724774824 -0.604267166944726,51.2274408134318 -0.604406283417395,51.2276709080709 -0.604731585604982,51.2281405594059 -0.604722886556639,51.2281431524192 -0.604731205211693,51.2281531407572 -0.605217880245104,51.2281130997447 -0.605814518585755,51.2280878543456 -0.605884005663267,51.2284888237283 -0.606346731667609,51.2284871501833 -0.606767300120913,51.2285011534291 -0.607114923662031,51.2285178820758 -0.608084950327688,51.2285519108033 -0.60848676665712,51.2285729666789 -0.609319172065567,51.2286125398985 -0.609439426408171,51.2286112736597 -0.610984446306308,51.2285783103228 -0.61234858965463,51.2285558553273 -0.613182511013571,51.2285450755398 -0.614079189434422,51.2285404275842 -0.614779871804699,51.2285307534563 -0.615422760799637,51.2285383701479 -0.61581216086122,51.2286860107787 -0.615847552791812,51.2286990157329 -0.616577553068103,51.2284756283508 -0.616863355959556,51.2284511419041 -0.617023163314073,51.228422466411 -0.617450808144406,51.2282988797752 -0.618465175372573,51.2279997325174 -0.618845860332911,51.2278666860079 -0.619885467038153,51.2273942306556 -0.62026958626491,51.2272881894354 -0.620699346452245,51.2272393219061 -0.620954259188333,51.2272405311264 -0.621270786691013,51.2271912247895 -0.622049280264468,51.2270663656879 -0.622178777569566,51.2275265565147 -0.622420723936934,51.228345869991 -0.62238912372616,51.2283481944128 -0.621510609167739,51.2284170385701 -0.620649901993592,51.2285102688248 -0.619585552968196,51.2286091794928 -0.61928491268326,51.2286559721707 -0.61917487190566,51.2286474801491 -0.619094732681281,51.2286420381125 -0.618874650087219,51.2286762971787 -0.618864589527676,51.2286770766561 -0.618648565028749,51.2287177661026 -0.618643372619449,51.2286979267051 -0.618622841926942,51.2286184829099 -0.618394814109512,51.2286301723022 -0.618396343261521,51.2287210781665 -0.618617172200923,51.2302910761437 -0.61865377315514,51.2305990528243 -0.618680943351865,51.2308394034983 -0.618712996164343,51.2314926289588 -0.618752654045144,51.2320812155387 -0.618854548047948,51.2326975084654 -0.618908862113638,51.2329859161721 -0.618921190829087,51.2331974143703 -0.61892940536285,51.2333530360518 -0.6188983931606,51.2335289614873 -0.618956908006985,51.2335350464668 -0.619352435638936,51.2335783752982 -0.619833721569609,51.2335777655979 -0.620438522713739,51.2335660257629 -0.620729717605805,51.2335991288671 -0.621008154341277,51.2338695032293 -0.620957333836692,51.2341314982055 -0.620926770620546,51.2343874392037 -0.62096689761702,51.2349139116867 -0.620987207710425,51.2353368556709 -0.621048548070714,51.2354895087259 -0.621139900767003,51.2357405947354 -0.621187497696816,51.2360172364616 -0.621282461360754,51.2365308692912 -0.621462197951799,51.2375159439555 -0.62152876306989,51.2378773129659 -0.621625559814513,51.238709298949 -0.621712284091388,51.2394990038946 -0.621843269253885,51.2403412821936 -0.622253488844894,51.2401833986797 -0.62253361171092,51.2400626389732 -0.622844742030127,51.2399556380771 -0.623051054302254,51.239909522875 -0.623433395550837,51.2398187315944 -0.623741210352242,51.2396802247923 -0.624160508582653,51.2395026646376 -0.624479547761737,51.239466863077 -0.625025342290103,51.2394201523112 -0.625425153200552,51.2393691151768 -0.625722224553541,51.2392539410403 -0.626218585544775,51.2390861801982 -0.626613973527952,51.2389415927822 -0.628171837435401,51.2384877331342 -0.628173467903631,51.2384329146334 -0.628071636924412,51.2381475500738 -0.627990253621059,51.2378974868144 -0.627932176182055,51.2376343009413 -0.6278297333503,51.2373696060752 -0.62764029718194,51.2369482750345 -0.627622765465261,51.2369103118159 -0.627745110677136,51.2368910715532 -0.628155948680676,51.2368059946359 -0.628598713043735,51.2367554512484 -0.629161242451518,51.2367206948088 -0.629211133039534,51.2369217542278 -0.62930234308021,51.2371791239083 -0.629371852966415,51.2374434312376 -0.629470003748234,51.2378528108854 -0.630023764481194,51.2377756954257 -0.630433780401298,51.2377184692092 -0.630886254377434,51.2376752228934 -0.631246853250634,51.2376911314256 -0.631847117838879,51.2376388241719 -0.632049689901914,51.237618629756 -0.633571924856712,51.2374431488595 -0.634675888816638,51.2373643492207 -0.635338891249455,51.237327050357 -0.635849163271663,51.237314126549 -0.636235571350277,51.2372799788126 -0.63760999468862,51.2371135092877 -0.63838030716593,51.2370297976072 -0.639356277223495,51.2369171010005</coordinates></LinearRing></outerBoundaryIs></Polygon>
  </Placemark>
