  <Placemark>
	<Style><LineStyle><color>ff0000ff</color></LineStyle><PolyStyle><fill>0</fill></PolyStyle></Style>
	<ExtendedData><SchemaData schemaUrl="#Wards__December_2019__Boundaries_EW_BFE">
		<SimpleData name="objectid">7743</SimpleData>
		<SimpleData name="wd19cd">W05000644</SimpleData>
		<SimpleData name="wd19nm">Llandow/Ewenny</SimpleData>
		<SimpleData name="wd19nmw">Llandw/Ewenni</SimpleData>
		<SimpleData name="bng_e">294266</SimpleData>
		<SimpleData name="bng_n">175025</SimpleData>
		<SimpleData name="long">-3.52347</SimpleData>
		<SimpleData name="lat">51.464279</SimpleData>
		<SimpleData name="st_areashape">42431392.0466639</SimpleData>
		<SimpleData name="st_lengthshape">46020.3007512485</SimpleData>
	</SchemaData></ExtendedData>
      <Polygon><outerBoundaryIs><LinearRing><coordinates>-3.46787372004652,51.5150191771692 -3.46824573407912,51.5150253116908 -3.46926041351895,51.5150251983497 -3.46948680470478,51.5150295551017 -3.46972329193353,51.5150337858751 -3.47012460637029,51.5150531219275 -3.47053167962625,51.5150740930485 -3.47094366704916,51.5151111833794 -3.47136001924,51.515150913541 -3.47227686733171,51.5152490931469 -3.47300905471276,51.5152956440952 -3.47337286627263,51.5153126530314 -3.47461161289374,51.5153807912122 -3.47557805956482,51.5153182989768 -3.47643908827237,51.5152039938071 -3.47734518522728,51.5151017908814 -3.47823079539888,51.514987252798 -3.47980987909444,51.5147514993657 -3.48044764159452,51.5146418669968 -3.48128210975074,51.5145080822141 -3.48184610895,51.514388585538 -3.48264646404346,51.5142291509231 -3.48347355440918,51.5140442894368 -3.48513024410719,51.5137157811698 -3.48577003698975,51.5135781329977 -3.48678152040774,51.5133495569312 -3.48740873639276,51.5132273421469 -3.48785598589703,51.5131542457231 -3.48839827539278,51.5130331924822 -3.48873802257304,51.5129794364076 -3.48920980420403,51.5129518727302 -3.48942363800857,51.512924884296 -3.48963738212423,51.5128951106695 -3.49008750565466,51.5128192713451 -3.49058109539001,51.512753666585 -3.49091589920031,51.5127233407757 -3.49144516528134,51.5126914413512 -3.49175497326708,51.5126452494169 -3.49194097135318,51.5126464804726 -3.49251149794247,51.5125537275434 -3.49277298522469,51.5125306221698 -3.49302740324136,51.5125094047145 -3.49325750131901,51.512496586988 -3.49431670082816,51.5124498376446 -3.4948689019033,51.5124580860797 -3.49533850162419,51.5124512023714 -3.49563866665115,51.5124626592884 -3.49669361375409,51.5125544808191 -3.49751220567078,51.5126420277271 -3.49778767846144,51.5126034495052 -3.49827793911832,51.5124802275324 -3.49871137038954,51.5123380416933 -3.49905642625814,51.5122257511819 -3.4998103488922,51.5119687967366 -3.50032068513954,51.5117554073404 -3.50055924631007,51.5116894251858 -3.50096529128725,51.5115061363191 -3.5014387697623,51.5113103815185 -3.50169363870112,51.5111730701002 -3.50179230990252,51.5111493293875 -3.50201723564123,51.5111095856302 -3.50209604178453,51.5110959887268 -3.50208568616405,51.511041282102 -3.50208025647586,51.511009886192 -3.50214567324734,51.510982975487 -3.50219398585501,51.5109634765085 -3.50220221122638,51.5109498855184 -3.50225828125464,51.5108555790537 -3.50252065225218,51.5107730999473 -3.50265356999179,51.5106527249154 -3.50282627151102,51.510557011704 -3.50299771298976,51.5105566094064 -3.50305831468416,51.5105567309757 -3.50331258765499,51.5103582913019 -3.50353110380784,51.5102106549835 -3.50390075334742,51.5100593700642 -3.50401026112726,51.5100148105361 -3.5040550997076,51.5099764761131 -3.50414486518974,51.5098989077119 -3.5043531849267,51.5098386050791 -3.50451441853255,51.5097448344219 -3.50491246893238,51.5096660019324 -3.50505092781112,51.5095842101246 -3.50521719763942,51.5096000543931 -3.50524412918116,51.5095880204502 -3.50540239210855,51.5094474482297 -3.50541655459134,51.5094409730978 -3.50558425635929,51.5093704926569 -3.50565539555737,51.5093839620346 -3.50578232577315,51.5093886233828 -3.50599945884748,51.5093759433168 -3.50641558468577,51.5093193479948 -3.50710294071817,51.5092331907658 -3.50753512652053,51.5090980808484 -3.50776906594253,51.5089826931184 -3.50792526992059,51.5088664172734 -3.50808328816179,51.5087223402769 -3.50820436964868,51.50854988351 -3.50831853320791,51.5084270490827 -3.50832005124564,51.5083002723126 -3.50827682135825,51.5081676879474 -3.50826723449924,51.5080536391369 -3.50824286212078,51.5078372060454 -3.50822348034674,51.5075128302518 -3.50826864172489,51.5073080878026 -3.50836175659167,51.5070299994089 -3.50856415413625,51.5067872724102 -3.50883254963067,51.506496049519 -3.50900183865148,51.5063409503402 -3.50933890062521,51.506031761082 -3.50956477631622,51.5059353564699 -3.50987716435184,51.5058827864992 -3.51019065051382,51.5057735643413 -3.51047319518983,51.5056484693468 -3.51084278817278,51.5054504214902 -3.51143916251814,51.505140581629 -3.51223627445421,51.5047579369983 -3.51234671144916,51.5046989764206 -3.51243957258109,51.5046294552632 -3.51252649569131,51.5045564146152 -3.5126835617873,51.5043843889844 -3.5127556662119,51.5042549033513 -3.51284142154183,51.5041035760223 -3.51292501677856,51.5040161938527 -3.51301057260117,51.5039485651845 -3.51317646232835,51.5038637165411 -3.5133679689818,51.503773952594 -3.5136106280003,51.5036611429633 -3.51388511771385,51.503641415952 -3.51403866066114,51.5036214522665 -3.51418896618941,51.5035898445716 -3.51430112167371,51.5035398500324 -3.51439691390399,51.5034764927835 -3.5144343406795,51.503387009508 -3.51443993907135,51.503251191331 -3.51447018564042,51.5032067502968 -3.51448559228003,51.5031948637922 -3.51458922262078,51.503145789434 -3.51483980461106,51.5030571476196 -3.51499521109695,51.503007492823 -3.51515064849595,51.5029587366844 -3.51556432212093,51.5028337340697 -3.5157106712665,51.5027689129649 -3.51585628692248,51.5027715243502 -3.51601176476193,51.5028135637282 -3.51623245066152,51.5029483440778 -3.51648225958216,51.5030943428106 -3.51664258202931,51.5031498934506 -3.51666579767466,51.5031549866842 -3.51673785048539,51.50315675115 -3.51679395902729,51.5031542275095 -3.51695574602414,51.5031214787693 -3.51709422595309,51.5030414744161 -3.5172412925604,51.50282651276 -3.51742337150924,51.5027107943913 -3.51767643660005,51.5026113276755 -3.51791008920837,51.5025282927708 -3.51812287247812,51.5024715101152 -3.5183411879056,51.5024525016022 -3.51872219425568,51.5024709402993 -3.51887949862317,51.5024356409025 -3.51901357809317,51.5023520968969 -3.519020701521,51.502348408569 -3.51906910921054,51.5022857521288 -3.51907269789415,51.502136384746 -3.51915051053461,51.5020041259071 -3.51927357720544,51.5019360068095 -3.519641665723,51.5018268662046 -3.51994938408045,51.5017635443716 -3.52028433129293,51.5017403235455 -3.52046156065416,51.5017434200733 -3.52069784570474,51.5017862034967 -3.52098618521796,51.501876047183 -3.52139050689719,51.5020775677029 -3.52157767546825,51.5021579344184 -3.52169069750694,51.5021771447643 -3.52178608454498,51.5021875933127 -3.52198213563447,51.502188644783 -3.5221772606279,51.5021654348709 -3.52238475684473,51.5021212988583 -3.52242589790289,51.5021045829492 -3.5225936266297,51.5019900320611 -3.52300439071327,51.5016501880295 -3.52339323604941,51.5012980407386 -3.52406715208124,51.5008522906679 -3.52425498070878,51.5007850322722 -3.52457882195578,51.5006855301246 -3.52490434233977,51.5006399450179 -3.52511923957783,51.5006470390431 -3.52541248278339,51.5006701935796 -3.52570482793993,51.5006663900854 -3.52597301034825,51.5006718899743 -3.52637851020172,51.5007340359645 -3.5266350313725,51.5008206838861 -3.52686482348283,51.5008860140101 -3.52726163008957,51.5010327739868 -3.52797561572641,51.5012716801218 -3.52860335645568,51.5014748483489 -3.52888675415526,51.501505314583 -3.52918394193963,51.5014295211021 -3.52930318715384,51.5014180770385 -3.52953106970039,51.501383550536 -3.52960964127188,51.5013636470575 -3.52937375255648,51.5012903105546 -3.52935493043928,51.501285162435 -3.52931995521839,51.5012730329056 -3.52928634421195,51.5012590871028 -3.52925409892309,51.5012433268065 -3.5292246421635,51.5012257307645 -3.5286476704528,51.5001712915368 -3.5286231898669,51.500128370102 -3.52860501197769,51.5001034357108 -3.52856147110833,51.5000482669771 -3.52851062841439,51.4999949909788 -3.52831746368332,51.4997744726402 -3.52797377412997,51.4994929871321 -3.52761921568865,51.4991882693126 -3.52743491430341,51.4990621156856 -3.52732503696251,51.4988773694553 -3.52715348450854,51.4987025050559 -3.5269838634869,51.498542808715 -3.52685662914679,51.4984428808432 -3.52667554100559,51.4983238771518 -3.52642515259472,51.4981607362781 -3.52626582849562,51.4980495390441 -3.52615138608138,51.497944858703 -3.52602400524332,51.4978404374575 -3.52586859306115,51.4976293125985 -3.52578722295938,51.4975224938774 -3.52567416551913,51.4974592389631 -3.52555834990036,51.4973987166289 -3.52537510782748,51.4973039211601 -3.52528384090231,51.4972457760071 -3.52515733335955,51.497167412163 -3.52536897619751,51.4970774585745 -3.52537755393757,51.4970746501841 -3.52545448147883,51.497048388125 -3.52553435174995,51.4970248744575 -3.52561719175751,51.4970049181355 -3.52567296248479,51.4969925060438 -3.52574461286495,51.4969789880664 -3.52581763073904,51.4969672498204 -3.52589088663697,51.4969591044704 -3.52593971372137,51.4969557722583 -3.52601454521897,51.4969521016002 -3.5262492947049,51.4969067939363 -3.52628519560834,51.4968613783941 -3.52643844072895,51.4968333129563 -3.52682025167743,51.4966637388607 -3.52703094497028,51.4965881787758 -3.52704785848696,51.4965753728223 -3.52722050472166,51.4964382777717 -3.5273721068125,51.4963184467228 -3.52737826993646,51.4962895990251 -3.52738746101028,51.4962625103543 -3.52740365522117,51.4962281383795 -3.5274255490281,51.4961936921576 -3.5274503512035,51.4961610056155 -3.52746005260004,51.4961491927848 -3.5274893082714,51.4961182457903 -3.52752283491517,51.4960871541253 -3.52753396189901,51.4960753227169 -3.52754220904227,51.4960626295893 -3.52754745682519,51.4960490763003 -3.52754742679184,51.4960481774568 -3.52754849213196,51.4960373763581 -3.52754810181861,51.4960256949881 -3.52754792164866,51.4960203028259 -3.52754186177237,51.4960095945501 -3.52749665989279,51.4958654479699 -3.52749493548694,51.4958564807837 -3.52749223335356,51.4957756073349 -3.52749217331964,51.4957738105467 -3.52749284389899,51.4957512373126 -3.52749351748113,51.4957287539628 -3.52749182311347,51.4957206856198 -3.52748537296821,51.49569829507 -3.52747598500251,51.4956768420249 -3.52746728516584,51.4955906530938 -3.5275677567678,51.4955794553496 -3.52763049823764,51.4955588610917 -3.52788120822529,51.4955151406668 -3.52793709662378,51.495506321098 -3.52802453713462,51.4954961920005 -3.52811076162446,51.4954887754903 -3.52818413488904,51.4954842232108 -3.52826472196977,51.4954822745686 -3.5283468247297,51.4954830020213 -3.52840746550576,51.495484908405 -3.52842759203849,51.4954864445286 -3.52848832294485,51.495491046501 -3.52863703647113,51.4955016935517 -3.52867310219332,51.4955039201732 -3.52867086535424,51.4954796771873 -3.52865227246959,51.4953108220587 -3.52848962899256,51.4952742859944 -3.52853417516188,51.4951820094241 -3.52830664939648,51.4947964373635 -3.52811647428495,51.4944940725842 -3.52797027365989,51.4942172941061 -3.52773842372292,51.4938299796789 -3.52761109537081,51.4936842062966 -3.52776081946175,51.4936400032312 -3.52810107144709,51.4936032060163 -3.5285059457544,51.493520527243 -3.52876619551464,51.4934604987944 -3.52919233036816,51.4933245907833 -3.52941483888356,51.4933010117045 -3.52978679582381,51.4932250506931 -3.53022684560266,51.4931572785604 -3.53074475995066,51.4930525305711 -3.53151245951856,51.4928770034324 -3.5321942466482,51.492672119726 -3.53264562948378,51.4925600514279 -3.53320499713768,51.4923990124792 -3.53371353591853,51.492273696903 -3.53412717685989,51.4921944800295 -3.534542723338,51.4921261139092 -3.53551591486982,51.4919803242168 -3.53603979533806,51.4919231196358 -3.53615610522331,51.4919135054698 -3.53618192401418,51.4919077726954 -3.53627756631171,51.4918839559863 -3.536371784737,51.491856650837 -3.53777117957372,51.491490311784 -3.53944974689279,51.4910312916675 -3.5393556888992,51.4909785876872 -3.53907446998447,51.4908806045604 -3.5387240474467,51.4907413673858 -3.5383932620592,51.4906279421722 -3.53814741704815,51.4905151094315 -3.53778427728837,51.4902977344323 -3.53708032534232,51.4900534531896 -3.53666745761999,51.4898969592654 -3.53662100516557,51.4898858806853 -3.53612325461051,51.489818687106 -3.53598834815763,51.4897907877746 -3.53585620215273,51.4897601553217 -3.53559002812195,51.4896853406555 -3.53525281206623,51.48950726387 -3.53480732439815,51.4893233223374 -3.53453104521436,51.4892055767495 -3.53437951617352,51.4891104692952 -3.53412287925296,51.4889303464453 -3.53381909418024,51.4887643238501 -3.53353376755118,51.4885891593209 -3.5334843547132,51.4885322706793 -3.53343870751712,51.4884177088437 -3.53336492640867,51.488236181041 -3.53324334740649,51.4880884501392 -3.53319978329473,51.4880359801755 -3.53318787779163,51.4880244493852 -3.53307242333789,51.4878893147478 -3.53306056082668,51.48779408791 -3.53307399677049,51.4877201955802 -3.53301713405882,51.4876571121954 -3.53300862677048,51.4876194663113 -3.53300939486201,51.4875538309374 -3.53297634947195,51.4874714667479 -3.5329211847349,51.4872429484787 -3.53288428832066,51.487173220314 -3.53284234926474,51.4870416186932 -3.53286030905718,51.4869326078287 -3.53280223828757,51.4868334906623 -3.53275764355768,51.4867927204745 -3.53274846078624,51.486646307324 -3.53263965583513,51.4864507627801 -3.53267286167166,51.4863253708931 -3.53255689804503,51.4861748690546 -3.53257573160812,51.4860919174496 -3.53242541534693,51.4859050066141 -3.53234332138605,51.4856452858006 -3.53217925917855,51.4854343720375 -3.53203839189205,51.4854443031951 -3.53193474356565,51.4854025067322 -3.53184782127918,51.4853424215068 -3.53186674611123,51.4852621656254 -3.53172294020077,51.4851417833396 -3.53171603391752,51.4849781694331 -3.53171424888438,51.4849674046171 -3.53176032519395,51.4848822987621 -3.53192871589295,51.4846624566281 -3.53195043817326,51.4845381132899 -3.53192747307373,51.4843666187705 -3.53195620629162,51.4841927402177 -3.5319557500668,51.4840515166327 -3.53195568984484,51.484049718947 -3.53194033317089,51.4840202537921 -3.53188848097035,51.4839364273451 -3.5318910868434,51.483925605161 -3.5319287780376,51.4838064476878 -3.53193301840577,51.483801897002 -3.53193399205098,51.4837884002312 -3.53194241632517,51.4837810980683 -3.53195853637855,51.4836171832534 -3.53201045492845,51.4835329001631 -3.53202409541658,51.483511146549 -3.53208473292661,51.4834743946405 -3.53210884829223,51.483460504646 -3.53210839661802,51.4834470264973 -3.53212220125424,51.4832176064475 -3.53213420461576,51.483185985308 -3.53214069401527,51.4831670219359 -3.53215002698512,51.4831443354339 -3.53227129835314,51.4830672363445 -3.53227841913445,51.4830635472376 -3.53239993102665,51.4829936369628 -3.53243766005366,51.4829607803195 -3.53256349592898,51.4827612702308 -3.53259821147085,51.4826349592915 -3.53259647893869,51.482498247612 -3.53251887317148,51.4822448508809 -3.53250540815238,51.4821442512241 -3.53252029101096,51.4821170867846 -3.53277058779444,51.481935817275 -3.53277716467505,51.4819159534813 -3.53273068303027,51.4817762307441 -3.53271930716929,51.481695471529 -3.53273460903441,51.4816772912514 -3.53285024049692,51.4816056597726 -3.53354349796375,51.481878963536 -3.534544215854,51.4824287213811 -3.53534133502814,51.4828769449738 -3.53536681265424,51.4829071763947 -3.53564327099831,51.4830348065288 -3.53683585192531,51.4836774135048 -3.53807785484867,51.484337428422 -3.53926189550986,51.4849396689364 -3.54048780828127,51.4855430541969 -3.54123028354471,51.4859065535775 -3.5426662070825,51.4866295073925 -3.54385336671296,51.4872361543693 -3.54511531658008,51.4878831579639 -3.54653820847845,51.4885999436218 -3.54773235355285,51.4892380146367 -3.54879433398788,51.4898021252893 -3.54964737936555,51.4902351293493 -3.55066649307993,51.4907666177719 -3.55152584399189,51.491174265005 -3.55259422831668,51.4917104798817 -3.55299429770684,51.4919110495052 -3.55378416518001,51.4922647638097 -3.55455626578971,51.4926439697676 -3.55462252399018,51.4926853439249 -3.55476092182447,51.4927734068836 -3.55530625773801,51.4925440379124 -3.55547481466445,51.4925444991516 -3.55571793500773,51.4925755252868 -3.55589776073634,51.4925685543989 -3.55654066349896,51.492497993577 -3.5571849547127,51.492422915491 -3.5580408166925,51.4923000747639 -3.55833622967966,51.4922205452779 -3.55922504937377,51.4919219555352 -3.55982581670413,51.4917134033285 -3.56028325378476,51.4916102279347 -3.56066898632496,51.4915151072116 -3.56096488354982,51.4914500376473 -3.56171124075309,51.4912863744233 -3.56255572720439,51.4910853491661 -3.56293860539136,51.4909903487559 -3.56350669124996,51.490879302911 -3.56387535880628,51.4907925793161 -3.56427783331527,51.4906838280599 -3.56470342838136,51.4905774637116 -3.56508868259722,51.4904688494459 -3.5655586037413,51.490352900581 -3.56609708418428,51.4902170655563 -3.56624378933074,51.4901692573928 -3.56678373087007,51.4899930353008 -3.56712542808504,51.4898787032144 -3.5673491453328,51.4898046936811 -3.56763632745009,51.4896938754495 -3.56860581913715,51.4892780715903 -3.56889181576204,51.489174367094 -3.56921059434035,51.4890604240581 -3.5694121787329,51.4889750184484 -3.56977518632108,51.4888487053236 -3.57076839890745,51.4884918985837 -3.57136445709327,51.4882770541281 -3.57155488418684,51.4881989867244 -3.57172922272015,51.4881193362516 -3.57182916994349,51.4880487743815 -3.57209915775046,51.4878185209647 -3.57224652799043,51.4877041709192 -3.57246220882876,51.4875663407031 -3.57275939578519,51.4874571734754 -3.57311356115224,51.4873265638314 -3.57330203007354,51.4872367435954 -3.57355293371745,51.4870769523632 -3.57377337657398,51.4869120868804 -3.57381410927124,51.4868809748953 -3.57410481078499,51.4867044673872 -3.57426415135496,51.4866069454525 -3.57448205214111,51.4864511925243 -3.5746926769197,51.486294547793 -3.57512544336258,51.4861466948936 -3.57545687103164,51.4860667271336 -3.57565613193849,51.4859974345675 -3.57578361696247,51.4859750449536 -3.57614321386845,51.485961221529 -3.57640178210905,51.4859415633474 -3.57676703693097,51.4858818133506 -3.57717859220958,51.4857872782225 -3.57743129831105,51.4856804057819 -3.57776769784955,51.4855383353339 -3.5781993220803,51.485358034318 -3.57832297140901,51.4853518745482 -3.57858162444242,51.4852935549957 -3.57889596063418,51.4852623524204 -3.57938008791437,51.485223469198 -3.57987016095678,51.4851916950813 -3.58026933416934,51.4851584464318 -3.58042955818964,51.4851248224772 -3.5805359262523,51.4850379862984 -3.58079311562113,51.4848105829394 -3.58095647629264,51.484661757063 -3.5815602308356,51.4845043836087 -3.58194954927019,51.484474859313 -3.58212242810471,51.484432971076 -3.58235700335899,51.4843038585766 -3.58271523316982,51.4840832689724 -3.58314512806851,51.4838130756051 -3.58357483962334,51.4835788442161 -3.58390336014256,51.4834161875188 -3.58408801172721,51.4833407871457 -3.58409649612943,51.4833388740648 -3.5843837197712,51.4832729645494 -3.58467317657737,51.483230397485 -3.58506021877708,51.4832179768489 -3.58536542489506,51.4831742968689 -3.58539120713579,51.4831712516118 -3.58569046669433,51.4831204600159 -3.58601389526368,51.4830612495907 -3.58628224072263,51.4830332589877 -3.58670136395177,51.4829907325788 -3.58691082284386,51.4829699198146 -3.587081617969,51.4829505281474 -3.58734902799116,51.4828956679746 -3.58760365651127,51.4828454754328 -3.5879264555916,51.4827682890153 -3.58823176657192,51.4826867542207 -3.58842449263093,51.4826355995779 -3.58852043131159,51.4826217147247 -3.58903769250273,51.482587739652 -3.58977402160933,51.4825157332914 -3.59084272696679,51.4824338204007 -3.59122097068434,51.4824179026662 -3.59169280222747,51.482402511337 -3.591844645856,51.4824220259814 -3.59204989863771,51.4824408155265 -3.59219687468604,51.482443314901 -3.5923272561296,51.4824262625926 -3.59244586617835,51.4823985818823 -3.59268323158367,51.4823098674631 -3.59288873119033,51.4822540376315 -3.59300481394554,51.4822389763013 -3.5931015267614,51.4822439556152 -3.59323201255545,51.4822673545639 -3.59315700789625,51.4822243236166 -3.59313898931299,51.482204790672 -3.5929560536214,51.4817909610982 -3.59291280198476,51.4816233500823 -3.5928813176076,51.4814628612182 -3.59286164814264,51.4813551621978 -3.59271047708435,51.4812322579031 -3.59258809428221,51.4810666204671 -3.59253212316051,51.4809496144619 -3.59242941725002,51.4808952727608 -3.59231541077428,51.480765480661 -3.59207537372415,51.4805287127628 -3.59197737351604,51.480404995896 -3.59188687618041,51.4802444093758 -3.5917633803244,51.4801318255243 -3.59159647965296,51.480051384535 -3.59138976440337,51.4799903628554 -3.59114916489013,51.4799450820049 -3.59092707419919,51.479895954493 -3.59071954073842,51.47988977962 -3.59055999743559,51.4798568831234 -3.59042262049667,51.4798433736047 -3.59027730650994,51.4798030917378 -3.59014589038918,51.4797527333401 -3.58988172210622,51.4796511340877 -3.58955422391312,51.4795107481374 -3.58929234131691,51.4794747424357 -3.5890053593731,51.4794237928637 -3.58895027299131,51.4794137519577 -3.58881342893045,51.4793302030796 -3.58855914893786,51.4792635270266 -3.5884103812665,51.4792501694355 -3.58826357314155,51.4792521574647 -3.58815558895531,51.4792950624635 -3.58806497925235,51.4792980868569 -3.58800903251093,51.4792223423072 -3.58791371183611,51.4792128447385 -3.58780915432363,51.479231341079 -3.58765067502023,51.4793108875801 -3.58756638731864,51.4793318061227 -3.58742709887276,51.4793417816966 -3.58732378956796,51.4793108174332 -3.58724201963645,51.4791958657514 -3.58716392848151,51.4791456816469 -3.58694559842953,51.4790371627469 -3.58675171618141,51.4789282236896 -3.58668606097978,51.4788634869486 -3.58661846421083,51.4788248460176 -3.58637718847594,51.4787597878174 -3.58615813738424,51.4787124077864 -3.58593101403224,51.4787676190536 -3.58572367108591,51.4788522289566 -3.58563184630121,51.4789433681659 -3.58556971362356,51.4790620629832 -3.58550015268649,51.479089973 -3.58538375843419,51.4790582837843 -3.58525447233653,51.4789835292203 -3.58509699342066,51.4788867700885 -3.58489553650151,51.4788912908819 -3.58475220012462,51.4789112068111 -3.58455749371228,51.4789426046215 -3.58443017406328,51.478924547208 -3.58432327652377,51.4788756489303 -3.58423173116136,51.4786836033508 -3.58423170228936,51.478683518314 -3.58420330611385,51.4785697311669 -3.5841985053413,51.4784313541517 -3.58424037301774,51.4783102359895 -3.58432357658488,51.4782614662718 -3.58461740207551,51.4781370348261 -3.58474619491977,51.4781155170842 -3.58479389922888,51.4780771156606 -3.584772349522,51.4780377624756 -3.58466186707444,51.4780086894738 -3.58469118380963,51.4779399716861 -3.58483982235603,51.4778642480859 -3.58487298665288,51.4778242446305 -3.58481928439626,51.4777719309737 -3.58476155655368,51.4777267738033 -3.5847862007574,51.4776500278465 -3.58484779739908,51.4775979538306 -3.58498857080449,51.4775043570953 -3.585039799208,51.477444331811 -3.58503006093702,51.4773724557579 -3.58490200865289,51.4772510275921 -3.58455753160408,51.4770344443045 -3.58442831737437,51.4769615755195 -3.5842243828991,51.4769355631913 -3.58399249603661,51.4768532927063 -3.58381073175444,51.4767612653447 -3.58363001261107,51.4766171734099 -3.58357537311873,51.4765343061229 -3.5836432887256,51.4765001274396 -3.58378917367832,51.4764306450398 -3.58387809557309,51.4763791016683 -3.58386694905993,51.4763486864559 -3.58380972551322,51.4763179951581 -3.58369908650093,51.4762808339834 -3.58367020833054,51.4762389717832 -3.58371619491319,51.4761510607008 -3.5837628128375,51.47608480624 -3.58381541273932,51.4760643182521 -3.58396811641106,51.4760271959062 -3.58406449524177,51.4759818445146 -3.58410520768148,51.4759507297877 -3.58411070203389,51.4759003130577 -3.58408937379531,51.4758673394928 -3.58399010692509,51.4758704777602 -3.58386822319648,51.4758856086777 -3.58377724419632,51.4758778476705 -3.58369136834343,51.4758528468745 -3.58360171112103,51.475801018166 -3.58360561698175,51.4757047747193 -3.5836540729747,51.4756915348091 -3.58379034231345,51.4756735139687 -3.58385804823329,51.4756743972198 -3.58384550765539,51.4755216515039 -3.58388100531854,51.4754222844702 -3.58399139363766,51.4752022527987 -3.58401436698643,51.4751183371323 -3.58399033946324,51.4750485420588 -3.58392671432993,51.4750386132249 -3.5837721498568,51.4750254180407 -3.58365552230234,51.4750242960875 -3.58356627267048,51.4749841480896 -3.5835326886242,51.4749297635425 -3.58355006516048,51.4748898843938 -3.58361513059642,51.4748557440996 -3.58366259091737,51.47481375018 -3.58366918982209,51.474712975626 -3.58356479347647,51.4746091145891 -3.58346104581323,51.4744828609663 -3.58340032347083,51.474433338048 -3.58330764399888,51.4744175082927 -3.58316329275928,51.4744077704802 -3.58308191336096,51.4743890912079 -3.58304167717916,51.4743482821266 -3.58292407507889,51.4742778614452 -3.58284893817065,51.4742303303619 -3.58268277203853,51.4742145935336 -3.58254869610582,51.474210109914 -3.58210382510055,51.4742098190642 -3.58175584355858,51.4742235023316 -3.5816441739734,51.4742420883774 -3.58152023623898,51.4743247581944 -3.58137812584563,51.4743797139268 -3.58121047929813,51.4744035495718 -3.58104710089885,51.4744237314026 -3.58083112746304,51.4744679957146 -3.58060957160466,51.474470981796 -3.58045949922217,51.4744640145609 -3.58028207161598,51.4744556172552 -3.57990038663219,51.4744526690678 -3.57965101439779,51.474444341602 -3.57953448149855,51.4744459110858 -3.57942943738694,51.4744913755943 -3.57925304667936,51.4746366876433 -3.57912198478203,51.4747194499088 -3.57902377085397,51.4747117825924 -3.57880162380113,51.4746976931652 -3.57854420061032,51.4746660080149 -3.57845650938991,51.4746707842681 -3.5783839865385,51.4746988191219 -3.57834930119412,51.4747361436841 -3.57834457688855,51.4748090244841 -3.57839247742291,51.4748587225377 -3.57846507897342,51.4749188762399 -3.57843791722544,51.4749677860072 -3.57838389961291,51.4750297336828 -3.57822522663358,51.4751037869413 -3.57821808147281,51.4751065798898 -3.57792087852171,51.4752157584915 -3.57763805134307,51.4751979879384 -3.57755242379324,51.4751353130386 -3.57741904889988,51.47502743196 -3.57735780515166,51.4750038927171 -3.5772896971161,51.47499132468 -3.57726939981478,51.4749880016111 -3.57740915972941,51.4748647596854 -3.57748871171534,51.4747926709816 -3.57749087621161,51.4747728641322 -3.5774213431082,51.4747189623003 -3.57720939590883,51.4745841796656 -3.57718262676804,51.4745584690778 -3.57706892499735,51.4743531438116 -3.57699009343642,51.4741123792927 -3.57696102693689,51.4736037698814 -3.57697313152313,51.4729121146113 -3.57696500902251,51.4727593073754 -3.57692817455052,51.4725278669468 -3.57692445817316,51.4725027455716 -3.57674938122623,51.4720185736688 -3.5766295228537,51.4717171406077 -3.57643202749086,51.470875386288 -3.57632440378937,51.4706772605645 -3.57622841666538,51.47056518968 -3.57600885364414,51.4704189107894 -3.57590189363909,51.4703673076933 -3.57564962905579,51.4702744171322 -3.57537329624706,51.4701927264709 -3.57524062364059,51.4701459643368 -3.57495049610276,51.4700428826624 -3.57446785185778,51.4699063356261 -3.57423004545904,51.4698160346621 -3.5738010626962,51.4697345917008 -3.57382380324634,51.469767548279 -3.57389048239571,51.4698664404866 -3.57375313703924,51.4698907572537 -3.573628384533,51.4699877230121 -3.57352071471442,51.469998157309 -3.57323052952114,51.4699346276594 -3.57319878683524,51.4698919019588 -3.5731565194375,51.4698744896677 -3.57303629080291,51.4697718209543 -3.57287023325642,51.4696310214981 -3.57274192702625,51.4695419457242 -3.57271008989323,51.4695378774034 -3.57252770378454,51.4694261528361 -3.57237058729255,51.4695037734688 -3.57222693071888,51.4695964968107 -3.57208024313486,51.4696011600231 -3.57186775184489,51.4695356853963 -3.57175897507385,51.4693033201631 -3.57165289343754,51.4690250704032 -3.57161818468964,51.4689374358575 -3.57161026404514,51.4688728160896 -3.57157611593967,51.4685909045542 -3.57145156954429,51.4683209933417 -3.57132002305497,51.4681374770106 -3.5711709043494,51.4679434977767 -3.5710811884122,51.4678061674028 -3.57091289266369,51.4675998599803 -3.57066294532866,51.4674907460831 -3.57055466606467,51.4674418535444 -3.57031041006877,51.4674154577941 -3.570190641959,51.4674467280402 -3.57008795829959,51.4674777685353 -3.57007078364638,51.4674788977041 -3.56987222550713,51.4674420003612 -3.56976679112774,51.467389473884 -3.56958113551899,51.46730655594 -3.56910964816431,51.4671617473766 -3.56896783095482,51.4671420694827 -3.56887956770444,51.4670848162631 -3.56877612489444,51.4669657377433 -3.56862568062824,51.4668606819183 -3.56850184694788,51.4667769352479 -3.56848348519814,51.4666188706331 -3.56861460897844,51.4665380075916 -3.56870189775227,51.4664388513408 -3.56879688731222,51.4663116339093 -3.56885010404541,51.4663127195698 -3.56899576319627,51.4662334592063 -3.56900847990917,51.4662269962259 -3.56916139563895,51.4660271753184 -3.56933617559352,51.4658764151993 -3.56948560994644,51.4657827195322 -3.56979285506071,51.4656733373905 -3.5698878702736,51.4656334091903 -3.5701473791778,51.4655616128801 -3.57030170872365,51.4653167324204 -3.57038051398285,51.4652230829689 -3.57042336651578,51.4651712671314 -3.57049511923531,51.4649967134686 -3.57040225808493,51.4648055756381 -3.57046153857627,51.4647309761891 -3.5704837030132,51.4645365003969 -3.5704782058345,51.4643764661488 -3.57021977620224,51.4642306960155 -3.57009191919917,51.4641955500806 -3.56988848231365,51.4641820919199 -3.56976746117137,51.464180115918 -3.56970897384105,51.4640288822649 -3.5697186973486,51.4639352577673 -3.56974048494203,51.4638576544119 -3.56926846283742,51.4637757820538 -3.5688923632365,51.4636423717091 -3.56871878864049,51.4635754724539 -3.56858561807798,51.463513426121 -3.56853992849928,51.4634375348542 -3.56851080121814,51.4633462285748 -3.56842474494708,51.4632700678608 -3.56834868057657,51.4632360248988 -3.56825364715418,51.4631922567565 -3.56803284420194,51.4630945238536 -3.56784953882691,51.4629549361432 -3.56778915786252,51.4629143912446 -3.56769251244013,51.4629066928077 -3.56745876441544,51.4628918383002 -3.56732970510533,51.4628665045199 -3.5672529585741,51.4628090962264 -3.56712422606517,51.4626651829624 -3.56704263138231,51.462552912267 -3.56692342856418,51.4624376379491 -3.56693022560428,51.4623000037687 -3.5670345432084,51.462233792909 -3.56708608894413,51.4621827612978 -3.56710361615292,51.4620638622366 -3.56718963029196,51.4619692192451 -3.56728313513887,51.4618438202531 -3.56722924546417,51.4618229651767 -3.56711794471604,51.4616023156031 -3.56705531662491,51.4614961741947 -3.56698761474199,51.4614116758979 -3.56683149773043,51.4613066937291 -3.56668518810725,51.4612385289831 -3.56652486315334,51.461180439279 -3.5665219899502,51.4611831744687 -3.56650314801624,51.4611771333372 -3.56638031038079,51.4611634917862 -3.56623265525727,51.4611807465877 -3.56601821246947,51.4612267613619 -3.56578596598978,51.4613386396359 -3.56566265132221,51.4613943140251 -3.56557438912541,51.4614233615537 -3.56541596429438,51.4614623344506 -3.56529045874486,51.461499070133 -3.56517362984607,51.4615743452713 -3.5651069899337,51.4616040021682 -3.56503605353764,51.4616364131756 -3.56482721022268,51.4616311099288 -3.56472855564436,51.4616513049514 -3.56464656475291,51.4617387902869 -3.56457661543108,51.4617550061143 -3.56430478673866,51.4617613295322 -3.56406511075763,51.4617429513181 -3.56386555182082,51.4617141487113 -3.56378014485438,51.461701803698 -3.56346516392467,51.4617095989706 -3.56338330012719,51.461759235631 -3.56324719056088,51.4618608365002 -3.56314261454388,51.4619161693807 -3.56298668896897,51.4619901659177 -3.56290495376315,51.4619984474249 -3.56278956623023,51.4619909956531 -3.56249727139574,51.4619472448857 -3.56173663645092,51.4618486010311 -3.56145453864386,51.4618496609941 -3.56116916365499,51.4618381782236 -3.56063131706653,51.4617707227939 -3.56033073274532,51.4617378650729 -3.55972729850116,51.4616891675918 -3.55927504370031,51.4616394450606 -3.55914488761054,51.4615782482127 -3.55902612077767,51.4615168988981 -3.55894952621687,51.4615053315402 -3.5588763186038,51.4615548490575 -3.55881500215579,51.4615736434779 -3.55873008373841,51.4615720755098 -3.55865912620604,51.4615622314987 -3.55851426169715,51.4614490873566 -3.55830906356316,51.4614670969494 -3.55820786950446,51.4614999059057 -3.55778960614203,51.4615594019654 -3.55744617626309,51.4616205994278 -3.55764294726337,51.4619021527905 -3.55736998725173,51.4619624139087 -3.55736818027578,51.4619930028776 -3.55689991942051,51.4621494398525 -3.55663604617166,51.4622221642845 -3.55635547511432,51.4622681408121 -3.55623785624432,51.4622822875294 -3.55610869377898,51.4622920920459 -3.55595200304471,51.4622986665593 -3.5556294726937,51.4622975512826 -3.55550981753972,51.462293744997 -3.55542459216021,51.4622831890592 -3.55523339550652,51.4622488672378 -3.55497659472842,51.4621911420591 -3.55481646420821,51.4621384283108 -3.55465148246648,51.4620722029263 -3.55455172242769,51.4620600414859 -3.55444990907925,51.4620712791703 -3.55437375787637,51.4621181369684 -3.55408439383945,51.4620311757521 -3.55391788218424,51.4620037158077 -3.55361717067985,51.4620508510045 -3.55313090855254,51.4621040401263 -3.55291007849349,51.462126741661 -3.55272169492191,51.4621751745539 -3.55240097496397,51.4622693182311 -3.5521030162422,51.4623137162839 -3.55203448622111,51.4622040490572 -3.55196112584419,51.4621618693715 -3.55175258869802,51.4621691244456 -3.55126058876575,51.4621792301934 -3.55067897229314,51.4621788324969 -3.55042270119287,51.462175029479 -3.55014698374834,51.462154313033 -3.5501166386993,51.4621520174201 -3.5499823838542,51.4621412066208 -3.54926917684773,51.4619528579933 -3.54906410985079,51.4618908415207 -3.54881993956438,51.4618202607732 -3.54861741560485,51.4617492202811 -3.54852621965973,51.4616919907408 -3.54850563150416,51.461721929277 -3.54855050741067,51.4618588798131 -3.54858808419279,51.4619906230523 -3.54855263107873,51.4620477268502 -3.54849845453911,51.4620637248503 -3.54842319312369,51.4620494363217 -3.54837225262753,51.4620348265678 -3.54822503780085,51.4620232856672 -3.54791744086754,51.4620390334128 -3.54771677940601,51.4620650561629 -3.54742006085559,51.46214268816 -3.54723102747479,51.4621721526503 -3.54708306950278,51.4622263352368 -3.54672104653983,51.4622472932486 -3.54630155236478,51.4623166540096 -3.54615112844575,51.4623366170221 -3.54558823540591,51.462423148619 -3.54539365753156,51.462457177608 -3.54504302664593,51.462520231692 -3.54472289125863,51.4625865689206 -3.54454270083034,51.4626249022164 -3.54426701975554,51.4626860682909 -3.54385139551469,51.4627859342819 -3.54291665808868,51.4629862144324 -3.54254094405012,51.4631152163089 -3.54216749646923,51.4632235110855 -3.54182221806219,51.4633153424595 -3.54158841553976,51.4633831436008 -3.54150718739877,51.4632799301023 -3.54078945588212,51.4633442021674 -3.54079599615643,51.4633656915405 -3.53942720914685,51.4635041334733 -3.53796564874673,51.463619595089 -3.53819101733448,51.4633891072855 -3.53783470871425,51.4633650137854 -3.53732999791526,51.4633824206128 -3.53736159406964,51.4632524635633 -3.53751255772813,51.4629906800072 -3.53766090647752,51.4627782841105 -3.53763589145772,51.4627615312149 -3.53763719371004,51.4627579180993 -3.53756963142207,51.4627183502657 -3.53743978708957,51.4624538661272 -3.53735481435846,51.4623236399586 -3.53720898454947,51.462053162224 -3.53715745340751,51.4618478816906 -3.53713196050714,51.4617745002718 -3.53702270697786,51.4616104302492 -3.53709705993968,51.4615519216167 -3.5371174474274,51.4614734425335 -3.53711487642449,51.4614393152243 -3.53707236645978,51.4612869568073 -3.53698319645267,51.4610776752142 -3.5369261243493,51.460919304704 -3.53687552663979,51.4608264736304 -3.53682284145363,51.4607173991456 -3.53667683522659,51.4604837808017 -3.5365347304591,51.4602814854304 -3.53660302196886,51.4602581158932 -3.53659999324145,51.460252761977 -3.53641868808656,51.4599116392855 -3.53624818949407,51.459637796617 -3.53626176295784,51.4595683974855 -3.53623811551663,51.4595074874258 -3.53608132403324,51.4593836847549 -3.53594918233041,51.4592622557709 -3.53580402872518,51.4590573025952 -3.53578623290922,51.4589550526036 -3.5358242819244,51.4588016375425 -3.53585847789216,51.4587490493813 -3.53585533890385,51.4586555972329 -3.53572496215192,51.4584594403998 -3.53561708585577,51.4582900475574 -3.53538343181709,51.4577184821776 -3.53518735664561,51.457194968474 -3.53504409088476,51.4567454686421 -3.53500340866215,51.4566047721532 -3.53494929773835,51.456106459057 -3.53491614763352,51.4558047469873 -3.53483372674523,51.4557959370615 -3.53480840270208,51.455854702549 -3.53471961263808,51.4559107018422 -3.53434758418659,51.4561484958323 -3.5340629780263,51.456332015491 -3.53385150804312,51.4564634256782 -3.53374754336265,51.4565411990112 -3.53370448347066,51.4565453574331 -3.53370847551832,51.4563636222968 -3.533719403698,51.455571301413 -3.53373356877409,51.4552222233862 -3.53373422943394,51.4546403980028 -3.53369492117824,51.4542857265915 -3.53364265492191,51.4541002320339 -3.53349863311815,51.4537972729113 -3.53342638611016,51.453617524005 -3.53337205938734,51.45345542914 -3.53329505049019,51.4531336140102 -3.5333480401423,51.453124830606 -3.5334725194483,51.4531034248254 -3.53362391872694,51.4530672835416 -3.53361568787728,51.4530377245801 -3.53357120228874,51.4528683098917 -3.53352855312851,51.4525838024878 -3.53343513476824,51.452459167551 -3.53325236401408,51.4521612101007 -3.53322961395015,51.4520383476171 -3.53307315582889,51.4517535297825 -3.53303994586104,51.4517044306151 -3.53284748476614,51.4514606278835 -3.53263430121367,51.4511118241658 -3.53250746986205,51.4509353950078 -3.53242704415424,51.4508087918331 -3.53240343654202,51.4507487788577 -3.53238840301229,51.4506896429719 -3.53238865845287,51.4506087319308 -3.53240975583477,51.4504663277167 -3.53242780731556,51.4502755091552 -3.53251071622919,51.450214193928 -3.53260520288282,51.4500699312794 -3.53284317310054,51.4497422006384 -3.53296218492768,51.4496004037655 -3.53307261766758,51.4495035790098 -3.53317704947109,51.4494401833947 -3.53329925262477,51.449393637117 -3.5334754416559,51.4493257076461 -3.53356411119952,51.4490116136658 -3.53373357578852,51.4485273662895 -3.53388558202624,51.4481665960126 -3.53398032309723,51.4479027649144 -3.53400174242062,51.4478125873579 -3.53399137269886,51.4477192296879 -3.53397369967614,51.4476628253693 -3.53400492558244,51.4475643382711 -3.53402245931327,51.4475281493934 -3.53413230908241,51.4474565924858 -3.53422514198563,51.4473942468979 -3.53439175033745,51.4471258798112 -3.53453099688786,51.4470287655313 -3.53457820067926,51.4469786142915 -3.53473780630929,51.4470179681719 -3.53492577121826,51.4470856280456 -3.53495478143167,51.4470519855863 -3.53509079654701,51.4471167292632 -3.53509818142264,51.4471211278443 -3.53509880962454,51.4469241531876 -3.53510971155046,51.4466479347878 -3.53510107611424,51.446479040394 -3.53473698978965,51.4465197654123 -3.53468391911816,51.446525854599 -3.53466158274757,51.4462455760292 -3.53515238710089,51.4462472420036 -3.53502669294255,51.4459773064013 -3.53491522826153,51.4456999931963 -3.5348530512776,51.4456468684053 -3.5351473093158,51.4454560282213 -3.53526390063187,51.4453699079 -3.535364638154,51.4452427319072 -3.53554264465139,51.4449715170358 -3.53566642950967,51.4447144961051 -3.53568987626346,51.4446000194935 -3.53568948762346,51.444542489765 -3.53562068910489,51.444422837714 -3.5354060336142,51.4440722615418 -3.53531446746181,51.4440024409009 -3.53526223103175,51.4439060354784 -3.53525176507025,51.4438062963453 -3.53519383069703,51.443752217836 -3.5351478279308,51.4436683155237 -3.5348080495232,51.443661976767 -3.53464638132401,51.4435643067635 -3.53455154583559,51.4434818527161 -3.53441544456134,51.4434566651286 -3.5343364399522,51.4434181435761 -3.53427871811339,51.4433703547026 -3.53438226182226,51.4432808998029 -3.53439819150317,51.4432429342599 -3.53435354393367,51.4431993787599 -3.53418980656208,51.4431637644767 -3.53412260647716,51.4431340788537 -3.53406114251815,51.4430171166631 -3.5340189295419,51.4429187819807 -3.5340317677132,51.4428699788963 -3.53409137721477,51.4428467243414 -3.53426102227012,51.4428427068154 -3.53428902716338,51.4428180681823 -3.53424758977061,51.4427853477719 -3.53413674218608,51.4427418500847 -3.53406262220994,51.4426331448133 -3.53406456948549,51.4425638081269 -3.53412626911844,51.4425144555916 -3.53418509609138,51.4424678383184 -3.53417940941011,51.4424256603955 -3.53401123419225,51.4423460540345 -3.53400563954281,51.4423065726027 -3.5340676974706,51.4422679136019 -3.53418400956723,51.4422196448839 -3.53431630235469,51.4421738637134 -3.534332742866,51.4421475779403 -3.53425782875122,51.4421036092134 -3.53418191418108,51.4420722401184 -3.53414405231063,51.4420152007744 -3.53416137442471,51.4419727217869 -3.53423503965842,51.4418521038972 -3.53423356311876,51.4418080733349 -3.53417736261062,51.4417207090166 -3.5341708639768,51.441654270511 -3.53418459834117,51.4415083662837 -3.53407655022363,51.4413749336947 -3.5340391458394,51.4412890310015 -3.53403412858581,51.4410544639554 -3.53414250596994,51.4409819370561 -3.53412728831027,51.4407439074423 -3.53431028750396,51.4406218587145 -3.53438633391186,51.4405723182859 -3.53444467337601,51.4405077270753 -3.53452448628346,51.4403582619903 -3.53457237956155,51.4403288676975 -3.53468513826495,51.440298624325 -3.53475050161026,51.4402312442316 -3.53489026495394,51.4401961527745 -3.53490483549234,51.4401141550617 -3.53500640944111,51.4399697974722 -3.53499483278497,51.4398369010014 -3.53501514891845,51.4397988779459 -3.53512909377518,51.4397226812077 -3.53515740860806,51.4396225232914 -3.53519888458653,51.4395716374415 -3.53532309163626,51.4395007896609 -3.53538182170724,51.4394514762589 -3.53547014903298,51.439425058182 -3.53560007022191,51.4393936898991 -3.53562988535149,51.4393807136891 -3.53583176891112,51.4392665964681 -3.53594132335702,51.4391869503177 -3.53600528497323,51.4391627385363 -3.53627596094222,51.43908358791 -3.53632293955788,51.4390658922377 -3.53635527004257,51.4390429939937 -3.53643743078204,51.438963706346 -3.53655353028542,51.4387787031117 -3.53661977752216,51.4386106248201 -3.53667732533539,51.4385226699349 -3.53677058801541,51.4384737115934 -3.53686545420535,51.4384266205493 -3.5368982405183,51.4383749487493 -3.53689680613263,51.4382050607073 -3.53699566788217,51.4381038884385 -3.5370941425994,51.4379947197637 -3.53727930736151,51.4378987984753 -3.53727752877583,51.4377575924364 -3.53724297069667,51.4376717441865 -3.53718871023036,51.4375573859317 -3.53701464512335,51.4374292268605 -3.53695581146414,51.4373481911596 -3.53683992004917,51.4372813883317 -3.53671783157809,51.4371147894783 -3.53664528685032,51.4370564079261 -3.5365118112313,51.4369781478963 -3.53649867533769,51.436972027208 -3.53647225404371,51.4369588894506 -3.53648487700349,51.4369497343638 -3.53665883801653,51.4368170121864 -3.53691077366558,51.436650095675 -3.53703887203166,51.4365647217836 -3.53683860039653,51.4364720553385 -3.53649134830308,51.4363687292674 -3.53616546551385,51.4362623363393 -3.5359513026065,51.4361833353386 -3.53587273165317,51.4361573948375 -3.53586217071553,51.4361431499264 -3.53582428167992,51.4360852130902 -3.53588713116241,51.4359431594497 -3.53591105594081,51.4358430596829 -3.53591152140685,51.4357261862805 -3.53595111842328,51.4356618406943 -3.53615463954668,51.4355970549331 -3.5365070841181,51.4354665792952 -3.53744902454606,51.4350693772871 -3.537847162218,51.4349292187445 -3.53836721644649,51.434735408637 -3.53875163733627,51.434572053144 -3.53874721804163,51.43456761587 -3.5386092415878,51.4344435697628 -3.53831243182692,51.4342172370823 -3.53785468077719,51.4338680562847 -3.53780045064229,51.433796849483 -3.53780613959402,51.4337931788142 -3.53785111770914,51.4337620237787 -3.53794406616403,51.4337040788578 -3.53818399285253,51.4335651851343 -3.53825266791152,51.4335085476033 -3.53829807237804,51.433447720102 -3.53644561440704,51.4329926770299 -3.53546352458485,51.4327932957386 -3.53483668898389,51.4326783438909 -3.53475134349363,51.4326659762881 -3.53439434108946,51.4326140138348 -3.53201944656691,51.4322367582413 -3.53175902717052,51.4321925161457 -3.53154899828822,51.4321512103017 -3.53133152668647,51.4321001124119 -3.53088787455237,51.431953889284 -3.53020579276447,51.4317362519252 -3.53014617574774,51.4317163539739 -3.52900182692858,51.431309484314 -3.52844848270126,51.4310676830174 -3.52792293647559,51.4308802649628 -3.5273215935998,51.4306641663324 -3.52685992605723,51.4304535257081 -3.52632982474687,51.4301717671421 -3.52576933183621,51.4298427557698 -3.52562996575772,51.4297644710985 -3.52526194634665,51.4295553031314 -3.52491180580179,51.4293628924985 -3.52477075267092,51.4292766273608 -3.52415043164119,51.4289205182506 -3.5233254920662,51.4284671878253 -3.52287392570435,51.428213160597 -3.5223003026684,51.4279193635852 -3.52194589265089,51.4277297863152 -3.5215066075817,51.4274558166195 -3.5211998324776,51.4272718217595 -3.52054952438475,51.4268360733615 -3.52013136380624,51.4265869959262 -3.51885574060864,51.4259452994269 -3.51883810418384,51.4259356390445 -3.5187225377961,51.4258769046479 -3.51849878119458,51.4257673413623 -3.51832921079102,51.4259862813782 -3.51787368857201,51.4264769087383 -3.51766850916034,51.4266665530774 -3.51744127951241,51.4268421882304 -3.51640326189599,51.4275543057988 -3.51524464097253,51.428275164049 -3.51501139989345,51.4283987317515 -3.51417032350812,51.4288456919968 -3.51359849369348,51.4291714036632 -3.51324739864123,51.4293431461611 -3.51289555993787,51.4294925125482 -3.51247077530661,51.4296526179644 -3.51213360172101,51.4297685301575 -3.51135106308073,51.4300322233054 -3.51057278082351,51.4303353201197 -3.51016265337705,51.4304620563761 -3.50981488447435,51.4305591298798 -3.5094743163358,51.4306156566908 -3.50918947210446,51.430657081014 -3.50885023865081,51.4307109810438 -3.50862349344849,51.430762793213 -3.50853755927763,51.4307824277522 -3.50833941181917,51.4308380168389 -3.5083121123994,51.4308374697419 -3.50755764287397,51.4308202044983 -3.50664103946838,51.4308104127156 -3.50564695447569,51.4308105985429 -3.50469798130846,51.4308263786344 -3.50405970061715,51.4308399629254 -3.50367834454454,51.4308358653518 -3.50343947858895,51.4307894854593 -3.50318899677344,51.4306964174519 -3.50301497270434,51.4305224493173 -3.50277206018965,51.4301793675243 -3.50255945890255,51.4299248956645 -3.50234368994555,51.4296641711762 -3.5017199984238,51.4292001096076 -3.5015292862579,51.4290882922455 -3.50140392067761,51.4290377576365 -3.50100203807981,51.4288881899203 -3.50038344620519,51.4287127171446 -3.50007534080861,51.428615974666 -3.49982633129448,51.4285237799129 -3.4993167154138,51.4282929685419 -3.49920033094933,51.4282521156732 -3.4990825847729,51.4282167636279 -3.49893217511459,51.4281908178484 -3.49868495780371,51.4281966762562 -3.49846696007805,51.4282183414604 -3.49834845718621,51.4282468250391 -3.49819287387383,51.4282838736881 -3.49775726989646,51.4284225776313 -3.49720872974851,51.4285824110668 -3.49677632975558,51.4286887079105 -3.49615526148271,51.4288323814454 -3.49557316523702,51.4289819363497 -3.49523140594382,51.4290420329906 -3.4945771754972,51.4291402727855 -3.49412393070724,51.4292260586486 -3.49366897180555,51.429302965782 -3.49319714025856,51.4293898840932 -3.49248493108815,51.4294744674035 -3.49204002792228,51.4295070995309 -3.4919510193757,51.4295127275952 -3.49192958889059,51.4295138995607 -3.49177018060875,51.4293027811986 -3.49147548281279,51.4289108918165 -3.49134688077825,51.4287606007062 -3.49129459232521,51.4287028328307 -3.49129035385239,51.4287037850816 -3.49113357492151,51.4287480315988 -3.49088056150135,51.4287107957643 -3.49054298261243,51.4286808375337 -3.49018475609878,51.4286359473596 -3.48926641168287,51.4285271551737 -3.48874982923209,51.428477979383 -3.48819932843677,51.4284508080886 -3.48773058853733,51.4284540607949 -3.48683395721641,51.4284401748682 -3.48641476325767,51.428468055152 -3.48595694956622,51.4285448777009 -3.48432724491935,51.42876959169 -3.48180438803508,51.4290919763272 -3.4811380534941,51.4291688111863 -3.48092913240596,51.4292038147312 -3.48082479095832,51.4292231124255 -3.48078337764742,51.4292335245511 -3.48047580561522,51.4293318027696 -3.47973265083756,51.4295714160768 -3.47879946861523,51.4298511787301 -3.47846145342023,51.429943542995 -3.47825813431279,51.4299721782992 -3.47804589882652,51.4299928344068 -3.47797706979276,51.4299990969369 -3.47761121857011,51.429673696222 -3.47754823242895,51.4296367333448 -3.47746290856031,51.4296243241336 -3.47712333382026,51.4295764643423 -3.47661865845149,51.4294955328481 -3.47614662883938,51.429444843739 -3.47568969947408,51.4294173363527 -3.47536705662924,51.4294016207524 -3.47504008475426,51.4293877572139 -3.47460766525672,51.4293626339176 -3.47426289357641,51.4293337088012 -3.47376016779835,51.4293130627936 -3.47339195899474,51.4293113996362 -3.47321445587836,51.4293388023991 -3.47293969178935,51.4293845073566 -3.47284367826173,51.4293974013594 -3.47274279137544,51.4293914771203 -3.4724705113784,51.4293337676006 -3.47216745204888,51.4292593640425 -3.4720703128624,51.429233525381 -3.47166332078824,51.4291469410218 -3.47136624260183,51.4290814499075 -3.47082951897451,51.4290324507468 -3.46954650485009,51.4289901115981 -3.46874620125548,51.4289730850977 -3.46735084782261,51.4289743833473 -3.46641337526565,51.428988816174 -3.46550491237846,51.4289201734439 -3.46503974412006,51.4289017182786 -3.46435957652382,51.4289102204866 -3.46365974138557,51.4289342468984 -3.46344212945234,51.428964833104 -3.46306757651834,51.4290837697973 -3.4624490637609,51.4293108420373 -3.46205965493445,51.4294587282938 -3.46177381994484,51.4295629798781 -3.46049666546771,51.4299313944144 -3.46012491868186,51.4300457923157 -3.45925859828805,51.4302615511904 -3.45869870453498,51.4303899739614 -3.45822813054043,51.4304740419722 -3.45800225138425,51.4305173066072 -3.45760190134962,51.4305942054483 -3.45712260460372,51.4306316308705 -3.45710828640255,51.4306327081561 -3.45700587330558,51.4307167776636 -3.45689110173629,51.4307703449751 -3.45660755489823,51.4309024235978 -3.45615691568571,51.4311175756754 -3.45577671854658,51.4312391668897 -3.45538458972756,51.4313474201629 -3.4549512648859,51.4314284054398 -3.45372568480227,51.4316126250863 -3.45345882892534,51.4316357123415 -3.45342697517422,51.4316747636894 -3.45346800849116,51.4318352615016 -3.45344593046593,51.4319991490234 -3.45340047620846,51.4321553251131 -3.45338103622165,51.4322229898331 -3.45332464662169,51.4323036976062 -3.4533394270799,51.4323620372687 -3.45347463374189,51.4324961057292 -3.45361684670882,51.4326715300666 -3.45377531649742,51.4328583490423 -3.4539757564262,51.4331004732002 -3.45404946748614,51.4332029406458 -3.45408235372459,51.4332411887766 -3.4543201564599,51.4335728358129 -3.45448757359652,51.4337685323873 -3.45470703568738,51.4340230047873 -3.45475705827965,51.4340106973324 -3.45484492596869,51.434151644717 -3.45501469747343,51.4344660657498 -3.45510755618859,51.43467446355 -3.45511354883618,51.4347696808181 -3.45515580341242,51.4348339718795 -3.45517397233585,51.4348607160338 -3.45526059060825,51.4350070722134 -3.45532730892056,51.435113221707 -3.45529613835779,51.4351289812195 -3.45526214742637,51.43514558506 -3.45536237212556,51.4352683984249 -3.45546018348294,51.4354011314402 -3.45561194888201,51.435559353729 -3.45574483628574,51.4357132251651 -3.45578458043933,51.4356947521448 -3.45579209861206,51.4357036483689 -3.45596781391581,51.4358912392291 -3.4561641466347,51.4360929568417 -3.45628006461547,51.4362092815729 -3.45663918458517,51.4365537102491 -3.45682856912479,51.4367195546143 -3.45685969329032,51.4367470357726 -3.45687278977895,51.4367522665423 -3.45686863564629,51.4367559142211 -3.45682399935435,51.436799619742 -3.45676771388527,51.4368425717353 -3.45675370823642,51.436853533046 -3.45699783890476,51.4369727583354 -3.45709323892111,51.4369437039809 -3.45724896767918,51.4370434418459 -3.4575335350603,51.4372143033427 -3.45782758544467,51.4373662585103 -3.45805856409003,51.4374820491967 -3.45825776730159,51.4375946388388 -3.45860350866278,51.437786402557 -3.45894141389042,51.4379629794697 -3.45901616220387,51.4380043010335 -3.45903381431779,51.4380184644682 -3.45927400355839,51.4381476229815 -3.4594544797773,51.4382605346361 -3.45980022827909,51.4384522039351 -3.45977970640319,51.4384857222007 -3.46001157637007,51.4385845069603 -3.46012852246144,51.438643281302 -3.46030154417856,51.4387418105006 -3.46073139122389,51.4390035385144 -3.46110703862364,51.4392767288726 -3.4613173978208,51.4394224359568 -3.46144455667549,51.4395297166249 -3.46155229295996,51.4396119772681 -3.4616700183506,51.4396950124458 -3.4618154847313,51.4397885794611 -3.46190794971511,51.4398458589687 -3.46215256586334,51.4399830476866 -3.46245983355975,51.4401429167796 -3.46246122874307,51.4401420001348 -3.46248173221317,51.4401525314369 -3.46254311916826,51.4401355844928 -3.46260744567616,51.440169840894 -3.46276891766449,51.4402667130656 -3.46297356650888,51.4404152760988 -3.4631858809048,51.4405735419985 -3.46326411563361,51.4406345941582 -3.46326244535929,51.4406751587112 -3.4632559045832,51.4406932196409 -3.4632059195413,51.4407513784881 -3.46338945092724,51.440821903813 -3.46350786271882,51.4408779588035 -3.46366165873225,51.4410091764857 -3.46422858144568,51.4414121161396 -3.46444136189695,51.4415883541083 -3.46447098347278,51.4417058391281 -3.46449360317317,51.4419159165852 -3.46456589016092,51.4420616357038 -3.46459712263799,51.4422294441748 -3.46455580883851,51.4426031252552 -3.46456179382165,51.4426974429711 -3.46457336904211,51.4427440449445 -3.46459528022617,51.44280220507 -3.46463692462146,51.4428430367205 -3.46466178661754,51.4428562108792 -3.46479107959044,51.4428924417277 -3.46481240311729,51.4430656777415 -3.46483174474709,51.4430843144704 -3.46572933136753,51.4437493009074 -3.46603212259935,51.4439496706704 -3.466138594413,51.443947439384 -3.46625163359127,51.4439280457921 -3.46656336187307,51.4438666102039 -3.46682050084557,51.4438085538974 -3.46702617288434,51.4442546580411 -3.46725671836141,51.4447104291705 -3.46726429519404,51.4447247184371 -3.46744847962956,51.4447224121498 -3.46758600792553,51.4447044182583 -3.46768456362708,51.4447697982474 -3.4678964287596,51.4450053730415 -3.46812377372515,51.4452759038763 -3.46824366637669,51.4454219238185 -3.46858208615886,51.4457890507149 -3.46871971655887,51.4457297912555 -3.4687351198418,51.4457143157498 -3.46874168794847,51.445697152501 -3.46873239803706,51.4456738960543 -3.46868706133583,51.4456069506829 -3.46878668759154,51.4455724403994 -3.46889848034856,51.4455584536106 -3.46893162820748,51.445559835709 -3.46897818306455,51.4456203829615 -3.46935698393443,51.4460365348618 -3.46969636345624,51.4463407182077 -3.46982039222709,51.4464416456925 -3.46994808440531,51.4465605971918 -3.47009552709425,51.4466738163865 -3.47033897031684,51.44690548481 -3.47050622529564,51.4470481215361 -3.47053736493317,51.4470755998539 -3.47083191597938,51.4469739150637 -3.47178851802216,51.4466462748792 -3.47210130823006,51.4465289854089 -3.4724714784588,51.4464065697342 -3.4729314817922,51.4462551548391 -3.47312761669284,51.4461815809496 -3.47342805641078,51.4460789162981 -3.47383235609814,51.4459443798412 -3.47398987652635,51.4459208234836 -3.47427510694862,51.4459280238793 -3.47467073049856,51.4459257432621 -3.47507670211382,51.4458432326998 -3.47539958758282,51.4457708453997 -3.47560850520209,51.4456891059067 -3.4757559478297,51.4456180281348 -3.47581791323785,51.445622641444 -3.4761066343037,51.4454732808176 -3.47622493510333,51.4454367304946 -3.47644291209304,51.4453674610592 -3.47675695996313,51.4452897877103 -3.477559824471,51.4451087723487 -3.47781306453565,51.4450624286494 -3.47798653153823,51.4449964143726 -3.4781518044938,51.4449448855407 -3.4782753293914,51.4449379338807 -3.47835853081074,51.4449314907577 -3.47847850936454,51.4448588675616 -3.47869578460108,51.4447680265118 -3.47893917304502,51.444684946833 -3.47939178069563,51.4445335097111 -3.47965312134703,51.4444699787809 -3.47979413461879,51.4444681983173 -3.48005263316457,51.4447203337648 -3.48022751845233,51.444790043105 -3.48050071653301,51.444825248469 -3.48049049286664,51.4449126681359 -3.48047353207208,51.4450998701601 -3.4804751118605,51.44541278387 -3.48049996168178,51.4457811408625 -3.4805387215741,51.4458679417164 -3.48070524997122,51.4459871994487 -3.48102610297559,51.4461198801462 -3.48127072096319,51.446210282051 -3.48143652525218,51.4463070733372 -3.48169748145435,51.4464989424966 -3.4820130878778,51.4467368667304 -3.48253171806694,51.4470188788708 -3.48275092811793,51.447123173969 -3.48289343607095,51.4472148652433 -3.48300306008146,51.4473096683644 -3.4832259168651,51.4475703383105 -3.4834467451513,51.4478562048892 -3.48354713574569,51.4479808809531 -3.48410056374956,51.4484935733309 -3.48457799886421,51.4489677601759 -3.48502091801521,51.4493577897248 -3.48550943613877,51.4497778046675 -3.48576282452036,51.4500021247522 -3.48585471423662,51.4501277151985 -3.48603650508139,51.4504492223085 -3.48618225827439,51.4507278558217 -3.48621822237245,51.4508596395854 -3.48626021585678,51.4510893356532 -3.48629764503691,51.4518432834238 -3.48629162163693,51.4521473039605 -3.48626972753661,51.4524011829362 -3.4862849419295,51.4525151605063 -3.48606451428124,51.4526412052241 -3.48605427041088,51.4527240404302 -3.48606487502916,51.4529189842291 -3.48605468316625,51.4531385537399 -3.48600856760228,51.4534907284108 -3.48595426021807,51.4538573910464 -3.48607391739071,51.4538621670023 -3.48614320629863,51.4537812791538 -3.48616296267449,51.4537684429886 -3.4862594335753,51.4537681191028 -3.48659394038478,51.4537854527355 -3.4871440763141,51.4537955556342 -3.48741657487214,51.453810976772 -3.48765546032283,51.4538546920529 -3.48810515061803,51.4540054960173 -3.48789176787377,51.4542168577358 -3.48763937764307,51.4545096209507 -3.48752238539863,51.4546306696729 -3.48723819950006,51.4549202403315 -3.4868107448266,51.4553186058973 -3.48656373481825,51.4555582598239 -3.48623185752377,51.4558888866342 -3.4857891956716,51.4563530664183 -3.48568405582852,51.4564812450236 -3.48552018515523,51.4566208651124 -3.48538973321799,51.4567736363482 -3.48535199733476,51.4568505269543 -3.48526954932961,51.4570160847671 -3.4851311942122,51.4573641238544 -3.48512495563605,51.4574388177568 -3.48511851279597,51.4575072214043 -3.48497127581762,51.4577608902561 -3.48464860902395,51.4585077123706 -3.48456477081529,51.4587183253821 -3.48453022989001,51.4588059633863 -3.48430525980099,51.4593708525338 -3.48428753086404,51.4595779322844 -3.48429412185038,51.4597810172004 -3.48435162166254,51.4599107301025 -3.48433446858377,51.460091642043 -3.48437829914384,51.4603779506262 -3.48441975550124,51.4609457583638 -3.48446494973288,51.4614531972202 -3.48450547355015,51.4619922492761 -3.48456503103248,51.4624960009043 -3.48460241827178,51.4628030670352 -3.48463546904985,51.4630679357872 -3.48464052774518,51.4630921438265 -3.48415431698207,51.4631459468028 -3.4838547125554,51.4631856993061 -3.4835304342469,51.463218571253 -3.48306534251807,51.4632172645542 -3.48134043593055,51.4631177143907 -3.48131593618184,51.4631162255384 -3.48084677549174,51.463077205374 -3.48037900671622,51.4630371757022 -3.48039899828351,51.4629434299877 -3.48031143109853,51.4629076781319 -3.48016551060064,51.4628879446456 -3.47986392681751,51.4628665820898 -3.47945893613016,51.4627196772917 -3.47908324616131,51.4625868754343 -3.47874975529505,51.462514669864 -3.47835313964155,51.462446765613 -3.47798864292808,51.4623920298576 -3.47759179822759,51.4623206198232 -3.47729908936233,51.462257785818 -3.47710919858453,51.4622179266494 -3.47705824062944,51.4625144216589 -3.47706583677965,51.4630142460967 -3.47710741115969,51.4634120578546 -3.47718978839101,51.4639559779033 -3.47733947255115,51.4647130965284 -3.47741095787861,51.4650997430345 -3.47750058176089,51.465467283278 -3.47770382623534,51.4655195591955 -3.47780403918174,51.4655461639565 -3.47850745388714,51.4657072901491 -3.47888151363731,51.4657852766316 -3.47881858961771,51.4660234902467 -3.47873712284698,51.466264633628 -3.47875322433283,51.4664064687151 -3.47876828157038,51.466424258014 -3.47899213669378,51.4664933526333 -3.4790128319284,51.4665092723024 -3.47900144143984,51.466601201537 -3.47893159818567,51.4668457053811 -3.47892991412786,51.4669734706319 -3.47900714161611,51.4670893631667 -3.47919807292951,51.467296504925 -3.47925370577412,51.4673686200844 -3.47929047333521,51.4674373772557 -3.47928248364116,51.4676344433555 -3.4793717444423,51.4676342161434 -3.47970573784407,51.4676326974412 -3.48003952762536,51.4676248875257 -3.48061546102208,51.467583453534 -3.48080894786559,51.4675576357336 -3.48137459347893,51.4675504889281 -3.48164208593002,51.4675848652717 -3.48184368812896,51.4676299628235 -3.48206603909922,51.4676523231688 -3.48205329700447,51.4682810482384 -3.48209266108082,51.468785056279 -3.48216282874722,51.4691699193989 -3.48217336543354,51.4693631554363 -3.48214958901813,51.4697393183379 -3.48254196910514,51.4698062745692 -3.48354430604917,51.4699941552091 -3.48402122178141,51.470090601581 -3.48406900830677,51.4700998854865 -3.4842150991605,51.4698534247177 -3.48423140081173,51.4698253501853 -3.48435422981532,51.4697509777462 -3.48454963488572,51.469648717191 -3.48478175184438,51.4695692744564 -3.48508258301914,51.4694782635638 -3.48549828599084,51.4693750082775 -3.48572525861751,51.4693163957508 -3.4861127056045,51.4694103718217 -3.48613770673854,51.4694235397966 -3.48615144228807,51.4695393335097 -3.48616120875759,51.4697047109053 -3.48624357946065,51.4698466043123 -3.48627825684343,51.4698506590513 -3.48657300168299,51.469882881396 -3.48677816126798,51.4699054510618 -3.48710953347658,51.4699103276576 -3.48746295316562,51.4698886740577 -3.48812601335498,51.4699082173795 -3.48839382670036,51.4698642738138 -3.48869861234785,51.4698073634969 -3.48892129238417,51.4697919499089 -3.48922554076232,51.4698060656141 -3.48946539865705,51.4697895335461 -3.48971316849261,51.4697899813926 -3.49036752184529,51.4697681796826 -3.49061636254701,51.4697614199334 -3.49094681031501,51.4696942894818 -3.49122232922738,51.4696647155016 -3.49136897131206,51.4696583548443 -3.49173884714846,51.4696536489567 -3.49186346425703,51.4696781337955 -3.49194195148841,51.4697005078672 -3.49209334779509,51.4697525198223 -3.49213971099355,51.4697618186025 -3.49254761369432,51.4697764039123 -3.49272469007636,51.4697750476918 -3.49308718417873,51.4697623411348 -3.49314616049913,51.4697615900001 -3.49317072157696,51.4697648732135 -3.49329287444809,51.4698010743699 -3.4933031952872,51.4698081349798 -3.49334681762862,51.4698643048038 -3.49337785294559,51.4699349282767 -3.49340916785351,51.4700540933305 -3.49341687497658,51.4702464663079 -3.49340236699782,51.4703329524079 -3.49332119109125,51.4703591578039 -3.49329859528225,51.470506967659 -3.49351410996693,51.4704465984906 -3.49373128606578,51.4703970839893 -3.49409318211924,51.4703223527994 -3.49429997572033,51.4702639799125 -3.49456872743309,51.4701580710091 -3.49478096411456,51.4700447008498 -3.49506269159099,51.4698963730307 -3.49527814469598,51.469837888863 -3.49555698959508,51.4697794049328 -3.49588964705771,51.469736504452 -3.49638623928631,51.4696897130857 -3.4967333719603,51.4696502214763 -3.49683423455034,51.4696525297502 -3.49688849171197,51.469768704195 -3.49734123401604,51.469963484193 -3.49760805367376,51.4700670543376 -3.49784488287418,51.4701755913542 -3.49808550209139,51.4703127578526 -3.49822577046175,51.4704198311698 -3.49828043491463,51.470461383993 -3.49838199617836,51.4705284089159 -3.49868016461931,51.4707080783433 -3.49870057272113,51.4707150095308 -3.49880146863105,51.4707182149329 -3.49888324020793,51.47079717798 -3.49913432588318,51.4709890456486 -3.49982355949655,51.4715018167234 -3.49997828071775,51.4716113099454 -3.50025033426765,51.4717400684618 -3.50058417627247,51.471910197906 -3.5009385521706,51.4720909406619 -3.50116621860245,51.4720934193086 -3.50126362530063,51.4722108368127 -3.50130365800739,51.4723344734017 -3.50113830414448,51.4726027776603 -3.50109537063144,51.4727885166365 -3.50102494689025,51.4729216579372 -3.50073368058704,51.4736546370442 -3.50061935388189,51.4739007119636 -3.50054494560964,51.4740463996955 -3.50052069049077,51.4741429902458 -3.50048741947391,51.4743555750951 -3.50051142274349,51.4745189716684 -3.50058688474879,51.4747562345341 -3.50071700505836,51.475298629922 -3.50080828552521,51.4755330833302 -3.50002513333315,51.4756267105407 -3.49977130183904,51.4756596245629 -3.49945005807138,51.4757005914066 -3.49887062189936,51.4757719183113 -3.49809755545446,51.4759526042278 -3.49756804063076,51.4760547509718 -3.49729821948467,51.4761687715771 -3.49694410893885,51.4762613932329 -3.4965599697045,51.4763615883017 -3.4960237400335,51.4765635999604 -3.49567136067879,51.4767093250992 -3.4955295155878,51.4767758614359 -3.49530546835062,51.476881202182 -3.49470219369214,51.4771937378695 -3.49442548872139,51.4773627665368 -3.49415203709792,51.4775442497282 -3.49373554650564,51.4777995617977 -3.49333602760659,51.4780438689745 -3.4931619398995,51.4781377819832 -3.49285814377746,51.4782738002041 -3.49249703614886,51.4783710816436 -3.49214530898194,51.4784501733773 -3.49134732824671,51.4785753959951 -3.49086155427495,51.4786949350315 -3.4904228141409,51.4787967032858 -3.4903485652992,51.4788174248636 -3.49003213031512,51.4789194353605 -3.48946981066122,51.4790732031 -3.48918377382099,51.4791352696323 -3.48905166780554,51.4791477356087 -3.48903166807815,51.479149787179 -3.48846724260251,51.4799941706894 -3.48795988507644,51.4807793031571 -3.48761859773527,51.4813115122946 -3.4875955496443,51.4813549553047 -3.48736564607265,51.4817705919345 -3.48723776623061,51.4820446932703 -3.48707168937279,51.4825171433274 -3.48703595684589,51.4827036845835 -3.48697916626619,51.4829948640937 -3.48697140703819,51.4830228306088 -3.48691574839156,51.4833014091588 -3.48680857435331,51.4836390748433 -3.48678584580651,51.4836924024728 -3.4866957736313,51.483891409051 -3.48658151704966,51.484142863407 -3.48649899654117,51.4843039272494 -3.48644752146521,51.4844044558507 -3.48601607860269,51.4851346785709 -3.48581175225778,51.4854942517472 -3.4856414336288,51.4857931612378 -3.48540857459428,51.4861629831525 -3.48510438448499,51.4867315734291 -3.4849932499929,51.4869443294459 -3.48489935953064,51.4872017269785 -3.48481902316531,51.4874779202911 -3.48477602790389,51.4877958929155 -3.48471159542866,51.48807548076 -3.48468350298564,51.4882746001083 -3.48458944608015,51.4888378301412 -3.48450577944005,51.4892785782212 -3.48443364750222,51.4896283838357 -3.48440103035644,51.4899552145264 -3.48429025705257,51.4906256341172 -3.48421626206527,51.4912290645086 -3.48419463784649,51.4915836239727 -3.48422816739503,51.49203826023 -3.48429088695651,51.4924627725172 -3.48441361230963,51.492913584166 -3.48325058433403,51.4929867385484 -3.48304570154774,51.4929794417989 -3.48274159232952,51.4929742990177 -3.48228152260119,51.4930016925696 -3.48185289135264,51.4930646464054 -3.48138156728467,51.4931443189958 -3.48103979776884,51.4931792032176 -3.48046330739421,51.49321705003 -3.48014620255767,51.4932544059757 -3.479942719319,51.4933306915418 -3.47946493426929,51.4935228107511 -3.47901986289441,51.4937056146309 -3.47870612348608,51.4938471157408 -3.47801064656998,51.4941247706953 -3.47760165774184,51.4942190144192 -3.47727145343378,51.4942959931938 -3.47723280216942,51.4943054698893 -3.47724181665499,51.4943161444044 -3.47745769375008,51.4945751162273 -3.47763701016539,51.4948200744269 -3.4776902872268,51.4949983890763 -3.47775048667636,51.4952107774315 -3.47784605090617,51.4954919411585 -3.47794900177575,51.4958251528477 -3.47807751790301,51.4961481523443 -3.4780850229855,51.4961561490245 -3.47813170067158,51.4961744390116 -3.47820565890664,51.4962795854883 -3.47838929522902,51.4966540307821 -3.47882922651891,51.4974749111616 -3.47904079178577,51.4977797819342 -3.47913965679227,51.4979826921117 -3.47922965068904,51.4984509124921 -3.47922566732293,51.4984599523893 -3.47918453971944,51.4984811473818 -3.47918198062468,51.4984901693072 -3.47921319465436,51.4987424780676 -3.47920932943411,51.4989349978642 -3.47922378727264,51.4990696617931 -3.47925927289072,51.4991420312799 -3.47922271294164,51.4992126120953 -3.4792076207436,51.4993261634742 -3.4791635263979,51.4994795463174 -3.47900716599024,51.4996766858673 -3.47898979985538,51.4997200564537 -3.47900326831445,51.4998241679321 -3.47898197963733,51.4998784642262 -3.47898067167128,51.4998820767602 -3.47904128573223,51.4998867056944 -3.47898119653777,51.5000744512015 -3.4788513925598,51.5006075647507 -3.47878568759236,51.5006695240069 -3.47869477374218,51.500884719072 -3.47861205535435,51.5010448831667 -3.47854402132071,51.5010790032043 -3.47837483311839,51.5014156482742 -3.47824130165695,51.5016538548803 -3.47799473562892,51.5020040613235 -3.47784537782974,51.5022856177398 -3.47783697087622,51.5022938141674 -3.47776739521604,51.5023243578919 -3.47776044174587,51.502333435236 -3.47768237530502,51.502501719216 -3.47733728231118,51.5030159710144 -3.47718140047884,51.5033163970924 -3.47704326251169,51.5035888209381 -3.47694194747553,51.5037547010486 -3.47677564748689,51.5040931047051 -3.47672718549372,51.5042402487462 -3.47671086702935,51.5043601088466 -3.47666889121937,51.5044433431392 -3.4766023615371,51.5048362276277 -3.4765873519576,51.5049084249938 -3.47627691200706,51.5048421221886 -3.47600978650545,51.5047816562947 -3.47581756791346,51.5047193489198 -3.47566770473575,51.5046295383716 -3.47558887238957,51.5045540275233 -3.47554570461014,51.5045123181227 -3.47552025233255,51.5045261233249 -3.47551734383202,51.5045243614403 -3.47525684747748,51.5046688683438 -3.47515924742976,51.5048139336148 -3.47502153450942,51.5049676827226 -3.47489342257865,51.5050582932032 -3.47493038978162,51.5051764935424 -3.47492439549912,51.5052593653408 -3.47488599367519,51.5053209784284 -3.47483438463593,51.5053746671299 -3.47472285449855,51.5054012409579 -3.4746256093108,51.5054213422121 -3.4742201549048,51.5054516105517 -3.47422302910458,51.5055405737146 -3.47420699774218,51.5056658231108 -3.47416632488248,51.5057454446811 -3.47424012909142,51.5062463272756 -3.47435581276723,51.5069291764464 -3.47439047621559,51.5071967268786 -3.47433385314141,51.5074077997239 -3.47427639610654,51.5075012070633 -3.47426456211631,51.5078960973461 -3.47428300008383,51.5080181267661 -3.47426681271354,51.508274629736 -3.47425339377685,51.5084403001735 -3.47423609691346,51.5091553963701 -3.47432202139871,51.509362077183 -3.4743526098848,51.5095513835313 -3.47434597374362,51.5096549425274 -3.47441281881376,51.5097637812322 -3.47445994193046,51.5098396048837 -3.47449225728062,51.5099461805994 -3.47410192374808,51.5099970243604 -3.4733904885946,51.5101012557207 -3.47291714926287,51.5101683308776 -3.4727676066421,51.5102250478905 -3.47254035796285,51.5103259810486 -3.47212715335419,51.5105631104298 -3.47182095766321,51.5107657212476 -3.47166005073713,51.5109602168183 -3.47154507304829,51.5111936020307 -3.47148797036164,51.5113867953718 -3.47144975472101,51.5117235923957 -3.4710893973565,51.511764969868 -3.47077186728712,51.5117932233275 -3.47062991610516,51.5118165794455 -3.47051325488901,51.5119979316629 -3.47034600306846,51.512128585143 -3.47004939407019,51.5123157886356 -3.46992444531144,51.5124207393336 -3.46979418251042,51.5124897967879 -3.46967097859773,51.5126047044308 -3.46938864903823,51.5127853433866 -3.46927822003464,51.5128911006818 -3.46912861145788,51.5130790678204 -3.46901375702656,51.5131839809732 -3.46892733791997,51.5132309116217 -3.468814392321,51.5133914496041 -3.46863449468518,51.5135798841574 -3.46854995243977,51.5136852267473 -3.4684655847195,51.5137959608441 -3.4684181249839,51.5138424943548 -3.46836322628297,51.5139717386686 -3.46826239673695,51.5141987397939 -3.4681941389338,51.5144963541583 -3.46816952799745,51.5146252193939 -3.46808422289257,51.5147512486828 -3.46787372004652,51.5150191771692</coordinates></LinearRing></outerBoundaryIs></Polygon>
  </Placemark>
