  <Placemark>
	<Style><LineStyle><color>ff0000ff</color></LineStyle><PolyStyle><fill>0</fill></PolyStyle></Style>
	<ExtendedData><SchemaData schemaUrl="#Wards__December_2019__Boundaries_EW_BFE">
		<SimpleData name="objectid">808</SimpleData>
		<SimpleData name="wd19cd">E05001079</SimpleData>
		<SimpleData name="wd19nm">Lobley Hill and Bensham</SimpleData>
		<SimpleData name="wd19nmw"></SimpleData>
		<SimpleData name="bng_e">424023</SimpleData>
		<SimpleData name="bng_n">560663</SimpleData>
		<SimpleData name="long">-1.62656</SimpleData>
		<SimpleData name="lat">54.94006</SimpleData>
		<SimpleData name="st_areashape">3885898.84599763</SimpleData>
		<SimpleData name="st_lengthshape">12123.0996730357</SimpleData>
	</SchemaData></ExtendedData>
      <Polygon><outerBoundaryIs><LinearRing><coordinates>-1.61538517901353,54.960364891435 -1.61593873798123,54.9599559118709 -1.61608372406742,54.9598198200928 -1.61635941980283,54.9595591785798 -1.61648867836019,54.9594383085914 -1.61684444229225,54.9591383907302 -1.6171500565463,54.958858077392 -1.61737729496732,54.958600874863 -1.61783365268,54.9579014133246 -1.61824030960464,54.957173854133 -1.61926649709949,54.955326004617 -1.61942761900269,54.9549642920995 -1.61950937377081,54.9547318737092 -1.61955937976746,54.9545621511259 -1.61961195646774,54.9542972109542 -1.61962919350099,54.9541211885458 -1.61980128709338,54.9535915164918 -1.61991643846363,54.9532980244425 -1.62002855897871,54.952998234371 -1.62011651163363,54.9527765246216 -1.62020422736246,54.9525800586858 -1.62028062808694,54.9524229947531 -1.62042210811067,54.9521628226713 -1.6205331636449,54.9519754124112 -1.62064560425731,54.9518049846663 -1.62077370427287,54.9516257128021 -1.62099027413334,54.9513469077626 -1.62117014879052,54.9511371616431 -1.62133583131912,54.9509580048352 -1.62149345801775,54.9508002932997 -1.62175181761576,54.9505530587045 -1.62206186335448,54.9502844231684 -1.62278224181212,54.9497179033963 -1.62303379381841,54.9495227500182 -1.62342220392336,54.9492283003962 -1.62362514509909,54.9490690193348 -1.62397111687223,54.9487968960901 -1.62424625140697,54.9485838450808 -1.62441133451661,54.9484666691726 -1.62456046301356,54.9483763034323 -1.62472382481379,54.9482779872127 -1.62488220550973,54.9482030121325 -1.62506398272066,54.9481173280535 -1.62524578938117,54.9480423345498 -1.62541811617806,54.9479763858585 -1.62561077770414,54.9479104983595 -1.62584884723677,54.9478339690488 -1.62618209587184,54.9477513531915 -1.62634954353521,54.9477114398343 -1.62666698114518,54.9476540180156 -1.62681548554348,54.947630215692 -1.62700774429928,54.9476074463253 -1.62724057467972,54.9475821046572 -1.62746234672328,54.9475693057543 -1.62767005412963,54.9475600571119 -1.62795274632459,54.9475573259217 -1.62821333720542,54.9475644079113 -1.62845058712042,54.9475759095913 -1.62860493818085,54.9475880573687 -1.62879680713462,54.9476075060605 -1.62896526819161,54.9476250870221 -1.62924745134349,54.9476636747385 -1.62957959769915,54.9477140916678 -1.62987263332382,54.9477625928556 -1.63038688811525,54.9478585670581 -1.63089638123502,54.9479688080948 -1.6313140091748,54.948060802934 -1.63173777620779,54.9481573968575 -1.63228456966506,54.9482857122267 -1.63299477475937,54.9484640152529 -1.6332315918951,54.9485240177386 -1.63347141608527,54.9485930121855 -1.63366911236022,54.9486519978098 -1.63370844116003,54.948616182158 -1.63385142643123,54.9485195888863 -1.6340823263483,54.9483665727569 -1.63431458848805,54.9482334132446 -1.63472244324263,54.9480126509722 -1.63502677985809,54.9478518577256 -1.63528235449404,54.9477312531675 -1.63544686155596,54.9476598761981 -1.63568500501282,54.9475734468042 -1.63593694318219,54.9475130197957 -1.63615430201536,54.9474759366806 -1.63634487711551,54.947454046203 -1.6367243857931,54.9474354115545 -1.63713663640998,54.9474258564009 -1.63746274902999,54.9474474874521 -1.63771398259583,54.9474653011078 -1.63801335402306,54.9475120052407 -1.63826895352888,54.9475595665797 -1.63850877991471,54.9476150756287 -1.63857275210625,54.947629639106 -1.63881256167847,54.9476869447239 -1.63902907476037,54.9477441810204 -1.63921267666278,54.9478112017298 -1.63938876124676,54.9476823587915 -1.63942333732997,54.9476591033097 -1.63967938706736,54.9474836919067 -1.63988028870132,54.9473576172888 -1.63982449630868,54.9473062464079 -1.63980304013969,54.9472729444632 -1.63979081082706,54.9472441609769 -1.63979741575674,54.9471964777616 -1.63981656010068,54.9471570061757 -1.63986690339925,54.9471122376179 -1.6399374712161,54.947080104703 -1.63978164397352,54.9470455079568 -1.63967567732884,54.9470200415133 -1.63958855988338,54.9469883421277 -1.63947344596283,54.9469349997022 -1.63953481081571,54.9468811896514 -1.63945593965465,54.9468054952101 -1.6394450795978,54.9467964797507 -1.63943577152703,54.9467865702622 -1.63942799134634,54.9467784625028 -1.63941879680099,54.946770349669 -1.63941100859464,54.9467631404945 -1.63940167645077,54.9467559258629 -1.63939248994043,54.9467469153395 -1.63938162188876,54.9467387975619 -1.63936923241628,54.9467279812592 -1.63924053965425,54.9466242907483 -1.63913052048345,54.946534040065 -1.63912425376748,54.9465295302979 -1.63912118040434,54.9465277239978 -1.63911813114141,54.9465232237366 -1.63911662738751,54.9465187271433 -1.63900852325303,54.9463872483969 -1.63907211499617,54.9462570848895 -1.63959172918455,54.9452360245767 -1.6396714527089,54.9450431143677 -1.63971642595387,54.9449075057066 -1.63975831714531,54.9447567059195 -1.63979135958346,54.9445590759142 -1.63979180874479,54.9445087694535 -1.63979224186674,54.9444602592665 -1.63978050766688,54.9442032060006 -1.63965601181267,54.9436304088262 -1.63954497528838,54.942948949898 -1.63961860523027,54.9427460488934 -1.63963004350851,54.9426903849775 -1.63963059714671,54.9426284004701 -1.63949413512961,54.9423584020716 -1.63947753191947,54.9422864849008 -1.63951344977571,54.9419397362817 -1.63957915007803,54.9419183698172 -1.63958772457644,54.941837453682 -1.63952378486877,54.941834570054 -1.63956168398915,54.9416118901983 -1.63970446303391,54.9413472067969 -1.63999601918811,54.9408663686767 -1.64013691122052,54.9406395008347 -1.64014958841464,54.9406178879449 -1.64019713916656,54.940538972708 -1.64028544520009,54.9404359221755 -1.64052064725179,54.9403270155418 -1.64063689564682,54.9402365340953 -1.64061983524458,54.9402301954147 -1.64064193011436,54.9402060042111 -1.64066708030864,54.9401854164378 -1.64074875822868,54.940118279736 -1.64082617932348,54.9400232824956 -1.64086414194323,54.9399658093181 -1.64090727391225,54.9398482521999 -1.64094565146684,54.9397441557651 -1.64097100920452,54.939700210933 -1.64104851771664,54.9395952410152 -1.64108018255719,54.9395369414068 -1.64123734829534,54.9394179220039 -1.64133786964515,54.939344462808 -1.64147968669042,54.939200244086 -1.64194637532777,54.9388475710153 -1.64235407169466,54.9386303760084 -1.64290408141473,54.9383857460454 -1.64347905860037,54.9381547528201 -1.64332251359659,54.9380302325519 -1.64295819590374,54.9377389093484 -1.64295662843724,54.9377416006008 -1.64291890254195,54.9377729327265 -1.64248956042425,54.9374427884482 -1.64319197446248,54.9370755293509 -1.64319668859629,54.9370809329958 -1.64320906013319,54.9370935461067 -1.64380491657067,54.9367690929133 -1.64371649715455,54.9367122386487 -1.64383259434151,54.9366514896484 -1.64370363753566,54.9365801429566 -1.64354522744755,54.9364924506865 -1.64322520069795,54.9363163372624 -1.64366569318068,54.9360974364136 -1.6442688116533,54.9358520574926 -1.64457914984668,54.9356966474961 -1.64473145402021,54.9356008762634 -1.64478644109552,54.9355525255432 -1.64492347793557,54.9354073902535 -1.64501009138059,54.9353330788219 -1.64520956057113,54.9351853398612 -1.64540092783816,54.9350807876991 -1.64552467499186,54.9350272463902 -1.64589881927957,54.9348872002493 -1.64596007897335,54.9348424598341 -1.64593305912572,54.9347246965994 -1.64572810335165,54.9347798009077 -1.64561877108149,54.9347893657486 -1.64554858479296,54.9347810763632 -1.64542066440954,54.9347825022666 -1.64538184844229,54.9347626254971 -1.64531512200791,54.9347121238438 -1.64527935518162,54.9346967480572 -1.64525919368206,54.9346921973367 -1.64520757034555,54.9346947423175 -1.64498233206054,54.9347587698708 -1.64451405569938,54.9349352816859 -1.64430913688165,54.9350003547115 -1.64421779571445,54.9350854325235 -1.64396386671753,54.9352068686978 -1.64393389750702,54.9352490044039 -1.64389751923599,54.9353028887379 -1.64389279992007,54.9353127570122 -1.64388796692587,54.9353208286297 -1.64388632824748,54.9353316035997 -1.64388935336088,54.9353387995183 -1.64389397064129,54.9353549835022 -1.64389396271549,54.9353558811924 -1.64389842979232,54.9353747596751 -1.64390614357906,54.9353900549738 -1.64391368975387,54.9354098401468 -1.6439197966045,54.9354323169584 -1.64392282966486,54.9354386142873 -1.64392432559033,54.9354440085227 -1.64392427007475,54.9354502968467 -1.64392422248428,54.9354556874805 -1.64392416696866,54.9354619758044 -1.64392256001868,54.9354691573183 -1.64392095306017,54.9354763397308 -1.64390989530634,54.935489783074 -1.64390520769691,54.9354960578922 -1.64390040641698,54.9355005351551 -1.64389572673054,54.9355059122827 -1.64389415149275,54.9355095012385 -1.64389257470193,54.9355130892911 -1.64388622196546,54.9355184615401 -1.64387677271765,54.9355247224728 -1.64387522127999,54.9355256156622 -1.64386746887196,54.9355291866051 -1.64385805134907,54.9355318540801 -1.64384709824008,54.9355336193631 -1.64383613564224,54.9355362823307 -1.64381420562784,54.9355425068607 -1.64381114084217,54.9355398029854 -1.6437721186497,54.9355432827208 -1.6437408345681,54.9355449877926 -1.64372215283795,54.9355476282326 -1.6436893316083,54.9355484310938 -1.64365190208989,54.9355465255633 -1.64361759929213,54.9355401369845 -1.64357236876802,54.9355328178928 -1.64354284351023,54.935524646012 -1.64351636713518,54.9355209760828 -1.64348053675775,54.9355127857826 -1.64344318670136,54.9355018969968 -1.64340892525435,54.9354910163189 -1.64336528599561,54.9354783119219 -1.64332173501411,54.9354700999279 -1.64329056220689,54.9354592282368 -1.64327503107314,54.9354546907122 -1.64325324247997,54.9354447459319 -1.64323146341546,54.9354339016649 -1.64318957523616,54.9354122188966 -1.64318803172935,54.9354122143871 -1.64317713426746,54.9354076903876 -1.64316314028395,54.9354040559517 -1.64315531393842,54.9354013381472 -1.64314594408769,54.9353986158322 -1.64313504662651,54.9353940927275 -1.64312259615775,54.9353904627971 -1.64311323426358,54.9353868418909 -1.64310552951693,54.9353850221518 -1.64309460821586,54.935383193911 -1.64308368691583,54.9353813656691 -1.64307739770196,54.9353795500651 -1.6430712364559,54.9353777357334 -1.64306029926067,54.9353777037682 -1.64305088967265,54.9353794725921 -1.64304316107053,54.9353803486151 -1.64301494819164,54.9353838597003 -1.64300566813597,54.9353856288992 -1.64299471346915,54.9353873941009 -1.64298839244827,54.9353891719484 -1.64298529592124,54.9353900615083 -1.6429789748995,54.9353918393553 -1.64297278340514,54.9353936184792 -1.64296335790707,54.935397183575 -1.64295714894791,54.9354007589723 -1.64294616402126,54.9354061176302 -1.64293517114378,54.9354123739771 -1.64292881034455,54.9354186438662 -1.64292255365836,54.9354276089964 -1.6429209544742,54.9354338928069 -1.64291296906163,54.9354491413683 -1.64290976117086,54.935462607573 -1.64290329695644,54.9354805555186 -1.64290171368009,54.9354850421515 -1.64290012087816,54.935490428267 -1.64290008111108,54.935494919413 -1.64289850578246,54.9354985083558 -1.64289539333927,54.9355011941921 -1.6428921608689,54.9355029819641 -1.64288904842492,54.9355056678003 -1.64288594393746,54.9355074550477 -1.6428828314927,54.9355101408837 -1.64287805551031,54.9355119241419 -1.64287494306465,54.9355146099777 -1.64286708489565,54.9355154856107 -1.64286246075993,54.9355145734766 -1.64285938808478,54.935512768166 -1.64271971446538,54.9354171337329 -1.64257694499753,54.9353223886879 -1.64257385799121,54.9353223796533 -1.64256451208481,54.9353169624262 -1.64255516618897,54.9353115442998 -1.64254747740457,54.9353079282467 -1.64253351535943,54.9353007011809 -1.64252416947176,54.935295283052 -1.64251174376836,54.9352888692314 -1.64248996343586,54.935278024827 -1.64245262981393,54.9352653385595 -1.64240443871196,54.9352436370658 -1.64238419552632,54.9352336957551 -1.64234997287879,54.9352183236281 -1.6423469018192,54.9352165174105 -1.64233599497118,54.9352128928183 -1.64232830622644,54.9352092767513 -1.64232048153868,54.9352065588977 -1.64231266326136,54.9352029424503 -1.64230177392946,54.9351975197837 -1.64229099662615,54.9351938955668 -1.64224426154382,54.935182079411 -1.64223642889562,54.9351802601406 -1.64222705119803,54.9351784354448 -1.6422130494129,54.9351756994881 -1.64220534474194,54.9351738805906 -1.6421975105445,54.9351720604145 -1.64218197323168,54.9351684222421 -1.6421726035127,54.9351656989535 -1.64216477728385,54.9351629810852 -1.64216170466851,54.935161175757 -1.64215708856476,54.9351593650075 -1.64213055634521,54.935147608901 -1.64208405297929,54.9351241158995 -1.64207930890919,54.9351223047719 -1.64206994717599,54.9351186837854 -1.64206073733812,54.9351123683059 -1.64204508647908,54.935106932559 -1.6420404863316,54.9351033255264 -1.64203587820865,54.9351006170822 -1.64203268560631,54.935097912787 -1.64203270155911,54.9350961156097 -1.6420281157984,54.9350907122934 -1.64202506070886,54.9350871097889 -1.64202355552147,54.9350826141141 -1.6420203788748,54.9350781126413 -1.64201886571958,54.9350745146564 -1.64201737007078,54.9350691203975 -1.64201587442241,54.9350637261385 -1.64201436924494,54.935059229565 -1.64201287359736,54.935053835306 -1.6420128975199,54.9350511404387 -1.64200978467631,54.9350394520537 -1.64200525474849,54.9350277604132 -1.64199146835673,54.9350007697266 -1.6419714096324,54.9349700772395 -1.64197141761016,54.9349691786508 -1.64196987412104,54.9349691741259 -1.64196681748564,54.9349655716154 -1.64196362489906,54.9349628673182 -1.64196056826472,54.9349592648076 -1.64195749567478,54.9349574594741 -1.64195443107125,54.9349547546533 -1.6419496934373,54.934952045826 -1.64194663038742,54.9349493419082 -1.64194200477951,54.9349484297345 -1.64193726072931,54.9349466195 -1.64193265263191,54.9349439110519 -1.64188907672484,54.9349240192082 -1.64183473322347,54.9348996045075 -1.64182845211823,54.9348968911488 -1.64181600192931,54.9348932610844 -1.64179894522194,54.9348869225702 -1.64178648705693,54.9348841910915 -1.64177865293704,54.9348823708884 -1.64176463532438,54.9348814320573 -1.64175371423495,54.9348796027974 -1.6417333995702,54.9348777468785 -1.6417318625073,54.9348768437573 -1.64172260645678,54.9348759179912 -1.64171012435742,54.934875881372 -1.64169919528013,54.9348749515944 -1.6416663825605,54.9348748553213 -1.64165543753055,54.9348757209198 -1.64162892984678,54.934875643137 -1.64160394967615,54.9348773670552 -1.64158358711588,54.9348809008458 -1.64157110501511,54.9348808642123 -1.64156324851328,54.9348817388671 -1.64155707144954,54.9348817207373 -1.64155075842488,54.9348826008201 -1.64154303787538,54.9348825781593 -1.64154302190821,54.9348843744379 -1.64153518136459,54.9348834537109 -1.64153364430606,54.9348825505872 -1.64152903624421,54.9348798421238 -1.6415242826808,54.9348789295586 -1.64152123563422,54.9348744293514 -1.64151973052083,54.9348699327717 -1.64151502643283,54.9348636304762 -1.64151355325756,54.9348555413391 -1.64150916881803,54.9348276786837 -1.64150766526044,54.934823183007 -1.64150613619333,54.9348213812943 -1.6415062000766,54.9348141952811 -1.64150473645405,54.9348052075598 -1.64150633583944,54.9347989237675 -1.6415079447733,54.9347917413911 -1.6415095361693,54.9347863561874 -1.64152072874335,54.9347576415431 -1.64152232169681,54.9347522563438 -1.64152239357294,54.9347441708433 -1.64152087248827,54.9347414714407 -1.64151937692068,54.9347360771754 -1.64151620036005,54.9347315756892 -1.64151316774159,54.9347252782999 -1.64151012713582,54.9347198794991 -1.64150552708309,54.9347162724461 -1.6415008054861,54.934711766424 -1.64149311690904,54.9347081512026 -1.64148377130699,54.9347027329935 -1.6414682502256,54.9346972975526 -1.64145412712195,54.9346936625395 -1.64143550954174,54.9346891166153 -1.64141519343852,54.9346872597401 -1.6414027129604,54.9346872230939 -1.64139023092167,54.9346871864419 -1.64137618143902,54.9346898401234 -1.6413605869157,54.934692489266 -1.64135272244719,54.9346942633945 -1.64132615096321,54.9347013724575 -1.64131208549349,54.9347058224102 -1.64130112451696,54.9347084851542 -1.6412916670593,54.9347156444752 -1.64128700309599,54.9347192243257 -1.64128065013977,54.9347245955405 -1.64127115272157,54.9347362460058 -1.64126801624618,54.9347416275666 -1.64126487977792,54.9347470082287 -1.64124746191868,54.9347667211375 -1.64121761801372,54.9347944823515 -1.64118303007444,54.9348204323954 -1.64110926843461,54.9348669308995 -1.64110303540577,54.9348732010695 -1.64109669039707,54.9348776736858 -1.64108724085909,54.9348839344022 -1.64107467080037,54.9348937794962 -1.64106845531132,54.9348982533904 -1.64106520682651,54.9349018364939 -1.64105898977444,54.934906310383 -1.6410511076989,54.9349098807659 -1.64104490820265,54.9349125574817 -1.64103703412378,54.9349152292751 -1.64103237011334,54.9349188091156 -1.64102758456718,54.9349214899867 -1.64101674504558,54.9349250516741 -1.64100887896212,54.9349268248771 -1.64100410940531,54.9349277094687 -1.64099636485493,54.9349303816402 -1.64098850032215,54.9349321557451 -1.64098231525838,54.934933035276 -1.64097599421202,54.9349348139175 -1.64096981070021,54.934935694351 -1.64096040112481,54.9349374630131 -1.64091197769916,54.9349418128025 -1.6409073456749,54.9349417991826 -1.6409010326341,54.9349426783331 -1.64087760544077,54.9349435080565 -1.64087142036474,54.9349443884804 -1.64085725078434,54.9349461431368 -1.64084952221938,54.9349470190204 -1.64084642567901,54.9349479085259 -1.6408337995844,54.9349496677189 -1.64082761450641,54.9349505481405 -1.64081974196576,54.9349532199243 -1.64081663742795,54.9349550071191 -1.64081045234874,54.9349558875398 -1.64080722783302,54.9349567766679 -1.6407994832635,54.9349594488269 -1.64079315420779,54.9349621251488 -1.64078849016948,54.93496570498 -1.64078215955135,54.9349683812967 -1.64077750351647,54.9349710625389 -1.64076803709356,54.9349792102662 -1.64076492610652,54.9349818960527 -1.64075857147528,54.9349872672352 -1.640750802887,54.934992634258 -1.64074598685754,54.9349989085781 -1.64074132281052,54.9350024884074 -1.640736657202,54.9350060682319 -1.6407287446204,54.9350132320539 -1.64072083848174,54.9350194972822 -1.64071462294029,54.9350239702596 -1.64070826984796,54.9350293423426 -1.64070204473592,54.9350347139032 -1.64069257108344,54.9350436694556 -1.64068789101965,54.9350490455613 -1.64068152992017,54.9350553153328 -1.64067360775024,54.935063377735 -1.64065947002103,54.9350759131112 -1.64063433912779,54.9350947046247 -1.64062488946343,54.9351009653047 -1.64061559179713,54.9351045305951 -1.64060615168923,54.9351098935883 -1.64059978900607,54.9351161633509 -1.64059510892084,54.9351215394529 -1.64059042082481,54.9351278141432 -1.64059039680423,54.9351305090102 -1.64058868373414,54.9351349961303 -1.64059031673293,54.9351394921993 -1.64059025267265,54.9351466791101 -1.64059022865205,54.935149373977 -1.64059172410702,54.9351547682533 -1.64059472458031,54.9351646591204 -1.6405977811047,54.9351682616652 -1.64060250265241,54.935172767722 -1.64060863016204,54.9351781756295 -1.6406116626696,54.9351844730409 -1.6406163762199,54.935189876787 -1.64062096823714,54.9351943824618 -1.64062248771649,54.9351970818708 -1.64062564175422,54.9352042782515 -1.64062869028388,54.9352087784854 -1.64063019374702,54.9352132750712 -1.64063317021674,54.9352258608042 -1.6406300256135,54.9352321400379 -1.64062845008749,54.9352357289512 -1.64062842606943,54.9352384238181 -1.64062684898234,54.9352420127268 -1.64062528947317,54.9352438044631 -1.64062046382297,54.9352509773618 -1.64061886427658,54.9352572611418 -1.64061419062537,54.9352617386514 -1.64060940656124,54.9352644204089 -1.64060630198909,54.9352662075981 -1.64060165391599,54.9352679902449 -1.64059841979974,54.9352697779513 -1.64059222822503,54.9352715560554 -1.64058591511595,54.935272436088 -1.64058281854384,54.9352733255867 -1.64057340886981,54.9352750942187 -1.64057340085984,54.9352759928072 -1.64056876879621,54.9352759791744 -1.64055471904669,54.9352786327605 -1.64054530937012,54.9352804013903 -1.64053590769553,54.9352812723295 -1.64052340944628,54.9352830327652 -1.64051568081538,54.935283907729 -1.64050937571405,54.9352838891691 -1.64049688467334,54.9352848408725 -1.64049057957187,54.9352848223117 -1.6404813154426,54.9352847950395 -1.6404703870901,54.9352837743941 -1.64046408198882,54.9352837558319 -1.64045945636824,54.9352828445004 -1.64045636780509,54.9352828354075 -1.64045161577863,54.9352819228049 -1.6404469997401,54.9352801119906 -1.64044070909678,54.9352782971442 -1.64041901882175,54.9352719447943 -1.64041427480311,54.9352701345005 -1.64037076474237,54.9352574294059 -1.64035509803922,54.9352537897201 -1.64033957534437,54.9352483532323 -1.6403177811672,54.9352393056206 -1.64030381955948,54.935232078299 -1.640294457965,54.9352284571759 -1.64028048835681,54.9352221275415 -1.64027114280064,54.9352167092397 -1.6402665588301,54.9352113058618 -1.640261957274,54.9352076987574 -1.64025424494044,54.9351924041269 -1.64025427700149,54.9351888106716 -1.64025586056911,54.9351843240733 -1.64025900522848,54.9351780448493 -1.64026224580099,54.9351753594574 -1.64026692750703,54.9351699824743 -1.64027159962625,54.9351655049735 -1.64027795280061,54.9351601329135 -1.64028108943783,54.9351547522773 -1.64028265697579,54.9351520619569 -1.64028592960262,54.9351457831092 -1.64028612995954,54.9351233246876 -1.64028143405677,54.9351161237563 -1.64027686456132,54.9351089240957 -1.64026753661913,54.9351017095198 -1.64025359756082,54.9350917864223 -1.6402225140761,54.9350710330659 -1.64020399265705,54.9350557065874 -1.64019310209845,54.9350502837275 -1.64018529362099,54.9350457694582 -1.64017761312738,54.9350412546668 -1.640169811112,54.9350358418033 -1.64016200264812,54.9350313266339 -1.64015739466398,54.9350286181186 -1.64014958463429,54.9350241038424 -1.64013868763283,54.9350195795706 -1.64013252658033,54.93501776509 -1.64011854906119,54.9350123331267 -1.64009198547992,54.935004170031 -1.64003913034267,54.9349860473997 -1.64000806274965,54.9349778701111 -1.64000485425181,54.9349769629396 -1.63999714170814,54.9349760415921 -1.63998928358378,54.9349769170391 -1.63998619504495,54.9349769079343 -1.6399768030153,54.9349768802465 -1.63996740140923,54.9349777502432 -1.63996275979665,54.9349786351712 -1.6399533597425,54.9349795060701 -1.63994549360021,54.9349812792042 -1.63993454047054,54.9349830441348 -1.6399283393259,54.934985720789 -1.63991737015236,54.9349892819964 -1.63990022390472,54.9349928240901 -1.63989390279978,54.9349946026753 -1.63988447711053,54.934998168431 -1.63987350792951,54.9350017296344 -1.63985166388501,54.9350124449676 -1.63982337230217,54.9350249385056 -1.63979826355545,54.9350410349747 -1.63979360744465,54.9350437161791 -1.63978571875896,54.9350481850728 -1.63977471589741,54.9350553388192 -1.63976850826267,54.9350589140582 -1.6397653956401,54.9350615998144 -1.63975596189435,54.9350660641485 -1.63974655223312,54.9350678327166 -1.63973560709947,54.9350686990408 -1.63970117045672,54.9350775808723 -1.63964961000225,54.9350873107796 -1.63962304597506,54.9350935208809 -1.63957768822857,54.9351005741238 -1.63954960477913,54.935104084787 -1.63951984026954,54.9351084881952 -1.63948712320496,54.9351119851665 -1.6394761619911,54.9351146477455 -1.63946364768518,54.9351182043506 -1.63945267843234,54.9351217655159 -1.63945113337697,54.9351217609543 -1.63943230752405,54.9351261966355 -1.63942287372481,54.9351306609437 -1.63941668055833,54.9351324389832 -1.63940570326051,54.9351368987327 -1.63939318090405,54.9351413539188 -1.63938064247814,54.9351476053818 -1.63936966518001,54.9351520642294 -1.6393634559323,54.935155639443 -1.63935091101974,54.935162789496 -1.63934302873707,54.9351663597677 -1.63933205142939,54.9351708186119 -1.63932893876798,54.9351735043569 -1.63932260153869,54.9351770791904 -1.63931792930163,54.9351815575532 -1.63931002290335,54.9351878226894 -1.63930379913503,54.9351931941827 -1.63929277202663,54.9352030436503 -1.63927383359183,54.9352200559497 -1.63927227245296,54.9352218485626 -1.63926916782328,54.9352236357177 -1.6392676082447,54.9352254283351 -1.6392628145003,54.9352290077248 -1.63925970986962,54.9352307948796 -1.63925661483147,54.9352316843491 -1.63924875664745,54.9352325588496 -1.63924566004825,54.9352334483143 -1.63923781145687,54.9352334251289 -1.63923472289805,54.9352334160049 -1.63922378574788,54.9352333836946 -1.63921916017039,54.9352324714174 -1.63921607317231,54.9352324622975 -1.63921131961241,54.9352315505405 -1.63920671167073,54.9352288419893 -1.63919735017892,54.9352252207818 -1.63919273420533,54.9352234099198 -1.63918645323205,54.9352206964249 -1.63918183569078,54.9352188864565 -1.63917557080307,54.9352143757842 -1.63917404338089,54.9352125749456 -1.63916469798059,54.9352071565589 -1.63915539277128,54.9351972479253 -1.63915080092273,54.9351927421953 -1.63914467205198,54.9351873342098 -1.63913686367655,54.9351828189747 -1.63912598930929,54.9351755997412 -1.6391135890891,54.935166579672 -1.63910423565644,54.9351620607675 -1.63909809876116,54.9351575504695 -1.6390857065972,54.935147631809 -1.63907636121659,54.935142214314 -1.6390685673783,54.9351359027918 -1.63906243049123,54.9351313924919 -1.63905309472321,54.9351250764113 -1.63904068493004,54.9351169549184 -1.63902979606876,54.9351115328576 -1.63901890565789,54.9351061098927 -1.63900495238411,54.9350979838336 -1.63899405549494,54.9350934594594 -1.63894433756199,54.9350699557497 -1.63889921149877,54.9350509568609 -1.63889614061196,54.9350491505562 -1.63886974547301,54.9350364955289 -1.63885883899865,54.9350328706248 -1.63883705333462,54.9350229241594 -1.63882460338458,54.935019293789 -1.63881062603909,54.9350138625741 -1.63879664870555,54.935008430459 -1.63878421485775,54.9350030038063 -1.63875456302268,54.934994831283 -1.63871111016169,54.9349758372733 -1.63866598668647,54.9349567484435 -1.63866445774518,54.9349549466953 -1.63865510441502,54.9349504277561 -1.63864898526542,54.9349441211618 -1.63864118348933,54.9349387073018 -1.63863337521356,54.9349341929329 -1.63862878345594,54.934929687183 -1.63862250256896,54.9349269736588 -1.63859925162742,54.9349224135889 -1.63856957574069,54.9349169349884 -1.63856174981285,54.9349142168884 -1.63854621295056,54.9349105773529 -1.6385259064812,54.9349078223097 -1.63851511350267,54.9349059940364 -1.63850263945562,54.9349050584994 -1.63849635052381,54.9349032435571 -1.63848541346684,54.9349032111804 -1.63848386842026,54.9349032066066 -1.63846044925983,54.9349031372758 -1.63844643172916,54.9349021971636 -1.6384385912638,54.9349012753383 -1.63842302062866,54.9349012292373 -1.63841206745337,54.9349029940306 -1.63841052240682,54.9349029894559 -1.63840267388246,54.9349029662166 -1.6383964887658,54.9349038456159 -1.63839017566723,54.9349047255346 -1.63838553558859,54.9349056104069 -1.63838090356995,54.9349055966908 -1.63837460659144,54.9349046794319 -1.63836831766566,54.934902864483 -1.63836214060081,54.9349028461908 -1.63835430013735,54.9349019243601 -1.63834658764781,54.9349010029079 -1.63832471197485,54.934900938122 -1.63831686189033,54.9349009148726 -1.63830438134845,54.9349008779082 -1.63827941714343,54.9349008039665 -1.63826695271919,54.9348989707202 -1.63826387225,54.9348980629832 -1.63824050952106,54.934891705289 -1.63823742905305,54.9348907975513 -1.63823267555762,54.9348898857561 -1.63822496307335,54.9348889642961 -1.63821866610121,54.9348880470292 -1.6382077451691,54.9348862183495 -1.63820157617131,54.9348853014608 -1.63819373571519,54.9348843796198 -1.6381891117557,54.9348834682066 -1.63818126973958,54.9348825463601 -1.638165700673,54.9348825002307 -1.638157842527,54.9348833755594 -1.63813287989423,54.9348833015921 -1.6381282543837,54.9348823892734 -1.63812350246057,54.9348814765799 -1.63812042199609,54.9348805688393 -1.63811733346551,54.934880559687 -1.63811425299318,54.9348796528448 -1.63811257997413,54.934879647887 -1.63810950913714,54.9348778415624 -1.63810797215002,54.9348769392941 -1.63810335626805,54.9348751283907 -1.63810336433462,54.9348742298024 -1.63810015588967,54.9348733225806 -1.63809863503629,54.9348706231355 -1.63809710768514,54.9348688213848 -1.63809557876541,54.9348670205279 -1.63809251598893,54.9348643165132 -1.63808779476779,54.934859810359 -1.63808321920776,54.9348535083104 -1.63808169028926,54.9348517074534 -1.63808017100672,54.9348490071141 -1.63807865977537,54.9348454099837 -1.63807547397429,54.9348418069916 -1.63807244190151,54.9348355095171 -1.63807096294059,54.9348283180332 -1.63806790667554,54.9348247154249 -1.6380679228022,54.9348229191468 -1.63806640351364,54.9348202197059 -1.63806169036832,54.9348148149624 -1.63805707448775,54.9348130049558 -1.63805233714142,54.9348102959768 -1.63804618584756,54.9348075828069 -1.63803991308868,54.9348039706643 -1.63803067977996,54.9348003497462 -1.63802287161043,54.9347958344394 -1.63802134269696,54.9347940335816 -1.63801198141912,54.9347904122827 -1.63800585432946,54.9347850042443 -1.63799958157792,54.9347813920997 -1.63799177991615,54.9347759790965 -1.63798410779834,54.9347705655783 -1.63797937852353,54.9347669589067 -1.6379732514501,54.9347615499681 -1.63796853024698,54.9347570447077 -1.63796393858674,54.9347525389327 -1.63795459345596,54.9347471213513 -1.63794692941101,54.934740810141 -1.63794066474225,54.9347362994049 -1.63793451997753,54.9347326876363 -1.63792826337398,54.9347272792099 -1.63789876566649,54.9347164119955 -1.63788939635522,54.934713688377 -1.63788157051543,54.9347109702331 -1.63787233073214,54.9347082478959 -1.63785358403012,54.9347037010394 -1.63784574205802,54.9347027791713 -1.63783647806932,54.9347027516977 -1.63782401217653,54.9347009175028 -1.63781141023073,54.934699982414 -1.63780062541662,54.9346972554889 -1.63779434463259,54.9346945410234 -1.63778818530109,54.9346927264286 -1.63778499953916,54.9346891234289 -1.63777733553292,54.9346828122079 -1.63775866150783,54.934670179839 -1.63775715032096,54.9346665818059 -1.63775565527528,54.9346611874947 -1.6377541506029,54.9346566908686 -1.63774943099831,54.9346521856043 -1.6377479190598,54.9346484977076 -1.63774330321338,54.9346466876891 -1.63773700629162,54.9346457703973 -1.63772931000935,54.9346430526279 -1.63772302923088,54.9346403390572 -1.63771365187465,54.9346385140134 -1.63770440248389,54.9346366902471 -1.63769348165422,54.9346348606225 -1.6376840962165,54.9346339350633 -1.63767472693997,54.9346312114282 -1.63766534958012,54.9346293872792 -1.63765610983119,54.9346266649255 -1.63764365204013,54.9346239330224 -1.63763274736338,54.9346203071144 -1.63762028957599,54.9346175752089 -1.63761092837755,54.9346139538791 -1.63760464761198,54.9346112403023 -1.63757207773116,54.9345985666666 -1.63756579697076,54.9345958530878 -1.63755644386161,54.9345913331655 -1.63755030723433,54.9345868227891 -1.63754249107543,54.9345832069383 -1.637533137972,54.9345786870142 -1.6375099519898,54.9345669398266 -1.63749432622483,54.9345588077292 -1.63748343773345,54.9345533855297 -1.63747257347985,54.9345452684629 -1.63745709185818,54.9345353404626 -1.637443171431,54.9345236207693 -1.63743084296575,54.9345065150257 -1.63742005145917,54.9344903124565 -1.63740624418105,54.9344660161168 -1.63740166877667,54.9344597140423 -1.63739695575839,54.9344543101713 -1.63739696384105,54.934453411583 -1.6373924207626,54.9344435160535 -1.63738942923645,54.9344327265185 -1.6373878208753,54.93442553554 -1.637387885522,54.9344183486305 -1.63739117470856,54.9344102735822 -1.63739433592995,54.9344021972552 -1.63739437632729,54.9343977061108 -1.63739595367628,54.9343941172437 -1.63739597791619,54.9343914223773 -1.63739911333473,54.9343860409119 -1.637407003711,54.934381573076 -1.63741322917838,54.9343762007852 -1.63742111799044,54.9343717329438 -1.63742266953725,54.9343708389381 -1.63742589564175,54.9343699499044 -1.63743363224201,54.9343681765486 -1.63744457722969,54.9343673104314 -1.63747740566155,54.9343656115656 -1.63748512610551,54.9343656344846 -1.63749452762683,54.9343647637811 -1.63749607109134,54.9343647683628 -1.63750393721984,54.934362995387 -1.63751180986698,54.9343603238178 -1.63751957070091,54.9343558546914 -1.63752900452943,54.9343513905304 -1.63753058185613,54.9343478025602 -1.63753370917317,54.9343433196796 -1.63753698373318,54.93433704091 -1.63753858454397,54.9343306673111 -1.63753865723403,54.9343225827117 -1.63753395229272,54.9343162802575 -1.63753243306055,54.9343135808098 -1.63752782535127,54.9343108712961 -1.63751999961712,54.9343081531289 -1.63751231956813,54.9343036390676 -1.63750450347729,54.9343000223156 -1.63749360698402,54.9342954978067 -1.63747960428742,54.9342927613003 -1.63747652544487,54.934291853548 -1.63746869163715,54.9342900339658 -1.63746561930739,54.9342882285188 -1.63743286365177,54.9342818427821 -1.63741731907191,54.934279100792 -1.63740794989082,54.9342763780348 -1.63740012417193,54.9342736598599 -1.63737676195646,54.9342673019994 -1.63737369119335,54.9342654965547 -1.63736753847156,54.9342627833456 -1.63736124970385,54.9342609674459 -1.63735188861464,54.9342573460961 -1.6373503451544,54.9342573415125 -1.63734728091642,54.9342546374742 -1.63733790366212,54.9342528132999 -1.6373317509448,54.934250100089 -1.63731146915811,54.934244649078 -1.63727254624309,54.9342373472672 -1.63726470437828,54.9342364253616 -1.63725853550517,54.9342355084251 -1.63725069520169,54.9342345865232 -1.63723976641126,54.9342336563449 -1.63723359753918,54.9342327394071 -1.63722112373795,54.9342318037387 -1.63721481880849,54.9342317850082 -1.6372054334789,54.934230859412 -1.63719770498268,54.9342317341651 -1.63717583124737,54.9342316691773 -1.6371430029071,54.9342333688604 -1.63711647950201,54.9342350863719 -1.63710244606488,54.9342359432815 -1.63710090104488,54.9342359386901 -1.63709768459419,54.9342359291316 -1.63709150919614,54.9342359107795 -1.63707901921757,54.9342367722733 -1.6370571034833,54.934241198404 -1.63704459888964,54.9342438561768 -1.63703518929662,54.9342456254339 -1.63702113967962,54.9342482786122 -1.63699614353548,54.9342517978619 -1.636988295143,54.9342517745314 -1.63697582134167,54.9342508388379 -1.63694469833273,54.9342489499861 -1.63693224071989,54.9342462171115 -1.63692132002745,54.9342443883162 -1.63690885431581,54.9342425549261 -1.63689164488323,54.9342389102047 -1.63686210581356,54.9342325338783 -1.63684810474459,54.9342297973038 -1.63684027098677,54.9342279767826 -1.63682472646207,54.9342252356153 -1.63681534115153,54.9342243090905 -1.6368028754513,54.9342224756895 -1.63676550421763,54.9342142788201 -1.63670790797676,54.9341943443037 -1.63665503931473,54.9341780164789 -1.63665196703948,54.9341762101128 -1.63658988476292,54.9341400916619 -1.63637686268819,54.9340469265113 -1.63610136358042,54.933961570673 -1.63555451645934,54.9338584262903 -1.63527235691342,54.9336562623052 -1.63517436040422,54.9336218321756 -1.63507317051772,54.9335846965855 -1.6350592104705,54.933577468661 -1.63502979421894,54.9335576166599 -1.63502051485941,54.9335450119437 -1.63501755814752,54.9335306297983 -1.63501446221868,54.9335171449506 -1.63501154462806,54.9334982707577 -1.63500870181933,54.9334713110721 -1.63500723817782,54.9334623232673 -1.63499509981381,54.9334245560427 -1.63498886682855,54.933416452607 -1.63497342880899,54.9334020322753 -1.63495629337854,54.9333903027009 -1.63493467780782,54.9333757749343 -1.63491134126582,54.9333667217617 -1.63484593307982,54.933343168676 -1.63482106814984,54.9333323146132 -1.63475892532623,54.933303381371 -1.63472626948099,54.9332862146162 -1.6346720074872,54.9332537113458 -1.63461607264183,54.933221203946 -1.63459438491074,54.9332148505975 -1.63456473436717,54.9332066762037 -1.63453519042846,54.9332011979552 -1.63451641256849,54.9332002431677 -1.63448835489346,54.9332010578356 -1.63445707118441,54.9332027605567 -1.63444613477768,54.9332027278324 -1.63436811238416,54.9332078851114 -1.63426035121181,54.9332147487371 -1.63415889466515,54.9332216320463 -1.6340729899072,54.9332303581788 -1.63401055349496,54.9332337646905 -1.63392624929982,54.9332362070329 -1.63381372827365,54.9332430568986 -1.6337278806557,54.9332454944772 -1.63362954503418,54.9332487931557 -1.633565612693,54.9332468050823 -1.63349076031195,54.9332429869916 -1.6333940090017,54.9332417980749 -1.63326443870315,54.9332414091743 -1.63319262401802,54.9332429898896 -1.63316616038267,54.933238419168 -1.6331381666207,54.9332320466229 -1.63311172757508,54.9332247801292 -1.63305716527388,54.9332111406769 -1.63295911644536,54.9331829972634 -1.63280646461331,54.9331457062403 -1.6327644641775,54.9331374951827 -1.63267875608567,54.9331246605388 -1.6326662911509,54.9331228258355 -1.63256487883115,54.9331108424999 -1.63254931735927,54.9331098970823 -1.63250093853783,54.9331097515544 -1.63248224926932,54.9331132888772 -1.63245401287019,54.9331194924088 -1.63242589778344,54.9331265949104 -1.63235244960283,54.9331380522433 -1.63232286339401,54.9331370645883 -1.63229316563022,54.9331342802661 -1.63226670058965,54.9331297093437 -1.63225424544057,54.9331269760161 -1.63222461178399,54.9331170056746 -1.63219821399852,54.9331052469468 -1.63217180644676,54.9330943876939 -1.63216873452859,54.9330925812215 -1.63212212899383,54.9330672869508 -1.6320770677208,54.9330419074518 -1.63200404817587,54.9330066524475 -1.63200251144282,54.9330057492068 -1.63198232173058,54.9329904164838 -1.63197922519019,54.9329913048681 -1.63197456061775,54.9329948843628 -1.63197130325085,54.9329993667082 -1.63196662069407,54.9330047424727 -1.63195556113847,54.9330181847305 -1.63193046866961,54.9330324824199 -1.63191005563222,54.9330414043327 -1.63190385586909,54.933044081486 -1.63187724306315,54.9330556796477 -1.63184594448471,54.9330591788749 -1.63183193465282,54.9330573394299 -1.63181795923917,54.9330519074385 -1.63180553699632,54.9330455815152 -1.63180079217359,54.9330437708898 -1.63177916244181,54.9330311287285 -1.63175894814418,54.93301849083 -1.63169687190458,54.9329823691167 -1.63166722359241,54.9329741949183 -1.63163769504264,54.9329669187867 -1.63160492554669,54.93296232781 -1.6315722609139,54.9329604329753 -1.63151140096655,54.9329602494098 -1.63146298785702,54.932963696912 -1.63143801039113,54.9329654178807 -1.63136922683551,54.9329732960443 -1.6313661385033,54.9329732867249 -1.63129276590839,54.9329766579395 -1.63128027638454,54.9329775188539 -1.63119599877252,54.9329772644457 -1.63118031763341,54.9329754207783 -1.63114138796943,54.9329690147533 -1.63110556467323,54.9329608208734 -1.63105576453183,54.9329471957974 -1.63100289256815,54.9329317633003 -1.6309701560866,54.9329235796029 -1.63088295493531,54.9329053493058 -1.6308252904621,54.9328934957973 -1.63080652104086,54.9328916427483 -1.63077384826285,54.932890645387 -1.63070993304073,54.9328868586374 -1.63060999099469,54.9328829638176 -1.63054296274968,54.9328818625029 -1.63051802493792,54.9328790921417 -1.63047742410433,54.9328726808486 -1.63045727226988,54.9328672291174 -1.63042301728204,54.932856345742 -1.63038877055726,54.9328445637702 -1.63033740109332,54.9328336276875 -1.6303311047315,54.9328327100222 -1.63028598373142,54.9328280822091 -1.63013478952022,54.9328006733594 -1.62928551627204,54.9328331349457 -1.62905322701492,54.9328090730629 -1.62888655508051,54.9327717336215 -1.62885074888954,54.9327617437 -1.628825885731,54.9327508875091 -1.62878406929381,54.9327228217017 -1.62873437772507,54.9326975167427 -1.62866750330261,54.9326658710453 -1.62860685076012,54.9326432276497 -1.62856959916551,54.9326224526041 -1.62852762328087,54.9326115443157 -1.62849640757096,54.9326060595103 -1.62841220523105,54.9325977176887 -1.62835292229565,54.9325939446867 -1.62827648509119,54.9325946098182 -1.62739547526315,54.9325110739202 -1.62732215969981,54.9325081553226 -1.62724114079713,54.9325034159495 -1.62714758756295,54.9324905534517 -1.62708051512575,54.9324804666662 -1.62702447521921,54.93247400708 -1.6269667442472,54.9324693395275 -1.62687158128103,54.9324636589991 -1.62678888129682,54.9324598128008 -1.62666256442171,54.9324558332439 -1.62651440686211,54.932448193228 -1.62637872893342,54.9324405912037 -1.62632096633195,54.9324395167968 -1.62625224099107,54.9324411028583 -1.62615542498566,54.9324470950726 -1.62605088222573,54.9324539621673 -1.62599613970537,54.9324600830523 -1.62593207551511,54.9324724638534 -1.62586013002632,54.9324884140305 -1.62581472195117,54.932500851912 -1.62576151052501,54.9325222492937 -1.62560824303276,54.9325523234412 -1.62525476641825,54.9319725189102 -1.62421870863194,54.9302745888283 -1.62277100801796,54.9305603851302 -1.62158123202762,54.9307947686495 -1.62035229694604,54.931046177859 -1.6201552786444,54.9310904824382 -1.61838244344161,54.9314380999674 -1.61893101384128,54.9323321496123 -1.6173065889768,54.9326523610333 -1.61554920990851,54.9329990807531 -1.61338188760761,54.9334353009236 -1.61196218504094,54.9337183559442 -1.61137737410865,54.9338359753631 -1.61080507571999,54.9339501281813 -1.61028148546298,54.9340302067304 -1.60997690228253,54.9340570820974 -1.6098017919557,54.9340816759882 -1.60972525488773,54.9340922117681 -1.61056276474751,54.9369003550407 -1.61106232748975,54.9386767353277 -1.61125935831474,54.939277642115 -1.61141220218022,54.9397768055591 -1.6116013393803,54.940396552017 -1.61182544601952,54.9411143309763 -1.61205254550718,54.9416955690018 -1.61214849255295,54.9419430110108 -1.61247711517407,54.9426611221383 -1.61283597073611,54.943328121817 -1.61317241364345,54.9438908400584 -1.61337873697716,54.9441988209773 -1.613724968847,54.944722041418 -1.61416126123969,54.9452904628129 -1.6147831965752,54.9460445306623 -1.61557520436104,54.9469726026324 -1.61686227493085,54.9485402355737 -1.61739470611128,54.9491871032455 -1.61739315358532,54.9491879969846 -1.61741007733804,54.9492087118009 -1.61607659542672,54.9495639527123 -1.61567695388546,54.9497208933534 -1.61564908997947,54.9497001438196 -1.61543208039722,54.9495358696859 -1.61538818716406,54.9495492068251 -1.61121367992044,54.9508281610511 -1.61121213585928,54.9508281561291 -1.61016920625945,54.9511447304158 -1.60979153247507,54.9512891460136 -1.60949368501493,54.951418453425 -1.60932269164598,54.9515023508895 -1.60942435818448,54.9516384178247 -1.60954802368293,54.9517627869017 -1.60964877265576,54.9518476443161 -1.60973866918022,54.9519099181028 -1.60987545558675,54.951982223825 -1.61064103001173,54.9524087825229 -1.61119544272918,54.9527205723074 -1.61154947155806,54.9529203262783 -1.61179155437467,54.9530747152004 -1.61131333040703,54.9532852936977 -1.61118950170217,54.9533370031109 -1.61088688028643,54.953466388579 -1.61022691888309,54.9537383690143 -1.6098788828285,54.9538773990061 -1.60900372418711,54.9541289203518 -1.60794678772708,54.9544319562749 -1.60767429118213,54.9545065417498 -1.60813972037317,54.9556295412163 -1.60822201180652,54.9558391213381 -1.60832736191867,54.9560740191694 -1.60852132194891,54.9565310948953 -1.60873711844444,54.9565030398462 -1.60890119942729,54.9564838020147 -1.60908240219672,54.9564780943773 -1.60923539128076,54.9564875679568 -1.60940057409241,54.9565141494707 -1.60973415691786,54.9565808866203 -1.61014077930831,54.9566702253783 -1.61034465911561,54.9567427448543 -1.6108690769809,54.9569268742215 -1.61109626113101,54.9570129423002 -1.61115385932447,54.9570346862372 -1.61178550018841,54.9572757495278 -1.61161847897662,54.9574261410487 -1.61182710279936,54.9575014578954 -1.6121117120889,54.957614656935 -1.61235149550698,54.9576899820829 -1.61242929186439,54.9577135868052 -1.61249488429472,54.9577209822483 -1.61261176810589,54.9577366253258 -1.61263017737795,54.9577771094935 -1.61268855494182,54.9578788987374 -1.61268787355639,54.9579498659922 -1.6126417254708,54.9580359616403 -1.6125423516612,54.9581408425875 -1.61241804309139,54.9582410631303 -1.61233939245374,54.9582929172539 -1.61190025272369,54.9586509503982 -1.6115982867901,54.9588827508241 -1.61135601748225,54.9590653310029 -1.61121175174413,54.959125060601 -1.61113360721747,54.9591373883644 -1.61107570303111,54.9591470857001 -1.61107477017342,54.9592441039387 -1.61104771133552,54.9592997148448 -1.6109235354414,54.9593856502847 -1.61074004038623,54.959467712947 -1.61063339491527,54.9595113915282 -1.61069234422207,54.9595538014058 -1.61082416325708,54.9596503446244 -1.61075630489663,54.9597175942796 -1.61070117723732,54.9597731155289 -1.61062244485598,54.9598330535192 -1.61054382298842,54.9598947881149 -1.61048249682598,54.9599386112337 -1.61041641785636,54.9599815214371 -1.6103458035801,54.9600272009857 -1.61027671024812,54.9600620158584 -1.61018730815848,54.9601066468218 -1.61010100493803,54.9601503899193 -1.61000525733019,54.9601985948706 -1.60991739904396,54.9602432314641 -1.60988750931837,54.9602584076181 -1.609831008559,54.9602959574105 -1.60975390249479,54.9603470056534 -1.60966747687923,54.9604033248765 -1.60955476820565,54.9604344062392 -1.60949990010702,54.9604495032364 -1.60946856765168,54.9604673695731 -1.60941041816066,54.9605022189772 -1.60940095803545,54.9605084771008 -1.60933347633914,54.9605495841007 -1.6093193465816,54.9605594207711 -1.60930510455572,54.9605674607748 -1.60926433778763,54.9605888903475 -1.60924731718798,54.9605780552951 -1.60924097350973,54.9605816284822 -1.60913107729092,54.9606415554893 -1.60899444981583,54.9605628718302 -1.60895251264556,54.9605321939104 -1.60893844361643,54.9605357414158 -1.60893070089695,54.9605375137958 -1.60892283725202,54.9605383871858 -1.60891497517705,54.9605392596817 -1.60890724114599,54.9605401334862 -1.60889937750002,54.9605410068746 -1.60888842497512,54.9605418694596 -1.60888069963375,54.9605418446883 -1.60887284623942,54.960541819506 -1.60886499128348,54.9605417943182 -1.60885727462476,54.96054087187 -1.60884942123065,54.9605408466861 -1.6088415749666,54.9605399229227 -1.60883385831749,54.9605389995745 -1.60882601360712,54.9605380767137 -1.60881663159299,54.9605362494217 -1.60880891494519,54.9605353260719 -1.60880107736711,54.9605335046305 -1.60879478579459,54.960531688147 -1.60878707784114,54.9605298662218 -1.60878079496291,54.9605271511636 -1.60877308700231,54.9605253301361 -1.60876680413447,54.9605226141786 -1.60876064931169,54.96051989953 -1.60870469547839,54.9604873802619 -1.60867220146352,54.9604522404295 -1.60867070917937,54.9604468458278 -1.60866767090309,54.9604414453676 -1.60866772305941,54.9604360557208 -1.60866622208955,54.9604315587945 -1.60866472824538,54.9604261641878 -1.60866478040207,54.960420774541 -1.60866487602842,54.9604108929229 -1.60866647418489,54.9604055082361 -1.60866651765436,54.9604010162647 -1.60866811424858,54.9603956315729 -1.60866971240398,54.960390246886 -1.608671309006,54.9603848612955 -1.60867615172646,54.9603767921107 -1.60865437558306,54.9603650440169 -1.60863105502526,54.9603532900655 -1.60870641654936,54.9603095129295 -1.60860068189702,54.9602587765078 -1.60859914459141,54.9602578738716 -1.60852147530265,54.9602207918304 -1.60851993956197,54.9602198891982 -1.60845611408765,54.9601891399619 -1.6084545783497,54.960188237329 -1.60837690933566,54.960151155198 -1.60817325718529,54.9600534800418 -1.60807228592207,54.9600028483304 -1.60798986277368,54.9599647631179 -1.60774307456633,54.9601329491239 -1.60730495773361,54.9603795723708 -1.60700823322359,54.9605448103868 -1.60703121582846,54.9605781228063 -1.60709491617854,54.960621538171 -1.60724326292964,54.9607792262868 -1.60736385448427,54.960904484213 -1.60743823208363,54.9609623078039 -1.60750972241136,54.9609993697544 -1.60759689641326,54.961025702497 -1.60770600208095,54.9610476136088 -1.60781054417592,54.9610623238325 -1.607805620134,54.9610919528674 -1.60788198992498,54.9611038766353 -1.60797722850193,54.9611086748851 -1.60809131783349,54.961094668388 -1.60822851193786,54.9611148720794 -1.60839550146114,54.9611297823682 -1.60851730663208,54.9611301733783 -1.60866109701192,54.961120752883 -1.60878149674936,54.9611067650845 -1.60890353642678,54.9610829013989 -1.608991171911,54.9610616222112 -1.60910074024799,54.9610359211415 -1.60914782528276,54.9610136132741 -1.60922291839807,54.9609976844382 -1.609360659432,54.9609612928603 -1.60947018386958,54.9609400834237 -1.6095875625271,54.9609188091673 -1.6097140713552,54.9609120270101 -1.60980153227992,54.9609221887574 -1.60986062095108,54.9609368416673 -1.60989324641269,54.9609585061752 -1.60994290153844,54.960990107061 -1.61008707924363,54.9609402607004 -1.61035038437418,54.9610084775061 -1.61051237612218,54.9610476239935 -1.61048817212362,54.9611274998256 -1.61088107056685,54.9612033162938 -1.61111378060157,54.961199566351 -1.61116374791536,54.9611988279473 -1.61141204709364,54.9611942285263 -1.61166975307584,54.9612022362831 -1.6116759254528,54.9612031545364 -1.61168056042501,54.9612031692925 -1.61169472301367,54.9612032143801 -1.6117072044594,54.961204151818 -1.61171967727116,54.961205988728 -1.6117336945631,54.9612078296546 -1.61175864726467,54.9612106039896 -1.61178205549055,54.9612133743025 -1.61180853699227,54.9612179497992 -1.61183347402057,54.9612225212738 -1.61187715691064,54.9612325422112 -1.61189424748881,54.9612361892046 -1.61191133806154,54.9612398370943 -1.6119331658153,54.9612461949618 -1.61195499513778,54.9612525528303 -1.61201261699988,54.9612725898542 -1.61202031663948,54.9612753092543 -1.61202969037043,54.9612780339789 -1.61204842059933,54.9612852805757 -1.61206702121804,54.9612925267575 -1.61208576007838,54.9612988747737 -1.61210436071909,54.9613061200513 -1.61220863818943,54.9613486742561 -1.61221801195103,54.9613513989664 -1.61222570300599,54.9613550169288 -1.61229266534876,54.9613812820759 -1.61230048448084,54.9613848995421 -1.61238130183011,54.9614165984966 -1.61253844717756,54.9614781856799 -1.61265989220576,54.9615163019241 -1.61274706223645,54.9615435286992 -1.61286546942156,54.9615763351385 -1.61298083010774,54.9616045498233 -1.61302283101688,54.9616154636196 -1.61321297543277,54.9616600856796 -1.61334781347277,54.9616039174069 -1.61363803033716,54.9614708931402 -1.6138167914073,54.9613861171585 -1.61408670428836,54.9612485362892 -1.61436311185278,54.9610913013268 -1.61443706949253,54.9610322444123 -1.61457554966924,54.9609176042817 -1.61538517901353,54.960364891435</coordinates></LinearRing></outerBoundaryIs></Polygon>
  </Placemark>
