  <Placemark>
	<Style><LineStyle><color>ff0000ff</color></LineStyle><PolyStyle><fill>0</fill></PolyStyle></Style>
	<ExtendedData><SchemaData schemaUrl="#Wards__December_2019__Boundaries_EW_BFE">
		<SimpleData name="objectid">8065</SimpleData>
		<SimpleData name="wd19cd">W05001032</SimpleData>
		<SimpleData name="wd19nm">Port Talbot</SimpleData>
		<SimpleData name="wd19nmw">Port Talbot</SimpleData>
		<SimpleData name="bng_e">278072</SimpleData>
		<SimpleData name="bng_n">190148</SimpleData>
		<SimpleData name="long">-3.76172</SimpleData>
		<SimpleData name="lat">51.596939</SimpleData>
		<SimpleData name="st_areashape">3950545.13039408</SimpleData>
		<SimpleData name="st_lengthshape">11368.5910813776</SimpleData>
	</SchemaData></ExtendedData>
      <Polygon><outerBoundaryIs><LinearRing><coordinates>-3.74409652806624,51.6045103362652 -3.74444865633185,51.6044277936481 -3.74473581218848,51.6043866702615 -3.7447637455779,51.6043233263031 -3.74507971558098,51.60427907631 -3.7455366854442,51.6042200552642 -3.74638701472075,51.6041013349998 -3.74715497561957,51.6039802377565 -3.74778046362314,51.603872852271 -3.74854139897768,51.6037581433684 -3.74913987298352,51.6036233742402 -3.75086134973982,51.6032163748368 -3.75142354643833,51.6030767409891 -3.75154050261822,51.6030776936826 -3.75236102967441,51.6030115147596 -3.75238261728887,51.6030093950769 -3.75272951081197,51.602943087277 -3.75298778403887,51.6029005768881 -3.75338168220964,51.6028893033928 -3.75374472677969,51.6029054585066 -3.753940219143,51.6028836605147 -3.7540564240953,51.6028620571902 -3.75428185288197,51.6027921650942 -3.75460959819342,51.6026029772679 -3.7549513619698,51.6023667410133 -3.75561526288911,51.6019845488741 -3.7560401615758,51.6017308856267 -3.75673994854758,51.6014182707912 -3.7570347755885,51.6013113753779 -3.75713071851084,51.6012523155223 -3.75712904701806,51.6012460476174 -3.75712095705881,51.6012245930811 -3.75745633011762,51.6009714546353 -3.75761701870042,51.6007576978549 -3.75774722384855,51.6005408009937 -3.75780636028424,51.6005399159143 -3.75806418954466,51.6005603300131 -3.75849256470146,51.6006223295381 -3.7585930935964,51.6006450967046 -3.75891583630474,51.6007031927559 -3.75932486718539,51.6007851670239 -3.75958875283883,51.6008513350504 -3.75983568703138,51.6009286337572 -3.76092305286367,51.6013385450385 -3.76136558180077,51.6015045147122 -3.76135721184063,51.6015128215675 -3.76134333638221,51.6015265138351 -3.76141749484845,51.6015784427121 -3.76176363916105,51.6017179870061 -3.76229111427481,51.6019528901854 -3.7640663906486,51.6027481827357 -3.7642252843938,51.6028635638468 -3.76439159194975,51.6030165908659 -3.7645601889773,51.6032317021957 -3.76479480267133,51.6035096506268 -3.76489212306591,51.6035998842351 -3.76500601916846,51.6037061414013 -3.76509564333264,51.6037821070787 -3.76549631801355,51.6040620527435 -3.76582147908943,51.6042522448316 -3.76595388927287,51.6043905865548 -3.76633061876664,51.6046852728613 -3.76637031106777,51.6047017570732 -3.76685620205071,51.6047564784295 -3.76686349649454,51.6047572679393 -3.76691147856754,51.6047664341997 -3.76701776786686,51.6047900067901 -3.76710058732306,51.6048040443096 -3.7673365454467,51.6048553316743 -3.76743611609781,51.6048898831549 -3.76753103720883,51.604918120784 -3.76773428422971,51.6049824863632 -3.76788784459517,51.6050673766063 -3.76797345466505,51.6051164312986 -3.76812721376086,51.605209499612 -3.76827348106038,51.6052935999407 -3.76836067406435,51.6053435297659 -3.76839485099644,51.6053681868569 -3.76852287386031,51.6054300867394 -3.76859802026869,51.6054703087823 -3.7687603442769,51.605556954383 -3.76884278567384,51.605597964757 -3.76885003034444,51.6056005533859 -3.76881161382886,51.6056874342877 -3.7687718245651,51.6057788311741 -3.76875983490335,51.6058042733237 -3.7687480012739,51.6058368153595 -3.76872496022251,51.6059486363485 -3.76870626997725,51.6060253320486 -3.76870012893452,51.6060541922726 -3.76866051981618,51.6061870299034 -3.76865023468131,51.6062195486084 -3.76863691722135,51.6062476176487 -3.768623845581,51.6062819759018 -3.76860466622905,51.6063460922142 -3.76857959972674,51.6064058036437 -3.76856331497928,51.6064708655304 -3.7685310946663,51.6065333806039 -3.768508884244,51.6065930481112 -3.76849294498493,51.6066670055092 -3.76846497327602,51.606728557345 -3.76844001461248,51.6067910538755 -3.76841389057663,51.606863366118 -3.7683961730698,51.6069283596228 -3.76837448594087,51.6070015042959 -3.76833487657157,51.6071343417931 -3.76827930236171,51.6073374501135 -3.76828913392932,51.6074066140845 -3.76830588657235,51.6074638973454 -3.76832688071603,51.6075966317215 -3.76834987571067,51.6077042533344 -3.76840955102765,51.6077905573194 -3.7685613683839,51.6080202999333 -3.76866119855464,51.6081716242283 -3.76870130423751,51.6082384447618 -3.76885835108315,51.6082288875734 -3.76887711879624,51.6082277056843 -3.76897662170606,51.6082235102717 -3.76899963984879,51.6082213660015 -3.76903569784577,51.6082208229169 -3.76908906112821,51.6082182206805 -3.76914366513729,51.6082138021411 -3.76918995798225,51.6082131048463 -3.76923891903649,51.6082105697511 -3.76929242201283,51.6082115613974 -3.76934002397801,51.6082108443231 -3.76963461923459,51.6082109014455 -3.77032031617858,51.6082032651003 -3.77039104101489,51.6082030983218 -3.77042281508579,51.6082026193829 -3.77047478573441,51.6082009367521 -3.7705801410349,51.6082002478403 -3.77072160269932,51.6081972160121 -3.77074193335463,51.6081627480932 -3.77092572993165,51.6078767058715 -3.7710338283719,51.6077231467116 -3.77108825469796,51.6076377313513 -3.77115837024021,51.6074353016215 -3.77117782145369,51.6073415128971 -3.77143061724194,51.6074150139747 -3.77188481287279,51.6076212228143 -3.77194774745557,51.6076778987921 -3.7720988032104,51.6077745079786 -3.77211059194769,51.6077806230294 -3.77214828147524,51.6077485897858 -3.77219477821593,51.6077164236419 -3.77224251404434,51.6076824411917 -3.77227302820743,51.6076496169303 -3.77228630532408,51.6076205589143 -3.77229561555671,51.6075997420864 -3.77230593482751,51.6075681217884 -3.7723233726631,51.6075327979916 -3.77235573543877,51.6075107340558 -3.77239649085354,51.6074840481374 -3.7724995484603,51.6074213622384 -3.77253974383393,51.6073803003956 -3.77255934517254,51.6073638235627 -3.7725818363336,51.6073482005602 -3.77261023000932,51.6073342878614 -3.77268813116459,51.6072952647103 -3.77270503764651,51.6072860197889 -3.77272897098663,51.6072676781546 -3.77274943971758,51.6072368038717 -3.77276885111334,51.6072185313793 -3.77280204597416,51.6071811720862 -3.77290670620719,51.6071229560588 -3.77301181361858,51.6070395615136 -3.77334463736547,51.6067251946962 -3.77341144196093,51.6066611669193 -3.77361237006316,51.6064792343599 -3.77366053029876,51.6064928905229 -3.77369998310341,51.606503082979 -3.77375385597819,51.6065166528343 -3.77379187995418,51.6065268668378 -3.77384590770291,51.6065413335574 -3.77390282536526,51.6065566558506 -3.77394952334633,51.6065694356342 -3.77399918125884,51.6065848675293 -3.77404741318469,51.606600320043 -3.77409271740824,51.6066140200673 -3.7741424952103,51.6066294500911 -3.77417604721772,51.6066379330301 -3.77423289504012,51.6066514577282 -3.77429124534095,51.6066668481169 -3.77433790706038,51.6066787290491 -3.77438617426759,51.6066950810359 -3.77443297756207,51.6067105549747 -3.77448103323292,51.6067215164446 -3.77453352746345,51.6067333091808 -3.77459044558656,51.606748631135 -3.77463714391375,51.6067614097418 -3.7746882443948,51.6067741227133 -3.77473783412745,51.6067877568366 -3.77477878490413,51.6067997238884 -3.77482990726019,51.6068160325503 -3.77488247174262,51.606829621661 -3.77493202657903,51.6068423578839 -3.77499912975641,51.6068593233156 -3.77505754716506,51.6068764208771 -3.77511606825602,51.6068962127805 -3.77516424403837,51.6069071712573 -3.77521522647119,51.6069198857844 -3.77526636233744,51.6069334972158 -3.77536275980729,51.6069626954225 -3.77541238499504,51.6069772279716 -3.77551897719213,51.607005282776 -3.77562123608034,51.6070352014852 -3.77563288491102,51.6070377231158 -3.77570002513062,51.607055586834 -3.77573939409051,51.6070666782213 -3.77576582703471,51.6070788644223 -3.77585851190889,51.6071197150241 -3.77702888751755,51.6074706886595 -3.77703311570462,51.6074661293594 -3.777221525008,51.6073724808842 -3.77834775405806,51.6067394470956 -3.77950208562575,51.6060493411046 -3.78020874442246,51.6055799683295 -3.78064440099918,51.6052721122798 -3.78063408158267,51.6048622403517 -3.78102316229461,51.604840158994 -3.78174272976328,51.6048139624856 -3.78194283013899,51.604797441642 -3.78215461266795,51.6047843392807 -3.78221222090144,51.6047807682923 -3.78221601816187,51.6046557513969 -3.78186245382033,51.6042923503126 -3.78153646938461,51.6040068326026 -3.78136159074747,51.6038584549027 -3.78122018584018,51.6037500236873 -3.78082672236931,51.6034376588345 -3.78045416817861,51.6030295917314 -3.78046800317639,51.6030149985527 -3.78222542343673,51.6025360621499 -3.7822163801173,51.6023050687014 -3.782249156761,51.6019988256419 -3.78232252465889,51.6018079352341 -3.78239275145567,51.6016828093984 -3.78237164647761,51.6007757788145 -3.78229479333341,51.5990009830599 -3.78228431759307,51.598363574724 -3.78199973901915,51.5983228529769 -3.78201882450068,51.5982964922643 -3.7820766501128,51.5982227960874 -3.78263023144805,51.5975399690728 -3.78310370293209,51.5971308409383 -3.78318638209672,51.5970656667797 -3.78340624788855,51.5968924190817 -3.78389779375876,51.5966529225812 -3.78535361695532,51.5955984790647 -3.78519064751505,51.5954561294101 -3.78470087423898,51.5950796153732 -3.7844799464508,51.5948950834969 -3.78324616305034,51.5939534260376 -3.78255137571102,51.5933929311478 -3.78215555826728,51.5930554312605 -3.78167530664735,51.5926651810407 -3.78109179461606,51.5921426355012 -3.78102396684926,51.5921796234194 -3.78096685272898,51.5921589137056 -3.78086430381619,51.5921209132176 -3.78084409615825,51.5920456147997 -3.78084688115006,51.5920437740854 -3.78091289586877,51.5919969251939 -3.78048424441125,51.5915951943655 -3.78045601853406,51.5916100056449 -3.78033628631066,51.591503942799 -3.78035880146023,51.5914892172128 -3.78021380075106,51.5913609725112 -3.78015256221666,51.5914203344384 -3.78004133602647,51.5915650494047 -3.78001954443838,51.5915617835838 -3.77951768732208,51.5911323006195 -3.77937729230976,51.5910121654293 -3.77927248657215,51.5908798034543 -3.77910060902448,51.5907672470252 -3.7790342427738,51.5908051104834 -3.77894671921954,51.5908558810757 -3.77892586306367,51.5908400150433 -3.77854713642247,51.5905697613268 -3.7782602702887,51.5903564595028 -3.77800793880147,51.5901435333918 -3.77775364349404,51.5898802930307 -3.77716828407915,51.5892713662961 -3.7769445585663,51.5890500032751 -3.77667761573277,51.5887581837396 -3.7768374333431,51.5886720708588 -3.77663141648325,51.5884621267346 -3.77641516360287,51.5881362766437 -3.7756018215795,51.5874912329888 -3.77508677401365,51.5870538363831 -3.77501347409452,51.586990217028 -3.77578162669808,51.5866243163131 -3.77596637740753,51.5865855634786 -3.77604140887285,51.5865502676685 -3.77616487504777,51.5864934732195 -3.77617420042859,51.5864762510335 -3.77609279229598,51.5864244415655 -3.77610401498343,51.5864161813698 -3.77612797030652,51.5863987380006 -3.77493410035096,51.5853979560483 -3.7747750324042,51.5853536117676 -3.77457348483588,51.5853674445983 -3.77415269037873,51.5854601025918 -3.77366399142451,51.5855510883754 -3.77340673430066,51.585689910524 -3.7732435092557,51.5857984550849 -3.77294957305846,51.5859612040972 -3.77226484113478,51.5863545960376 -3.77193770080243,51.586480894363 -3.7717364056246,51.5865747284638 -3.77147342027092,51.5867531883367 -3.77123264689504,51.5869825564979 -3.77118673849315,51.5870659553397 -3.77107682915673,51.5872816625551 -3.77099099421464,51.5874492700942 -3.77083823133603,51.5877168660044 -3.77062994483237,51.58796462133 -3.77046724051221,51.5881603565778 -3.77032229897689,51.5882956821188 -3.76996564652847,51.588664339086 -3.7699032536272,51.5887677648975 -3.76989744450238,51.5888020140275 -3.76989196883626,51.5888111762563 -3.76987190252804,51.5889256509558 -3.76981672818499,51.5891044824754 -3.76977530365231,51.5891870048831 -3.7696329740003,51.5893896243784 -3.7692968294381,51.5896554858406 -3.76914268629398,51.5897747667121 -3.76900852152954,51.5899242221098 -3.76900409001997,51.5899602480654 -3.76904650445505,51.5900837606547 -3.76899191924455,51.590277865764 -3.76882185109568,51.5905448208856 -3.76871218887781,51.5906939070251 -3.76844860623625,51.5909712596267 -3.76836488368416,51.5910436310611 -3.76808877277366,51.5912590504513 -3.76806531398465,51.591286373902 -3.76801365765323,51.5914059083003 -3.76800962601788,51.5915992529875 -3.76802083261784,51.5918508915071 -3.76793951020671,51.5919483084549 -3.76790485011724,51.5919875761744 -3.76788278288285,51.5920139794024 -3.76774446218587,51.5921302340805 -3.76765255191425,51.5921451018835 -3.76757362196668,51.5921570782774 -3.76728771646748,51.5921910485315 -3.76690536617583,51.5923100755634 -3.7667459117705,51.592366503554 -3.76659442926718,51.5924442981782 -3.76627422823355,51.5927108127514 -3.76610391533698,51.5928248502047 -3.76579367038994,51.5929770408253 -3.76565065325231,51.5929755950595 -3.76534165856352,51.5929730481567 -3.76501651554532,51.5930022080327 -3.7646416827826,51.5930545887203 -3.76427917273279,51.5931607230086 -3.76414588572646,51.5931860996405 -3.76400819629818,51.5932115413495 -3.76369629661879,51.5932476908508 -3.76350807419426,51.593268498055 -3.76342858483999,51.5932660955804 -3.76330422381319,51.593260770692 -3.76324375786767,51.5932302136898 -3.76317162911024,51.5931935387848 -3.76308258241796,51.5931319459235 -3.76304047383551,51.5930498710533 -3.76298464917175,51.5929148705834 -3.7628601621476,51.5928295369395 -3.76272826615989,51.592780273724 -3.76256223944221,51.5927441085762 -3.76234935725128,51.5927275252862 -3.76201742425318,51.5927657694802 -3.76191767704231,51.59279963018 -3.76165674099428,51.5928853534396 -3.7610574491744,51.5931416553937 -3.76081140783811,51.5932001829851 -3.76036221175812,51.5932689486207 -3.760057863812,51.5933157626674 -3.75993158756317,51.593297876962 -3.75977541117,51.5932148134818 -3.75966819864127,51.5931696723263 -3.75950093503098,51.5930984604083 -3.75944396868986,51.593081334229 -3.75927174226379,51.593032581447 -3.7590772944889,51.5930094230851 -3.75879492900969,51.5930244406194 -3.75877921066387,51.5930273728845 -3.75856702624857,51.5930657013504 -3.75828866088871,51.5931103241172 -3.75815192426549,51.5931204618645 -3.75810575094322,51.5931238508766 -3.7580774475087,51.5931368605375 -3.75792996696799,51.593204694864 -3.75772684855298,51.5934406641631 -3.75753614498259,51.5935882566734 -3.75726788073752,51.5937064438606 -3.75683933810311,51.5937893603617 -3.75650055071847,51.5938384788375 -3.75621838715713,51.5938588808287 -3.7558526069641,51.5938841275606 -3.75549398624161,51.593869711607 -3.75511814896281,51.5938564502153 -3.75490219656343,51.5938713641241 -3.75474878578379,51.5938628681439 -3.75472574112751,51.5938641117253 -3.75460996009753,51.593855952557 -3.75438713663043,51.5938439986969 -3.75396362162932,51.5938692036558 -3.75388909297834,51.5938442456104 -3.75377826680222,51.5937793749138 -3.75363823901507,51.5936672042593 -3.75355963446091,51.5935766803348 -3.7534675728729,51.5935106299053 -3.7533176680722,51.5934417578683 -3.75316877330481,51.5933990307123 -3.75306108150834,51.5934123259222 -3.75289022692237,51.5934391488609 -3.75272261252262,51.5935469224369 -3.75262514206324,51.5936400747593 -3.75257658852451,51.5936929415938 -3.75250736811212,51.5937685909273 -3.75234234866336,51.5939437502441 -3.75204839011409,51.5941091463308 -3.75195800796113,51.5941608384217 -3.75191121664108,51.5941822129513 -3.75164009807487,51.5943040258376 -3.75159330644817,51.5943254002427 -3.75155334144182,51.5943385822426 -3.75137373453444,51.5943978975578 -3.75117237417011,51.5944549300207 -3.75108380920519,51.5944796239234 -3.75098095038678,51.5945072286251 -3.75093216162284,51.5945169458387 -3.75091783613754,51.5945189579175 -3.75088185651023,51.5945212919255 -3.75088038492848,51.5945572740474 -3.7510132804684,51.5945615856822 -3.75104866204063,51.5945808354024 -3.75108624798773,51.5946171344336 -3.75108781343677,51.5946207063016 -3.75109809025311,51.5946619069693 -3.75105281439146,51.594688653143 -3.7509455636406,51.5947505748958 -3.75082407132297,51.5948198102511 -3.75065088911628,51.5949347668948 -3.75063386629996,51.5949440104615 -3.75047844407769,51.595031730849 -3.75045999125763,51.595040996603 -3.75033390686283,51.595102299237 -3.75031968488457,51.595107005655 -3.75030391464873,51.5951117360447 -3.75010365436508,51.5951974281958 -3.75006951767915,51.5952105228093 -3.75002119207234,51.5952292225528 -3.74998702074507,51.5952414184063 -3.74988739544657,51.5952788630164 -3.74983599201399,51.5952949116856 -3.74980321452613,51.5953061874659 -3.74975621206089,51.5953221705293 -3.74969194439228,51.5953411085482 -3.74967479750929,51.5953440608583 -3.74959623702066,51.5953659077132 -3.74951606190932,51.5953859809633 -3.7494532060672,51.5954013916367 -3.74940305655544,51.5954129260768 -3.74917107210388,51.5954631289876 -3.74902326897838,51.5954860076077 -3.74883062854828,51.5955068559544 -3.74871416124721,51.5955211761013 -3.74859182592344,51.5955283912866 -3.74845339434383,51.5955349476259 -3.74829760690654,51.595539064411 -3.7482730649965,51.5955385313913 -3.74804068957878,51.5955383941861 -3.74768107789194,51.5955356546241 -3.74748616456978,51.5955376565979 -3.74748648666177,51.5955088838594 -3.74718471619799,51.5955088782344 -3.74711679741657,51.5955071917666 -3.74709229003113,51.5955075563385 -3.74690879430364,51.5955030936473 -3.74682930017852,51.5955006808363 -3.74679388511039,51.5954805302019 -3.74678868873895,51.5954599310079 -3.74675128099902,51.595462284982 -3.74667932117451,51.5954669513232 -3.74663469125892,51.5954703119218 -3.74656386760295,51.5954704659387 -3.74648745103492,51.5954707039829 -3.74646425243367,51.595471048961 -3.74639358161555,51.5954720998533 -3.74631572310429,51.5954750551818 -3.7457669248361,51.5954715274653 -3.74549088786134,51.5953883382312 -3.74527538586922,51.5953780557124 -3.74486684783148,51.5954155908356 -3.74370341385668,51.595575899537 -3.74227578874133,51.5957696933937 -3.7416479467457,51.5958905710983 -3.74163097115769,51.5958980150389 -3.74118202688502,51.5960898641796 -3.74087641841095,51.5962509090375 -3.74053332853185,51.5963782570159 -3.74034387797268,51.5964080338931 -3.74016247768633,51.5966481462595 -3.74004474700704,51.5967415879875 -3.73980579638542,51.5968746720814 -3.73941743513494,51.5974028292258 -3.73947902760783,51.5974288864174 -3.73925727113515,51.5975572211321 -3.73881081781061,51.5980764363495 -3.73869345309001,51.5982948318507 -3.73853042603662,51.598449264186 -3.73833082326883,51.5987399865292 -3.73814958668318,51.5990627997851 -3.73792774190854,51.5995660113117 -3.73769505970376,51.6000505946705 -3.73749722622113,51.6004284912351 -3.737399494179,51.6004038659401 -3.73729160972852,51.6005654814532 -3.73711529812751,51.6007497749417 -3.73696537823969,51.6008706580251 -3.73685020965458,51.6009569556182 -3.73671235909506,51.6010884481086 -3.73666763225121,51.6011268668552 -3.73661360043095,51.6011492412902 -3.73669583427978,51.6011857827941 -3.73991330197758,51.600817136404 -3.74094248847229,51.6007317646326 -3.74218086953635,51.600640584177 -3.742179853511,51.6006513874687 -3.74168346400994,51.6011137259613 -3.74159505049229,51.601217610957 -3.74150799313337,51.6013195882637 -3.74140758590981,51.601452329605 -3.74096064008478,51.6023393313036 -3.74003294783806,51.6044357577309 -3.7402121662584,51.6043647799194 -3.74049369866086,51.6042885997517 -3.74107577641553,51.6041415290486 -3.74130750945028,51.6040832561385 -3.74146927928142,51.6040448979167 -3.74174117469428,51.6039814434232 -3.74204838794279,51.6038950796288 -3.74256137139085,51.6038281371617 -3.74291552856788,51.6038390642053 -3.743171115898,51.6039125836502 -3.74323987318711,51.6039358355487 -3.74330603462413,51.6039690158084 -3.74354372258753,51.6041408796297 -3.74371819303595,51.6042849138307 -3.74405625698309,51.6044785704984 -3.74409652806624,51.6045103362652</coordinates></LinearRing></outerBoundaryIs></Polygon>
  </Placemark>
