  <Placemark>
	<Style><LineStyle><color>ff0000ff</color></LineStyle><PolyStyle><fill>0</fill></PolyStyle></Style>
	<ExtendedData><SchemaData schemaUrl="#Wards__December_2019__Boundaries_EW_BFE">
		<SimpleData name="objectid">2736</SimpleData>
		<SimpleData name="wd19cd">E05007325</SimpleData>
		<SimpleData name="wd19nm">Leith Hill</SimpleData>
		<SimpleData name="wd19nmw"></SimpleData>
		<SimpleData name="bng_e">512809</SimpleData>
		<SimpleData name="bng_n">144853</SimpleData>
		<SimpleData name="long">-0.38703</SimpleData>
		<SimpleData name="lat">51.191769</SimpleData>
		<SimpleData name="st_areashape">43657749.0550539</SimpleData>
		<SimpleData name="st_lengthshape">46540.8439492378</SimpleData>
	</SchemaData></ExtendedData>
      <Polygon><outerBoundaryIs><LinearRing><coordinates>-0.418564944938553,51.1731814316052 -0.418579458018006,51.1729639763094 -0.418515450838578,51.1726627488189 -0.418502725087601,51.1725726753908 -0.418490062220978,51.1723566494725 -0.418441916813657,51.1722193484201 -0.418273860967884,51.1719877370664 -0.418000828978256,51.1716459251385 -0.417876882825296,51.1716316627624 -0.417641632826164,51.1712750767952 -0.417593035352802,51.1711890126191 -0.417531313878481,51.1709867077483 -0.41746197158087,51.1708382409726 -0.417295668985639,51.1706004485865 -0.417130730308848,51.1704021417945 -0.416876987822986,51.1700417077503 -0.416736456050428,51.1698023756651 -0.416602446150824,51.1695379591472 -0.416591043332314,51.1694128405931 -0.416602447532503,51.1693725392391 -0.416264900254065,51.1688283796389 -0.416213356657648,51.1687045161616 -0.41619086587296,51.1686070278585 -0.416186015592266,51.1684559270489 -0.416364808958407,51.1678738056882 -0.41651159460635,51.1675961079683 -0.416605198252952,51.1672871238768 -0.41661156410165,51.1672251779932 -0.416623829359624,51.1670770059497 -0.416519557752369,51.1667364853814 -0.416496044105609,51.1666309816577 -0.416477521666644,51.1664175740828 -0.416442483537179,51.1662319022838 -0.416395177052785,51.1656053658329 -0.416363126785021,51.1653324400275 -0.416260602942962,51.1650270945208 -0.41617787229286,51.164811918289 -0.416108571901901,51.1645799329259 -0.416172659606718,51.1645439402377 -0.416091504841005,51.164117426866 -0.41607934661592,51.1638870235699 -0.41603982429264,51.1638289510284 -0.415923121327243,51.1638138861767 -0.415807907937859,51.1635865818906 -0.41569165910972,51.1632208155522 -0.415805874693451,51.1630605395662 -0.415778930519305,51.1628865741073 -0.415752305525604,51.1624518977843 -0.415755720865291,51.1623935082323 -0.4157610148488,51.1622802136907 -0.415685707326157,51.1618071192354 -0.415661227346468,51.1615612666357 -0.415743289249529,51.161461687949 -0.415766499441135,51.1613279580873 -0.415758156857866,51.1610688384979 -0.41574807917787,51.160946435629 -0.415732043149601,51.1608293459171 -0.415550045449426,51.1607584659006 -0.415437416706751,51.1606625433888 -0.41541674455897,51.160432923828 -0.415414172315016,51.1602566813325 -0.415377923381101,51.1599792026288 -0.415269982617221,51.1596225382056 -0.415330436844241,51.1595685166385 -0.415183449413876,51.1590161470355 -0.415160127013981,51.1589052516166 -0.415140078305247,51.1586540640734 -0.415211510690965,51.1584481678358 -0.414453126256602,51.1583372008977 -0.41415786589624,51.1582720648344 -0.413631981294587,51.1580931322015 -0.413531687785882,51.1582258154336 -0.41262818540938,51.1593411976174 -0.412435838887097,51.1595688263024 -0.412017795568194,51.1599992659218 -0.411966984668889,51.160064204418 -0.411915410632502,51.1601067468566 -0.411846656097529,51.1601516639263 -0.411765363111956,51.1601874197614 -0.411674268083043,51.160216749318 -0.410872622093446,51.16036229196 -0.410028022230508,51.1605531839281 -0.409600762165101,51.160626489716 -0.409379543301104,51.1606540483262 -0.409038607915923,51.1607133325531 -0.408779000608969,51.1607736321539 -0.408514803465722,51.1608473533828 -0.407890463492045,51.1609935790979 -0.406574790826727,51.1613236753219 -0.406393703967236,51.161349977292 -0.406293388612105,51.1613558021819 -0.40612629394738,51.1613490310337 -0.405522406902559,51.1612742738762 -0.405344625845668,51.1612456887851 -0.40521056975802,51.1612348712141 -0.405100485705542,51.1612333703901 -0.404998787631949,51.1612382769397 -0.404757734266307,51.1612629493847 -0.404575949431815,51.1612649657558 -0.404338781521615,51.161259033996 -0.404163238294043,51.1612476493135 -0.403723154648037,51.1611966037335 -0.403613689430255,51.1611771298185 -0.403361236321544,51.1611152476218 -0.403084299499185,51.1610179696517 -0.402912311586918,51.1609445995182 -0.402437823635341,51.1607699135289 -0.401598258397975,51.1605237110705 -0.401415108137644,51.1604834495949 -0.401247347533274,51.1604550851854 -0.400989447723619,51.160428186315 -0.400189010029034,51.1602886829118 -0.399768762239244,51.1602406807108 -0.399351340266842,51.1601962219412 -0.398567108986043,51.1601270529679 -0.397488854466582,51.1600017076779 -0.39673059715173,51.1599283866768 -0.396448817026935,51.1599272214262 -0.395907762582592,51.1596940598346 -0.395383200680006,51.1594377470148 -0.395348236598778,51.1594156910527 -0.395275644340414,51.1593634517521 -0.395211748189776,51.1593086338683 -0.395166350344738,51.1592576659316 -0.39512805835685,51.1592058062564 -0.395068001418641,51.1590845142093 -0.394759443299888,51.1587439571353 -0.394651660550796,51.1586354947014 -0.39442278523455,51.1586764055929 -0.394352716648106,51.1586772415357 -0.394297126314126,51.1586719830271 -0.394237541472859,51.1586594781438 -0.394144354055591,51.1586231370551 -0.394091239255687,51.1585873469081 -0.393855737225832,51.1583673601226 -0.393804486132619,51.1582371075036 -0.393575916231472,51.1582727160995 -0.393137781825705,51.1583296301174 -0.392630271150984,51.158364012909 -0.392269634053539,51.1583725426408 -0.391782586018704,51.1583541609259 -0.391313839159143,51.1583045622552 -0.39083928288172,51.1582152362714 -0.39071978040183,51.1581965106128 -0.389703628458664,51.1581384753634 -0.389647976783522,51.158135012354 -0.389355377599398,51.1581570559544 -0.389117665189316,51.1581672674672 -0.388214628934402,51.1582672969049 -0.38787827552202,51.1583166034375 -0.387780912231752,51.1583224531536 -0.38768217312363,51.1583237892406 -0.387563804996641,51.1583131676843 -0.38739502323398,51.1582739815734 -0.387270468998381,51.1582345056782 -0.387140468549555,51.1581922576307 -0.386715287985382,51.1580397649863 -0.386419434730344,51.1579116193896 -0.386389790397131,51.1578995234862 -0.386118345708683,51.1577680276719 -0.386041585195006,51.1577984343563 -0.385650175589764,51.1577022326652 -0.38556697457351,51.1576705180385 -0.38525153156812,51.1575295137486 -0.384952991396361,51.157353589232 -0.384598982850816,51.1571724044632 -0.384515477941578,51.1571460790748 -0.384381752592708,51.1571262526607 -0.383957814434296,51.157144671859 -0.383370154024865,51.1572661033614 -0.383197170095247,51.1573068660511 -0.38287376009693,51.1573940971746 -0.38285331864399,51.1574864141208 -0.382849612372936,51.1576734484726 -0.382829477822469,51.15776037489 -0.382801961266229,51.1578122282 -0.382766031271192,51.1578584805331 -0.382720273836544,51.1578992031654 -0.382614975725817,51.1579633760988 -0.382012194201816,51.158230232348 -0.381349614562996,51.1584872691444 -0.380869083221755,51.1587342341521 -0.380435601199958,51.1589439997039 -0.380430736759015,51.1589583172243 -0.380355282139304,51.1592342603001 -0.380312836008807,51.1594261532866 -0.38022307376078,51.1594572757803 -0.380042040840301,51.15952219571 -0.379608780871683,51.1596007045886 -0.379349893018088,51.1595620582102 -0.379240601051921,51.1595380688069 -0.379149519959615,51.1595260185691 -0.379056867784171,51.1595184419855 -0.378913684267054,51.159522751575 -0.37860313210823,51.1595687939733 -0.378404922296952,51.1595921191624 -0.378227159761045,51.1596040395004 -0.378081178525455,51.1596074109142 -0.378062705832499,51.1596062555857 -0.37791598505445,51.1595466842076 -0.377553628794177,51.1593987167824 -0.377218315429121,51.1592564263258 -0.376873809029652,51.1590871279969 -0.376555777955173,51.1589396815184 -0.376204017220522,51.158775674511 -0.375824659019467,51.1586219812207 -0.375426853573237,51.1585067786247 -0.374681862605267,51.1583427008129 -0.373833193246179,51.1581159546722 -0.373356789104737,51.1579996517857 -0.372993539902531,51.1579180955907 -0.372680653562676,51.1578696926858 -0.372357426024477,51.1578705909475 -0.371994142063871,51.1579509441934 -0.371386903549999,51.1580981140198 -0.371016884525018,51.1582089369144 -0.370619974848363,51.1583131818822 -0.370225431209997,51.1583903965137 -0.370166581588937,51.158394072322 -0.369769692077861,51.158417312308 -0.369359848797575,51.1583999137561 -0.368976237795761,51.1583675971022 -0.368972027009576,51.1583666391319 -0.368785452105705,51.1583442596522 -0.367803162088569,51.1582595386371 -0.366627032297346,51.1582350329173 -0.366503173150849,51.1582198180002 -0.36638409895075,51.1581892966251 -0.366279757091383,51.1581455861291 -0.366233536154963,51.1581188688134 -0.366165212357926,51.1580702664418 -0.36551247420531,51.157438847007 -0.364957849502334,51.1567440660188 -0.364371833383415,51.156130653373 -0.363621884339375,51.1552154817131 -0.363388620373584,51.1549801816349 -0.362971672118362,51.1546380243367 -0.36264147580375,51.1543933654176 -0.362058278967298,51.1539418044276 -0.36083334851065,51.1529147772525 -0.360461308347121,51.1525606537263 -0.360159642059442,51.1523567533916 -0.360069376991828,51.1523222246698 -0.360057978109572,51.1523211655993 -0.359805413633697,51.1525083068709 -0.359503832532416,51.1527045596813 -0.359180394517743,51.1528754233865 -0.358964157012466,51.1530054448006 -0.358728257988235,51.1532045054388 -0.358467283205481,51.1533060287478 -0.358266957577537,51.1534327667585 -0.358098937274428,51.1536524665822 -0.357890325355169,51.1537700975647 -0.357594734855258,51.153880124015 -0.357384056691594,51.1540525648677 -0.357336027432586,51.154196632891 -0.357326756347169,51.1542585349167 -0.357320160015777,51.154321463705 -0.357338590735979,51.1544898389459 -0.357692099436832,51.1551233975273 -0.357906367273323,51.1555742978797 -0.357223708411807,51.1563146764297 -0.356924513145923,51.1566054431796 -0.356575621842371,51.1569674325886 -0.356853769180719,51.1571898919944 -0.356867551210182,51.1572035702378 -0.357100966387804,51.1572347188092 -0.357562779656578,51.1572789621575 -0.357954823518393,51.1573123350595 -0.358549145882947,51.1572874111799 -0.358829468124679,51.1572859501559 -0.358948836468477,51.1573478591709 -0.359047003704817,51.1575255341482 -0.359203483788447,51.1577912316483 -0.359334730635438,51.1580403026249 -0.359353763815161,51.1582717081414 -0.359621127427934,51.1587557137465 -0.35975582254395,51.1589508911611 -0.359835739411556,51.1591579774907 -0.359856540648546,51.159336274678 -0.359744972571233,51.1595397770786 -0.35965642034871,51.1598191188527 -0.359551074990356,51.1600865389743 -0.359410175905255,51.1603489649318 -0.359392768757597,51.1606004463624 -0.359383398896857,51.1608647157971 -0.359390386778953,51.16114989348 -0.35941254358709,51.1612932377352 -0.359476646198318,51.1614208986737 -0.359461253039191,51.161612263799 -0.35949190030085,51.1617556371595 -0.359563883963836,51.1619437329176 -0.359526865381563,51.1622228987173 -0.359658317162689,51.1624665780076 -0.359640494406178,51.1627298304859 -0.359631730510515,51.1629770274904 -0.359639610864791,51.162994219737 -0.359823452150003,51.1629743216568 -0.359879222316204,51.1631342295673 -0.360013499737464,51.1633016210495 -0.360001998389466,51.1633832705829 -0.360150088188133,51.1636434548929 -0.360256093716691,51.1638832704788 -0.36024598715587,51.1640053962133 -0.360328207219916,51.164147784393 -0.360371935995079,51.1644478597983 -0.360447383577069,51.1645783760458 -0.36043486218271,51.1646887800494 -0.36065719556158,51.1647908771978 -0.360656590592985,51.164807950469 -0.36061911947601,51.1649368842799 -0.360539098415018,51.1649753193954 -0.360176362402511,51.1651213608087 -0.359843569339299,51.1653108836145 -0.359722149626062,51.1653461307838 -0.35962487697326,51.1653888188818 -0.359519903670203,51.165645365456 -0.359414064041435,51.1659695064468 -0.359239453019415,51.1659715523381 -0.358977627548369,51.1658922725651 -0.358612056401742,51.1657954441717 -0.35822263169407,51.165726150254 -0.357267827934025,51.1655876941162 -0.357021404496181,51.1655563633787 -0.356783609048318,51.1655278511336 -0.35660941455332,51.1655182128484 -0.356607999249478,51.1655181929676 -0.356265130728386,51.1655061837883 -0.355593288346405,51.1654562867929 -0.355520485705097,51.1654507679991 -0.355134489327151,51.1654444433103 -0.354651512654431,51.1655122702102 -0.354359387570491,51.1655225454063 -0.353493456645722,51.1655382313044 -0.353018086689562,51.1656341188201 -0.35249702492441,51.1657247755681 -0.352213126064889,51.1657855063388 -0.351923257363816,51.1658515470838 -0.35131252031562,51.166012946625 -0.350777579781453,51.1661718152912 -0.350293664824269,51.1663879493476 -0.349930155163561,51.1665114725523 -0.348959342677285,51.1666631953759 -0.348482897752746,51.1666663600046 -0.346790457630306,51.1667549237385 -0.346053064580654,51.1668955367492 -0.345934580315639,51.1669307212165 -0.345821561574962,51.166971377604 -0.34574734414371,51.1670053901148 -0.345658249395515,51.1670563629986 -0.34552331714981,51.1671524482066 -0.345089665272976,51.1674394855107 -0.344626111022547,51.1676820471052 -0.344151149402679,51.1680422170406 -0.343777019789544,51.1683462756532 -0.343039373098023,51.1688519604588 -0.342884043409726,51.1689541363821 -0.342797700097508,51.1690104511599 -0.342263133659616,51.1692394112369 -0.341912272057957,51.1693674941155 -0.341673371972397,51.1693695028761 -0.34094912145627,51.1695004713714 -0.340876300345821,51.1695380960914 -0.340471680095904,51.1697705993914 -0.339887111756449,51.1699988385123 -0.339565428967852,51.1701121359752 -0.339242461470616,51.1702217272704 -0.33757401912148,51.170675504045 -0.336998014932804,51.1708615968866 -0.336443803973977,51.1711172216532 -0.335741355015831,51.1715163774154 -0.335851453381093,51.1715575001847 -0.336068394909632,51.1716514769976 -0.336230220566533,51.1717661561508 -0.336511074354252,51.1719130949736 -0.336766581661846,51.17212539044 -0.33689779687958,51.1722550075861 -0.337026089621327,51.1723871891549 -0.337123165818434,51.172511735351 -0.337529464708486,51.1730705886482 -0.337738401935525,51.1733055951552 -0.337879130086629,51.1734496403667 -0.337938949197414,51.1735377851398 -0.337984581307724,51.1736202445341 -0.338064557588137,51.1738236611963 -0.338187474812089,51.1740268783698 -0.338510726567758,51.1743075592079 -0.338847712252562,51.1744850465413 -0.339069322362811,51.1747255344344 -0.339108276694882,51.1747575532475 -0.339314634733116,51.1749071128305 -0.339387541597228,51.1749495028497 -0.339467717176416,51.1749866021017 -0.33962321422213,51.1750382549407 -0.340011846271974,51.1751310644249 -0.340231461607153,51.1751512619436 -0.340300398493151,51.1751432497644 -0.340403471122093,51.1751438125764 -0.340492962164493,51.1751612644859 -0.340571916865229,51.1751929508745 -0.340616628834354,51.1752223538954 -0.340655552417327,51.1752552710268 -0.340682761392888,51.1752925166083 -0.340704920642677,51.1753521662762 -0.340925274464813,51.1756313822578 -0.341036026140797,51.1757336448016 -0.341085450218474,51.1757928725171 -0.341158581898955,51.175908087329 -0.341166027517401,51.175980115693 -0.341143826480118,51.1760400364975 -0.340952873651795,51.1761776681745 -0.340823632907519,51.1762324747622 -0.340722697557183,51.1762939758944 -0.340680006306246,51.1763266353033 -0.340632489643403,51.1763754081454 -0.340592096293385,51.1764261705156 -0.340567678084364,51.1764689776819 -0.340435417362991,51.1768447869626 -0.340388699362354,51.1771903432434 -0.34031543210156,51.1773979696672 -0.340341078313274,51.1775610587967 -0.340291136011746,51.17771687234 -0.340293544637533,51.1777681518366 -0.340303207620231,51.1778177356537 -0.340395607722068,51.1779548909094 -0.340602374082828,51.1783732683544 -0.340697383787812,51.1785166636935 -0.34073445050303,51.1785981923072 -0.340761519769194,51.178682186179 -0.340775542972953,51.1787713898905 -0.34077495260963,51.178906326746 -0.340652107653227,51.1791805883952 -0.34063372996152,51.179212783238 -0.340016816303482,51.179339786681 -0.339889334417159,51.1793847276494 -0.339747016382163,51.1794420444558 -0.339609506227586,51.1795264899472 -0.339700209186216,51.1796320654367 -0.339747270395106,51.17967498834 -0.339858341074349,51.1797718615941 -0.340084519736911,51.1799648574935 -0.340076671751481,51.1799863228871 -0.340305067025588,51.1798807800389 -0.340552800291911,51.1797951992454 -0.340800399112732,51.1797133022223 -0.341005848818691,51.1796883455927 -0.341024348913614,51.1796922041864 -0.341255775537472,51.179742235186 -0.34157070196018,51.1797763681693 -0.34185648616244,51.1797876103684 -0.342083669835851,51.1798375804938 -0.342259850423474,51.1798689352034 -0.342461847001191,51.179864605431 -0.342680312402895,51.1798352447584 -0.343030357270534,51.1798078371363 -0.34327642332059,51.1799696422324 -0.343625556505701,51.1801687769759 -0.343890267926494,51.1802876903633 -0.344066186075757,51.1803297384166 -0.344464900027371,51.1804225870894 -0.344766885346388,51.1804592253141 -0.345058453584702,51.1804705415075 -0.345236817574525,51.1804838531166 -0.345373034572815,51.1805145488719 -0.345800532619482,51.1806834089845 -0.346602466530067,51.1811857977407 -0.34675452619634,51.1813344889235 -0.346873239701073,51.1815349432626 -0.346989321800767,51.1817694335925 -0.347329176631409,51.1823084413985 -0.347306780679855,51.1824565550661 -0.347317488524769,51.1825960570806 -0.34726061849974,51.1827085322237 -0.347197720163838,51.1828246083785 -0.346979794869454,51.1830796427647 -0.346797736370798,51.1833279010669 -0.346832981322052,51.1835433578139 -0.347281306005648,51.1836090286953 -0.347646092719905,51.1836914976613 -0.348131100764604,51.1837739551327 -0.348227324416888,51.1838049812745 -0.348272242599984,51.1838289907079 -0.348297242577656,51.1838491226699 -0.348393088639467,51.1839700481486 -0.348542236252736,51.1841214839206 -0.348959298209304,51.1845841735577 -0.34923269854133,51.1847814147889 -0.349456458652672,51.1849679764694 -0.34959269863497,51.1851605848123 -0.349662105669569,51.1853019039497 -0.349685867997417,51.1854361969028 -0.349688313873279,51.1854470193927 -0.349709779817164,51.1855695917576 -0.349687304396878,51.1857168074364 -0.34955774856886,51.1859784898593 -0.349377197046161,51.1862276737042 -0.349190215507851,51.1864552805009 -0.349015667575669,51.1866947497368 -0.348878165288301,51.1868582327478 -0.348780880078573,51.1870187777058 -0.348701214791422,51.1872443018914 -0.348663268986365,51.1873885120943 -0.348493096895476,51.1878259213248 -0.348345317892186,51.1882374840042 -0.348229911726201,51.1883832975862 -0.348142327063576,51.1884702571379 -0.348015348677794,51.1885799459767 -0.347875740098877,51.1886831621485 -0.347370028607315,51.1890996485344 -0.34727556233612,51.1891810263228 -0.347097916349139,51.1893448395153 -0.347035579620148,51.18948789525 -0.347019450919379,51.1895793697869 -0.347011968526938,51.1899506582574 -0.346998482303944,51.1901663272896 -0.346937570285625,51.1908309369228 -0.346910852833088,51.191215439449 -0.346918148285431,51.1914934356446 -0.346898615618372,51.1917198080782 -0.346869567271787,51.1918921034452 -0.346667483995083,51.1922606421914 -0.346555269714153,51.1925180695482 -0.346448559837806,51.1927799811412 -0.346340944734284,51.1930671420084 -0.346277474283787,51.1932020901735 -0.345961872315215,51.1938244396698 -0.345588456168272,51.1943011363549 -0.345323075255018,51.1946769584493 -0.345102202220703,51.1949696191905 -0.344927890285792,51.1952009936016 -0.344867211498986,51.1952973214973 -0.344849564871249,51.1954705868257 -0.344871664459571,51.195654393858 -0.344941429177087,51.1961022927436 -0.34503123586175,51.1966332777972 -0.345142293306681,51.1968902650401 -0.345235458855031,51.1971657899558 -0.345277485191801,51.1974325896838 -0.345325270628351,51.1976967747263 -0.345421645781827,51.1982422355273 -0.345505799055246,51.1987731400292 -0.345559540476182,51.1990292273084 -0.345629954831612,51.1993009228445 -0.3457007779319,51.1995645340259 -0.345783534627176,51.1998112317048 -0.345868385807313,51.1999994308939 -0.34610797771007,51.200345531227 -0.346290406478897,51.2005674748172 -0.346510506331237,51.2008152134253 -0.346987851556256,51.2012787593289 -0.347302907132903,51.2017526868595 -0.347471425704164,51.202004190622 -0.347657586514701,51.2022442559743 -0.348007781390419,51.2027392660681 -0.348176852846131,51.202975492093 -0.348325193276987,51.2031511004952 -0.348505867070553,51.2033434377588 -0.348558235758398,51.2034799308801 -0.348690724666735,51.2035376314553 -0.348854137901761,51.2036118602015 -0.349003380828917,51.2036400373129 -0.349061657933624,51.2036507490322 -0.349120309054388,51.2036542734323 -0.349276647794927,51.2036456908658 -0.350686829592593,51.2034407241373 -0.350845704130203,51.2034007088734 -0.350944286732666,51.2033634391869 -0.351050569179794,51.2033154899669 -0.351206929990429,51.2032268004075 -0.351404328521008,51.2030695527466 -0.351473331648838,51.2030210770646 -0.351616966310043,51.2029251058625 -0.351804269643822,51.2028125764442 -0.351918234133983,51.2027476523806 -0.352455511611878,51.2024917091927 -0.35254620436981,51.2024372457601 -0.35260815907661,51.2023877717128 -0.352671859490537,51.2023257356679 -0.352720033716795,51.2022588964474 -0.352749651991117,51.2021927843595 -0.352758483832757,51.20210390361 -0.352718247130628,51.2019081560097 -0.352671400195934,51.2018184924531 -0.352619677637054,51.201743143576 -0.352524947033934,51.2016293406123 -0.352431457495888,51.201441025028 -0.352280679551624,51.2010917832352 -0.352232724834318,51.2008311963605 -0.352138775226821,51.2004935432892 -0.352175051033143,51.2004823668168 -0.352213848699011,51.2004766198156 -0.352531810619836,51.2007940510775 -0.352674333269876,51.2008913556329 -0.352945805331067,51.2010264358729 -0.353308464111119,51.201129624426 -0.354142061195948,51.2004326382698 -0.354541407918905,51.2001514612675 -0.354930574346075,51.1999141018771 -0.355397012783451,51.1995978132286 -0.355398429115864,51.1995978331319 -0.355519466854094,51.1996157167947 -0.355563975868801,51.1997314187231 -0.355716065360551,51.1999646979084 -0.355877626072345,51.1999283097142 -0.356133022545571,51.1998716617023 -0.356394402031157,51.1998060169816 -0.35645919007923,51.1997961380143 -0.356532429474622,51.1997908732695 -0.356609691486861,51.1997919582324 -0.356702386514121,51.1998004524095 -0.356783447705593,51.1998141771361 -0.356818934112065,51.1998218679502 -0.357479161717488,51.2000964414916 -0.357880864188571,51.2001902742583 -0.357967261016961,51.2002166595502 -0.358021034168594,51.2002344961118 -0.358628737979948,51.2004929526701 -0.358819985295828,51.2005478693688 -0.359004284804171,51.2005990012388 -0.359055482574742,51.2006096086522 -0.359155057117412,51.2006271875798 -0.359259101161275,51.2006385358173 -0.359314800344627,51.2006420136642 -0.359573453443702,51.2006132738244 -0.359678122675166,51.2005670917742 -0.359726634751699,51.2005336083993 -0.359775512110788,51.200486554387 -0.359846127541567,51.2003922467198 -0.359928701879737,51.2002036168381 -0.359981807513326,51.2001171546616 -0.360029774493744,51.2000557935033 -0.36007109101034,51.2000222082695 -0.360149980042346,51.1999774631622 -0.36040492739825,51.199810127903 -0.360572218819523,51.1997351546752 -0.360661513690577,51.1996797661632 -0.360726233712186,51.1996285289363 -0.360784313819697,51.1995681175971 -0.360830809255627,51.1995049369181 -0.360870854097827,51.1994272816611 -0.36144150748745,51.1985899082292 -0.361597098342685,51.1984419475854 -0.361741623846221,51.1983198142533 -0.361874091573255,51.1982182793731 -0.361970640165725,51.1981611928303 -0.362085581708825,51.1981079608117 -0.362184111705106,51.1980715802016 -0.36227360856882,51.1980503566062 -0.36237146472626,51.1980363525444 -0.362464539272409,51.1980340586528 -0.362557350742963,51.1980425498401 -0.362693563125591,51.1980751125519 -0.362821078860317,51.1977900135308 -0.364375630756734,51.1972164089647 -0.365203946863957,51.1970660658671 -0.365952291428077,51.1969110948869 -0.366166263735186,51.1972144501168 -0.366382209965748,51.1974620025156 -0.366501200082485,51.197577931315 -0.366581159753955,51.1976662536834 -0.366641267198896,51.1977453086811 -0.366691369576097,51.1978270118212 -0.366738071498074,51.1979247594414 -0.366770321188776,51.1980241030376 -0.366797769070892,51.1981792104566 -0.366886084673312,51.1984754165968 -0.367063572785322,51.1987161376788 -0.367225428446721,51.1986743431608 -0.367286685640873,51.1986005780114 -0.367827828659925,51.1985155261047 -0.369169263771281,51.1983453392444 -0.369544767177145,51.1982921334371 -0.369643782771235,51.1987305343239 -0.369656584823171,51.1988126149002 -0.369667185407801,51.1990006608986 -0.369768916155632,51.1992817681124 -0.369861477434914,51.1995384737803 -0.370368857148348,51.2002910206665 -0.370663330149195,51.2007493132393 -0.370774306725433,51.2010530243622 -0.370887188210672,51.2014232906802 -0.37111898394684,51.2020362422953 -0.371270895659133,51.2025986358266 -0.371330009349294,51.2027900537175 -0.371467755761285,51.2030644688514 -0.371612749021472,51.2032571714621 -0.37166888627376,51.2032885194767 -0.371727087724243,51.2033450700844 -0.371746659060399,51.2033992837479 -0.371732684128886,51.2034710129598 -0.371756640507474,51.2036017958557 -0.371861847249515,51.2037848644328 -0.372274822602173,51.2045793323513 -0.372366572381449,51.2047792953125 -0.372464844855898,51.2050756352302 -0.37256026767229,51.205416078079 -0.372649280486743,51.2062203333911 -0.372666194356012,51.2064741869416 -0.372653161918154,51.2065594142143 -0.372654720085683,51.2066358532291 -0.372665045623029,51.2067080094102 -0.372716008584355,51.2068462710011 -0.372780962063269,51.2069559569196 -0.372800075186333,51.2071037542034 -0.372846815612697,51.2072815141748 -0.372974523146054,51.2075566859617 -0.373021917730507,51.2076320543603 -0.37307415567823,51.2076939143498 -0.37320598751611,51.2078117221299 -0.373263287236106,51.2078538742563 -0.373416184226318,51.2079432952428 -0.373826529891786,51.2082438811957 -0.374646392110988,51.2088254361195 -0.374837419645444,51.2089720238523 -0.375084760360264,51.2091822355471 -0.375253969047108,51.2093384091886 -0.376014729038631,51.2100980424637 -0.376396547031548,51.2105161761398 -0.376801531013277,51.2110109571147 -0.377223896937998,51.2113774158628 -0.377830753629576,51.2118319283221 -0.378810443729292,51.2125145623566 -0.378934284743655,51.2125783106285 -0.379001442591472,51.2126223949729 -0.379047315231131,51.2126607896672 -0.379115978727887,51.2127427432432 -0.379196459425255,51.212858035246 -0.379259870902229,51.2129685952857 -0.379381320771196,51.2131375863215 -0.379664053022847,51.2134877184557 -0.379975625012512,51.2139110708765 -0.380040042524643,51.2140334214955 -0.38020009325016,51.2143710655023 -0.380483150485727,51.214874036227 -0.380595303030891,51.215062676271 -0.380837623248772,51.2153807801172 -0.38109110911366,51.2156262160451 -0.381177484070924,51.215694837623 -0.381259839020112,51.2157535149473 -0.381585372760351,51.2159442063271 -0.381732999653365,51.2160640202267 -0.382088730140293,51.2163702035014 -0.382611112110798,51.2169916423031 -0.382832734719323,51.217328335482 -0.383014519776582,51.2175754733389 -0.383193915278666,51.2178504477654 -0.383238249187961,51.2179364683288 -0.383283189800207,51.2180422753228 -0.383311235704165,51.2181416465573 -0.383328814717118,51.2182533688453 -0.383327246965934,51.2184196680417 -0.383269319185213,51.2186850719622 -0.38315058138374,51.2186807349402 -0.383141807159957,51.2189719897375 -0.383123722853682,51.2191615250245 -0.383196619474398,51.2193693099757 -0.383234006844294,51.2195290446171 -0.383240611770582,51.219627130477 -0.383236427200019,51.2197467338814 -0.38321931993522,51.2198678665432 -0.383216768333941,51.2201466207896 -0.383257306992109,51.2204187785734 -0.383394482671169,51.2206724920275 -0.383517789535827,51.2206679016848 -0.383727265587287,51.2214774050964 -0.38379645898271,51.2215853452655 -0.384041474501957,51.2219089628772 -0.384070690123817,51.2219749953835 -0.384096924377601,51.2220418860139 -0.384160135901798,51.2222837886402 -0.384240588860364,51.2225222439245 -0.384410546585158,51.2228619057061 -0.384317107232074,51.222873202485 -0.384420900025743,51.2231398496112 -0.384474617642705,51.2232413724499 -0.384641778075456,51.2235395506276 -0.384718426466676,51.2236404005622 -0.38487652809734,51.2238296700568 -0.385032460911284,51.223999940721 -0.385440582323012,51.2244075272582 -0.385645962052273,51.2247611613658 -0.385710856210959,51.2249112958671 -0.385883354362045,51.2253444002788 -0.3857526480269,51.2253542850529 -0.38588644874026,51.2257491833577 -0.3859225297323,51.2258216021884 -0.386039003361814,51.2260129003066 -0.386379540120916,51.2263917662045 -0.386638153001672,51.226695693132 -0.386769885696208,51.22685933138 -0.387181447797283,51.2275412437661 -0.387368630075523,51.2277605756921 -0.388019873188092,51.2283459950733 -0.38838351798551,51.228598322473 -0.388543127249509,51.2287012097851 -0.388604123636081,51.2288009409058 -0.389017181074345,51.2292787903912 -0.389329418171485,51.229769545184 -0.389716187514101,51.2301381588643 -0.388993928892311,51.2303953191857 -0.388632528414182,51.2305315804798 -0.387797432541253,51.2308204442234 -0.386890420797113,51.2311595543173 -0.386898225950294,51.2312234923717 -0.385712703163293,51.231742243803 -0.38523877334574,51.2319415824829 -0.384449525402802,51.2322283568149 -0.383306004284221,51.2326928239123 -0.382289800892125,51.2331193930272 -0.381353920704707,51.2335013035161 -0.38034372045556,51.2338802904981 -0.379956850303547,51.2340070913462 -0.380160951576883,51.2341916052869 -0.380376110614695,51.234343818257 -0.380515043688083,51.2344267409017 -0.380658070561938,51.2345545807799 -0.380867578710424,51.2348308672767 -0.381037967596195,51.2350372987654 -0.380348329407445,51.2352597927909 -0.37988843230146,51.23542433053 -0.379269539732796,51.2356297274587 -0.378842417091968,51.2357587541253 -0.378557516363973,51.2358770732455 -0.378265309284035,51.2360385325352 -0.378180899005313,51.2360778183539 -0.378094952277058,51.2361170828237 -0.377820650048575,51.2362193647112 -0.377441560019092,51.2363256781677 -0.37627625259949,51.2365918985077 -0.375617285668822,51.2367940233592 -0.375242230191084,51.2369498308976 -0.375088379578306,51.2370088274673 -0.374678638086288,51.2371298995924 -0.374143892080016,51.237265505463 -0.373669403072548,51.2373937654471 -0.37296891967447,51.2375567308922 -0.372367319001469,51.2376787242621 -0.371635060710931,51.2378448360802 -0.37114495454396,51.2379333116985 -0.3708700549196,51.2379681438584 -0.370700069486771,51.23799544571 -0.37040041716893,51.2380020622058 -0.36965583822292,51.2379916945082 -0.369413527829208,51.238000006353 -0.369279948267527,51.2380098333356 -0.368265124425565,51.2381063599134 -0.36793340875549,51.2381278061631 -0.367387435064548,51.2381759311247 -0.366012827178268,51.2382790176115 -0.365840077755071,51.2383008791318 -0.365353104735081,51.2383804742196 -0.365003280983137,51.2384295293504 -0.364037765788701,51.2385472948854 -0.363685488219236,51.2385855241967 -0.362607569807452,51.2387251703203 -0.362447817727041,51.2386636011888 -0.362284371245339,51.2386262531381 -0.362205532194592,51.2386278479184 -0.362182596396332,51.2386284253861 -0.361717314683805,51.2386623698518 -0.361461982194971,51.2386713822557 -0.360950762755277,51.2386651246392 -0.360385693593316,51.2386419282524 -0.36018803311707,51.2386400587906 -0.359797860916959,51.2386543700359 -0.359482916895459,51.238649058352 -0.359228265272462,51.2386787522507 -0.358854667600854,51.2387517287857 -0.358752380908547,51.2387682755372 -0.358648773970396,51.2387821058889 -0.358565660495311,51.2387809404847 -0.358479961549506,51.2387761426 -0.358245337685629,51.238724305361 -0.35801072542038,51.2386356086852 -0.357731895455046,51.2385813526916 -0.357536942548532,51.2385831128998 -0.357261264822619,51.2385630622393 -0.357125178248535,51.2385602531404 -0.356851406396461,51.2385662997918 -0.356716502724577,51.2385733960541 -0.356515016923323,51.2385993358488 -0.356443325200949,51.2385992285595 -0.356373359085223,51.2385937507561 -0.356226994470397,51.2385611294989 -0.356148635672851,51.2385492415414 -0.355974392081872,51.238533309129 -0.35561663717864,51.2385228903367 -0.355289890569906,51.2385272898951 -0.35485754522814,51.2385185176438 -0.354430345176161,51.23852779606 -0.354011227666368,51.2385488734355 -0.35400977807249,51.2385497523191 -0.353673489734811,51.2386196407732 -0.353468361735029,51.2386284425331 -0.353249601872179,51.2386154769607 -0.353074007212978,51.2385977226853 -0.352528238119528,51.2385567799166 -0.35217851926372,51.2385230890638 -0.352006854112619,51.2385143793671 -0.351799471949231,51.2385069650589 -0.350912847296171,51.238501670035 -0.350730041616242,51.2384874079008 -0.350128018376531,51.2384969048651 -0.3491737474728,51.2385005336691 -0.348876534101522,51.2384783621843 -0.348733482154369,51.2384754452161 -0.348590021885064,51.2384806139191 -0.348331340763995,51.2385039344685 -0.347773095665779,51.2385311185452 -0.346380941799489,51.2385618066991 -0.345322928483322,51.2386223739615 -0.344371348558995,51.2386331930867 -0.343730586589476,51.2386457953744 -0.342773031968159,51.2386223546795 -0.342562796331155,51.2386121868989 -0.342095815520289,51.2385713213133 -0.342008738923191,51.2390386526437 -0.341881902884565,51.2396591515193 -0.341294660651209,51.2396939857064 -0.341131987373622,51.2396781952992 -0.340961822450005,51.2396703901116 -0.340789799461097,51.239671547426 -0.33983919458409,51.2396940314543 -0.337574468663178,51.2397275208225 -0.335702049608702,51.2397665442607 -0.335670020260716,51.2399405875376 -0.33566997694128,51.2400989023022 -0.335677895289963,51.2401970072994 -0.335722092630754,51.2404027003891 -0.33579980631401,51.2406321537768 -0.33570590077817,51.2406910527408 -0.335933315255354,51.2412599434987 -0.335959279674343,51.2413718794237 -0.335986017545696,51.241665427328 -0.33597344389479,51.2417749278981 -0.335910986457517,51.2419574387454 -0.335884911061912,51.2420057041365 -0.335792808977715,51.2421356503436 -0.335691015876272,51.2423770268115 -0.335674300453014,51.2424801755911 -0.335676930530174,51.2428066444979 -0.335713450797097,51.2429861571181 -0.335736562636771,51.2430593058744 -0.335785285330355,51.2432182250771 -0.335822130562486,51.2433887522581 -0.336073958948383,51.2440703668916 -0.337236554326626,51.2460014203268 -0.33864611827097,51.2483173268572 -0.338874281664101,51.2486640757382 -0.338999904014447,51.2488762264996 -0.339172196497619,51.2491080082775 -0.339252134964322,51.2491945483645 -0.339643695682139,51.2494627031823 -0.33968248659766,51.2495010117247 -0.339719740843186,51.2495392984636 -0.339916208507734,51.2498118772159 -0.340055375576475,51.2500090256035 -0.340275497573304,51.2499429221455 -0.340782523975029,51.2498295504098 -0.341966052350398,51.2495945027279 -0.343717164527199,51.2492730773103 -0.344132630034042,51.2495145840786 -0.344312599901509,51.2496484751324 -0.344572546079701,51.2498715088029 -0.344866599182339,51.2500627492906 -0.344904138418961,51.2500965438063 -0.344932809398423,51.250133808226 -0.344985176690509,51.2502712873507 -0.345185604169965,51.2504772968657 -0.345248852106919,51.2505519090167 -0.345435662813033,51.2508180485958 -0.345873945041755,51.2509412023406 -0.346279277094314,51.2510673953198 -0.346641560942927,51.2511552197188 -0.347005903363053,51.2514229650472 -0.347046795091865,51.2514424215277 -0.347142028694845,51.2514653419966 -0.347340099100627,51.2515364622998 -0.347397142816097,51.2515832073749 -0.347565863505539,51.2517941582492 -0.347620496638101,51.2518290914936 -0.347657308966596,51.2518403994854 -0.347723042177759,51.2518458216016 -0.348899577974261,51.2515656551537 -0.349498623445587,51.2514428455023 -0.34971107646438,51.2513927985393 -0.350031225585055,51.2513343795748 -0.350523379995921,51.2512764944493 -0.350537818077334,51.2513154454587 -0.350552340632668,51.2514280260468 -0.350539054054825,51.2516805509063 -0.350506655210369,51.2518661888183 -0.350416479361841,51.2521014481583 -0.350249127217552,51.2522547094347 -0.349829367319386,51.252531083404 -0.348964467962835,51.2527131670258 -0.34887134818814,51.2527532085526 -0.348837530852787,51.2527770046961 -0.348802844595682,51.2528250624876 -0.348052099162863,51.2529008676247 -0.346455016294999,51.2530788037791 -0.346035824626098,51.2537797744625 -0.346181102793658,51.2538438579053 -0.346255427436465,51.2538898584027 -0.347106096226744,51.2539441235838 -0.347356396398178,51.253998899529 -0.347415928782664,51.2540159220645 -0.347529182861191,51.2540570773758 -0.34758835793132,51.2540840730444 -0.34772327801295,51.2541569992606 -0.348099449649719,51.254418613991 -0.349968007843306,51.255144568921 -0.349317559149193,51.2562594329917 -0.349403247688037,51.256308377594 -0.349576400782021,51.2563962243548 -0.349694914168462,51.256449138545 -0.349768483116918,51.256473550038 -0.349947530671658,51.2565156293251 -0.351368504117234,51.2568971364818 -0.351521161436656,51.2569172656891 -0.351726599517566,51.256941734357 -0.351819623161084,51.2569475394797 -0.351889839927209,51.2569467294882 -0.352589185069191,51.2568657730446 -0.352702617425843,51.2568592785266 -0.352833066998941,51.2568593154993 -0.353001912541956,51.2568661864756 -0.353167634524243,51.2568811039675 -0.35335485142288,51.2568963235653 -0.353356269512742,51.2568963435116 -0.353469154854426,51.2569051235871 -0.354223663509118,51.2570066227736 -0.354416117604129,51.2569976413026 -0.354508315036713,51.256983563385 -0.354600636029535,51.2569659817912 -0.354902619843001,51.256857849852 -0.355340212727928,51.2567210562667 -0.356358360062447,51.25638456148 -0.35642062847073,51.2563647588741 -0.356709282847105,51.2562690212514 -0.35719431883103,51.2561301888575 -0.357321841602032,51.2560896354251 -0.35742473427848,51.2560173599698 -0.357528660530735,51.2559558874239 -0.357514787188687,51.2559440059142 -0.357507806371201,51.2559376149061 -0.357544317411414,51.2559210455866 -0.357567582008611,51.2559114827478 -0.357566334584239,51.2559033745464 -0.357557886438598,51.2558619014542 -0.35773009333004,51.2557743268331 -0.357953459108764,51.2556569924949 -0.358360632439972,51.2554513455972 -0.359672348867027,51.2547961949605 -0.360252008027462,51.2545741688347 -0.360592745128592,51.2544619795848 -0.361241194198766,51.254282266414 -0.361583897780697,51.2541943757045 -0.361841149494602,51.2541737027083 -0.362023848970816,51.2541528844426 -0.362287300445114,51.2541206094381 -0.36382156341808,51.2542966923293 -0.365224547605682,51.2544566281371 -0.366331198117921,51.25457006759 -0.367671308787377,51.2546841459129 -0.368646362729555,51.254790335704 -0.369653588122076,51.2548789846795 -0.370509990601829,51.2549358580446 -0.371832775208521,51.2550559408728 -0.372661584422605,51.2551214055862 -0.373342076088909,51.2551677220886 -0.374157120304273,51.2552617533796 -0.375998293478309,51.2555157470285 -0.377361017044929,51.2556802829089 -0.379375342893883,51.2559842708854 -0.379999986747655,51.2560702308172 -0.380759857741064,51.256185118613 -0.381999310977622,51.2563514915243 -0.382846815917073,51.2564576876719 -0.382851373952487,51.2564523559355 -0.382991594869523,51.2562950785819 -0.383157877828588,51.2560482595313 -0.38332798759737,51.2559786881569 -0.383914217762049,51.2558528302217 -0.384331131024511,51.2557739880754 -0.385157891196805,51.2556154826582 -0.385158363353715,51.25560200377 -0.38517687179572,51.2553603356921 -0.385152204205706,51.2551639211167 -0.385119188941415,51.2550843535915 -0.385161364099919,51.2549833470368 -0.385227451996831,51.2549384095687 -0.385417917223285,51.2548609345337 -0.385562652080341,51.2548206777533 -0.385745878995454,51.2547845468612 -0.385995948420559,51.2547223673878 -0.386529220069282,51.2546371202871 -0.386815674665634,51.2545987252637 -0.387003743345551,51.2545896290304 -0.387059635577604,51.2545895007847 -0.387135384047802,51.2546364834963 -0.387153612117353,51.2547706867064 -0.387197546055248,51.2549097395043 -0.38732120819266,51.2553062886632 -0.38742642773261,51.255574833808 -0.387474741726164,51.2557103506536 -0.387565168380504,51.2558275683475 -0.38759670275357,51.2558280027016 -0.388052538689817,51.2558252904638 -0.388363070622847,51.2558385560308 -0.388795527662835,51.255889458836 -0.38909419251731,51.2559143368212 -0.389274244826868,51.2559285012597 -0.390060864799663,51.2560561934962 -0.390376006433794,51.2561405384848 -0.391073538997386,51.2563596872057 -0.391344746867645,51.2564299412403 -0.391570118510397,51.256462704838 -0.391537964277659,51.2562734710399 -0.391753019671659,51.2558195497992 -0.391862519453288,51.2553903386842 -0.391956162342938,51.255253087641 -0.392176904612083,51.2550898030161 -0.392418525025684,51.255144365161 -0.392711616435724,51.2551663696492 -0.393281722210776,51.255173296622 -0.393855320373699,51.25516138953 -0.394068918445895,51.25520297765 -0.394142539918208,51.2552264629756 -0.394213319013362,51.2552535054323 -0.394348567727645,51.2553191896446 -0.394459712986442,51.2550896691031 -0.394519710736122,51.254642605016 -0.394395845420624,51.2543315575296 -0.394405427253331,51.2542633644629 -0.394422065091504,51.2541961665392 -0.394505534841349,51.2540623700678 -0.394587979837942,51.2538765072207 -0.394611316739498,51.2536169229666 -0.394635924170434,51.2534463592602 -0.394664935925498,51.2532714495349 -0.394821542687556,51.2525199574002 -0.394864777187763,51.2521842306605 -0.394971752261719,51.2519079039404 -0.395076977451907,51.25156304785 -0.395155484960504,51.2513645444044 -0.395201788810885,51.2512697939191 -0.395357530150454,51.2511163996946 -0.395574342890204,51.250939480252 -0.395758881851933,51.2508242386052 -0.395825391296966,51.2507667147545 -0.395884758894485,51.2507072944662 -0.395939890408513,51.2505659162359 -0.39596475467458,51.2497695594123 -0.395943803018036,51.2495057742318 -0.395908980189458,51.2492705663498 -0.395721725674306,51.2484757982127 -0.395714470748262,51.2482292812214 -0.395632405790364,51.247952971565 -0.39557712611656,51.247687816499 -0.395512956939265,51.2472265561625 -0.395493293839371,51.2469699807495 -0.395537516155034,51.2467277653938 -0.395609458429591,51.2463474840097 -0.395692042769633,51.2455796961936 -0.395764564243465,51.2451418859792 -0.395834004589107,51.2445888703162 -0.395814461667303,51.244284649072 -0.39576367523801,51.2439719080808 -0.395732660245339,51.2438752898181 -0.395728429855978,51.2438338774526 -0.39573118997939,51.2437952586764 -0.395800869694282,51.2437277985805 -0.395890316443838,51.2437101451975 -0.395985454809011,51.2436952666235 -0.396337632576198,51.243700991016 -0.396774558467077,51.243661126888 -0.396758191466097,51.2435134659261 -0.396710038445703,51.2432097513123 -0.396678158808504,51.2430563941594 -0.396601252560982,51.242754084182 -0.396568293184478,51.242546861645 -0.396560560138458,51.2424396840993 -0.396562202670044,51.2422293393514 -0.396572850261862,51.2421269079646 -0.396660825739948,51.2419033616397 -0.396797182671896,51.2417729851815 -0.396970945429083,51.2416369176784 -0.397052439775432,51.2415624270848 -0.397129630250819,51.2414825736412 -0.397266344562576,51.2413010477678 -0.397336169048009,51.2411068292011 -0.397342528627006,51.2410053290654 -0.397340950683851,51.2406393212171 -0.397354493777809,51.2403310571102 -0.397339294779273,51.2401905142965 -0.397319905240934,51.2400482055021 -0.397219427317353,51.2394757805976 -0.39719785319186,51.2391481564609 -0.397151472191421,51.2388750324985 -0.397117324257912,51.2385796006867 -0.397051015330676,51.2383871142399 -0.397001823189495,51.238194952071 -0.396963682669025,51.2378886770269 -0.397353726607919,51.23767007466 -0.397956793689954,51.2374256190603 -0.398726077773858,51.2371357857105 -0.398992919748096,51.2370396459288 -0.39959982949992,51.236847376485 -0.400967401296939,51.236364329515 -0.401513317157818,51.2361559330384 -0.402015654171768,51.2360018696796 -0.402610871327812,51.2358975266954 -0.40295062941652,51.2358509195796 -0.403290173326514,51.2358070045528 -0.403817333972068,51.2357647485313 -0.404707040677444,51.2356383393695 -0.405243311594562,51.2355818164325 -0.406363402681384,51.2355008766906 -0.407294099300177,51.2353875919843 -0.408119227920868,51.2353044195655 -0.40867778851923,51.2352212141381 -0.408961076896391,51.2351918018298 -0.409288479209734,51.2351674828134 -0.410038569962406,51.2351812691891 -0.410571927966193,51.235167834398 -0.4109345980277,51.2351619704218 -0.410973323984552,51.2351588999382 -0.411077335396297,51.2351737962322 -0.411264714066849,51.2352680383579 -0.411650464123158,51.2355044083309 -0.411729322554273,51.2355432366134 -0.411814089264196,51.2355785488394 -0.412460117396799,51.2357850932692 -0.413002850546099,51.2359148070871 -0.4132243785201,51.2359744475674 -0.413445757334985,51.23603498487 -0.4144781389034,51.2363376432887 -0.414593295696847,51.2363616782503 -0.414722980197467,51.2363823136743 -0.414885878786223,51.2363953071149 -0.415071247344622,51.2364211915598 -0.415603993916245,51.2365085043197 -0.415839293709233,51.2365800130701 -0.415943925498011,51.2366182889063 -0.416148314356035,51.2367163485993 -0.416221204562689,51.2367640830371 -0.416315919174563,51.2368400726137 -0.416406936640106,51.2369033351664 -0.416664554767792,51.2370749337456 -0.416828589362113,51.2371788303026 -0.417147306171622,51.237370134146 -0.417274684604457,51.2374546543697 -0.417399290133972,51.2375408455682 -0.417533287880195,51.2376424474941 -0.417671471431367,51.2377494987313 -0.418012513987049,51.2380373852951 -0.418195578396566,51.2381721030696 -0.418627406531991,51.2384890837251 -0.419107357397881,51.238739286738 -0.419255247768337,51.2386458998103 -0.419412494340357,51.2386965689672 -0.42029089617115,51.2391077649615 -0.420846378929547,51.2394120213691 -0.421118737446978,51.2395748199355 -0.421400890852635,51.2397414351346 -0.421647727165774,51.2398562407794 -0.421892539442202,51.2399854014454 -0.422228164067526,51.2401428471635 -0.422345175106632,51.2400716044849 -0.422688069959857,51.2401823077953 -0.423159769012636,51.2402983413371 -0.423585908911079,51.2404480115296 -0.423697573169969,51.2404917689211 -0.423940297413583,51.2405993220321 -0.424382678099725,51.2408166338865 -0.424628423647716,51.2409188315461 -0.424767179289972,51.2409683462804 -0.424907409751627,51.2410161720923 -0.425152782629181,51.2410877985513 -0.42541902560941,51.24113632975 -0.425549157944665,51.2411443731139 -0.425550574168356,51.2411443921617 -0.425792857639487,51.2411404591372 -0.426157608406947,51.2411129990922 -0.426846710831503,51.2410719173144 -0.427128612158509,51.2410388463083 -0.427421747269341,51.2409707733058 -0.42832995456018,51.2406385612482 -0.428533521525439,51.2405504945601 -0.428806760237397,51.2404768480252 -0.428932206273658,51.2404524602138 -0.429058916839449,51.2404325846585 -0.429338971389474,51.2404119797109 -0.429502255816333,51.2404141704349 -0.429828370985791,51.2404284334215 -0.430365734132228,51.2404689936117 -0.43053407526654,51.2404892305839 -0.431423748736162,51.2406144300342 -0.432067153361736,51.2407776789085 -0.43235048455642,51.2408310085599 -0.432598903857584,51.2408550117976 -0.432887439671264,51.2407968435438 -0.433618194327846,51.2406662892079 -0.433812746620553,51.2407147412752 -0.434102341090165,51.2404164590976 -0.43438570765083,51.240169336562 -0.434648247892369,51.2399058425111 -0.434572143682137,51.2396979634912 -0.434506270247446,51.2395297771683 -0.434454529492463,51.239282757863 -0.434433976349766,51.239213169502 -0.434336961500517,51.2390716272502 -0.434063345850501,51.2387774978734 -0.433998794948388,51.2386957239551 -0.433997378794498,51.2386957050106 -0.433654998733312,51.2383988571181 -0.433334774556319,51.2381697297749 -0.432995471822282,51.2379529331672 -0.43276205105081,51.2377798959345 -0.43259558971158,51.2376211502452 -0.432461587379804,51.2375186671039 -0.432250270909797,51.2373278550059 -0.432025267906294,51.2370776138528 -0.431771393974125,51.2368358864126 -0.430683428558243,51.2356738141376 -0.430475350817999,51.2354750405414 -0.430162000336321,51.2351282270577 -0.430011696312316,51.2349984626837 -0.429653464077295,51.2347490369663 -0.429156400608098,51.2344563945733 -0.428726309915601,51.2342573353573 -0.428129497651629,51.2339462672199 -0.427819708589625,51.2337487295925 -0.427489473644587,51.2334753980802 -0.427269406828065,51.2332512829253 -0.426636442524686,51.2325737282083 -0.42639599677216,51.2322755285672 -0.426324913527129,51.2321746922976 -0.426253827557956,51.2320739449753 -0.426070914106885,51.2317684273051 -0.425993826980146,51.2314661299743 -0.425891711201053,51.231142818087 -0.425890356535569,51.2311410022194 -0.425807424996865,51.2308404238015 -0.425734470630502,51.2305867292236 -0.425688404250475,51.230469237163 -0.425676484800062,51.2303962562288 -0.425676136085806,51.2303233409765 -0.425689822651863,51.2302578968116 -0.425716925256804,51.2301764506043 -0.425766369971399,51.2300701323237 -0.425899559543348,51.2299459708254 -0.425933258421796,51.2299239483652 -0.426112028692319,51.2298067825687 -0.42654437987519,51.2294735749641 -0.426984733689122,51.2292034045866 -0.427414001018306,51.2289222958875 -0.427831796313042,51.2286796886926 -0.428415606736066,51.2283610943707 -0.42915791940628,51.2279268522502 -0.430211886900463,51.2273420645638 -0.430486500623849,51.2271838329913 -0.430612447367087,51.2271019131478 -0.430964274147971,51.2261480053934 -0.431144030377445,51.2256602694261 -0.431310193887448,51.2251553560223 -0.431366333782405,51.2248512483781 -0.431542517201416,51.2245100916518 -0.431491850753612,51.2244860376946 -0.431519662699815,51.2243415770667 -0.43154056758701,51.2242753290367 -0.431597896052235,51.2241448394552 -0.431735321158105,51.2238948631143 -0.431805590070612,51.2237240007719 -0.431848497429498,51.2236391678671 -0.431897126601783,51.2235562101619 -0.432121413316013,51.2232795271856 -0.432179056776385,51.223184912174 -0.432236761065725,51.2230849939709 -0.432357039584784,51.2228320902933 -0.432632539457353,51.2223124563055 -0.432579351461789,51.2222757826591 -0.432602076764582,51.2221105763943 -0.432679851113089,51.2217600084194 -0.432873724929252,51.2214919069219 -0.433066413736201,51.2211716460402 -0.433467866947384,51.2201437675741 -0.433615247023822,51.2197248153555 -0.433698049347232,51.2194345479809 -0.433677592187951,51.2193623521745 -0.433705541642472,51.2192134881008 -0.433806296532031,51.2191563989177 -0.433815063760234,51.2191520215971 -0.433860779824349,51.2191129856012 -0.433901771691861,51.2190461074847 -0.433916281664078,51.2189105483213 -0.433907213472688,51.2187566034812 -0.433910821534444,51.2186919221511 -0.433917198183098,51.2186326717698 -0.433931431437365,51.2185924051805 -0.433975651067357,51.2185138831165 -0.434005521729309,51.218475534361 -0.434095680650574,51.2184767404857 -0.434162260565959,51.2183724445142 -0.434192781280491,51.2182730609697 -0.434230990529111,51.2179920870004 -0.434340757396487,51.2177525262575 -0.434392054494813,51.2176740977969 -0.434485650156364,51.2176609646375 -0.4346405321834,51.2174417858458 -0.434805242368881,51.2172704758927 -0.434954307490476,51.2171393227565 -0.435033777011076,51.2170343002714 -0.435135500344868,51.2168647557138 -0.435255016868943,51.2167171144974 -0.435390134939266,51.2164050703615 -0.43543907074157,51.2162707805234 -0.435538690073368,51.2160761237602 -0.435620245715954,51.215951259982 -0.435657011499496,51.2157126099873 -0.436035617421029,51.2148893958651 -0.436136342859856,51.2147072507499 -0.436218524331029,51.2144799951836 -0.436300546592664,51.2142958014805 -0.436395496816607,51.2139877151046 -0.436776054178843,51.2128966143024 -0.436954172195942,51.2127505634505 -0.437661674246942,51.2121943415675 -0.437982932791735,51.2119657812776 -0.438305085217652,51.2116688162813 -0.438306215553367,51.211509613912 -0.438323869258718,51.2112841029303 -0.438386250738258,51.2108353324804 -0.438386423555388,51.2106590354023 -0.438323369288219,51.2102823100996 -0.438356870316426,51.2099266528918 -0.438436754321913,51.209679497252 -0.437755063177164,51.2092639490037 -0.436867113880429,51.2087628423951 -0.436391933005182,51.2087196350428 -0.435542407532909,51.2086498449018 -0.434562018234878,51.2085998759847 -0.434062134108561,51.2085230647972 -0.43389255174557,51.2085010169939 -0.433852117702592,51.2085517207324 -0.433424178612566,51.208420939418 -0.432648100967781,51.208256815999 -0.432641621890857,51.2081937973571 -0.432234499189597,51.2081281098489 -0.431659080472051,51.2080825518016 -0.43098658656444,51.2079863333067 -0.430836443415473,51.2079411674273 -0.430655901681213,51.2078596322855 -0.430541541024159,51.2076853957992 -0.430441694024442,51.2075078475091 -0.430294051460998,51.2073439522461 -0.429999457436805,51.2070827893813 -0.429460910064487,51.2066682150638 -0.429191493809729,51.2064235705225 -0.428586930262088,51.2059757406751 -0.428123318888827,51.2057150003582 -0.428033254905548,51.2057533475785 -0.427626347511987,51.2055536917688 -0.426775519680227,51.2051914575833 -0.426774104552333,51.205191438561 -0.426675930822033,51.2051316814904 -0.426318919406533,51.2050198972517 -0.426041705166769,51.2049217714784 -0.425783235319906,51.2048624657249 -0.425076101508136,51.2046102142359 -0.424330086705696,51.2042800288736 -0.424003290237833,51.2041236034593 -0.423657215288396,51.2040272415651 -0.423302094553464,51.2039054940126 -0.42294844893077,51.2037820574918 -0.422335173348346,51.2035471464995 -0.422281458524739,51.2034852879836 -0.422287418768158,51.2034386189182 -0.421835743162309,51.2032931800805 -0.42159977442227,51.2032009037123 -0.421395604550658,51.2030588000363 -0.421149569882348,51.2029295269855 -0.420210107177092,51.2022729640377 -0.419788895413659,51.2019894776208 -0.419523459974463,51.2017997038837 -0.419158527034771,51.2018379281341 -0.418952406190807,51.2017946874164 -0.418634898350116,51.2015781368578 -0.41844363177528,51.2013939482414 -0.418291310563586,51.201285713428 -0.418224126340988,51.2011175864086 -0.41801068695263,51.2008709738454 -0.417969964536827,51.200595230511 -0.417979810467421,51.2002248739577 -0.417894305031303,51.200006063103 -0.41783586930107,51.199748061235 -0.417719296984006,51.1994749782942 -0.417522302332728,51.1992483674406 -0.417371316901028,51.199101492193 -0.41700183460577,51.1986495877474 -0.416823422947107,51.1983423136818 -0.416615239523523,51.1981083563984 -0.416341173036783,51.1978375474373 -0.415824540939953,51.1974169113142 -0.415670178791427,51.1972862605738 -0.415445117954029,51.197045780246 -0.415356493309088,51.1968736743999 -0.415160952767755,51.1967325758906 -0.415035965206821,51.1965816447444 -0.414305349742989,51.1955986369035 -0.413975393056462,51.1953307499013 -0.413919216718641,51.1952552793444 -0.413884618050184,51.1952215466718 -0.41383298490281,51.1951821882772 -0.413764340672421,51.1951399023165 -0.413686840794156,51.1951046887728 -0.413597682184982,51.1950756103425 -0.413515381510599,51.195056514279 -0.413384212246886,51.1950412502456 -0.413285612079028,51.1950363171324 -0.413155029040748,51.1950039797214 -0.413033645885178,51.1949545950261 -0.412545533300614,51.1946638807231 -0.412329827805771,51.1945709617926 -0.412179873914829,51.194518581521 -0.411972870650356,51.1944609313536 -0.411887617149213,51.1944453903033 -0.411706475799813,51.194424951538 -0.411633986019804,51.1944122796012 -0.411231261623265,51.1941370136578 -0.410530604010503,51.193617569227 -0.410381928239966,51.1934869883328 -0.410237147609192,51.1934113005619 -0.410140322223189,51.1933136991978 -0.410020754544362,51.1930882156734 -0.409959857482049,51.1929443518895 -0.409878126861738,51.1926995143207 -0.409869448869723,51.1925366719177 -0.409910992642199,51.1924094843907 -0.409926599815928,51.1921615639546 -0.409938265024096,51.1921140737817 -0.410009931949223,51.1919036856352 -0.41006490516782,51.1918046405785 -0.410207973764358,51.1916383755918 -0.41038168038798,51.1914149894083 -0.410725061568368,51.1911264799789 -0.410852678291244,51.190994258179 -0.410978116069575,51.1906749182428 -0.411059754167494,51.1905483650497 -0.411059843788477,51.1903810567511 -0.411087291423045,51.1902897283358 -0.411341503347767,51.1898866395933 -0.411365810433844,51.1898042586409 -0.411363171687772,51.1897574734164 -0.411316368986774,51.1895778413363 -0.411241680172162,51.1893376854304 -0.411201348407261,51.1890934114045 -0.411135977242269,51.1888739692805 -0.411093339461701,51.1887825884506 -0.410932354165997,51.1884683489743 -0.410683494812166,51.1882563048974 -0.410589686256783,51.1881570363179 -0.410549874900264,51.1881070491535 -0.410487594769357,51.1880036232942 -0.410450187445336,51.1879248996667 -0.41011760253511,51.1869024099294 -0.410007494892886,51.1866940471697 -0.409892451038505,51.1864199881357 -0.409423175641458,51.1849613166232 -0.409325658688418,51.1847198604978 -0.409312548285023,51.1846414667352 -0.409306785244901,51.184558677321 -0.409288869025733,51.1837903921922 -0.409272624182726,51.1835563350683 -0.409277859022226,51.1833631150756 -0.409358735913478,51.1831762283295 -0.409521175744468,51.1830291986331 -0.409698765842674,51.1827744003257 -0.409788964400987,51.1825633665138 -0.409897311811951,51.1821197312989 -0.40990283523012,51.1820415012168 -0.409900823228301,51.1819353880439 -0.409870665678193,51.1817695575952 -0.409742906051019,51.1814917301846 -0.409894941871245,51.1813966118234 -0.409583526614351,51.1811352575626 -0.409438834343255,51.1808491078363 -0.409220759985422,51.1805322927993 -0.409100934759496,51.1802743513234 -0.409056289223286,51.1801559712717 -0.408939997104023,51.1797954980766 -0.408858619691109,51.1796235768161 -0.408694104459603,51.1790808441802 -0.408522415106404,51.1787089181941 -0.408642609121623,51.1786647030825 -0.408317387931575,51.1781404619381 -0.408131384962518,51.1778897098163 -0.408085870910386,51.1778000865196 -0.408066516569487,51.1777386888914 -0.408054307917016,51.1776342363093 -0.408080924050697,51.1772793027282 -0.408163992646394,51.1769018520527 -0.408200367988832,51.1763456689221 -0.408251782577301,51.176054993824 -0.408336773385754,51.1757072374421 -0.408443639339391,51.1755531599384 -0.408563570912152,51.1755197294151 -0.408831318642372,51.1754721269078 -0.409212347470499,51.1754575297974 -0.409947303379877,51.1755097750889 -0.410366540689377,51.1755091790312 -0.410542695396835,51.1755421387545 -0.410669595098891,51.1755564491308 -0.410786696311203,51.1755607368334 -0.410912770296526,51.1755579547144 -0.411138242550528,51.1755322481121 -0.411900316234063,51.1753788839152 -0.412097259691677,51.175349192195 -0.412228471917865,51.1753204066459 -0.412335518194241,51.1752876968073 -0.412519645666508,51.1752155771202 -0.412973028293655,51.1750517238199 -0.413067099146037,51.1750224335032 -0.413265887696276,51.1749801785983 -0.413455632789246,51.1749539831731 -0.41361448315892,51.1749102876951 -0.413708926327392,51.1748701233837 -0.413807864383414,51.1748193212636 -0.414287836150655,51.1745092838334 -0.41515558970074,51.1741487593246 -0.415390492929822,51.1740575443194 -0.415490158299323,51.174030125492 -0.415577986842273,51.1740142332525 -0.415646881339116,51.1740070754885 -0.415760010883418,51.1740032136208 -0.415908767264218,51.1740061262664 -0.415984303148031,51.1740116444801 -0.416313235661626,51.1740988074872 -0.416494546559345,51.1741534043363 -0.41662020315996,51.1737423657636 -0.416676984546956,51.1736721121996 -0.416725530402108,51.1736322235814 -0.416783972237283,51.1735961549903 -0.416865285323813,51.1735603949659 -0.417033072686915,51.173506926483 -0.41755850537727,51.1734115470316 -0.418564944938553,51.1731814316052</coordinates></LinearRing></outerBoundaryIs></Polygon>
  </Placemark>
