  <Placemark>
	<Style><LineStyle><color>ff0000ff</color></LineStyle><PolyStyle><fill>0</fill></PolyStyle></Style>
	<ExtendedData><SchemaData schemaUrl="#Wards__December_2019__Boundaries_EW_BFE">
		<SimpleData name="objectid">987</SimpleData>
		<SimpleData name="wd19cd">E05001324</SimpleData>
		<SimpleData name="wd19nm">Bushbury North</SimpleData>
		<SimpleData name="wd19nmw"></SimpleData>
		<SimpleData name="bng_e">391906</SimpleData>
		<SimpleData name="bng_n">303251</SimpleData>
		<SimpleData name="long">-2.121</SimpleData>
		<SimpleData name="lat">52.626968</SimpleData>
		<SimpleData name="st_areashape">4510712.53771864</SimpleData>
		<SimpleData name="st_lengthshape">9729.90258822833</SimpleData>
	</SchemaData></ExtendedData>
      <Polygon><outerBoundaryIs><LinearRing><coordinates>-2.13723881152022,52.6296464045225 -2.13747648828092,52.6291481455423 -2.13760879792207,52.6289223219043 -2.13795577883664,52.6283995781296 -2.13815732081294,52.6281116611838 -2.1382808829791,52.6279335685558 -2.13846772825159,52.6276986928848 -2.13867375447958,52.6274440222112 -2.13902554174954,52.6270229157306 -2.13918450330535,52.6268321093457 -2.13940811564949,52.6265558475357 -2.13955104632705,52.6264190721247 -2.13939861668726,52.6263662282095 -2.13930682966761,52.626307830393 -2.13924304563948,52.6262072489717 -2.13921905942691,52.6260958354183 -2.13920934569956,52.6258387227606 -2.13923621254794,52.6254791129215 -2.13923572085102,52.6253253421101 -2.13917443277362,52.6250908467034 -2.13905423902118,52.6249093564657 -2.13895768254445,52.6247674716473 -2.13869562346109,52.6245582878979 -2.13834595142789,52.6242602323569 -2.13807495234669,52.6240339814871 -2.13768830261009,52.6237108029073 -2.13746336686575,52.6235663706791 -2.13723837778698,52.623443418365 -2.13708750046627,52.6233770881473 -2.13677984846273,52.6232660032648 -2.13654045617049,52.6232096611689 -2.13626105739496,52.6231739461721 -2.13588428840889,52.6231213565572 -2.13536105570625,52.6230491618479 -2.13495322999798,52.6229966049256 -2.13444318344478,52.6228947324989 -2.13420072553198,52.6228302109447 -2.13376899824635,52.6226887027307 -2.13339777130526,52.6225353514086 -2.13309432117585,52.6223595440233 -2.13280861320972,52.6221701457165 -2.13257472282341,52.6219978536389 -2.13232599273714,52.6218308799624 -2.13210554972258,52.6217133936663 -2.13175219554749,52.6215851814984 -2.13122443361492,52.6214572524808 -2.13065531473231,52.6213464431587 -2.13017804529484,52.6212803754801 -2.12978791005804,52.6212304770628 -2.12940955510385,52.6211697793228 -2.12963375825381,52.6205501315048 -2.13016566307338,52.6191390839234 -2.13030625817366,52.6187091576569 -2.13035597411104,52.6185554195878 -2.1304217142796,52.6183036142836 -2.1304728845199,52.6181479875766 -2.13054175736722,52.617966368689 -2.13061373572907,52.6178053267534 -2.13069449394894,52.6176479599674 -2.13079590232757,52.6174734050024 -2.13094439994922,52.6172449637667 -2.13124500501235,52.6165334665401 -2.13142561199521,52.6161727861817 -2.13149153687361,52.6160253215202 -2.13129964173553,52.6160354216067 -2.13121391832428,52.6160391112243 -2.13110907925057,52.6160437219317 -2.13093484032028,52.6160529027982 -2.13089794569182,52.6160547417537 -2.13079895794872,52.6160611427559 -2.13070446693355,52.616064841736 -2.13058927958311,52.6160703624445 -2.13048590652567,52.6160767680447 -2.13040761378739,52.6160804488504 -2.13036036554956,52.6160814001118 -2.13025554245075,52.6160914021518 -2.13009459976635,52.616108656142 -2.12997346123929,52.6161195740284 -2.12993657188907,52.6161232097476 -2.12993073126371,52.6161250132566 -2.12990712263669,52.6161304322903 -2.12989081539177,52.6161340453033 -2.12988789507614,52.6161349466073 -2.12988643283725,52.616134948219 -2.12988497476309,52.6161358488101 -2.12988193064748,52.6161358521654 -2.12987901033425,52.6161367543681 -2.1298775522572,52.6161376540601 -2.12986721870681,52.6161439565387 -2.12985688663048,52.6161502590147 -2.1298142198564,52.6161763693683 -2.12979502180585,52.6161907706631 -2.1297861477864,52.616196172543 -2.1297803125164,52.6161997740066 -2.12977435344502,52.6162024766223 -2.12977143580789,52.6162042769043 -2.12976852085589,52.6162069761673 -2.12976256178549,52.6162096796814 -2.12975514462962,52.6162132819867 -2.12973604618628,52.6162204930886 -2.12966670885287,52.6162466327491 -2.1294881288043,52.616311626984 -2.12942766527277,52.6163323646468 -2.12938630024297,52.6163458903373 -2.12929189676969,52.6163792473713 -2.12921220530449,52.616404499141 -2.12909273042307,52.6164432747115 -2.12907788910986,52.6164486839742 -2.12900855102207,52.6164748223497 -2.12897022987189,52.6164883454609 -2.12897023254096,52.6164892444419 -2.12891415112986,52.6165090780615 -2.12885223013152,52.6165316131939 -2.12881829149853,52.6165442324795 -2.12876805453054,52.6165640596403 -2.12874007089302,52.6165730773591 -2.12873715052727,52.6165739795336 -2.12866038701086,52.6166011146991 -2.12864566670715,52.6166065237753 -2.12861318873501,52.6166191414072 -2.12853788291581,52.6166452860197 -2.12843909965166,52.6166804442179 -2.12843764152974,52.6166813447911 -2.12833873816442,52.616717401121 -2.12822657266191,52.6167570677363 -2.1280982242565,52.6168021439441 -2.12793885950406,52.6168598349722 -2.12762755175061,52.6169735020729 -2.12752573075974,52.6170113588492 -2.12741953362795,52.6170519163266 -2.1273222119433,52.6170879710011 -2.12722184854421,52.6171249269643 -2.12716138805995,52.6171474605363 -2.12711564820241,52.6171645851922 -2.12697392573276,52.6172177636717 -2.12696066491703,52.6172223609815 -2.1267983766278,52.6172809526148 -2.12678949676931,52.6172845572073 -2.12661978370155,52.6173449545518 -2.12659034355172,52.6173557712957 -2.12655785918354,52.6173665904032 -2.12645457142145,52.6174035497525 -2.12628631710317,52.617463046067 -2.1261181808377,52.6175216430309 -2.12609457880878,52.617529757349 -2.12588799808795,52.6176019661819 -2.12588495647278,52.6176028675165 -2.12588208806328,52.6176217438482 -2.12586622653943,52.6177376964468 -2.1258459628041,52.6178896931049 -2.12584007355013,52.6179166608184 -2.12565115433921,52.6179483178832 -2.12564677299513,52.6179492215393 -2.12563080113303,52.6180696682363 -2.12560488912483,52.6182899738524 -2.12559044329663,52.6183906466618 -2.12558325147351,52.6184724384721 -2.12521275502436,52.6185502128063 -2.12510806462535,52.6186087408746 -2.12505213657317,52.6186833952152 -2.1250301265,52.6187373414113 -2.12468838260186,52.6195836749793 -2.12464255413574,52.6195711412952 -2.12409113688607,52.6194179513083 -2.12394473982304,52.6193731688153 -2.12347602244045,52.6192199788388 -2.12344798639976,52.6192110210797 -2.12252263495886,52.6189530645078 -2.12194164699107,52.6188026812248 -2.12097666451842,52.6186517011801 -2.12010778544847,52.6185034012816 -2.11950041074675,52.6184068667699 -2.11917090620156,52.6183811381635 -2.11897006545512,52.6183759481858 -2.11845736866083,52.6183405163614 -2.11773637687524,52.6182909106826 -2.11656335312921,52.6182093947003 -2.11644518699966,52.6181969294556 -2.11654052473627,52.6179172413725 -2.11655370169458,52.6178803807925 -2.11446345969657,52.6178203297991 -2.11393756092565,52.6178091558761 -2.11350912442353,52.6177637350971 -2.11326965451236,52.6177019538834 -2.11301678603693,52.6175916534268 -2.11291775877067,52.6175386338194 -2.11279919727205,52.6174201158305 -2.11263915673917,52.6172260544809 -2.11258733649399,52.6171551041349 -2.11252665406829,52.6170949473437 -2.11247333229602,52.6170554547159 -2.1122321626881,52.6168992167946 -2.11204588731422,52.6168248001806 -2.11179608055895,52.6167657209621 -2.11147406249315,52.616756141151 -2.11138843240981,52.6167490321463 -2.11067350898867,52.6167730729495 -2.11067523903443,52.6168305901044 -2.11066059465867,52.6169141850943 -2.11063428031407,52.6170059700059 -2.11059311348087,52.6171003750033 -2.11051218255622,52.6172172856156 -2.11041644629582,52.6173073376463 -2.11012000935408,52.6174936519146 -2.10948610277786,52.6179689506148 -2.1086794348621,52.6184712770456 -2.108493510597,52.618586575986 -2.1080864916482,52.6188287976777 -2.10781083951117,52.6190555286661 -2.10756910638139,52.61925895243 -2.10728456270158,52.6194875781639 -2.10702213065374,52.6196954228799 -2.10678044117459,52.6199195152825 -2.1066920920355,52.6200481131289 -2.10634575194663,52.6203603737213 -2.10617487673575,52.6205592365099 -2.10612938672724,52.620683302125 -2.10610461604969,52.6208137291209 -2.10610174548761,52.6208353010051 -2.10609286539898,52.6208398030268 -2.10600734747136,52.6208821197056 -2.10585395052314,52.6216068109588 -2.10568697710578,52.6221598569746 -2.10559606822345,52.6224404301577 -2.10549196533984,52.6227551674329 -2.10548907593901,52.6228189798048 -2.10549984830637,52.6229916152488 -2.10551056370242,52.6231407935876 -2.10560708039577,52.6233618836712 -2.10570959905884,52.623596448519 -2.10579876346614,52.6237985819006 -2.10557453668012,52.6239525551124 -2.10552734497418,52.6239804578032 -2.10544621582416,52.6240272641255 -2.10533261370476,52.6240938716802 -2.10538297042115,52.6241153958792 -2.1054617336975,52.6242978564912 -2.10536146841474,52.6243896164298 -2.10530540758632,52.6244265140961 -2.10523749709967,52.6244499420936 -2.10514742652356,52.6244761749016 -2.10507801781875,52.624484325942 -2.10506470220529,52.6244681606449 -2.10502176343656,52.624442045781 -2.10490502517734,52.6244214796079 -2.10480164525418,52.6244341538795 -2.10467764939484,52.6244846827681 -2.10442833014321,52.6245918526134 -2.10422903568282,52.6246836985291 -2.10388515790406,52.6248260912601 -2.10355023033808,52.6249944485045 -2.10343963900784,52.6250484685252 -2.1036054866853,52.6252308537496 -2.10406860316719,52.6255396967691 -2.10454802582252,52.625838637402 -2.10512789213671,52.6261653458512 -2.10509994039734,52.626191434111 -2.10502325697429,52.6262651984379 -2.10497008092993,52.6262877132466 -2.10467195826762,52.6264156882103 -2.10352796955245,52.6267906597529 -2.10262593469331,52.6270863214873 -2.1017210386752,52.6273622066022 -2.10128270226692,52.6275980506404 -2.10110717839099,52.6277052398098 -2.10081667266926,52.6279211836631 -2.10067206518679,52.6280193576619 -2.10026218141501,52.6283424404197 -2.10012497601556,52.6284297333497 -2.09970874376926,52.6286440733346 -2.09938864071193,52.628815101329 -2.09904164092324,52.6289440014418 -2.09882159713873,52.6289783379285 -2.09866949775013,52.6289991367996 -2.0986666005177,52.6290108223973 -2.09867718785032,52.6291132686724 -2.0987811106531,52.6293325599658 -2.09879497712191,52.6295905722575 -2.09883520674519,52.6297639915861 -2.09883982341029,52.6298117101493 -2.09883693424167,52.6298800154061 -2.09882238221981,52.6299627105714 -2.09879600862948,52.6300427196172 -2.09873866340133,52.6301632861437 -2.09862198148917,52.6308681640026 -2.09856848372292,52.6313419262343 -2.09860465232795,52.6316574374986 -2.09858122812102,52.6317492170612 -2.09857106177285,52.6318319084937 -2.0985712274762,52.6319047051684 -2.09857868211642,52.6319685077185 -2.0985966168587,52.6320341893441 -2.09862636829296,52.6320988730786 -2.09872708114963,52.6322434832306 -2.09882198937721,52.632353137687 -2.09924846254555,52.6327617881375 -2.09965795943218,52.6328836683192 -2.09962707979991,52.6329646693082 -2.09983702236201,52.6329797695065 -2.10005128691557,52.6330191309574 -2.10017258135412,52.6330522810505 -2.10026134646069,52.6330845597658 -2.10033964042373,52.6331195424916 -2.10041221931129,52.6331590249494 -2.10051434046532,52.6332236455071 -2.10064747742094,52.6333197855933 -2.1007658764104,52.6334167463365 -2.10081325905778,52.6334652363403 -2.10085479140156,52.633512833258 -2.10093195352581,52.6336359823341 -2.10104495288599,52.6339244654304 -2.10116655600588,52.6341400543253 -2.101245402333,52.6343575677506 -2.10126632721325,52.6344492197227 -2.10128285079153,52.6345859009355 -2.10129059250163,52.6347180066995 -2.10128923902724,52.6347647413838 -2.10124106052418,52.6350533628848 -2.10126031824264,52.6350569413363 -2.1014775687888,52.6350666402445 -2.10211743751494,52.6350669855426 -2.10232274241607,52.6350739972067 -2.10252818279435,52.6350864004833 -2.10288146552589,52.6351238384822 -2.10305732961488,52.6351480397512 -2.10370331335671,52.6352598123648 -2.10380531347323,52.6352705074887 -2.1042383885863,52.6353033770055 -2.10447782031795,52.6353148477983 -2.10470834149056,52.6353200358693 -2.10486489313933,52.6353180984914 -2.10499499499947,52.6353107924253 -2.10528744088841,52.6352790757826 -2.10547205920938,52.6352456580548 -2.10565371574662,52.6351969636252 -2.10572602377367,52.6351717344164 -2.10593122666042,52.6350869800707 -2.1061349030863,52.6349753553183 -2.10621895233864,52.6349195588688 -2.10634869852084,52.6348177957489 -2.10663469731301,52.634544325051 -2.10679730083044,52.6345271014665 -2.10743274048196,52.6345624724505 -2.10833406432989,52.6345679373218 -2.10936986167448,52.6345615873101 -2.1098275797964,52.6349935365514 -2.1102513855997,52.6354534659395 -2.11123152150191,52.6350650149793 -2.11140000443854,52.6350603616523 -2.11163510181412,52.6351393166253 -2.11198192515391,52.6355506923017 -2.11237627114475,52.6360563875074 -2.11277828840815,52.6366511368381 -2.11298284382167,52.6368820028155 -2.11340682840044,52.637391349992 -2.11380124169969,52.637910521259 -2.11611364559419,52.6378147962266 -2.11699045636358,52.6374696270791 -2.11819403458994,52.6377111698875 -2.11824568737562,52.6377084218431 -2.11912637167956,52.6376715824209 -2.1201473724252,52.6376201239694 -2.12099843550771,52.6375797069096 -2.12194547876422,52.6375292981215 -2.12299882809893,52.637458099494 -2.12388981048394,52.637404138973 -2.12522406643504,52.6373586873042 -2.12597296716852,52.6372589384256 -2.12622293800717,52.6373279605056 -2.12656009468464,52.6374210651989 -2.12697267680403,52.6375158835656 -2.12735102503847,52.6375280561797 -2.12801020785799,52.6375794660609 -2.12867242602958,52.6376263749389 -2.12936408566187,52.6376580586176 -2.12992860908795,52.6376709168267 -2.13044870377216,52.6376568596734 -2.13164409930699,52.6376230837758 -2.13170258951284,52.6374244020802 -2.13172714413543,52.6372445415143 -2.13169423970468,52.6370810122175 -2.13155255785271,52.6366837595211 -2.13141319537322,52.6360447487305 -2.13140401130487,52.6359081547444 -2.13141959895382,52.6357040391371 -2.13146637520993,52.6355404206529 -2.13154428520016,52.6353982465053 -2.13172392141908,52.6351742652951 -2.13186379579742,52.6350167435754 -2.1320493890898,52.6348296032431 -2.13242083716828,52.6345433048158 -2.13283498131884,52.6341967431582 -2.13342622732013,52.6337609177256 -2.13392349524915,52.6335500530211 -2.13449272867167,52.633171761188 -2.13470350374836,52.6330187378975 -2.1348465084831,52.6328944599037 -2.13501141867051,52.6327235128478 -2.13508655545909,52.6326353525189 -2.13542782135477,52.6321755324507 -2.13600316119087,52.6313838126994 -2.13610138927798,52.6311625230821 -2.13723881152022,52.6296464045225</coordinates></LinearRing></outerBoundaryIs></Polygon>
  </Placemark>
