  <Placemark>
	<Style><LineStyle><color>ff0000ff</color></LineStyle><PolyStyle><fill>0</fill></PolyStyle></Style>
	<ExtendedData><SchemaData schemaUrl="#Wards__December_2019__Boundaries_EW_BFE">
		<SimpleData name="objectid">1542</SimpleData>
		<SimpleData name="wd19cd">E05003226</SimpleData>
		<SimpleData name="wd19nm">Penrith North</SimpleData>
		<SimpleData name="wd19nmw"></SimpleData>
		<SimpleData name="bng_e">351608</SimpleData>
		<SimpleData name="bng_n">533517</SimpleData>
		<SimpleData name="long">-2.7523</SimpleData>
		<SimpleData name="lat">54.694351</SimpleData>
		<SimpleData name="st_areashape">21710954.0308498</SimpleData>
		<SimpleData name="st_lengthshape">22477.3821015305</SimpleData>
	</SchemaData></ExtendedData>
      <Polygon><outerBoundaryIs><LinearRing><coordinates>-2.72240107131709,54.6957742765731 -2.72278846591774,54.6958339575904 -2.72552453794685,54.6961348416787 -2.72594840063354,54.6962374184656 -2.72611220640514,54.6961978056271 -2.72627742547677,54.6962444312908 -2.72677991550963,54.6964014280887 -2.72792431841257,54.6967135906988 -2.73005962820986,54.6973361121608 -2.73124515300874,54.6976911207843 -2.7334504128545,54.6983131632289 -2.7353347602422,54.6984338158646 -2.73770421996136,54.6986090781629 -2.73715547389533,54.6995802906171 -2.73861158777589,54.69978714009 -2.74014030868899,54.7041463298649 -2.74051450072027,54.7052583640019 -2.74142592132935,54.7077529367713 -2.7419116565354,54.7091106353318 -2.74237792080084,54.7104162556491 -2.74266892437035,54.7113041897753 -2.74277700869738,54.7116998256232 -2.74284256116759,54.7120579878054 -2.74291010632239,54.7127836846676 -2.74324627049655,54.7168140481599 -2.74341306229662,54.7193931339524 -2.74339585410878,54.719557742072 -2.74340403444508,54.7196619098361 -2.74342110326716,54.7197481437645 -2.74348780757419,54.7199166393053 -2.74352638082172,54.7199819880446 -2.74358366777741,54.7200625859784 -2.74367890137149,54.7201743054718 -2.74388779436025,54.7204740877995 -2.7450253402104,54.7219715241324 -2.74639779536534,54.7239168066422 -2.74695116096252,54.7238657839767 -2.74763753109286,54.7237868948536 -2.74855507950624,54.7237003770353 -2.75030868470266,54.7234891921093 -2.75184727265027,54.7233160589681 -2.75232989875339,54.7233031817251 -2.75243327764421,54.7232657047939 -2.75250116708045,54.7232473150729 -2.75258472219691,54.7232315223113 -2.75266989748458,54.7232202128545 -2.75282051698979,54.7232174810673 -2.75290450531724,54.723225044898 -2.75299784375334,54.7232397382656 -2.75311797751491,54.7232704369105 -2.75351202107545,54.7233335731929 -2.75369563718145,54.7233566889493 -2.75384207141965,54.7233836303973 -2.75396060410475,54.7234107443149 -2.75409487602341,54.7234513258374 -2.75435135172757,54.7235512525605 -2.75540668749699,54.7239427730736 -2.75582132679199,54.724114573405 -2.75600286941897,54.7241978932601 -2.75646834567538,54.7244250764298 -2.75677508446979,54.7245561282192 -2.75715954699996,54.7246948699458 -2.75771860291913,54.7248665702235 -2.75794365121639,54.7249415287656 -2.75838339490299,54.7251266387766 -2.75876025317313,54.7252689264211 -2.75894492402756,54.7253478201856 -2.75922071705269,54.7254799576972 -2.75976653297033,54.7257775990369 -2.76015389256831,54.7259809995368 -2.76026202641587,54.7260333281782 -2.76032903052757,54.7260427906757 -2.76047207026383,54.7248151854466 -2.76058809776544,54.7232193032887 -2.76453789970995,54.7227217053693 -2.76645728944576,54.7224975570236 -2.76899415816571,54.7221642556768 -2.76901424850338,54.7222449861213 -2.77246479702535,54.7217970995001 -2.77776996548513,54.72115565442 -2.77776994826811,54.7211547558495 -2.77820690705065,54.7211052328986 -2.77861304846101,54.721077378551 -2.77896912353806,54.7210220834983 -2.77895101779361,54.7207256306264 -2.77894626107362,54.7203976461885 -2.77889543395878,54.7200169509179 -2.77884887591253,54.7197718912892 -2.77867146328805,54.7191044241114 -2.77823679433062,54.7180503991033 -2.77798287290815,54.7175172878022 -2.77780333408646,54.7170583565447 -2.77768688684564,54.7168191342572 -2.77727149876529,54.7157937301093 -2.77548346710617,54.7117458200401 -2.777573701635,54.7109100990385 -2.77835625421247,54.7105959274435 -2.77978390399212,54.7100151726496 -2.78030005710968,54.7098177912111 -2.78062645489284,54.7096817346043 -2.78110498677056,54.7094648264021 -2.78140656880264,54.7092498659081 -2.7817518731626,54.708966341626 -2.78200292816879,54.7086995971244 -2.78213106536892,54.7085091122087 -2.7824802442491,54.7081815378806 -2.78257300600725,54.7080812135461 -2.78283382744774,54.7077640902467 -2.78306440178395,54.7074911857785 -2.78323027382625,54.7073203108205 -2.78363647203183,54.7068916495025 -2.78402526092239,54.7064497134779 -2.78469051894839,54.7055422175297 -2.78485842756303,54.7052391677235 -2.78525950288524,54.7047063159364 -2.7858844539441,54.7040462309499 -2.78616055194988,54.7037146263382 -2.78645744638587,54.7034197215677 -2.78709880143216,54.7028818003565 -2.78756508811196,54.7025211060524 -2.78820145198836,54.7020505043997 -2.78869367861597,54.7016626837084 -2.7890061057884,54.7013721643012 -2.7892852327725,54.7010405330302 -2.79010725489637,54.7001454620337 -2.79025268447873,54.6999593473035 -2.79029534619479,54.6997650081778 -2.79032474528898,54.6995203525766 -2.79035925732315,54.699301719291 -2.79102414195076,54.6994196582249 -2.791524399305,54.6994469387078 -2.79184450896467,54.6994735977236 -2.79227225014781,54.6995283023177 -2.7930519394857,54.6995627337776 -2.79379302103906,54.6996117884948 -2.79453552485947,54.6996483411818 -2.7947434861895,54.6996514693712 -2.79446754481821,54.6982395977614 -2.79362099748299,54.6981148707772 -2.79344660098853,54.6980809736027 -2.79311469746188,54.6980066899893 -2.79271246338797,54.6979077983485 -2.79236064555071,54.6978552950086 -2.79165599036501,54.6976846148569 -2.79140475705529,54.6976071943141 -2.79088704509918,54.6973984534293 -2.79064766372409,54.6972922031214 -2.79044477145169,54.6972333322958 -2.79025412908991,54.6971662939604 -2.79003434425685,54.6971137317369 -2.78973465067049,54.6970240446262 -2.78939868325109,54.6969768188153 -2.78911420678005,54.6969526173638 -2.78876523341738,54.6969602792091 -2.78865808233825,54.6969564839214 -2.78860964296716,54.6967743284165 -2.78845923461085,54.6951019777133 -2.78828946205129,54.6939473389135 -2.78827779043033,54.6935897490587 -2.78818029310313,54.6929621992146 -2.78814903150316,54.6926298927885 -2.78810546592814,54.6923821188868 -2.7881013885899,54.6921719122595 -2.7881279108947,54.6921015719268 -2.78807207885532,54.69201927887 -2.78801343173879,54.691956769866 -2.7882030537675,54.691814393249 -2.78889264287829,54.6914522412161 -2.78930139961282,54.6912519250686 -2.78968153489592,54.6910139699563 -2.7900081670715,54.6908203855738 -2.79062590479973,54.6904353331225 -2.79121173007682,54.6900082581643 -2.79154870975191,54.6897885481122 -2.79179430466198,54.6896512804944 -2.79209108550841,54.689515384498 -2.79200277184229,54.6893614318702 -2.79220156656009,54.6892972424174 -2.79230452293249,54.6892443699593 -2.79230256125139,54.6891437582706 -2.79216239119595,54.6890395582768 -2.79210351896365,54.6889589944292 -2.79214695581016,54.6888841399626 -2.79230542643962,54.6888184173784 -2.79262835201805,54.6888297828175 -2.79268603113337,54.6886065044361 -2.79269022176414,54.6884213999081 -2.79273079525254,54.688114678547 -2.79281346547106,54.687979283092 -2.79281331033744,54.6878139727562 -2.79276128801805,54.6876911376538 -2.7927851966532,54.6875660992919 -2.79291640679505,54.6874538348787 -2.79295435461563,54.6874059704228 -2.7930134437496,54.6874190596969 -2.79329107540106,54.6871745768007 -2.7935079815319,54.6869250995807 -2.79373448525007,54.6866890349689 -2.79396674190058,54.6864268783032 -2.79402136229812,54.6863618336621 -2.79398670812449,54.6863360058456 -2.79412807977162,54.6861877366888 -2.79433726669139,54.6861000269496 -2.79447052859179,54.6860147008901 -2.79464699487245,54.6858365523768 -2.79481783561994,54.6856062418478 -2.7949240135872,54.6854832687944 -2.79507758203593,54.6854031992173 -2.79530996796818,54.6853118316011 -2.79545185693927,54.6851904202282 -2.79549407299442,54.6850472926948 -2.79559364929698,54.6849073816062 -2.79583639744654,54.6847053475799 -2.79590180705867,54.6846429254961 -2.79581720653068,54.6845221029397 -2.7958226139338,54.684399880546 -2.79603252279736,54.6841863823356 -2.7961912196045,54.6840550666415 -2.7963895280815,54.6839612255956 -2.79657718220012,54.6837218169006 -2.79678238552376,54.6835101447648 -2.796960929489,54.6832824764509 -2.79640900803144,54.6830561049262 -2.79610785413965,54.6828872907014 -2.79585257540643,54.6827622885726 -2.79572369515583,54.6826723031378 -2.79546865328062,54.6824808134626 -2.79534725520118,54.6823809854823 -2.7951632130903,54.6821709709284 -2.79506274971565,54.6819514245397 -2.79476342945119,54.6815552907352 -2.79454885053904,54.6813724290359 -2.79430056811184,54.6811269872827 -2.79399163225508,54.6808728673963 -2.79389093419682,54.6807979686522 -2.79335450718377,54.6804914317525 -2.79314648753872,54.6803229890815 -2.79304907358803,54.6801016236698 -2.79285701597598,54.6798728807966 -2.79244429637107,54.6795483700346 -2.79213494829026,54.6792718778921 -2.79164287125658,54.6788508522235 -2.79155220733847,54.6787391402972 -2.79158536656966,54.678688611373 -2.79135690323385,54.6785004434672 -2.79108470293747,54.6783053737878 -2.79084153934503,54.6780778599851 -2.79012345928403,54.6775208424136 -2.78988508007289,54.6773876311719 -2.78961141991971,54.677268036244 -2.78944743730074,54.6772125031204 -2.78928361715564,54.6771587652024 -2.78917932534182,54.6771414759216 -2.78908291899133,54.6771286268711 -2.78899633421005,54.6771408699813 -2.78868725276481,54.6768759568589 -2.78824223237563,54.6764780607539 -2.78816253518528,54.6763706767605 -2.78822273673965,54.6762705592097 -2.78820199943425,54.676163780319 -2.78800758839736,54.6760553457471 -2.78783023463103,54.6760286474347 -2.78765395005573,54.6759713953824 -2.78754323305935,54.6757806585132 -2.78736187678915,54.6756264072468 -2.78703477297172,54.6754730133295 -2.78656467519935,54.6752972768596 -2.78621835053,54.6751943169556 -2.78589917762919,54.6750472476723 -2.78558269288664,54.6748803039494 -2.78529695848907,54.6747761411452 -2.78466255611641,54.6744468425546 -2.78435012237033,54.674330272779 -2.78426691449962,54.6742787027624 -2.78404194436838,54.6741093666839 -2.7838711620466,54.6739387818678 -2.78378865980911,54.6738440816487 -2.78358505777375,54.673575779664 -2.78346164078754,54.6733681415477 -2.78341401555975,54.6733117593855 -2.78361707152136,54.67314693177 -2.78381909102356,54.6730080744775 -2.78407664120071,54.6727719177576 -2.78427215081364,54.6726205246245 -2.78419053358783,54.6725716394795 -2.78274386013953,54.6733017154454 -2.78168129716642,54.673849610308 -2.78145835890611,54.6737055024767 -2.78028389920061,54.6745604700781 -2.77988252405637,54.6745792260031 -2.77904844708491,54.6745899818789 -2.77879052724294,54.6746420417774 -2.77853925779131,54.6747209218893 -2.77825592104985,54.6748278576857 -2.7779875599694,54.6749023538561 -2.77768379715387,54.6745897640254 -2.7774727040441,54.6744159254269 -2.77739097132668,54.6743607475471 -2.77721391884168,54.6742620682294 -2.77687094085547,54.6741717292982 -2.77645618907534,54.6740522017878 -2.77613048021845,54.6739688479662 -2.77568660269437,54.6738638798228 -2.77521469710077,54.6737572911616 -2.77508401651789,54.6737365650864 -2.77495040446092,54.6737230452978 -2.77476725830187,54.6737134350607 -2.77460773994232,54.6737225413615 -2.77423302113348,54.6737509901851 -2.77381507519948,54.6737922927978 -2.77363999374522,54.6738032936775 -2.77345867124043,54.6738089438402 -2.77327564450859,54.6738056195712 -2.77301492418967,54.6737911114518 -2.77283187279554,54.6737931778723 -2.77259132651847,54.6737839304643 -2.77235368617351,54.6737593918386 -2.77200054533021,54.6736986627629 -2.77186017471444,54.6736591280412 -2.77179924616625,54.6736352580324 -2.77170524121411,54.6735864436452 -2.77133292206546,54.6733299777397 -2.77056394960467,54.6728478353881 -2.77038867695706,54.6727608144733 -2.77027297831,54.6727139334507 -2.77012780713798,54.6726636458451 -2.76994385292688,54.6726109094063 -2.76967804211779,54.6724958029998 -2.76921030922924,54.6722767731823 -2.7681197457281,54.6719251313423 -2.76804628624935,54.6718941523257 -2.76778173366762,54.6717636724389 -2.76760070183102,54.671702828082 -2.7674045744588,54.6716618456138 -2.76723830696265,54.6716449299662 -2.76684889178418,54.6716321233516 -2.76657305162994,54.6716419560351 -2.76647819984954,54.6716290797821 -2.76643459314526,54.671614981367 -2.76607160416676,54.671443792287 -2.76596963774161,54.671378852454 -2.76589766528964,54.6713451676829 -2.76581802951781,54.6713187180811 -2.76571684101508,54.6712951007497 -2.76555514363734,54.6712763574721 -2.76526506652736,54.6712701054633 -2.76498288937187,54.6712691931425 -2.76480425637273,54.6712540598047 -2.76461618573809,54.6712264977359 -2.76444177002884,54.6711907637595 -2.76419092484521,54.6711222696937 -2.76329644133551,54.6708052877014 -2.76299547067878,54.6707155451591 -2.76280548346878,54.6706673290837 -2.76270571976399,54.6706445082339 -2.76228873793723,54.670565377389 -2.76148112138183,54.6704141334354 -2.76076391911888,54.6702846870142 -2.76056127540454,54.6702293593836 -2.76046767158294,54.6701940100042 -2.76032048781671,54.6701167716819 -2.76024983624549,54.6700713961546 -2.76013649647448,54.6699785813241 -2.76005744655972,54.6699009149742 -2.75986278468797,54.669690918503 -2.75966163156256,54.669379439676 -2.75937403185322,54.6690047154565 -2.75924904559456,54.6688698374823 -2.75916539675919,54.6687921994447 -2.75900328040997,54.6686610579854 -2.75897646959766,54.6686423592016 -2.75858047142476,54.668439013039 -2.75826399148936,54.6682631084632 -2.75816696513321,54.6682152009515 -2.75810266780648,54.6681742760635 -2.75803968485389,54.6681215738281 -2.75798900270426,54.6680634941504 -2.757940937394,54.6679811400591 -2.75752730796849,54.6678327041866 -2.75725233724698,54.6677230206642 -2.75643378940135,54.6673920386166 -2.75624464857812,54.6673123617441 -2.75619455376347,54.6672857224226 -2.75618198799522,54.6672768168327 -2.75610076704438,54.6672467780751 -2.75598832875061,54.6672015704192 -2.75587890880974,54.6671537394513 -2.75581946676488,54.6671262596649 -2.75571926311466,54.6670720811794 -2.75562514411193,54.6670151695051 -2.75553113585348,54.6669573592924 -2.75545268248174,54.6669110412859 -2.75523981054125,54.6667991685132 -2.75504422170857,54.6667024607886 -2.75450722404926,54.6664209208295 -2.75438666162053,54.6663578842429 -2.7542895119195,54.666302787937 -2.75417650111493,54.6662333252982 -2.75406985069089,54.6661621163538 -2.75405887038738,54.666155895823 -2.7539487745394,54.6660712317085 -2.75392057855601,54.6660534392054 -2.75387360476343,54.6660294747066 -2.75382359637277,54.6660073255364 -2.75377195778236,54.6659868939779 -2.75372203410741,54.6659692358146 -2.75365662583854,54.6659507762551 -2.75358960717938,54.6659350218103 -2.75353357959881,54.665919199814 -2.75347269102964,54.6658962195483 -2.75341327082665,54.6658696372126 -2.75335843354831,54.665842126755 -2.75330369182727,54.6658128201263 -2.75325520211246,54.6657897625984 -2.75294686654734,54.665637063761 -2.75288607674634,54.6656194728387 -2.75282072076371,54.6656037085295 -2.75275541458802,54.6655906381021 -2.75268844663948,54.6655775779718 -2.75268061595915,54.6655758302085 -2.7525485188904,54.6655523935229 -2.75241480992719,54.665531662736 -2.75233549346126,54.665521375184 -2.75197080729736,54.6655011804515 -2.75124160567906,54.6654769584608 -2.75120757370077,54.6654753732264 -2.75117493117353,54.6654728797863 -2.75114223900115,54.6654676924194 -2.75111117552512,54.6654606975879 -2.75108148498331,54.6654518977787 -2.75107376651344,54.6654492505484 -2.75104555947004,54.6654377464001 -2.7510220489648,54.6654244157557 -2.75100335088319,54.6654155477216 -2.75094536689439,54.6653835641778 -2.75092338795265,54.6653701350433 -2.75081343331269,54.6652926549258 -2.75065431352181,54.6654051349977 -2.75047176354156,54.6655086862151 -2.75031954842401,54.6655797067195 -2.74996359256678,54.6657005036188 -2.74975739866511,54.6657836268931 -2.74955745210098,54.6658729101836 -2.74932259982744,54.665996548979 -2.74911094931365,54.6661237273897 -2.74866899261956,54.666371819692 -2.74793447003509,54.6668175738327 -2.7476932292663,54.6669349600225 -2.7475705318945,54.6670058836862 -2.74742956590966,54.6670983929545 -2.74728886285019,54.6672052747223 -2.74712563857462,54.6673528147527 -2.74664396659233,54.6677161416851 -2.74497443374732,54.6693458236405 -2.74432811647807,54.6701253120892 -2.74310464150322,54.6713936644275 -2.73922175202608,54.6710400121245 -2.73574847377101,54.6706963243279 -2.73200309896371,54.6703110614194 -2.73029900042336,54.6701361916962 -2.72689060652245,54.6697729950248 -2.72260029895524,54.6693377074429 -2.7185075886599,54.6697215252046 -2.71715298155427,54.6698454538103 -2.71484303328641,54.6700370942006 -2.71199804738978,54.6699657285521 -2.71072889300778,54.6699183839819 -2.71110298375001,54.670828345261 -2.70963624879446,54.6709258955844 -2.70877559912137,54.6710145811265 -2.70784659078749,54.6710909917925 -2.70746118892499,54.6711309783577 -2.7074149110209,54.6711384363942 -2.70702995931396,54.6713887372017 -2.70765118613608,54.6720671814326 -2.70810987343533,54.672587553943 -2.70869441736786,54.6733012455418 -2.70944833500347,54.6741146527775 -2.71007718955422,54.6748738964985 -2.71098542027583,54.6759172841298 -2.71183811207809,54.6768747439992 -2.71245705355659,54.6775954948984 -2.7132760769601,54.6784956435833 -2.71397080542688,54.679284129204 -2.71488605389188,54.6803589803021 -2.71534010633203,54.6808666863253 -2.71589932321373,54.6814493261729 -2.71733365375901,54.6830997544109 -2.71810238286101,54.6839489613525 -2.71879591517059,54.684658371164 -2.71924880837191,54.6851886240652 -2.71942056151601,54.6855138197634 -2.71949313321595,54.6856689054596 -2.71963104882003,54.6860113722807 -2.71983911996818,54.6870732347507 -2.72071027061,54.6900210676006 -2.72147711716408,54.6931097631658 -2.72186554618465,54.6942739592882 -2.72240107131709,54.6957742765731</coordinates></LinearRing></outerBoundaryIs></Polygon>
  </Placemark>
