  <Placemark>
	<Style><LineStyle><color>ff0000ff</color></LineStyle><PolyStyle><fill>0</fill></PolyStyle></Style>
	<ExtendedData><SchemaData schemaUrl="#Wards__December_2019__Boundaries_EW_BFE">
		<SimpleData name="objectid">5379</SimpleData>
		<SimpleData name="wd19cd">E05011108</SimpleData>
		<SimpleData name="wd19nm">Nunhead &amp; Queen's Road</SimpleData>
		<SimpleData name="wd19nmw"></SimpleData>
		<SimpleData name="bng_e">535126</SimpleData>
		<SimpleData name="bng_n">176358</SimpleData>
		<SimpleData name="long">-0.05591</SimpleData>
		<SimpleData name="lat">51.470058</SimpleData>
		<SimpleData name="st_areashape">1317205.54313724</SimpleData>
		<SimpleData name="st_lengthshape">6335.26596506845</SimpleData>
	</SchemaData></ExtendedData>
      <Polygon><outerBoundaryIs><LinearRing><coordinates>-0.064665790692744,51.4739821040039 -0.06385082105885,51.474013591591 -0.06384354092923,51.473607918731 -0.063930567176635,51.4726740959483 -0.06393799986177,51.4725321717924 -0.063956737703369,51.4724317000492 -0.063991779408619,51.4723163042354 -0.064030334875894,51.4722216437892 -0.064202183869176,51.4719061371241 -0.064234761034709,51.4717816195064 -0.064252260263924,51.4716065978759 -0.064241424846133,51.4714867578364 -0.064216483954742,51.4713299146707 -0.064145913498242,51.4710562528192 -0.063931762601919,51.4705706538058 -0.063870949884292,51.470408722241 -0.063772738477923,51.4701094304833 -0.063348240623528,51.4699684594074 -0.061462461298707,51.4692114861875 -0.061139473089269,51.4690874699077 -0.061189324491969,51.4690316558698 -0.06114373873653,51.4689868489851 -0.060911953006308,51.468646595672 -0.060796920780989,51.4684729763017 -0.060711888175015,51.4683394112623 -0.060499214363993,51.4679545224775 -0.060357126256046,51.4676715824021 -0.060145068039868,51.4672751049794 -0.059941685158422,51.4669120356634 -0.059839335686164,51.4666747049054 -0.059724299092009,51.4663670392479 -0.059618561936623,51.4661116717914 -0.059521770444057,51.4659140796716 -0.059610617520348,51.4658903782719 -0.05974055938423,51.4658493769908 -0.05983679024116,51.4658195044804 -0.059780810932463,51.465748362847 -0.059766948670466,51.4657337491708 -0.059638122665262,51.4655805784542 -0.059595616065816,51.4655304280144 -0.059584987322908,51.4655095737492 -0.05957713174364,51.4654932609539 -0.059530241082107,51.4654429479514 -0.059519267937827,51.4654301797717 -0.059475186289669,51.4653835994526 -0.059460135144687,51.4653662681817 -0.059444925038578,51.4653498335642 -0.059542849701428,51.4653163939988 -0.059583710442567,51.4653017864309 -0.059655394824106,51.4652769023673 -0.059662664457911,51.4652734265073 -0.059663185071053,51.4652275840159 -0.059952178010341,51.4652036014899 -0.059984077921706,51.4651987348766 -0.059957744602892,51.4650723445191 -0.06002285416071,51.4650653317328 -0.059966065116559,51.4649097578771 -0.05990230240193,51.4649185915098 -0.059900803361011,51.4649203643642 -0.059774888044334,51.4646313990625 -0.059739491389998,51.464550798694 -0.059710795106766,51.4644801097221 -0.05969261228602,51.4644330581901 -0.060484822922967,51.4643212102422 -0.059631596983594,51.4636299327411 -0.059236119830975,51.4633158238034 -0.058972642008722,51.4631135821853 -0.058688900785545,51.462946964951 -0.058530982719908,51.4628670318145 -0.058117298452899,51.4627109361552 -0.058037750931943,51.4626862433308 -0.057847290678795,51.4626263572702 -0.057654989742742,51.4625791167567 -0.057508214198753,51.4625443179031 -0.057296904837379,51.4625030548596 -0.057078906362003,51.4624823587541 -0.056926411863815,51.4624816274163 -0.056763525448986,51.4624852190624 -0.056546585517704,51.462509490487 -0.056327491022014,51.4625481107959 -0.056132797570424,51.4625907309132 -0.055985316009232,51.4626396188692 -0.055872125352681,51.4626943796749 -0.055742547783872,51.4627632525627 -0.055629773232375,51.4626741751395 -0.055538085533143,51.4625944377742 -0.05502050817235,51.4622746914981 -0.054482392883511,51.4619635920169 -0.054362706721691,51.4619003808302 -0.054219929228279,51.4618386727251 -0.054140609919023,51.461805889209 -0.053750836168038,51.4615961439413 -0.053480774441439,51.4614127499244 -0.053251590726198,51.4612506219623 -0.053151399322057,51.4611365782427 -0.053118336840703,51.4611018657068 -0.052772668419517,51.4609018402106 -0.052619537919388,51.4608129874323 -0.052493547942243,51.4607641435746 -0.051976704277463,51.4605954332191 -0.051587975416903,51.4603588172708 -0.050776599163331,51.4598740476156 -0.050188624126001,51.4595171464689 -0.050111665284021,51.4594987836091 -0.049520144307755,51.4598684197067 -0.048957622971401,51.460231342377 -0.048099181286654,51.4607809174107 -0.047361917650208,51.4612578855196 -0.047406024185391,51.4613062695289 -0.047510553294934,51.4614518567051 -0.04754319289606,51.4614991502667 -0.047575788873141,51.461544735339 -0.047606963169368,51.4615902058814 -0.047638138928275,51.4616356773385 -0.047643526047735,51.4616429596356 -0.047670737495425,51.4616811724962 -0.047701990081545,51.4617248466344 -0.047733127678371,51.4617712167184 -0.047765764825831,51.4618158123008 -0.047798283118368,51.4618631945923 -0.04782949760466,51.461907767349 -0.047857899154481,51.4619486969645 -0.04789200201659,51.4619951155118 -0.047925908853613,51.4620433293629 -0.047957123589293,51.462087902087 -0.047991032003477,51.4621361159439 -0.048015390275007,51.4621716741378 -0.048023627488302,51.4621816999738 -0.048051031223192,51.4622154212897 -0.048056341828304,51.4622244999728 -0.048087556816878,51.4622690726634 -0.048120232975929,51.4623127703981 -0.048151448088082,51.4623573430724 -0.048182661822974,51.4624019157147 -0.048213877057813,51.462446488373 -0.048245088519941,51.4624911508885 -0.048277688311093,51.4625366458839 -0.048311634302342,51.4625839609762 -0.0484148644508,51.4627295256407 -0.048428411117819,51.4627486309912 -0.048447387948285,51.4627768169951 -0.048466399266839,51.4628041951084 -0.048482639713907,51.4628269406845 -0.04851936090903,51.4628787974893 -0.048537105225817,51.462902468296 -0.048551961254044,51.4629242924113 -0.048584523368448,51.4629706850776 -0.048615662721976,51.4630170549362 -0.048637370399115,51.463047983362 -0.048649609425515,51.4630643699343 -0.048682129574441,51.4631117510913 -0.048714693395135,51.4631581437467 -0.048752761294775,51.4632118205823 -0.048782630034963,51.4632545729703 -0.048813923106619,51.4632973481716 -0.048847870188542,51.4633446640131 -0.048879010106127,51.4633910329058 -0.048911645675816,51.4634357189451 -0.048942824010608,51.4634811900684 -0.048974040735204,51.463525762532 -0.049008026520234,51.4635721787786 -0.049039243371552,51.4636167512255 -0.049071806481477,51.4636631437615 -0.049104446269619,51.463707739884 -0.049136890706044,51.4637569182232 -0.049169492301912,51.46380241298 -0.049200786116771,51.463845188082 -0.049231965022779,51.4638906591313 -0.049263142552626,51.4639361301487 -0.049295745880977,51.4639816239971 -0.049327000179106,51.4640252976945 -0.049359636646992,51.4640699836138 -0.049395013627547,51.4641200200608 -0.049427615781828,51.4641655138499 -0.049460217963237,51.464211008529 -0.049490049748649,51.4642546584968 -0.049521267543412,51.4642992308203 -0.049553831598094,51.4643456241262 -0.049585007408593,51.4643911840517 -0.049614839394177,51.4644348348876 -0.04964740368022,51.4644812272699 -0.049678660100062,51.4645249009011 -0.049711224477734,51.4645712941649 -0.049743865548752,51.4646158901162 -0.049773737624763,51.4646586413865 -0.049806298364516,51.4647051244902 -0.049837516780097,51.4647496967326 -0.049868733818365,51.4647942689431 -0.049901222039486,51.4648424576629 -0.049931094374677,51.4648852097933 -0.049965043849447,51.464932524425 -0.049996185998257,51.4649788930322 -0.050028747195845,51.4650253760764 -0.050061388906138,51.4650699719426 -0.050091299849212,51.4651118253817 -0.050122479117899,51.4651572952806 -0.050153698155396,51.465201867442 -0.050184917254249,51.4652464395954 -0.050217482667818,51.465292832724 -0.050250120925974,51.4653375184048 -0.050282724813561,51.4653830119652 -0.050313905860914,51.4654284827377 -0.050346586444465,51.4654721798754 -0.05038049849055,51.4655203930435 -0.0504117945958,51.4655631687331 -0.050442975934705,51.4656086385739 -0.050474153467786,51.4656541991706 -0.050506757769595,51.4656996935697 -0.050538015857118,51.4657433669805 -0.050570620287148,51.4657888613625 -0.050600492476316,51.4658316124062 -0.050624896904595,51.4658661815611 -0.050631789004044,51.4658743880393 -0.050660314979161,51.4659153189885 -0.050699803427226,51.4659664117339 -0.050618996939212,51.4660046243289 -0.050524105695703,51.4660363101849 -0.050385422996469,51.4660816514087 -0.050331434263838,51.4660978341164 -0.050297801967721,51.4661098609029 -0.050211820065566,51.4660661760361 -0.050125035578256,51.4660413565319 -0.05001104404214,51.4660142864681 -0.049965477835697,51.4660027393059 -0.049921221041749,51.4659939117884 -0.049887238272832,51.4659807597119 -0.049747111790795,51.4659234968926 -0.049521856774972,51.4658388335732 -0.049435646311418,51.4658005382607 -0.049313412387014,51.465730176976 -0.048999786304153,51.4655549477495 -0.048650982559227,51.4653612413096 -0.048554422257258,51.4652957115287 -0.048389856580235,51.4652048651931 -0.048252888884924,51.465143247548 -0.048144708672042,51.4651135754802 -0.048026064404327,51.4650927191766 -0.047903919889825,51.4650870878644 -0.0477755074037,51.4650948377353 -0.047457495552766,51.4651254991945 -0.047535929517797,51.4651762537546 -0.047695022024648,51.4652256544564 -0.048514412553626,51.4656269675795 -0.048180311114382,51.4658983043379 -0.048603420742091,51.4660726623305 -0.049029994856464,51.4662299045242 -0.049380980132737,51.4663392270698 -0.049597385145346,51.4663976711135 -0.049644336271473,51.4664101398605 -0.049879251391188,51.4664715884742 -0.050252829796763,51.4665578192682 -0.050494201579887,51.4666014836213 -0.050862652454867,51.4666381806133 -0.050796546787397,51.4666712439591 -0.050608225952009,51.4667643068675 -0.050549391907131,51.4667938957034 -0.05097447549078,51.4671229106231 -0.051293908392274,51.4673656588063 -0.05130079624696,51.4673711673036 -0.051102509431268,51.4674640652691 -0.050855612854652,51.467580518693 -0.050968752987735,51.4677307412972 -0.051420658264429,51.468344385018 -0.051658622074442,51.4685713921148 -0.052015158804419,51.4689550038459 -0.05225602073387,51.4692144224169 -0.052125508679366,51.4693381171921 -0.051756644138545,51.4696143699237 -0.051660797582764,51.4697017805493 -0.051661268071516,51.4697576180249 -0.05177572206544,51.4700805655403 -0.051954768186043,51.4706095662569 -0.052147956223929,51.471210813186 -0.05273122788005,51.4729337024683 -0.052737264383519,51.4738402053609 -0.052721680339079,51.4763022139399 -0.052673407209654,51.47800921293 -0.054241699829158,51.4785837650239 -0.054404188007119,51.4783203500385 -0.054649521125901,51.4779349629151 -0.054947097918491,51.4774741145127 -0.054977839559816,51.4774269768922 -0.055079964670265,51.4774322674483 -0.055155986364946,51.477437125549 -0.055152679670129,51.4774478594328 -0.055152106225684,51.477461335651 -0.055146316093957,51.4775304650057 -0.055402333783598,51.4775383095169 -0.055444214862707,51.4775363076013 -0.055609272958321,51.4775471385334 -0.055659815862815,51.477545280277 -0.055662043045075,51.4776603929204 -0.055867715882758,51.4776683002711 -0.055884958325972,51.4776676879672 -0.055997395127038,51.4776650579047 -0.056059408295625,51.4776642890645 -0.056072342788401,51.4776645036518 -0.056089588647452,51.4776665874417 -0.05609135119369,51.4775218725791 -0.056111973729377,51.4773747736355 -0.056421266708394,51.4773835006537 -0.057573214888091,51.4774205831334 -0.058102190057803,51.4774428367549 -0.058318176460367,51.4774455168075 -0.058513358314992,51.4773929214309 -0.058662452738549,51.4774413318821 -0.058694353852641,51.4774031128002 -0.058772746466579,51.4773549651279 -0.05893358515896,51.4772973944721 -0.059126293931187,51.47723585597 -0.059516720600813,51.4771290445733 -0.059754159968229,51.4770654598382 -0.060084112689845,51.4769594428574 -0.060956002399858,51.4766735091696 -0.060953649891759,51.4766617830977 -0.061806787939007,51.4765770047245 -0.061995233883736,51.4765486557085 -0.062199995739521,51.4765078998776 -0.062701346152597,51.4764029124672 -0.062895089666385,51.4763503760532 -0.063037058622656,51.4762951848675 -0.063116487039254,51.4762560416603 -0.063225854076059,51.4761912312203 -0.063341675264311,51.4761086369447 -0.063391113679293,51.47606270465 -0.063474477552594,51.4759642904009 -0.063493165303932,51.4759295369623 -0.063529887647583,51.4758446459712 -0.063652689867078,51.475395272948 -0.063690247926607,51.4752906176713 -0.063728540439172,51.4752022462225 -0.063790878269885,51.4750899985496 -0.063886495459606,51.4749404515588 -0.06394300057671,51.4748649674099 -0.064665790692744,51.4739821040039</coordinates></LinearRing></outerBoundaryIs></Polygon>
  </Placemark>
