  <Placemark>
	<Style><LineStyle><color>ff0000ff</color></LineStyle><PolyStyle><fill>0</fill></PolyStyle></Style>
	<ExtendedData><SchemaData schemaUrl="#Local_Authority_Districts__December_2019__Boundaries_UK_BFC">
		<SimpleData name="objectid">250</SimpleData>
		<SimpleData name="lad19cd">E08000002</SimpleData>
		<SimpleData name="lad19nm">Bury</SimpleData>
		<SimpleData name="lad19nmw"></SimpleData>
		<SimpleData name="bng_e">379658</SimpleData>
		<SimpleData name="bng_n">410768</SimpleData>
		<SimpleData name="long">-2.3088</SimpleData>
		<SimpleData name="lat">53.593102</SimpleData>
		<SimpleData name="st_areashape">99460126.9023185</SimpleData>
		<SimpleData name="st_lengthshape">68541.7597922017</SimpleData>
	</SchemaData></ExtendedData>
      <Polygon><outerBoundaryIs><LinearRing><coordinates>-2.35549015880822,53.6626074508506 -2.3555698327065,53.6645072937127 -2.36121602832222,53.6650144323985 -2.36160694791808,53.6650707603289 -2.36191921987884,53.6651372089052 -2.36209810811917,53.6651753053065 -2.36421759706093,53.6656048559101 -2.36809158113581,53.6664342369911 -2.37123619444388,53.667080654493 -2.37073713757142,53.666098014346 -2.37013165373586,53.6650572953837 -2.36947337522343,53.6640257218995 -2.36897231809684,53.6633189375645 -2.36829914062644,53.6624752913833 -2.36773800168705,53.6618137035268 -2.36726583511287,53.6612947104701 -2.36720542520099,53.661306576684 -2.3660957381158,53.6600300747231 -2.36509878917396,53.6590138892833 -2.36390137883927,53.6577339470139 -2.36377768304506,53.6575968439556 -2.36363558920914,53.6574382314154 -2.36293206496883,53.6563922900233 -2.36275480917339,53.6561915504967 -2.3626410357906,53.6559887309221 -2.36274651451584,53.6554014742395 -2.36284102232415,53.6551342266087 -2.3629692619133,53.6549163877745 -2.36360011822909,53.6542070390983 -2.36413310619677,53.6535501913419 -2.36446209149472,53.6531061113659 -2.36510374886498,53.6524255650813 -2.36524161115977,53.6522696036552 -2.36545582821881,53.6520289455018 -2.36585937182281,53.6512817293951 -2.36613979023558,53.6506499044724 -2.36631540463154,53.650130718802 -2.36641624311127,53.649734055451 -2.36653483174635,53.6492699441866 -2.36674939430277,53.6485393858274 -2.36692941238772,53.6480256650337 -2.36696417761242,53.6478493503778 -2.36705360463703,53.6476909297822 -2.3670680002823,53.6476108233258 -2.36707489910796,53.6475290330106 -2.36706084852858,53.6473043462267 -2.36697381862391,53.6468624311487 -2.36681031306374,53.6468494538993 -2.3666781926926,53.6467878583961 -2.36679242772518,53.6463551196603 -2.36699245410666,53.6458772799978 -2.3670549673892,53.6450618232364 -2.36772201561147,53.6450516877609 -2.36816648678666,53.6450332473583 -2.36862906690047,53.6449886912945 -2.36876056598289,53.6449793002916 -2.3688467537487,53.6449799323567 -2.36892699520148,53.644985076806 -2.36906398007423,53.6450754087546 -2.36920787570921,53.6451001242526 -2.36979906890949,53.6449015114252 -2.37047514832322,53.6447124279898 -2.37068135190096,53.6446030631359 -2.37073553832017,53.6445669522232 -2.37078339065689,53.6445056112827 -2.37095222564313,53.6442597807642 -2.37124618743806,53.643804913958 -2.37138089221021,53.6436355659884 -2.37150467194351,53.6434436977155 -2.3715153641292,53.6432837203637 -2.37176177995719,53.6432666902441 -2.37184818694378,53.6431082741368 -2.37215559638485,53.6428089048481 -2.37241592078509,53.6424881160239 -2.37244714445001,53.6424224237545 -2.37249439971645,53.6422936922027 -2.37251050868926,53.6422253514433 -2.37250416017514,53.6420285862026 -2.3724079158968,53.6419191715385 -2.37232654020773,53.6417846402351 -2.37222143895015,53.6417031979925 -2.37217869473782,53.6416502250129 -2.3721751492151,53.641587336421 -2.37219553646668,53.641509097826 -2.37207874174551,53.6412892236856 -2.3720450009223,53.6412390089852 -2.37174743347322,53.641110540984 -2.37160476414944,53.6405429112884 -2.37141293381974,53.6403978495302 -2.37110854113517,53.6398460868916 -2.37089524380553,53.6393146185135 -2.37089591342583,53.6392202669582 -2.37087732752322,53.6391771029039 -2.37084977251378,53.6391349562741 -2.37070247019856,53.6390752090433 -2.37050517642685,53.6388178421911 -2.37043847705368,53.638634741958 -2.37034283681092,53.6385928052626 -2.37016692033035,53.6383695170132 -2.37005853193812,53.6382530387929 -2.37007885750386,53.6381531453561 -2.37010545149052,53.6380856710453 -2.37000215798503,53.6380239890467 -2.36902055054689,53.638028820763 -2.36879820511188,53.6380286080733 -2.36849721505728,53.6380187539523 -2.3687603252884,53.6376746001816 -2.36873379181253,53.6375775470733 -2.3688091606178,53.637540473603 -2.36878826751543,53.6374039555384 -2.36888875055663,53.6373011194163 -2.36890770883662,53.6372300736311 -2.36900066469423,53.6371363360604 -2.36877842536144,53.6369760883791 -2.36835411601501,53.6368803514676 -2.36837957476052,53.6366681218934 -2.36833336422141,53.6365739147695 -2.36833226834489,53.6364481187932 -2.36834382392856,53.6363860823349 -2.36840589005722,53.6362249576051 -2.36843204729526,53.636092787664 -2.36850378062899,53.6358247036187 -2.36859313751651,53.6356616978977 -2.36863152227013,53.6355591432925 -2.36855693866575,53.6351567253669 -2.36855924932279,53.6350784531583 -2.36863717580963,53.6349919500614 -2.36889711043994,53.6348005625043 -2.36899130725463,53.6346780667918 -2.36902224814644,53.6345800273408 -2.36940017732267,53.6342220395768 -2.36963375510175,53.6341259793099 -2.36971264056133,53.6339783704723 -2.3697374525694,53.6338785530279 -2.36981090276434,53.6338081474454 -2.36983321832469,53.633764947438 -2.36993128150016,53.6337287009415 -2.37013544784742,53.6333928129643 -2.3702205962291,53.6332631548362 -2.37023483912305,53.6331668740525 -2.37016053418997,53.6329685196743 -2.36992424152693,53.6327535043936 -2.36985070941916,53.632643207457 -2.3698334734343,53.6325829664592 -2.36987829145447,53.6325181310083 -2.37003496388182,53.6324403693473 -2.3701315756825,53.6324238958302 -2.37012489193873,53.6323583209077 -2.37009809701145,53.6322316150942 -2.37004852463131,53.6320951861457 -2.37009922473137,53.6320186503212 -2.37013936242251,53.6319321728768 -2.37026762489796,53.6318994277189 -2.37042767332504,53.6318800618684 -2.37048630016362,53.6318403425065 -2.37052667553366,53.6317809117477 -2.37053807663957,53.6317018019484 -2.37050406856414,53.6316200474251 -2.37046301544126,53.631587826708 -2.37034322001135,53.6315621390534 -2.37032788904823,53.6315343309452 -2.37043197733886,53.631503457254 -2.37049385616793,53.6314933810695 -2.37076281729705,53.6314673871635 -2.37081870447962,53.6314564305652 -2.37090452572958,53.6314184242927 -2.37090289614723,53.6314031537531 -2.37099954317208,53.6313911726675 -2.37094307693426,53.6315063647288 -2.37104003112641,53.6315150494282 -2.37102529355759,53.6315690096182 -2.37101811510915,53.6317739963179 -2.37092036086253,53.6320152064503 -2.37232586823324,53.6319101071862 -2.37257064481338,53.6318985622077 -2.37390426537456,53.6318710351146 -2.37628844443075,53.6318132341598 -2.37664391672736,53.631141600971 -2.37735897049872,53.6309469614902 -2.37742078265705,53.6309296930993 -2.37768238674721,53.630932461303 -2.37815691294338,53.6308896267207 -2.37871928609305,53.6308689764205 -2.37913211552921,53.6308703643459 -2.3790184202255,53.6305103070291 -2.37904739154843,53.6301956259043 -2.37910236268153,53.6300831294155 -2.37917105907274,53.6299857759827 -2.37923069963561,53.6297267087328 -2.37927346037666,53.6294345371883 -2.3792932888165,53.6292960042471 -2.37931186882459,53.6290047174338 -2.37937624951265,53.628760011802 -2.37935110716996,53.6284868357949 -2.37933101816561,53.6282766336971 -2.37931413356977,53.628076215965 -2.37926204054666,53.6278282854536 -2.37911107558833,53.6271762212998 -2.37904328673792,53.6270407516516 -2.37915171628698,53.6269954798032 -2.379288044396,53.6270166129553 -2.37948348146868,53.6270672107155 -2.37967530976112,53.6270351515685 -2.38117943627283,53.6273386652768 -2.38212333441605,53.6267064720318 -2.38297272612594,53.6261590388885 -2.38285859118781,53.6260830255232 -2.38345547886356,53.6255453838048 -2.38289018308681,53.6252353008672 -2.3825881811414,53.6251041772601 -2.38213401652154,53.6248817956324 -2.38155519148576,53.6245762422429 -2.38124547339606,53.6244316609877 -2.38079219181835,53.6242919397032 -2.38007186539175,53.6240524256377 -2.37935239473542,53.6239073447857 -2.37823819539293,53.6232538373671 -2.37821814985423,53.6232008849862 -2.37802074117827,53.623276090893 -2.37788660895087,53.6231506245791 -2.37749023909846,53.6227923576051 -2.37722349602681,53.6225433953525 -2.37714767013576,53.622525573477 -2.37705045046167,53.6224710675909 -2.37697499948412,53.6224811891119 -2.37680949906607,53.6220664801576 -2.3767506354548,53.6220774480828 -2.37635911508124,53.6220795802311 -2.3763586990373,53.6220328557543 -2.37729642552462,53.6219157803912 -2.37725596626412,53.6217819308613 -2.37697939181407,53.62145024088 -2.37681381007062,53.6211936807559 -2.37777318628713,53.6211160703099 -2.37800697329566,53.6210677066232 -2.37819810817959,53.620961070409 -2.37820053642499,53.6208980725586 -2.37967530336892,53.6208170192579 -2.37943642698578,53.6202982211543 -2.37930332182378,53.6203004412458 -2.37908319549122,53.6203704188262 -2.37891415167354,53.6203961149008 -2.37860280135047,53.6203988990851 -2.37829336897052,53.6204627790151 -2.37800194150736,53.6205050355249 -2.37764533294638,53.6205205394832 -2.37696328000329,53.6196436162222 -2.37633013873161,53.6188250319189 -2.37641288969616,53.6187816399879 -2.37622774894739,53.6185386194347 -2.37601793783471,53.6182264849552 -2.37593781161195,53.6182285346443 -2.37535322710926,53.6184523195786 -2.37492476159353,53.6180375343891 -2.37630457743265,53.6174938728774 -2.37537940521896,53.6171471466496 -2.37522037547974,53.6171063113297 -2.37513060901565,53.6170472871873 -2.37502197750845,53.6170673960845 -2.37470392726889,53.6166630469337 -2.37433342826892,53.616302890548 -2.37419330971527,53.6161873232315 -2.37400376898451,53.616120522863 -2.37316608271473,53.6159226689371 -2.37258652127253,53.6158516921051 -2.37221563044226,53.615798034115 -2.37122242729311,53.6156159264388 -2.37040357579304,53.6155025505869 -2.36941890454384,53.6152539076858 -2.36924135065896,53.6153453022154 -2.36856898138956,53.6155495562675 -2.36777785730838,53.6147970100901 -2.36728552895866,53.6143346777369 -2.36666490113143,53.6137065010089 -2.36609036400379,53.6131600400705 -2.36528070676452,53.612358019845 -2.36502340875235,53.6121331728523 -2.36459952054013,53.6117093486343 -2.36438321256547,53.6115113321473 -2.36387756399416,53.61107068173 -2.36299441860479,53.610306608559 -2.36323063665131,53.6101836851871 -2.36345445160818,53.6100239576149 -2.36454329648024,53.6090471265158 -2.36416248064591,53.6085270213929 -2.36376471338544,53.6079619467617 -2.36364071573204,53.6077870110874 -2.36365224708024,53.6077222787381 -2.36370918055374,53.6076627996242 -2.36388250936868,53.6074303487883 -2.36392372386409,53.6072963355694 -2.363937103471,53.606925091837 -2.36403780757908,53.6066811812541 -2.36395994248666,53.6065960529233 -2.36393495737233,53.6065016882046 -2.36389073448238,53.6064452121793 -2.36373480781659,53.6064259171553 -2.363720438169,53.6063343065111 -2.36367594081694,53.6060719663036 -2.36380024973395,53.6059502807112 -2.36391708725871,53.6058294257672 -2.36403196637786,53.6056547525701 -2.36413698778161,53.6055653836356 -2.3641630523518,53.6054377064709 -2.3643145305792,53.6051145660804 -2.36444992128353,53.6047034128242 -2.36453863860058,53.6046455443779 -2.36479312027825,53.604535142623 -2.3648845104315,53.6044405132797 -2.3650950384974,53.6043193716525 -2.36514132074995,53.6042680112261 -2.36512715038375,53.6041997626872 -2.36502624652497,53.6040580947562 -2.36494706731262,53.6039935489504 -2.36507591836758,53.6036920424206 -2.36490758495981,53.6036197705623 -2.36480694669506,53.6035086530352 -2.3647139643001,53.6034181799324 -2.36467972892255,53.6033058721628 -2.36467742792378,53.6030389113186 -2.36461375297643,53.6030094526354 -2.36466293348426,53.602932923343 -2.36476169376159,53.6028265903891 -2.36486694665271,53.6027650760214 -2.36528629127903,53.6026730410208 -2.36535066148254,53.6026099440694 -2.36554634393071,53.6025167936669 -2.3657355018747,53.6023750493356 -2.36578173416923,53.6023039198377 -2.36573133849113,53.6022393764543 -2.3659692015373,53.6021397157116 -2.36632088475216,53.6019184884457 -2.36631922689546,53.6018996233552 -2.36631763128311,53.6018879469642 -2.36633529049146,53.6018267001879 -2.36634314085811,53.6016829028618 -2.36640579555873,53.601594650407 -2.36634479304477,53.6015283429567 -2.36634249641092,53.6014357060551 -2.36638081617087,53.6013286578939 -2.36643015335209,53.6012709985088 -2.36643878154597,53.6012170572257 -2.36638714622031,53.6011820806138 -2.36642123759505,53.6011046979779 -2.36656217108708,53.6009775676443 -2.36662532108481,53.6009468228954 -2.36667143267211,53.6008621246207 -2.36668740327799,53.6007928860211 -2.36668674131556,53.6007165085577 -2.36663334022616,53.6006501770598 -2.36662853618697,53.6006133502742 -2.36670056173259,53.6005573282184 -2.36669171662506,53.600413581978 -2.3668313535713,53.6003098178727 -2.36683065168162,53.6002288582152 -2.36680416905786,53.6001345882706 -2.36689285788877,53.6000893872831 -2.36691964398903,53.6000317966512 -2.36698857117493,53.5999632926318 -2.3671135048545,53.5999169925962 -2.36725026602954,53.5998267155593 -2.36731842950062,53.5998426811228 -2.36740751648647,53.5998433058085 -2.36746764329457,53.5997945984641 -2.36747016397627,53.5997406757176 -2.36740627621105,53.5997004356815 -2.36739392589805,53.599669921156 -2.36733480288774,53.5996476387346 -2.36743557348811,53.5995879335 -2.36753152531278,53.5995040705128 -2.36769620027266,53.5995008694624 -2.36779550763235,53.5994448527613 -2.36796829562771,53.5991566857332 -2.3679588493966,53.5991162787188 -2.36787401578408,53.5990886834088 -2.36786290346432,53.5990285124541 -2.36792846885734,53.5989320733566 -2.36806224412176,53.5988427025365 -2.36820541107191,53.5988018257734 -2.36832122390026,53.598738568271 -2.36838259309375,53.5986753885744 -2.36841154389632,53.5985234397347 -2.36858745747673,53.598423154252 -2.36864593733305,53.598371665533 -2.36864541293392,53.5983114620682 -2.36861243158556,53.5981722834011 -2.3685122123551,53.5981087937624 -2.36848844268177,53.5979829757486 -2.36856351552308,53.5979342205203 -2.36869382733781,53.5978053216478 -2.36878715116478,53.5977636988978 -2.36889500691287,53.5976599394848 -2.36893270664552,53.5976400540906 -2.36899165581287,53.5976425686584 -2.36905492645536,53.5976261987466 -2.36917986050767,53.5975665067297 -2.36930735945078,53.5974582828789 -2.36945500440027,53.5974173007413 -2.36923188255907,53.597117773633 -2.3692055075617,53.5970504619953 -2.36919034399994,53.5968689956168 -2.36909436773925,53.5967775466487 -2.3689835219257,53.5967095968853 -2.36892456624816,53.5967061843836 -2.36847481113527,53.5964172394649 -2.36840900732136,53.5963284833186 -2.36835568065665,53.5960985206966 -2.36838861308487,53.5960606787874 -2.36839157186418,53.5960570752146 -2.368475250449,53.5959525817198 -2.36854254016895,53.5958688065851 -2.36863802737138,53.59573273633 -2.36872933422365,53.5956318135956 -2.3689699786936,53.595513267579 -2.36916933417831,53.5955027676381 -2.36931387331613,53.5954349272221 -2.36929109139315,53.5954224174501 -2.36968520802959,53.595232407398 -2.36983159295905,53.5952049976055 -2.37051406334542,53.5949827320694 -2.37061793566329,53.5949374807894 -2.37068961782226,53.5948437164529 -2.37078025795512,53.5948380441625 -2.37092800324451,53.5948097299858 -2.37090670694856,53.5947819401541 -2.37109800979554,53.5947202426056 -2.37120064515771,53.5947046482423 -2.37132515184354,53.594611707344 -2.37140496605958,53.5945790212624 -2.37162109351379,53.5945783496973 -2.37184991862863,53.5944913740483 -2.37193263456856,53.594448883954 -2.3720880877982,53.5944331245216 -2.37218722002467,53.5943591319164 -2.37230450083639,53.5942949672444 -2.37242995797759,53.5942963742031 -2.37245112060989,53.5943088884215 -2.37252674263546,53.5943095507702 -2.37264848241081,53.5942425872722 -2.37276264714691,53.5941640549533 -2.37294965824447,53.5941248325219 -2.37292613169598,53.594027859248 -2.37302415666508,53.5940122777165 -2.37330821103352,53.5940158835821 -2.37331533260148,53.5939618564582 -2.37340225269456,53.5938735240784 -2.37373436889253,53.5938464282301 -2.3738249350029,53.5938326661386 -2.37393792141735,53.5938044569501 -2.37407937929598,53.5937420126276 -2.37447527003862,53.593742570182 -2.37455168879687,53.5936785313079 -2.37494062714954,53.5935693933585 -2.37519305888085,53.593589268514 -2.37528398252338,53.5936159411198 -2.37547260255836,53.5935901887 -2.37563533802352,53.5935393570375 -2.3757830689391,53.5935101381272 -2.3759039903567,53.5935061635875 -2.3761076109072,53.593472276171 -2.37621040905885,53.5934755463324 -2.37632480716613,53.5934383447859 -2.37651210745271,53.5934323639265 -2.37668972230452,53.5933599181782 -2.37690057835648,53.5932854798376 -2.37689560615754,53.593230682595 -2.37683240068992,53.5930853114515 -2.37705749556499,53.5929173758218 -2.37693157823725,53.5928638578311 -2.376866583682,53.5928532802349 -2.37689039488545,53.5926455431205 -2.3767625044598,53.5925381161764 -2.37672745481303,53.592504979495 -2.37671898121853,53.5923926838284 -2.37657084288313,53.5922214310602 -2.37642396534636,53.5921778630319 -2.37634648542269,53.5921358741075 -2.3763528196654,53.5919937883511 -2.37640965178385,53.5919271143453 -2.37640460304839,53.5918777084683 -2.37637268544742,53.5918463585369 -2.37616529660096,53.5918056761559 -2.3760996085982,53.5917168338363 -2.37600780276319,53.5915904221094 -2.37591536509406,53.5915610591044 -2.37589090422744,53.5915278888154 -2.37596344064037,53.5913640288368 -2.37610135634112,53.5912404892017 -2.37572827287357,53.5910843200576 -2.37568491161372,53.591124893284 -2.3756443914542,53.591162850037 -2.37555064271769,53.5911541587747 -2.37550954485584,53.5911128638986 -2.37544502317268,53.5910007429619 -2.37534362609032,53.5909723064603 -2.37520462599955,53.5909736414782 -2.37500595356981,53.5908897979418 -2.37484953677314,53.5907949483608 -2.37485954140437,53.5905603871762 -2.37478374926902,53.5905255798407 -2.37460953822531,53.59047481716 -2.37464843203622,53.5904360559899 -2.37479575807693,53.5903484320681 -2.3748062430756,53.5903367169854 -2.37489484508845,53.5901161974035 -2.37485211888143,53.5900597205781 -2.37498290594356,53.5899892208429 -2.37499195890149,53.5899846991575 -2.37496193641201,53.5898436259551 -2.37497519448361,53.5898076415717 -2.37499580295763,53.5897437772887 -2.37505082988621,53.5896420645807 -2.37516346547758,53.5895616480484 -2.37536804368046,53.5894693505596 -2.37551593214238,53.5894455236911 -2.37578936889641,53.5894491573016 -2.3758539814161,53.5894175038699 -2.37586578442687,53.5893860163696 -2.37591572447763,53.5892168361649 -2.37604361329698,53.5891571278004 -2.37618075633806,53.5891297385478 -2.37622217798284,53.5890253733975 -2.37628209980877,53.5889703709511 -2.37649384529618,53.5888303341244 -2.37653298069677,53.5886370160867 -2.37653230062923,53.588560548523 -2.37648335105245,53.5884906137575 -2.37638599152783,53.5884253237076 -2.37637777561497,53.588341780811 -2.37659285076804,53.5882403726882 -2.37657464701523,53.5880562208349 -2.37662413101648,53.5878501992288 -2.37659361442993,53.5878080624075 -2.37644909736255,53.5877060791793 -2.37638714990148,53.5877008819661 -2.37619603860778,53.5877796597481 -2.37614453447039,53.5877726336846 -2.37613946031079,53.5877061543454 -2.37618292619447,53.5876636939805 -2.37622942864596,53.5876267060763 -2.37621381046678,53.5875791301509 -2.37614205903988,53.5874939902359 -2.37616398444598,53.5874103534264 -2.37610281227392,53.5873241914906 -2.37609186841158,53.5871157551874 -2.37599483063148,53.5869039042474 -2.37600104136713,53.5865794069685 -2.37586089302789,53.5862814278518 -2.37564238889494,53.5859953759079 -2.37540450800525,53.5859116558105 -2.37530325435934,53.5859119734744 -2.37535140605035,53.5857239287776 -2.37539190237866,53.5855153300218 -2.37550318751504,53.5852839553973 -2.37566245067739,53.5851962930884 -2.3757188993099,53.5850872968045 -2.37569156936549,53.5848986800149 -2.37550827003655,53.5844947132591 -2.3754357719323,53.5841560849571 -2.37555104727877,53.5840380092301 -2.37561329313967,53.5837402921477 -2.37580137590973,53.5834907047023 -2.37591471604029,53.5833232118914 -2.37605602465962,53.5832480957828 -2.37609795959565,53.5832021356795 -2.37614244466719,53.5831067465621 -2.37610801403083,53.5828057384787 -2.37604670457564,53.5827034929057 -2.37599775556402,53.5826325690351 -2.37598531636851,53.5825921719434 -2.37600792773134,53.5824177751263 -2.37607229935532,53.5823600631968 -2.37659400661951,53.5820824676068 -2.37663735366783,53.5820275180633 -2.37663037994378,53.5819295042943 -2.37636612540529,53.5815941752345 -2.37626193316593,53.5815989961474 -2.37602248005166,53.5813354749317 -2.3758212060112,53.5812902787779 -2.37573119704523,53.5811953120354 -2.37577125390374,53.5811062261332 -2.37569441319635,53.5809652997897 -2.37550503632316,53.5808993986686 -2.37524781328382,53.5804984482878 -2.37515056771479,53.5804438500636 -2.37502967273208,53.5804325466675 -2.37493427962214,53.5804040906666 -2.37449440987736,53.5801898076574 -2.37448506506471,53.5801610820399 -2.37467336276401,53.5799366559678 -2.37466987985959,53.5797119303033 -2.37454864626748,53.5794929652784 -2.37454465635404,53.5793797560181 -2.37462286742612,53.579183529546 -2.37476611713509,53.5788082819797 -2.37474063141878,53.5786582982685 -2.37470166928016,53.5785190493549 -2.37465076608322,53.5784095813811 -2.374641966985,53.5782594555258 -2.37473326929781,53.5781639194554 -2.37479894049106,53.5780846382301 -2.37483808165293,53.5780611529771 -2.37481124023596,53.5779407364267 -2.37472235907334,53.5777891534591 -2.37456488735803,53.5777384275081 -2.37450402139138,53.5776990796443 -2.37449587432661,53.5776226361152 -2.37458430931221,53.5775549651519 -2.3745957047906,53.5774776515253 -2.37454128606231,53.5772944201815 -2.37448091942902,53.5772973046431 -2.37438887842541,53.5773092747536 -2.37418351151733,53.5773198004494 -2.374013606573,53.5772286763724 -2.37380100198336,53.577096349393 -2.37373684549958,53.5770083983864 -2.37390824523591,53.5769305852364 -2.37388196801014,53.5768596785047 -2.37377707384378,53.5767836268617 -2.37367945851745,53.5766715178012 -2.37351463006104,53.5764779378128 -2.37352147371777,53.5763925506695 -2.3736884120998,53.5763173575111 -2.37369391881623,53.576249946893 -2.37358804004844,53.5762314069903 -2.37347015004358,53.5760510687071 -2.37341552008686,53.5758571447615 -2.37326664741013,53.5757496884686 -2.37330449171043,53.5755932167628 -2.37334915724593,53.575518495114 -2.37342412090639,53.575462549275 -2.37343172080839,53.5752935008553 -2.37334321480269,53.5751832513053 -2.37331117777304,53.5749810785468 -2.37324180212929,53.5748231428986 -2.37318104480552,53.5742723182069 -2.37314782155398,53.574090817118 -2.37323541284887,53.5739278997933 -2.37303243045026,53.5738538588195 -2.37264909156115,53.5738856948355 -2.37255541854992,53.573867026025 -2.37250654321833,53.5738168570657 -2.37253012852778,53.5737520847616 -2.37279160596647,53.5735967136267 -2.3727834649185,53.5731948900616 -2.37264107166612,53.5729733820241 -2.372614222003,53.5728367906088 -2.37269504565483,53.5727538686463 -2.37282742347488,53.5726860620484 -2.37322888266874,53.5724933223873 -2.37331770055223,53.5722862804124 -2.37340158133812,53.5722114362776 -2.3734814629706,53.5721914179893 -2.3737289008121,53.5721681812927 -2.37385804407111,53.572086905479 -2.37378357861366,53.5718597055699 -2.37379694768099,53.5716672757291 -2.37394688892294,53.5715445996863 -2.37397064664099,53.5714995957911 -2.37398245262946,53.5714690071509 -2.37400754510679,53.5714060275522 -2.37392822736539,53.5711509858143 -2.37393231123598,53.5710916662968 -2.37398426585065,53.5709970623278 -2.37398896308778,53.5708379977295 -2.37394320166357,53.5707878195916 -2.37389170953287,53.5707655154658 -2.37380695598511,53.5707549965253 -2.37371754289066,53.5707102568054 -2.37369751447637,53.5706698828932 -2.37370944867752,53.5706536709223 -2.37374710899725,53.5706463644502 -2.37380692730483,53.5705823776859 -2.37388806917957,53.5705362967686 -2.37364642182354,53.5703536483759 -2.3734823423954,53.5704116700533 -2.37328934494247,53.5704375220323 -2.37308391508498,53.5704372631836 -2.37261634909974,53.5705007218598 -2.37249175055838,53.570574793223 -2.37224697041729,53.5705593794038 -2.37205853117495,53.5705941111305 -2.37189993637719,53.5705964013164 -2.37182015946963,53.5706280996177 -2.37168914523576,53.5706662469934 -2.37159422424226,53.5706890063663 -2.37116063352384,53.5706660880739 -2.37104038921449,53.5707257674066 -2.37095741875049,53.5707341122055 -2.37065754093604,53.5706397896958 -2.37036621395862,53.5706406907979 -2.36990615435612,53.5705234987011 -2.36954464774986,53.5704572198257 -2.36909620536366,53.570286882133 -2.36902000133133,53.5702143309466 -2.36892925757506,53.5700159328229 -2.36885375214871,53.5698373459332 -2.36863658658485,53.5697040339903 -2.36833563458012,53.5694703380121 -2.36818066605224,53.5693593887351 -2.36786349886896,53.5691788475193 -2.36763074102313,53.5691561088225 -2.3673991053186,53.5690903231214 -2.36712167963314,53.5689554857312 -2.36662399927415,53.5686738629073 -2.36634917680742,53.5685083740847 -2.36594678286162,53.5684188456621 -2.36559801283157,53.5684118229514 -2.3654617352864,53.5683735988554 -2.36539374759331,53.5683720093184 -2.36524624711611,53.5684182865681 -2.3649622819406,53.5684047743966 -2.36481282985998,53.5684124174033 -2.36465881910371,53.5684110892137 -2.3644667374529,53.5683838172063 -2.36366415902494,53.5682865105444 -2.36324584658988,53.5682707061671 -2.36302389357837,53.5682731753299 -2.3619633246147,53.5681999130597 -2.36160694572834,53.5682054810659 -2.36099005310258,53.5682757228232 -2.36058949801635,53.5676980576898 -2.36042167193258,53.5674917971334 -2.36031433032706,53.5672979348085 -2.35990508601161,53.5667653148848 -2.35981942085369,53.56663159408 -2.35971624144743,53.566560916809 -2.35967123853247,53.5664217725885 -2.35952973472138,53.566294510163 -2.35939632001954,53.5660495097685 -2.35918287005302,53.5658057380078 -2.35833993950812,53.5646846874675 -2.35817773429454,53.5644343813833 -2.35798224588331,53.5641635070442 -2.3579861074377,53.5639136928478 -2.35797688506092,53.5638975459967 -2.35753782100377,53.5632030938548 -2.3573539312847,53.5632432707685 -2.35731481199533,53.5632541699432 -2.35725974729686,53.5631751700482 -2.35718145258573,53.5630280381897 -2.35717992764477,53.5630244483275 -2.35680604813544,53.5625437508156 -2.35656092859218,53.5621274553753 -2.35623489918272,53.561414782372 -2.35621335420657,53.5613690198586 -2.35621310388575,53.5613392775073 -2.35621245351959,53.5612620027599 -2.35603230934973,53.5606666071227 -2.35601454119217,53.5603448825985 -2.3561054247926,53.5598440179101 -2.35617973831045,53.5595193231791 -2.35633577090736,53.5592321235731 -2.3564641123303,53.5590564295151 -2.35670692228426,53.5588462477216 -2.3568575507524,53.5586274442593 -2.3569052723996,53.5585599095092 -2.35690454129818,53.5584735594696 -2.35690423698879,53.5584376175112 -2.35692783599997,53.5583728508731 -2.35695888950433,53.5582918876963 -2.35714727864,53.5580800721781 -2.35714307332103,53.5579363150867 -2.35728582225928,53.5578612177109 -2.35724642631089,53.5578388714197 -2.3565227766827,53.5574258088655 -2.35640651403012,53.5572328756781 -2.35614387459021,53.5570683233299 -2.35591584131727,53.5566978078921 -2.3560979319861,53.5566243914261 -2.35619709571283,53.5565764717208 -2.35629320510891,53.5565204743719 -2.35638474903441,53.5564546062586 -2.35646714782474,53.5563815766218 -2.35655100264788,53.55628958289 -2.35662113802403,53.5561941255791 -2.35665682280383,53.5561311196324 -2.35666720507076,53.5561077265128 -2.35668142654242,53.5560087518934 -2.35676208606542,53.555377540675 -2.35679984066299,53.5551914253064 -2.35682145352216,53.5550835338683 -2.35696084053167,53.5545977135445 -2.35701865669721,53.5544735396205 -2.3570691853095,53.5543852395662 -2.35747065698461,53.5538394198829 -2.35753931275582,53.5537609497222 -2.35763523372832,53.5536690090914 -2.35774612639472,53.5535815167537 -2.35790820370186,53.5534686213548 -2.35807629177824,53.553360289914 -2.3582956163498,53.5532329356889 -2.35897845853427,53.5529369657782 -2.35921774513063,53.5528597795533 -2.35936991149817,53.5528260746431 -2.35949805013137,53.5528059214285 -2.35961269901631,53.552794793274 -2.35971074128116,53.5527918025799 -2.35980139330018,53.5527978195513 -2.359913176529,53.5528154538461 -2.36002814883195,53.5528420648126 -2.36014007104856,53.5528759625933 -2.36024766729146,53.5529133778031 -2.36034759532516,53.5529562071537 -2.36053116053495,53.55305808899 -2.36097450270125,53.5533686410951 -2.36101405804103,53.5534098555191 -2.36108422304098,53.5534941080988 -2.36114552923624,53.5535901583327 -2.36119925727263,53.5537023157895 -2.36129356739604,53.5539609063429 -2.36134198422904,53.5541504464232 -2.36139870666219,53.5546122240357 -2.36145220512533,53.5552205680348 -2.36147571065365,53.5554946470597 -2.36159952839349,53.5556667957832 -2.36188327505772,53.5560129607563 -2.36191358614987,53.5560353330456 -2.36198035493548,53.5560710725928 -2.36205449873388,53.5560960075297 -2.36218597004773,53.5561153774644 -2.36240493714897,53.5561201042876 -2.36258142560379,53.5561060908188 -2.36274718887363,53.556075035741 -2.36290531467338,53.5560242359645 -2.36294587407169,53.5560079384956 -2.36322834386936,53.5558569305505 -2.36336668090301,53.5557918137947 -2.36392549411526,53.5554728309012 -2.36428414320423,53.5552371239406 -2.36437275742422,53.5551793455562 -2.36516387152269,53.5543221300043 -2.36578252358484,53.5537737336018 -2.36585151542496,53.553721406276 -2.36594457361454,53.5536600188311 -2.36607371416848,53.5535832462763 -2.36620593479849,53.5535172463463 -2.36644516476565,53.5534202765584 -2.36671471395002,53.553346666054 -2.367038686945,53.5532917584094 -2.36720454653153,53.553273276922 -2.36740529216373,53.5532591820079 -2.36761047035133,53.5532540576818 -2.36783691342752,53.5532614473577 -2.36803940964827,53.5532769979167 -2.36820415002531,53.5533016499311 -2.36836435525555,53.5533344032458 -2.36858978076657,53.5533966071005 -2.3693756557746,53.5536773154036 -2.37006524276054,53.5540041454386 -2.37044180575332,53.5540856457912 -2.37156967803841,53.5542924979535 -2.37166801246208,53.5543083664773 -2.37177063840441,53.5543170328122 -2.37187629628203,53.554316704121 -2.37200453459843,53.5543082183702 -2.37224727860547,53.5542724184728 -2.37286325542267,53.5541231338989 -2.37358896596843,53.5539141077711 -2.3695508734292,53.5524795325994 -2.36722083073136,53.5516661548256 -2.36232774070399,53.5513449397605 -2.36242875866279,53.5504565860318 -2.36083300578357,53.5502393803332 -2.35885226656725,53.5498202387037 -2.35766565119277,53.5496089517538 -2.3567634480496,53.5494624893923 -2.35585970646878,53.5493249203963 -2.35418757701511,53.5486270410928 -2.35385286277448,53.5484968445807 -2.35350925719299,53.548374670153 -2.3531491432706,53.5482571265734 -2.35277840221998,53.5481485088068 -2.35241533906113,53.5480498413341 -2.3518814860908,53.5479139367665 -2.35127813019793,53.5477700554764 -2.35007182310175,53.5477268600954 -2.34945867166247,53.5476774316909 -2.34925330464628,53.5476573640093 -2.34876676539117,53.5475994765919 -2.34828470554116,53.5475262091566 -2.34787956919386,53.547440225912 -2.34754523947163,53.5473540369535 -2.34646975181184,53.5468726542199 -2.34589224070555,53.5465687275513 -2.3454210052953,53.546340957688 -2.3442368023183,53.5456594045557 -2.34421846689153,53.5456387901803 -2.34409666531089,53.5455034605039 -2.34385334876756,53.5452677517345 -2.34201620537901,53.5457727808911 -2.34147978194383,53.5458821355359 -2.34160273372444,53.5450359869393 -2.34162810164475,53.5446180020287 -2.34172194512054,53.5439121982981 -2.34178664277197,53.5435111727883 -2.34178446417839,53.54324152618 -2.34171986350687,53.5427149845256 -2.34170499351141,53.5423680988178 -2.34165635936585,53.5421390191444 -2.34149863454491,53.5416640576787 -2.3414878510771,53.5416380311559 -2.34136017643655,53.5413399975804 -2.34115205183988,53.5411724789639 -2.3409735591745,53.5411163812157 -2.34065974440467,53.5405510296433 -2.34039256104001,53.5401689326733 -2.34014858762517,53.539841578413 -2.33999552931941,53.5395723693821 -2.33931815654756,53.5390161374318 -2.33877385975688,53.5384991496955 -2.33879943615947,53.538304009625 -2.33873804360933,53.5381711144452 -2.33866928474311,53.5380661829517 -2.33851318916799,53.5379767746442 -2.33788389910302,53.5379731657161 -2.337310098538,53.5375280490998 -2.33733357799103,53.5372557330551 -2.33721671088572,53.5371706156596 -2.33732223826037,53.5371586360577 -2.33746500546721,53.5370890468832 -2.33758103547862,53.5370680532242 -2.33773917064743,53.5370226797647 -2.33761763124493,53.5369286799519 -2.33757938266572,53.5368586149778 -2.33754075360476,53.5367401208919 -2.3374545567155,53.5367107134918 -2.33743451166356,53.5366613522777 -2.33753688147622,53.5366278171387 -2.33751690503231,53.536587350859 -2.33728959187816,53.5364577101798 -2.33717494851126,53.5362755465613 -2.33720146562601,53.5361990977957 -2.3371509764912,53.5361066943512 -2.33708250892113,53.5360377025306 -2.33704094370436,53.5359254155481 -2.33699025719107,53.5358078543151 -2.33699390729401,53.5357027177345 -2.33710615392099,53.5355810117238 -2.33709551471354,53.5351936931413 -2.33715508903088,53.5350973841737 -2.33728254188405,53.534995401415 -2.33729235724461,53.5348992331861 -2.33739731143306,53.5348153747003 -2.33740898856002,53.5347659227905 -2.33725795405308,53.5347483805106 -2.33721542871406,53.5347034851555 -2.33724166289692,53.5345910970962 -2.33729710509279,53.5345388267647 -2.33741473290138,53.5345322039962 -2.33758383886533,53.5345541877519 -2.33769707388636,53.5345583588003 -2.33775706574177,53.5345150603107 -2.33785622183308,53.5342801775743 -2.33819354516769,53.5336141403946 -2.3372249333745,53.532850241417 -2.33563384442742,53.5315882264564 -2.3354003604163,53.5314451165349 -2.33520653781518,53.5313468215497 -2.33499162592609,53.531255684514 -2.33458306100588,53.5311031788095 -2.33372063838629,53.5309851810159 -2.33350452914119,53.5309308813005 -2.333282289895,53.530872195879 -2.33260627991228,53.5306520438346 -2.33210290653971,53.5305258462934 -2.33149027203571,53.5303127006579 -2.33125441315977,53.5302450637019 -2.33042927197729,53.5300550535003 -2.32982923909246,53.5299092555955 -2.32909953154449,53.5297701910292 -2.32868387351969,53.5296768948974 -2.32836038309956,53.529583434375 -2.32785498829471,53.5293852499927 -2.32773835744056,53.5293253668868 -2.32743163619887,53.5290664331048 -2.32710492258652,53.5287464526911 -2.32695608096258,53.5286219593178 -2.32678920621387,53.5284975158789 -2.32632219887137,53.5281931905585 -2.32537561066157,53.5276941931317 -2.32475606045417,53.5273633196566 -2.3245170315486,53.5272678225929 -2.32431299551013,53.5272107776925 -2.32369546736322,53.5271441588621 -2.32312912128585,53.5270531369959 -2.32250155740263,53.5270404526376 -2.3219218200238,53.526987200517 -2.32045886746747,53.5270117927079 -2.31945860261919,53.5270054804884 -2.31889955182391,53.5270734634684 -2.31866724486383,53.52707677848 -2.31701265510512,53.5273058969746 -2.31610999999623,53.5274313838602 -2.31482671103125,53.5274841822214 -2.3129094598905,53.527500884163 -2.31226715979781,53.5275313134337 -2.31192450430208,53.527514234745 -2.31169659311616,53.5274896679665 -2.31131438571158,53.5274043990596 -2.31071747379791,53.5272630771954 -2.31047252571556,53.5271872440401 -2.310358948072,53.5271327264197 -2.309876566428,53.5267484009136 -2.30953546735687,53.5265164655591 -2.30929173144329,53.5261953191482 -2.30892801774475,53.5259652369587 -2.30856941784372,53.5258053175571 -2.30686944616999,53.524758897537 -2.30518590171302,53.5236855396045 -2.30406280461609,53.5229244287371 -2.30381106202498,53.522745262847 -2.30345928521411,53.5224720006879 -2.30342439821881,53.5224451313624 -2.30312847314973,53.5221905959542 -2.30286370479433,53.5218748788617 -2.30239015769443,53.5212459972972 -2.30225244508456,53.5209587118039 -2.30215373749293,53.520665038759 -2.30207051289373,53.5203974743948 -2.3020618875658,53.5202509396656 -2.3020712147504,53.5200756952045 -2.30211390969455,53.5197132838628 -2.30229190118995,53.5188778839593 -2.3023909161299,53.5185846102286 -2.30255168469353,53.5180745361722 -2.30257924466537,53.5179279990744 -2.30259746088201,53.517726584265 -2.3025984163717,53.517651101909 -2.30256290645385,53.5175360840812 -2.30251087379423,53.517422995475 -2.30247875771722,53.5173655686252 -2.30237974130852,53.5172201598121 -2.30225967656347,53.5170874738633 -2.30209900143139,53.5169791521959 -2.30181905825214,53.5168503731243 -2.30136390645657,53.5166673110181 -2.3008016936858,53.5165023929627 -2.29951002903575,53.516189229321 -2.29804544935371,53.5157380984525 -2.29769658493889,53.5156553053335 -2.29747019468834,53.5156253140191 -2.29733895317889,53.5156346240265 -2.29708735156819,53.5156622023563 -2.29649835252918,53.5157536030445 -2.29621791296917,53.515765076178 -2.29598114828292,53.5157629632518 -2.29512631747505,53.515587954529 -2.29463559856152,53.515507386746 -2.29435441555725,53.5154110279681 -2.29405338218503,53.5152670042634 -2.29295452388924,53.514700705666 -2.29267173893535,53.5145872740907 -2.29210551837106,53.5142650719417 -2.29174185296135,53.5140151610748 -2.29139687414232,53.5136250259911 -2.29130265581936,53.5133025741234 -2.29106263643675,53.5128231344346 -2.29090703196271,53.5123417833335 -2.29079629439424,53.5120211683573 -2.29047674398098,53.5120372150061 -2.29040009586126,53.5120832269258 -2.29030252783765,53.5121427681543 -2.29017165919208,53.5121871138201 -2.29013407798919,53.512200683279 -2.29010404860109,53.5122277134795 -2.29008906043099,53.5122358363984 -2.29005313206522,53.5122728542736 -2.28997663637387,53.5123413301805 -2.28994077464987,53.5123881433781 -2.28989886970465,53.512442158202 -2.28971257161636,53.5125450449463 -2.28963470784812,53.5126136138372 -2.28960966443477,53.5126972415234 -2.28952111273196,53.5127666450035 -2.28909929306852,53.5128287620079 -2.28907069123169,53.5128279318215 -2.28889260190734,53.5128220690583 -2.28830095713661,53.5129601611087 -2.28744593447518,53.513185950492 -2.28682538950766,53.5132989442452 -2.28689643048265,53.5133239352915 -2.28700673274266,53.513363209638 -2.28698899612923,53.5134063844201 -2.28667655506933,53.5133720837996 -2.28588516868804,53.5134117054426 -2.28544572765107,53.5135548128134 -2.28509907793777,53.5135736062446 -2.28508719798126,53.5136005914391 -2.28506932223094,53.5136419686495 -2.28490849373329,53.5137070467689 -2.28480471424731,53.5137504248338 -2.28479879070646,53.5137755991397 -2.28478709197351,53.5138296308418 -2.28457475963947,53.5138732628413 -2.28452810476301,53.5138877493959 -2.28413024478798,53.5141529565462 -2.28384818266593,53.5143683793862 -2.28385283890234,53.5143953255496 -2.28385441602579,53.5144079020021 -2.28380472177423,53.5144143085497 -2.28364347619025,53.5144371510151 -2.28340495747663,53.5146193126638 -2.28322174018449,53.5147410495063 -2.28257640525844,53.5152099991748 -2.28253135941439,53.5152424534931 -2.28243929163098,53.5152345814044 -2.28227792684443,53.5152214786574 -2.28216359297275,53.5152684712564 -2.28212170301732,53.5153269772104 -2.28209781377513,53.5153620767977 -2.28173653917498,53.5154672433842 -2.28134346478796,53.515540043668 -2.28106094074354,53.5156889659041 -2.28079460707898,53.515785821539 -2.28054167221758,53.5158591930377 -2.28012273345326,53.5158952076349 -2.27989082806569,53.5159523545117 -2.27965685608871,53.5159223434701 -2.27936849184935,53.5158843696922 -2.27934289997168,53.5158880231817 -2.27789666469935,53.516124173019 -2.27751859357394,53.5161924330864 -2.27713264334357,53.5162157814949 -2.27660781574049,53.5162232712748 -2.27613581712566,53.5162279427062 -2.27595184766154,53.516238246511 -2.27520417337278,53.5163010506751 -2.27446754334286,53.5164187290005 -2.27427186639451,53.5164838707182 -2.27394203939215,53.516552909132 -2.2732931119528,53.5167350804184 -2.27280228116351,53.5168673796773 -2.27267590878004,53.5169009113998 -2.27252383523359,53.5169407917875 -2.27226974430895,53.5170699502727 -2.27205483154322,53.5171809580729 -2.27172161481585,53.5174405880777 -2.27167200730996,53.517461366375 -2.27161333926357,53.5174848614894 -2.27160724044635,53.5174839763245 -2.2716057473444,53.5174839796724 -2.27157410681021,53.5174948339978 -2.27149708626928,53.5174680486375 -2.27126889471735,53.5173894852984 -2.27114518231886,53.5173924578936 -2.27101998556314,53.5173963325224 -2.27094132894837,53.5173470857373 -2.27088977159098,53.5173157506151 -2.2707164276302,53.5173161381148 -2.27015788149393,53.5174791304773 -2.26922640444112,53.5175845412011 -2.26917222803869,53.5175909516782 -2.26917480059822,53.5175262482851 -2.26917735754378,53.517458848403 -2.26825058234282,53.5175804157644 -2.26826131089116,53.5176055523761 -2.26826748924554,53.5176190177201 -2.26776713833896,53.5176831232818 -2.26772042849179,53.5176904156403 -2.26747627486287,53.5177206143263 -2.26671224240556,53.5178139724067 -2.26553058527797,53.5179379042529 -2.26506034171563,53.5179848623046 -2.2641875314916,53.5180442987726 -2.26385435718243,53.5180576127795 -2.26280503634256,53.5181282101282 -2.2619275854463,53.5181822491234 -2.26142863030629,53.5182120932223 -2.26088873699459,53.51821776185 -2.26021455384916,53.5182246184646 -2.25941847286357,53.518246113059 -2.25920314655103,53.5183149611724 -2.25912793433569,53.5183384874576 -2.25901527168095,53.51841960363 -2.25860364434448,53.5181912625367 -2.25861948490813,53.5180564402223 -2.25856495275855,53.5180251072531 -2.25848073443468,53.5180603339475 -2.25838895190409,53.5180991713716 -2.25837836633432,53.5180964985496 -2.25815328647714,53.5180340822406 -2.25782269016414,53.5179808782213 -2.25777156991454,53.5180196268266 -2.2575990492286,53.5181547858569 -2.25757175092135,53.5181440619589 -2.25731633958361,53.5180421716887 -2.25696583528548,53.5179457852013 -2.25696125574355,53.5179493895021 -2.25687433020252,53.518030539339 -2.25686079281763,53.5180332639836 -2.25674379220925,53.5181377510887 -2.25670030980419,53.5181854686643 -2.25668082649335,53.5182124685736 -2.25674754545813,53.518510747075 -2.2567146390791,53.5188056444293 -2.25665364997798,53.5191859680023 -2.2566364480735,53.5193433478174 -2.25665513354359,53.5196974414001 -2.25650501184224,53.5197957091481 -2.25637856318835,53.5198400105995 -2.25638961212749,53.5199191519191 -2.25623599994771,53.5199545255785 -2.25627105240783,53.52001375738 -2.256491153678,53.5202586911777 -2.25579592324086,53.5205127710285 -2.25563801074189,53.5205984741513 -2.25549697879186,53.5204728825608 -2.25501002642756,53.5204982714346 -2.25422224786203,53.5206670832585 -2.25427903776748,53.521094780512 -2.25434990502434,53.5210919344428 -2.25438504172456,53.5214136451185 -2.25441380018913,53.5216670758447 -2.25401722624852,53.5216894834474 -2.25402827680172,53.5217695247798 -2.25341915171212,53.5218094536669 -2.25348818164381,53.5222676781476 -2.25349683317116,53.5224456710488 -2.2528666100124,53.522494628641 -2.25293790061796,53.5228117701892 -2.25303071444517,53.5231926654335 -2.25310968957272,53.5235259653045 -2.25318786864003,53.5237469432863 -2.25325972982388,53.5239094358198 -2.25330392144375,53.523978623639 -2.25347744095936,53.5242532243588 -2.25269712076798,53.5241632175468 -2.25145481465931,53.5240157687007 -2.25150466630866,53.524284432832 -2.25141979309088,53.5244634305452 -2.25143312174448,53.5246764580751 -2.25144693279767,53.5249703574976 -2.25143718723198,53.5253604560448 -2.2520025017078,53.5255570467369 -2.25178506959614,53.5257605852359 -2.25172922269703,53.5257598047561 -2.25129376943131,53.5255872922771 -2.251017778254,53.525605843865 -2.24880475414338,53.5248059642915 -2.24878238900461,53.5248518394757 -2.24869459301498,53.5250435117166 -2.2486543247439,53.5251325553101 -2.24863316057977,53.5251290057551 -2.24856679386294,53.5251156647071 -2.24854148544106,53.5251687340454 -2.24830287912072,53.5256447632002 -2.24812250746258,53.5259992726796 -2.24791224442748,53.5264320201713 -2.24758906077818,53.527122177456 -2.24704805020436,53.5282539920621 -2.24662782477627,53.5291366462897 -2.24664494747926,53.5292363541213 -2.24944151712612,53.5286652470138 -2.25235840137048,53.5280712679619 -2.25396599709117,53.5277415889551 -2.25675627051014,53.5271675468328 -2.257147923665,53.5270641772981 -2.25738424998327,53.5269845933543 -2.25899747439944,53.5263474292536 -2.26109361101048,53.5255330676676 -2.26130900296417,53.5254696066601 -2.2612847596066,53.5254507892626 -2.26247965187197,53.5249996909391 -2.26288166804256,53.5248882825692 -2.26411429994798,53.5246904872906 -2.26433447229416,53.5251555573762 -2.2644385219457,53.5254070213643 -2.26461653889635,53.5256529305554 -2.26552230840323,53.5264823849868 -2.26559232829456,53.5265810734689 -2.26571979574436,53.5266976067 -2.26584844847875,53.5270029299011 -2.26591221391454,53.527313788392 -2.26601451891165,53.5282357779822 -2.26606324100795,53.5287848843176 -2.26611029405499,53.5295433650066 -2.26602258263073,53.5302330433699 -2.26601250559819,53.5303121413507 -2.26603588637862,53.5306680188123 -2.26614107132679,53.5310964987706 -2.26623419047999,53.5312671126479 -2.26638510315358,53.5315094834095 -2.2666250555536,53.5317678309687 -2.26687595272189,53.5320845611343 -2.26702798948641,53.5322675330477 -2.26718682723324,53.5325620033056 -2.26723549205609,53.532862110882 -2.26727602774699,53.5333131986452 -2.26731683886949,53.5335710907728 -2.26739827165136,53.5338001379992 -2.26760412952335,53.5341520132781 -2.26781279465779,53.5344553578084 -2.26809230004101,53.5347477605573 -2.26829736514191,53.5349720398805 -2.26777182080325,53.5351358598573 -2.26776487078475,53.5352366061302 -2.26786091493106,53.5353756721363 -2.26793476184072,53.5353683176717 -2.26796217028819,53.5354140846658 -2.2680423459711,53.535443557745 -2.26830233995579,53.5352857251277 -2.26837970099798,53.5353421637062 -2.2682999751021,53.5353836764534 -2.26836504845918,53.5354248665658 -2.26834554726857,53.535429403339 -2.2684773531353,53.5355180689651 -2.26840817268134,53.5355551557498 -2.26851274600574,53.5356259105402 -2.26864438449613,53.535923138405 -2.26867789319034,53.5362044113071 -2.2686748871774,53.536456022078 -2.26863919667527,53.5367715946497 -2.26846028211979,53.537101954662 -2.26834978582058,53.5372944987346 -2.26825250729572,53.5374134187035 -2.26827062532941,53.5374259585062 -2.26821194125982,53.5374512497828 -2.26801419335584,53.5376763378946 -2.26792703868367,53.5377241585054 -2.26788674079536,53.5378043132902 -2.26752461930851,53.5380442382386 -2.26657169900708,53.538622450354 -2.26539919511811,53.5393235309601 -2.2648308745337,53.5396591549637 -2.26345233944211,53.5404890806685 -2.26198960221225,53.5413722814408 -2.26072972425773,53.5421129541315 -2.25983973146602,53.5426560166965 -2.25946523279166,53.5428599998409 -2.25912369256933,53.5430215858961 -2.25875920490093,53.5431545567302 -2.25841868583505,53.5432397598631 -2.25819262270685,53.5432824820744 -2.25702862039454,53.5434405346165 -2.25498843610516,53.5437036957456 -2.25412600978223,53.5438197422341 -2.25337048369384,53.5439192905713 -2.25302386910416,53.5439865198109 -2.2518881509065,53.5443457447193 -2.25193823613776,53.5443987450689 -2.25182706175919,53.5444717634618 -2.25174747396941,53.5445420205168 -2.25173729405739,53.5446085369161 -2.25088274233025,53.5445465341459 -2.25041920370712,53.5444953889137 -2.24998270377272,53.5444298075804 -2.24942240044335,53.544363585111 -2.24909911750944,53.5442958767296 -2.24802079979285,53.5441597378594 -2.24732205673528,53.5439085958792 -2.24671714716148,53.5436806187426 -2.24618775342084,53.5434714430948 -2.24538745058631,53.5431252495318 -2.24478625047544,53.5427605809921 -2.2444788982222,53.5425823931597 -2.24417765399235,53.5424274656018 -2.24323808278434,53.5419809006551 -2.24241366887353,53.5416302413923 -2.24195803304403,53.5413875575404 -2.24027475887508,53.5404606472349 -2.24022817458815,53.5404948879391 -2.24017508683598,53.5404356871621 -2.2393581654855,53.540080497903 -2.23884919932545,53.5397291803976 -2.23887202862697,53.5394981086528 -2.23876293753006,53.5394129607994 -2.2390924125551,53.5392432781854 -2.23844853005743,53.538791587077 -2.23788424334254,53.5387972049652 -2.23775411184553,53.5387308785015 -2.23722983442873,53.538860508026 -2.2372390153433,53.5394321703831 -2.23699986437562,53.5395593458476 -2.23668858506924,53.539758639479 -2.23659072095124,53.5397893858431 -2.2364975312262,53.5398551669783 -2.23639848143225,53.5399631926811 -2.23635844335448,53.5400783813349 -2.23639535548561,53.5402050083692 -2.23645755509381,53.5402704819979 -2.23651096787313,53.540366615447 -2.23645447823486,53.5405212842124 -2.2364334999405,53.5405518773964 -2.23631950473396,53.5406797916261 -2.23615877951112,53.5407942300572 -2.23599330932589,53.5409059811094 -2.23556781067764,53.5411737904491 -2.23548027693216,53.5411613827481 -2.23539143595328,53.5412046905466 -2.23520919683889,53.5412770260054 -2.23508597336573,53.5413572421177 -2.23493564689915,53.5414635706401 -2.23470701952902,53.5415845205156 -2.23436367872028,53.5417280697211 -2.23457874631938,53.5418759138196 -2.23448601171845,53.542002885719 -2.23422476130507,53.5427943246159 -2.23415847548089,53.543091972823 -2.23416458731999,53.5433643199454 -2.23422924112574,53.5436033036267 -2.23443105182438,53.5443435152071 -2.23456838050309,53.5448978465809 -2.23468459781198,53.5451672810214 -2.23502225909817,53.5459224994451 -2.23520887278473,53.5463644122164 -2.23534190747498,53.5466805387254 -2.23536029816639,53.5467209383215 -2.23538474365379,53.5467757028275 -2.23557561337203,53.5471761821222 -2.23563868324408,53.5473962988665 -2.23578814908061,53.5482256583872 -2.23584887633415,53.5485607978538 -2.23594565194262,53.5491340774912 -2.23602112232088,53.5496578877683 -2.23609150181196,53.5501162019976 -2.23626291851298,53.5510856946779 -2.23636827189029,53.5512994371258 -2.2364904930443,53.5515472019388 -2.23672122600847,53.5520609092951 -2.23706380449315,53.5528565474905 -2.23736329214122,53.5535112830978 -2.23741092776649,53.5536612501776 -2.23749546865485,53.5536682711725 -2.23767925816564,53.5538629865313 -2.23842685929475,53.5544843900513 -2.23892888075225,53.5548986183422 -2.23956126134021,53.5554303878003 -2.24014666940355,53.5559064460973 -2.24015116989989,53.5559100305852 -2.24081078069728,53.5564318542321 -2.24138088674285,53.5568827771617 -2.24172058399295,53.557151752801 -2.24125367111973,53.5573387903519 -2.24069801108717,53.5575691359954 -2.24010008230295,53.5578093584677 -2.2395805067622,53.5580180599139 -2.23844327392595,53.558459825639 -2.23734835231494,53.5589276431614 -2.23663758482465,53.559229265067 -2.23654233239372,53.5592231634906 -2.23654243756075,53.5592420333024 -2.23655922068818,53.5592608701269 -2.23660638169349,53.5593254736599 -2.2366578679993,53.5593622130006 -2.23688309040378,53.5594174792505 -2.23696617938609,53.5594298946633 -2.23700691961639,53.5594145374348 -2.2370278738814,53.5593776546979 -2.23708062773448,53.5593739557168 -2.23714716246706,53.5593864038185 -2.23719411861352,53.5594141663162 -2.23725177513693,53.559463563959 -2.23727301583472,53.5595003630308 -2.23729959907585,53.5596467771955 -2.23732745675485,53.5597762063447 -2.23742584922186,53.5598317222841 -2.2374622251714,53.5598595056786 -2.23774429502428,53.5600853855179 -2.23781248217321,53.5601257754603 -2.23792700129962,53.5600823265989 -2.2380565957682,53.5600416330926 -2.23815609960935,53.5600288549812 -2.2381668000291,53.56005039928 -2.23816692104625,53.5600719646457 -2.23816121018488,53.5601187915318 -2.23820364617356,53.5601618391321 -2.23825515928502,53.5601806065414 -2.23834872362744,53.5601741301085 -2.23839557543483,53.5601830223232 -2.23844256710337,53.5602170742647 -2.23842321418898,53.560272824071 -2.23847470826052,53.5603104614414 -2.23850095783603,53.560396672421 -2.23867996455064,53.5605545532767 -2.23875301761466,53.5606631352202 -2.23882144935059,53.5607466553077 -2.23899253073481,53.5608451568947 -2.23905638086181,53.5609106249315 -2.23915017604438,53.5609445830337 -2.23923932997306,53.5609722603411 -2.23928008605833,53.5609595987986 -2.23929500598591,53.5609344089265 -2.23932651835972,53.5608939102523 -2.2393732176096,53.5608758447098 -2.23943048923721,53.5608784265579 -2.23945180713287,53.5609062394896 -2.23949899313219,53.5609744362407 -2.23960786582987,53.5610110593793 -2.23975451120106,53.5610360154062 -2.23997382357747,53.5611002732806 -2.24018231466822,53.5611438848106 -2.24050391452911,53.5611369485399 -2.24070786961382,53.5611706838532 -2.24086950462971,53.5611829384515 -2.24086980041031,53.5612350546588 -2.24088094261724,53.5613338755458 -2.24088143782379,53.5614211256766 -2.2408604349056,53.5614490235841 -2.24081830812897,53.5614832540276 -2.24081848148243,53.5615138048754 -2.24086110295154,53.5615667355777 -2.2409441987952,53.5615791482167 -2.24101216123959,53.5615790112841 -2.24132363916113,53.5614112486619 -2.24145760833527,53.56133001715 -2.24153588312412,53.5613046990778 -2.24162950720953,53.5613081034858 -2.2417082095969,53.5613358899523 -2.2417388088659,53.5613978302339 -2.24177684222576,53.5614534645752 -2.24168823066916,53.5615435005055 -2.24168846094124,53.5615839365588 -2.24177141222151,53.5615711888944 -2.24183937464909,53.5615710514919 -2.24202217409964,53.5615832617375 -2.24231328224591,53.5615548158012 -2.24262428966101,53.5615451997053 -2.24283742763726,53.56159508719 -2.24309793935379,53.5617447091565 -2.24328985073704,53.5617829577959 -2.24355612347219,53.5618731715259 -2.24378740528612,53.5619176291939 -2.24391768707067,53.5619965279338 -2.2439705262051,53.5620072025153 -2.24409754801223,53.5620383933717 -2.24423352087735,53.5620462034521 -2.24432531116322,53.5620118703635 -2.24439439429338,53.5619469416253 -2.24445435623447,53.5618758322654 -2.24452964729374,53.5618298506585 -2.24528235180577,53.5617222781068 -2.24549387965,53.5617514973872 -2.24565973001758,53.5617170112334 -2.24591489125118,53.5617146892112 -2.24603705754813,53.56170275678 -2.24615734823391,53.561625141652 -2.24623731211202,53.5616123970369 -2.24649079024427,53.5615777292882 -2.24676632820148,53.5617192255501 -2.24682420222627,53.561803571799 -2.2468413321143,53.561880814179 -2.2470389231593,53.5618678262078 -2.24717193450864,53.5618801314127 -2.24731669581348,53.562114449029 -2.24732390220081,53.5623256886212 -2.24727744556445,53.5623850903174 -2.24738036735128,53.5624244142794 -2.24762673417587,53.5624715289165 -2.24769362968565,53.5625441748779 -2.24780397620129,53.562831578783 -2.24781839977409,53.5629781065603 -2.24809446994987,53.563186901162 -2.24812862727501,53.5633657359147 -2.24727724102088,53.5633755858876 -2.24716426383458,53.5634270382719 -2.24714495051656,53.563466614967 -2.24713917611602,53.5635224288918 -2.24703710816089,53.5636304677522 -2.24685538027142,53.5637827018861 -2.24663467674585,53.5639971072062 -2.24645348377044,53.5642635474897 -2.24636901238006,53.5645297882961 -2.24630616787886,53.564618876599 -2.24628692086193,53.5646917006817 -2.24623730028348,53.5647214552027 -2.24619831938279,53.5647827285995 -2.24622172074599,53.5649111760729 -2.24618028684319,53.565043351416 -2.24603504193623,53.5652629914113 -2.2459587140548,53.5653673828435 -2.245861163483,53.5654826900799 -2.24526023779655,53.565994402628 -2.24485149637636,53.5663313955712 -2.24448135818197,53.5665631749404 -2.24438283356832,53.5667485717621 -2.24430339749839,53.5668547652098 -2.24329121590402,53.5677970041115 -2.24552443050967,53.5686032222992 -2.24533563318315,53.5693675744947 -2.24512642731232,53.5702641489326 -2.24502672438216,53.5702679476249 -2.24402499377091,53.5701594709758 -2.24369981911989,53.5708567061605 -2.24335640088975,53.5715440930773 -2.24330452949509,53.5717042340664 -2.24397412032022,53.5720731721693 -2.24435738186255,53.5722952354169 -2.24524834350377,53.5728111684822 -2.24669098458976,53.5736836793715 -2.2470764281234,53.5739974736284 -2.2474695486547,53.5743453963203 -2.24816501805904,53.574995598495 -2.24905703374858,53.5756948095448 -2.24952433635524,53.5760533532314 -2.25012633302386,53.5764683142018 -2.25032185214815,53.576599096255 -2.25068983467951,53.5770253261474 -2.25072837344328,53.577141160845 -2.25075381532755,53.5773586515942 -2.25067861238344,53.5784346668045 -2.25174077246487,53.5790166860207 -2.25267571759953,53.5795396587668 -2.25381349596743,53.5803874756094 -2.25449005366509,53.5808624589887 -2.25460408281534,53.5810005960169 -2.25473250698509,53.5812547075296 -2.25477814597672,53.5815548228763 -2.25464231961071,53.5820800565536 -2.2545625036114,53.5823723513928 -2.25458124693215,53.5824657624756 -2.25468918917673,53.582585042377 -2.25512018493829,53.5829328583676 -2.25585871693029,53.5834112959028 -2.25622545776993,53.5836127779894 -2.2574706503719,53.5841942630869 -2.25817793953544,53.584503732768 -2.25882229751239,53.5849077740983 -2.259239989758,53.5852699814249 -2.25954207877064,53.5852810072192 -2.25972741227221,53.5852015305766 -2.25999723342366,53.5851092001156 -2.26031204926995,53.5849620487851 -2.2607465944217,53.5848829265899 -2.26097854722829,53.5847700097959 -2.26106297272018,53.584747361144 -2.26129588108417,53.5847899834609 -2.26162963672861,53.5847865580725 -2.26171125013191,53.584792669453 -2.26179754649005,53.5848311192643 -2.26223610869059,53.5848985391098 -2.26246542748167,53.5848638904735 -2.26295108249146,53.5849940142497 -2.26316882080894,53.5850195939726 -2.26334729644507,53.5850605344206 -2.26353651195002,53.5851257138287 -2.26394167259192,53.5854286258901 -2.26407190796393,53.5854823424662 -2.26480246632236,53.5856379762887 -2.26506418820235,53.5856859185718 -2.26524981649749,53.5856747237121 -2.265495596116,53.5856031916939 -2.26622416856346,53.5851836475992 -2.2663146158253,53.5851681706477 -2.26640652773372,53.5851283393877 -2.26654890600533,53.5849536993941 -2.26689750548023,53.5846572028467 -2.26706313379773,53.5845759621201 -2.26724570429801,53.5845351187599 -2.26736790784225,53.584519570038 -2.2676106872786,53.584447950523 -2.26768210270153,53.5842788591355 -2.26777898508903,53.5840799694399 -2.26798954925132,53.5836804434877 -2.26793930318015,53.5831394377352 -2.2679330360291,53.5826406563562 -2.26784701118484,53.5824089285715 -2.26779348148136,53.5822939411914 -2.26796720841349,53.5820769969321 -2.26794573603916,53.5817732391004 -2.26811251627684,53.5816397867939 -2.26812572518474,53.581345835483 -2.26816291848127,53.5812406196324 -2.2683921870909,53.5809650506736 -2.2684006807967,53.5808706817338 -2.26848474331881,53.5807923168474 -2.26909356369595,53.580336986137 -2.26929132343307,53.580317669215 -2.27015579973852,53.5801566642285 -2.27079687765685,53.5800374064544 -2.2710517666567,53.579974825642 -2.27175189760703,53.5796271911593 -2.27211913718318,53.5794330700013 -2.27218245804947,53.5794230409297 -2.27231701251176,53.5794326177797 -2.2729311975796,53.5793557321958 -2.27316989486265,53.5793515915117 -2.27333429535468,53.5793161700283 -2.2735984678181,53.5793038814893 -2.27388767791082,53.5794083498773 -2.27420364508551,53.5794714216417 -2.27444230216346,53.5794609876249 -2.27473871977446,53.5795241919982 -2.27519379874816,53.5795887378598 -2.27550246686579,53.5796778809251 -2.27569756354415,53.5797286482568 -2.27582779815162,53.5797822601608 -2.2759969450429,53.5797683904694 -2.27615751578041,53.5798525736087 -2.27638414744151,53.5798502503352 -2.27746241256974,53.580070588755 -2.2776364376763,53.580116998646 -2.27769727695913,53.5801842499232 -2.27766805290814,53.5805707926306 -2.27759963028881,53.5807147229387 -2.2775941408674,53.5808082765657 -2.27763242649527,53.5808926527261 -2.27807816044166,53.5811433023081 -2.27820994488993,53.5812040976893 -2.27844034000579,53.5813185758503 -2.27863437828718,53.5814341273194 -2.27874069768652,53.5815237360149 -2.27875181594182,53.5816045809663 -2.27878849299953,53.5818984166111 -2.27884197748919,53.5819828466758 -2.2789528659606,53.5820850244442 -2.27910716481664,53.5821224029164 -2.27934416310879,53.5821038753612 -2.27968658458284,53.5820383752974 -2.27991010286391,53.5820342558891 -2.28021542941075,53.582065886801 -2.28039234134399,53.5820951227845 -2.28048616503383,53.5821209606661 -2.28070220439278,53.5823415899096 -2.28083922942302,53.5825155888178 -2.28082887638493,53.5825506575432 -2.28068579539152,53.5826094912434 -2.28065444869911,53.5826715670001 -2.28071984533563,53.5827298195049 -2.28083790179021,53.5827663823118 -2.2810752902082,53.5828062579003 -2.2811991275439,53.5827942845015 -2.28127151439964,53.5827797368896 -2.28143442602372,53.5827443078034 -2.28143890308408,53.5827433984005 -2.28150464100143,53.5828717382996 -2.2817512100979,53.5831498021259 -2.28200343791255,53.5833604580866 -2.28225019451437,53.5836843470059 -2.2823739776338,53.5838881184607 -2.28244355203071,53.5841242771582 -2.28246594149222,53.5843255932838 -2.28242048749163,53.5852047700408 -2.28246445766149,53.5854482671592 -2.28251318512391,53.5857329973529 -2.28256696253307,53.586102361477 -2.28258512131777,53.5863413375268 -2.28258259383971,53.5864106222508 -2.28254390611002,53.5864924837152 -2.28243820320745,53.5867228578177 -2.28228360001986,53.5868858648354 -2.28212850931867,53.5869572196361 -2.28202752384695,53.5869799230934 -2.28185355438963,53.586947087313 -2.2815385378845,53.586831018275 -2.28129758372505,53.5867075856324 -2.28106435205904,53.5866217833594 -2.28084760251015,53.5865045826695 -2.28048498869032,53.5862717191857 -2.28038007025171,53.5861704286234 -2.28029460411264,53.586034855953 -2.28011516464589,53.5858519698751 -2.27988634247477,53.5857536657471 -2.27914051559682,53.5855792065686 -2.27881062479871,53.585490121832 -2.27858227423339,53.5854628006078 -2.27835002333533,53.5855055766451 -2.27822797794821,53.5855642683281 -2.27814699604534,53.5856552127213 -2.27810508104147,53.5857020360098 -2.27804716760158,53.5858541193808 -2.27798912938037,53.5859872431963 -2.27795253031292,53.5861608413793 -2.27795088943771,53.5863855775192 -2.27794999070111,53.586476334871 -2.27801566901262,53.5868051470248 -2.27805036441308,53.5872715130019 -2.27805683933133,53.587328197555 -2.27809082676756,53.5874395401309 -2.27838635133194,53.5878316137811 -2.27872656610812,53.5883323983176 -2.27879411325553,53.5884894896143 -2.27880501921024,53.5885379871362 -2.27878077406368,53.5887528908288 -2.2787485295421,53.5889067111343 -2.27854992948669,53.5895048131415 -2.27843198042727,53.589714544669 -2.27810639604883,53.5900586481245 -2.27778532573491,53.5903892613794 -2.27764822388679,53.5904524807651 -2.27733352702948,53.590844269891 -2.27716611829422,53.5911116238506 -2.27692130253587,53.5913332411174 -2.2768027063506,53.5914459273345 -2.27663997876974,53.5915154950767 -2.27638067209007,53.5915978666793 -2.27612236818883,53.5916047557343 -2.27570817787368,53.5915652797959 -2.27546475856766,53.5915433786908 -2.27523144404499,53.5914468729021 -2.27498296814325,53.5913368330094 -2.27420923951842,53.5910779424883 -2.27378344696605,53.5908803393509 -2.27304779599133,53.5906519047988 -2.27222982132724,53.5903077388103 -2.27198611113627,53.5902391058955 -2.27154043793043,53.590007303913 -2.27109472937204,53.5897692103657 -2.27090321545853,53.5895836433818 -2.270632646732,53.5893262796725 -2.2704612617654,53.5892106639895 -2.27034011708003,53.5891794891594 -2.27013310690706,53.589161088941 -2.26998530762236,53.5892081494761 -2.26980164816134,53.5892967152 -2.26949068607958,53.5895805579722 -2.26940080184444,53.5897056619864 -2.26936064709658,53.5897965080235 -2.26933546802382,53.5898721345393 -2.26931806025264,53.5899943789854 -2.26931710144683,53.5900788463885 -2.26932678325217,53.5901714672332 -2.2693500985167,53.59027295201 -2.26938545671919,53.5903681204664 -2.26942367762023,53.5904435136902 -2.26957158499359,53.5906670123468 -2.26976323736289,53.590874236491 -2.26988051695127,53.5910213357382 -2.26991956931045,53.5912073407263 -2.27007511972138,53.5914371113794 -2.27009420615181,53.5915979118006 -2.27009552405929,53.5918046689477 -2.2700825480533,53.5918990479531 -2.26997719400581,53.5919621866151 -2.26978717812356,53.5920129370523 -2.26952282985066,53.5920297099327 -2.26920997107722,53.5919989676268 -2.26891953845559,53.5919493039411 -2.26828206878253,53.5917233139283 -2.26792782495224,53.591608194835 -2.26741345770493,53.5915024170263 -2.26698392932843,53.591417923161 -2.26666657672363,53.5914033559817 -2.26638709961589,53.59141026906 -2.26629179406529,53.5913880170787 -2.2658961698346,53.5914257396226 -2.26566257556275,53.5915189008104 -2.2655152049146,53.5916162734052 -2.26534869785754,53.5918009389863 -2.26517179802907,53.5920367562231 -2.2650449487928,53.5922689587178 -2.26499390305551,53.5923328696026 -2.26496082884585,53.5923625960605 -2.26487494154268,53.592392528531 -2.26463198204499,53.5924433864798 -2.26437231463449,53.5924718165525 -2.26398283245825,53.5925176060066 -2.26359165254168,53.5925310492168 -2.26296771428449,53.5925333222949 -2.26245545444067,53.5925263605064 -2.26234817649056,53.5925221036737 -2.26214106817985,53.5925090792586 -2.26175420293886,53.592474882725 -2.26112815853669,53.5923980766203 -2.26041005200574,53.5923195811827 -2.26013498406088,53.592295020174 -2.2599504323747,53.5922630729111 -2.25979636805681,53.5922670022571 -2.25972831218669,53.5922599613393 -2.25966035971255,53.5922493266517 -2.25950438971467,53.5922065333907 -2.25941523896013,53.5921923501756 -2.25932747502655,53.5921808594644 -2.25922172537649,53.5921819867642 -2.25910581135215,53.5922523267376 -2.25887455232864,53.5927103788135 -2.25865782823787,53.593101815755 -2.25849652763553,53.5934104638305 -2.25838203973799,53.593715416093 -2.25834302734134,53.5939977407661 -2.25829443891406,53.5944669879697 -2.25825561301673,53.595025263398 -2.25762179443985,53.5953960326379 -2.25697169208316,53.5958360234116 -2.25632353747521,53.5963327062738 -2.25593499859586,53.5967892932534 -2.25571428833629,53.5970233940047 -2.25555021984965,53.5971271702098 -2.25527127314249,53.5972284062129 -2.25499684746235,53.5973359219092 -2.25447298188915,53.5973972430213 -2.25417730976193,53.5974734420644 -2.25380225008506,53.5976692288741 -2.25286421675539,53.5979723281329 -2.25257939602347,53.5980934281301 -2.25194947649424,53.59838149182 -2.25171761680671,53.5985266502316 -2.25152361737346,53.598690688341 -2.25134934973666,53.5988420147656 -2.25105393006308,53.5989837111816 -2.25083680265213,53.5990507513961 -2.25047313064946,53.5991332842113 -2.24994485304448,53.5992323338943 -2.24947355663625,53.5992548845087 -2.24924093478618,53.5992724432441 -2.24913968061669,53.5992780456013 -2.24822605421814,53.5993555171133 -2.24779709870101,53.5993968431212 -2.24761736125869,53.5994035057817 -2.24729995637856,53.599388887678 -2.24708820871458,53.599354281458 -2.24691876662083,53.599310511977 -2.24649963741125,53.599220622069 -2.24616077920489,53.5991584208557 -2.24556684826387,53.5991308896838 -2.24554519523737,53.5993070530307 -2.24541757359282,53.5994493793546 -2.24533060958694,53.5995780533662 -2.24529811210834,53.5996887342277 -2.24536486432619,53.5997488014665 -2.24536412327419,53.5998790951299 -2.24518331090515,53.5999586305395 -2.24518370107368,53.6000260228761 -2.24512944941165,53.6000593809167 -2.24512370277378,53.6000998282311 -2.24507858231904,53.600139458401 -2.24503029888156,53.6004074206908 -2.2449829176938,53.6005945110104 -2.24496408019758,53.6007194508202 -2.24493301238442,53.6008408212872 -2.24500448105899,53.6009189402008 -2.24505853367843,53.601109326987 -2.24518293238578,53.6012052184868 -2.24521035339079,53.6012501809135 -2.24532568929423,53.6013299164522 -2.24535645362731,53.6014143188511 -2.24547923954372,53.6014895465948 -2.24558208931486,53.6015001184449 -2.24570905680296,53.6015016541188 -2.24578618378969,53.6015240497519 -2.24598916639808,53.6016134895967 -2.24622737863306,53.601762161168 -2.24645159577366,53.6018606319233 -2.24657550236883,53.6018711585775 -2.24661196772312,53.6019070265425 -2.24667999975669,53.6019077840087 -2.24681018963141,53.6019488495115 -2.24695527621441,53.6019593329107 -2.24705043693371,53.6019330773277 -2.24732542135369,53.601934305989 -2.24772194615489,53.602031427893 -2.24780800158398,53.602024959414 -2.24790932811573,53.6020517068347 -2.24798667698227,53.6020901851164 -2.24816523169441,53.6021347422502 -2.24824565481364,53.6021876806157 -2.24833189659904,53.6022126613675 -2.24843819163026,53.6023005003439 -2.24853362419399,53.6023416362471 -2.24862174362887,53.6024106428743 -2.24866597488368,53.6024744395112 -2.24877679479465,53.602568558763 -2.24911187457078,53.6027664439693 -2.24913198396179,53.6028383774838 -2.2490508459068,53.6029185198841 -2.24901509693521,53.6030048576235 -2.24897180224614,53.603354581144 -2.24896752867544,53.6033905332798 -2.24911484755202,53.6035251015869 -2.24943225634443,53.6037887090544 -2.24964367925095,53.6040174029144 -2.2501576734755,53.6045691283742 -2.25026755060047,53.6047343247889 -2.25035637831029,53.6049426073737 -2.25046499564265,53.6049154220608 -2.25062895334129,53.605543358724 -2.2508152759402,53.6063905890168 -2.2508865000401,53.6066762746804 -2.2510030753814,53.6072126558237 -2.25177184885073,53.6071390629963 -2.25214786971029,53.6070888491232 -2.25239399383906,53.6070505896226 -2.25270196001371,53.6069978212207 -2.25304464463249,53.6069162250205 -2.25428767573891,53.60655317018 -2.25491390262813,53.6063792206604 -2.25499524266624,53.6063332203887 -2.25552016896985,53.6061819472703 -2.25572540911711,53.6061222026885 -2.25588553581044,53.6061029899357 -2.25621947124632,53.6061013765174 -2.25745095739717,53.6060609898805 -2.25813530446363,53.6060217736351 -2.25867029611039,53.6060313991954 -2.25916916476059,53.606042898366 -2.25940509330531,53.6060711409106 -2.26027512419466,53.6062382703733 -2.26180675123121,53.6065944438305 -2.2618131000258,53.606653735544 -2.26184228448139,53.6067183684033 -2.261915233506,53.6067873985985 -2.26314331714696,53.6074192723477 -2.2639768016471,53.6077932167808 -2.26441112235366,53.6076421055885 -2.26510574983654,53.6080270427034 -2.26511530905362,53.6081007946877 -2.2651578791162,53.6081330482141 -2.26525923774072,53.6081606789267 -2.26536859161498,53.608231423911 -2.26541597065061,53.6083148855414 -2.2655588408597,53.6084440526153 -2.26571808006873,53.6085407443954 -2.26582586308168,53.6086186806117 -2.26660278587358,53.6091041589836 -2.2666181775841,53.6091535461646 -2.26663349990148,53.6091723821175 -2.26716630390598,53.6097734187576 -2.267359352763,53.6099527926984 -2.26799779882751,53.6105256437873 -2.26848889227103,53.6109892862009 -2.26881715333264,53.6112636037183 -2.26892168748621,53.6115330316004 -2.26910613783765,53.6117878128327 -2.2691260575197,53.6118237105962 -2.26948090298635,53.6124728523839 -2.26982284533458,53.6127596265963 -2.27022854444949,53.6130958561948 -2.27065626607607,53.6135613409442 -2.27119547613311,53.6139582789204 -2.27132400802169,53.6139642774574 -2.27164645140802,53.6142772388165 -2.2717870687905,53.6145142332618 -2.27184943328753,53.6145796884801 -2.27187528688348,53.6148394081704 -2.27194280945942,53.6149894067751 -2.27204445202932,53.6152893899584 -2.2722641765213,53.6163108422979 -2.27251833370299,53.6181996123695 -2.27255052543859,53.6185123344406 -2.2758075596689,53.6188500139857 -2.27602266949048,53.6182194345915 -2.27774472645797,53.6187088584656 -2.27806552139438,53.6194380284806 -2.27813010610937,53.6196104052383 -2.27823858950594,53.6200119969326 -2.27828911792747,53.6203390517155 -2.27848683016361,53.6202854858343 -2.27895192117134,53.6204399457845 -2.27936535059651,53.6205477087531 -2.27985126145956,53.6206266369462 -2.27995891225803,53.6206758066488 -2.28005846379469,53.6206504134877 -2.28015283223508,53.6207454421018 -2.28040581278741,53.6208113444041 -2.28072705267627,53.6209256986285 -2.28079342750136,53.6208975972036 -2.28098471392121,53.6207965073931 -2.28127440748771,53.6207041716293 -2.28146887619301,53.6206318281853 -2.28167561904393,53.6205683512979 -2.28223365722189,53.6203801325121 -2.28284354490019,53.6202474093628 -2.28316458440238,53.6207760926622 -2.28282253507008,53.6209414307279 -2.28270056875749,53.6212482243967 -2.28262009487935,53.6214227381538 -2.28257088118146,53.621519002761 -2.28242293012607,53.6217620572693 -2.28240687366152,53.621858333418 -2.28242888409308,53.6219804879549 -2.28269769752788,53.622619819958 -2.28255370485699,53.6227846000857 -2.28245763328376,53.6231057980873 -2.28267255481089,53.623144828507 -2.28281660434873,53.6232109830217 -2.2828547200293,53.6232621112261 -2.28296502836651,53.6234641205873 -2.28449591238677,53.6253749989717 -2.28449975615818,53.6255007902707 -2.2844471648259,53.6257795628914 -2.28436213680522,53.6259442942445 -2.284197209745,53.6261477634897 -2.28403186873405,53.6262902208202 -2.28391785645106,53.6264279730084 -2.28380534091746,53.6265658123176 -2.28370098144006,53.626785311668 -2.28351189881627,53.6269943182828 -2.28383398883489,53.6272263753811 -2.28416392880768,53.6274942664324 -2.28486673971987,53.6281082973324 -2.28478411376999,53.6284257804433 -2.28477543107434,53.6284690231908 -2.28479229250454,53.6285103175945 -2.28494093498852,53.6288092779753 -2.28513283369221,53.6292357331005 -2.28534415377576,53.6296208070429 -2.28553215945543,53.6299133836321 -2.28560689993276,53.6300139354028 -2.28567712313792,53.6301099147733 -2.28576696417653,53.6301941669435 -2.28583511843686,53.6306641374917 -2.28590844430344,53.6307762837592 -2.28613357797211,53.6309537526719 -2.28631815790054,53.6311995205653 -2.28667479863159,53.6316094941319 -2.28697942604355,53.6319242533343 -2.2872780798773,53.6320394524952 -2.28834546333041,53.6324350424967 -2.28889849871674,53.6328247670141 -2.28868484838507,53.6331964833863 -2.28870722909495,53.6333689553391 -2.28878626089191,53.6336563974719 -2.28893201554004,53.6339463707317 -2.28913376757593,53.6342739490379 -2.28924236113681,53.6344355172891 -2.28935681348866,53.6345969822837 -2.28963907096778,53.6349531182099 -2.28973045162384,53.6350410460129 -2.28999346165996,53.6352452813037 -2.29002994449216,53.6352739470135 -2.29057118801379,53.6356825575551 -2.29093786069995,53.6359998477188 -2.29130464456607,53.6363324109985 -2.29175083855103,53.6370027302043 -2.29184288151561,53.6371849139148 -2.29202582980157,53.6376186520529 -2.29206873784256,53.6376922298185 -2.29211463905218,53.6377657993605 -2.29231746848996,53.6380089046363 -2.29303845288669,53.6385949802578 -2.29334241580592,53.638818965282 -2.29345369119736,53.6389319112298 -2.29373880904497,53.6392601747842 -2.29383469576361,53.6393479984079 -2.29478520654878,53.6398840786784 -2.2950410096702,53.6401198590085 -2.295272776757,53.6403952353397 -2.29542729832343,53.6408586020439 -2.29557137064023,53.6411297010804 -2.29573731352114,53.6414959945615 -2.29580980872834,53.6423362335955 -2.29580747593949,53.6426616036188 -2.29583253444197,53.6427846430493 -2.29589236858988,53.6429049908261 -2.29598702305622,53.6430287559718 -2.29619958603245,53.6433553917032 -2.29622828802887,53.6435530912276 -2.29624256236619,53.6440761007626 -2.29621171951473,53.6442128468728 -2.29627106447138,53.6444760644393 -2.29631281399816,53.6446134387949 -2.2966419691444,53.6455914127215 -2.29692245466738,53.6463331870199 -2.29705587700323,53.6468064805064 -2.29728081268044,53.6473802737661 -2.29733643583283,53.6475562510686 -2.29736742226105,53.6476524091484 -2.29759385695473,53.6484373561437 -2.29756887592343,53.648980321835 -2.29751174379273,53.6494568738277 -2.29742334021844,53.6495676152224 -2.29737956695183,53.649798740329 -2.29737524857908,53.6500530401011 -2.29734463955609,53.6502230316856 -2.29763963334935,53.6517062503043 -2.2976182947004,53.6518994917256 -2.29759315337996,53.6519957884598 -2.29733734473462,53.6523900787583 -2.29718879819744,53.6525701576666 -2.29707563258601,53.6526199485058 -2.29676773039926,53.6527213500712 -2.29636862925939,53.6527681649495 -2.29586679907567,53.652841290739 -2.29588077211046,53.6528771985012 -2.2956833325704,53.6529882980653 -2.29559771611345,53.6530891470321 -2.29560309446497,53.6531978576962 -2.29567362752774,53.6533298598794 -2.29568769707975,53.6533972157115 -2.29565112999297,53.6535726125999 -2.29558677616292,53.6536814964481 -2.2955633245198,53.6537884816139 -2.29558516241984,53.6538783719745 -2.29570511855197,53.6541557271895 -2.29572682457303,53.6542267483366 -2.29574289516832,53.6543659838243 -2.29562098520612,53.654681764696 -2.29560186572739,53.6547483046145 -2.29558708183688,53.6548104305735 -2.29561037195377,53.6548939385112 -2.29567897600672,53.6549638550978 -2.2959741073277,53.6549775026918 -2.29641899826126,53.654981792393 -2.29628362630554,53.6551035211592 -2.29589378880706,53.6553893260632 -2.29552336867241,53.6556338373602 -2.2953573629522,53.6557106240737 -2.29507067292926,53.6558165508655 -2.29494844493959,53.655856388837 -2.29482308425581,53.6558944367922 -2.29432455849164,53.655999895762 -2.29386399391674,53.6561466817235 -2.29382212230599,53.6562069873702 -2.29380440296215,53.6562780157578 -2.29383261426085,53.6564056306407 -2.29388476314213,53.6565133276419 -2.29394006357345,53.6566255108997 -2.29426341085183,53.6572125450017 -2.29424893778109,53.6573195976274 -2.29419672520969,53.6574176678139 -2.29410053654196,53.6575068607202 -2.29398905672227,53.6575862069648 -2.29389879882284,53.6576673875723 -2.29383186456572,53.6578194058198 -2.29382531435615,53.6579713665496 -2.29387254279445,53.6582318291806 -2.29478066715552,53.6602106246637 -2.29510727004304,53.6608290995004 -2.29561776395935,53.661763498068 -2.29590130436557,53.6627137309219 -2.2959079355723,53.6627873958967 -2.29582039742936,53.6630437879428 -2.29573106392744,53.6632398924841 -2.29565696811121,53.6639007773055 -2.29564080790465,53.6641937440897 -2.29569156785901,53.6642970415385 -2.29574350599767,53.6643723913071 -2.29599381512226,53.6644616271784 -2.29623607003744,53.6646830598473 -2.2964459486091,53.6648425717298 -2.29672260330103,53.6650045234213 -2.29695827607036,53.6651585794676 -2.29730187301749,53.6653814645812 -2.29758625679037,53.6655767318176 -2.29761208231667,53.6655937404352 -2.2978066485433,53.6657217489754 -2.29790244476295,53.6657871944681 -2.29800141848111,53.6658606286487 -2.29812163290976,53.6659555758017 -2.29823586418027,53.6660514356459 -2.29829674557791,53.6661025913969 -2.29842471872285,53.6662181851557 -2.29854957979314,53.6663346853461 -2.29865174911952,53.6664360557921 -2.29876752766599,53.6665561727364 -2.29879188147897,53.6665767791006 -2.29881785770115,53.6665973805126 -2.29884370347746,53.6666170843382 -2.2988710396794,53.6666358856331 -2.2988999982997,53.6666546828723 -2.29892882646618,53.666672581625 -2.29895927705248,53.6666904763203 -2.29898508317259,53.6667047891808 -2.29902453729781,53.6667254467774 -2.29906560046426,53.6667442137504 -2.29910803634926,53.6667629772808 -2.299152086774,53.6667808379577 -2.29919613875595,53.6667986995136 -2.29919914021649,53.6667995899209 -2.299315969073,53.6668388346115 -2.29943875486209,53.6668735702674 -2.29956164730505,53.6669056109135 -2.29957977390286,53.666910058701 -2.2997041633352,53.6669420946382 -2.29982841607267,53.6669723349731 -2.30010433019791,53.6670265448045 -2.30020922010716,53.666878829855 -2.3005971197294,53.6667304948944 -2.30077063674624,53.6666697664154 -2.30081577537767,53.6666301172663 -2.30085789318379,53.6665868813648 -2.300963802511,53.6663726706987 -2.30113604978851,53.6661170496064 -2.30126424156806,53.6660528400317 -2.30132910507118,53.6660320105769 -2.30139860519181,53.6660138649345 -2.30166916382014,53.6659655610599 -2.30179753698734,53.6659266000827 -2.30240169625967,53.6655386116655 -2.30269399006206,53.665372451399 -2.30298206971373,53.6652279559894 -2.30314806290611,53.6649551854496 -2.30322933959887,53.6648920823152 -2.30331674296953,53.6648307594361 -2.30342673732306,53.6647701882353 -2.30378408445916,53.6645940662478 -2.3039708930821,53.6644748945005 -2.30409835644694,53.6643110351608 -2.30407533586141,53.6642679634312 -2.30397455545052,53.6641351435493 -2.30396465566091,53.6640255457161 -2.30401068216777,53.6639023275467 -2.30414497845257,53.6638380996887 -2.30414497196979,53.6638372017974 -2.30428403683753,53.6638287613923 -2.30452303554698,53.6638011983317 -2.30472692830577,53.6637503613638 -2.30515927529987,53.6634742148888 -2.30545589460333,53.6632712862371 -2.30585084422899,53.6630527399475 -2.30598798538847,53.6629688251382 -2.30619509618511,53.6627435684041 -2.30632892202917,53.6624097753155 -2.30636323030787,53.6623404992504 -2.30640366960459,53.6622908850846 -2.3064487460628,53.6622440453497 -2.30673048821706,53.6620734986158 -2.3068267994812,53.6620031658015 -2.30691564330518,53.6619354567734 -2.30694565377777,53.6618931485606 -2.30696792992934,53.6618508592507 -2.306907762386,53.661692868202 -2.30692961203288,53.6615750127662 -2.30695668644189,53.6615407986349 -2.30698816227634,53.6615110654619 -2.30704256156787,53.6614938541599 -2.30710294871167,53.6614766265905 -2.30742787736838,53.6614119961861 -2.30751827736374,53.6611475013946 -2.30754961325349,53.6610988988631 -2.30758720779525,53.6610529766818 -2.30773627766598,53.6609635473355 -2.3079521432484,53.660880325912 -2.30806992841693,53.660846777196 -2.30843996375272,53.6607577674213 -2.30860470698381,53.660730387163 -2.30884021530783,53.6606551102248 -2.30907134581444,53.6605952101248 -2.30944935631982,53.6605564954867 -2.3097760813539,53.6605340862779 -2.30986831577074,53.6605212681087 -2.30994219532314,53.6604896277685 -2.31006880807125,53.6604183150898 -2.31012589449072,53.6603767440114 -2.31019668474333,53.6603154589329 -2.31026571532834,53.6602523816494 -2.31031652804661,53.6601552066845 -2.31039281144363,53.6600434994101 -2.3107131069726,53.6599618000133 -2.3109442778295,53.6599252579654 -2.31147065080586,53.6598897461669 -2.3117742571576,53.6598125795294 -2.31168424927269,53.6597210714176 -2.3117553448842,53.6593137532991 -2.31189205130913,53.659174121818 -2.31206106784103,53.659101707905 -2.31231392690758,53.6589285273553 -2.31255404251217,53.6588542205635 -2.31277806033353,53.6588635202276 -2.31295891868549,53.6587731024384 -2.31322176135036,53.6587185024297 -2.31346175383764,53.6586280200578 -2.31347080794987,53.6586208077005 -2.31334022220459,53.658357783961 -2.31336288214631,53.6581500693575 -2.31342385107779,53.6580106349957 -2.31346269377925,53.6579494314693 -2.31366802014464,53.6576774421823 -2.31370938775207,53.6575361714565 -2.31374649232097,53.6574426242417 -2.31388470609866,53.6571052160595 -2.31392495974857,53.6570323277332 -2.31396684046364,53.6569603339351 -2.31408669286322,53.6568044799641 -2.31443420176466,53.6565285219467 -2.31463434868918,53.6563833294738 -2.31535020241036,53.6560012695208 -2.31546005561247,53.6559272095618 -2.31558179130716,53.6558073813602 -2.31569658889493,53.6555940312809 -2.31573650949218,53.6554609408571 -2.31571133196004,53.6553306267778 -2.31555961084438,53.6550776350641 -2.31597493180143,53.6551807723508 -2.31637201150858,53.6552632891739 -2.31666421856081,53.6552849809123 -2.31664860854059,53.6550171632858 -2.31674838789886,53.6550142039056 -2.31675729058951,53.654987224144 -2.31702232571577,53.655028754379 -2.31715580769422,53.6550617378491 -2.31728319692264,53.6550973420667 -2.31744400667217,53.655164307849 -2.31775250721104,53.6551464168678 -2.31805515460684,53.655146512349 -2.31844139025383,53.6551967044556 -2.31858986328425,53.6552322514969 -2.31887681684965,53.655350995989 -2.31918460491105,53.6554365280817 -2.31949873480181,53.6555686763581 -2.31980440662889,53.6555723542274 -2.32015641653571,53.6556981996903 -2.32024806101046,53.6558066803407 -2.32025789860374,53.6559027989063 -2.32040707314602,53.6560300851882 -2.32095164158404,53.6560160482909 -2.32126256721408,53.6559063998305 -2.32144706721454,53.6558888331033 -2.3217960020744,53.6558232003115 -2.32244094424761,53.655672307452 -2.32267966349228,53.655632038189 -2.32325910066141,53.6556107091259 -2.32405210269906,53.6556364225524 -2.32434263836849,53.6556347377974 -2.32457850038945,53.6556125340775 -2.324987833969,53.6555341495405 -2.32532767891112,53.6554559513592 -2.32553469375681,53.6554140556255 -2.32649415820973,53.655638779874 -2.32656226481249,53.6556376954987 -2.32718990251714,53.655606331845 -2.32719251860346,53.6555416283344 -2.32886687809062,53.6554687555289 -2.32993892554733,53.6553795482433 -2.33131392739053,53.6553299280807 -2.33201910788444,53.6553405562184 -2.33340226346198,53.6551865681732 -2.33584329890138,53.6556283076934 -2.33612515021424,53.6556796326661 -2.34017689342726,53.6563944031607 -2.34152545303399,53.656635960107 -2.3439224676327,53.6570443223739 -2.34599543463701,53.657410442192 -2.34844250768235,53.6578267461716 -2.35015451052569,53.6580742471745 -2.35333854602095,53.6584829019405 -2.35348892554347,53.658562428952 -2.35502424327563,53.6592158076752 -2.35540003884025,53.6594537979937 -2.35544636639941,53.660818921861 -2.35549015880822,53.6626074508506</coordinates></LinearRing></outerBoundaryIs></Polygon>
  </Placemark>
