  <Placemark>
	<Style><LineStyle><color>ff0000ff</color></LineStyle><PolyStyle><fill>0</fill></PolyStyle></Style>
	<ExtendedData><SchemaData schemaUrl="#Local_Authority_Districts__December_2019__Boundaries_UK_BFC">
		<SimpleData name="objectid">305</SimpleData>
		<SimpleData name="lad19cd">E09000021</SimpleData>
		<SimpleData name="lad19nm">Kingston upon Thames</SimpleData>
		<SimpleData name="lad19nmw"></SimpleData>
		<SimpleData name="bng_e">519508</SimpleData>
		<SimpleData name="bng_n">167389</SimpleData>
		<SimpleData name="long">-0.28367</SimpleData>
		<SimpleData name="lat">51.39296</SimpleData>
		<SimpleData name="st_areashape">37261179.9190143</SimpleData>
		<SimpleData name="st_lengthshape">37553.1452619183</SimpleData>
	</SchemaData></ExtendedData>
      <Polygon><outerBoundaryIs><LinearRing><coordinates>-0.253488397031496,51.4366484090897 -0.25353287561841,51.4367263874274 -0.253586180845456,51.4368000017669 -0.253714299734094,51.4369494382874 -0.253790332136963,51.4370305824947 -0.254011194226631,51.4372398363332 -0.254066814754808,51.4372901101297 -0.254483403993192,51.4371200164422 -0.255006659530814,51.4369057496667 -0.255115201987838,51.4368498280407 -0.255245324552777,51.4367941375505 -0.255659261455321,51.4366186966377 -0.256156747372627,51.4366260974009 -0.256184566765798,51.4366525828057 -0.25633684388221,51.4365820275418 -0.256311750135532,51.4365618757994 -0.25643347150194,51.4365024638432 -0.256255589367791,51.4363730572528 -0.256319962064054,51.4363461454319 -0.256379879055815,51.4363209649499 -0.256790608200219,51.4361516758001 -0.257128729813294,51.436001174372 -0.258092315863044,51.4355963762922 -0.258762106432013,51.4353086643798 -0.259990766058062,51.4348170787163 -0.260400603245465,51.434595622469 -0.260902779967188,51.4344070892176 -0.261833813150272,51.4340206590058 -0.262186344066985,51.4339054192584 -0.262754467314137,51.4336449512473 -0.262967907309808,51.4335564173863 -0.264232865446743,51.4330535640305 -0.2645762466757,51.4329166082481 -0.265275947501623,51.4325608977719 -0.265788533897897,51.4323221610753 -0.266237370474151,51.4320940751091 -0.266697680435613,51.4317915426218 -0.267315870447636,51.4314230189913 -0.267706439333906,51.4312516018007 -0.267994948451554,51.4310814629606 -0.268386760388763,51.4309523152045 -0.268657616938351,51.4307909046633 -0.268920395935799,51.4306517580924 -0.269360213812715,51.4303947625205 -0.270285266472266,51.4298995062976 -0.270611442987531,51.4297208376691 -0.270938919041027,51.4295422781516 -0.271090723072711,51.429407782158 -0.271169256503024,51.4293478104519 -0.271354473119798,51.4292048173699 -0.272138442879475,51.4285590431398 -0.272980018837797,51.4278727603849 -0.273527547463733,51.4274285504439 -0.274160315898369,51.4269001000237 -0.275366911407108,51.4258765728873 -0.275812758376949,51.4255737946895 -0.27641672402755,51.4250844631912 -0.276784189065715,51.4247589526625 -0.276801223261691,51.4247663953064 -0.280436184170988,51.4218559375421 -0.282669416365738,51.4212547278086 -0.282730537290265,51.4212376442103 -0.28493436520422,51.4206124967267 -0.285616523199427,51.4204121180224 -0.286187297064438,51.420263056176 -0.286596278263485,51.4201719476207 -0.287421584115962,51.4220247711375 -0.289390845551018,51.4262538520028 -0.28948633387306,51.4264692935107 -0.289547341994056,51.4266077280059 -0.289873243103611,51.4273193536918 -0.28996596250872,51.4275328659569 -0.290029310346962,51.4276849092214 -0.290616410459767,51.4289901652493 -0.29067685059301,51.4289883501477 -0.292945911100182,51.4289396218351 -0.292999086964466,51.4289385989431 -0.292872181880792,51.4286013406251 -0.293280976842097,51.4285550643929 -0.293311373513253,51.428551012747 -0.293366718574413,51.4271814123387 -0.293374187581814,51.4270988145886 -0.293379874751891,51.4267904569041 -0.29338741925427,51.4265117930275 -0.293414715977465,51.4265112922583 -0.294767378235268,51.4264608646697 -0.294761470080064,51.4266576552189 -0.294749232297953,51.4267951109307 -0.294709681429421,51.4270066953049 -0.294920838959869,51.4270151618401 -0.295400413185901,51.4270392205378 -0.295413335462084,51.4270394085261 -0.295343421093044,51.4273306501257 -0.295442523990718,51.427644127481 -0.29580532800196,51.4278292910225 -0.295924464386059,51.4277609029171 -0.295940598718212,51.4277512495384 -0.296123728458218,51.4278563961249 -0.296215535032918,51.42790088193 -0.29662921178599,51.4281119540925 -0.297136490518179,51.4283576470361 -0.297291772212622,51.4284749728031 -0.297471374587662,51.4285602890677 -0.297623509734096,51.4286857499373 -0.297677940118382,51.4286892375395 -0.29773408285034,51.428729607957 -0.298043699889559,51.4289516590995 -0.298301376699702,51.4291415806957 -0.298274846471619,51.4291564779453 -0.298194105766422,51.4292002546168 -0.298862624058554,51.4295984112696 -0.300071742021908,51.4303938464503 -0.300384390706441,51.4306115308459 -0.300625866690668,51.430775051649 -0.300880345340887,51.4309334558962 -0.301158150293223,51.4311217755033 -0.301595577444651,51.4314293648956 -0.302047610557395,51.4311517486225 -0.301812027040165,51.4309091155322 -0.301509306236966,51.4305387531282 -0.301740229825008,51.4304018598728 -0.301757819400972,51.430391326675 -0.302154901393231,51.4306641686002 -0.3042092445811,51.4310536019317 -0.305845576197138,51.4313479571033 -0.305919799633997,51.4313616160445 -0.306108640303762,51.4312366016232 -0.306225665856175,51.4311834552766 -0.306241594255786,51.4305191601278 -0.306396763611683,51.4305249992549 -0.30640541804282,51.4305251243545 -0.306407787597191,51.4301501938043 -0.306932778488778,51.4301532869639 -0.306933171470863,51.4301811608999 -0.306934879392298,51.430250407054 -0.307239792878915,51.4302548127942 -0.307273148535416,51.4302445065598 -0.307306623484706,51.4302342029386 -0.307449555605794,51.4302982972028 -0.307718592301278,51.4304164431629 -0.308089318297676,51.4305818164605 -0.308545106157548,51.4307853635506 -0.308508355212991,51.4308073076115 -0.308066640437424,51.4310797030898 -0.308083584103683,51.4310898366746 -0.30935367791788,51.4318329275239 -0.309613539201461,51.4320039772044 -0.309760925036105,51.4321436471293 -0.309961436885096,51.4321681149443 -0.31009609232502,51.43218354214 -0.310109313445852,51.4321756415005 -0.310395637950075,51.432018854274 -0.310656168206852,51.4322104974782 -0.310894112429129,51.4320017684743 -0.311994811914557,51.4311390595309 -0.312224657871473,51.4309148387293 -0.31280094469026,51.4303440170836 -0.313732296898535,51.4291982814936 -0.313947728785102,51.4288560840614 -0.314203926722523,51.4285405425728 -0.314447365625362,51.4282589789679 -0.313397437138029,51.4278212596223 -0.313162647284148,51.4277135976611 -0.312866974097427,51.4275779995745 -0.31234735144751,51.4273529625054 -0.311805501305026,51.4271068367373 -0.311082546575703,51.4267385334914 -0.310367034394791,51.4263649385117 -0.309992852676459,51.4261365046759 -0.30961133850311,51.4259493170561 -0.309239213186907,51.4257039202378 -0.308558861378408,51.4251563300222 -0.307975738676935,51.4246290186981 -0.307751792733951,51.4243443131059 -0.307474399158468,51.4240264722883 -0.306949718574911,51.4233948196995 -0.306868736390852,51.4232884691917 -0.306720288207071,51.4230246303806 -0.306514992379921,51.4227042331101 -0.306335671736537,51.4223806149098 -0.306261173185889,51.4222177218969 -0.30619226875268,51.4220575156987 -0.306080938875596,51.4217618499618 -0.306014934537648,51.4214848188423 -0.306008450597119,51.4212338197779 -0.30609577102217,51.4210885479603 -0.30638091257419,51.4206511815174 -0.306514613972654,51.420341977094 -0.306568242833739,51.4201745525611 -0.306614854791237,51.4200044205853 -0.306672618226935,51.4196481798379 -0.306681697117858,51.4193642337128 -0.306666975288304,51.4190600757966 -0.306692902191065,51.4187502116349 -0.306851519242574,51.4183891364596 -0.307119477513355,51.4178706108744 -0.307210199941846,51.4177100157883 -0.307409487790632,51.4174161412744 -0.307477424358312,51.4172912654281 -0.307539558061743,51.4171662156825 -0.307596529745176,51.4170267972501 -0.307650538546548,51.4168873359794 -0.307668434264809,51.4167913125139 -0.307706873080068,51.4166848883969 -0.307758258681258,51.4165426024076 -0.308286347581745,51.4152472387584 -0.308350898946093,51.4150180300788 -0.308380369444013,51.4148044067919 -0.308429948114981,51.4146306297565 -0.308452132821006,51.4144601422775 -0.308448600618204,51.4142829006543 -0.308479585992541,51.4139479363018 -0.308487232395226,51.4137826334551 -0.3084902462773,51.4136207689744 -0.308477012054942,51.4135135984353 -0.308420282803691,51.4131008644521 -0.308422502388844,51.4128096241272 -0.308443111746491,51.4125212570985 -0.308488823616603,51.4122979791559 -0.308695316094218,51.4116121568804 -0.308815572495274,51.4110428562574 -0.309059807100107,51.4094915816412 -0.309070204814961,51.4093640757879 -0.309073917845467,51.4093020095336 -0.30904505438011,51.4081361997785 -0.308977561045021,51.4066891316336 -0.30898983987013,51.4065103114624 -0.308983515341499,51.4062539962727 -0.308995198869639,51.4060526915404 -0.308969072809601,51.4056323756928 -0.3089629092262,51.4055647698355 -0.308818409552746,51.404763263913 -0.308704013865336,51.404007145083 -0.308672701398067,51.4034895687718 -0.308692041473146,51.4029646326335 -0.308766122524169,51.4022022429055 -0.308874126084508,51.4016516156842 -0.309000143076085,51.40119753443 -0.309053757612651,51.4010292001187 -0.309232500986749,51.400627124626 -0.309328080744868,51.4004522040546 -0.309384517431002,51.4003649141701 -0.309631651652826,51.4000141752586 -0.309672064839346,51.3999725038089 -0.309771195424906,51.3998974275771 -0.309928027149632,51.3998133831492 -0.310195594136993,51.3996545191751 -0.310460298866803,51.3994928264221 -0.310700462702346,51.3993344645006 -0.311451304348417,51.3988137842114 -0.311867894709728,51.3985086346487 -0.311966221384574,51.3984165529633 -0.312000894022781,51.3983729103642 -0.312125781320098,51.3981418622887 -0.312189053838214,51.3980231136199 -0.312500396413677,51.3974529421435 -0.312564149031246,51.3974017172115 -0.312955819450887,51.3971096901767 -0.314189903995505,51.3961894981366 -0.316623078328226,51.3944394619705 -0.317422351412898,51.3938897691174 -0.317580396002986,51.3937715684201 -0.317697879461912,51.3936670802519 -0.317272246353722,51.3933543125968 -0.317091190494245,51.3931979796182 -0.316975269959805,51.3931045243388 -0.316733009816528,51.3929302300175 -0.31632113899022,51.3925592195828 -0.315710052554307,51.3919748864375 -0.315220203840434,51.3914588233547 -0.315124123572099,51.3913351761494 -0.314904435544214,51.3910532324308 -0.314797361736558,51.3909159414054 -0.314659687521734,51.3907502518735 -0.314251475796178,51.3903613108136 -0.314111593459175,51.3902171642352 -0.314958234492339,51.38974468014 -0.315435123114184,51.3894790440762 -0.315825555519947,51.389257113872 -0.3163353173008,51.3890351888729 -0.316402510619725,51.3890028009634 -0.316467041338199,51.3889686661499 -0.316522894098933,51.3889353059263 -0.316583174936819,51.3888975138101 -0.316640645708728,51.3888587829282 -0.316693951594742,51.3888172943811 -0.316737320533465,51.3887720678029 -0.31675554864896,51.3887435609418 -0.316769515051228,51.3887149029458 -0.316777825352494,51.3886853552717 -0.316783176480361,51.3886557641998 -0.316787256146884,51.3886252564936 -0.316789203473493,51.3886108996858 -0.316793428650067,51.3885732016818 -0.316594633474445,51.3885847313327 -0.316576395348507,51.3884550109094 -0.316495666762157,51.3882649680254 -0.315958342277709,51.3876322530168 -0.313325576069501,51.3887634749468 -0.31316639103486,51.3888322058813 -0.313135955459595,51.3887994039142 -0.312849774005391,51.3884895292703 -0.311717396411581,51.3874309950552 -0.311822841505615,51.3873766843383 -0.311712331014972,51.3872528265201 -0.311746034045994,51.3872353319305 -0.311800269417814,51.3872073444998 -0.311671066371922,51.3871245722555 -0.311341221717619,51.3869102602134 -0.311477261454908,51.3868456928409 -0.311436099574062,51.3867920580312 -0.311386644178039,51.386731920683 -0.310846207946332,51.3861864320052 -0.311764843471884,51.3857850415615 -0.311104395551087,51.3851424394719 -0.310927199237369,51.3850373986059 -0.310707027662619,51.3848894839527 -0.310642202088745,51.3848156392665 -0.310608202013674,51.3847639059374 -0.310557537624292,51.3846561927638 -0.310543585094035,51.384603848207 -0.310631686325012,51.3845151269262 -0.310517947829711,51.3843633520935 -0.310420045563716,51.3842513617556 -0.310389947692947,51.3842094830923 -0.310284425005476,51.3839535404731 -0.310265484805065,51.3838048396501 -0.310324343238526,51.3836510570673 -0.309888423292739,51.3828812369637 -0.309863896348915,51.3828458223833 -0.309819667162492,51.3828370929248 -0.309729011868133,51.3826442051086 -0.309631677844606,51.3825169389679 -0.309535136972334,51.3824454239071 -0.309475431580906,51.3818429400805 -0.309307986747728,51.381863000428 -0.309279246899315,51.381707055436 -0.309277448742231,51.3816368168409 -0.309294258053896,51.3814923174797 -0.309270596769364,51.3813561344506 -0.309259276367059,51.3813128185633 -0.309222520538119,51.3811396770891 -0.30929560491705,51.3811047702501 -0.309253672384853,51.3804477029724 -0.308494520730574,51.380500580091 -0.30830293839539,51.3800822889805 -0.308278975403533,51.3800315981109 -0.307497616892967,51.3790086532056 -0.307365443633207,51.3783835460082 -0.307869091759371,51.3783638472928 -0.307818927323296,51.3775384544931 -0.307941445302035,51.3770618556563 -0.307970433111095,51.3766639194784 -0.30831887431174,51.3760583358667 -0.308434001890764,51.3758594267204 -0.308671850631228,51.3754483220573 -0.309073786120808,51.3753812109496 -0.309619420573259,51.3753108671123 -0.310460476120056,51.3751413926916 -0.311066274970199,51.3749972003016 -0.31151871876043,51.3749255047095 -0.312131800162739,51.3748182721255 -0.312487121462657,51.3747685489601 -0.312651478126198,51.3747511365844 -0.312937163664639,51.3747201872799 -0.313353743368181,51.3746830302127 -0.313862862764048,51.3746678800299 -0.314318044952796,51.3746375679991 -0.314759624937335,51.3744289625797 -0.315199350820648,51.3742320167262 -0.315644328449981,51.3739660102249 -0.31596827094046,51.3737539119775 -0.31620091268334,51.3735602789756 -0.316402600637424,51.3733869687379 -0.316670830797393,51.3731659774716 -0.316925633478833,51.3729169224331 -0.317085534886738,51.3727070507302 -0.317260664016379,51.3724370731525 -0.317374062732542,51.3722030685948 -0.317461412986849,51.3720172364615 -0.317481776739619,51.3719689823156 -0.317724099965842,51.371235085508 -0.317925794816689,51.3706336609579 -0.31800570473868,51.3702948888325 -0.317881852920783,51.3699082421003 -0.317891412357282,51.3698444587896 -0.317897383198478,51.3697977956415 -0.317899230589319,51.3697861342703 -0.317993041962533,51.3695789089263 -0.318094916425709,51.3689148277765 -0.318269991973845,51.3678975832793 -0.318395580694666,51.3669803209756 -0.318499317585569,51.3661851029118 -0.318498193856587,51.365863150096 -0.318422947205638,51.365407887067 -0.318412609601888,51.3653376161074 -0.318386253499632,51.3646825747336 -0.318280723332021,51.3636828833749 -0.318261315113004,51.3635045100716 -0.319036220424326,51.3623114938223 -0.319163463636042,51.3616208984709 -0.319384504844578,51.3609172652906 -0.319522526944368,51.3604821448185 -0.319768281986379,51.3599281925841 -0.319932902834627,51.3596301931195 -0.320141136317906,51.3595936242154 -0.320154297279751,51.3595478737003 -0.320055213989014,51.3594268832545 -0.320235302497202,51.3590976398113 -0.320720756155654,51.3583915122312 -0.320924169911945,51.3580949731641 -0.32119350473578,51.3576797211236 -0.321505261906821,51.3572085295625 -0.321929042333085,51.3566174890982 -0.322235788050596,51.3562019615999 -0.322552136589361,51.3558378150385 -0.322837946597594,51.3555217748083 -0.323160883373861,51.3551747116041 -0.323511163291285,51.3546690064802 -0.323728750303053,51.3544113220856 -0.324134901113929,51.3541068916364 -0.32443009718525,51.3538898723639 -0.324813785633411,51.3537236540067 -0.325742233483533,51.3533511736673 -0.32645613561135,51.3530330651248 -0.326818002462852,51.3527991031681 -0.327251720268602,51.3525202281899 -0.3277359261663,51.3522789314606 -0.327923137428304,51.3521845134546 -0.328022671112195,51.3521337933233 -0.328329264114669,51.3517199570932 -0.328741446199913,51.3511278275316 -0.329012195556342,51.3507126686378 -0.329287376055509,51.3503317395052 -0.329449176254786,51.3500696587896 -0.329539534123593,51.3499162337461 -0.329728190475977,51.3495439622845 -0.3299132234805,51.3492354656148 -0.330078885272422,51.3489842263071 -0.330191813779783,51.3487601937088 -0.330343477854185,51.3485779765903 -0.330510146371957,51.3484194360646 -0.330303468611501,51.3479002964445 -0.32994709416913,51.3472783347585 -0.329322105082401,51.3461417402963 -0.329182073746558,51.345887128836 -0.328874703747572,51.34529552961 -0.328643055804884,51.3449136637146 -0.32845986040867,51.3445440847347 -0.328153711774205,51.3440397923928 -0.327457063136016,51.3440055694158 -0.32777242509839,51.3439021073573 -0.327883030922136,51.3437418704926 -0.32792041381673,51.3433458647785 -0.327986451453279,51.3429528760368 -0.328177544055508,51.3423180493188 -0.328322407242878,51.3420458388237 -0.328501662588591,51.3417751080325 -0.32851850247837,51.3417482894789 -0.328756863488712,51.3410763779165 -0.328885425515731,51.3407769646214 -0.328955585873479,51.3402312957372 -0.328935662443617,51.3401086601217 -0.328852548852465,51.3397477911139 -0.328847087667685,51.3395823009756 -0.328841824484745,51.3394113292044 -0.328858591792003,51.3390285127694 -0.328845549186362,51.3386776344154 -0.328876756491629,51.3381744703248 -0.329017895500594,51.3375712908654 -0.329168426743264,51.3367065514296 -0.32918876796365,51.3363067047239 -0.329173648155775,51.3359315234506 -0.329184532384985,51.3356322286238 -0.329335608145487,51.3353088625906 -0.329387117156827,51.3351162269954 -0.329408332000289,51.3348485429753 -0.329522820263281,51.3344635243249 -0.329460761637749,51.3343538624546 -0.329526845365092,51.3341542425902 -0.329605321067451,51.3338514157314 -0.329619710614677,51.3334946354583 -0.32969008371501,51.3328643739819 -0.329695128024568,51.3327646590984 -0.329695753924292,51.3326692856598 -0.32966635650844,51.3324881712446 -0.329570600016643,51.3322799485579 -0.329555339102602,51.3321853385326 -0.329530930174175,51.3318702563459 -0.329339150290493,51.3316175125917 -0.329279366450263,51.3315267616648 -0.329167742250323,51.3309640243027 -0.329147560388147,51.3307281129653 -0.329089385568434,51.3303945685218 -0.329092769011158,51.3302624671862 -0.329190902414475,51.3300893744572 -0.32929732354505,51.3299650352858 -0.32940516770458,51.3298406263879 -0.329610009953222,51.3296556614665 -0.329889833131945,51.329459089942 -0.330268581033611,51.3292694119562 -0.330385641570896,51.3292071631254 -0.330482491045077,51.3291474136563 -0.330570858264975,51.3290866439322 -0.330655551869037,51.329009639034 -0.330695815190627,51.3289275071806 -0.330732916145702,51.3288542291143 -0.330650639193025,51.3286301083668 -0.33056691332774,51.3284067762215 -0.330456860330717,51.3281947551845 -0.330375155922506,51.3279940154716 -0.33031604355461,51.3278816092201 -0.330133677025918,51.3275687698229 -0.330115429028617,51.3275172672699 -0.329566516085872,51.3271794214067 -0.329565095838583,51.3271794011467 -0.329227472597648,51.3269902032358 -0.328902481484584,51.3268084657948 -0.328290801812279,51.326462526226 -0.327574043155506,51.3263182536104 -0.327299518274751,51.3266848932349 -0.327208071374641,51.3266710011697 -0.326958160499754,51.3266376750262 -0.326682833322452,51.3265905891861 -0.325980345004306,51.3265679630081 -0.325581271906958,51.3265685502032 -0.325089886768616,51.3265821999513 -0.324615346466105,51.3266077751575 -0.324425192547374,51.3266266298688 -0.324236388499829,51.3266473910907 -0.324005086703366,51.3266944238314 -0.323946901864069,51.3267160657372 -0.323813031804408,51.3267653918354 -0.323526895198496,51.3268979404938 -0.323072080711907,51.3270865972803 -0.323070661906621,51.3270865769621 -0.322624516148236,51.327199751675 -0.322078488951055,51.3273322596187 -0.321750732434568,51.3274246526258 -0.321575997064269,51.3274554110444 -0.321212371241137,51.3275059350892 -0.320058740507139,51.3276548924701 -0.319584903518427,51.3277352954857 -0.319283699794631,51.3278100822697 -0.318955380094986,51.327956488203 -0.318370349955,51.3282520341875 -0.317807676555864,51.328528124887 -0.31712453914317,51.3289166560958 -0.316826598247745,51.329095860049 -0.316741565315754,51.3291458810378 -0.316118821916013,51.3295685358706 -0.315955222771351,51.3296858397747 -0.315938930438297,51.3297008882352 -0.315186276010313,51.330377073322 -0.315023303498375,51.3305158704957 -0.314244595194974,51.331043342211 -0.313932220099389,51.331263684763 -0.313692682687823,51.331414862807 -0.313070754892937,51.3317395255178 -0.312753230071608,51.3318644985579 -0.312580035868126,51.3319267315811 -0.312398357511295,51.331987943857 -0.311985303889153,51.3320970652159 -0.311579968625236,51.3321506504983 -0.310929454278381,51.3323893969376 -0.31039538050701,51.332664069552 -0.309857240413302,51.3329332866291 -0.30962055079422,51.3330836901423 -0.309113320679601,51.3334872986358 -0.308733440408153,51.333746208803 -0.308327825057735,51.3340802597352 -0.30770563567683,51.3344840010245 -0.30761218961433,51.3346076999627 -0.307467865122873,51.3345894342371 -0.306990919321992,51.3347515554827 -0.306600142913106,51.3349168063324 -0.306191996680517,51.3350844126725 -0.306008112701498,51.3351663493677 -0.305864205631224,51.3352523697175 -0.305686277318159,51.3354071197168 -0.305255457715488,51.3360321561005 -0.30517305971937,51.3361641041868 -0.30502890570868,51.3364524801021 -0.304926094927844,51.3367495450672 -0.304937114964514,51.3370734276032 -0.304932371135389,51.3373593249331 -0.304859429625982,51.337546156971 -0.304956877511044,51.337705877129 -0.305056492898995,51.3378871140443 -0.305221270141296,51.3381278163698 -0.305272530238585,51.3382175560281 -0.30529804833344,51.3384211852009 -0.305355874818262,51.3386828156258 -0.305357147943132,51.3389211537447 -0.305415569502656,51.339205177455 -0.305414131594571,51.3394785367551 -0.305317399049114,51.3397262452054 -0.305063853175112,51.3401397960366 -0.304987027681019,51.3402745213302 -0.304915606170688,51.3404200229548 -0.30478712553161,51.3407131203819 -0.304730015088206,51.3408589178808 -0.304640057231716,51.3411570675601 -0.304594632708437,51.3413775592469 -0.304545306309572,51.3417005687408 -0.30449441760637,51.341873426044 -0.304437851948209,51.342046111281 -0.304372976570966,51.3422097756279 -0.304305308863646,51.3423689051582 -0.30419170869422,51.3426081891486 -0.30412224785846,51.3428158370823 -0.304024679269016,51.3430473514245 -0.30387935692449,51.3432511157472 -0.303782533456128,51.3433468944305 -0.303675470438552,51.3434442325068 -0.303407587128627,51.3436615950266 -0.303263826822524,51.3437844722816 -0.302512707391159,51.344449810846 -0.302287281653291,51.3446039577609 -0.301997305784966,51.3447588768703 -0.301921080387638,51.3448000251612 -0.301766942413043,51.3448895773812 -0.301527142701426,51.3450865764085 -0.301314099095004,51.3452930414419 -0.301152099742469,51.3455182252216 -0.301021914783293,51.3457410840491 -0.300764775984423,51.3462850160964 -0.30064905939294,51.3465423344061 -0.300523795808381,51.3467824340735 -0.300246867594487,51.3472432816836 -0.300160342506899,51.3473706710916 -0.300076825324109,51.347493519742 -0.2999252791775,51.3476694097585 -0.299428839820719,51.3481234757575 -0.299175645472154,51.3483680109592 -0.298969320150425,51.3485106523854 -0.298650344111681,51.3486706262041 -0.298391574417682,51.3488737264848 -0.298134805044467,51.3490578858253 -0.297797598518659,51.3492463602124 -0.297771115825032,51.3492612582154 -0.29753505601651,51.3493944757142 -0.297244307770571,51.3495656438625 -0.29645275028643,51.3499623707711 -0.296015484239469,51.3502527696075 -0.295614239473907,51.3505391954876 -0.295240629306262,51.3508529952738 -0.294967301205282,51.35109992906 -0.294816742660069,51.3512101130613 -0.294495399376325,51.351432973812 -0.294326073682049,51.3515446816576 -0.294148503209732,51.3516455726682 -0.293446784483135,51.3520193179031 -0.29329548008943,51.3521079131669 -0.29315296707578,51.3521957378787 -0.292906569881356,51.3523738359265 -0.29279600661151,51.3525259532618 -0.292775871051207,51.3526057606253 -0.292759749208767,51.3526891317151 -0.292748760281076,51.3529084154502 -0.292758287382091,51.3534264632889 -0.292660821121241,51.3536148211358 -0.292500324437832,51.3537976753986 -0.292396269408691,51.3538924411691 -0.292283576026266,51.3539869919474 -0.292057215516444,51.3541258235335 -0.291979430681782,51.3541732359708 -0.291701151624569,51.3544344721582 -0.291475928515615,51.3546954927203 -0.291322808220904,51.3549504616847 -0.291200065756692,51.3552004796063 -0.29120050247824,51.3553065675537 -0.29122762243485,51.3556567596055 -0.291219165323212,51.3558841711893 -0.291185157758503,51.3560662604216 -0.291179742227688,51.3560940500481 -0.291106713463034,51.356475145714 -0.291084871998093,51.3565593322308 -0.290915934455633,51.3566630392536 -0.290874722339511,51.3566885092204 -0.290599283639548,51.3569110375631 -0.290199315302808,51.3572784632247 -0.28985790111248,51.3576124903849 -0.289770947682083,51.3577119082954 -0.289586423557108,51.3579223654513 -0.289462733941334,51.3580796817321 -0.28934490524476,51.3582353748405 -0.289212205308381,51.3584438010136 -0.288972540863745,51.3587100883018 -0.288073853372572,51.3590422686559 -0.286972803749597,51.3593732848916 -0.286833557821679,51.3595250696884 -0.28667905011612,51.3597018034288 -0.286587941339917,51.3597948672764 -0.286389848717248,51.3599843587447 -0.286030643904407,51.3602956460599 -0.285336616846165,51.3610705966651 -0.28507723209459,51.3612106427655 -0.285401972153502,51.3612838095507 -0.285823287309884,51.36134930845 -0.286141615873902,51.361400713393 -0.286500189950779,51.3614940606054 -0.286997542110167,51.3616389709175 -0.287003157420516,51.3616408515447 -0.287213556401788,51.3616996656588 -0.287571899218003,51.3617992993495 -0.287598723286175,51.3618104789807 -0.287937023022952,51.3619458693726 -0.287942671895514,51.3619468511793 -0.288278204210677,51.3620803117185 -0.288154629378924,51.3622341245288 -0.288130527717975,51.362264338488 -0.287894497027341,51.3623148305255 -0.287682901545092,51.3623674777117 -0.287473828197181,51.3624255542731 -0.287348758153192,51.3624668784144 -0.287199548589013,51.3625394057109 -0.287020953293195,51.3626662514497 -0.286865789383006,51.3628222088291 -0.286815958014085,51.3628880969887 -0.286756952412988,51.362968144818 -0.286646175542689,51.363124750896 -0.286510727666615,51.3632918735827 -0.286304220101928,51.3635127967332 -0.286002923739856,51.363772787248 -0.285931448455488,51.3638409653265 -0.285745252661842,51.3640189424309 -0.285702376747208,51.3640506796801 -0.285637315943138,51.3640992628864 -0.285437834458319,51.3642491750106 -0.285189996984578,51.364383995282 -0.28502621871923,51.3644625985579 -0.284905549151894,51.3645381474603 -0.284737757738075,51.3646480676273 -0.284572529076718,51.3648003688225 -0.284357227809358,51.3649518459365 -0.284081425810156,51.3651438821681 -0.284071129097295,51.3651500244681 -0.284010851462595,51.3651877995147 -0.283910872389152,51.3652483668939 -0.283786675764121,51.3653040850171 -0.283779319603534,51.365307573455 -0.283662943972851,51.3653473127229 -0.28363093417514,51.3653576324177 -0.28343364438641,51.3654104811287 -0.283422060393591,51.3654130083531 -0.283255074473511,51.3654600084581 -0.283215607596014,51.3654765109576 -0.283103344875349,51.3655234131957 -0.282826445978044,51.3656273265661 -0.28261283082446,51.3657302799866 -0.282393944231912,51.3658601246874 -0.282161781469282,51.3659997543906 -0.281966339907514,51.3661551141112 -0.281880104901079,51.3662312549744 -0.281789596311493,51.3663108384443 -0.281617252187058,51.3664629409112 -0.281462506989467,51.3666037033676 -0.281447644183482,51.3666178700447 -0.28134709696874,51.366731468077 -0.281254776220092,51.3668974195196 -0.281173873530053,51.3669861332888 -0.28103332659328,51.3670955490828 -0.280815510980775,51.3672344868485 -0.280778681509668,51.3672564221738 -0.280533102405707,51.3674092483492 -0.280531647298549,51.3674101262758 -0.280469824674602,51.3674478772698 -0.280140687320614,51.36764631534 -0.280037990933836,51.3677032449224 -0.279819388836289,51.3678250897363 -0.279480429460994,51.3679756436315 -0.27941626838077,51.3679998741719 -0.279107215999759,51.3681203895833 -0.278994009336559,51.3681510920632 -0.278644227891503,51.3682457456117 -0.278452636935125,51.3682977717783 -0.27804233349457,51.3683573717845 -0.27790798124747,51.3683770637984 -0.277899390644508,51.3683787352112 -0.277893556084437,51.3683795487471 -0.277526699263971,51.3684334922554 -0.277525160020932,51.3684334696309 -0.27744827972814,51.3684557144752 -0.277243427493833,51.3685138359565 -0.277036463713512,51.3685935032674 -0.276979285596827,51.3686241282623 -0.276790181495584,51.3687266232639 -0.27660821095995,51.3687904739478 -0.276560062628712,51.3688077468814 -0.276499538210615,51.3688518070721 -0.276409369484053,51.3689188070111 -0.276270192926057,51.3690669858023 -0.276260634435492,51.3691702322892 -0.276284188666234,51.3692685719796 -0.276287891987348,51.3692866965076 -0.276243739144441,51.369465851021 -0.276182415003541,51.3696448419497 -0.276108078462809,51.3697507317103 -0.2760975099378,51.3697640617835 -0.275977883032961,51.3698899622449 -0.27596305123226,51.3699032295846 -0.275832391300465,51.3700137743044 -0.27562670861932,51.3701348129101 -0.275397340774583,51.3702367122076 -0.275363735530716,51.3702515017339 -0.274975965389735,51.3704013239965 -0.274961471940279,51.3704056061256 -0.274612747770778,51.3705092530877 -0.274365004841315,51.3705641309351 -0.274238985597541,51.3705919431548 -0.274022551853225,51.3706552831068 -0.273990783338698,51.3708103449336 -0.273922987724715,51.3709721584257 -0.273795827375876,51.3711816448044 -0.273713993358918,51.3713323737264 -0.273588775568119,51.3715310998657 -0.273406728807389,51.3717100192371 -0.273371060052682,51.3717418586146 -0.273211871853493,51.3718483837678 -0.273198629100562,51.3718571786833 -0.272959526551032,51.3719876093484 -0.272747599906921,51.3721230245884 -0.272577942126851,51.3722400923201 -0.272545418251086,51.3722638870169 -0.272422880513989,51.3723501843782 -0.272167348374589,51.3724984403151 -0.271932331973805,51.3725956648939 -0.271179929186994,51.3728516652444 -0.271041741749693,51.3728972745574 -0.270467013612907,51.3730875664835 -0.269735620815502,51.3733168964853 -0.26923722030009,51.3735028255226 -0.268886426670728,51.3736226970017 -0.26885129508374,51.3736401581046 -0.267986097876532,51.3740652850008 -0.266780935398708,51.3746302084246 -0.266432727340765,51.3747941634523 -0.265503782498462,51.3752309138316 -0.264678651733996,51.3756224468077 -0.264234595120225,51.3760808440181 -0.263833564956628,51.3764256110504 -0.263275240011193,51.3768255832623 -0.262872930892066,51.3770534559683 -0.262468829391984,51.377253430269 -0.262387428954948,51.377353813029 -0.261967759899589,51.3780777742654 -0.261945182724676,51.3781421695114 -0.261913318121975,51.3781858389033 -0.261877568376329,51.3782194713596 -0.261566866540011,51.378418041049 -0.261495296647603,51.3784871032554 -0.261468051187497,51.3785245479011 -0.261417045361786,51.3790363235787 -0.261395649242475,51.3791070284941 -0.261353862250469,51.3791874101671 -0.261142007748725,51.379469346237 -0.261148561801962,51.3795998020746 -0.26110107676574,51.3795990974492 -0.261006311077357,51.3795985904527 -0.260816871879229,51.379554423895 -0.26063651986817,51.37949870488 -0.26014936162697,51.3793475397189 -0.259993975759692,51.3793146651643 -0.259898656897877,51.3792880771527 -0.259769630108206,51.3792412106405 -0.259335521141925,51.3791691345948 -0.258420605037829,51.3789693529468 -0.257467764295138,51.3788949532429 -0.257363924126399,51.3788682364391 -0.257278162486173,51.3788552740005 -0.257175059568253,51.3788465481869 -0.256291520848982,51.378803736089 -0.255755695767088,51.3787615989001 -0.255587359801153,51.3787671848404 -0.255060373081117,51.378757540213 -0.254525375889115,51.378768451934 -0.25394755091891,51.3787715315316 -0.253580650476489,51.3787831449506 -0.253397715146531,51.3787957017048 -0.25276631280987,51.3788492205647 -0.252349224523595,51.3788969423886 -0.251637913832718,51.3790482462629 -0.251452101922575,51.3790958182246 -0.250978215918087,51.3792379844722 -0.250784473039821,51.3793071042729 -0.250517570836261,51.3794119013197 -0.249917633755403,51.3796187991173 -0.249076906762716,51.3799227859845 -0.248844560768915,51.3799849426858 -0.248631507488655,51.3800321040014 -0.248350322842089,51.3800575693878 -0.247893450173382,51.3801694100365 -0.247823353469128,51.3801216128763 -0.247751471248335,51.3801609939591 -0.247723808746177,51.3801686711427 -0.247667520436683,51.3801751118101 -0.247618733942099,51.3801743822637 -0.24756459286507,51.3801617956504 -0.24719916414462,51.3799855156141 -0.2468162384943,51.3801155399388 -0.246602206698246,51.380150995881 -0.246493930256732,51.38016295035 -0.246087712454405,51.3801892362233 -0.24595578678222,51.3801441087445 -0.24556376285719,51.3799880127282 -0.245505040819714,51.3800581568934 -0.245030254723365,51.3800339655478 -0.24501230790369,51.3800912345119 -0.24496843860103,51.3806005034779 -0.244960816430024,51.3806480376755 -0.24489875064164,51.3808800441218 -0.244811773166441,51.380861660479 -0.244768770950139,51.3810102536972 -0.244754752172396,51.3810019528956 -0.244648437878003,51.3816010875182 -0.244671404878437,51.3816418874529 -0.244460070232599,51.3824310303536 -0.244316134515857,51.38292612262 -0.244150802977804,51.3834911089476 -0.242935855175968,51.3829441830334 -0.24290752460483,51.382932071202 -0.242797667277707,51.3830625802794 -0.242529389959646,51.3833508293193 -0.242531475893603,51.3833706384618 -0.242534620082412,51.3834030506932 -0.242070347712002,51.3840040050877 -0.241927311123979,51.3841745600763 -0.241802524644061,51.3843542888004 -0.24159636459586,51.3845238962745 -0.241379392534391,51.3846725733205 -0.241041091294896,51.3848734607412 -0.240696168443211,51.3850615707154 -0.240035656050086,51.3854204288276 -0.239888831112975,51.38550093328 -0.239726987297391,51.3855991919913 -0.239353649912571,51.385777071756 -0.239167096818192,51.3858830500842 -0.239011960747469,51.3859175782475 -0.238890303592756,51.3859813779625 -0.238831069387105,51.3860273263321 -0.238720677248959,51.386093992087 -0.238932261399484,51.386685307625 -0.238947056377288,51.3867475617504 -0.23897193929108,51.3868495246513 -0.238989790586607,51.3870575553224 -0.239073380429752,51.387238614596 -0.239199945656508,51.3874608641373 -0.239299798811047,51.387706087862 -0.239435572765433,51.3879509519043 -0.239446909768218,51.3881435106559 -0.239470976379818,51.3882266717849 -0.239467089370094,51.3883650616819 -0.239556512115047,51.3885084495956 -0.239588371313755,51.3886510617183 -0.239560802216031,51.3887333571742 -0.239550013926304,51.3888663394808 -0.239547474579501,51.3888923721195 -0.23955799706946,51.3889177026147 -0.239576408942141,51.3889629302133 -0.239614634376819,51.3891280244296 -0.23962217773329,51.3891569063517 -0.239683060257872,51.3892936613329 -0.23971976534825,51.3893841147019 -0.239761678980884,51.389453069173 -0.239862202051383,51.3895697425515 -0.239868599086128,51.389739752423 -0.239930789802565,51.3900680178187 -0.240003515056299,51.3903811582695 -0.240011314009932,51.3904775595123 -0.240039750633301,51.3906353141653 -0.240092150068123,51.3908079024738 -0.240113560017954,51.3909232984001 -0.240081155020703,51.3910946130463 -0.240084436931101,51.3911944526936 -0.240212370952732,51.3914185210565 -0.240378692292441,51.3917294696923 -0.240448038775893,51.3917970381945 -0.240537051680599,51.3919853701413 -0.240596053693588,51.3920600646339 -0.240669449608481,51.3920962282983 -0.240766084812323,51.392122851522 -0.240824142204329,51.3921479962535 -0.240944134568098,51.3921650806893 -0.240937967846637,51.3921775743202 -0.24086150933392,51.3923356421958 -0.240800257947637,51.3924309166004 -0.240819645148214,51.3924878454297 -0.240836361636065,51.3925402387151 -0.240911420575383,51.3927185611192 -0.241144894554716,51.3931545801016 -0.24127784067945,51.3932852240988 -0.241320828844634,51.3933263256181 -0.241321423118807,51.3933479107045 -0.241321536677902,51.3933820747485 -0.2416679872959,51.3938701329807 -0.241722082978585,51.3939213793258 -0.241799334860236,51.3939683877233 -0.242025048670771,51.3940814545187 -0.24226174796847,51.394167713894 -0.242486289304632,51.3942341027416 -0.242767842183633,51.3942787807761 -0.24316479606355,51.3943090069441 -0.243520172420038,51.3943386076359 -0.243524401994371,51.3943395703064 -0.243729654896685,51.394386698471 -0.243901410947996,51.3944450111862 -0.244053222921978,51.3944949340555 -0.244077519945832,51.3944979950642 -0.244209301344927,51.3945107574032 -0.244571526228355,51.3946619147265 -0.244684232491459,51.3947984549332 -0.24476937705906,51.3949769260983 -0.24496850044074,51.3951812875728 -0.245091927002652,51.395300996267 -0.2454646589712,51.3955898569988 -0.245512459583271,51.3956570998247 -0.245561427455788,51.3957279553901 -0.245668733554897,51.3958167669187 -0.245751737331192,51.3959026066356 -0.245866330172003,51.3960643463605 -0.245979289843271,51.3961541406221 -0.24615122907043,51.3963195253447 -0.246274517172827,51.3965174447707 -0.24637641282904,51.3966331447031 -0.246470158326581,51.3967388333094 -0.246746094947426,51.3969651082359 -0.246916516117842,51.3971331660761 -0.247401273905604,51.3975774280181 -0.247399509689614,51.3975863925314 -0.247392092003039,51.3976285346812 -0.24718930979391,51.3978575363795 -0.247046593219826,51.3980190216847 -0.246935540489096,51.3981397157556 -0.24686957812422,51.3982870660805 -0.246745943688622,51.3985136549572 -0.246740470870561,51.3986196563188 -0.246736252266705,51.3986897164483 -0.246730740174795,51.3987967064151 -0.246707519657826,51.398954585451 -0.246697566672771,51.398988598871 -0.246661881385178,51.3990942380433 -0.246598505254933,51.3992110606951 -0.246585757474279,51.3992809922719 -0.246568169461281,51.3994030845861 -0.246595881760488,51.3996921720278 -0.246636659334,51.3999805566028 -0.24668695954878,51.4001314441655 -0.246800525979129,51.4003948462729 -0.246822952396216,51.400484183448 -0.24681087668263,51.4004992867396 -0.246769356058383,51.4005714848352 -0.246695497692117,51.400658573016 -0.246664650013466,51.400677889982 -0.246649629026302,51.4006956452406 -0.246454056892468,51.4008068935342 -0.246437956786407,51.4008156425917 -0.246100385769681,51.4010722931782 -0.246061711293862,51.4011040781221 -0.24567444517615,51.4014202175858 -0.245472180116707,51.4015575246553 -0.245352610363097,51.4016402412698 -0.245270666955499,51.4017154305411 -0.245215145408396,51.4017011135134 -0.2452107270783,51.40170194661 -0.245047260633833,51.402219308559 -0.245032063385212,51.4022757188303 -0.24502102945268,51.4023007259564 -0.244868762153025,51.4027111817782 -0.244831693520765,51.4028527607833 -0.244821580768191,51.4028939640716 -0.244716088509253,51.4031693699655 -0.244659511678296,51.4034086484002 -0.244676675315929,51.4037128618902 -0.244679909102106,51.4038513585203 -0.244661265764853,51.4042269574085 -0.244694777208938,51.4043641990512 -0.244788086910391,51.404481569714 -0.244825081197263,51.4046052890039 -0.244863068033636,51.4047030414138 -0.244861235204581,51.40482527974 -0.244923162091457,51.4050843144207 -0.244989680258848,51.4053380240181 -0.245027053987719,51.4054518596443 -0.245161004126474,51.4057092752685 -0.245168679213981,51.4059207485751 -0.245172503588395,51.4060098084995 -0.245198162527352,51.4061261655099 -0.24520629630459,51.4061397719095 -0.245334775879105,51.4063512569753 -0.245453991253258,51.4065446222407 -0.245509440788294,51.4066353536819 -0.245480563556108,51.4067517931501 -0.245376427741086,51.4069543994773 -0.245314892752587,51.4070227018982 -0.245330216258887,51.4070714776451 -0.245363528131062,51.4071025436911 -0.245449668827869,51.4071812385648 -0.245463965549829,51.4072228074488 -0.245481517360886,51.4072536365294 -0.245680442196583,51.4074274284589 -0.245735044322277,51.4074660046891 -0.245778022477591,51.4075449522613 -0.245787373127396,51.4075639715699 -0.245824525024771,51.4075690224316 -0.246019135607815,51.4075953110528 -0.246168905929908,51.4076254226256 -0.246273726525884,51.4076683465935 -0.246575268065523,51.4077537712493 -0.246710242150691,51.4077584882845 -0.24681849154618,51.4077861799784 -0.246933047351024,51.4077977835619 -0.247009004966485,51.4078421625367 -0.247080597824599,51.4078890840398 -0.247179869098849,51.4079624904023 -0.247234162657643,51.4080091520787 -0.247259849100481,51.4080877504946 -0.247268901182579,51.4081518061171 -0.247272118111536,51.4081824204716 -0.247315413579919,51.4082531915892 -0.24733988360548,51.408326377961 -0.247371088283209,51.4083753910585 -0.247437470167866,51.4084439005327 -0.247484311814675,51.4084994406309 -0.247486640753641,51.4085129609405 -0.247515215038459,51.4086680189641 -0.247532512866981,51.4088544627736 -0.247533738228839,51.4090486646858 -0.247485525443667,51.4091064676782 -0.247405610283204,51.4091655049629 -0.247233872637139,51.4092941886491 -0.24722325115942,51.4093084132709 -0.247217391077997,51.4093128209552 -0.247205037388314,51.4093351111283 -0.247188059766306,51.409363625083 -0.247170050260707,51.4093850213037 -0.247156447122828,51.4094027974166 -0.247127654747651,51.4095138423934 -0.247113548914511,51.4095819547049 -0.247147562262746,51.4097093112134 -0.247401643725334,51.4104342864951 -0.247451698328688,51.4105546016159 -0.248212164357777,51.412138765349 -0.248886135352955,51.4135427316551 -0.249036612347045,51.4138588192874 -0.249361947604352,51.4145264190701 -0.249510518354591,51.4147777494234 -0.249576324956676,51.4149018949048 -0.249579609973606,51.414964873554 -0.249523138270748,51.415049434382 -0.249519734962553,51.4151384741068 -0.249577644757461,51.4154289043413 -0.249690563742557,51.4159368145867 -0.249731508073861,51.4161065267314 -0.24979701791463,51.4165022538589 -0.2498097567851,51.4165815557169 -0.249811811558037,51.416602262878 -0.249835018645574,51.417012729807 -0.249827847437556,51.4171258958682 -0.249750243167689,51.4174250895881 -0.2496606160126,51.4176602748808 -0.249594144205766,51.4178202001304 -0.249573740851095,51.4179413492832 -0.249551215979707,51.4180776585995 -0.249570523161965,51.4182488451456 -0.249590280670251,51.4183740995302 -0.249618891176484,51.4185283438633 -0.249757394034847,51.4188541386795 -0.249821664991479,51.4189782603237 -0.249863273099556,51.4190561944748 -0.250123691612913,51.4194314562443 -0.250253525147169,51.4196087876035 -0.250363318659408,51.4197830327977 -0.250451857632904,51.4200262725572 -0.250509904992084,51.4202016333452 -0.250556287597904,51.4203812244392 -0.250542222336789,51.4205600029374 -0.250528323077713,51.4207747429318 -0.250559456752751,51.4209747835724 -0.250651315317999,51.4210940118713 -0.250720216937368,51.4212460705319 -0.25080236383919,51.4215449514853 -0.250901678593382,51.4218818470143 -0.251099408234175,51.4223155024909 -0.251150459946889,51.4223729905932 -0.251209740962342,51.422438602966 -0.251223429737002,51.4224558875136 -0.251419264508682,51.4226008501748 -0.251684573085686,51.4228116658073 -0.251780505550454,51.4228616428706 -0.251998536574012,51.4229502996208 -0.252398857797421,51.4230138954106 -0.252759670835663,51.4230965896636 -0.252930909050436,51.4232088193006 -0.252934673826071,51.4233339243672 -0.252926993575366,51.4234605673513 -0.25289927792899,51.4236957786276 -0.252885625460785,51.4240534617399 -0.252847753674012,51.4241787552969 -0.252778348717719,51.424303668576 -0.252681445922011,51.4244685361534 -0.252575729931503,51.4246747156962 -0.252470460382792,51.4248692143243 -0.252406506739713,51.4250004116717 -0.252309503696115,51.4253541547183 -0.252256062789788,51.425623144436 -0.252237365058416,51.4257370381994 -0.252275706756148,51.425863559326 -0.252311309877474,51.4259872519045 -0.252336874481125,51.4260694417426 -0.252405663676134,51.4263024989556 -0.252504390449272,51.4265063344309 -0.252777490131499,51.4267748011205 -0.252963513900023,51.4269879392073 -0.25306066925931,51.4271180336021 -0.253184537979763,51.4273779814136 -0.253267661250932,51.4276147568114 -0.253357828470478,51.4278130700173 -0.253504097565398,51.4280517754744 -0.25367307708262,51.4282610619984 -0.253851378555205,51.4285649713874 -0.253967835058537,51.4287924435699 -0.253970474711711,51.4287978775009 -0.254079682710599,51.4290288376374 -0.254102183942407,51.4290795164821 -0.254181304972896,51.4292317260344 -0.254224075896577,51.4293169583356 -0.254213794434834,51.4293968150844 -0.254203872091124,51.4294703851273 -0.254196865573204,51.429576361724 -0.254129771487707,51.4297525541633 -0.254061603284345,51.4298791953683 -0.253909613000068,51.4300918798238 -0.253714745037442,51.4303371885486 -0.253596257679683,51.4305017376834 -0.253422054157732,51.4306934141682 -0.253304111486724,51.430843675791 -0.253184836185165,51.4309138175908 -0.253079287188558,51.4309661842431 -0.252895607660217,51.4310299721336 -0.252632205144312,51.4311096516261 -0.252518066082538,51.4311601820661 -0.252370630332106,51.4312532765883 -0.252212311362863,51.4314046447084 -0.252082915185983,51.4315160774657 -0.251817459167898,51.4317612300889 -0.251698485403509,51.4318637390817 -0.251562802326857,51.4319875744819 -0.251223373562622,51.4322873617082 -0.251060203735346,51.4325655046438 -0.251041690161998,51.4326371480042 -0.251012695558787,51.4328309881938 -0.251015823307596,51.4332024098135 -0.251002405880465,51.4334387345971 -0.251013420089867,51.433526102045 -0.251069546318547,51.433789535099 -0.251190288223524,51.434094392993 -0.251230664260805,51.4341678146436 -0.251275480941876,51.4342368088299 -0.251387867924501,51.4343473551843 -0.251450696646501,51.4343950407172 -0.251591282180451,51.4344816443615 -0.251646262079022,51.4345112330158 -0.251762031252351,51.4345704968768 -0.25196563465125,51.4346626249807 -0.252075972475801,51.4347119182084 -0.252585673941166,51.4349677351088 -0.252702578265455,51.4350315094297 -0.252819979146546,51.4350854026262 -0.252911347044005,51.4351407053678 -0.253000725700915,51.4352139584274 -0.253086726500092,51.435298038664 -0.253233010676787,51.435459344559 -0.253298068707622,51.4355637904048 -0.253375779172791,51.4357159826839 -0.253432373175913,51.4358931226295 -0.253425350774023,51.4360773156043 -0.253427479690045,51.4363606268176 -0.253449745648524,51.4365669222517 -0.253488397031496,51.4366484090897</coordinates></LinearRing></outerBoundaryIs></Polygon>
  </Placemark>
