  <Placemark>
	<Style><LineStyle><color>ff0000ff</color></LineStyle><PolyStyle><fill>0</fill></PolyStyle></Style>
	<ExtendedData><SchemaData schemaUrl="#Local_Authority_Districts__December_2019__Boundaries_UK_BFC">
		<SimpleData name="objectid">34</SimpleData>
		<SimpleData name="lad19cd">E06000036</SimpleData>
		<SimpleData name="lad19nm">Bracknell Forest</SimpleData>
		<SimpleData name="lad19nmw"></SimpleData>
		<SimpleData name="bng_e">488169</SimpleData>
		<SimpleData name="bng_n">168792</SimpleData>
		<SimpleData name="long">-0.73363</SimpleData>
		<SimpleData name="lat">51.411301</SimpleData>
		<SimpleData name="st_areashape">109384210.265678</SimpleData>
		<SimpleData name="st_lengthshape">62508.0775037044</SimpleData>
	</SchemaData></ExtendedData>
      <Polygon><outerBoundaryIs><LinearRing><coordinates>-0.775652153005369,51.4687224618303 -0.776135584725177,51.4687328961049 -0.777244890637482,51.468704902536 -0.777666277992423,51.4687227752233 -0.777667702871013,51.4687227900593 -0.779435348403544,51.4687339898807 -0.780632516743447,51.4687050794062 -0.78256490664671,51.4686900761317 -0.782656712496523,51.4682162092087 -0.782742061243866,51.4678241694639 -0.782788362146088,51.4676501653044 -0.782994103925353,51.4668466666587 -0.78322528632226,51.4658401717931 -0.783538221672346,51.4645755365746 -0.78376704496364,51.464576110977 -0.783801369830888,51.4638300683718 -0.783809411691631,51.4633626081657 -0.783818998441043,51.4628950740274 -0.783807060612457,51.462424709916 -0.783832669777445,51.4615689049966 -0.783841147638524,51.4614152725178 -0.783873977248825,51.4607743917937 -0.784131999088681,51.4603814391382 -0.784677996459192,51.4594995661009 -0.78488612027372,51.4591393557341 -0.785248167609665,51.4585684892717 -0.785704988930728,51.4577882377543 -0.786687442582799,51.456293977735 -0.787067333533234,51.4556432773116 -0.788082744174033,51.4543085581894 -0.788847502456436,51.4534756534313 -0.789231221741235,51.4531136466097 -0.7895695245414,51.4527277966663 -0.789808738074166,51.4524991408148 -0.789922126732133,51.452402323436 -0.790155381662932,51.4522329380077 -0.79031486764404,51.4521383942796 -0.790435679372953,51.4520839038792 -0.790578155455763,51.4520313461981 -0.791385966208275,51.4517942567275 -0.79165985542594,51.4517259704766 -0.79173824549768,51.4517007088437 -0.79202489448075,51.4515805037246 -0.79217540782112,51.4515469943036 -0.792420846579603,51.4515180581722 -0.792529437173337,51.4514949045641 -0.792701875640248,51.4514489448542 -0.792781828477613,51.4514183042525 -0.79285770198748,51.4513804296591 -0.792942730486416,51.4513192767604 -0.793098077997929,51.4511608605753 -0.79333810043369,51.4509546813337 -0.794695627240208,51.450225919161 -0.795790842378408,51.4496202986319 -0.795951755921323,51.4495247725435 -0.79608955251177,51.4493742621712 -0.796500804175964,51.4488910626024 -0.796590795189921,51.4487535448915 -0.796698263974831,51.4485513902204 -0.796770904535306,51.4483606552317 -0.796892563406321,51.4478394232154 -0.796956221817689,51.4477150299241 -0.797035136116264,51.4476151549758 -0.79708371534231,51.4475725021869 -0.797161425904609,51.4475184627833 -0.798049750506826,51.4470617264488 -0.798762939627972,51.4466455312637 -0.798990634612633,51.4465229073671 -0.799131002658653,51.4463822179174 -0.799347594481972,51.4461353315426 -0.799447606026159,51.4459952176037 -0.799473665612637,51.4459379501444 -0.799526010384258,51.4457514110699 -0.799574669397572,51.44565122471 -0.799610503946673,51.4456012493175 -0.799832524505344,51.4453643064753 -0.799889299872329,51.4452848798877 -0.799994662898453,51.4451078719792 -0.800025368966479,51.4450362688384 -0.800047675063559,51.4449546909252 -0.80006326516843,51.4448531776634 -0.80006345238942,51.4447327174187 -0.800056220276922,51.4446283628141 -0.800012507112226,51.4444264563165 -0.80000266186155,51.444308591054 -0.800019504882964,51.4438285342497 -0.800050396867885,51.443749740989 -0.800203553017991,51.4434509623387 -0.800246043818668,51.4433686926243 -0.80026710383254,51.4432213873363 -0.800247094065253,51.4430521765303 -0.800232472889707,51.4430033922304 -0.800187525017291,51.4429076411862 -0.800043754831515,51.4426849338693 -0.799987773210707,51.4425710906568 -0.799935038717875,51.442441998293 -0.799902021273071,51.4423256033982 -0.799891776588639,51.4422230154467 -0.79990366217985,51.442099889038 -0.799926837472207,51.4419850575342 -0.800004598766132,51.4417610214832 -0.80001782216198,51.4416955321145 -0.80002538897439,51.4415742480219 -0.800020430842626,51.4413241940218 -0.800019761547891,51.4411821496758 -0.799975903799103,51.4409361918039 -0.799730707500753,51.4399121812978 -0.799686484903059,51.4393496921803 -0.799624201068095,51.4389830839155 -0.799709964593184,51.4389470146249 -0.799319627641631,51.4384691689542 -0.799413070761029,51.4384206828702 -0.799306309399178,51.4382666747324 -0.799192948804806,51.4380884159413 -0.798773580700202,51.4374016202161 -0.798613054088209,51.4371041244435 -0.798477099313772,51.4368014858157 -0.798271089832501,51.4363748796415 -0.798143933483568,51.4363385159284 -0.798103586138594,51.4361762869329 -0.798050747401421,51.4357260795178 -0.798047386873155,51.4356325522439 -0.798061477544682,51.4354797819775 -0.798078758382255,51.4354224247183 -0.798130798977898,51.4353060918549 -0.798266350744559,51.4349091475729 -0.798508801083946,51.4341130764379 -0.798503286845624,51.4340473950867 -0.798486893848479,51.4340166622567 -0.798374485899249,51.4339111391332 -0.798359374055656,51.4338858129928 -0.798350802172659,51.4338281915638 -0.798356275689982,51.4337823996441 -0.798381781281249,51.4336873708379 -0.798465031446095,51.4335299151736 -0.798510428390628,51.4333910397493 -0.798525260091258,51.4332643475752 -0.798506713382757,51.4330942519266 -0.798532435879443,51.4328283296929 -0.798467855449782,51.4317279575563 -0.798397369680393,51.4309565469539 -0.798417925434758,51.4305575245491 -0.798458495636066,51.4303268153174 -0.798461830215796,51.430258527019 -0.798447226657677,51.4301009673928 -0.798312894008351,51.429629338888 -0.798170211031135,51.4293086518514 -0.798081610617372,51.4290694263458 -0.798038963834738,51.4289952730351 -0.797952583634122,51.4288883089488 -0.797926588896947,51.428834913283 -0.797932713392052,51.4284932764339 -0.797941974957397,51.4284160602241 -0.797957832812591,51.4283586883825 -0.79804187502327,51.4281706770071 -0.798065578124101,51.4280900119308 -0.798084674824768,51.4279634533461 -0.798092722070218,51.4278241050453 -0.79808680368663,51.4277197635125 -0.798052990536133,51.4275305428441 -0.798024069608971,51.427425966368 -0.7979403157115,51.4272191527761 -0.797940530047339,51.4270438557218 -0.797941007692266,51.4268630769658 -0.797965779486656,51.4264119576431 -0.798033857638235,51.4260097363232 -0.797983964878444,51.4259948416325 -0.7980523636899,51.4255261894102 -0.798102628484097,51.4253099607588 -0.797988356084724,51.4252809209868 -0.798023932828977,51.4251859944367 -0.797901551753987,51.4248061788012 -0.797884417089261,51.4246908440936 -0.797893032650789,51.4245794584642 -0.797946594986713,51.4245674218662 -0.797964541465368,51.4245433336332 -0.797987463113894,51.4244923264689 -0.798010449005471,51.4243800998653 -0.79799123957574,51.4240184229453 -0.797982907598531,51.4239518128394 -0.79793584035567,51.423770545836 -0.797936680574991,51.4236842519241 -0.797989708361116,51.4235841096643 -0.798149370475797,51.4233609115398 -0.798169044878263,51.4233251535567 -0.798199410319416,51.4232661321438 -0.798348372462012,51.4228494527199 -0.798386037580825,51.4226205985732 -0.798384929228553,51.4224955391582 -0.798346806004596,51.4223620999671 -0.79833666772152,51.4222558257382 -0.798347472075185,51.4220608575068 -0.798362824031416,51.4219683303148 -0.798386262250444,51.4218975513096 -0.798449551547753,51.4217903216813 -0.798621017557034,51.4214467795508 -0.798712295836496,51.4214207444903 -0.798700482060045,51.4207767730903 -0.798725298745805,51.4204317285432 -0.798621612330799,51.4203838298224 -0.79849934145359,51.4200543599121 -0.798590408924672,51.4197603369074 -0.79869144202299,51.4195294335712 -0.798543498103036,51.4193561234526 -0.798612693932017,51.4192948025787 -0.798471468822856,51.419195367137 -0.798437319395132,51.4191275034453 -0.798424343273612,51.4190752299879 -0.798426063580695,51.4190096220646 -0.798516777161224,51.4187290803478 -0.798516029067746,51.4186490629093 -0.79849992497309,51.4186075446957 -0.798396233835755,51.4185012124976 -0.798265621715733,51.4183272704049 -0.798102396212844,51.4180270467885 -0.798063333379955,51.4179250614676 -0.797974507456591,51.4176363880311 -0.797834321894279,51.417443379033 -0.797745967007828,51.4173040306661 -0.797533777259679,51.4168953399171 -0.797492178302588,51.4167816431952 -0.797486141629986,51.4166862900646 -0.797540112921807,51.4165995531712 -0.797358158513233,51.4160824880872 -0.797289547643102,51.4160674017889 -0.797249185638059,51.4159608197999 -0.797184340443392,51.4157435031411 -0.797009888976053,51.4150492370775 -0.796809529780897,51.4147415327439 -0.796760021949019,51.4146537352929 -0.796675981788752,51.4144586960951 -0.796627567507477,51.4143834954179 -0.796395444021805,51.41402593178 -0.796372701995766,51.4139618713422 -0.79634911064756,51.4139301654205 -0.796306886511159,51.4138946724015 -0.796174697131131,51.4138357831914 -0.79608171706344,51.4137601243558 -0.796037120369654,51.4137066277491 -0.79599162126768,51.4136333442486 -0.795890684795048,51.4134227590249 -0.795847818693399,51.4133575937481 -0.795739114083106,51.4132261273505 -0.79547383488855,51.41303453163 -0.795091322206605,51.4127068866096 -0.794880025417,51.4125411049183 -0.794660976577849,51.4123409926288 -0.794556551371658,51.4122635085158 -0.794455849287461,51.4122112328263 -0.794283939117649,51.4121347630701 -0.79392236091084,51.4119944049456 -0.793807414245766,51.4119383872878 -0.793691306169073,51.4118678836389 -0.793609428367876,51.4118122047106 -0.793523943983204,51.4117268231796 -0.793380760543651,51.4115409732695 -0.793230751327313,51.4113937980289 -0.793193296853719,51.4113394747151 -0.793167834383678,51.4112708915406 -0.793133362923119,51.4111077340272 -0.793099674815087,51.4110183894715 -0.793012034664277,51.4108528877907 -0.792984323003641,51.4108157444998 -0.792843566348245,51.4107540671226 -0.792813312293302,51.4105388121826 -0.792744419056985,51.4102602329745 -0.792627241137498,51.4099065421274 -0.792606946502091,51.4097993560781 -0.792594355114512,51.4096787644454 -0.792598286281041,51.4095294865462 -0.792616463097169,51.4094379784536 -0.792632460443958,51.4093797094269 -0.792698919325444,51.4092014080704 -0.792505466831662,51.4088496305634 -0.792889472184567,51.4087358149335 -0.793321073923449,51.4086152062781 -0.793555324938545,51.4085654741419 -0.79368391157229,51.4085443211495 -0.793878273787967,51.4085328331006 -0.794172638599155,51.4085457449883 -0.794613865695861,51.4085547703288 -0.79525956228137,51.4086593824488 -0.795767823407594,51.4086843733419 -0.795998691509542,51.4087092148518 -0.796226479408642,51.4087385186062 -0.796396927968684,51.4087664258038 -0.796612795435897,51.4088117879927 -0.79697676629087,51.4089144043938 -0.797332678105459,51.4089944623688 -0.797848048604405,51.4091328781058 -0.79808248012398,51.4091847212969 -0.798561108872554,51.40913747957 -0.799216279558505,51.4090982442787 -0.799276746259578,51.4090979633923 -0.799397442711403,51.4091018943601 -0.799516385632338,51.4091139884831 -0.800071673653745,51.409213157509 -0.800290028907958,51.4092225798919 -0.801521574713465,51.4091335730619 -0.801972102840033,51.409063467982 -0.801878295707704,51.4088017183838 -0.801807432915707,51.4085420946989 -0.801788526441203,51.4080544864338 -0.80180034613191,51.4077111157402 -0.801806291181705,51.4075925132395 -0.801801966817938,51.4075402399569 -0.801757400207888,51.407100104547 -0.801591521433188,51.4065166051265 -0.801568306303287,51.4062483883531 -0.80148735165694,51.4057719235579 -0.801521116860122,51.4053010341783 -0.801500993591869,51.4051911558992 -0.801474829147745,51.4050946997404 -0.801431741011564,51.4049835988615 -0.801378601800089,51.4048715851803 -0.801207116871659,51.4046117435478 -0.801080990904754,51.4043218004211 -0.801039547864755,51.404256652635 -0.800804798758773,51.4039413275891 -0.800754177789556,51.4038464199448 -0.800674210797995,51.4037133663703 -0.800537806321816,51.4032138605956 -0.800403789358626,51.4030038429697 -0.800332405793468,51.4027647999186 -0.800187874766558,51.4023542078955 -0.800029441065979,51.4019812290098 -0.799905179955979,51.4019511923881 -0.799852579778648,51.4017644802301 -0.79970606634821,51.4014842159096 -0.799488163572706,51.4010243288582 -0.799081762978161,51.4004033079213 -0.798955097119332,51.4001349323737 -0.798788883146563,51.3994579357376 -0.798679830676277,51.3990647851428 -0.798571523440884,51.3988649174446 -0.798462348015055,51.3984223229244 -0.798265511473613,51.3979239045095 -0.798099685312903,51.3975041022357 -0.798049391742487,51.3972841520809 -0.798133101484751,51.3972193841221 -0.798055925056382,51.3969263430989 -0.798007471215729,51.3968034990757 -0.797909956218663,51.3966263051448 -0.797792192295819,51.3961862287307 -0.797791186060541,51.3961161003358 -0.797836811907032,51.3958539813179 -0.797843526920761,51.3957605586625 -0.797831994888646,51.3956534645818 -0.797540792906378,51.3951387964769 -0.797355319628255,51.3947547495769 -0.797204964147276,51.3945139977232 -0.796851105767575,51.3940347337669 -0.796830248913774,51.3940075517086 -0.796713367421092,51.3938597334584 -0.79614590752724,51.3931390664039 -0.79605616046985,51.3929960208136 -0.795966507268184,51.3928539652498 -0.795765503137323,51.3923537018429 -0.795610331981115,51.3919133289157 -0.795117242302327,51.39038408964 -0.794499285065745,51.3886341303373 -0.79424147863808,51.387834827763 -0.793599839771698,51.3859470786271 -0.793124866392451,51.3846077844273 -0.79235564983207,51.3823310887353 -0.792180764059078,51.3818275826052 -0.791698511927614,51.380439575265 -0.790859673651404,51.3778115555725 -0.790205780753464,51.375855335127 -0.78907116500018,51.372461654917 -0.788839993914029,51.3717507068192 -0.791863011861297,51.3716289793362 -0.795676719573233,51.3714875208888 -0.799763904488378,51.3713234780135 -0.799973906634855,51.3713148405332 -0.80038225891532,51.371299241859 -0.803869565672463,51.3711667671106 -0.80496389929339,51.3711221022672 -0.809194866354959,51.3709503040466 -0.809350296237406,51.3709401956756 -0.809589698057002,51.3709075676912 -0.813571306715724,51.3703184869801 -0.81453266323237,51.369533275936 -0.816557898793336,51.3685942938693 -0.819715311448264,51.3672053441816 -0.822091892948763,51.3661727188733 -0.823121800895312,51.3657254107681 -0.823306221139048,51.3656462665024 -0.825365745015825,51.3647605164692 -0.826791001315218,51.3641291671181 -0.826935314361524,51.3640479091153 -0.826982081205196,51.3640160148605 -0.827977255462634,51.3631258574498 -0.828066959881878,51.363044950415 -0.828095044251788,51.3630164648578 -0.828217436625565,51.3628890496428 -0.828276742130898,51.362815928702 -0.828375502874168,51.3626631966518 -0.828683631793396,51.3620700972198 -0.828799884090678,51.3617933951436 -0.829120570001041,51.3609908767229 -0.829132513168154,51.3609730174029 -0.829166508290756,51.3609356013182 -0.829245683323672,51.3608725668183 -0.829550254342476,51.3606966285795 -0.829617554317429,51.3606487571712 -0.829707136339032,51.3605723427541 -0.830150408814407,51.3600884609076 -0.830365067806996,51.3598344045085 -0.830367864848329,51.3597246715698 -0.830635638088952,51.3594216121488 -0.8311127414965,51.3590127669385 -0.831250409142352,51.3589682937887 -0.831301726966399,51.3589247571799 -0.831353186763402,51.3588803227639 -0.831497013825868,51.3587567137425 -0.831743735400041,51.3585451344216 -0.832032665712147,51.3582522612641 -0.832245024307236,51.3580924777213 -0.83247231825159,51.3578483411711 -0.832640957647132,51.3576009234275 -0.832597108810703,51.3575744180867 -0.833315400484697,51.3566059463113 -0.833378051533126,51.356456446642 -0.833490170375037,51.3563406097642 -0.833563504332485,51.3562226792917 -0.833601657045612,51.3561331650262 -0.833625534336193,51.3560416203943 -0.833662779037076,51.3557642173999 -0.833819275322941,51.3557099502189 -0.834061454282734,51.3555595392924 -0.834148267449313,51.3554794972138 -0.834209386937614,51.355390121238 -0.834338165728883,51.3550703893569 -0.83443498929104,51.3547080898069 -0.834422373223541,51.3546360490689 -0.834374281550556,51.3545528678852 -0.834375628224477,51.3544998437763 -0.83459031819331,51.3543032219175 -0.834678098155582,51.3542969027599 -0.834767397404745,51.3543427378366 -0.834826047736848,51.3543505126117 -0.835013772952619,51.3543110293875 -0.835208019450555,51.3540099293928 -0.835332176824486,51.3538718283631 -0.835426226411075,51.3537863752527 -0.835530174991253,51.3537074039603 -0.835644024885082,51.3536348227644 -0.835841964284123,51.3535333232536 -0.836044852169455,51.3534607288352 -0.836535638864176,51.3533622296259 -0.836658660538289,51.35332479751 -0.836818208396877,51.3532616595292 -0.836960726041232,51.3531883737088 -0.837092196474952,51.3531024817902 -0.837203680762933,51.3530109986924 -0.837349302933734,51.3528712213498 -0.837261757980974,51.3527561857971 -0.837082634671633,51.3526293636884 -0.836825195907376,51.3524766826308 -0.836682138975254,51.352337722094 -0.836626881636282,51.3523083176031 -0.836556865942811,51.3522959348229 -0.836528197860359,51.3522965490811 -0.836454653782705,51.3523066057706 -0.836375267107273,51.3523229859559 -0.836336031554694,51.3523387770198 -0.83628051111308,51.3523804757773 -0.836139244895256,51.3525678493061 -0.836105558404303,51.3525935830681 -0.836025945460303,51.3526188610496 -0.835992851434087,51.352621228668 -0.835588436291735,51.3526010253674 -0.83521416037581,51.3525829189766 -0.834908200282686,51.3525834699775 -0.834834843007415,51.3525908299337 -0.834719470255151,51.3526067634039 -0.834566356750469,51.3526448842734 -0.834399015593968,51.3527304176662 -0.834155180373245,51.3528907012952 -0.834066601711884,51.3529285650317 -0.833999978454047,51.3529503760662 -0.833875899702338,51.3529734130168 -0.833514913060069,51.3529958910116 -0.832944701647407,51.3530558381904 -0.832772762878584,51.3530379451626 -0.832383830687823,51.3529720449675 -0.832160144237876,51.3529590289884 -0.832055087247807,51.3529696692113 -0.831948378260162,51.3529847870822 -0.831594040194913,51.3530855324578 -0.83152008112334,51.3531117640726 -0.83127412414862,51.3532433442181 -0.831181050062501,51.3532855652515 -0.830927113856909,51.3533351722439 -0.830879719195234,51.3533364970673 -0.830826684595709,51.3533314739146 -0.830762440737339,51.3533155503264 -0.830709841204928,51.3532934511492 -0.830683257435098,51.3532680155589 -0.830672232767964,51.3532499269736 -0.830644451754414,51.3529879672443 -0.830515462636812,51.3529201593928 -0.830425668035923,51.3528940930939 -0.830362663019068,51.3528853734465 -0.830223503339132,51.3528821873389 -0.8299682598858,51.3529227889963 -0.829886534107134,51.3529192765378 -0.829789358056355,51.3528994286726 -0.829557286900383,51.3528206113332 -0.829351916103594,51.3527673214187 -0.829190063976538,51.3527486246448 -0.829058008487928,51.3527455081053 -0.828892581592834,51.3527555415388 -0.828723947945026,51.3527799254123 -0.828552379724637,51.3528078765205 -0.828217558887175,51.3528720411403 -0.828124465613097,51.3528639187135 -0.828055988966447,51.3528469630928 -0.827990625195672,51.3528193416626 -0.827936860156837,51.3527873410628 -0.827901887972083,51.3527519324441 -0.827882546004922,51.3527211752085 -0.82788007204914,51.3527067668553 -0.827937879943243,51.3524645399724 -0.827922208388969,51.3524059523077 -0.827903965112559,51.3523877912736 -0.827870093240974,51.352364978858 -0.827831729441892,51.3523511108259 -0.827793064319768,51.3523444315762 -0.827596199230712,51.3523523512856 -0.827349642176365,51.3523912366103 -0.82710386664732,51.3523393360209 -0.826982014282998,51.3523354191222 -0.826730254065477,51.3523508790463 -0.826533935966361,51.3523327328106 -0.826428470409396,51.3523038098418 -0.826388638458402,51.3522872299315 -0.82623005934114,51.3521453173199 -0.826059403889316,51.3519107818255 -0.825866538650933,51.3517577376085 -0.825723026214989,51.3515314736571 -0.82555152033924,51.3513859245978 -0.825534932377329,51.3513632846614 -0.82552120706673,51.3513397751027 -0.825509705156807,51.3512803296599 -0.825537821104459,51.3510791579061 -0.825534209949996,51.3509982169859 -0.82553025058994,51.3509261710719 -0.825498358599402,51.3508260689534 -0.825457462095054,51.3507447544314 -0.825350267969645,51.3506123447316 -0.825196777909691,51.3504939435025 -0.825131194970195,51.3504195720807 -0.825060533615806,51.3502614589243 -0.825055032821316,51.3502497168212 -0.824933924088263,51.3501568099758 -0.824796797230888,51.3500745301546 -0.82460319896351,51.350006066675 -0.82424538516118,51.3499053018444 -0.823958286167786,51.3498448895757 -0.823477680786424,51.3497726449564 -0.823369194942751,51.3497463854105 -0.823108434706108,51.3496700541868 -0.822821464762356,51.3495493198024 -0.82263875513754,51.3495088295857 -0.822551512823094,51.3494944696209 -0.822379591369901,51.349476561224 -0.822290697533286,51.3494711729348 -0.821809258690259,51.3494870108831 -0.821337313676753,51.3494696806688 -0.821260386021476,51.349445533975 -0.821209191952029,51.3494243436573 -0.821120262831336,51.3493650169847 -0.821099205352496,51.3493459272367 -0.821011986170792,51.3492200062099 -0.820954429137382,51.3491699852305 -0.820902160431452,51.3491352994448 -0.820804222436563,51.3490902655931 -0.820447567983715,51.3490002872801 -0.820335529046277,51.3490018564051 -0.820217344140508,51.3490214331344 -0.820181225919087,51.3490309581548 -0.819948367912179,51.3491499719121 -0.819870448444911,51.3491644694246 -0.819787310362963,51.3491609355788 -0.819713084930087,51.3491422093884 -0.819230785876392,51.348910726007 -0.819049123216077,51.3488297878998 -0.818996971850131,51.3487906072528 -0.818976192798569,51.3487607329938 -0.818966987665453,51.3487273785244 -0.818979973576523,51.3486689880071 -0.819097706522447,51.3485011717128 -0.819102594708225,51.3484814437793 -0.819097650161609,51.3484481331471 -0.81907971428553,51.3484227817921 -0.81903012835575,51.348394414796 -0.818553048169981,51.3482411895392 -0.818531830392922,51.3482283903286 -0.818503834774027,51.348202937464 -0.818494420552634,51.3481776719131 -0.818496373474223,51.3481570151986 -0.818506942195546,51.3481373454477 -0.818540658430217,51.3481107162717 -0.818763301391647,51.3480481464079 -0.818820140252888,51.3480154584424 -0.818842421197937,51.3479869164191 -0.818851754943081,51.3479600414272 -0.818850866795738,51.3479393569772 -0.818845414018342,51.3479258174937 -0.818768386470282,51.3478504284481 -0.818560686986417,51.3477232909355 -0.81835148131738,51.3476501640934 -0.818192792837853,51.3476197974082 -0.818029889938279,51.347592084569 -0.817714762225231,51.3476185685338 -0.817572750916128,51.3476117413189 -0.817433927639997,51.3475914615781 -0.81719423999323,51.3475342053906 -0.816994939602482,51.3475223036775 -0.816920648581317,51.3475062711163 -0.816869760603812,51.3474778887039 -0.81670031785329,51.3473088823021 -0.816641021352056,51.3472714254079 -0.816604037160912,51.3472548712913 -0.816522876739052,51.3472297787328 -0.816151334789598,51.3471621982753 -0.816118613381654,51.3471501804429 -0.816081745277388,51.3471291321694 -0.816050910205196,51.3471036497241 -0.816030251454346,51.3470691908263 -0.815982196879997,51.3468160987065 -0.815777046793049,51.3463607725131 -0.815620680248363,51.3462450236181 -0.815290325135906,51.3460267414597 -0.815266221618845,51.3460157106476 -0.815200735785032,51.3459934732753 -0.815106442427811,51.3459727418811 -0.815052161320206,51.3459658999031 -0.814820641173997,51.3459779396514 -0.814703223787191,51.3459632674513 -0.814413659072922,51.3458344821991 -0.814238854925844,51.3457085659892 -0.813956774444272,51.3453999741113 -0.813934972779662,51.3453548061296 -0.81393161712754,51.34531971274 -0.81393808745108,51.3452892140491 -0.813970940370085,51.345241002851 -0.814137196380301,51.3450879764447 -0.814313488637161,51.3449863821146 -0.814718312428272,51.3448231862252 -0.814757193543467,51.3447615512941 -0.814849318045341,51.3445862886834 -0.814969892721214,51.3445334827123 -0.815182351789271,51.3444798971237 -0.815272534986571,51.3444349634308 -0.815316542202959,51.3443994501676 -0.815346249359067,51.344358399623 -0.815363036383065,51.3443226109127 -0.815382695848545,51.3441707963257 -0.815326420669789,51.3438465134075 -0.815306141869108,51.3436871935934 -0.815290148977473,51.3435269280057 -0.815265879058554,51.3430771151748 -0.815319135853303,51.3429031674943 -0.815098137933095,51.3423424994185 -0.814677790477133,51.3421629475175 -0.814397520319807,51.3418993209446 -0.814310199600074,51.3417185553442 -0.814234953688025,51.3416296950497 -0.814080123581975,51.3415651993036 -0.813270762919127,51.3413870031323 -0.813114929469704,51.3413018193302 -0.813066240419905,51.341298628874 -0.812678637265816,51.3412955970925 -0.812270059583543,51.3413301075268 -0.812145252636151,51.3413270426158 -0.812063659356281,51.3413145283524 -0.811980880313748,51.341297506811 -0.811445689955132,51.3411743104396 -0.811305349488472,51.3411585014594 -0.811177632822801,51.3411581036172 -0.810607667995659,51.3412125439624 -0.810489798016009,51.3412158404945 -0.810395239189471,51.3412103852457 -0.81025352589294,51.3411927635165 -0.809725326872129,51.3410786188895 -0.809467936596645,51.3410390542366 -0.809401831425883,51.3410410786205 -0.809224653912715,51.3410627396071 -0.808857662953952,51.3411506997314 -0.808781404274205,51.3411562164125 -0.808707196140127,51.3411419765261 -0.80855677445979,51.3410721247868 -0.807941983765588,51.3411386813382 -0.807648152306368,51.3412309777854 -0.807584816067055,51.3412357261039 -0.807524905243649,51.3412225303303 -0.807206693249373,51.3410907368765 -0.807145316553194,51.3410793244044 -0.807090759507953,51.3410787684145 -0.807036039385913,51.3410845034616 -0.806998504611788,51.3410940096085 -0.806490143521491,51.3413198596662 -0.806393041716388,51.3413531198432 -0.806319509060599,51.3413676521997 -0.806185665401458,51.3413797718831 -0.805881678863685,51.3413613889523 -0.805762274661795,51.3413736554556 -0.805505181993326,51.3414321609936 -0.804764493712728,51.3416467329838 -0.804681039835001,51.3416557695016 -0.804625062647622,51.3416551978639 -0.804530641345304,51.3416398505881 -0.80444486622458,51.3415696646297 -0.804285982110048,51.3413882494211 -0.804233406106143,51.341366137406 -0.804151955886335,51.3413527198635 -0.804069827607453,51.341360870269 -0.803366749078011,51.3415128014121 -0.803173712100109,51.3415342003111 -0.802429147290301,51.3415697349205 -0.801695948247066,51.3415505450443 -0.801509512341915,51.3414866082478 -0.801376228360433,51.3414771525007 -0.801278852633281,51.3414707619496 -0.800988759351912,51.3415280216843 -0.800544618616824,51.3416548098928 -0.80048156400111,51.34165326461 -0.800448687066201,51.3416475342275 -0.800397414792646,51.3416299291046 -0.800252647841862,51.3415114906194 -0.800198628954901,51.3414902603927 -0.800161420359076,51.3414871822909 -0.800126888358061,51.3414904243362 -0.799785356226443,51.3415363659296 -0.799664528142378,51.3415441174788 -0.799535953170224,51.3415221224774 -0.799286853550801,51.3414961953773 -0.798901761226987,51.3415057287921 -0.798815254166185,51.341518325876 -0.798760370154355,51.3415348433557 -0.79870950984468,51.3415558963867 -0.798667123787266,51.3415834190018 -0.798643694886635,51.341601157527 -0.798487352042578,51.3417631638118 -0.798442596558659,51.3417725931504 -0.798367684721731,51.3417808137194 -0.798314500929782,51.3417820653394 -0.798192837513176,51.3417673326488 -0.797848108437096,51.3416091718797 -0.797745380088838,51.3415856427977 -0.79762315407528,51.3415924777623 -0.79733881833352,51.3415922547202 -0.796921474774612,51.341522252646 -0.796523283069423,51.3414848978216 -0.796028415987876,51.3412469788697 -0.795867675906306,51.3410834234775 -0.795789775526925,51.3410430674494 -0.795754081014467,51.3410319132755 -0.795661061184093,51.3410219669119 -0.795301372664835,51.3410515272322 -0.795252495307179,51.3410510242516 -0.795206673118248,51.3410469567248 -0.795166789351398,51.3410375567948 -0.794974753387705,51.3409663603838 -0.794929000441769,51.3409595967118 -0.794901898473668,51.3409548234469 -0.794854514292355,51.3409561332058 -0.794814089506443,51.3409629089901 -0.794498411025665,51.3410657357542 -0.794371621364292,51.3410842074588 -0.794302767609837,51.3410825991382 -0.794225511404484,51.3410719147688 -0.794151378212542,51.3410504755167 -0.794114476438699,51.3410357115469 -0.794072011333014,51.3410119016913 -0.793767964812294,51.3408333825797 -0.793589507462122,51.3406868112461 -0.793517930240315,51.3404594459294 -0.793318476774176,51.3400707479455 -0.793266730283181,51.3400171760978 -0.793228645662561,51.3399934102012 -0.793186087758059,51.3399731941472 -0.79309768396279,51.3399498096114 -0.792905924368042,51.339927066105 -0.792719229347536,51.3399278377631 -0.792236018557321,51.3399057740793 -0.791860263520256,51.3399433392299 -0.791443119820768,51.3400289292659 -0.791282082045565,51.3400398521654 -0.791118650939941,51.3400291752431 -0.79048840615756,51.3398634595518 -0.790299602970569,51.339836337981 -0.790041762239719,51.3398147962326 -0.7899775730783,51.3398024457112 -0.78991904159623,51.3397865585694 -0.789812745083532,51.3397369165756 -0.789604009578288,51.3395945206304 -0.789511233133288,51.3395709973868 -0.789465387879635,51.3395678266126 -0.789416536799569,51.3395709174496 -0.789277912097961,51.3395983406678 -0.789222221083292,51.3395869768367 -0.789205324588116,51.339576824397 -0.789183287543364,51.3395415369723 -0.789200131827117,51.339337647708 -0.789178852629269,51.3392736013161 -0.789152344551148,51.3392417736863 -0.7891129613774,51.339213498771 -0.789063233857145,51.3391914095594 -0.789017625405177,51.3391792507071 -0.788991946027375,51.3391744908072 -0.788399115689638,51.3391710539054 -0.788287427674188,51.3391600093316 -0.787966207569286,51.3390910604757 -0.787837999112478,51.3391050152795 -0.787597866608571,51.3391753445254 -0.787178143107043,51.3391970672644 -0.787079376355578,51.3391852561811 -0.786878012696148,51.3390869817117 -0.786812339028977,51.3389109146943 -0.786283922153547,51.338588015862 -0.786204068594046,51.3385683098883 -0.786116547080094,51.3385656040464 -0.786035769540306,51.3385809478696 -0.785781031620612,51.3386575045786 -0.785337391171663,51.3385494327402 -0.785048749058525,51.3384439560519 -0.784650940252848,51.3382320801513 -0.784643935078936,51.3382284115183 -0.784517488803425,51.3381219212219 -0.784398191094511,51.338018202615 -0.784327720356613,51.3379122030104 -0.784244566251645,51.3377486290159 -0.784230509137241,51.3377341001988 -0.784205043469281,51.3377212505138 -0.784168029265712,51.3377109777154 -0.78413361804602,51.3377097213688 -0.783953796937851,51.3377240363218 -0.783882182661851,51.3377152027074 -0.783846635450263,51.3377031466078 -0.783797103954372,51.3376738656422 -0.783596853190461,51.3374847140186 -0.783328265253795,51.3374360785101 -0.783319864290677,51.3374270009177 -0.783289955955764,51.3373628649658 -0.783328202095142,51.337111464143 -0.783226672351107,51.3368819849447 -0.78321723730038,51.3368000818154 -0.783333671803084,51.3363624195094 -0.783065856727256,51.3360116518342 -0.783041813204502,51.3359988166821 -0.782993417414337,51.3359848293487 -0.78295044065746,51.3359807878503 -0.782892885555171,51.3359864826515 -0.782727863453059,51.3359829697602 -0.78270071965193,51.335975495816 -0.782665340480634,51.3359571493196 -0.782647262541141,51.3359335890973 -0.782646627284842,51.3359039165128 -0.782654296101263,51.3358869156182 -0.782783427883748,51.3357794838215 -0.782804423302706,51.3357464409052 -0.782796809120123,51.3357076164442 -0.782781522757564,51.3356903770486 -0.782731802738891,51.3356682856209 -0.782289615980951,51.3356187432941 -0.782197062653266,51.3355872160972 -0.781818936201714,51.3353935158034 -0.78149187111686,51.3352741492989 -0.781223408941104,51.3351140393763 -0.781221988170876,51.3351140245966 -0.781141416924059,51.3350681483787 -0.780950135923071,51.3350239078012 -0.78086487498548,51.3349942538817 -0.780792820804485,51.334948555977 -0.780671436859203,51.3348169444954 -0.780630405895025,51.3347931441995 -0.780596187493038,51.334784697836 -0.780560405561419,51.334781627776 -0.78026091731523,51.334814468945 -0.780182256735921,51.3348037613506 -0.780139662411357,51.334785338994 -0.780105946566908,51.3347579288032 -0.780086735502668,51.3347235685378 -0.780082999954636,51.3347037532307 -0.780093003124688,51.3345986790278 -0.78007921033792,51.3345742638326 -0.780041471053754,51.3345379122116 -0.780016009921957,51.3345250616966 -0.779939807502336,51.3345287633684 -0.779768659954712,51.3345377679915 -0.779691562231625,51.3345261780373 -0.779658858826289,51.3345141512279 -0.779624855242443,51.3344976156969 -0.779417171509978,51.3343713059146 -0.779113395442404,51.3341865518292 -0.778467961779992,51.3338399289012 -0.778240838191498,51.3336927390008 -0.778096754833807,51.3334403381902 -0.778063230047236,51.3334058283712 -0.778002419192899,51.3333737306937 -0.777913942133612,51.33335392979 -0.777518279263822,51.3333318232589 -0.777442580038138,51.3333166495829 -0.777392793725568,51.3333017471624 -0.777155939572911,51.3331914003703 -0.777081826833797,51.3331744454875 -0.777047395528851,51.3331740860962 -0.776711490023003,51.3332281128505 -0.776649000089306,51.3332013903999 -0.776588142714019,51.3331710899084 -0.776325582936169,51.3328391505607 -0.776271900804376,51.3326992514069 -0.7762619063365,51.3326434119877 -0.776200706466015,51.3325681596313 -0.775732338940843,51.3322629246174 -0.775610167922359,51.3321617740835 -0.775518311700983,51.3320511415226 -0.775466206963731,51.3319589032434 -0.775199807014985,51.3319363412335 -0.775122093677696,51.3319436198965 -0.775097528590128,51.3319505540789 -0.774430091769259,51.3322726826732 -0.774071800380332,51.3324163629397 -0.773715572211125,51.3325313869048 -0.77324539645429,51.3326676008861 -0.772794607193472,51.3327779460678 -0.77267997509833,51.3328431504599 -0.772628403909912,51.3328724839075 -0.772392896228382,51.3331469852725 -0.772242721673029,51.3332883453652 -0.772184400075394,51.3333227936566 -0.772069417137656,51.3333827172121 -0.771959102252051,51.3334274083395 -0.771902654252656,51.33344488548 -0.771559188155742,51.3335114037233 -0.771470669549342,51.3335464333701 -0.771091722874575,51.3338158321632 -0.770770086164257,51.3340885270259 -0.770288704212519,51.3344305622054 -0.769639029126235,51.3348382491507 -0.769324714374745,51.3350489889801 -0.769032294052284,51.3351933453158 -0.76894567004159,51.3352679472844 -0.768968484463276,51.3354858239043 -0.768806738200899,51.335523677859 -0.768737150755465,51.3355499147944 -0.76770766620489,51.3360399774329 -0.767462396937491,51.3361380745503 -0.766541273771575,51.3364394870052 -0.765730708560766,51.3366872229925 -0.764662030432324,51.3370302130981 -0.764577972098404,51.3371147246272 -0.763009161541346,51.3387087000758 -0.76152053352628,51.340248576377 -0.761431566218209,51.3404094457918 -0.760613797543018,51.3402794206626 -0.760542229560791,51.340273267541 -0.760452035521275,51.3402642210525 -0.76037594469622,51.340263414235 -0.760332772508231,51.3402665523846 -0.760221977399344,51.3402752660702 -0.759322123438842,51.3404239348011 -0.75884204184693,51.3404970476741 -0.758540932393687,51.3405352923772 -0.758192612140745,51.3405684497557 -0.758386397931811,51.3412610843268 -0.758904211998886,51.3428213260453 -0.759051820608837,51.3430980640204 -0.759119048670525,51.3431599072275 -0.759219383351947,51.3432715433714 -0.759435167562702,51.3434698965903 -0.759267793288603,51.3435526225478 -0.758979090209871,51.343665613991 -0.758606742193632,51.3437371736852 -0.758462409145073,51.3437644079464 -0.75836062073583,51.3437066925313 -0.758231069544294,51.3437170028627 -0.757645735178704,51.343964381831 -0.757580384784071,51.3439951510247 -0.757453855720254,51.3440513392398 -0.75721470771929,51.3441350980734 -0.757103581342889,51.3442651648145 -0.756973434684772,51.3442449030712 -0.756889442514078,51.3443259054402 -0.756551545273966,51.3445021047286 -0.756452432548973,51.3446081169207 -0.756392470065685,51.3446497298221 -0.756022338514097,51.3448489573333 -0.755733214514917,51.3450293592469 -0.75549622643504,51.3451904480932 -0.755074084963309,51.3455088610199 -0.754529688871495,51.3459391497688 -0.754242644933238,51.3461995776205 -0.754085628609579,51.3462707208123 -0.753946490277026,51.3464247590964 -0.753722002083441,51.3466570854767 -0.753627481840986,51.3468071936779 -0.753557533488069,51.3468981424174 -0.752957612655943,51.3475760363443 -0.752914738310428,51.3476726669825 -0.752829725621887,51.34773837368 -0.752650395232851,51.3479945533083 -0.752408977063653,51.3484793057862 -0.752357040510497,51.3485389814754 -0.752323237022794,51.348567387794 -0.752238538864929,51.348621411223 -0.751051319797372,51.3492426953647 -0.75033056628335,51.3496108657304 -0.749751689751427,51.3499338015282 -0.749596295476782,51.3501011486076 -0.74944831427378,51.3502614726303 -0.749184613107927,51.3506102458621 -0.749058781514772,51.3506961051197 -0.748886384795721,51.3509092121688 -0.748816731099051,51.3510973460872 -0.748749991492036,51.351543521004 -0.748784070643095,51.3516616519986 -0.748053035595279,51.3523481325343 -0.747801603071728,51.3525108603643 -0.747001826619458,51.3529816512397 -0.746450538645525,51.3533453288626 -0.745844230028682,51.3537722435759 -0.745253510473998,51.3541049282564 -0.745014789947658,51.3542220273006 -0.744744731225122,51.3543809531337 -0.744616481770298,51.3544505989949 -0.744485512423634,51.3545158110665 -0.744325979010401,51.3545689403745 -0.743509840912288,51.3553191182248 -0.742507208138062,51.3562193088232 -0.742045012580633,51.3566261751229 -0.741848716322669,51.3568192384134 -0.741418276815087,51.3571212610698 -0.741295604741158,51.3572980338869 -0.740535257046051,51.3581045279203 -0.739611028718597,51.3591251028046 -0.739100765081349,51.3598183988029 -0.738907102709745,51.360173303403 -0.737899254082651,51.3619366091801 -0.737760141561996,51.3622408575139 -0.737725005515771,51.3623169833833 -0.737651958779882,51.3624150849318 -0.737277841464814,51.3628022051824 -0.736854303500145,51.3632634964826 -0.736320519255802,51.363870133344 -0.735980952775863,51.3642576219947 -0.735335360826244,51.3650095832703 -0.735258360031567,51.365040216935 -0.733600972377593,51.365708514248 -0.731852843852571,51.3664314518754 -0.731259562733932,51.3665859480492 -0.731048389800334,51.3666412856956 -0.728450388014596,51.3673414792095 -0.725589355419451,51.3680971885526 -0.724293518474242,51.3684608410843 -0.723436011645453,51.3686124192069 -0.722378010996389,51.3687879666172 -0.720668353574368,51.3690507834565 -0.718705832602124,51.3693629520511 -0.716928621823245,51.3696258725132 -0.7134375748407,51.3701918830014 -0.712217812407154,51.3704014292821 -0.710484902621202,51.3706701320559 -0.710065411907723,51.3707688971361 -0.708431961187851,51.3712275432289 -0.708430540771016,51.3712275275683 -0.707900153447949,51.3713394456342 -0.705806224692657,51.371924227461 -0.705151398068992,51.372117555453 -0.704582525408916,51.3722703867891 -0.704156662339874,51.372392524371 -0.703450127272841,51.3725833833912 -0.701122202290295,51.3732617724398 -0.700536088890072,51.3734116972535 -0.700337439306785,51.3734742204183 -0.69998084942015,51.373588120827 -0.699310746264147,51.3737586830726 -0.697853448512478,51.3741804807362 -0.697006879035952,51.3743949163273 -0.696509663522959,51.3745503941602 -0.695806073574408,51.3747853806033 -0.694247597401405,51.3752760386754 -0.69278247322161,51.3757696061929 -0.691034910983582,51.3763373126859 -0.689871482026479,51.3767262454908 -0.689392707409879,51.3768854946112 -0.687809447336121,51.3774342247578 -0.686449333997637,51.3779172018519 -0.684627869279403,51.378548711995 -0.68348693561915,51.3789549150517 -0.681481366594097,51.3796410324249 -0.680059144727825,51.3801285409319 -0.678553391483535,51.3806727146715 -0.677348572068866,51.3810925210283 -0.675994984978499,51.3815880364801 -0.675280197951692,51.3818587333217 -0.674623241569932,51.3820671499204 -0.673559594899839,51.382474131066 -0.671881447312637,51.3830621155117 -0.671227863529892,51.3833002184292 -0.669959267216972,51.38373271086 -0.667634283855982,51.3845713456129 -0.668367286913773,51.3848152898714 -0.669169499456785,51.3850509387574 -0.669593867840195,51.3851879924311 -0.66995951345104,51.3853152997547 -0.670368207558187,51.3854413873327 -0.671387346231044,51.3857811558113 -0.671898011333354,51.3866096596758 -0.672738940714133,51.3880939125922 -0.672952520886179,51.3884119530499 -0.673162950295025,51.3887407454549 -0.673566157024195,51.3890087969146 -0.673774551256119,51.3891621818044 -0.674116286479988,51.3893720035114 -0.674634364683845,51.3897456323411 -0.675667033007143,51.390466776762 -0.678152413797808,51.3921531003939 -0.678520277931089,51.3924035645788 -0.679104581942581,51.3928256471264 -0.67943296724921,51.3930522880451 -0.679674553171857,51.3933014101898 -0.679826931522576,51.393500083453 -0.679999012567255,51.3937637015255 -0.680313643817187,51.39421770054 -0.680727599969239,51.3947663943705 -0.680889609696113,51.3950343914308 -0.681201519717909,51.3954847586908 -0.681301359922583,51.3956603642064 -0.681357765143009,51.3957472953893 -0.681695062873462,51.3962177236225 -0.681865485852176,51.3964903069299 -0.682049754098062,51.3967306844086 -0.682128372726883,51.3968448330087 -0.682278630184336,51.3970686463009 -0.682477956017419,51.3973873975804 -0.682681429263946,51.3976567548175 -0.682814718757737,51.3978731852243 -0.683021157927758,51.3981425747674 -0.683404157643972,51.3986737345293 -0.683517651448248,51.398824320346 -0.683709425296747,51.3990556986292 -0.683854665245775,51.399252483931 -0.684189049587461,51.3998263309833 -0.684405474013643,51.4000994241109 -0.684792180357326,51.4006512981378 -0.685044362837305,51.400979728686 -0.685051081507789,51.4010472245284 -0.685563181103935,51.4016869128053 -0.686610710921565,51.4029602462546 -0.686870400650347,51.4032302347844 -0.687163336091647,51.403494212752 -0.68737773194273,51.4036405367414 -0.687591653976364,51.4037993501571 -0.688799600188591,51.4046437722138 -0.68922088058987,51.4049470255381 -0.689615920290647,51.4052104295371 -0.690003171841836,51.4054935224617 -0.690434203731677,51.4057546287909 -0.690650097028783,51.4058990743437 -0.69175287694617,51.4066522971862 -0.691965133796268,51.4067707196009 -0.692149650190926,51.4069058220292 -0.692293923880985,51.4070387664078 -0.692736881485355,51.4073898887121 -0.693107179300999,51.4077159265317 -0.693338326542612,51.407928854235 -0.693690613269004,51.4082798595547 -0.694070023098429,51.4086402438116 -0.695338763463804,51.409835869547 -0.696002596636097,51.4104052853756 -0.696540470455116,51.4109103697849 -0.696418815203326,51.411040264148 -0.696330853996237,51.4111526442386 -0.696237794029925,51.4112900484283 -0.696192481868311,51.4113659550615 -0.696139776955498,51.4117520098931 -0.696101628129581,51.4124350623794 -0.69604135865864,51.4126366565463 -0.696057693292625,51.4127168457556 -0.69615625572329,51.4128906314667 -0.696116537465639,51.4130241338183 -0.696031774208982,51.4131239640557 -0.695980200033737,51.4131656417216 -0.695921565494181,51.4132054424037 -0.695752476792145,51.4132853664121 -0.695515833329134,51.4134185650937 -0.695144819516916,51.4136698300878 -0.695047953193125,51.4137406683786 -0.694892860614424,51.4138827749089 -0.694670364390856,51.4140727648657 -0.693900739827615,51.4147898324423 -0.693667044547385,51.4150147556549 -0.693067438790992,51.4156186459266 -0.692791749866248,51.4159105220658 -0.692434829835122,51.4163731919717 -0.692083591013013,51.4167361401983 -0.691248626004422,51.4176251594404 -0.690799974835258,51.4180770074247 -0.690619025737814,51.4182682648315 -0.690439613715927,51.4184596299432 -0.690082666696739,51.4188719549012 -0.689768331281385,51.4190501246699 -0.689215512380901,51.4193245151886 -0.688672233388917,51.419613392875 -0.688348224208334,51.4197769776617 -0.688176045381227,51.4198641398366 -0.687675048860409,51.4201336183963 -0.687060667234438,51.4204450665299 -0.686503899955162,51.4207526615145 -0.686116926822484,51.4209569766129 -0.685917065830991,51.4210581185245 -0.685514795480971,51.4212415852683 -0.685084536199522,51.4214499070241 -0.684781731966247,51.4216299003894 -0.684780190675316,51.4216298831049 -0.68466345723802,51.4217886799896 -0.683815712633113,51.4225156035526 -0.683134908423845,51.4231311256623 -0.682801549123706,51.4234205347343 -0.681794744602285,51.4242742993907 -0.680803578155766,51.4251273321149 -0.680578568083732,51.4253513408038 -0.680410156799671,51.4255536015153 -0.680203691165346,51.4259325299064 -0.680079051958717,51.4262125945432 -0.679710126614068,51.4268378985237 -0.679468744536829,51.4272263221812 -0.679279828187821,51.4276459907093 -0.679071932989941,51.4279709627391 -0.678772801817672,51.428465711657 -0.67875606821271,51.4285977613125 -0.67882689246021,51.4288358860632 -0.678879769764096,51.4290999688434 -0.678902918389807,51.4293421416404 -0.678954011990566,51.4296187898157 -0.678977587682033,51.429949066191 -0.678976550237793,51.4300344565362 -0.678623051354589,51.4301681061576 -0.678019509803341,51.4304463680887 -0.677423663543447,51.4307084413301 -0.677325917335439,51.4307541751613 -0.677236647698986,51.4308062073591 -0.677150262451195,51.4308609696941 -0.676948351879415,51.431026798608 -0.676638002628249,51.4313128547265 -0.676436514800155,51.4314679903547 -0.676260503648725,51.4315828698535 -0.675655082265691,51.4315760353394 -0.675282165383551,51.4315394608964 -0.674479789981449,51.4314773566728 -0.673444298941458,51.4314171048918 -0.673028536523075,51.431369251567 -0.672475752715555,51.4313306330519 -0.671257117986516,51.4311890905529 -0.670063801641748,51.4310173468284 -0.66951888273401,51.4309572284283 -0.668723801202621,51.4308447353581 -0.667948432998634,51.4307478329787 -0.667517428353701,51.4303311208845 -0.667341510437244,51.4301483392541 -0.667137841002415,51.4299778284232 -0.666759563243944,51.4296327298245 -0.666577629758473,51.4294571605438 -0.666270619265875,51.4291820919894 -0.66589616896612,51.428750733587 -0.665721556353247,51.4285724595002 -0.665549334933893,51.4283609509048 -0.665347390988007,51.4281357089467 -0.665194372300103,51.4279531845445 -0.665057813582553,51.427804199558 -0.664923363097406,51.4275787358985 -0.664691343640356,51.4272991222158 -0.66446700749287,51.4270978065875 -0.663997124394207,51.4265889424432 -0.663925753702417,51.4265189088026 -0.663768186606361,51.426399259344 -0.663542102904511,51.4262582420346 -0.663096137160277,51.4260157410995 -0.662891117420582,51.4259414864528 -0.661275870543959,51.4252504513127 -0.660182359596385,51.4247703203927 -0.659171727286721,51.4243604372698 -0.658573691303414,51.4241044938015 -0.658461407818684,51.4240591599285 -0.658358834246241,51.4240265226023 -0.658254691728818,51.423994766462 -0.657987713776165,51.4239269862788 -0.657405979251114,51.4239004604654 -0.657210859255045,51.4238856409764 -0.656850902217057,51.4238464590549 -0.656653016160279,51.4238289101745 -0.656453483599416,51.4238149381042 -0.656301003409005,51.4238140894852 -0.656149931430856,51.423817752938 -0.655669872249134,51.4238545021159 -0.65512712636965,51.42387345057 -0.654462190771296,51.4239342348925 -0.654059042722172,51.4239484871671 -0.653861999055612,51.4239507208358 -0.653759180371214,51.4238740271183 -0.653476953864866,51.4236432574201 -0.653402283430597,51.4235893609465 -0.653324719024161,51.423537139724 -0.653067186741658,51.4233903463335 -0.652834168671946,51.4232447340936 -0.652435286681108,51.4230171169544 -0.65193697709122,51.4227470027952 -0.651897279147421,51.4227258705307 -0.651440730960115,51.4224553350792 -0.650476436851863,51.421937942796 -0.649740898247855,51.421517658255 -0.649475958717615,51.4213815605876 -0.649260106401634,51.4212899864304 -0.649159920477648,51.4212250053148 -0.648906059817293,51.4211034170963 -0.64854617584696,51.4209661335292 -0.648096997699123,51.4207847582202 -0.647620428430459,51.4206074697303 -0.647251599205054,51.4204360081388 -0.646943342013172,51.4203056069764 -0.646817214167301,51.4202439205348 -0.646791626142534,51.4202310396906 -0.646699622311253,51.4201823324558 -0.646477715282403,51.4200512188129 -0.646351657749579,51.4199831499518 -0.646222845536922,51.4199160383051 -0.646114798689683,51.4198725398798 -0.645790514880161,51.4197510301316 -0.64565931524381,51.4197126575009 -0.645383995960087,51.419635671739 -0.644817244062697,51.419493380079 -0.644605185732534,51.4194666565681 -0.644504362781734,51.4194265555877 -0.644470170953284,51.4194129561162 -0.644364865926628,51.4193730828683 -0.644348782566472,51.4192874055055 -0.644298173988294,51.4191501764208 -0.644278898730938,51.4191202871503 -0.644229185423375,51.4190972389273 -0.644108314894824,51.4190544887091 -0.644039741668715,51.4190356267733 -0.643959547614242,51.4190248107092 -0.643872017294459,51.4190175057712 -0.643586826627825,51.4190339843146 -0.643512348090338,51.4190223357205 -0.643440940401863,51.4190071256862 -0.643355549714706,51.4189755731337 -0.643274678376152,51.4189395775578 -0.643209757206869,51.418897473657 -0.643149210883815,51.4188518252197 -0.642995314126417,51.4187070177469 -0.642917288504907,51.4185748652556 -0.642751682545516,51.4183409243857 -0.642617313305242,51.4181173235591 -0.642525481836903,51.4180109906088 -0.642477870317797,51.4179690866496 -0.642425844632131,51.4179280308007 -0.642277692194789,51.4178337220876 -0.642059626531191,51.4177178368708 -0.641693207657593,51.4175625661512 -0.641595154412731,51.4174742303911 -0.641489384216059,51.417354250308 -0.641424840975275,51.4172995650593 -0.641357291750966,51.4172502376251 -0.641235712919454,51.4171796081864 -0.641070741335591,51.4170688315358 -0.640965475148856,51.4169318668219 -0.640871027346176,51.4166259310139 -0.640759951361043,51.416344973595 -0.64073102759044,51.4161566635526 -0.640712050247294,51.4161168883103 -0.640688724875529,51.4160797603527 -0.640601881394659,51.4160014425047 -0.640441187153698,51.4157945239818 -0.640333594502337,51.4157402373626 -0.640107965180601,51.4156360370597 -0.639819483107235,51.4155202302551 -0.639754251580804,51.4154889088482 -0.639648268745403,51.415428347457 -0.639556830555875,51.4153571666477 -0.639390489188454,51.4151969275432 -0.639334070903576,51.4151603145741 -0.639273106841847,51.4151290424078 -0.639126640354496,51.4150743026898 -0.638755167481581,51.4148946020626 -0.638672235414319,51.4148325097755 -0.638593116811631,51.4147857432013 -0.638418916789758,51.4146947231389 -0.638326548363823,51.4146549945777 -0.638147985337165,51.41461516423 -0.637787324225746,51.4145587453957 -0.637243480480539,51.4145182650991 -0.63654326395776,51.4144175323501 -0.636210309076361,51.4143983783138 -0.635994488521137,51.4143994642456 -0.635677324556345,51.4143795931319 -0.635446709029949,51.4143957883349 -0.635395700829413,51.4142251990249 -0.635375451784182,51.414184509751 -0.635322689651594,51.4141686133558 -0.635321293258476,51.4141676978761 -0.635119540726137,51.4142778111419 -0.634985931106196,51.4143212048992 -0.634783120653015,51.4143233382281 -0.634417359064946,51.4143388565832 -0.634040806526052,51.4143344704263 -0.632805420925241,51.4143362535558 -0.63235909881156,51.4143535228881 -0.631754972015622,51.4143626563445 -0.631483572347172,51.4143945481626 -0.631309270281672,51.4144545434314 -0.631463736413136,51.4146739870659 -0.631515533823502,51.4147698830215 -0.631466435551244,51.414921326593 -0.631402917987877,51.4152182348208 -0.63131581531601,51.4154869996663 -0.63127576098861,51.4159154323759 -0.631247873952035,51.4164169130325 -0.631291762147675,51.4168256486642 -0.631342517281399,51.416956591652 -0.631470104290058,51.417163136676 -0.631667327780701,51.4175395009347 -0.631767361118915,51.4177556129579 -0.631851698643823,51.4179652480347 -0.631887350778126,51.4180699449999 -0.631932527086788,51.4182926079218 -0.632063848848189,51.418855189199 -0.632056473003349,51.4190071188183 -0.632071989416813,51.4192104681726 -0.631997717031714,51.4193867885799 -0.631970404543038,51.4195789401266 -0.631974758645371,51.4197192302664 -0.631917952763799,51.4198903617126 -0.631812521406019,51.4202883651841 -0.631685444041518,51.4206924078664 -0.631640540102848,51.4209454845434 -0.63163826111384,51.421021869965 -0.631584623626832,51.421420567505 -0.631506785037424,51.4219069919304 -0.631412638489175,51.4223636493955 -0.631229508633161,51.4228614302753 -0.631260598646687,51.4229283172491 -0.631324544932541,51.4230028696704 -0.631593451966426,51.4231992865152 -0.631752937179694,51.4232992255426 -0.631936024979429,51.4234308138114 -0.632263614618026,51.4236837396147 -0.632387290517401,51.4237795741355 -0.632624900902829,51.4239162924084 -0.632811881288211,51.4240129545472 -0.632950066564363,51.4241035631481 -0.633000317599898,51.424156289838 -0.633083405971766,51.4242652243046 -0.633220040030158,51.4244556010025 -0.633638482842576,51.424943404549 -0.633776393209532,51.4250951402863 -0.633933315056506,51.4252337015178 -0.634262865932862,51.4255648556435 -0.63462574784067,51.4258442559911 -0.634965596970294,51.4261206011141 -0.634966993742525,51.4261215156999 -0.635315315741217,51.426451985481 -0.635676753769322,51.4267763148687 -0.636606596278192,51.4275766930999 -0.637146191485687,51.4280046717869 -0.636967561795827,51.4283523855918 -0.636407388266657,51.4293899375396 -0.636170587266456,51.4298547383867 -0.635933616828097,51.430325021157 -0.634770221446248,51.4327303431112 -0.634768770964317,51.432731225453 -0.634707235034979,51.4328618484022 -0.634347000108077,51.4336066752165 -0.633992628705119,51.434297631776 -0.63323107162645,51.4358624053177 -0.632833075628278,51.4366626140409 -0.632714652847307,51.4369660740853 -0.632485891881549,51.4374490298448 -0.632096972421255,51.4384291359249 -0.631967346132574,51.438773817246 -0.631724959916087,51.4393231364281 -0.631578255807584,51.4397071723401 -0.630952866150281,51.4411358873405 -0.630787527882881,51.4416150856465 -0.630552938632746,51.442192361264 -0.630775791213362,51.4421985590866 -0.631078284814568,51.4421877069133 -0.631586030683535,51.4421486832604 -0.632091968238548,51.4421185359638 -0.63274516917966,51.4420713157437 -0.633763880340354,51.441972613428 -0.634495651847219,51.4419002283272 -0.634497075843081,51.441900244906 -0.63508914226397,51.4418261394016 -0.636083584428942,51.4417253351997 -0.636724836435062,51.4416446909572 -0.63706121500112,51.4416072482405 -0.638130471011916,51.4415036109654 -0.639943903687871,51.4412926273674 -0.64171723473855,51.4410291024465 -0.641949622249019,51.441005632988 -0.642091677020884,51.4410199530871 -0.642315948200483,51.4410261452062 -0.642777671745235,51.441078234895 -0.643686479003473,51.4411921282964 -0.644082493221376,51.4412317666751 -0.644217345127894,51.4412450117794 -0.645497651170542,51.441353296628 -0.64604046240489,51.4413875213641 -0.646595870588733,51.4414370813332 -0.650029751127637,51.4417031918588 -0.650799123072567,51.4417669704049 -0.651291488921197,51.4417096150936 -0.652197492651363,51.4415770946675 -0.653030541805047,51.4414805871437 -0.653868452302857,51.4413678580181 -0.654035392133454,51.4414156209404 -0.654909601293314,51.4417313893511 -0.655844530081962,51.4420847045766 -0.657715310714125,51.4427653433142 -0.659134600374577,51.4432877873826 -0.660815011507,51.4438887986693 -0.661982328325828,51.4443193337879 -0.661700253227662,51.4447154370076 -0.660958098479379,51.445687110407 -0.660348473369738,51.4464588340088 -0.659718827698447,51.4473221102105 -0.659356896868485,51.4477900204594 -0.658666999538447,51.4487443865981 -0.658224300801927,51.4493156505689 -0.658263300597928,51.4497504769266 -0.658324825320699,51.4505019979108 -0.65836353990023,51.4510959393896 -0.658450389966177,51.4517156025629 -0.658463546699659,51.4520035131985 -0.658430888650651,51.4521379847096 -0.658392786475012,51.4524055313939 -0.658312362380819,51.4527445103033 -0.658258654706319,51.4530823641389 -0.658245289102276,51.4531664380296 -0.658149074292937,51.4536472732056 -0.657938933243161,51.4547797254509 -0.65788251934597,51.4551819073701 -0.657809917151045,51.45559379275 -0.657736006078923,51.4560057521072 -0.657654451576109,51.4563788790254 -0.657603212715751,51.4567541504182 -0.657475951952971,51.457410917929 -0.657191631141856,51.4590073763039 -0.657028963356823,51.4597896886895 -0.65690452239753,51.4605471773022 -0.656755756603434,51.4614941608613 -0.659061829264028,51.4616914456461 -0.660001135021148,51.4617633122139 -0.660971593817922,51.4618535052861 -0.661394374047497,51.462014843699 -0.662645486128118,51.4625488133897 -0.665015833388763,51.4624661439658 -0.665169851699526,51.46236990866 -0.665869369529661,51.461878757681 -0.666186250619576,51.4616269630263 -0.666550179499821,51.4613855921763 -0.667234411462423,51.4608763688639 -0.667606209138858,51.4606171039445 -0.66788050754086,51.4604412339774 -0.668083240165209,51.4602979022586 -0.668443990621161,51.4600223279783 -0.668666592444374,51.4598404760108 -0.66882093442123,51.4597325533501 -0.668901534161617,51.4596831256741 -0.66911034443073,51.4595794169262 -0.669326838942227,51.4594604217118 -0.670329101469748,51.458998840241 -0.670736510362895,51.458799302249 -0.67123551957586,51.4585675409715 -0.672365657134181,51.4580165986655 -0.672746126800362,51.4578491131412 -0.673151427295094,51.4581180860391 -0.673652695691929,51.4585032105341 -0.674247463183112,51.4589874690813 -0.674457403055835,51.4591921115743 -0.674720612609169,51.4593974465822 -0.674928439834576,51.4595768939344 -0.675197597445945,51.4597777998552 -0.675459000298622,51.4599965968712 -0.675752319712085,51.4602075734386 -0.675959092282938,51.4603745104703 -0.676341586031776,51.4606333290959 -0.676744806998222,51.4609265414298 -0.676832232839422,51.4609895580615 -0.677265727099814,51.4612786149999 -0.677391314934728,51.4613681314114 -0.677668752237737,51.461579014137 -0.678322593888514,51.4620179850625 -0.679308735065977,51.4627089024957 -0.679776570330474,51.4630100246174 -0.680304806416283,51.4631103638192 -0.681153057956271,51.4632467539952 -0.681659953276115,51.4633423518399 -0.682006925478636,51.4633903024795 -0.682132542245709,51.4634258754725 -0.682287793755767,51.4633844696354 -0.682377158751148,51.4636318841363 -0.682395475238752,51.4636428771931 -0.682548993909523,51.4637111267684 -0.683015966663605,51.4638908640222 -0.683608839410116,51.4641502249261 -0.68394252592227,51.4643094935959 -0.684544794400598,51.4645437839412 -0.684749612909855,51.4646278887515 -0.685381863487916,51.464967694939 -0.685882855310593,51.4652700679901 -0.686263148746489,51.4654605103341 -0.686938081882321,51.46586911102 -0.687627035891902,51.4662446023587 -0.688039215444499,51.4664785481036 -0.688288280345491,51.4666305669198 -0.688866170515666,51.4669598587046 -0.689276005670122,51.4669779293011 -0.69003516750661,51.4669136021925 -0.690143213704098,51.4669085173117 -0.690591121518335,51.4669027367186 -0.690907512009464,51.4669134634729 -0.692672297992379,51.4670239657185 -0.693450571518888,51.4670965652728 -0.693587542660612,51.4671385467336 -0.693703497113054,51.4671641119019 -0.693822360210914,51.4671834174459 -0.693945922449837,51.4671919861773 -0.694135956965408,51.467192306858 -0.695079776592528,51.4672666511188 -0.696049710165197,51.4673286917306 -0.696808184617266,51.4673883733264 -0.698319934876189,51.4674861775439 -0.698999954228446,51.4675207009159 -0.699364901007516,51.4675481260516 -0.700075977115319,51.4676009674489 -0.702878847633786,51.4676626010649 -0.70403228413785,51.4677050350972 -0.704453807600289,51.4677132940672 -0.704866813262773,51.4677205580983 -0.705336431635758,51.4677113652691 -0.705708530262578,51.4677379521665 -0.705709953686847,51.4677379678946 -0.707322820679812,51.4676739703294 -0.710133022520848,51.4674720217624 -0.710292412701999,51.4668748726013 -0.710475798064528,51.4663949448828 -0.711365048125456,51.4665656498127 -0.711793394680198,51.4666432693297 -0.712115342149023,51.4667097385841 -0.712884518832221,51.4668494448022 -0.713109060000466,51.4669058512223 -0.71441818197128,51.4671441640858 -0.714592857611421,51.4669221434063 -0.714712152651602,51.4667742212322 -0.715172494539879,51.4661731743017 -0.715458248346958,51.4658417960554 -0.715698403336067,51.4655404824288 -0.716734603178891,51.4644241506607 -0.717177732291211,51.4638679465262 -0.717381793577251,51.4636255670499 -0.717472807427663,51.4635078076648 -0.717721804927832,51.4631526472232 -0.718189732188947,51.4625831364993 -0.71829067659503,51.4624242216113 -0.718312174035046,51.462321971815 -0.718725234076199,51.4620710896685 -0.718907859548438,51.4620766834119 -0.718991732152739,51.4619085006257 -0.719213794935668,51.4614334773147 -0.719364937467621,51.4611770307617 -0.719698299418464,51.460681557914 -0.720399502685009,51.4599042256265 -0.720500005579585,51.4598073338642 -0.720771264468595,51.4595288244696 -0.72098673787652,51.4593396036122 -0.72175295424192,51.4587571542009 -0.722009710315489,51.4585810577764 -0.72228023925351,51.4584301927594 -0.722516188660344,51.4582808374639 -0.722769573299947,51.4580722497659 -0.722860673236045,51.4580058187552 -0.723088933405242,51.4578724704293 -0.723306457866338,51.457711226076 -0.723672665437228,51.4573249678273 -0.723892446599207,51.4570315058868 -0.723982776460344,51.4568903599763 -0.724131744562042,51.4567103876473 -0.724250712710865,51.4565210086808 -0.724320765961845,51.4564345692851 -0.724542057932884,51.4561887690167 -0.724526232749236,51.4561391526177 -0.72577981747435,51.4563469787794 -0.726645987887712,51.4565147110791 -0.726800705072831,51.4565415647314 -0.727260795228872,51.4566103937463 -0.727626722129582,51.4566512278868 -0.728458211401442,51.4567691250515 -0.729287828798922,51.4569075833024 -0.730222304330102,51.4570480708955 -0.730694802967546,51.4571404849242 -0.732650296664992,51.4574728008013 -0.733173286991819,51.4575593674433 -0.734198127974818,51.4577160833509 -0.735760917295225,51.4579892677073 -0.736215637321089,51.4580985492419 -0.736829831762553,51.4582175501321 -0.737988918999742,51.4584125433151 -0.738456668020332,51.4584671178947 -0.739372017404985,51.4586271070549 -0.739759312895664,51.4586771250392 -0.740231895511339,51.4587632089636 -0.740771205534978,51.4588310399831 -0.740861552472734,51.4588427997963 -0.74107100359482,51.458869324319 -0.741853322488542,51.4588957126113 -0.742310932647051,51.4589006288755 -0.742789095035959,51.4588356439392 -0.743169496534856,51.4587695168612 -0.743639648697406,51.4587368052496 -0.743967335554652,51.4587016643356 -0.744115206318773,51.4586627963462 -0.744056154858466,51.4587691420474 -0.744539535538729,51.4587257814387 -0.744876788641997,51.4587096192281 -0.745039523353646,51.4587086667379 -0.745202015509745,51.4587122058271 -0.745548096973626,51.4587419849797 -0.745893268249832,51.4588050153576 -0.746523728856211,51.459068065864 -0.746852993562005,51.4592397902989 -0.747354617586132,51.4594753873218 -0.74978257129103,51.4607017449498 -0.750993515728992,51.461323458018 -0.751777714086937,51.4617572142037 -0.752752386472378,51.4622270587016 -0.753499321019122,51.4617026290843 -0.754944695389241,51.4606937868559 -0.75545511545097,51.4603458207681 -0.756429501637031,51.4596071365632 -0.757086357762061,51.4591626395738 -0.757329114646446,51.4590249741995 -0.757813519269638,51.4589959491812 -0.758555269023355,51.4590307786754 -0.759720376853101,51.4590601971587 -0.760021932622349,51.4590867613281 -0.760514121950292,51.4590901708912 -0.760745497242927,51.459105203652 -0.761242423159346,51.4591967587616 -0.761506816615511,51.4592678751235 -0.762037012660042,51.4593580716193 -0.762248160877299,51.4594277244951 -0.762941721427392,51.4597003350947 -0.763151647183889,51.4596044728969 -0.763310504346049,51.45958457424 -0.763526613068995,51.4595760666152 -0.763724185437106,51.459616807138 -0.76382818969404,51.4596548518 -0.763933595040859,51.4596982156907 -0.764153255829639,51.4598263884139 -0.764345330064305,51.4598553825758 -0.764478856247857,51.4598154376038 -0.764547244452877,51.4597352514468 -0.76462816963277,51.459722619744 -0.764819145872137,51.4598450951871 -0.765013429704831,51.4599550195433 -0.765338976407517,51.460210250583 -0.765566454763576,51.4603700566561 -0.765871313126234,51.4605431727593 -0.7663500278044,51.460831478276 -0.767153943283333,51.4614460223023 -0.767730676207113,51.4618414304981 -0.768077699786058,51.4621022730406 -0.768483502145396,51.4623754166345 -0.769046114503556,51.4628111175146 -0.769559439945684,51.4632086314632 -0.769803041816321,51.4634098577368 -0.76975938690699,51.4634841038441 -0.769848058149983,51.4636648269506 -0.769905575150615,51.4638300300527 -0.770056831213999,51.464358500001 -0.770090775094976,51.4645441325278 -0.770123200587615,51.4647288498862 -0.770139526130823,51.4651947750775 -0.770121062872827,51.4653474053295 -0.770053999593647,51.4655904115446 -0.769994803964588,51.4657570887789 -0.769965433118817,51.4658871313442 -0.76990833489399,51.4661347372031 -0.769896237893611,51.4663198871303 -0.769839354638709,51.4666124428856 -0.769792944574902,51.4667890529462 -0.769762123540466,51.4670216519379 -0.769699304663287,51.4672169674099 -0.769673350585699,51.4673785953053 -0.769638156422274,51.4675130683907 -0.769641635286935,51.4677586073994 -0.770561824864021,51.4678545470569 -0.771087470540341,51.4679014928057 -0.77230493871892,51.4680266000353 -0.774342880289545,51.4682619346289 -0.775160145187381,51.4683855300039 -0.775494569395043,51.4686408128162 -0.775652153005369,51.4687224618303</coordinates></LinearRing></outerBoundaryIs></Polygon>
  </Placemark>
