  <Placemark>
	<Style><LineStyle><color>ff0000ff</color></LineStyle><PolyStyle><fill>0</fill></PolyStyle></Style>
	<ExtendedData><SchemaData schemaUrl="#Local_Authority_Districts__December_2019__Boundaries_UK_BFC">
		<SimpleData name="objectid">293</SimpleData>
		<SimpleData name="lad19cd">E09000009</SimpleData>
		<SimpleData name="lad19nm">Ealing</SimpleData>
		<SimpleData name="lad19nmw"></SimpleData>
		<SimpleData name="bng_e">517057</SimpleData>
		<SimpleData name="bng_n">181960</SimpleData>
		<SimpleData name="long">-0.31407</SimpleData>
		<SimpleData name="lat">51.524429</SimpleData>
		<SimpleData name="st_areashape">55544347.2179587</SimpleData>
		<SimpleData name="st_lengthshape">47439.026308342</SimpleData>
	</SchemaData></ExtendedData>
      <Polygon><outerBoundaryIs><LinearRing><coordinates>-0.342522053257378,51.5575156928309 -0.342961238256128,51.5575767274785 -0.343958912080286,51.5577939709264 -0.344606699951338,51.5580297377506 -0.345349633913479,51.5583513473574 -0.34535128280507,51.5583846339325 -0.345472029441651,51.5584366784215 -0.345558361927103,51.5584405912118 -0.345659046833665,51.5584915436184 -0.345979217537497,51.5586533762933 -0.347161601702097,51.5593048745944 -0.347232244004952,51.5594659746544 -0.347532971773224,51.5596850588656 -0.348824388459242,51.5594424265491 -0.350691433579819,51.5591161680927 -0.351573111016168,51.5589901019258 -0.353643520592361,51.5587026069069 -0.355391817967477,51.5584276435295 -0.357138537133827,51.5581166740634 -0.359271928840331,51.5576797391042 -0.360183643278418,51.557599875719 -0.360296940440667,51.5575385285116 -0.361446073813898,51.5573953539198 -0.36222432427786,51.5572956338505 -0.362405519248998,51.5572711902124 -0.362300042200534,51.5569954411239 -0.3621794807692,51.5567356624276 -0.362230872117898,51.5566294002204 -0.362278046925526,51.5565212807292 -0.362409028904274,51.556490654408 -0.362547108079721,51.5564611151567 -0.362510556148645,51.5563958783924 -0.362476576767376,51.5563351736698 -0.362579610048415,51.5563177315211 -0.36267687199555,51.5563020064078 -0.362618546048532,51.5562005073964 -0.362519412524142,51.5560264311 -0.362948503551166,51.5559281308117 -0.363137459974726,51.5558894111855 -0.363488984196061,51.5558214032573 -0.363972480393048,51.555695089991 -0.364353413312573,51.5556095989462 -0.364522031938554,51.5555741000843 -0.364651321931754,51.5555507290085 -0.364678793405265,51.555547515482 -0.364702112938983,51.5555406480915 -0.364961359073704,51.5555118949248 -0.365199524293939,51.5555071190381 -0.365252934035184,51.5555069632396 -0.366019908112757,51.555398971578 -0.366127121121832,51.555384281431 -0.366567990413294,51.5553220918939 -0.366467385373394,51.555148898298 -0.366715245921717,51.5550759322378 -0.366971890910816,51.5549967949971 -0.367286591992492,51.5549902933964 -0.367536823875643,51.5549739942142 -0.36756568865212,51.5549716986382 -0.367690160330895,51.5549599438295 -0.367904446021361,51.5549377506516 -0.368597155253975,51.5548107366425 -0.368853217125586,51.5547477725936 -0.369186641026606,51.5546633188852 -0.369425219032201,51.5546468580895 -0.36961942105657,51.554620789604 -0.369821131995239,51.5545876330578 -0.370072687177578,51.5545308965217 -0.370107568989281,51.5545232907108 -0.370333817294904,51.554449121982 -0.370604622896781,51.554339522239 -0.37070387848344,51.5542644873573 -0.370990256251612,51.5541650817459 -0.371384926177855,51.5540571999027 -0.371422876634833,51.5540469394854 -0.37150857801884,51.5540283513166 -0.371667078856218,51.5539927941927 -0.371777611347465,51.5539682576082 -0.371902528306735,51.55394392053 -0.37201817977737,51.5539392325116 -0.372089449761498,51.5539617976546 -0.372146494165903,51.5539796692068 -0.372450103457078,51.5539605084307 -0.372833767837503,51.5537176224363 -0.37334358110329,51.5540259391043 -0.37368562907791,51.553819331106 -0.373887157036323,51.5539112134418 -0.374910291185753,51.5534954975877 -0.375840190475768,51.5530623909833 -0.376468180177901,51.5535359442846 -0.376529486364778,51.5535143189156 -0.376899202230092,51.5538665293158 -0.377268918746565,51.5542188294416 -0.377544201615328,51.5545913071204 -0.377653986964146,51.554828447554 -0.377611909502876,51.5548377545902 -0.377615837125474,51.5548476977992 -0.377673009660266,51.554982435859 -0.377679685105683,51.5549987099148 -0.377786885607788,51.5549876065248 -0.377779070409895,51.5549632262904 -0.377755488830525,51.5548972748928 -0.377667623241553,51.5546892051081 -0.378450268582736,51.5543834937959 -0.380172902290486,51.5536843316701 -0.380636723662949,51.5534605055157 -0.380831890929482,51.5533265537707 -0.381488016636807,51.5530055913409 -0.381817663044469,51.5528221617693 -0.381936445249131,51.5527258109718 -0.381937872576298,51.552725830656 -0.38295117588158,51.5522191115908 -0.383894704527151,51.5517644621145 -0.384667484168805,51.5514091282944 -0.385248524070461,51.551171707801 -0.386172252562281,51.550911941958 -0.386978553133987,51.5506667365997 -0.387515090039571,51.5505436730979 -0.388046899267871,51.5503523129539 -0.388554578164992,51.5501470437989 -0.388882990784563,51.5500373880463 -0.388932745866684,51.5500596466957 -0.389074073423851,51.5501424950163 -0.390178502140654,51.5497853988432 -0.391934679623726,51.5492708333289 -0.392108225146947,51.5492156787909 -0.392808508340716,51.5489905583188 -0.393464380127128,51.5488377307634 -0.393923560900322,51.548698298393 -0.394167697713736,51.5486477035591 -0.394965700990886,51.5487575152371 -0.395059275621095,51.5484774185866 -0.395064189703809,51.5484594168158 -0.394987352577375,51.5480204777412 -0.394868081784445,51.547638492 -0.395654974804682,51.5476546544445 -0.396482096599966,51.5477172077895 -0.396945387582909,51.5477478146012 -0.397217238084036,51.5477713070978 -0.397519087616298,51.547800603356 -0.397820599865989,51.5478361870084 -0.398352181894629,51.5479370308499 -0.398580107200549,51.5479347500477 -0.398678001297351,51.5479001286219 -0.398699917622479,51.5478923366604 -0.398561440637364,51.5476467358662 -0.398537294792701,51.5475960638996 -0.398532834910397,51.5475978005455 -0.39851794137575,51.5475715277144 -0.398444146888042,51.5475768127012 -0.398408037379904,51.547579016323 -0.398316366676897,51.5472738225681 -0.398305725000529,51.5472484161854 -0.398308609383594,51.5472475572547 -0.398298215520494,51.5472150521745 -0.398386800591183,51.5471982829483 -0.39842164040222,51.547191566764 -0.398048560075446,51.5461532870723 -0.397885109271204,51.5457149648955 -0.397865279704688,51.5456633626013 -0.397030133510929,51.5457895818508 -0.397066504153594,51.5458610980182 -0.396536483210973,51.5459635261681 -0.396321497641417,51.54567920893 -0.396221400483025,51.5455330162159 -0.396177049871229,51.5454416139893 -0.39607362557724,51.5452243575193 -0.395905959201253,51.5448659826342 -0.395837347960127,51.5446833628062 -0.395812129924446,51.5446227868232 -0.395745758819193,51.5443359170958 -0.395721035166706,51.5440955549015 -0.395695008071654,51.5440951988484 -0.395571142630491,51.5440908075009 -0.395561070485455,51.5440492270932 -0.395486392934968,51.5437145980913 -0.395354753347419,51.5429880489496 -0.395251893682839,51.5425487536259 -0.397246089045736,51.5423502940811 -0.39765215570452,51.5423261775613 -0.399148205828261,51.5423933553775 -0.400033319854132,51.5424440894275 -0.400388726411172,51.5424642200768 -0.401287712852904,51.5425331139156 -0.401504177567691,51.542527974309 -0.402169497344984,51.5425127671808 -0.402243546386072,51.5425407445259 -0.403242703060134,51.5425471577697 -0.403832647831278,51.5425452990017 -0.404329230599078,51.5425304791224 -0.404831799620568,51.5425076490915 -0.405395251031042,51.5424370997531 -0.40707333835676,51.5421235949774 -0.407929885544789,51.541960733473 -0.407855913571928,51.5418078046311 -0.408705923588979,51.5417059789357 -0.409435615560654,51.5415423746915 -0.410731891827011,51.5413369108298 -0.411925402120813,51.541104870386 -0.412579082137882,51.5409689846582 -0.413380416836186,51.5408574769566 -0.413943032775538,51.5407688964907 -0.414426004776186,51.5406900238957 -0.414790821147938,51.5406068558518 -0.415232001328494,51.5404850743278 -0.415349639664094,51.5404596940792 -0.415438270003105,51.5404411138524 -0.415808352210338,51.5403328436291 -0.416021138653382,51.5402655076185 -0.416130126462276,51.5402427074494 -0.416441935773986,51.5401929791579 -0.416682963033365,51.5401854447896 -0.416812659228198,51.5401449444332 -0.417272798443801,51.5401412651892 -0.417385845176311,51.5401248113901 -0.417553927312268,51.5401019079623 -0.417688666703799,51.5400839480687 -0.418056334872005,51.5400862103305 -0.418301323437196,51.5400913117919 -0.418365493605471,51.5401128539545 -0.418524822958463,51.5401743342327 -0.418570801613951,51.5402199019157 -0.418499618365799,51.5402360227821 -0.418513562730547,51.5402487963511 -0.418624528539997,51.5402511918796 -0.418696414727208,51.540259352254 -0.418776609103717,51.5402748174896 -0.418899279922319,51.540313418644 -0.418934666555898,51.5403318747811 -0.419044505209921,51.5404079703663 -0.419101426119383,51.5404294135144 -0.419181558651239,51.5404466751932 -0.419246290015008,51.540452042023 -0.419286790390252,51.5404498911358 -0.419324535135581,51.5404414103274 -0.419387567165891,51.5404134927936 -0.419431676662101,51.5403448668324 -0.419461123769202,51.5402876405385 -0.419487192495049,51.5402421440406 -0.419499658902191,51.5401739908278 -0.419501152844093,51.5401308608132 -0.419474396708645,51.5400280175089 -0.419448592716259,51.5399835304623 -0.419387777479999,51.5399062993197 -0.419141695456774,51.5397681376656 -0.419024763760828,51.5396874522478 -0.418939130615486,51.5396196842702 -0.418871803772248,51.5395657377115 -0.418805840290039,51.5395136070449 -0.418678004742744,51.5394147952132 -0.418596583151926,51.5393524782244 -0.41854799504889,51.5393410350745 -0.418392210768331,51.5392562291527 -0.418312204964673,51.5392353735796 -0.418249144994277,51.5392264319077 -0.41821648712844,51.5392116083838 -0.418209363246106,51.5392079163237 -0.41815697060523,51.5391793419609 -0.418140703595522,51.5391512547568 -0.418156049339216,51.5391235938684 -0.418229124398422,51.5390940138115 -0.418308177355245,51.5390600201403 -0.418386797290874,51.5390385170836 -0.418543664082805,51.5389651192151 -0.418668770270691,51.5388921912258 -0.4191164751869,51.5388317040471 -0.419319193843381,51.5388074668496 -0.419438873969485,51.5387641320764 -0.4195696784265,51.5386947859613 -0.419592924946328,51.5386483530587 -0.419601237660018,51.5386143044557 -0.419593682803674,51.5385818395841 -0.419573143843527,51.5385500989721 -0.419454311129936,51.5383596246175 -0.419359907931942,51.5382567697531 -0.419284803593049,51.5382180009345 -0.419171768120856,51.5381931039033 -0.419062762909157,51.5381754530831 -0.418926518534231,51.5381547381914 -0.418831767265239,51.5381408753067 -0.418726137546277,51.5381115833718 -0.418433742386529,51.5380167553937 -0.418142914997825,51.5379624912607 -0.417834293818431,51.5379241682514 -0.41765795599633,51.5378939217603 -0.417582106691365,51.5378767170042 -0.417543651614408,51.5378645119056 -0.417533644511059,51.5378616801284 -0.417485656214098,51.537829568871 -0.417446274342693,51.5378029672533 -0.417411304456033,51.5377691441341 -0.417394423149382,51.5377176750031 -0.417405996205593,51.5376342267182 -0.417445703900497,51.5375691380003 -0.417489416632679,51.5374708419141 -0.417519331862011,51.5374001366905 -0.417592590039405,51.5372006556499 -0.417653381085956,51.5370692376846 -0.41765987073788,51.5370054992225 -0.417679906231707,51.536887105225 -0.417647759226509,51.5368164628612 -0.417618609524,51.536782807333 -0.417573779640041,51.5367453451632 -0.417459741755025,51.5366637990997 -0.417376520466908,51.5366123341158 -0.417287073062542,51.5365724713751 -0.417198490266474,51.536548801767 -0.417136958918968,51.5365335883586 -0.417009238277361,51.5365174807706 -0.416856482088148,51.5365136215804 -0.416736819523296,51.536512006441 -0.416488000989571,51.5365356162624 -0.416093759884994,51.5365941202382 -0.415918934393813,51.5366061424527 -0.415768900350719,51.5366095106037 -0.415598794247432,51.5366054145444 -0.415437733694137,51.5365942493396 -0.415318911957788,51.5365683722542 -0.41524560778758,51.5365224332686 -0.41515158686308,51.5363233003472 -0.415091345913745,51.536229893266 -0.415002193898717,51.5361404998854 -0.41492220971108,51.5360746928836 -0.414837755681947,51.5360178158633 -0.414687623214653,51.5359384760317 -0.414626211759215,51.5359232620155 -0.414533048576166,51.5359049229135 -0.414162696533744,51.5358576644822 -0.414006542738235,51.5358284946158 -0.413926388033056,51.53581212847 -0.413883664892385,51.53579626754 -0.413830445368997,51.5357506001381 -0.413694102350961,51.5355653666711 -0.413656186549988,51.5352059859681 -0.413626647335343,51.5350195009302 -0.413581884844524,51.5348947476749 -0.413523327355068,51.5347564138628 -0.413484238280234,51.5347181285084 -0.413460634239076,51.5346926381426 -0.413384177227866,51.534652048854 -0.413295662673637,51.5346265796286 -0.413192833443954,51.5345991182319 -0.413066270569132,51.5345875180895 -0.41268033333845,51.5345751039058 -0.412500445602868,51.5345653874567 -0.412404215172186,51.5345532978995 -0.412305751000878,51.5345267940269 -0.412248689042583,51.5345062440702 -0.412181833059166,51.5344801679526 -0.412133784124458,51.5344534471735 -0.412078703469204,51.5344203393029 -0.412029766224307,51.5343747281273 -0.411989465366492,51.5343337290817 -0.411941058344734,51.5342728427189 -0.411900310110347,51.5342002837819 -0.41186262291912,51.5341251594223 -0.41181207185473,51.5340849198508 -0.41106386756402,51.5342888308844 -0.41094449053796,51.5341972273182 -0.410917879705712,51.5341761900198 -0.410661022529806,51.5341816994135 -0.410264322609503,51.5341439612061 -0.40954948169675,51.5340111116542 -0.409375196920579,51.5340078490667 -0.407397222677025,51.5335862727512 -0.406920692584526,51.5335266726107 -0.405629567404806,51.5332978719212 -0.405479286029819,51.5332643651781 -0.405229000156927,51.533207833558 -0.405040787752861,51.5331881936012 -0.404938764142896,51.5331787159019 -0.404806974671153,51.5331535500811 -0.404638007482626,51.5331206873433 -0.404563156717918,51.5331160732299 -0.404376205678406,51.5331045405789 -0.402509342002332,51.5328903459512 -0.401379093498379,51.5327193357045 -0.400083908786645,51.5325263761496 -0.398584886898746,51.532308953295 -0.396957673642735,51.5320457106775 -0.396805653976352,51.5320247544273 -0.39624749699571,51.5319479028801 -0.395860328716361,51.5319273257019 -0.395321142286638,51.531885789091 -0.394443327249353,51.5317550220263 -0.393534698883366,51.5316014419273 -0.392324789190366,51.5314022827373 -0.390548102931847,51.5310074506116 -0.389823047993328,51.5308806326174 -0.389581979760781,51.5308467580928 -0.389257796419712,51.530800054389 -0.389252614643089,51.5306200995585 -0.388852739482764,51.530431128284 -0.38836922039012,51.5302006418745 -0.387840562712699,51.5299424744212 -0.387134046672967,51.529577578379 -0.3870943477042,51.5295572548782 -0.386856853718681,51.5299136660194 -0.386701210004741,51.5301570324786 -0.386619718694769,51.5303842499036 -0.386616485871193,51.5303949925352 -0.38652280564659,51.5303919062517 -0.385847244363204,51.5303754185261 -0.385662065978728,51.5303108412498 -0.384510545216807,51.5300153192113 -0.383977698240761,51.5299162870705 -0.382453286552777,51.5296443805404 -0.381605836690719,51.5295140313027 -0.380969217842406,51.5294152614324 -0.379612235572815,51.5292230290578 -0.379030992229377,51.5291484767102 -0.377643519619579,51.5290420107662 -0.376946692269612,51.5289721425213 -0.376503264848305,51.5289165646007 -0.376355708782281,51.5288875531318 -0.376260609954452,51.5288475810304 -0.376183842407597,51.5288168530438 -0.376182641014886,51.5288105436055 -0.376181215872548,51.5288105238824 -0.376181567484173,51.5288006399159 -0.376249311352205,51.5273807507209 -0.376216698046527,51.5269208349673 -0.376129126393408,51.526666021979 -0.376090377819659,51.5263786239551 -0.375965586425437,51.525913835111 -0.375933005486931,51.5257370953265 -0.375907650192238,51.5255577587585 -0.37594829111477,51.5253075067577 -0.37607540004205,51.5250556646531 -0.376159663756785,51.5249156015134 -0.376353002800283,51.524709714091 -0.376526504926399,51.5245735825554 -0.376611548854029,51.5244515991527 -0.376962194665258,51.5242406063678 -0.377133068975793,51.5240145400782 -0.377679088314314,51.523335991417 -0.378354222564694,51.5224685521205 -0.378526399553622,51.5222488846683 -0.37889501242904,51.5218124012398 -0.379086059964519,51.5215498421357 -0.379316089663636,51.5212805401945 -0.379908507078726,51.5206322892782 -0.380187778041244,51.5203582712313 -0.380810292633496,51.5197553807313 -0.38089963804023,51.5197125639979 -0.381383668664888,51.5191536065831 -0.381712756749373,51.5186940946455 -0.381755127495826,51.5186353458025 -0.381879958828497,51.5185300893682 -0.382070078821607,51.5183699069892 -0.382450583752798,51.518085593555 -0.382551316601975,51.5180096708015 -0.382548027780674,51.5179817572362 -0.382588271472671,51.517942757465 -0.382597291524635,51.5179329929432 -0.382844784980581,51.5179444956876 -0.383381191697511,51.5175328754788 -0.383421340556443,51.517496481008 -0.383708825164989,51.5172343453589 -0.383909413233848,51.5170635167302 -0.384237505052537,51.516795557842 -0.384566290336132,51.5165851413664 -0.384629755605894,51.5165446633667 -0.384823640606057,51.516442152979 -0.384967580066833,51.5163641267222 -0.385219427522183,51.5162524386278 -0.386087916326569,51.5159056204884 -0.386755718836349,51.5156450324029 -0.387048098815209,51.5155294929111 -0.38859744477071,51.5149177476453 -0.389001706023676,51.5147362280157 -0.389362673957951,51.5145119506778 -0.389548065924623,51.5143633805676 -0.389996959432156,51.5139370515573 -0.390150033885917,51.5137242099702 -0.390364324132697,51.5134097252652 -0.390420358909738,51.5132090345405 -0.390422060131917,51.5132045626442 -0.390497870967842,51.5130159206957 -0.390612266933621,51.5128349097573 -0.390737036405411,51.512568638391 -0.39089564499349,51.512198550237 -0.391066088388022,51.5118196355796 -0.391526481626162,51.5107352285263 -0.392227461400218,51.5091648979412 -0.392619240528609,51.5083096784433 -0.392749043966828,51.508020996873 -0.392840529507519,51.5077947194143 -0.39292606459186,51.5076565496232 -0.392999854399393,51.5075280177428 -0.393096718563605,51.5073953976697 -0.39327652569444,51.5071981989504 -0.393395123953825,51.5071063297376 -0.393565536962483,51.5069701321054 -0.393702619414728,51.5068830120895 -0.393872549964244,51.5068044324794 -0.393922330122087,51.5067808413976 -0.393972228300295,51.5067572528102 -0.394023369633473,51.5067354788148 -0.394074598871285,51.506714605241 -0.394339277670294,51.5066039702002 -0.394982318900961,51.5063492853136 -0.395714404348266,51.5060589574326 -0.396473971627067,51.5057672922051 -0.397735005661724,51.5052692386237 -0.399049653201761,51.5047593174212 -0.399849417432133,51.50443123043 -0.400469344205331,51.5042139561761 -0.401204763131172,51.5040334043184 -0.401284565493197,51.5040174116022 -0.401497925612829,51.5039735741483 -0.40170995671206,51.5039269311396 -0.401920685000988,51.5038767628287 -0.40212996315407,51.503823878435 -0.4021895452522,51.5038085085982 -0.402262282740712,51.5037906211844 -0.402333509105081,51.5037718147872 -0.402404702587563,51.5037539062419 -0.402476079824973,51.5037342016693 -0.402545911636646,51.5037144768938 -0.4026158062165,51.5036929544436 -0.402684307787476,51.5036705137278 -0.402749993660254,51.503647046341 -0.402761669358399,51.5036427109901 -0.402836152235811,51.5036122611759 -0.402910785961115,51.5035809141238 -0.402982514123896,51.5035477298546 -0.403052847797473,51.5035136273011 -0.40312178842084,51.5034786064853 -0.40318936592313,51.5034417694727 -0.403255550339318,51.5034040151013 -0.403318885983893,51.5033662209937 -0.403382135057342,51.5033274374021 -0.4034441388698,51.503286928253 -0.403504630090502,51.5032454992275 -0.403562302439854,51.5032031334397 -0.403618581735951,51.5031598494092 -0.403673348444031,51.5031156455102 -0.403868876453249,51.5029222391545 -0.404252460882337,51.502541705612 -0.405121468135533,51.5015886470781 -0.405143956737233,51.5015637813318 -0.406321145413025,51.500322643475 -0.406884731002009,51.4996945366533 -0.406620387131614,51.4996307121296 -0.404819551716848,51.4992140866097 -0.403438105991006,51.4988373966837 -0.402778075156215,51.4986378221977 -0.401518173184423,51.4982851506165 -0.400220381454799,51.4979464198084 -0.400169858468727,51.4979916683392 -0.399941850586915,51.4979219415302 -0.398541224101594,51.4975557188636 -0.397893991236894,51.4974021389777 -0.395680634624359,51.4967999364547 -0.394011674929672,51.4963275032841 -0.392269040413722,51.4958602394747 -0.390700572893448,51.4954808346927 -0.389298571922263,51.4951612316194 -0.388191290516574,51.4949391582462 -0.38777627826296,51.4949019877206 -0.38764994992806,51.4948903615641 -0.387533214889102,51.4948492002905 -0.387083725556136,51.494688392893 -0.385966034594856,51.4946406481549 -0.385690925348906,51.4946377598752 -0.385453172903352,51.4946398797922 -0.385148761916818,51.4946527676999 -0.384741625109328,51.49467862339 -0.384386126356938,51.4947087845541 -0.383911886890745,51.4947579847814 -0.383699065342494,51.4947874132014 -0.383506361572382,51.4948189171666 -0.383316284613854,51.4948567508511 -0.383009837398101,51.4949272293393 -0.382620878368079,51.4950099636881 -0.382392607683748,51.4950697427848 -0.382169844731932,51.4951349911287 -0.381825145230346,51.4952256158408 -0.3811633814648,51.4954448206666 -0.380082440368061,51.4958247221646 -0.37968434702111,51.4959603609461 -0.379119598116736,51.4961630060787 -0.379125789413598,51.4961927586636 -0.378944582808656,51.4962648686197 -0.378480103496746,51.496403271409 -0.377872131972863,51.4966052229444 -0.377831925370167,51.4965633129812 -0.377815166753777,51.4965468991553 -0.37765299105514,51.4965311706045 -0.377630317987459,51.4965173717312 -0.37766705955249,51.4964594463838 -0.377692984336143,51.4964184515891 -0.377719729213782,51.4961903882879 -0.377736414613403,51.4960448938333 -0.37786427556123,51.4954477570368 -0.37719943851837,51.4953046058474 -0.377051857083059,51.4952827845835 -0.376751812108029,51.4952930142334 -0.376404425989723,51.495338546443 -0.375818711694968,51.4954023512008 -0.375650389008721,51.4948713231747 -0.375459421683307,51.4945296679606 -0.375207483356769,51.4942393082059 -0.375064957615431,51.4940754248951 -0.37494456720799,51.4939371090146 -0.374953776898114,51.4939219540023 -0.374985559929622,51.4938765465523 -0.374777005269736,51.4935454334952 -0.374606813226392,51.4932678931619 -0.373983837459564,51.4922331456029 -0.373785574269788,51.4919336374883 -0.373775707962876,51.4919272076493 -0.37371226597029,51.4918876704574 -0.373686962583699,51.4918711373701 -0.373591473410614,51.4918410453565 -0.373472527972312,51.4918259095769 -0.373292131900874,51.4916319207803 -0.373200444174462,51.4915784170968 -0.373017075774098,51.4914679924556 -0.372772836750286,51.4912892085831 -0.372636600279105,51.4911093160338 -0.372398989642853,51.4909846529498 -0.372291949307386,51.4909588039421 -0.372140713653853,51.4909567034542 -0.371926666753182,51.4909807895687 -0.371836007686786,51.490898531173 -0.371703128011481,51.4907879074128 -0.371786947235187,51.4906587176106 -0.371829977600972,51.4905810132635 -0.371842083800415,51.4905245449182 -0.371851246132279,51.4904707325242 -0.371147845593118,51.490685797174 -0.369788367585587,51.4911605312587 -0.369360172436087,51.4912913117564 -0.368663125115822,51.4915306328475 -0.367900385711768,51.4917934004533 -0.367910156320922,51.4918025262329 -0.368227495273478,51.492152245198 -0.368356297779921,51.4922970676804 -0.36825357267574,51.4923100219662 -0.368009883329678,51.4923956305709 -0.367720023642363,51.4924869801306 -0.367350363008335,51.4926310678952 -0.367007276893642,51.4927593416382 -0.366994144571231,51.4927645524865 -0.366953234718785,51.4927792665051 -0.366943143251012,51.4928223673315 -0.366960689856047,51.4928531771706 -0.366952013172266,51.4928566524549 -0.366822978596197,51.4929177851873 -0.366723466858289,51.4930036014903 -0.366640912355772,51.4930968460796 -0.366471693823701,51.4932752772241 -0.366042225628825,51.493523799576 -0.365779544436165,51.4936585846067 -0.365360633909615,51.4933263214666 -0.364959647683992,51.4937047820375 -0.364723972820629,51.4939675979583 -0.364533674382001,51.4941340458332 -0.36435473209215,51.4942619039778 -0.364054587423801,51.4944376065309 -0.363857173864162,51.4946002671758 -0.363710953286764,51.4946999037418 -0.363676943524892,51.4950060755337 -0.36360524896248,51.4954789344823 -0.363532885717485,51.4954896123926 -0.363514031529254,51.4954920461744 -0.363475765281612,51.495515784813 -0.363271092602849,51.4956388778237 -0.363229381466608,51.4957587611564 -0.363165710323799,51.4958450747234 -0.362976773709189,51.4959333259656 -0.362891091947607,51.4959510089044 -0.36285388757423,51.495945095887 -0.362789419551319,51.4959343069315 -0.362612712319835,51.4959597088133 -0.362496038164178,51.4960003330172 -0.362397094871801,51.4960268202572 -0.362253951212825,51.4960437004162 -0.362138381204916,51.4960501771464 -0.361896744730873,51.4960809641892 -0.361713278300052,51.4961755827923 -0.361709951572026,51.4962285768448 -0.361707560747577,51.4962555137847 -0.361635792889621,51.496285976087 -0.361570089235464,51.4963129269548 -0.361480397785862,51.4963629169084 -0.361143802183783,51.4964678913058 -0.360940761546498,51.496545153947 -0.360752015735557,51.4966279207157 -0.360553863360695,51.4966880807188 -0.360088248778056,51.4967769550504 -0.359561348579136,51.4970078200908 -0.359172339433861,51.4972092370551 -0.358697550131731,51.4974705844445 -0.358475904030751,51.4976257050345 -0.358421724461735,51.4976492202548 -0.358157790310192,51.4977382118376 -0.358006299835407,51.4977855356156 -0.35753039019207,51.4977968527505 -0.357279714890884,51.4977978366279 -0.356904790775708,51.497848322434 -0.35657613754158,51.4979300218617 -0.356368322112187,51.4979811396236 -0.356285245998287,51.4980087433963 -0.356219580238704,51.4980311964977 -0.356096495312812,51.4980879066523 -0.356055567220153,51.4981062119124 -0.355820295355596,51.4981577523156 -0.355627978765507,51.4981775312873 -0.355486034139903,51.4981575615498 -0.355253059125939,51.4981848604111 -0.355128546635866,51.4982019932387 -0.354965984465796,51.4982762181761 -0.354851952881665,51.4982827093795 -0.354755426168393,51.4982813554404 -0.354587893882711,51.4982528442954 -0.354586306433397,51.4982573173889 -0.354563660214404,51.4983254130234 -0.354536158044278,51.4983304209191 -0.353300477551506,51.4985558082269 -0.352269771165445,51.498772465555 -0.350934832706609,51.4990747348157 -0.350678556135168,51.4991088890694 -0.350515442320146,51.4991191811292 -0.350342474325571,51.4991194452729 -0.350172798790774,51.4991107656403 -0.350033659249989,51.4990953240148 -0.34991066811814,51.4990702194278 -0.349766620284184,51.4990295356289 -0.349623092227244,51.4989744754063 -0.349464532119448,51.4988949308133 -0.348256883483359,51.4983473420143 -0.347236278161963,51.4979265274558 -0.346162053400036,51.4975534939727 -0.344718994861796,51.4970205278362 -0.344717569320273,51.4970205077166 -0.343476558396946,51.4965605894523 -0.342092230260775,51.4960410058612 -0.341394313479488,51.4960985630966 -0.341359832958228,51.4960144681092 -0.340270153348495,51.4961509832118 -0.339301459575374,51.4962038863954 -0.338615576490228,51.4962472130379 -0.337575265051719,51.4962540473123 -0.336765449410251,51.4962560507965 -0.335977473954006,51.4962161052219 -0.335424425715684,51.4962127524154 -0.33529189984798,51.4962117697387 -0.33468418659265,51.4962058399965 -0.334674570686511,51.4961535619318 -0.334024300146381,51.4960867036193 -0.333235336818831,51.4959568299359 -0.332648253538125,51.4958576891052 -0.332073335841026,51.495701991501 -0.331809520640138,51.495627220133 -0.331750839100865,51.4956956086034 -0.331238990136682,51.495549883548 -0.331113531367381,51.4955148355376 -0.330952377670631,51.4954684921347 -0.330531927289369,51.4953473486908 -0.329954019594075,51.4950756277598 -0.32739626683636,51.4960374369763 -0.32690426977301,51.4956256936686 -0.326136676936056,51.4950302173146 -0.32567469452186,51.4953717163586 -0.324848883099105,51.4959299817786 -0.324736322363897,51.4960129699645 -0.324003505422536,51.4957650782898 -0.323412143927172,51.4958995695731 -0.322492898261555,51.4955501153013 -0.321456655875816,51.4952106668895 -0.320944446228283,51.4950370236159 -0.320515006702871,51.4948833520108 -0.319892261770072,51.4945794758564 -0.319189375515643,51.4942232054872 -0.318572990897684,51.494492252936 -0.318206592306144,51.4947010519456 -0.31722382514248,51.4952165594331 -0.315825206208604,51.4958764036097 -0.315766566485031,51.4959043290223 -0.315424905333351,51.4956350313122 -0.315359854342277,51.4956017333742 -0.3152977047067,51.4955702755567 -0.315269385825695,51.495555484555 -0.315657942631099,51.4953712853935 -0.315710748797425,51.4953468715129 -0.314754719987,51.4945894966176 -0.314524863984621,51.494416195328 -0.314453302484726,51.4943630261046 -0.314902763430518,51.4940925011695 -0.315060978370265,51.4939797021829 -0.315081723852111,51.4939647172888 -0.314865107522152,51.4938221723095 -0.314723960206504,51.4937041750153 -0.314671770827502,51.4937151121268 -0.314392033279073,51.4934484981166 -0.314100087521171,51.4935899413743 -0.314089949595313,51.4935942901779 -0.314039464909636,51.4935558070364 -0.314022598304755,51.4935429787662 -0.313925902395391,51.4935883369907 -0.31391418776688,51.4935935632746 -0.313628883714479,51.4934006744157 -0.313283942137334,51.493105250963 -0.312805668621052,51.4927153133909 -0.31266211538404,51.4925855023262 -0.31260864892607,51.4925892279314 -0.312457950837814,51.4924567069283 -0.311954245408502,51.4920160541202 -0.311902607011523,51.4919702706727 -0.310938097059192,51.4924222530243 -0.309669017627531,51.4930028884841 -0.308821877575278,51.493395319637 -0.30838120183083,51.4935850387913 -0.308010607270483,51.493713645586 -0.30750809799802,51.4938602166855 -0.306538278261136,51.4941807409445 -0.305418586800629,51.4945386484382 -0.305637384199177,51.494970718366 -0.305800340157029,51.495355234838 -0.305836767422313,51.4956156601207 -0.305870069829865,51.4959218895643 -0.305857410923922,51.4960710295178 -0.3058287370113,51.4961811921473 -0.305625302565897,51.4961512844632 -0.305366757462983,51.4960540556262 -0.305218900962498,51.4959988796141 -0.304628320448669,51.4958419240337 -0.303923109091799,51.4957076720863 -0.303285196052002,51.4956228443374 -0.302654149689237,51.4955067374761 -0.302207428736158,51.4954328497438 -0.301333379229895,51.4952268260383 -0.301345966628732,51.4950831690793 -0.301316081250263,51.4949190290884 -0.30122847501443,51.4947163854274 -0.301088347980601,51.4944184966101 -0.299401711368576,51.4946412854466 -0.298256428722225,51.4947946798763 -0.297531161746218,51.4948902395549 -0.298056672913211,51.4955174524534 -0.297959051298567,51.4955457036105 -0.298191267225602,51.4957721131076 -0.298370579209367,51.4959456125279 -0.298808239943625,51.496457285796 -0.298907061084564,51.4965882632775 -0.299054066181147,51.4967809823443 -0.299334997641934,51.4971700044776 -0.299517262950348,51.4974207691376 -0.2996140078701,51.4975310402506 -0.299765606440916,51.4976770763406 -0.299796116622281,51.4977062864738 -0.299923271233998,51.4978134009587 -0.299975346935618,51.4979238329356 -0.300028354063295,51.4981656215171 -0.300078122778338,51.4983380514012 -0.300149304468369,51.4984362640726 -0.300221310140156,51.4985155197872 -0.300286609528453,51.4985802947506 -0.300379133962517,51.4986508577706 -0.300541986092156,51.4988043370565 -0.300649130936587,51.4992545784284 -0.300695994209388,51.4993487524871 -0.300090710049006,51.4995477427527 -0.299750214219212,51.4996381021295 -0.298521754633884,51.5000501948926 -0.296742747662641,51.500657455993 -0.296105128256387,51.5008720483885 -0.295589742366127,51.5010516434611 -0.295030414917457,51.5012530737175 -0.29432761601855,51.501475698367 -0.294205299315709,51.5015126672125 -0.29414692397875,51.5015297982067 -0.294027594474753,51.5015631242609 -0.293923572090686,51.5015715008822 -0.293791953255228,51.501583970591 -0.293620252880702,51.5015913627967 -0.293393112014615,51.5015754733719 -0.293012378708775,51.5015465617081 -0.292035779028783,51.5014631273751 -0.291351941298316,51.5013721718741 -0.290657812802469,51.5012451921258 -0.289941449291608,51.5010998145745 -0.289213907736257,51.500945369708 -0.288677067014425,51.50085033773 -0.288106456803043,51.5008132458924 -0.287762130742241,51.5007767567764 -0.2867879795962,51.5006635578969 -0.286129556221041,51.5007411446986 -0.285710292347723,51.5007800598573 -0.285605275360861,51.5008117879798 -0.285143409302069,51.5009506764187 -0.28505014358876,51.5009762828153 -0.284709503724093,51.5010693842044 -0.283881086896649,51.5013774031234 -0.283188094023919,51.5016441563258 -0.282470572223385,51.5019880396606 -0.282354296928788,51.5020915206231 -0.281015202540952,51.502719367426 -0.280760869524698,51.5028513888694 -0.280713406086458,51.5028120371301 -0.280233986549156,51.5024192515375 -0.279873365689429,51.5020866400962 -0.279829368366287,51.5021066716297 -0.279655832329579,51.5019324191037 -0.279528882554469,51.5017830321961 -0.279407780397987,51.5016329215661 -0.279197263918219,51.5012926199487 -0.278948684966357,51.5008527803996 -0.278811405115556,51.5006340182739 -0.278668322065402,51.5004179575789 -0.278519190532241,51.5002080109518 -0.278368345874046,51.5000025343623 -0.278188886752021,51.4997967275717 -0.278036301177616,51.4996406696573 -0.277873451112579,51.4994890452802 -0.27727288980553,51.4989838017368 -0.276716216113177,51.4985404218827 -0.276285062522201,51.4982840762684 -0.275685395191532,51.4979479398938 -0.274238011036199,51.497286391212 -0.273711349315025,51.4970025607074 -0.27328171652828,51.4967821865687 -0.272926778273703,51.496527940092 -0.272709234661002,51.4963376552703 -0.272458498897506,51.4961487697354 -0.272280279522542,51.4956443240968 -0.272144404332828,51.4954273719215 -0.27199527625289,51.4952561638224 -0.271776283054939,51.4950667550854 -0.271535206289469,51.4948896974065 -0.271403038808975,51.4948040527125 -0.271266338048936,51.4947220280228 -0.270978285894869,51.4945685488342 -0.270709332314257,51.4944440295435 -0.27002736907176,51.4942290034467 -0.269377731347461,51.494076391033 -0.26890043341005,51.4940118140234 -0.268397762477842,51.4939711324349 -0.268039212573782,51.4940044971528 -0.267695435901986,51.4940272904936 -0.267652784450768,51.4939367610285 -0.266666422699672,51.4940408601711 -0.26552646800338,51.4941670431014 -0.264416698455438,51.4942926732384 -0.263750954487109,51.4943736216346 -0.262650829222029,51.4944733964613 -0.262276415826373,51.4945083071643 -0.261872196750158,51.4945679462357 -0.261832829756875,51.4945817466337 -0.26171902353069,51.4946196161481 -0.261629409357888,51.494627279129 -0.261447213556887,51.4946425591133 -0.261303158386617,51.4946044638618 -0.261259895477382,51.4946083180874 -0.260333208075712,51.4946916725508 -0.260070987285264,51.4947310257011 -0.25973499164488,51.4947395274986 -0.2585185501429,51.4948302560059 -0.257510097594269,51.4949051830921 -0.256325977787283,51.4949424287027 -0.255866470951887,51.4949409930425 -0.255552731045357,51.4949327323025 -0.255411512120678,51.4949324300398 -0.255384255366209,51.4954967771983 -0.255362030162446,51.495661953462 -0.255449211973971,51.4957927053566 -0.255506939591566,51.4959419890807 -0.255565342304113,51.4959958984479 -0.2556044015071,51.4960306411421 -0.255457258493211,51.4960734035937 -0.255375723584651,51.4960964639496 -0.255489897067934,51.4962762544754 -0.255245756443963,51.4963301594472 -0.255095366922367,51.4963459035037 -0.255093531033274,51.4963566637052 -0.255082166689441,51.4965390819504 -0.255071577965899,51.4965892685578 -0.255018496548831,51.4968096337282 -0.255011370485166,51.4968842345429 -0.255003732914956,51.4969722231038 -0.254659868837772,51.4973726476556 -0.254599269155554,51.4974508584026 -0.254212434624262,51.4979217530405 -0.253899448116033,51.4983469076199 -0.253570198921454,51.4987808991013 -0.253353695734665,51.4990186989796 -0.25309247473636,51.4994068639908 -0.252888751319968,51.4997203685232 -0.252763553829971,51.4999063951558 -0.252722538748636,51.5000748862776 -0.252724892089972,51.5002772868234 -0.252773220314346,51.5003679062976 -0.252839187947042,51.5004911536343 -0.2529180247474,51.5006506411742 -0.252937636345719,51.5007776926882 -0.252999665044964,51.5010412141887 -0.253044633108759,51.5012972902442 -0.253054019276636,51.5013531678365 -0.253060865010294,51.5014009169736 -0.253121741851821,51.5014647534885 -0.253091593630259,51.5015758702002 -0.253087096994596,51.5015785010238 -0.253057642521977,51.5015969414946 -0.253052867903495,51.5016472144838 -0.253050275087794,51.5016777416701 -0.253087225479048,51.5017645954636 -0.253160047472731,51.5021217743104 -0.253235888815138,51.5024745925693 -0.253220281342322,51.5025813413608 -0.253302165845084,51.5026985314627 -0.253332895987952,51.5028393226816 -0.253342763895018,51.502882622286 -0.253384470811388,51.5029227988331 -0.253469190965642,51.5030031722252 -0.253642953279237,51.5031317087735 -0.253900410265024,51.5033333206667 -0.254152132645373,51.503569997735 -0.254349035218449,51.5037707974644 -0.254402208930429,51.5038498015326 -0.25445661932696,51.5038964596826 -0.254479051842895,51.5039156724331 -0.254488785497289,51.5039221102469 -0.254539368350052,51.5039570246596 -0.255049217752767,51.5043036212946 -0.255044720955364,51.5043062521909 -0.255067206082856,51.5043209702174 -0.254844918006841,51.5044454118079 -0.254544870187733,51.5041891384055 -0.254535121413449,51.5041800034981 -0.254516651021698,51.5041752342314 -0.25428432676044,51.5042203233289 -0.253636100517463,51.504292485909 -0.253661001781106,51.5043558765351 -0.253741307372991,51.5045548518512 -0.253689143789257,51.5045612677427 -0.252771110376347,51.5046798435404 -0.252568358149399,51.5047064906093 -0.252520586592825,51.5047129713943 -0.252504123173131,51.5045409274408 -0.252492161743771,51.5045119811249 -0.251223274350893,51.5046495918552 -0.251023286948923,51.5046412173907 -0.250814951644583,51.5045499198317 -0.250311466809661,51.5044534118202 -0.250004543229215,51.5044515316124 -0.249905830159029,51.5044356757159 -0.249868431439122,51.5045465944874 -0.249852120084883,51.5045939975092 -0.249845796748636,51.5046101752761 -0.249653608172846,51.5045874403287 -0.249464266306119,51.5045648383588 -0.249417252895597,51.5046631165594 -0.249407861415601,51.5046818554805 -0.249325007885903,51.5046644371903 -0.249257205810669,51.5044403833708 -0.249016517612501,51.5044772477892 -0.248057546583824,51.5046095604408 -0.248010974329079,51.5044361669251 -0.247987900709329,51.5043594069928 -0.246621744777013,51.5045143056662 -0.246261288557744,51.5045575552587 -0.24567935272866,51.5046261699949 -0.245692630584601,51.5046578335881 -0.245688202260414,51.5046586666399 -0.245999402600417,51.5053719116848 -0.24620578517747,51.5058138897377 -0.246257877303096,51.5059207502806 -0.246356881180371,51.5061209094795 -0.246412106173627,51.5062575732369 -0.246453312840604,51.5063849485564 -0.246487755825199,51.5065770404533 -0.246493881595476,51.5066805170729 -0.246490454313759,51.5067326084742 -0.245152953885203,51.5067396732827 -0.245063485623791,51.5067428306393 -0.24533311474971,51.5076010940101 -0.245443201664802,51.5078096002167 -0.245723151725808,51.5084738326586 -0.245756439375518,51.5086217664425 -0.245752492479404,51.5089130735499 -0.245827002163717,51.509184876992 -0.245927830386558,51.5094489822447 -0.246030578053427,51.5099631289498 -0.246193406964461,51.5102650203357 -0.246206913760179,51.5102876973772 -0.246416330429051,51.5107997517124 -0.246424240315475,51.5108196473107 -0.246626926909086,51.5112471845032 -0.247185209008472,51.5119452389498 -0.24769792407346,51.5124780916897 -0.248378348415964,51.5132238124345 -0.248790085377567,51.5136885375312 -0.248972946756749,51.5138810455175 -0.249028490630575,51.5139726732294 -0.249047164330594,51.5140125074995 -0.249068511405935,51.5140569669684 -0.249109400082432,51.5142301850498 -0.249260594185203,51.514721677356 -0.249337841744257,51.5149260034978 -0.249416535845257,51.5152041595131 -0.249728800664124,51.5158185190366 -0.250203099297216,51.5173552401464 -0.250581402042827,51.518541627165 -0.250681347540212,51.5190934851782 -0.250690101256859,51.519128676814 -0.250697309240505,51.5191638454098 -0.250704636837847,51.5191990148883 -0.25070911349224,51.5192341427722 -0.250712011390247,51.5192701463823 -0.250713519004087,51.5193052300124 -0.250713415677899,51.5193079253462 -0.250713582259716,51.5193438873466 -0.250712238947258,51.5193789284835 -0.250709313418652,51.5194149352211 -0.250703694419929,51.519449912629 -0.250698075446194,51.5194848891377 -0.250689589249996,51.5195171269355 -0.250679816075206,51.5195457494186 -0.250668618137238,51.5195743506646 -0.250656028447846,51.5196020319074 -0.250643405727694,51.5196306119142 -0.250627965059675,51.5196582506591 -0.250613950566524,51.5196859106601 -0.250604621651585,51.519702942932 -0.250575269728946,51.5197555463337 -0.250544409306256,51.5198072279847 -0.250510697851865,51.5198588671291 -0.250475560082419,51.5199104859019 -0.250461889902927,51.519929161139 -0.250281599759924,51.5201585053098 -0.25056567276773,51.520418146271 -0.250668415621623,51.5206336398452 -0.251899958943809,51.5222365664968 -0.251995073986378,51.5227630890915 -0.25206955433074,51.5231923022738 -0.252231656048681,51.5235867699895 -0.252428962290595,51.5239682764 -0.252617615413598,51.5243865132164 -0.252637070332322,51.5245954609843 -0.252615638096914,51.5247795263502 -0.252505724293385,51.5250890334717 -0.252369244055419,51.5252263464306 -0.252280074303738,51.5253355956602 -0.251111412661681,51.5265268017001 -0.250644339233704,51.5269002082092 -0.250341320527996,51.5270962583787 -0.250271721986707,51.5271815243796 -0.250271377328295,51.5271905100101 -0.250271066765688,51.5273101613724 -0.250272073387164,51.5273614196191 -0.250597475275994,51.5277843944157 -0.250536881026877,51.5278239461753 -0.250213176311553,51.5280322737569 -0.250042426332637,51.5281979315301 -0.250112062561618,51.5282232424014 -0.250444809320394,51.5283432739777 -0.2503687715743,51.5284104652317 -0.249620845117836,51.5290764405051 -0.249545042812868,51.5291374307882 -0.249411102652178,51.5292451111911 -0.249319209630969,51.5291987913747 -0.249302174383829,51.5291904457951 -0.248830723433642,51.5294909610703 -0.248453508216859,51.5297425375919 -0.248484447107815,51.5298005345879 -0.247702204226959,51.5303094713276 -0.246931843436661,51.5307314667564 -0.246611074728251,51.5308624241713 -0.246305817183844,51.5309640367895 -0.246025042592638,51.5310317617425 -0.245982945115985,51.5310383240836 -0.245898820629699,51.531049653058 -0.245816273907053,51.5310601071919 -0.245526827457162,51.5310503868295 -0.245382659165194,51.5310527273847 -0.24524520250379,51.5312142907912 -0.245316301746359,51.5312387270865 -0.246262898873298,51.5315577236403 -0.246348642114811,51.5315383279611 -0.246970757186164,51.5317850454128 -0.246920766767416,51.531845431253 -0.246914856121019,51.5318507367266 -0.246558829114351,51.5322213806399 -0.246411585627321,51.532452022192 -0.246347315665149,51.5325869011599 -0.246287508498127,51.5327541210956 -0.24637081565339,51.5328012142087 -0.246497363153943,51.5328832058525 -0.246753228659169,51.533129756678 -0.247095100231073,51.5334244298529 -0.247127593780675,51.5334419964203 -0.247134738623834,51.5334447999752 -0.247202849043469,51.5334728764845 -0.247335283413736,51.5335162079026 -0.247632153793145,51.5335961557298 -0.247996837760413,51.5336717211343 -0.249000207640203,51.5338638834439 -0.250749874664427,51.5341849288979 -0.250907449483255,51.5339138913793 -0.250982717375541,51.5339042253245 -0.251117086240656,51.5338972373057 -0.251230912655243,51.5338989329807 -0.251333006789584,51.5339058475198 -0.251432007957047,51.5339190088899 -0.251542224750156,51.5339404287206 -0.251776240316486,51.53400414731 -0.251793381012471,51.5340097963326 -0.252006405763869,51.534093878454 -0.252064733992425,51.5341136260188 -0.252141972604442,51.5341300590218 -0.252317372265918,51.5341443583281 -0.25283698309241,51.534129618663 -0.254013987244365,51.5340815054188 -0.255247669948009,51.5340216369067 -0.255645466570862,51.5339870943866 -0.25602596616899,51.5339540911419 -0.256117767180044,51.5343421138029 -0.256128794107474,51.5343926214889 -0.256142791093963,51.5344431732979 -0.256159675787848,51.5344928687507 -0.256177866125876,51.5345425835972 -0.256196205563902,51.5345914922254 -0.25621736746958,51.5346412512098 -0.256239988971328,51.5346901335174 -0.256268499748202,51.5347373047984 -0.256278119302412,51.5347500336642 -0.256296136460091,51.5347700786139 -0.256314035431047,51.5347901227042 -0.256334904477948,51.5348102109114 -0.256354346910607,51.5348302770236 -0.256372331179641,51.5348512216258 -0.256375044224061,51.5348548580447 -0.256390019244438,51.5348767462239 -0.256405117324838,51.5348985463035 -0.256418634779905,51.5349212221566 -0.256428117009803,51.5349375450873 -0.256510889330753,51.534958551852 -0.257195007999682,51.5351314303583 -0.25734434203056,51.5351839913196 -0.257785433431744,51.5353389626332 -0.258020797986857,51.5352183946556 -0.258082137652,51.5351967399563 -0.258431466526694,51.5350742661992 -0.25963897777976,51.5347163045952 -0.260105150084798,51.5345909729539 -0.260294630453303,51.5345011852449 -0.260410040187335,51.5345361581716 -0.260521959850785,51.5343634119215 -0.260602013384158,51.5343061629157 -0.261205840244966,51.5339346538323 -0.262051400383416,51.5334274673736 -0.262884721152424,51.5329352867663 -0.263354435430789,51.5326787408504 -0.263846136951334,51.5324909325828 -0.264411281265908,51.5323005231328 -0.264421584961857,51.5322952808695 -0.26483087021771,51.5321862609017 -0.264731819860499,51.5319869277329 -0.264735011942371,51.5319779850938 -0.264739973842512,51.5319600787891 -0.264745052493083,51.5319421733108 -0.264751439525535,51.5319242880743 -0.264757944714014,51.5319064045841 -0.264759609111086,51.5319001362188 -0.264823183318474,51.5317445611069 -0.264820605042687,51.5317373307684 -0.264819453343182,51.5317301215189 -0.264818334356786,51.5317220143994 -0.264818607791977,51.5317148262178 -0.264818881227053,51.5317076380362 -0.264819188815735,51.5316995520059 -0.264820888824854,51.5316923849134 -0.264822587358224,51.5316852186983 -0.264825712499054,51.5316780726735 -0.264828837638869,51.5316709266486 -0.264832012563074,51.5316655798651 -0.264835137700982,51.53165843384 -0.264841078914493,51.5316522286975 -0.264847139727916,51.5316460253226 -0.264853082379095,51.5316398202007 -0.26486056976162,51.5316336379139 -0.264868055701116,51.5316274556053 -0.264875423478023,51.5316212715494 -0.264882876667843,51.5316159880086 -0.264890362601328,51.5316098056985 -0.264897730372267,51.5316036216412 -0.264905217742625,51.5315974393514 -0.264905251928692,51.531596540604 -0.265024874943784,51.5314831478462 -0.265069591007742,51.5314451517242 -0.265114238632642,51.5314089530797 -0.265161737873473,51.5313727965665 -0.265210628014777,51.5313375589454 -0.265261028622901,51.5313032428811 -0.26531127681701,51.531269823796 -0.265336331108121,51.5312549112698 -0.266095802660186,51.5308083647272 -0.266587108230159,51.5305143682578 -0.266946175968356,51.530362346295 -0.267501728591955,51.5301573953576 -0.267854057411377,51.5300699993854 -0.268159046248622,51.5300114802845 -0.268775078238275,51.5299603361194 -0.268699621119926,51.5298594348038 -0.268680344423266,51.5298348778217 -0.268998247461115,51.5297397779565 -0.269122705845005,51.5297272300169 -0.269222548705195,51.5297556719432 -0.269363659506017,51.5298368645633 -0.269652957182378,51.5300038480627 -0.270394351275469,51.5297657556949 -0.270569670738082,51.5300452297203 -0.271437013138871,51.5299465317167 -0.271438557808933,51.5299465544672 -0.272258425599867,51.5298426567331 -0.273534354249712,51.5296896357676 -0.27529869633557,51.5294709608668 -0.277173184992987,51.5292341883532 -0.278834231614842,51.5288097829507 -0.27894967071574,51.5287305658311 -0.279067349342356,51.5286675643467 -0.279223526674732,51.5287309853818 -0.279559696758815,51.528573106466 -0.279708655296353,51.5285600072554 -0.280114577044019,51.5284625725235 -0.280227879094217,51.5284399603172 -0.280455430900018,51.5284073344677 -0.280612050989547,51.5284590734801 -0.282103207852905,51.5287156375769 -0.282434112895894,51.528769925109 -0.282957482400945,51.5288459065133 -0.283336339126976,51.5289305601462 -0.284170574146492,51.5290597186126 -0.284243036464188,51.5290104344248 -0.28423061841082,51.5289202641291 -0.285728798145383,51.5291804756434 -0.286093151037491,51.5295373907028 -0.286345502710538,51.5296894971829 -0.286961867779056,51.5300527853429 -0.287571908311698,51.5304708149273 -0.288167726218922,51.5308436858 -0.288751613728412,51.5311894084819 -0.289053721637483,51.5314384266126 -0.289365212286157,51.531668701823 -0.288368355979318,51.532029142428 -0.287290329285589,51.5323632189127 -0.286456248640958,51.5326523003254 -0.285893552750978,51.5328149841901 -0.285815264935016,51.53286418471 -0.285761739608408,51.5329092522866 -0.285707523384655,51.5329695915752 -0.285647676247042,51.5330658095541 -0.28527078874823,51.5330827798252 -0.284166271674875,51.5334686686956 -0.284015757537889,51.533519508619 -0.283515807338255,51.5328197956433 -0.282253278042408,51.5330765057993 -0.281580198580028,51.5332212798996 -0.281485726852288,51.5332423716291 -0.281005485305454,51.5326705925633 -0.280928265613294,51.5325777642294 -0.280227047895818,51.5327815416995 -0.279736715062683,51.5329002149359 -0.279253541957843,51.5330559394798 -0.278986779674436,51.5332102502575 -0.278877082461915,51.5333291968947 -0.278772417204569,51.5335416222791 -0.278660413818765,51.5337594235779 -0.278567627024907,51.5340413350819 -0.278449755673024,51.5345656962248 -0.278129950997139,51.5345565097833 -0.278123263455059,51.5345824826875 -0.278041047741426,51.5349274773089 -0.277940273965894,51.5349610596512 -0.277940240029136,51.5349619584017 -0.277858544507064,51.5349877291425 -0.277774489854461,51.5350727994277 -0.277974513378868,51.5351215823466 -0.278194192871391,51.5352228851943 -0.278428575444419,51.5353566772812 -0.27864652938898,51.5355037121679 -0.278819483944223,51.5356555703865 -0.279146484345956,51.5358932935319 -0.279682219594461,51.5363336514309 -0.28050626268465,51.537039026444 -0.281578347897218,51.5379018435463 -0.282352195786483,51.5385651167552 -0.282462276538972,51.5386665149898 -0.282540170995963,51.5386280986182 -0.28275031404454,51.5385223956484 -0.284139210091165,51.5378655878254 -0.285115390428454,51.537405006499 -0.285688841090116,51.5371507857204 -0.286728822526561,51.5367568367819 -0.288720142846234,51.5361024657506 -0.290165220456668,51.5357881065207 -0.290342809399086,51.5357412484396 -0.292035137215586,51.5352937296526 -0.292115164250291,51.5352742174073 -0.29288799889725,51.5350812963769 -0.293271300864356,51.5349726969697 -0.293500504687492,51.5349346749015 -0.294345364060993,51.5350152740901 -0.295022854267629,51.5349046502598 -0.295089557428004,51.5348948306093 -0.295150137680415,51.5348930134236 -0.295203318743136,51.5348982800365 -0.295253328183722,51.5349088951474 -0.295340010440647,51.534943416758 -0.295376598698443,51.5349664227945 -0.295666233486225,51.5352422111362 -0.295761088437501,51.5352903352431 -0.295802290147644,51.5353044183547 -0.29585808863186,51.5353160164756 -0.295938650291472,51.5353234786441 -0.296032313576625,51.5353239387346 -0.296153694079602,51.5353176088119 -0.296276699729784,51.5353059095727 -0.296375277962603,51.5352893595479 -0.296565963123986,51.5352417828391 -0.29670176967019,51.5351961074503 -0.29685100026498,51.5351379499725 -0.296974392017006,51.5350777098602 -0.297093808279147,51.5350093205528 -0.297177993139554,51.5349548044973 -0.297301265683278,51.5348595016479 -0.297662061593317,51.5344618067546 -0.298065108716877,51.5341708934734 -0.298475499734853,51.5338773892996 -0.299533976283306,51.5332533633723 -0.30039869489043,51.5328387749852 -0.301419124361353,51.532421039496 -0.302513985378979,51.5321365226588 -0.30270856666154,51.5319837216481 -0.30472613778011,51.5324724350663 -0.30603388560329,51.5327448255206 -0.30736676056866,51.5330356329601 -0.307441165009051,51.5330519891969 -0.307478058104128,51.533066904472 -0.307399908905702,51.5331162110115 -0.307362855528249,51.5331408484404 -0.307210520446428,51.5332447322774 -0.307135141175903,51.5333730996341 -0.307060784547749,51.5335123589418 -0.306961376969745,51.5336250970507 -0.306791667806909,51.533690972353 -0.30650106775097,51.533753396007 -0.306407478407858,51.533786207356 -0.306354073539681,51.5338285880738 -0.306312523763208,51.5339358673869 -0.306233782114679,51.5342314873515 -0.306168557633662,51.5345920280603 -0.30607104242546,51.535002536932 -0.306009708332732,51.53545033694 -0.305946074430447,51.5360015761039 -0.305937248093914,51.5360823573138 -0.305863160030207,51.5367197486737 -0.305872971518127,51.5373484615964 -0.305862118714017,51.5376405654762 -0.305962375164114,51.5391725352797 -0.3059441159932,51.5394303708675 -0.30475939145645,51.5398412789824 -0.304721305199643,51.5398551124782 -0.304702347530763,51.5398629301485 -0.305006950013852,51.5401254268752 -0.305506332769215,51.540460854243 -0.305899170793086,51.540755187177 -0.306320157181501,51.5410697027205 -0.306938047445437,51.5417107808083 -0.307040940310798,51.5418120515802 -0.307636408184536,51.5423979650041 -0.308552704778401,51.5432403075066 -0.308466447724651,51.5432705295238 -0.308444591831589,51.5433565171925 -0.308313226470061,51.5435129369981 -0.308192010067252,51.5437098664732 -0.308015566656169,51.5440364447 -0.307976226660735,51.5444334105004 -0.308032444057948,51.5445142311289 -0.308451802763674,51.544870969147 -0.308872508706157,51.5449606353243 -0.308867222061414,51.5452186592408 -0.308040323347676,51.545234614319 -0.307263947009512,51.5452476967897 -0.307198689910153,51.5452566440359 -0.307170469336679,51.5452769144158 -0.3071468133168,51.5452927552703 -0.307100892029256,51.5453253553644 -0.307143941710114,51.5453701164961 -0.30724533789788,51.5454767605986 -0.307673633991558,51.5458650948836 -0.308153981538529,51.5462128241421 -0.308577941310044,51.5464491642125 -0.309391464838571,51.5468331537095 -0.309632806343488,51.5469373156668 -0.309769533722706,51.5469861214674 -0.31119997546545,51.5474194324034 -0.311269761415871,51.5474456079746 -0.311344800647408,51.5474808488434 -0.311471727705873,51.5475599881446 -0.311706796892928,51.5477567411957 -0.311922243934723,51.547934333757 -0.312083021757585,51.5481110491253 -0.312217584155329,51.5483342256183 -0.312360920512954,51.5485934872141 -0.312499227948912,51.548908413531 -0.312575220782779,51.5491558295588 -0.312784976266679,51.5492946819954 -0.313749815692129,51.5498021805593 -0.31442148336106,51.5501274616278 -0.31451634280737,51.5500578036953 -0.315794751649951,51.5506319102975 -0.316597161568601,51.5509734459034 -0.316539517504313,51.5510499336647 -0.317348178720941,51.5514158266158 -0.317629453546067,51.5515350215364 -0.317756156372871,51.551617747806 -0.317956034158325,51.5516349956579 -0.318349431943748,51.5518034425851 -0.319030935113907,51.5520577314142 -0.319660247391545,51.5522825907975 -0.320473195841157,51.5525721057773 -0.321268754195568,51.5528658608481 -0.321973962001752,51.5531070755064 -0.322241157433611,51.5532151786822 -0.322749969998319,51.5534220269363 -0.323919923424916,51.5538497595379 -0.324731455807186,51.5541437183975 -0.325564559755791,51.5544757373379 -0.326101629459485,51.5547009533688 -0.327000448423244,51.5550123225294 -0.327941927725544,51.5552991199168 -0.328630044349386,51.5554177863215 -0.329381826443803,51.5555291729368 -0.330392386679522,51.5556676079706 -0.3313783084522,51.5558066732792 -0.332212842912455,51.5559452887822 -0.333189755434148,51.5561327573047 -0.334095610350153,51.5562957451229 -0.334131285394209,51.5562665837292 -0.334153642253531,51.5562471234571 -0.334181901007118,51.5562223522424 -0.334211706805039,51.556197602967 -0.33471061700901,51.5563620047986 -0.335562213773092,51.5565845327576 -0.335578550550521,51.5565344201163 -0.335809968400292,51.5565943363719 -0.335881820392743,51.5566430016444 -0.336272369072808,51.5566934837237 -0.336305406181468,51.556697547812 -0.336373776065917,51.5567209913807 -0.337154661208302,51.5569847576673 -0.33757532128172,51.5570806127403 -0.337829955894003,51.5571400440694 -0.338302842811169,51.5572258470797 -0.33854829302368,51.5572598849187 -0.338844235015355,51.5572955355607 -0.339032517633753,51.5573152795152 -0.340996638380126,51.5574131579646 -0.341421868741193,51.5574227591276 -0.342136957136962,51.5574751972258 -0.342523719597876,51.5574697770255 -0.342522053257378,51.5575156928309</coordinates></LinearRing></outerBoundaryIs></Polygon>
  </Placemark>
