  <Placemark>
	<Style><LineStyle><color>ff0000ff</color></LineStyle><PolyStyle><fill>0</fill></PolyStyle></Style>
	<ExtendedData><SchemaData schemaUrl="#Local_Authority_Districts__December_2019__Boundaries_UK_BFC">
		<SimpleData name="objectid">105</SimpleData>
		<SimpleData name="lad19cd">E07000078</SimpleData>
		<SimpleData name="lad19nm">Cheltenham</SimpleData>
		<SimpleData name="lad19nmw"></SimpleData>
		<SimpleData name="bng_e">394925</SimpleData>
		<SimpleData name="bng_n">222232</SimpleData>
		<SimpleData name="long">-2.07515</SimpleData>
		<SimpleData name="lat">51.898609</SimpleData>
		<SimpleData name="st_areashape">46596069.2175817</SimpleData>
		<SimpleData name="st_lengthshape">38231.0639602385</SimpleData>
	</SchemaData></ExtendedData>
      <Polygon><outerBoundaryIs><LinearRing><coordinates>-2.10543128255023,51.9378431878474 -2.10573305081507,51.9381063657172 -2.10580159656716,51.9381845028261 -2.10596467395657,51.9382725316113 -2.10609750674067,51.9384530787355 -2.10627227124543,51.9385635676547 -2.10631909844107,51.9386875647039 -2.10637458389392,51.938770207931 -2.10644908503885,51.9388807876939 -2.10656542472398,51.9388815799919 -2.10677436293702,51.9386323213273 -2.10678739528419,51.9386152310632 -2.106678092987,51.9385470190824 -2.10658350275595,51.9379033554082 -2.10682311272551,51.9377439515339 -2.10670209148484,51.9376388980203 -2.10668598080121,51.9375714093038 -2.10667854879117,51.9375219800542 -2.10660432168625,51.9374762071749 -2.10659266383621,51.9374654313124 -2.10657513647701,51.9374582562897 -2.10648926025687,51.9374053029584 -2.10640316179492,51.9373092056294 -2.10638271776405,51.9372858539541 -2.10638121540955,51.9372588005493 -2.10637970903045,51.9372300388609 -2.10634183949765,51.9371914228422 -2.10624137262697,51.9371555609633 -2.10621664539856,51.9371465951266 -2.10619762465363,51.937116051137 -2.10612612303581,51.9370046601727 -2.10590306991579,51.9368079264477 -2.1058855176177,51.9367899648595 -2.10586662495858,51.9367630170928 -2.10584764044953,51.9367477540903 -2.10581553804043,51.9367136272754 -2.10575284481536,51.9366237093725 -2.10558114727572,51.9365906076864 -2.10532917552613,51.9364883672396 -2.10520405561828,51.9364740978365 -2.10515751022346,51.9364687468889 -2.10537893707133,51.9359704092784 -2.10564232138372,51.9354163962023 -2.10574357931701,51.9351771228876 -2.10577680589647,51.9350782198614 -2.10581585712492,51.9349567513696 -2.10585612641,51.9347922266159 -2.10586049032658,51.9347607632001 -2.10659364030083,51.9348320056788 -2.10676383450853,51.9348408387929 -2.10679298126743,51.9348426094918 -2.10673588756311,51.9346870725391 -2.10671529300319,51.9345990048137 -2.10677174912609,51.9344856992204 -2.10689667007734,51.9344180817131 -2.10693152515446,51.9344000732809 -2.10692220760772,51.9341114638579 -2.10742249675537,51.9340984218239 -2.1076361988442,51.9340478902786 -2.10764926383927,51.9340451818616 -2.10768257262799,51.9339822322687 -2.10759355905879,51.9338690600538 -2.10759065639502,51.9338582762326 -2.10759049121008,51.9337889756344 -2.1075555083908,51.9337530546244 -2.10754384555834,51.9337404815537 -2.10754518985264,51.9337009307474 -2.10754924344582,51.9335903701998 -2.10749957543024,51.93348066641 -2.10750649679252,51.9333656086284 -2.10750789460156,51.9333485298549 -2.10753829482595,51.9332729991681 -2.1075512953918,51.9332433250384 -2.1074782639405,51.933092296732 -2.10746351694069,51.9329925390385 -2.10745745277526,51.9329134463555 -2.10744424101755,51.9328549442126 -2.10738951249485,51.932482783553 -2.10727279433928,51.9323157058097 -2.10727124703473,51.9322698666505 -2.10725039270838,51.9320729497514 -2.10711062594688,51.9319957768245 -2.10700712758671,51.9318906175664 -2.10697202599337,51.9318546955814 -2.10706359466359,51.9317836036523 -2.10708381990758,51.9317665067499 -2.10708965735769,51.9317503230127 -2.10711414091023,51.931657719437 -2.10712139542138,51.9316325452048 -2.10709211555525,51.931573158622 -2.10702372466877,51.9315570419094 -2.10696831725448,51.9315040610006 -2.10685493862238,51.9315302312974 -2.10675908561585,51.931564474691 -2.10667610470419,51.931564550383 -2.1065625588751,51.9315206105774 -2.10655366683686,51.9314109600169 -2.10644426568494,51.931293220938 -2.10642238598993,51.9312698714506 -2.10646872912013,51.9311916301108 -2.10649189671728,51.9311511603385 -2.10648890615971,51.9311035251749 -2.10640735455651,51.9310487695948 -2.10640727408437,51.9310146137782 -2.10640717434016,51.9309722779718 -2.10643038358279,51.930948887466 -2.10644776860558,51.9309479725494 -2.10653505585441,51.9309433993962 -2.10661068971872,51.9309298476015 -2.10666279922502,51.9308560946244 -2.10663943310305,51.9308129717364 -2.10656958817506,51.9307896659861 -2.10634707004921,51.930807845069 -2.10616089587645,51.9307792510685 -2.10609981212604,51.9307595316889 -2.106093875214,51.9307334712793 -2.10609095477484,51.9307154964331 -2.10621870026428,51.9306290022269 -2.10623614456721,51.9306020205939 -2.1063201374832,51.9304716126181 -2.10631995128136,51.9303925145034 -2.10649260831535,51.9302322736813 -2.1065275478201,51.9302007823761 -2.10653148631488,51.9300398858128 -2.10653871311749,51.930002937026 -2.10654301479264,51.9299966412093 -2.10661991714358,51.9299111809571 -2.10660499931858,51.9297889520634 -2.10657305383751,51.9297683081708 -2.10652933820451,51.9297395848894 -2.10655399124838,51.9297187986295 -2.10658151838651,51.9296963032548 -2.10654059667246,51.9295812881372 -2.10641100746929,51.9295454528858 -2.10639217193666,51.929540975418 -2.10638479733958,51.9295158145258 -2.10646033989318,51.9294645115059 -2.10653432468753,51.9294132107546 -2.10642231077724,51.9294060317989 -2.10640635832632,51.9294042490097 -2.10636984201415,51.9293260830198 -2.10637123589308,51.9293072060525 -2.10637831896578,51.9292092256119 -2.10626469617054,51.9291293314789 -2.10626733721057,51.9290285687671 -2.10616520580726,51.9288893414928 -2.10602626422227,51.9285460194683 -2.10601736307044,51.9284831085284 -2.10602605934413,51.9284587422334 -2.10605488710046,51.92837782049 -2.10599793248174,51.9282763025977 -2.10599068956035,51.9282556352579 -2.10599482872751,51.9281801286948 -2.10599619022209,51.9281467807449 -2.10600777946521,51.9281287936395 -2.10604841257522,51.9280712305991 -2.10604826695959,51.9280092108185 -2.1060073891941,51.9279625081604 -2.1060059009295,51.9279418356053 -2.10600432974168,51.9278852099167 -2.10605950855556,51.9278438138902 -2.10612773279675,51.9277915286914 -2.10622645001249,51.9277545867788 -2.10623798687022,51.927715026692 -2.10629312018461,51.9276538557906 -2.10631335034891,51.9275882219881 -2.10625169550269,51.9273239282162 -2.10624285981948,51.9272888812301 -2.10627033911863,51.9272466111542 -2.10627618473793,51.9272340220391 -2.10628634237608,51.9272196308057 -2.10629487116617,51.9271242564117 -2.10634706148327,51.9270864575613 -2.10636166447504,51.9270756577806 -2.10636445355753,51.9270379038304 -2.10618985239465,51.9270299732603 -2.10603993262161,51.9269617965377 -2.10595114999893,51.9269394057801 -2.10590316129747,51.9269277645328 -2.10595982303074,51.9269052420107 -2.10597575560891,51.9268989356745 -2.10598438200647,51.9268449081267 -2.10590260262235,51.9266894819322 -2.10573781960056,51.9264693245006 -2.10550193244554,51.9263508904466 -2.10547864466289,51.9263392267437 -2.10548711956416,51.926271805469 -2.10566873433829,51.9261529045691 -2.10568449844983,51.9260746910862 -2.10569018552324,51.9260459228326 -2.10562771360071,51.9260441819635 -2.10562339600475,51.9260441858625 -2.105573809485,51.9260154675146 -2.10557816858869,51.9259822058628 -2.10558238996876,51.9259416643204 -2.10547893013257,51.9258455818124 -2.10545417565621,51.9258222338207 -2.105461147224,51.9257269507803 -2.10546248616149,51.9256838044487 -2.1053939807593,51.9256145653469 -2.10527756412403,51.925566133161 -2.10517568631678,51.9255311697958 -2.10516404654068,51.9255266856597 -2.10515964947392,51.9254925336924 -2.10514328362506,51.9253640137088 -2.1050456476451,51.9252453641084 -2.10503975380393,51.9252372801724 -2.10513113432392,51.9251419201411 -2.10519350313955,51.9250483843415 -2.1051919956475,51.925018723393 -2.10517734461012,51.9250087592218 -2.10511190036658,51.9249665727947 -2.10512052131403,51.9249611722287 -2.10521198094964,51.9248999680906 -2.1050475333835,51.924820118188 -2.10475212872312,51.9247287015355 -2.10453382760747,51.9246398208552 -2.10432555812118,51.9245339431547 -2.10414643998085,51.9244343310487 -2.10389883837023,51.9242214340236 -2.10361426749598,51.9238332952397 -2.10342616039567,51.9235772009364 -2.10336497094157,51.9235062455899 -2.10325109522481,51.9233606436611 -2.10358651796663,51.9231329387792 -2.104280392004,51.9225829479363 -2.10466782373229,51.9222463438043 -2.10487242737422,51.9220689977914 -2.1051349787185,51.9218071088857 -2.10534381819391,51.9215461659527 -2.10570750357138,51.9210082383229 -2.10596989439316,51.9206825285554 -2.10605249955347,51.9205304594934 -2.10608723012615,51.9204639132862 -2.1060682775758,51.9204594358266 -2.10606240108131,51.9204585429418 -2.10598095500817,51.9204406390655 -2.10591381389438,51.9203373325527 -2.10607747914427,51.9200395767838 -2.10625423729655,51.919753493682 -2.10680498138279,51.9190399385318 -2.10692983077373,51.9189598279017 -2.10757945309242,51.9181932372209 -2.1078592627454,51.9178441380429 -2.10805237260752,51.917736008571 -2.10831755936385,51.9173905173516 -2.10852052923406,51.9171466521271 -2.10873941273425,51.9168425477092 -2.10897264706942,51.9165249461378 -2.10907123478998,51.9163963185515 -2.10933413398081,51.9163007959505 -2.10942675324584,51.9160848942347 -2.10962242709734,51.9158536166776 -2.11002389546803,51.9159522041339 -2.11029152657526,51.9159798171497 -2.11031193699045,51.9159923819138 -2.11040221218366,51.9160444310319 -2.1105782278375,51.9161080832365 -2.11067141164569,51.9161241748619 -2.1107077438197,51.916127736124 -2.11072093186484,51.9161771603927 -2.11081113115007,51.9161986484919 -2.11087352756635,51.9161743198334 -2.11089245231957,51.9161680099668 -2.11103186992426,51.9161193404854 -2.1110524757941,51.9162110042254 -2.11115014415898,51.9162954937931 -2.11135529345206,51.9163600163503 -2.11155006403474,51.9163472473536 -2.11169385574456,51.916274303225 -2.11175056188243,51.9162760474436 -2.11184375449377,51.9163433721821 -2.11184676135166,51.9163955033703 -2.11177714784784,51.9164584895075 -2.11178599281554,51.9164962329534 -2.11185578135424,51.9165042557367 -2.11239236749039,51.9165091357792 -2.11251313863325,51.9165783217045 -2.11260629031248,51.916580928768 -2.11269769644438,51.9165088428786 -2.11282429544163,51.9165600460611 -2.11305224258098,51.9164401891006 -2.11318623841297,51.9165245520808 -2.11329963024526,51.9165190497634 -2.11332842121288,51.916431833343 -2.113402598339,51.9164209750298 -2.11344462227004,51.9163526217277 -2.11352741082973,51.9163336657034 -2.11374845967444,51.9163792927834 -2.11391258686495,51.916290147595 -2.11410027169374,51.9163205260082 -2.11425741000986,51.9164066625958 -2.11440429411106,51.9164200025338 -2.1146499037991,51.9163649322716 -2.11474610185695,51.9164340500261 -2.11493948369756,51.9164419509431 -2.11491686085878,51.9166901467343 -2.11501001293805,51.9167394922037 -2.11500573522436,51.9168015171005 -2.1148779967048,51.9168691466176 -2.11487811584645,51.9169158868048 -2.11540649849229,51.9171328909347 -2.11562903796941,51.9171965790624 -2.11583592543149,51.9173276068997 -2.11601920604716,51.9173678736738 -2.11612402659193,51.9174324863688 -2.11638733346272,51.91749793087 -2.11661290937331,51.9175759061821 -2.11680642359021,51.9176332399509 -2.11698812893232,51.9176195759965 -2.11712617371598,51.9175511264009 -2.11757672711935,51.9175210135435 -2.11765100312024,51.917547904912 -2.11766430099351,51.9176368773511 -2.11784785340337,51.9177805977496 -2.11794972504666,51.917816448605 -2.11808055771512,51.9177866557891 -2.11817330196313,51.9176777123172 -2.11839765062416,51.9178348745659 -2.11863478279245,51.9178831739245 -2.11892858936898,51.9179206290888 -2.11898554934324,51.9180176464905 -2.11915745574174,51.9181532880476 -2.11926212773947,51.9181585749135 -2.11943696704911,51.9182689555518 -2.11949826622522,51.9183749565658 -2.11943742445711,51.9184425217855 -2.11947683646951,51.9185224783015 -2.1196399432765,51.9185924227015 -2.11981587343803,51.9186156132321 -2.12003119002414,51.9186630327466 -2.12021189412467,51.9188139438541 -2.1203998077911,51.9189252086971 -2.12054514421749,51.918938541987 -2.12118109529247,51.9191051638393 -2.12135562627653,51.9191418363322 -2.12143843461384,51.9191300662609 -2.12150663886618,51.9190814580487 -2.12162433305569,51.9190246195872 -2.12190039846445,51.9189695052648 -2.1221722785228,51.9189629315813 -2.12230478887238,51.9190212183237 -2.12253315067055,51.919058822136 -2.12269907197128,51.9191035916632 -2.12295202345361,51.9191015304803 -2.12311939310138,51.9191498924838 -2.12359761473575,51.9191062473073 -2.12351950944556,51.9192600309481 -2.12357050039242,51.9192743585068 -2.12393974583046,51.9192739703544 -2.12420752735216,51.9193465842662 -2.12429638351841,51.9193977246524 -2.12449874822557,51.9194846980802 -2.12460170278756,51.9193875145085 -2.12468010024739,51.919340691929 -2.12472917764053,51.9192263970417 -2.12468531223889,51.9191437508278 -2.12469393047197,51.9190952039304 -2.12469535511471,51.9190898096357 -2.12470122685833,51.9190889043194 -2.12480871086239,51.9190699147795 -2.12496272008216,51.9190112372724 -2.12502463975117,51.9188152240855 -2.12502760919226,51.9188053335601 -2.12511883895666,51.9186739163158 -2.12521438741746,51.9185443816222 -2.1255346882685,51.9181448657849 -2.12551265308601,51.9180666003834 -2.12572000300154,51.9178767246155 -2.12595766703915,51.9175959425708 -2.12620267909408,51.9173286350837 -2.12659983894361,51.9168993689836 -2.12695787210545,51.916499713881 -2.12722594454942,51.916210892035 -2.12745930719705,51.9159426922707 -2.12746927513568,51.9158643914162 -2.12747066228504,51.915846412195 -2.12755291572766,51.9156404861634 -2.12769028413206,51.9153409290055 -2.12850743933515,51.914360919936 -2.12866958862104,51.9140954909378 -2.12887799590722,51.9137841699783 -2.12896771723316,51.9136365700009 -2.12938343404013,51.9125931744577 -2.12952964959811,51.9123763002604 -2.12966666161711,51.9120021365109 -2.12970539795334,51.9118007514466 -2.12979226631051,51.9117052871321 -2.12981257930086,51.9116827932844 -2.12982252958749,51.911600087477 -2.12983382602152,51.9114850220725 -2.12990290106645,51.9112466599417 -2.13008320484537,51.9107573050869 -2.13016091093111,51.9104784840482 -2.13021964981973,51.9101897972676 -2.13031921558238,51.9099272222887 -2.13051171859659,51.9096392856729 -2.13073173722842,51.9092928939849 -2.13084034969695,51.9091344849744 -2.13117652373524,51.9087942546274 -2.13143731518174,51.9084594976132 -2.13145463610392,51.9084397030292 -2.13175013449464,51.9080887266325 -2.13208622269526,51.9076845802234 -2.13224124715398,51.9074983412677 -2.13240910924147,51.907235594861 -2.13276712187521,51.906914207401 -2.13290627725646,51.9067539627729 -2.13297866048063,51.9066702870403 -2.1329771246377,51.9066370302408 -2.13297410990481,51.9065902927713 -2.13303637222791,51.9065291001767 -2.13309445254773,51.906472406082 -2.13317224252503,51.9062717815555 -2.1331806621247,51.9061603123344 -2.13318506104672,51.9061486223683 -2.13320734179933,51.9058203311827 -2.13320939152947,51.905540781797 -2.13339392319296,51.9050433213675 -2.13346184747134,51.9049120093917 -2.13374317940449,51.9046868844551 -2.13384162270034,51.9045419653119 -2.13402695476815,51.9042765888384 -2.13420770774663,51.9039634881977 -2.1343232943973,51.9037412469374 -2.13446638113537,51.9034578508424 -2.13468044337108,51.9031042615266 -2.1348381992499,51.9028783761037 -2.13496981855217,51.902689463637 -2.13517109733824,51.9024320677117 -2.13537515444487,51.9021423087864 -2.13541987535795,51.9020298094793 -2.13543727757142,51.9019983291708 -2.13549779379691,51.9018382615482 -2.13559589223498,51.9015827806621 -2.13568779276513,51.9012194434438 -2.13589856979467,51.9007372291747 -2.13629460305577,51.9000166009899 -2.13632370975168,51.9000120726451 -2.13639772539883,51.8999985047497 -2.13646875990994,51.8999498834799 -2.13648480069087,51.8999444719865 -2.13662840914983,51.8998417446639 -2.13679669214286,51.8997354837694 -2.13688633495351,51.899619426264 -2.13704709254088,51.8994034223567 -2.1370890000705,51.8993530371898 -2.13721962353496,51.8992764814764 -2.13722491134012,51.8990849271759 -2.13728576655827,51.8990390146009 -2.13732924246255,51.898992223107 -2.13735528025623,51.8989643271835 -2.13746674387368,51.8988139971107 -2.13756525961463,51.8987015242974 -2.13757821526724,51.8986664532958 -2.13759115571355,51.8986268884954 -2.13776960300244,51.8985160296617 -2.13787257270901,51.8984493931422 -2.13794479547964,51.8983207710145 -2.13800837951459,51.8981884734425 -2.13803895938772,51.8977272299463 -2.13818784887063,51.8974743840817 -2.13818469690038,51.8973845015656 -2.13821212788557,51.8973422232324 -2.13821508150047,51.897328646612 -2.13852457331185,51.8968544915301 -2.13883409309187,51.8963523799883 -2.13942555809491,51.8954273789036 -2.13946888635966,51.8953347440288 -2.13950635725765,51.8952466107843 -2.13957849418103,51.8950549770597 -2.13953525685409,51.8947124703213 -2.13960017678056,51.8945505979965 -2.13965802320778,51.8944650471144 -2.13979122797213,51.8942994981583 -2.13986503371963,51.894221209342 -2.14005064758242,51.8940716867971 -2.14025060345788,51.8939114509097 -2.14055148603934,51.8934569856051 -2.14105462051311,51.8926229551908 -2.14117305633064,51.8924123887059 -2.14128151958256,51.8922314961445 -2.14138975016629,51.891976897935 -2.14143133087765,51.8918258401351 -2.14143287588514,51.8918222427046 -2.1418647998633,51.8910241635168 -2.14236355419334,51.8902233940805 -2.14258200737289,51.8898967529656 -2.1428176163841,51.8895026763447 -2.14294313440932,51.8892264834204 -2.14299777358827,51.8890402623702 -2.14301320220717,51.8888811443497 -2.14301431485322,51.8887785830799 -2.14299824412205,51.8882832396308 -2.14298898124999,51.8881204669993 -2.14293569741711,51.8877896600509 -2.14293080189869,51.8876440499011 -2.14292600674965,51.8874920585707 -2.14291096866079,51.8873590448238 -2.14287531064191,51.8871082156362 -2.14280738049745,51.8867675387859 -2.14271071257719,51.886505997781 -2.14260025517135,51.8860512174383 -2.14258707637867,51.8855593750858 -2.14257702790272,51.8851098657793 -2.1425311558319,51.8848482630156 -2.14241819294109,51.8845085396829 -2.14239196781458,51.8845112679312 -2.14239052375002,51.8845094714406 -2.14177188846215,51.8845785338029 -2.14055200308146,51.8847615694391 -2.13995793171307,51.8848342773308 -2.13841858746507,51.885071602403 -2.13737146817694,51.8852311208848 -2.13676459193222,51.8853513772125 -2.13530236597763,51.8856695580601 -2.13413065970027,51.885919079814 -2.13308362353253,51.8861199126617 -2.13223552287933,51.8862664904427 -2.13161407152871,51.8864110987123 -2.13006176411217,51.8867176384365 -2.1283278419518,51.8870746925377 -2.12683078970319,51.8874062957474 -2.12650552147494,51.8874893430183 -2.12619621798564,51.8875409112993 -2.12607802890979,51.8873900310977 -2.12604015519338,51.8873415342576 -2.12539476145112,51.8867326249215 -2.12514586936663,51.8865790976859 -2.1247470638986,51.8863232601265 -2.12450519481277,51.8861086924555 -2.12440179698146,51.8860179284887 -2.12443792550006,51.8859567675202 -2.12454390514512,51.8858982294339 -2.12545940750058,51.8854297557673 -2.12576984222728,51.8852738296701 -2.12613104466466,51.885066613754 -2.12637174883609,51.8848659089896 -2.12702002178793,51.8844641365714 -2.12713891567778,51.8843579414977 -2.12741371681041,51.8844403369876 -2.12750961471258,51.8844627038442 -2.12752271353232,51.8844348251191 -2.12765984419019,51.8841280749072 -2.12738629023646,51.883978264947 -2.12738628513951,51.8839764676251 -2.12762633223815,51.8835905087632 -2.12772473929642,51.8834429013883 -2.12810961236695,51.8828913106851 -2.12823257673486,51.8827024188583 -2.12841249144145,51.8826159317461 -2.12855453090576,51.8825213078839 -2.12859647413153,51.8824439607322 -2.1286165709104,51.8823504592712 -2.12860442811876,51.8821679178448 -2.1284586714973,51.8820089838875 -2.12842658706627,51.8819739642729 -2.12842198940849,51.8818741082403 -2.12841909111661,51.8818660213425 -2.12841902427137,51.8818426520419 -2.12840985807438,51.8816952522032 -2.12840084334813,51.8816007938276 -2.12838737815091,51.8814578924165 -2.1283375830885,51.8813446931845 -2.12804510473561,51.8811480790549 -2.12795185535396,51.881086161673 -2.12794453768842,51.881040328271 -2.12792238835617,51.8809180203466 -2.12792084764449,51.8808820688859 -2.12790173255034,51.8808155754629 -2.12786348061158,51.8806330626911 -2.12783278725634,51.8805809639507 -2.12768675190231,51.8803212685006 -2.1276925035384,51.8802799153522 -2.12770527331438,51.8801792310882 -2.12771521657857,51.880095628296 -2.12772658244885,51.8800065403379 -2.12769869056664,51.8799283718384 -2.12775774501291,51.8797187874055 -2.12772576648835,51.8797197215971 -2.12768360811402,51.8797215651463 -2.12733609819747,51.8796284665625 -2.12602467608887,51.8792666729716 -2.12589723512902,51.8793962432045 -2.12552469417248,51.8796879603519 -2.12517600623951,51.8802017525798 -2.12500441993636,51.8806541429993 -2.12502244169338,51.8808888103434 -2.12487745104822,51.8809563792424 -2.12451313950952,51.8811123578645 -2.12437159410609,51.8813867450735 -2.12425137681449,51.8815333846293 -2.12389788003183,51.8818781057166 -2.12396316443055,51.8818780362945 -2.12383430439316,51.8820193807492 -2.12369416558012,51.8822847762137 -2.12337305885564,51.8828245097834 -2.12325180123314,51.8831186474849 -2.12302041942442,51.8829633932903 -2.1229724177177,51.8829319845841 -2.12271040156029,51.8827874577727 -2.12235120838638,51.8826323359197 -2.12196445050188,51.8825149040519 -2.12158924384234,51.8824164235207 -2.12126230896851,51.8823601373578 -2.12090037685199,51.8822966965703 -2.12051663449857,51.8822295909766 -2.12022301730844,51.8821786603163 -2.11991632249842,51.8821196532647 -2.11951940278167,51.882050850701 -2.11904410493543,51.8819677459667 -2.11884932824523,51.8819220146971 -2.11874468822173,51.8818969540117 -2.11861537435832,51.8818728165559 -2.11794950285965,51.8817000187829 -2.11755823354193,51.8815457264657 -2.11736904505065,51.8814362603933 -2.1166347240343,51.8811474866858 -2.11622461428746,51.881021971772 -2.11556883880854,51.8808078056405 -2.11541332547178,51.8807486376237 -2.11507148575772,51.8806176579804 -2.11452180286686,51.8803853143482 -2.11446962525834,51.8804510706032 -2.11418037152375,51.8803658775219 -2.11398701760742,51.8803094412894 -2.11398699705119,51.8803013512848 -2.11398961402074,51.8801997801474 -2.1138341316918,51.8801981357026 -2.11382839071935,51.8802017368087 -2.11376596717445,51.8802422455362 -2.11224819547453,51.8798103980004 -2.11225972674036,51.8797752422472 -2.11162878627327,51.8796104668131 -2.1111143248885,51.8795129883967 -2.11063174356449,51.879422578317 -2.11007941961988,51.8793188397229 -2.10962887761328,51.8792500568947 -2.10921761700974,51.8791785389298 -2.1088237264869,51.8791069133009 -2.10821774056483,51.8789996209757 -2.10805488743839,51.8789692129953 -2.10770902614902,51.8788949323508 -2.10768278113806,51.8788895640211 -2.10742415420241,51.8788294924122 -2.10689059759532,51.8787041496293 -2.10647193807984,51.8785894842867 -2.10634548525382,51.8785527486243 -2.10622634455848,51.8785186125794 -2.10591076402007,51.8783813805182 -2.10590200948355,51.8783768939761 -2.1056633758593,51.8782089408113 -2.10546672293149,51.8779637385962 -2.10519868247439,51.8776654800133 -2.10486672442653,51.8773331232301 -2.10427420766756,51.8768229411943 -2.10412295649961,51.8767295989984 -2.10398625818423,51.8766623099646 -2.1037128681753,51.8765294378943 -2.10323287721499,51.8762951822507 -2.10298422557498,51.8761893418546 -2.10281414831737,51.8761364612563 -2.10262238599594,51.8760809041911 -2.10244357842716,51.8760334244553 -2.10226909947491,51.8759939407289 -2.10202694185048,51.8761605287159 -2.10182814031125,51.8762748561321 -2.10152647289812,51.8764504836717 -2.1012580840452,51.876619699338 -2.1006632591242,51.8769781333178 -2.09972606530786,51.8775336139981 -2.09879032624473,51.8781071532111 -2.09823468649137,51.8784375878702 -2.09751946164285,51.8788635210392 -2.09748009945163,51.8788293087598 -2.09723214304066,51.8783809090894 -2.09720317255438,51.8783881243577 -2.0970579382999,51.8784143127171 -2.09704606649965,51.8782974741902 -2.09709655780435,51.878161617925 -2.09710875044282,51.8777076074675 -2.09719099440296,51.877467459666 -2.09718174388012,51.8772336814165 -2.09713640940834,51.8770952990951 -2.09711587395323,51.8770153197472 -2.09708384388611,51.876936159221 -2.0970414086874,51.8768094599025 -2.09689262451659,51.8765209692929 -2.09679617170009,51.8762818703137 -2.09651388888697,51.8760690827473 -2.09634951469277,51.8759352030672 -2.09624466965053,51.8758022635468 -2.09652912980813,51.8756931772473 -2.09716042560299,51.8754104153001 -2.09731864997803,51.8753589586557 -2.09754800443143,51.8753021399309 -2.09801107229016,51.8751552382975 -2.09792219901013,51.875043768735 -2.09775920448748,51.8748839142235 -2.0977065717862,51.8747490438054 -2.09760612492681,51.8746565482769 -2.09746366384936,51.8745748744362 -2.09688740539767,51.8747704951461 -2.09612820469391,51.8750542610102 -2.09566074529838,51.8751652950619 -2.09546427160719,51.8749721177131 -2.09533616638997,51.8748814412225 -2.09516728055877,51.8747062179424 -2.09499033776551,51.8747981344828 -2.09469567663084,51.8748963482115 -2.09424297852225,51.8751367968277 -2.09401065557351,51.8752079934096 -2.09338633712761,51.8753415269385 -2.09317017214222,51.8754658307297 -2.09293524654722,51.8749759754449 -2.09280397954312,51.8747440910047 -2.09267280162616,51.8744970170772 -2.09251667612426,51.8741734718316 -2.09240724985525,51.8739604458423 -2.09236627075178,51.8737761279346 -2.09235973958069,51.8734542601392 -2.09245658498649,51.8732007117418 -2.09265471283069,51.8727554506735 -2.09270808235204,51.8726178855421 -2.09276572356244,51.8724038276271 -2.09277001207125,51.8723346139014 -2.09275668297799,51.8722015068546 -2.09271276303635,51.8720433468495 -2.09264701718887,51.8718707334162 -2.09260769139194,51.8717916672893 -2.09251004349015,51.8716542238993 -2.09239201252201,51.8714465973957 -2.09237871993922,51.8713890832048 -2.09238160245499,51.8713351506687 -2.09228822265064,51.8711760418409 -2.09207333203373,51.8712130650165 -2.0912040436568,51.8715850623965 -2.09017954876677,51.87202647388 -2.08989354444084,51.8721381525127 -2.08963368780248,51.8722102609234 -2.08903121616011,51.8723546297033 -2.08854773234892,51.8724727488461 -2.08830249498086,51.8725511349896 -2.08784798793485,51.8726684190589 -2.08724992366133,51.8728063945774 -2.08681571268267,51.8728939983032 -2.08630751088017,51.8729932504281 -2.08591252537518,51.8730528687455 -2.08571218297032,51.8731267215755 -2.08539375725807,51.8729516846808 -2.08555329617696,51.8728337288551 -2.08443524286778,51.8722231606762 -2.08392314708406,51.8726057128765 -2.08352726112236,51.8729503401039 -2.08182104062222,51.8724372291727 -2.08173945499867,51.8722898760339 -2.08158817514424,51.8721451795963 -2.08130448143378,51.8718900168006 -2.08201256324858,51.8714687785601 -2.08223597205859,51.8713715479371 -2.08228081683203,51.871270756855 -2.08240553677491,51.8711691005135 -2.08205671447783,51.8710542941763 -2.08173710821633,51.8710013960289 -2.08150195156256,51.8710924319065 -2.08116968108614,51.8712544523926 -2.08105056573493,51.8712779048812 -2.08071868274015,51.8708582862477 -2.08063014500571,51.8709041883325 -2.08056646862242,51.8709896217559 -2.08031388583882,51.8711139238648 -2.08009905905913,51.8711904721506 -2.0800714455581,51.871151840719 -2.07987254272899,51.8712265795442 -2.07979999418571,51.8712401117267 -2.07984378562719,51.8713525263064 -2.07988155878729,51.8713803644372 -2.08001396375396,51.8714881349962 -2.08028590188366,51.8716714022538 -2.07996958436334,51.8718531832404 -2.07988681026299,51.8719080682216 -2.07959231281114,51.872105204297 -2.07934273661927,51.8722419962216 -2.07960060253833,51.8726599606726 -2.07978249658574,51.8728494920229 -2.07982188418724,51.8729088782689 -2.0798538401825,51.8729654832682 -2.07979882933097,51.8730769760591 -2.07929637361906,51.8731141699996 -2.07903207422278,51.8731233367385 -2.07890560528822,51.8731225228429 -2.07866301422799,51.8730813392212 -2.07811691260421,51.8730888953828 -2.07744127365428,51.8729832810485 -2.07682511775151,51.8728541637175 -2.07701459965005,51.8723766665184 -2.07621984284724,51.8722180009453 -2.07629521974938,51.8721055973404 -2.07607141784123,51.8720509140744 -2.07620872877864,51.8716669308381 -2.07633433327592,51.8712316319883 -2.07639656014078,51.8710635082326 -2.07643249812575,51.8708584595242 -2.07653096914084,51.8706659546879 -2.0765873480526,51.8705104183972 -2.07666714702491,51.870465424101 -2.07667998208015,51.8703376910698 -2.07659417295512,51.8702990967592 -2.07660521915153,51.8699646321909 -2.07657860903804,51.8696697406993 -2.07647785896604,51.8693659083188 -2.07636000218969,51.8692122836322 -2.07642091993464,51.8691915710991 -2.07624186077911,51.8689614945751 -2.07603698149379,51.8688996077052 -2.07530724756534,51.8684864322249 -2.07525338571917,51.8684298398331 -2.07496861000297,51.8683518229281 -2.07479134235701,51.8683276665651 -2.07463602564629,51.868326867114 -2.07429909518094,51.8683531463385 -2.07389103285678,51.868379470253 -2.07346128587324,51.8684723206245 -2.07323621015739,51.8685049086413 -2.07306629653071,51.8685122054025 -2.07272345685015,51.8685142153902 -2.07260298933457,51.8685142898892 -2.07223256757873,51.8684919580361 -2.07221091915716,51.8685828440278 -2.07159239778018,51.8687243404227 -2.07113509097602,51.8688127046253 -2.07067046852636,51.868894869502 -2.07006764079943,51.8688925333341 -2.06993411402392,51.8688890183113 -2.06982488427804,51.8687236060554 -2.06975368256782,51.8686787069255 -2.06971147709925,51.8686445752322 -2.06960676358273,51.8685331814909 -2.06955279068767,51.868400094744 -2.06962654316724,51.8682373610077 -2.06963503160026,51.8680736769093 -2.06966977793598,51.8680089401109 -2.06968411836971,51.8678353651514 -2.06971295793362,51.8677454642794 -2.06972284610372,51.8675584090708 -2.0697633548909,51.8674253571256 -2.06988925385145,51.8671465510389 -2.06993552689504,51.8670251802432 -2.07005003215587,51.8668892968833 -2.07034893090047,51.8666689021177 -2.07066061263387,51.8663558287632 -2.07074177866394,51.866266704417 -2.07079258411569,51.8662118449806 -2.07080408653808,51.8661399308034 -2.07099401228396,51.8659204091326 -2.07121155992476,51.8657539910069 -2.07125064966577,51.8657117222557 -2.07124760331589,51.8656028746553 -2.07128376613268,51.8655282481852 -2.07127930205635,51.8654311760453 -2.07116293282972,51.8652918366816 -2.07103349024324,51.865214613975 -2.07079368805714,51.8650862242305 -2.07075731268617,51.8650268327387 -2.07071372730501,51.865026858953 -2.06971604891513,51.8650247581899 -2.06921646393185,51.8650061775817 -2.06876622504225,51.8649965543053 -2.0686224120017,51.8649930428075 -2.06835654726857,51.8649653336453 -2.06790920465334,51.8648900900794 -2.06769273534814,51.864823700471 -2.06752706833734,51.8647797524791 -2.06674542367047,51.8645473087843 -2.06614835578628,51.8644316957281 -2.06587385817322,51.8643931103783 -2.06553115067426,51.8643825154437 -2.06478471219255,51.8643901202278 -2.06440708464837,51.8644092034609 -2.06386256717653,51.8644464427911 -2.06346609001518,51.8644304782428 -2.06324099953105,51.8644431833712 -2.06300003623244,51.8644945470846 -2.06251229497816,51.8646341284359 -2.06227848199857,51.8646612174696 -2.06194589592177,51.8646973473425 -2.06156691543443,51.8646930518806 -2.06080877827918,51.8646431113704 -2.0601566300847,51.8646065946697 -2.05991840503461,51.864558178445 -2.05983264281802,51.8645366500279 -2.05955526088314,51.8644855565909 -2.05936494047303,51.8644434077572 -2.05905109035673,51.864341007304 -2.05886515714477,51.8642646995329 -2.05851784996993,51.8641210582802 -2.05840593768268,51.8640616995992 -2.05820980245336,51.863965621036 -2.05756594256157,51.8635658627305 -2.05732173852833,51.8634229765448 -2.05693821309335,51.8632254174706 -2.05670423635309,51.8631193773608 -2.05643113624386,51.8630359158002 -2.05622773578143,51.8629632076924 -2.05616806669497,51.8629308775849 -2.05599948467183,51.8627412118029 -2.0556591933979,51.862348488853 -2.05545556349341,51.8620860332523 -2.05537406285528,51.8620195570831 -2.05519241567703,51.8619107928448 -2.05491635973632,51.8617518261975 -2.05457186520737,51.8615325789789 -2.05441205861479,51.8614616447373 -2.05407482767726,51.8612046412158 -2.05380748602458,51.8610169056616 -2.05355606840264,51.8608272741215 -2.05316934385871,51.8605244488902 -2.05263019955478,51.86010753805 -2.05218110177267,51.8597966481609 -2.05201837104384,51.8596734893929 -2.05117931750804,51.8599768581283 -2.05108786088942,51.8599894820346 -2.05072147114705,51.8595419279462 -2.05046135409417,51.859371170043 -2.05024774920261,51.8592499185479 -2.04963471392866,51.8589930207076 -2.04940365279295,51.8588897517109 -2.04856690901247,51.8585637329604 -2.0483345417361,51.8584676535777 -2.04811666104514,51.8583687805436 -2.04727725730044,51.8583412596567 -2.04725403029553,51.8583412690663 -2.04654839330596,51.8583487437528 -2.04607675155738,51.85864563962 -2.04594175367239,51.8586942299248 -2.04548451019739,51.8587942704971 -2.04442472614978,51.8590463559054 -2.04360016264901,51.8592723672026 -2.04340418336944,51.8592823277892 -2.0431573842281,51.8593606189131 -2.04268548175703,51.8594175099439 -2.04228182767669,51.8594805763519 -2.04195956856339,51.8595256354279 -2.04183024766963,51.8595077052739 -2.04103477493534,51.8597534622497 -2.04075454529309,51.8598083906642 -2.04024644146871,51.8599577753658 -2.03984726386019,51.8600838410755 -2.03958299408379,51.860183703828 -2.03917515374225,51.8604032499865 -2.03883406826059,51.8605642579508 -2.03852349678125,51.8607082662819 -2.03821874721886,51.8609438644389 -2.03811713448087,51.860988929375 -2.03802571241481,51.8610491821413 -2.03781521841987,51.8611813812063 -2.03723313987709,51.8615286139758 -2.03699080818445,51.861679787469 -2.0370375062806,51.8619737847645 -2.03707703736467,51.862287559186 -2.03710182716803,51.8624385574517 -2.03686868144992,51.8632847156213 -2.0366339273952,51.8639321387467 -2.03660208232811,51.8640849522507 -2.03654272530043,51.8642729194474 -2.03592402738141,51.8642614279182 -2.03582678906964,51.8642461777318 -2.03552468946493,51.8642462706419 -2.03503086788389,51.8642203540449 -2.03463736720172,51.8641656424791 -2.0342727280979,51.8641171247324 -2.03387052801507,51.8641172440405 -2.03337097820847,51.8641128956945 -2.0330848219263,51.864136438829 -2.03268696080239,51.8641743043881 -2.03172847588031,51.8641997412251 -2.03097189583105,51.8642664629147 -2.03071197145982,51.8643060817376 -2.03030981996618,51.8643807928506 -2.02951844559971,51.8645285002188 -2.02916563659214,51.8646238686596 -2.02879538475094,51.8647831477892 -2.02847298409562,51.8648740118717 -2.0283641592449,51.86490460034 -2.02803601494696,51.8650053520855 -2.02792988300647,51.8649370651176 -2.02770604085864,51.864665578772 -2.02753462535059,51.864554162892 -2.02729927002026,51.8644409647564 -2.02694775851946,51.8643115252538 -2.02670095591133,51.8642756290216 -2.02638723558108,51.8642640172643 -2.02623181515324,51.8642640531139 -2.02597186377309,51.8642641126157 -2.02530960055223,51.8642822382802 -2.02525152927114,51.8642840484746 -2.02527623005187,51.8643478613456 -2.02540411286335,51.8643496311082 -2.02553924084298,51.8644611472461 -2.02553338090611,51.8644737324081 -2.02545213824686,51.8645798141945 -2.02549437108748,51.8647281145238 -2.02546678943459,51.8648684302384 -2.02542780386421,51.8651669456857 -2.0254017779454,51.8653035765029 -2.02541192741882,51.8654645577491 -2.02541494242311,51.8655032068206 -2.0253917141832,51.8655050102057 -2.0253727943554,51.8655059126247 -2.02535837484346,51.8656272605827 -2.02534682438613,51.8657424049864 -2.02525829612455,51.8658853415705 -2.0252277888717,51.8659338855078 -2.02521477036472,51.8659932121056 -2.02519446292714,51.8660813934276 -2.02499419193135,51.8664024155134 -2.02478664767501,51.8665705454776 -2.02466327100312,51.8667144772903 -2.0245022011403,51.8669113589656 -2.02425550403455,51.8673142747375 -2.02423806101785,51.8673888824504 -2.02418883340682,51.8675876280195 -2.02413821578956,51.8678761681941 -2.02406565581637,51.8681144674954 -2.02403226577719,51.8681522260997 -2.02400038082376,51.8683159127651 -2.02399464865898,51.8683464744906 -2.02391772237518,51.8684804193 -2.02390910497465,51.868714210397 -2.02390485314228,51.8688247695009 -2.02394848304542,51.8689012524135 -2.02395572124883,51.8690010225564 -2.02401095897632,51.8690639301386 -2.02406187795761,51.8691088610428 -2.02408369535508,51.8691511924895 -2.02414759308721,51.8692824102204 -2.02414761870228,51.8693300491873 -2.02414762401868,51.8693399366218 -2.02416080072688,51.8693462257467 -2.02430453536947,51.8694082152558 -2.02436420347568,51.8694649197093 -2.0244920459206,51.8695871352055 -2.02458941602107,51.8698289935814 -2.02461586956801,51.8702434455246 -2.02462758723907,51.8704277968355 -2.0247931322201,51.8705068585761 -2.02479313916702,51.8705194424176 -2.02479315653436,51.8705509020213 -2.02471333866733,51.8706587811416 -2.02465386517879,51.8707406789239 -2.02465389478482,51.8707946097994 -2.02465393870021,51.8708746065595 -2.02455965875323,51.8710347112848 -2.02453508053663,51.8712028011421 -2.02447548979305,51.8712900017593 -2.02439132425411,51.8713340632731 -2.02430272710071,51.8713755191741 -2.02427219665488,51.8713899068381 -2.02426060600412,51.871438447368 -2.02424615058558,51.8715049651655 -2.02418664990669,51.8715400320442 -2.0241488196367,51.8715634104556 -2.02414739618598,51.8715876793365 -2.02414026977192,51.8716974298127 -2.02402843144594,51.8717271157857 -2.0239325185173,51.871752303688 -2.02398204090435,51.8718691433297 -2.02399223194415,51.8718916124519 -2.0239456913863,51.871976203538 -2.02387746593971,51.8720463272042 -2.02376864871138,51.872129943163 -2.02373669341802,51.8721677013566 -2.02371778265474,51.8721883783679 -2.02370330579095,51.872216245474 -2.02354654209748,51.8724464725745 -2.02353207638953,51.872493215414 -2.02351605399204,51.8725435540842 -2.0232780105714,51.8728510979338 -2.02325783360233,51.8729716375367 -2.02331296872157,51.8730588139989 -2.02322737334788,51.8731244471226 -2.02317655927192,51.8732899345974 -2.02314318695115,51.8733681417284 -2.02313018209255,51.873463421355 -2.0230548417557,51.8736783508996 -2.02308388402233,51.8737942959333 -2.02289811862953,51.8740074495467 -2.02281240813162,51.8740856662155 -2.02279648758244,51.8741018487577 -2.02278920219461,51.8741431972353 -2.02277033488794,51.8742520508329 -2.02268628164257,51.8745325974372 -2.02257459083815,51.8748715740232 -2.02243096717334,51.8753031382381 -2.02236573093176,51.8753759568016 -2.0222916352068,51.8754578561957 -2.0223192077595,51.875511781587 -2.02235565090493,51.8755791881516 -2.02231208386338,51.8756367221441 -2.02220024891012,51.8756924730927 -2.02216827722925,51.8757077595753 -2.02216541094958,51.8757248376704 -2.02210447317673,51.8760152665492 -2.0219302845058,51.8761717889769 -2.02181703107774,51.8762715823147 -2.02151048324216,51.8761547909712 -2.02139135027974,51.8762366083798 -2.02114008118975,51.8762537339798 -2.02110954262462,51.8762600315879 -2.02101662071754,51.8763031931534 -2.02088440631161,51.8763274870634 -2.02081769963571,51.8763391840726 -2.02055196218015,51.8766745911775 -2.02054625036476,51.8767537805691 -2.02054183646541,51.8767933301427 -2.02040967356719,51.8769344725169 -2.02037051535959,51.876952457107 -2.02028334051513,51.8769947179501 -2.02001770135415,51.8772977660311 -2.01984928439694,51.8775315845419 -2.01978978862741,51.8776035023976 -2.01961690680661,51.8777645157249 -2.01950076276733,51.8778490270761 -2.0193628453913,51.8779938546533 -2.01917402232224,51.8781394999158 -2.01888509175455,51.8783445742776 -2.01859604727992,51.8785720301614 -2.01859460910324,51.8785720303987 -2.0184247270262,51.8787662982948 -2.01828380238155,51.8788940475467 -2.01823451662751,51.8790486559538 -2.01823020825038,51.8790567467619 -2.01811541230558,51.8792312304368 -2.01803413797304,51.8793678681756 -2.01800074359548,51.8794280962096 -2.01795285594143,51.8794865283485 -2.01727739467994,51.8797240185616 -2.01719608446205,51.8797761645255 -2.01717288097668,51.8798625465013 -2.01697542459996,51.8800216724769 -2.01668065730832,51.8803768498999 -2.01647876304676,51.8805279745936 -2.01638429719822,51.8806439400999 -2.01633068824572,51.8807905490145 -2.01628415289882,51.8809541453794 -2.01608235766081,51.8810602379076 -2.01590513951408,51.8812311337678 -2.01576426313698,51.8815422434708 -2.01561187128328,51.8818075130591 -2.01549586872985,51.8823524084425 -2.01545949184802,51.8824629704852 -2.015349221382,51.8826175869481 -2.01533030278748,51.8826436562725 -2.01533320107946,51.8827111585382 -2.01545970990635,51.883094138067 -2.01549317151003,51.8832145787087 -2.01549319267256,51.883275700448 -2.01549319923915,51.8832946660702 -2.01557758930174,51.8834600411273 -2.01560959987309,51.8835382359038 -2.01560232020392,51.8836192224843 -2.01557335805808,51.8836965275797 -2.0155151656938,51.8837702403361 -2.01544834916878,51.8838448533627 -2.0150940115866,51.8842054285596 -2.01489067199415,51.8844077849701 -2.01530331772666,51.8842962729681 -2.01583645993832,51.8841576867579 -2.01590769844842,51.8843887687804 -2.01599638721235,51.8845065049804 -2.01635685646922,51.8848769558296 -2.01667514291692,51.8851879984112 -2.01671879481599,51.8853138299583 -2.01670279118721,51.8854432659027 -2.01666078688939,51.8855638064214 -2.01652719045624,51.8858209850338 -2.01642268952367,51.8860394196918 -2.01604070300045,51.8864935700819 -2.01585920846589,51.8868271566654 -2.0157778052758,51.8869988468202 -2.01564862570846,51.8872362498353 -2.01536693604332,51.8878126263239 -2.01484560324846,51.8886578785365 -2.01454063512709,51.8891838317896 -2.01440987991526,51.889405053354 -2.01402656555962,51.8899877323089 -2.01399459675623,51.8900488571174 -2.0138159118138,51.8902637930169 -2.01326686896028,51.8911872404145 -2.01311587083439,51.891465989036 -2.01300834841849,51.8916997009653 -2.01297655985944,51.8919802334963 -2.0129489233202,51.892117849279 -2.01279506901118,51.89247659665 -2.01274132389663,51.8926509797961 -2.01261199609715,51.8929000656246 -2.01259322097486,51.8930259964176 -2.0125700454414,51.893263294446 -2.01241754143324,51.893760554518 -2.01220549670675,51.8943018636236 -2.01211255634243,51.8944429928895 -2.01208934064945,51.8945463637242 -2.01195872032501,51.8949222757301 -2.01193252116011,51.8950759814308 -2.0119428153458,51.8954742594135 -2.01184397510917,51.8955210100715 -2.01212906679705,51.8960901292707 -2.01232533498371,51.8965091504022 -2.01244895848781,51.8968067445635 -2.01260744654739,51.8970880652991 -2.012661371008,51.8975106975034 -2.01266440121136,51.8980501848969 -2.01268041006044,51.8982982647905 -2.01267027357037,51.8984664406972 -2.01262526493909,51.8986282378605 -2.01248010043047,51.8988701341029 -2.01236380716895,51.8990922520216 -2.01214017847906,51.8994357266133 -2.01199487191591,51.899618298467 -2.01183938730715,51.899832240976 -2.0115328371356,51.9002188677139 -2.01140645964395,51.9003978413124 -2.01116666810032,51.900846483011 -2.01103314605238,51.9012170036284 -2.01095757339062,51.9013877935854 -2.01083120071941,51.9016099124448 -2.01068160651803,51.9019371996265 -2.01049558128987,51.9022797705018 -2.01043317626981,51.9024092105638 -2.0103735281576,51.9025387411369 -2.01021519154428,51.9029244535681 -2.0114593742656,51.9029009599888 -2.01344045139057,51.9028575899558 -2.01455531818182,51.9028205962732 -2.01581688114141,51.9028177275781 -2.01642734238831,51.9027996625692 -2.01712359859041,51.9027536261857 -2.018216658955,51.9027408699357 -2.018680308572,51.902707536649 -2.0192573277679,51.9026813723767 -2.01966129831129,51.9026561347091 -2.02074557798995,51.9025786395882 -2.02203478103728,51.902507386742 -2.02267865834896,51.9024641140909 -2.02310742718784,51.9024279840116 -2.02345039975376,51.902413531475 -2.02359863888401,51.9024072087776 -2.02360738636628,51.902405409639 -2.02381672496646,51.9023667150002 -2.02433396104693,51.9021661615379 -2.02464057301276,51.9020662332057 -2.02481800586262,51.9021930220587 -2.02507824813967,51.9023197033967 -2.02530948909236,51.9024409968526 -2.02555797816273,51.9025470964264 -2.02588363466135,51.9026351103536 -2.02652619149269,51.9027896542186 -2.02688960651976,51.9028857467348 -2.02719632238092,51.9029557837951 -2.027379479791,51.9030195587181 -2.02756563533703,51.9030888153959 -2.02800476720639,51.9033287021941 -2.02822137948999,51.9034195226658 -2.02850918767215,51.9035228189943 -2.02921730608833,51.9038373281047 -2.02960258412481,51.9039891342556 -2.02990346443756,51.9040961092073 -2.03059408905709,51.9042145746882 -2.03092106318697,51.9042702162259 -2.0312234299342,51.9042683359038 -2.03228588129964,51.9041440002287 -2.03245736877964,51.9041304687388 -2.03281644525399,51.9041618262714 -2.03306217198883,51.9042228779459 -2.03310280755379,51.9042354501404 -2.03329183931273,51.9042839328707 -2.03370466839599,51.9043944610437 -2.03377886961424,51.904416910629 -2.03413944911766,51.9045291600541 -2.03429794336805,51.9046046163039 -2.03448109517452,51.9046415039703 -2.0348111047584,51.9047357837361 -2.03521387444339,51.9048462197292 -2.03528510857248,51.9049028254947 -2.03578672039293,51.9051202823136 -2.03589148714575,51.9051454174541 -2.03609498921913,51.9051480501015 -2.03630431141876,51.9052324760256 -2.03655291660712,51.9052846200899 -2.03670561012494,51.9052944589009 -2.03697442657756,51.9052925753989 -2.03759796308767,51.9052572278879 -2.03781751325606,51.9052463692804 -2.03790035397327,51.9052760943893 -2.03791239262191,51.9057615593063 -2.03787908098242,51.9059081734396 -2.03779651004985,51.9061967315523 -2.03770515752524,51.9064467315379 -2.03764995336141,51.9065024781401 -2.03766453153436,51.9065915497806 -2.03762835852738,51.9067596462494 -2.0376429306442,51.906841526826 -2.03764025283235,51.9070761283121 -2.03759972502439,51.9073377963328 -2.03756200858222,51.9073818523612 -2.03753604294082,51.9075734058634 -2.0375301687869,51.9075734077822 -2.03733684647107,51.9075734707692 -2.03731647081759,51.9075734773894 -2.03726131225638,51.9075420355125 -2.03713774137506,51.9075402782111 -2.03638749595741,51.9074379598402 -2.03621224836805,51.908144781406 -2.03593892067247,51.9080737676738 -2.03568731353735,51.9080324989259 -2.03547803696099,51.9080199799139 -2.03526577881492,51.9080254391069 -2.03505207013477,51.9080165162317 -2.03475120912252,51.9079833497939 -2.03458973218849,51.9079411531293 -2.03455935008963,51.9080184630882 -2.03452302789105,51.9080112829643 -2.03448658650529,51.9080041037642 -2.03448083719916,51.9080077001264 -2.03433119571171,51.9080814511945 -2.03401734621828,51.9083036504691 -2.03393745377509,51.9083692901436 -2.03380662386263,51.9084377320354 -2.03369193217558,51.9086094459568 -2.03347107563573,51.9088190325054 -2.03333030334236,51.9090573588441 -2.03326941192797,51.9092110800151 -2.03318790648928,51.9092093063441 -2.03317052761429,51.9092093113788 -2.0331705336714,51.9092174006546 -2.03316473074414,51.9093108835259 -2.03332488980836,51.9095095723372 -2.03333663967131,51.9096732497785 -2.03340502115959,51.9097550253285 -2.033544779578,51.9100741669988 -2.03356808288379,51.9101415735048 -2.03345770616249,51.9103205669834 -2.03338380568671,51.9105497954856 -2.03328232795656,51.9109293196641 -2.03330573548481,51.9111333519416 -2.03336110709567,51.9112853318309 -2.03330879703467,51.9113788273172 -2.03321134640973,51.9113779574157 -2.03307038618077,51.9113770991109 -2.03303263312703,51.9113825028602 -2.03283631955003,51.9114131200231 -2.03267213481187,51.9114509187567 -2.03269850772733,51.9117799811467 -2.03367681081434,51.9117383502802 -2.0336631017393,51.9127830879489 -2.03366310788616,51.9127911781187 -2.03493530615885,51.9128511094556 -2.03665223664581,51.9129314712549 -2.03683018120771,51.9135814629062 -2.03647695136931,51.9136130354094 -2.03650637145781,51.9141129667504 -2.03650939005534,51.9141399309257 -2.03763160781427,51.9139803827322 -2.0379587321656,51.9139766796361 -2.03802262296423,51.9139766585214 -2.03816085999782,51.9140062742786 -2.03824945609419,51.9140197278559 -2.03833816368703,51.9140241929504 -2.03866822748196,51.9140915856364 -2.03918016844322,51.9141956792055 -2.03942007281933,51.9142423373641 -2.03984029567912,51.914324887163 -2.04036819503763,51.9144398456477 -2.04039577182845,51.9144461279293 -2.04052681235492,51.9145997852184 -2.0405006551866,51.9147041511432 -2.04059101602389,51.9149405171767 -2.04062320217466,51.9151374436412 -2.04063794990306,51.9154017904262 -2.04059476742818,51.915765030681 -2.04042064854753,51.9162253935568 -2.04026845986681,51.9166822419478 -2.04025141362549,51.9171829975403 -2.04010037837966,51.9173305513759 -2.03994068143752,51.9175769809608 -2.03986527803566,51.9178440552089 -2.03982916944026,51.9180840607952 -2.03974361934165,51.9184005749088 -2.03972922028852,51.9185202167684 -2.03970661478782,51.9192457754739 -2.03977500515661,51.9193077722265 -2.03978671542879,51.9193994509438 -2.03976636173973,51.9194283111898 -2.03983067913069,51.919760952868 -2.0398831780311,51.9200135116085 -2.03997373380434,51.9204567925907 -2.04002778197697,51.9206986531437 -2.04007167639973,51.9209800679697 -2.04008643133826,51.9212533128387 -2.04007499298797,51.9214646363853 -2.04001859874109,51.9218117009645 -2.03994348671729,51.9224105395833 -2.0400569224519,51.9224275787501 -2.04009769164756,51.9224338565241 -2.04011363921683,51.9224356482906 -2.04056011850873,51.9224309984126 -2.04059932565637,51.9224336810383 -2.04086107112453,51.922452464452 -2.04091051054647,51.9223697525673 -2.0409192504435,51.922356267375 -2.04096864366721,51.9223526543211 -2.04100354326506,51.922364326703 -2.0411853616383,51.9224289786882 -2.04131484880861,51.9224307306098 -2.04134530698147,51.9224370116438 -2.0414660813997,51.9224810119116 -2.04161872371527,51.9225007319015 -2.04187466777414,51.9224700778159 -2.04188051326491,51.9224377177704 -2.04188051241368,51.9224368186648 -2.04191238154903,51.9224143357414 -2.04209126874493,51.9224196634862 -2.04222514555251,51.9224987134442 -2.04222802353333,51.9225005106035 -2.0423808229337,51.922556272911 -2.04247386476545,51.9225616315582 -2.04247102932918,51.9226056762081 -2.04257714446771,51.9226146254895 -2.04278365419314,51.9226684802364 -2.04293923683543,51.922627075302 -2.04301046225688,51.9226351389539 -2.04308468466998,51.9226432005457 -2.04312831206614,51.9226288030609 -2.04324601039311,51.9225910073847 -2.04335511380716,51.9225909664829 -2.04342920902842,51.9225909386476 -2.04349609418706,51.9225756331726 -2.04357904331925,51.9225576242817 -2.04361683921592,51.9225872724268 -2.04365463604964,51.9226178187666 -2.04399636763461,51.9226518452751 -2.04414328456924,51.9226985292719 -2.04436436064169,51.9226894562403 -2.04440069287408,51.9226930378117 -2.04444577970323,51.9227002115308 -2.04448942388778,51.9227028911563 -2.04453163174811,51.9227073686324 -2.04490249465289,51.9227377866609 -2.04538088701372,51.9227510819396 -2.04559466599601,51.9227572897731 -2.0458201389373,51.9228264120446 -2.04582877535825,51.9228309032544 -2.04590447001705,51.9228696139217 -2.04622877781124,51.9228622936781 -2.04631593849791,51.9228604605918 -2.04648611523125,51.9229035377337 -2.04649343188406,51.9229071303191 -2.04659960158226,51.9229664115301 -2.04692997065554,51.9231343623101 -2.047230987856,51.923208933976 -2.04731683123165,51.923208000695 -2.04742437587505,51.9232052602461 -2.0474913165485,51.9232420853646 -2.04754662074204,51.9232717241741 -2.04769065698674,51.92331031569 -2.04790596281365,51.9233956175993 -2.04808780625519,51.9234701464448 -2.04836863419902,51.9236076430731 -2.0483904602986,51.9236121285845 -2.04847908465183,51.9236309673453 -2.04847624823121,51.9236687202145 -2.04847625611172,51.9236759112645 -2.04855051875324,51.9237181255597 -2.04861603087039,51.9237621416962 -2.04876004958082,51.9238907064011 -2.04890413461053,51.9239706436307 -2.04910782445057,51.9240640375254 -2.04946270855401,51.924159254721 -2.04954860350649,51.9242014634234 -2.04966787742671,51.9242859040712 -2.04994171135168,51.9245914852315 -2.0501818579481,51.9247919145699 -2.05042622083748,51.9249041644207 -2.05045393610776,51.9249203317772 -2.05055870033422,51.9249993850062 -2.05060234818452,51.925002961482 -2.05067801313547,51.9250101194717 -2.05077401691873,51.9250820751986 -2.05079297745586,51.9250964480982 -2.0510053070366,51.9251871385299 -2.05152051136842,51.9254881149469 -2.05178672405141,51.9256165315977 -2.05194528587965,51.9256596061113 -2.05199626198671,51.9256739644755 -2.05222763388832,51.9258447318009 -2.05252015572442,51.9260118746076 -2.05259158110708,51.9260819526149 -2.05264099467223,51.9260927167834 -2.05268608313303,51.926097190065 -2.05285179029959,51.9260971147988 -2.05296678195506,51.926100657947 -2.05295952748621,51.9261500975755 -2.0529508547248,51.9262175154293 -2.05303227276285,51.9262201747046 -2.05333624067451,51.9262299230026 -2.05338864098581,51.9262316962445 -2.05336971804109,51.9262496825162 -2.05333630326213,51.9262820557027 -2.053423656176,51.9263342391066 -2.05349637106957,51.9263782491395 -2.05353860828634,51.9264033973928 -2.0535663136589,51.9264096765499 -2.05361998872494,51.9263745966402 -2.05375972300669,51.9264122836326 -2.05384995633363,51.9264670709821 -2.05387323719176,51.926482340455 -2.05390081541348,51.9264832267682 -2.05412769311864,51.9264975024621 -2.05429217274161,51.926571131534 -2.05430820375891,51.9266395260363 -2.05432720229773,51.926683560637 -2.05441881274243,51.9266862141794 -2.05445226778801,51.9266870976099 -2.05449741100497,51.9267356145443 -2.0545309090873,51.9267715521756 -2.05465882078461,51.9267490207857 -2.05469514357694,51.9267427117688 -2.05474904623728,51.9267948199946 -2.05484364358216,51.9268855587497 -2.05493681677245,51.9268909075585 -2.05495276432892,51.9268909000178 -2.05495565344388,51.9268998869873 -2.0549732608769,51.9269826626967 -2.05502273603267,51.9270419630136 -2.05516819162711,51.9270490850737 -2.05523654279155,51.9270526481167 -2.05538630993746,51.9270570705474 -2.05547504574912,51.9270606237341 -2.05549830805181,51.92706151173 -2.05552460947138,51.9270947560943 -2.05553469752203,51.9271073351219 -2.05554345083182,51.9271073309385 -2.05566275253396,51.927103678342 -2.05581402165218,51.9271575366934 -2.05589111505586,51.9271521068216 -2.0560002207193,51.9271448632722 -2.05603067400688,51.9271430512871 -2.05611659776691,51.927198738038 -2.05612823252104,51.9272014288297 -2.05625907120813,51.9272184440305 -2.05632603004922,51.9272580503545 -2.05661118520787,51.9273657735984 -2.05679009735991,51.9273746746489 -2.05682212613797,51.92738454643 -2.05684539551886,51.927390826974 -2.05693705466471,51.9274303309494 -2.05698360302027,51.9274491839039 -2.057095573424,51.9274311522925 -2.05711020558647,51.9274338415136 -2.05719740520473,51.927454471709 -2.05720189623286,51.9274976147477 -2.05720337178818,51.927525478118 -2.05737798212855,51.9276387365515 -2.05749586069683,51.9276458684266 -2.05757140966404,51.9276512247493 -2.05771833967609,51.9276844087952 -2.05775911967173,51.9276933768688 -2.05781581834584,51.9276798666363 -2.05789289486137,51.9276609525126 -2.05793355561786,51.9276699205851 -2.05819694646159,51.9277255172038 -2.05857649950586,51.9277594825869 -2.05877724511288,51.9277746615171 -2.05886298974607,51.9277827082612 -2.0602072675756,51.9281290635807 -2.06120438648057,51.9277473426541 -2.0620881085099,51.9274025272552 -2.06248935881458,51.9272602947988 -2.0626916175774,51.9273293970836 -2.06269882475427,51.9273374833201 -2.06276299820866,51.9274399166783 -2.06278042471099,51.927468670448 -2.06283875276377,51.9275063904563 -2.06288389445805,51.9275459148661 -2.06294503087362,51.9276196773977 -2.06301199341573,51.9276573926454 -2.06322307944614,51.9277768245266 -2.06328418490838,51.9278271266256 -2.0633889855317,51.9279125498852 -2.06350699872775,51.9280131552612 -2.06362189341049,51.92802837363 -2.06362046261182,51.928034666326 -2.06362922367976,51.9281236465302 -2.06369919110317,51.9281667534405 -2.0637704805861,51.9282108467968 -2.06380828673195,51.9282350955216 -2.06395962548253,51.9282440007512 -2.06399153570416,51.9282538706271 -2.06419246100981,51.9283912829377 -2.06436275722646,51.9284918594655 -2.06445156280206,51.9285413364168 -2.06448360557097,51.9285601944004 -2.06445452653922,51.9286006583906 -2.06442556282071,51.9286384259046 -2.06442267033214,51.9287121331483 -2.06445472893472,51.9287408785483 -2.06457835192773,51.9287381126956 -2.06468603597796,51.9287407501838 -2.06481113918203,51.9287658482146 -2.064843225452,51.9288144573379 -2.06507172274468,51.928942864407 -2.06516479910089,51.9289598907468 -2.06525211793959,51.9289760211401 -2.06547317931972,51.9290208385405 -2.06560270507554,51.9290351476118 -2.06574665455498,51.9290728178298 -2.06583688109636,51.9291087200749 -2.06593591056302,51.9291788640247 -2.06606252854421,51.9292533960258 -2.06616157983057,51.9293378309781 -2.06640158713471,51.9293799403312 -2.06642485762305,51.9293844207572 -2.06641920831159,51.9294564212956 -2.06641625764569,51.9294878825248 -2.06644685818299,51.9295031461759 -2.06651237985951,51.9295363655897 -2.06652694873577,51.929576805118 -2.06653284441543,51.9295902846656 -2.06665652733728,51.929625268929 -2.06676696971267,51.9296270029145 -2.06686297559972,51.9295972864497 -2.06700110145887,51.9295882177926 -2.06710579550544,51.9295953484767 -2.0672178266349,51.9296168559482 -2.06734293226327,51.9296410521505 -2.06751025879276,51.9296724147424 -2.06767314693353,51.9297028814736 -2.06767935471186,51.9299222854245 -2.06777536663683,51.929976160306 -2.06791070127317,51.9300237202594 -2.06796316113726,51.9300614410737 -2.0679805593269,51.9300678127282 -2.06802565045989,51.9300704827818 -2.06806780586248,51.9300344140844 -2.0681491999749,51.9300163898181 -2.06826713837616,51.9300576676196 -2.06839503304164,51.9300234365745 -2.06840670084818,51.930046799139 -2.06838634950544,51.930068473134 -2.0683718639724,51.9300846609631 -2.06836905998017,51.9301332005582 -2.06838369810533,51.9302167840374 -2.06836334096236,51.9302356717189 -2.06832274871345,51.9302743461003 -2.06831842684121,51.9303489524099 -2.0683155870718,51.9303741217013 -2.06831994226759,51.9303993766777 -2.0683564843075,51.9304568814667 -2.0683739085817,51.9304811397505 -2.0683943153216,51.9304946106678 -2.06840882572726,51.9304946021366 -2.06843063648222,51.9304856001024 -2.06845099775752,51.9304703079104 -2.06846540769498,51.9304046839709 -2.06847702600728,51.9303965879255 -2.06852798497072,51.9303929624185 -2.06855125608442,51.9303983415147 -2.06861821345243,51.9304270651704 -2.06865311675461,51.9304324373854 -2.0687272109894,51.9304243044339 -2.06875633166947,51.9304117034176 -2.06877081018685,51.9303919200435 -2.06877079069857,51.9303792463337 -2.06870678390761,51.9303190614938 -2.06872270363443,51.9303001763748 -2.06875758336199,51.9302902692584 -2.06882604271028,51.9303603379467 -2.06892796597316,51.9304349712874 -2.06897597174825,51.930461009561 -2.06904434843512,51.93047714832 -2.06917677971048,51.9305067318855 -2.06922613929786,51.9304770403057 -2.06924219203888,51.9304671433461 -2.06925092232475,51.9304518579379 -2.06924945610889,51.9304338821954 -2.06922903106138,51.9304087267284 -2.06923045977097,51.9304015348726 -2.06922312614355,51.9303898545256 -2.06923187867914,51.9303889502178 -2.0692667653226,51.9303835366511 -2.06929002404944,51.9303799273006 -2.0693016937331,51.9304050879719 -2.06933527713499,51.9304868627324 -2.06933671830796,51.9304886591755 -2.06940080085741,51.9305191822962 -2.06953452004204,51.9304507897132 -2.06956796831086,51.9304453769167 -2.06968716101114,51.9304435082964 -2.06986610017958,51.9304604785155 -2.06987207836233,51.9305260903752 -2.07008009361815,51.9305789969299 -2.0703680694999,51.9306165745818 -2.07051212999394,51.9306434532034 -2.0706997873408,51.9306361483509 -2.07082784694166,51.9307062704399 -2.07090360004182,51.9307601550455 -2.0709457642883,51.9308068690773 -2.07097926681196,51.9308356108666 -2.07104048406755,51.9308742240367 -2.07107096349655,51.9308867892349 -2.07109134979313,51.930886776784 -2.07110153364805,51.9308813777598 -2.07119308903388,51.9308435703713 -2.07130508923046,51.9308426027082 -2.07135166410959,51.9308722363799 -2.07138239904246,51.9309701915824 -2.07139843415623,51.9310242014834 -2.07149152846245,51.9310493119488 -2.07183918447275,51.9310598843912 -2.07188428253539,51.9310661484504 -2.0718828888647,51.9310940133226 -2.07186841145395,51.9311146952715 -2.07184074690898,51.9311371835591 -2.07183646051746,51.9311560619123 -2.07183364137399,51.9311929168663 -2.0718408896909,51.931226169206 -2.07186573949671,51.9312432322713 -2.07189909045521,51.9312513008773 -2.07195735998656,51.9312449729653 -2.07206349111057,51.931248502805 -2.07213476715306,51.9312763226638 -2.07223662372692,51.9313050226044 -2.07225118403649,51.9312618693526 -2.07231654374676,51.9312654233657 -2.07249123601369,51.9313229308294 -2.07259736881275,51.9313264601855 -2.07274275868519,51.9312831352973 -2.07279797508976,51.9312435511689 -2.07279497263112,51.9311662529244 -2.07287637127796,51.9311509217902 -2.07295351615507,51.9311751419769 -2.07307553462164,51.9311400104375 -2.07323119835523,51.931147103623 -2.07323100145128,51.931026658517 -2.07349868755699,51.9310462646354 -2.07362507900238,51.9309732884507 -2.07370073086438,51.9309642522845 -2.07377345473874,51.9309974630344 -2.07391158922242,51.930991083526 -2.07392621756213,51.9309901760381 -2.07398730799523,51.9310225848506 -2.07407605881065,51.9310306185212 -2.07418953199851,51.9310494219771 -2.07441929131747,51.9310492753569 -2.0745109489177,51.9310743843434 -2.07456064774751,51.9311786184395 -2.07457521370857,51.9312118659143 -2.07464502589813,51.9312244049821 -2.07467258034446,51.9312082080139 -2.07469150594604,51.9311956120748 -2.07482677767753,51.9311991207267 -2.07489814093198,51.9312781731492 -2.07490545816491,51.9312799657428 -2.07498975413413,51.9312763159868 -2.07515698166968,51.9312420522742 -2.07521229694037,51.9312617913597 -2.07514560412124,51.9313940542248 -2.07515159448612,51.9314623621569 -2.07526804110137,51.9315377897413 -2.07537574583601,51.9315485065715 -2.07548193083322,51.9315825936864 -2.07549644769386,51.9315870779755 -2.07550374677327,51.9315771858442 -2.07555159537797,51.9315070457158 -2.07565628896131,51.931510573244 -2.07578885655542,51.9316156511292 -2.07598967800748,51.9316623498609 -2.07616275906182,51.9316856070875 -2.07645803194269,51.9317051884016 -2.07665584079553,51.9316726997787 -2.07672433269958,51.9317535502567 -2.07694246294545,51.9317525072539 -2.07698617178541,51.9317866342598 -2.07702115427719,51.9318369463148 -2.07727566124081,51.9318601480212 -2.07730336228792,51.9318601296388 -2.07740217926819,51.9318618613105 -2.07743561687067,51.9318510534881 -2.07748655499828,51.9318348403176 -2.07754754635282,51.9318078348358 -2.0775940407185,51.9317880290791 -2.07770312272953,51.9317627887703 -2.07790393724619,51.9318040015181 -2.0781599657788,51.9318739390735 -2.07822253787563,51.9318595159775 -2.07827921522433,51.9318343103154 -2.07838093868926,51.9317839067366 -2.0786353924853,51.9317765442531 -2.07880701249281,51.9317180039101 -2.07879549352443,51.9317818297689 -2.07861819380593,51.9318844172067 -2.07870851011068,51.9319626452871 -2.07879590878104,51.9320183141718 -2.07887738908675,51.9320497185112 -2.07893841469344,51.9320424870779 -2.07910840311088,51.9319425097157 -2.0792640085741,51.9319145399638 -2.07927565698423,51.9319235203327 -2.07931648797044,51.9319568401303 -2.07939205922491,51.9319693724471 -2.07952143332074,51.93189099515 -2.07956503585668,51.9318639995977 -2.07962751534299,51.9318648560112 -2.0796813598884,51.9318657182974 -2.07974821949158,51.931835111272 -2.0796812290446,51.9317920129335 -2.07967676606154,51.9317776348942 -2.07967242060673,51.931761458576 -2.07971893476279,51.9317533375636 -2.07978007416814,51.9317425092218 -2.07988178313083,51.9316858124691 -2.07989041484135,51.9316840092516 -2.08003738337731,51.9317225579631 -2.08019592057803,51.9317260444504 -2.08029472963622,51.931656765548 -2.08037901781907,51.9316486182395 -2.08038196211237,51.931618864119 -2.08038479695796,51.9315945936794 -2.08048225419608,51.9315747516207 -2.08053901702388,51.9315980826851 -2.08059578136213,51.9316214128217 -2.08069761360595,51.9316340160455 -2.08083571667177,51.9316104610312 -2.08096948358921,51.9315762122868 -2.08121236009321,51.9315994126617 -2.08141017815677,51.9315741070572 -2.08166177488447,51.931579323826 -2.08178536817215,51.9315558677771 -2.08181292357393,51.9315414673482 -2.08188707897699,51.931500966603 -2.081990360862,51.9315188714747 -2.08206593395297,51.9315331993734 -2.08214155693742,51.9315079785218 -2.08221134202451,51.9315043338216 -2.08226671496195,51.9315537308071 -2.08242249695097,51.9316237306823 -2.08243436399765,51.9317523464808 -2.08247522316376,51.9317990572304 -2.08258860272525,51.931764821076 -2.0827616345062,51.9317593055428 -2.08280674779183,51.9317718572882 -2.08292168823341,51.9318041341392 -2.08312963758649,51.9318093788072 -2.08319659134553,51.9318309031142 -2.08341917949754,51.9318415305138 -2.08355309558322,51.9318881742476 -2.08366206532999,51.9318683213084 -2.0838119698144,51.9318718091172 -2.08389483633853,51.9318735468047 -2.08395300085097,51.9318753031261 -2.08397191746281,51.9318591102191 -2.08400388293567,51.9318303241207 -2.08419284383273,51.9318140085162 -2.08430769598573,51.9317986453273 -2.0843513344221,51.9317923218667 -2.08438774404717,51.9317680270438 -2.08446463124991,51.9317140407242 -2.08456066208057,51.9317013873222 -2.08465515403291,51.9316995214464 -2.08474539351978,51.9317318135603 -2.0848066367218,51.9317776105117 -2.08508436292819,51.9317756101471 -2.08514398755343,51.9317890495424 -2.08521536731415,51.9318042776224 -2.08525886564328,51.9317871674713 -2.08538828006327,51.9317367386085 -2.08551910371344,51.9317330473165 -2.08557879805506,51.9317204197713 -2.08569800294006,51.9317239277914 -2.08575328868438,51.9317256844787 -2.08575314125483,51.9316483845756 -2.085753041653,51.9315961613989 -2.08577910435574,51.9315547953919 -2.08583438646963,51.9315547547451 -2.08593486668112,51.9316122069342 -2.08604261829462,51.9316463733136 -2.08611529490606,51.9316499152053 -2.08617046672549,51.9315922584372 -2.08623304243341,51.9315814266293 -2.08630865933852,51.9316173238935 -2.0865253457674,51.931615366151 -2.08672599990412,51.9315702748718 -2.08681777243487,51.9316511920639 -2.0868847877635,51.9317032755374 -2.08694297120959,51.9317158159965 -2.08697783019779,51.9316960152468 -2.08704172947111,51.9316258576886 -2.08715075978343,51.9315771494709 -2.08727281828043,51.9315680699787 -2.08731962277981,51.9316490203958 -2.08748109496592,51.9316812580508 -2.08753652239609,51.9317558201149 -2.08779098000161,51.9317520335137 -2.08793627214564,51.93166653404 -2.08803222427895,51.9316754500061 -2.0882318565123,51.9318433831014 -2.08832504576802,51.9319116243533 -2.08843709166178,51.9319331115981 -2.08864359043209,51.931932954975 -2.08874704756739,51.9319770095319 -2.08898843894721,51.9319750284744 -2.08913253502386,51.9320126699049 -2.08943069765549,51.9320358112565 -2.08952942118335,51.9319304816908 -2.08961660569034,51.9319322120977 -2.08971276446318,51.9319852597002 -2.08974035689636,51.9319906321879 -2.08983932914167,51.93201032995 -2.08991825772145,51.9322017223843 -2.09003193241875,51.9323176751653 -2.09004359733997,51.9323338454517 -2.09010636384072,51.9324182880348 -2.09027494203932,51.9324037767286 -2.09039855619315,51.932392894599 -2.09067064502944,51.9324484124618 -2.09067673636763,51.9325553699136 -2.09072624171176,51.9326039583139 -2.09097228443068,51.9327062353633 -2.09098407872575,51.9327862225838 -2.09105116073743,51.9328688639997 -2.09105718482284,51.9330010789586 -2.0912393003837,51.9330980115885 -2.0911245348395,51.9332159388744 -2.09113628041258,51.9332716576406 -2.09125148702588,51.9333713397465 -2.09120077264109,51.9334963181113 -2.09132312218765,51.93356911871 -2.09132456248294,51.9335700157831 -2.09133057085659,51.9336940516262 -2.09133059455467,51.9337057362929 -2.09132199942538,51.9337255177892 -2.09129297555572,51.9337830666107 -2.09144421603561,51.9337919365667 -2.09166405646421,51.9338619631454 -2.0918040591707,51.9340640928437 -2.09180200080472,51.9344669554122 -2.09175265539458,51.9344984536541 -2.09174103836483,51.9345056528727 -2.0917380666075,51.9345191380906 -2.09172373381607,51.934606336743 -2.09169180935614,51.9346531023547 -2.09169192083583,51.9347079310998 -2.09177643928331,51.9347528070532 -2.09185641582456,51.9347464522826 -2.09198709168261,51.9346663521262 -2.09225038159495,51.934633786787 -2.09244524089905,51.9346246435181 -2.09244251718804,51.9347001483818 -2.09248326801056,51.9347468557618 -2.09250959408977,51.9348359104109 -2.09258831852934,51.9349203390212 -2.09269027279586,51.9349867725669 -2.09282422311819,51.9350414959134 -2.09287221909261,51.9350540415419 -2.09305398604454,51.9350341220906 -2.09319100732298,51.9351239865387 -2.09335823268161,51.9351472232635 -2.09354336624284,51.9353043724364 -2.09365390832713,51.9353474279982 -2.09382122783802,51.9353580802064 -2.09389993895432,51.9354345077666 -2.09402226575497,51.9354919354882 -2.09414319081334,51.9355682398867 -2.09419408124761,51.935587972734 -2.09437889000744,51.9356453496826 -2.09452579758796,51.9356434335972 -2.09452598612485,51.9357334071328 -2.0945259974253,51.9357387999166 -2.09458723630398,51.935774704396 -2.09459299338561,51.9357746997341 -2.09468905200146,51.9357728237117 -2.09467456600813,51.9358420462579 -2.09473138997105,51.9358887398255 -2.09497606064083,51.9360107834848 -2.09500387397502,51.9361196111242 -2.095062269269,51.9361716960451 -2.09514086804784,51.9361932041278 -2.09569353108395,51.936207134707 -2.09587683393664,51.9361746258635 -2.09600923419719,51.9362302450525 -2.09620714102945,51.9362408687304 -2.09642690224225,51.9363206839427 -2.09651997562071,51.9363242025828 -2.09658674358006,51.9362531393048 -2.09664641528854,51.9362279223943 -2.0970553319862,51.9363201635926 -2.09713677183645,51.9363236914084 -2.09742921097268,51.9363469080943 -2.0974843845675,51.9362946388384 -2.09759630668892,51.9363071291875 -2.09768954629895,51.9363323087438 -2.0977943571124,51.9363843543936 -2.09789191929178,51.9364112375596 -2.09800538012721,51.9364147379433 -2.09811003124443,51.9363930780506 -2.09815057433483,51.9363409106756 -2.09823633457636,51.9362904144662 -2.09846032760659,51.9362740466605 -2.09851127955988,51.9363207433516 -2.09857534862734,51.9363333630129 -2.09879635944298,51.9363240981638 -2.09917464823334,51.9363382487127 -2.09940439269816,51.9363199870217 -2.09957174255994,51.9363415065286 -2.099855376132,51.9363412645137 -2.10027291357,51.9363696700604 -2.10040813765383,51.9363443863924 -2.10052710323161,51.9362345356587 -2.10062592691991,51.9361814190816 -2.10075535811347,51.936193891351 -2.10078171936436,51.9362370127645 -2.10088359408984,51.9362611933375 -2.10099114618635,51.9362503148625 -2.10105651680156,51.9362008214224 -2.10121938863787,51.9362042759733 -2.10139851817969,51.9362913080909 -2.10156158612918,51.9363290078745 -2.10174340785569,51.9363324453567 -2.10221925980778,51.9364264088601 -2.10236615275674,51.9364172921154 -2.10262643082606,51.9363784136063 -2.10280969548389,51.9363836463728 -2.10287678123001,51.9364563927962 -2.10287821978944,51.9364563915311 -2.10292768856676,51.9364815155807 -2.10306163666035,51.9365281381814 -2.10319417378009,51.9365873447579 -2.10326978310795,51.9366106474035 -2.10348946211103,51.9365960721874 -2.10354793053522,51.9367282400762 -2.10376901552549,51.9366992811147 -2.10381844371954,51.9367064282498 -2.10381133189943,51.9367954192378 -2.10380995948042,51.9368241835153 -2.10386672354221,51.9368403124076 -2.1038871246892,51.9368456870852 -2.10402084078666,51.9367907394412 -2.10409943424352,51.9368077470088 -2.10409964568999,51.9368994287916 -2.10425531137791,51.93694971521 -2.1044590158016,51.9369764983627 -2.10449987039256,51.9370097195289 -2.10451307587945,51.9370672329507 -2.10463531443619,51.9370797074675 -2.10462666766734,51.9371264557325 -2.10466750647099,51.937153384064 -2.10481583297824,51.937140667487 -2.10493673417896,51.9371971861249 -2.10491930475489,51.9372313576071 -2.10503292279918,51.9373014554664 -2.10515673055845,51.9373696559505 -2.1051481213257,51.937431683496 -2.10518313025062,51.9374783916569 -2.10528497269487,51.9374872892384 -2.10527933428111,51.9375376294363 -2.10510349306386,51.9376322549034 -2.10502802748356,51.9376718722131 -2.10503243885843,51.9377123159907 -2.10503390610427,51.9377239993556 -2.10511255390755,51.9377634782601 -2.10529723372939,51.9377561212037 -2.10543128255023,51.9378431878474</coordinates></LinearRing></outerBoundaryIs></Polygon>
  </Placemark>
