[
  {
        "value": {
          "id": 3869,
          "name": "Wrexham",
          "startDate": "2010-05-06T00:00:00",
          "endDate": null,
          "currentRepresentation": {
            "member": {
              "value": {
                "id": 4855,
                "nameListAs": "Atherton, Sarah",
                "nameDisplayAs": "Sarah Atherton",
                "nameFullTitle": "Sarah Atherton MP",
                "nameAddressAs": null,
                "latestParty": {
                  "id": 4,
                  "name": "Conservative",
                  "abbreviation": "Con",
                  "backgroundColour": "0000ff",
                  "foregroundColour": "ffffff",
                  "isLordsMainParty": true,
                  "isLordsSpiritualParty": true,
                  "governmentType": 0,
                  "isIndependentParty": false
                },
                "gender": "F",
                "latestHouseMembership": {
                  "membershipFrom": "Wrexham",
                  "membershipFromId": 3869,
                  "house": 1,
                  "membershipStartDate": "2019-12-12T00:00:00",
                  "membershipEndDate": null,
                  "membershipEndReason": null,
                  "membershipEndReasonNotes": null,
                  "membershipEndReasonId": null,
                  "membershipStatus": {
                    "statusIsActive": true,
                    "statusDescription": "Current Member",
                    "statusNotes": null,
                    "statusId": 0,
                    "statusStartDate": "2019-12-12T00:00:00"
                  }
                },
                "thumbnailUrl": "https://members-api.parliament.uk/api/Members/4855/Thumbnail"
              },
              "links": [
                {
                  "rel": "self",
                  "href": "/Members/4855",
                  "method": "GET"
                },
                {
                  "rel": "overview",
                  "href": "/Members/4855",
                  "method": "GET"
                },
                {
                  "rel": "synopsis",
                  "href": "/Members/4855/Synopsis",
                  "method": "GET"
                },
                {
                  "rel": "contactInformation",
                  "href": "/Members/4855/Contact",
                  "method": "GET"
                }
              ]
            },
            "representation": {
              "membershipFrom": "Wrexham",
              "membershipFromId": 3869,
              "house": 1,
              "membershipStartDate": "2019-12-12T00:00:00",
              "membershipEndDate": null,
              "membershipEndReason": null,
              "membershipEndReasonNotes": null,
              "membershipEndReasonId": null,
              "membershipStatus": null
            }
          }
        },
        "links": [
          {
            "rel": "self",
            "href": "/Constituency/3869/Wrexham",
            "method": "GET"
          }
        ]
      },
      {
        "value": {
          "id": 3870,
          "name": "Wycombe",
          "startDate": "2010-05-06T00:00:00",
          "endDate": null,
          "currentRepresentation": {
            "member": {
              "value": {
                "id": 4064,
                "nameListAs": "Baker, Mr Steve",
                "nameDisplayAs": "Mr Steve Baker",
                "nameFullTitle": "Mr Steve Baker MP",
                "nameAddressAs": "Mr Baker",
                "latestParty": {
                  "id": 4,
                  "name": "Conservative",
                  "abbreviation": "Con",
                  "backgroundColour": "0000ff",
                  "foregroundColour": "ffffff",
                  "isLordsMainParty": true,
                  "isLordsSpiritualParty": true,
                  "governmentType": 0,
                  "isIndependentParty": false
                },
                "gender": "M",
                "latestHouseMembership": {
                  "membershipFrom": "Wycombe",
                  "membershipFromId": 3870,
                  "house": 1,
                  "membershipStartDate": "2010-05-06T00:00:00",
                  "membershipEndDate": null,
                  "membershipEndReason": null,
                  "membershipEndReasonNotes": null,
                  "membershipEndReasonId": null,
                  "membershipStatus": {
                    "statusIsActive": true,
                    "statusDescription": "Current Member",
                    "statusNotes": null,
                    "statusId": 0,
                    "statusStartDate": "2019-12-12T00:00:00"
                  }
                },
                "thumbnailUrl": "https://members-api.parliament.uk/api/Members/4064/Thumbnail"
              },
              "links": [
                {
                  "rel": "self",
                  "href": "/Members/4064",
                  "method": "GET"
                },
                {
                  "rel": "overview",
                  "href": "/Members/4064",
                  "method": "GET"
                },
                {
                  "rel": "synopsis",
                  "href": "/Members/4064/Synopsis",
                  "method": "GET"
                },
                {
                  "rel": "contactInformation",
                  "href": "/Members/4064/Contact",
                  "method": "GET"
                }
              ]
            },
            "representation": {
              "membershipFrom": "Wycombe",
              "membershipFromId": 3870,
              "house": 1,
              "membershipStartDate": "2010-05-06T00:00:00",
              "membershipEndDate": null,
              "membershipEndReason": null,
              "membershipEndReasonNotes": null,
              "membershipEndReasonId": null,
              "membershipStatus": null
            }
          }
        },
        "links": [
          {
            "rel": "self",
            "href": "/Constituency/3870/Wycombe",
            "method": "GET"
          }
        ]
      },
      {
        "value": {
          "id": 3871,
          "name": "Wyre and Preston North",
          "startDate": "2010-05-06T00:00:00",
          "endDate": null,
          "currentRepresentation": {
            "member": {
              "value": {
                "id": 1539,
                "nameListAs": "Wallace, Mr Ben",
                "nameDisplayAs": "Mr Ben Wallace",
                "nameFullTitle": "Rt Hon Ben Wallace MP",
                "nameAddressAs": "Mr Wallace",
                "latestParty": {
                  "id": 4,
                  "name": "Conservative",
                  "abbreviation": "Con",
                  "backgroundColour": "0000ff",
                  "foregroundColour": "ffffff",
                  "isLordsMainParty": true,
                  "isLordsSpiritualParty": true,
                  "governmentType": 0,
                  "isIndependentParty": false
                },
                "gender": "M",
                "latestHouseMembership": {
                  "membershipFrom": "Wyre and Preston North",
                  "membershipFromId": 3871,
                  "house": 1,
                  "membershipStartDate": "2005-05-05T00:00:00",
                  "membershipEndDate": null,
                  "membershipEndReason": null,
                  "membershipEndReasonNotes": null,
                  "membershipEndReasonId": null,
                  "membershipStatus": {
                    "statusIsActive": true,
                    "statusDescription": "Current Member",
                    "statusNotes": null,
                    "statusId": 0,
                    "statusStartDate": "2019-12-12T00:00:00"
                  }
                },
                "thumbnailUrl": "https://members-api.parliament.uk/api/Members/1539/Thumbnail"
              },
              "links": [
                {
                  "rel": "self",
                  "href": "/Members/1539",
                  "method": "GET"
                },
                {
                  "rel": "overview",
                  "href": "/Members/1539",
                  "method": "GET"
                },
                {
                  "rel": "synopsis",
                  "href": "/Members/1539/Synopsis",
                  "method": "GET"
                },
                {
                  "rel": "contactInformation",
                  "href": "/Members/1539/Contact",
                  "method": "GET"
                }
              ]
            },
            "representation": {
              "membershipFrom": "Wyre and Preston North",
              "membershipFromId": 3871,
              "house": 1,
              "membershipStartDate": "2010-05-06T00:00:00",
              "membershipEndDate": null,
              "membershipEndReason": null,
              "membershipEndReasonNotes": null,
              "membershipEndReasonId": null,
              "membershipStatus": null
            }
          }
        },
        "links": [
          {
            "rel": "self",
            "href": "/Constituency/3871/Wyre and Preston North",
            "method": "GET"
          }
        ]
      },
      {
        "value": {
          "id": 3872,
          "name": "Wyre Forest",
          "startDate": "2010-05-06T00:00:00",
          "endDate": null,
          "currentRepresentation": {
            "member": {
              "value": {
                "id": 4074,
                "nameListAs": "Garnier, Mark",
                "nameDisplayAs": "Mark Garnier",
                "nameFullTitle": "Mark Garnier MP",
                "nameAddressAs": "Mark Garnier",
                "latestParty": {
                  "id": 4,
                  "name": "Conservative",
                  "abbreviation": "Con",
                  "backgroundColour": "0000ff",
                  "foregroundColour": "ffffff",
                  "isLordsMainParty": true,
                  "isLordsSpiritualParty": true,
                  "governmentType": 0,
                  "isIndependentParty": false
                },
                "gender": "M",
                "latestHouseMembership": {
                  "membershipFrom": "Wyre Forest",
                  "membershipFromId": 3872,
                  "house": 1,
                  "membershipStartDate": "2010-05-06T00:00:00",
                  "membershipEndDate": null,
                  "membershipEndReason": null,
                  "membershipEndReasonNotes": null,
                  "membershipEndReasonId": null,
                  "membershipStatus": {
                    "statusIsActive": true,
                    "statusDescription": "Current Member",
                    "statusNotes": null,
                    "statusId": 0,
                    "statusStartDate": "2019-12-12T00:00:00"
                  }
                },
                "thumbnailUrl": "https://members-api.parliament.uk/api/Members/4074/Thumbnail"
              },
              "links": [
                {
                  "rel": "self",
                  "href": "/Members/4074",
                  "method": "GET"
                },
                {
                  "rel": "overview",
                  "href": "/Members/4074",
                  "method": "GET"
                },
                {
                  "rel": "synopsis",
                  "href": "/Members/4074/Synopsis",
                  "method": "GET"
                },
                {
                  "rel": "contactInformation",
                  "href": "/Members/4074/Contact",
                  "method": "GET"
                }
              ]
            },
            "representation": {
              "membershipFrom": "Wyre Forest",
              "membershipFromId": 3872,
              "house": 1,
              "membershipStartDate": "2010-05-06T00:00:00",
              "membershipEndDate": null,
              "membershipEndReason": null,
              "membershipEndReasonNotes": null,
              "membershipEndReasonId": null,
              "membershipStatus": null
            }
          }
        },
        "links": [
          {
            "rel": "self",
            "href": "/Constituency/3872/Wyre Forest",
            "method": "GET"
          }
        ]
      },
      {
        "value": {
          "id": 3873,
          "name": "Wythenshawe and Sale East",
          "startDate": "2010-05-06T00:00:00",
          "endDate": null,
          "currentRepresentation": {
            "member": {
              "value": {
                "id": 4316,
                "nameListAs": "Kane, Mike",
                "nameDisplayAs": "Mike Kane",
                "nameFullTitle": "Mike Kane MP",
                "nameAddressAs": null,
                "latestParty": {
                  "id": 15,
                  "name": "Labour",
                  "abbreviation": "Lab",
                  "backgroundColour": "ff0000",
                  "foregroundColour": "ffffff",
                  "isLordsMainParty": true,
                  "isLordsSpiritualParty": false,
                  "governmentType": 3,
                  "isIndependentParty": false
                },
                "gender": "M",
                "latestHouseMembership": {
                  "membershipFrom": "Wythenshawe and Sale East",
                  "membershipFromId": 3873,
                  "house": 1,
                  "membershipStartDate": "2014-02-13T00:00:00",
                  "membershipEndDate": null,
                  "membershipEndReason": null,
                  "membershipEndReasonNotes": null,
                  "membershipEndReasonId": null,
                  "membershipStatus": {
                    "statusIsActive": true,
                    "statusDescription": "Current Member",
                    "statusNotes": null,
                    "statusId": 0,
                    "statusStartDate": "2019-12-12T00:00:00"
                  }
                },
                "thumbnailUrl": "https://members-api.parliament.uk/api/Members/4316/Thumbnail"
              },
              "links": [
                {
                  "rel": "self",
                  "href": "/Members/4316",
                  "method": "GET"
                },
                {
                  "rel": "overview",
                  "href": "/Members/4316",
                  "method": "GET"
                },
                {
                  "rel": "synopsis",
                  "href": "/Members/4316/Synopsis",
                  "method": "GET"
                },
                {
                  "rel": "contactInformation",
                  "href": "/Members/4316/Contact",
                  "method": "GET"
                }
              ]
            },
            "representation": {
              "membershipFrom": "Wythenshawe and Sale East",
              "membershipFromId": 3873,
              "house": 1,
              "membershipStartDate": "2014-02-13T00:00:00",
              "membershipEndDate": null,
              "membershipEndReason": null,
              "membershipEndReasonNotes": null,
              "membershipEndReasonId": null,
              "membershipStatus": null
            }
          }
        },
        "links": [
          {
            "rel": "self",
            "href": "/Constituency/3873/Wythenshawe and Sale East",
            "method": "GET"
          }
        ]
      },
      {
        "value": {
          "id": 3874,
          "name": "Yeovil",
          "startDate": "2010-05-06T00:00:00",
          "endDate": null,
          "currentRepresentation": {
            "member": {
              "value": {
                "id": 4446,
                "nameListAs": "Fysh, Mr Marcus",
                "nameDisplayAs": "Mr Marcus Fysh",
                "nameFullTitle": "Mr Marcus Fysh MP",
                "nameAddressAs": "Mr Fysh",
                "latestParty": {
                  "id": 4,
                  "name": "Conservative",
                  "abbreviation": "Con",
                  "backgroundColour": "0000ff",
                  "foregroundColour": "ffffff",
                  "isLordsMainParty": true,
                  "isLordsSpiritualParty": true,
                  "governmentType": 0,
                  "isIndependentParty": false
                },
                "gender": "M",
                "latestHouseMembership": {
                  "membershipFrom": "Yeovil",
                  "membershipFromId": 3874,
                  "house": 1,
                  "membershipStartDate": "2015-05-07T00:00:00",
                  "membershipEndDate": null,
                  "membershipEndReason": null,
                  "membershipEndReasonNotes": null,
                  "membershipEndReasonId": null,
                  "membershipStatus": {
                    "statusIsActive": true,
                    "statusDescription": "Current Member",
                    "statusNotes": null,
                    "statusId": 0,
                    "statusStartDate": "2019-12-12T00:00:00"
                  }
                },
                "thumbnailUrl": "https://members-api.parliament.uk/api/Members/4446/Thumbnail"
              },
              "links": [
                {
                  "rel": "self",
                  "href": "/Members/4446",
                  "method": "GET"
                },
                {
                  "rel": "overview",
                  "href": "/Members/4446",
                  "method": "GET"
                },
                {
                  "rel": "synopsis",
                  "href": "/Members/4446/Synopsis",
                  "method": "GET"
                },
                {
                  "rel": "contactInformation",
                  "href": "/Members/4446/Contact",
                  "method": "GET"
                }
              ]
            },
            "representation": {
              "membershipFrom": "Yeovil",
              "membershipFromId": 3874,
              "house": 1,
              "membershipStartDate": "2015-05-07T00:00:00",
              "membershipEndDate": null,
              "membershipEndReason": null,
              "membershipEndReasonNotes": null,
              "membershipEndReasonId": null,
              "membershipStatus": null
            }
          }
        },
        "links": [
          {
            "rel": "self",
            "href": "/Constituency/3874/Yeovil",
            "method": "GET"
          }
        ]
      },
      {
        "value": {
          "id": 3875,
          "name": "Ynys Môn",
          "startDate": "2010-05-06T00:00:00",
          "endDate": null,
          "currentRepresentation": {
            "member": {
              "value": {
                "id": 4859,
                "nameListAs": "Crosbie, Virginia",
                "nameDisplayAs": "Virginia Crosbie",
                "nameFullTitle": "Virginia Crosbie MP",
                "nameAddressAs": null,
                "latestParty": {
                  "id": 4,
                  "name": "Conservative",
                  "abbreviation": "Con",
                  "backgroundColour": "0000ff",
                  "foregroundColour": "ffffff",
                  "isLordsMainParty": true,
                  "isLordsSpiritualParty": true,
                  "governmentType": 0,
                  "isIndependentParty": false
                },
                "gender": "F",
                "latestHouseMembership": {
                  "membershipFrom": "Ynys Môn",
                  "membershipFromId": 3875,
                  "house": 1,
                  "membershipStartDate": "2019-12-12T00:00:00",
                  "membershipEndDate": null,
                  "membershipEndReason": null,
                  "membershipEndReasonNotes": null,
                  "membershipEndReasonId": null,
                  "membershipStatus": {
                    "statusIsActive": true,
                    "statusDescription": "Current Member",
                    "statusNotes": null,
                    "statusId": 0,
                    "statusStartDate": "2019-12-12T00:00:00"
                  }
                },
                "thumbnailUrl": "https://members-api.parliament.uk/api/Members/4859/Thumbnail"
              },
              "links": [
                {
                  "rel": "self",
                  "href": "/Members/4859",
                  "method": "GET"
                },
                {
                  "rel": "overview",
                  "href": "/Members/4859",
                  "method": "GET"
                },
                {
                  "rel": "synopsis",
                  "href": "/Members/4859/Synopsis",
                  "method": "GET"
                },
                {
                  "rel": "contactInformation",
                  "href": "/Members/4859/Contact",
                  "method": "GET"
                }
              ]
            },
            "representation": {
              "membershipFrom": "Ynys Môn",
              "membershipFromId": 3875,
              "house": 1,
              "membershipStartDate": "2019-12-12T00:00:00",
              "membershipEndDate": null,
              "membershipEndReason": null,
              "membershipEndReasonNotes": null,
              "membershipEndReasonId": null,
              "membershipStatus": null
            }
          }
        },
        "links": [
          {
            "rel": "self",
            "href": "/Constituency/3875/Ynys Môn",
            "method": "GET"
          }
        ]
      },
      {
        "value": {
          "id": 3876,
          "name": "York Central",
          "startDate": "2010-05-06T00:00:00",
          "endDate": null,
          "currentRepresentation": {
            "member": {
              "value": {
                "id": 4471,
                "nameListAs": "Maskell, Rachael",
                "nameDisplayAs": "Rachael Maskell",
                "nameFullTitle": "Rachael Maskell MP",
                "nameAddressAs": "Rachael Maskell",
                "latestParty": {
                  "id": 15,
                  "name": "Labour (Co-op)",
                  "abbreviation": "Lab",
                  "backgroundColour": "ff0000",
                  "foregroundColour": "ffffff",
                  "isLordsMainParty": true,
                  "isLordsSpiritualParty": false,
                  "governmentType": 3,
                  "isIndependentParty": false
                },
                "gender": "F",
                "latestHouseMembership": {
                  "membershipFrom": "York Central",
                  "membershipFromId": 3876,
                  "house": 1,
                  "membershipStartDate": "2015-05-07T00:00:00",
                  "membershipEndDate": null,
                  "membershipEndReason": null,
                  "membershipEndReasonNotes": null,
                  "membershipEndReasonId": null,
                  "membershipStatus": {
                    "statusIsActive": true,
                    "statusDescription": "Current Member",
                    "statusNotes": null,
                    "statusId": 0,
                    "statusStartDate": "2019-12-12T00:00:00"
                  }
                },
                "thumbnailUrl": "https://members-api.parliament.uk/api/Members/4471/Thumbnail"
              },
              "links": [
                {
                  "rel": "self",
                  "href": "/Members/4471",
                  "method": "GET"
                },
                {
                  "rel": "overview",
                  "href": "/Members/4471",
                  "method": "GET"
                },
                {
                  "rel": "synopsis",
                  "href": "/Members/4471/Synopsis",
                  "method": "GET"
                },
                {
                  "rel": "contactInformation",
                  "href": "/Members/4471/Contact",
                  "method": "GET"
                }
              ]
            },
            "representation": {
              "membershipFrom": "York Central",
              "membershipFromId": 3876,
              "house": 1,
              "membershipStartDate": "2015-05-07T00:00:00",
              "membershipEndDate": null,
              "membershipEndReason": null,
              "membershipEndReasonNotes": null,
              "membershipEndReasonId": null,
              "membershipStatus": null
            }
          }
        },
        "links": [
          {
            "rel": "self",
            "href": "/Constituency/3876/York Central",
            "method": "GET"
          }
        ]
      },
      {
        "value": {
          "id": 3877,
          "name": "York Outer",
          "startDate": "2010-05-06T00:00:00",
          "endDate": null,
          "currentRepresentation": {
            "member": {
              "value": {
                "id": 4079,
                "nameListAs": "Sturdy, Julian",
                "nameDisplayAs": "Julian Sturdy",
                "nameFullTitle": "Julian Sturdy MP",
                "nameAddressAs": "Julian Sturdy",
                "latestParty": {
                  "id": 4,
                  "name": "Conservative",
                  "abbreviation": "Con",
                  "backgroundColour": "0000ff",
                  "foregroundColour": "ffffff",
                  "isLordsMainParty": true,
                  "isLordsSpiritualParty": true,
                  "governmentType": 0,
                  "isIndependentParty": false
                },
                "gender": "M",
                "latestHouseMembership": {
                  "membershipFrom": "York Outer",
                  "membershipFromId": 3877,
                  "house": 1,
                  "membershipStartDate": "2010-05-06T00:00:00",
                  "membershipEndDate": null,
                  "membershipEndReason": null,
                  "membershipEndReasonNotes": null,
                  "membershipEndReasonId": null,
                  "membershipStatus": {
                    "statusIsActive": true,
                    "statusDescription": "Current Member",
                    "statusNotes": null,
                    "statusId": 0,
                    "statusStartDate": "2019-12-12T00:00:00"
                  }
                },
                "thumbnailUrl": "https://members-api.parliament.uk/api/Members/4079/Thumbnail"
              },
              "links": [
                {
                  "rel": "self",
                  "href": "/Members/4079",
                  "method": "GET"
                },
                {
                  "rel": "overview",
                  "href": "/Members/4079",
                  "method": "GET"
                },
                {
                  "rel": "synopsis",
                  "href": "/Members/4079/Synopsis",
                  "method": "GET"
                },
                {
                  "rel": "contactInformation",
                  "href": "/Members/4079/Contact",
                  "method": "GET"
                }
              ]
            },
            "representation": {
              "membershipFrom": "York Outer",
              "membershipFromId": 3877,
              "house": 1,
              "membershipStartDate": "2010-05-06T00:00:00",
              "membershipEndDate": null,
              "membershipEndReason": null,
              "membershipEndReasonNotes": null,
              "membershipEndReasonId": null,
              "membershipStatus": null
            }
          }
        },
        "links": [
          {
            "rel": "self",
            "href": "/Constituency/3877/York Outer",
            "method": "GET"
          }
        ]
      },
      {
        "value": {
          "id": 3466,
          "name": "East Yorkshire",
          "startDate": "2010-05-06T00:00:00",
          "endDate": null,
          "currentRepresentation": {
            "member": {
              "value": {
                "id": 1200,
                "nameListAs": "Knight, Sir Greg",
                "nameDisplayAs": "Sir Greg Knight",
                "nameFullTitle": "Rt Hon Sir Greg Knight MP",
                "nameAddressAs": "Sir Greg",
                "latestParty": {
                  "id": 4,
                  "name": "Conservative",
                  "abbreviation": "Con",
                  "backgroundColour": "0000ff",
                  "foregroundColour": "ffffff",
                  "isLordsMainParty": true,
                  "isLordsSpiritualParty": true,
                  "governmentType": 0,
                  "isIndependentParty": false
                },
                "gender": "M",
                "latestHouseMembership": {
                  "membershipFrom": "East Yorkshire",
                  "membershipFromId": 3466,
                  "house": 1,
                  "membershipStartDate": "2001-06-07T00:00:00",
                  "membershipEndDate": null,
                  "membershipEndReason": null,
                  "membershipEndReasonNotes": null,
                  "membershipEndReasonId": null,
                  "membershipStatus": {
                    "statusIsActive": true,
                    "statusDescription": "Current Member",
                    "statusNotes": null,
                    "statusId": 0,
                    "statusStartDate": "2019-12-12T00:00:00"
                  }
                },
                "thumbnailUrl": "https://photos.dodspeople.com/photos/25553.jpg"
              },
              "links": [
                {
                  "rel": "self",
                  "href": "/Members/1200",
                  "method": "GET"
                },
                {
                  "rel": "overview",
                  "href": "/Members/1200",
                  "method": "GET"
                },
                {
                  "rel": "synopsis",
                  "href": "/Members/1200/Synopsis",
                  "method": "GET"
                },
                {
                  "rel": "contactInformation",
                  "href": "/Members/1200/Contact",
                  "method": "GET"
                }
              ]
            },
            "representation": {
              "membershipFrom": "East Yorkshire",
              "membershipFromId": 3466,
              "house": 1,
              "membershipStartDate": "2010-05-06T00:00:00",
              "membershipEndDate": null,
              "membershipEndReason": null,
              "membershipEndReasonNotes": null,
              "membershipEndReasonId": null,
              "membershipStatus": null
            }
          }
        },
        "links": [
          {
            "rel": "self",
            "href": "/Constituency/3466/East Yorkshire",
            "method": "GET"
          }
        ]
      }
    ]